[
{
  "tag":"S",
  "content":
  [
    {
      "tag":"PERSON",
      "content":
      [
        ["Zoe","NNP","zoe"]
      ]
    },
    {
      "tag":"ORGANIZATION",
      "content":
      [
        ["Slusar","NNP","slus"]
      ]
    },
    ["(","NNP","("],
    ["born","NN","born"],
    ["August","NNP","august"],
    ["8","CD","8"],
    [",",",",","],
    ["1988","CD","1988"],
    [")",":",")"],
    ["is","VBZ","be"],
    ["a","DT","a"],
    ["Canadian-born","JJ","canadian-born"],
    ["actress/voice-over","NN","actress/voice-over"],
    ["artist","NN","art"],
    ["and","CC","and"],
    ["independent","JJ","independ"],
    ["filmmaker","NN","filmmak"],
    ["from","IN","from"],
    {
      "tag":"PERSON",
      "content":
      [
        ["Black","NNP","black"],
        ["Diamond","NNP","diamond"]
      ]
    },
    [",",",",","],
    {
      "tag":"PERSON",
      "content":
      [
        ["Alberta","NNP","albert"]
      ]
    },
    ["currently","RB","cur"],
    ["living","VBG","liv"],
    ["in","IN","in"],
    {
      "tag":"GPE",
      "content":
      [
        ["Dublin","NNP","dublin"]
      ]
    },
    [",",",",","],
    {
      "tag":"GPE",
      "content":
      [
        ["Ireland","NNP","ireland"]
      ]
    },
    [".",".","."]
  ]
},
{
  "tag":"S",
  "content":
  [
    ["She","PRP","She"],
    ["is","VBZ","be"],
    ["well-known","JJ","well-known"],
    ["for","IN","for"],
    ["playing","NN","play"],
    {
      "tag":"PERSON",
      "content":
      [
        ["Kid","NNP","kid"],
        ["Goku","NNP","goku"]
      ]
    },
    ["in","IN","in"],
    ["the","DT","the"],
    {
      "tag":"GPE",
      "content":
      [
        ["Canadian","JJ","canad"]
      ]
    },
    ["dubs","NNS","dub"],
    ["of","IN","of"],
    ["the","DT","the"],
    {
      "tag":"ORGANIZATION",
      "content":
      [
        ["Dragon","NNP","dragon"],
        ["Ball","NNP","bal"]
      ]
    },
    ["anime","NN","anim"],
    ["and","CC","and"],
    {
      "tag":"PERSON",
      "content":
      [
        ["Dragon","NNP","dragon"],
        ["Ball","NNP","bal"],
        ["GT","NNP","gt"]
      ]
    },
    ["done","NN","don"],
    ["by","IN","by"],
    {
      "tag":"PERSON",
      "content":
      [
        ["Blue","NNP","blu"],
        ["Water","NNP","wat"],
        ["Studios","NNP","studio"]
      ]
    },
    [".",".","."]
  ]
},
{
  "tag":"S",
  "content":
  [
    ["These","DT","These"],
    ["dubs","NNS","dub"],
    ["were","VBD","be"],
    ["aired","VBN","air"],
    ["in","IN","in"],
    {
      "tag":"GPE",
      "content":
      [
        ["Canada","NNP","canad"]
      ]
    },
    ["and","CC","and"],
    ["the","DT","the"],
    {
      "tag":"ORGANIZATION",
      "content":
      [
        ["United","NNP","unit"],
        ["Kingdom","NNP","kingdom"]
      ]
    },
    [".",".","."]
  ]
},
{
  "tag":"S",
  "content":
  [
    ["She","PRP","She"],
    ["also","RB","also"],
    ["provided","VBD","provid"],
    ["the","DT","the"],
    ["voice","NN","voic"],
    ["of","IN","of"],
    {
      "tag":"ORGANIZATION",
      "content":
      [
        ["Sai","NNP","sai"],
        ["Saici","NNP","saic"]
      ]
    },
    ["in","IN","in"],
    {
      "tag":"GPE",
      "content":
      [
        ["Mobile","NNP","mobl"]
      ]
    },
    ["Fighter","NNP","fight"],
    ["G","NNP","g"],
    {
      "tag":"PERSON",
      "content":
      [
        ["Gundam","NNP","gundam"]
      ]
    },
    [",",",",","],
    ["as","IN","as"],
    ["well","RB","wel"],
    ["as","IN","as"],
    ["the","DT","the"],
    ["video","NN","video"],
    ["game","NN","gam"],
    {
      "tag":"PERSON",
      "content":
      [
        ["Gundam","NNP","gundam"]
      ]
    },
    [":",":",":"],
    {
      "tag":"PERSON",
      "content":
      [
        ["Battle","NNP","battl"],
        ["Assault","NNP","assault"]
      ]
    },
    ["2","CD","2"],
    [".",".","."]
  ]
},
{
  "tag":"S",
  "content":
  [
    {
      "tag":"PERSON",
      "content":
      [
        ["Slusar","NNP","slus"]
      ]
    },
    ["also","RB","also"],
    ["voiced","VBD","voic"],
    ["the","DT","the"],
    ["character","NN","charact"],
    ["Jungo","NNP","jungo"],
    ["in","IN","in"],
    ["the","DT","the"],
    {
      "tag":"GPE",
      "content":
      [
        ["Flemish","NNP","flem"]
      ]
    },
    ["created","VBD","cre"],
    ["series","NNS","sery"],
    [",",",",","],
    ["as","IN","as"],
    ["well","RB","wel"],
    {
      "tag":"ORGANIZATION",
      "content":
      [
        ["Lillybell","NNP","lillybel"]
      ]
    },
    ["in","IN","in"],
    ["the","DT","the"],
    ["series","NN","sery"],
    {
      "tag":"PERSON",
      "content":
      [
        ["Swift","NNP","swift"]
      ]
    },
    ["and","CC","and"],
    ["the","DT","the"],
    {
      "tag":"ORGANIZATION",
      "content":
      [
        ["Little","NNP","littl"],
        ["Circus","NNP","circ"]
      ]
    },
    [".",".","."]
  ]
},
{
  "tag":"S",
  "content":
  [
    {
      "tag":"GPE",
      "content":
      [
        ["Slusar","NNP","slus"]
      ]
    },
    ["along","IN","along"],
    ["with","IN","with"],
    {
      "tag":"PERSON",
      "content":
      [
        ["Bailey","NNP","bailey"],
        ["Kerluke","NNP","kerluk"]
      ]
    },
    ["founded","VBD","found"],
    ["untitled","VBN","untitl"],
    ["Productions","NNS","produc"],
    ["in","IN","in"],
    ["2006","CD","2006"],
    [",",",",","],
    ["to","TO","to"],
    ["produce","VB","produc"],
    ["independent","JJ","independ"],
    ["films","NNS","film"],
    [".",".","."]
  ]
},
{
  "tag":"S",
  "content":
  [
    ["Among","IN","Among"],
    ["their","PRP$","their"],
    ["works","NNS","work"],
    ["is","VBZ","be"],
    ["the","DT","the"],
    ["short","JJ","short"],
    ["film","NN","film"],
    {
      "tag":"PERSON",
      "content":
      [
        ["Paper","NNP","pap"],
        ["Beats","NNP","beat"],
        ["Rock","NNP","rock"]
      ]
    },
    ["which","WDT","which"],
    ["won","VBD","win"],
    ["1st","CD","1st"],
    ["place","NN","plac"],
    {
      "tag":"PERSON",
      "content":
      [
        ["Peoples","NNS","peopl"],
        ["Choice","NNP","cho"],
        ["Award","NNP","award"]
      ]
    },
    ["at","IN","at"],
    ["the","DT","the"],
    ["2009","CD","2009"],
    ["24","CD","24"],
    ["hour","NN","hour"],
    {
      "tag":"PERSON",
      "content":
      [
        ["Film","NNP","film"],
        ["Race","NNP","rac"]
      ]
    },
    ["competition","NN","competit"],
    ["in","IN","in"],
    {
      "tag":"GPE",
      "content":
      [
        ["Calgary","NNP","calg"]
      ]
    },
    [".",".","."]
  ]
},
{
  "tag":"S",
  "content":
  [
    ["In","IN","In"],
    ["2009","CD","2009"],
    ["they","PRP","they"],
    ["produce","VBP","produc"],
    ["their","PRP$","their"],
    ["first","JJ","first"],
    ["feature-length","JJ","feature-length"],
    ["film","NN","film"],
    {
      "tag":"PERSON",
      "content":
      [
        ["Summer","NNP","sum"],
        ["School","NNP","school"]
      ]
    },
    [".",".","."]
  ]
},
{
  "tag":"S",
  "content":
  [
    {
      "tag":"PERSON",
      "content":
      [
        ["Zoe","NNP","zoe"]
      ]
    },
    {
      "tag":"ORGANIZATION",
      "content":
      [
        ["Slusar","NNP","slus"]
      ]
    },
    ["and","CC","and"],
    {
      "tag":"PERSON",
      "content":
      [
        ["Kerluke","NNP","kerluk"]
      ]
    },
    ["'s","POS","'s"],
    ["most","JJS","most"],
    ["recent","JJ","rec"],
    ["project","NN","project"],
    ["is","VBZ","be"],
    ["the","DT","the"],
    ["short","JJ","short"],
    ["film","NN","film"],
    {
      "tag":"PERSON",
      "content":
      [
        ["Black","NNP","black"],
        ["Coffee","NNP","coff"]
      ]
    },
    [",",",",","],
    ["which","WDT","which"],
    ["won","VBD","win"],
    ["the","DT","the"],
    {
      "tag":"ORGANIZATION",
      "content":
      [
        ["CBC","NNP","cbc"]
      ]
    },
    ["'s","POS","'s"],
    ["2010","CD","2010"],
    ["Calgary","NNP","calg"],
    ["Short","NNP","short"],
    ["Film","NNP","film"],
    ["Contest","NNP","contest"],
    [".",".","."]
  ]
},
{
  "tag":"S",
  "content":
  [
    ["==External","JJ","==external"],
    ["links==","NN","links=="],
    ["*","-NONE-","*"],
    ["*","-NONE-","*"]
  ]
}]