[
{
  tag:'S',
  content:
  [
    {
      tag:'PERSON',
      content:
      [
        ['Richard','NNP','richard']
      ]
    },
    {
      tag:'PERSON',
      content:
      [
        ['Edward','NNP','edward'],
        ['Wilson','NNP','wilson']
      ]
    },
    ['(','NNP','('],
    ['born','NN','born'],
    ['1941','CD','1941'],
    [')','CD',')'],
    ['is','VBZ','be'],
    ['an','DT','an'],
    {
      tag:'GPE',
      content:
      [
        ['American','JJ','am']
      ]
    },
    ['composer','NN','compos'],
    ['of','IN','of'],
    ['orchestral','JJ','orchest'],
    [',',',',','],
    ['operatic','JJ','op'],
    [',',',',','],
    ['instrumental','JJ','instru'],
    [',',',',','],
    ['and','CC','and'],
    ['chamber','NN','chamb'],
    ['music','NN','mus'],
    ['.','.','.']
  ]
},
{
  tag:'S',
  content:
  [
    {
      tag:'PERSON',
      content:
      [
        ['Wilson','NNP','wilson']
      ]
    },
    ['was','VBD','be'],
    ['born','VBN','bear'],
    ['in','IN','in'],
    {
      tag:'GPE',
      content:
      [
        ['Cleveland','NNP','cleveland']
      ]
    },
    [',',',',','],
    {
      tag:'GPE',
      content:
      [
        ['Ohio','NNP','ohio']
      ]
    },
    [',',',',','],
    ['where','WRB','where'],
    ['he','PRP','he'],
    ['was','VBD','be'],
    ['at','IN','at'],
    ['a','DT','a'],
    ['young','JJ','young'],
    ['age','NN','ag'],
    ['drawn','VBN','draw'],
    ['to','TO','to'],
    ['the','DT','the'],
    ['concerts','NNS','concert'],
    ['of','IN','of'],
    {
      tag:'PERSON',
      content:
      [
        ['George','NNP','georg'],
        ['Szell','NNP','szel']
      ]
    },
    ['and','CC','and'],
    ['the','DT','the'],
    {
      tag:'ORGANIZATION',
      content:
      [
        ['Cleveland','NNP','cleveland'],
        ['Orchestra','NNP','orchestr']
      ]
    },
    ['.','.','.']
  ]
},
{
  tag:'S',
  content:
  [
    ['In','IN','In'],
    ['1963','CD','1963'],
    [',',',',','],
    {
      tag:'PERSON',
      content:
      [
        ['Wilson','NNP','wilson']
      ]
    },
    ['graduated','VBD','gradu'],
    ['magna','NN','magn'],
    ['cum','NN','cum'],
    ['laude','NN','laud'],
    ['and','CC','and'],
    {
      tag:'PERSON',
      content:
      [
        ['Phi','NNP','phi'],
        ['Beta','NNP','bet'],
        ['Kappa','NNP','kapp']
      ]
    },
    ['from','IN','from'],
    {
      tag:'ORGANIZATION',
      content:
      [
        ['Harvard','NNP','harvard'],
        ['University','NNP','univers']
      ]
    },
    [',',',',','],
    ['where','WRB','where'],
    ['he','PRP','he'],
    ['studied','VBD','study'],
    ['with','IN','with'],
    {
      tag:'PERSON',
      content:
      [
        ['Robert','NNP','robert'],
        ['Moevs','NNP','moev']
      ]
    },
    ['and','CC','and'],
    {
      tag:'PERSON',
      content:
      [
        ['Randall','NNP','randal'],
        ['Thompson','NNP','thompson']
      ]
    },
    ['.','.','.']
  ]
},
{
  tag:'S',
  content:
  [
    ['He','PRP','He'],
    ['later','JJ','lat'],
    ['received','VBD','receiv'],
    ['an','DT','an'],
    ['MA','NNP','ma'],
    ['from','IN','from'],
    {
      tag:'ORGANIZATION',
      content:
      [
        ['Rutgers','NNP','rutg'],
        ['University','NNP','univers']
      ]
    },
    ['.','.','.']
  ]
},
{
  tag:'S',
  content:
  [
    ['He','PRP','He'],
    ['is','VBZ','be'],
    ['currently','RB','cur'],
    {
      tag:'PERSON',
      content:
      [
        ['Mary','NNP','mary'],
        ['Conover','NNP','conov'],
        ['Mellon','NNP','mellon'],
        ['Professor','NNP','profess']
      ]
    },
    ['of','IN','of'],
    {
      tag:'PERSON',
      content:
      [
        ['Music','NNP','mus']
      ]
    },
    ['at','IN','at'],
    {
      tag:'ORGANIZATION',
      content:
      [
        ['Vassar','NNP','vass'],
        ['College','NNP','colleg']
      ]
    },
    [',',',',','],
    ['where','WRB','where'],
    ['he','PRP','he'],
    ['has','VBZ','hav'],
    ['taught','VBN','teach'],
    ['since','IN','since'],
    ['1966','CD','1966'],
    ['.','.','.']
  ]
},
{
  tag:'S',
  content:
  [
    ['Since','IN','Since'],
    ['1992','CD','1992'],
    ['he','PRP','he'],
    ['has','VBZ','hav'],
    ['been','VBN','be'],
    ['composer-in-residence','JJ','composer-in-residence'],
    ['with','IN','with'],
    ['the','DT','the'],
    {
      tag:'ORGANIZATION',
      content:
      [
        ['American','NNP','am'],
        ['Symphony','NNP','symphony'],
        ['Orchestra','NNP','orchestr']
      ]
    },
    ['.','.','.']
  ]
},
{
  tag:'S',
  content:
  [
    {
      tag:'PERSON',
      content:
      [
        ['Richard','NNP','richard']
      ]
    },
    {
      tag:'PERSON',
      content:
      [
        ['Wilson','NNP','wilson']
      ]
    },
    [''s','POS',''s'],
    ['compositions','NNS','composit'],
    ['are','VBP','be'],
    ['marked','VBN','mark'],
    ['by','IN','by'],
    ['a','DT','a'],
    ['stringent','NN','stringent'],
    ['yet','RB','yet'],
    ['lyrical','JJ','lyr'],
    ['atonality','NN','aton'],
    ['which','WDT','which'],
    ['often','RB','oft'],
    ['sets','VBZ','set'],
    ['him','PRP','him'],
    ['apart','RB','apart'],
    ['from','IN','from'],
    ['the','DT','the'],
    ['established','JJ','est'],
    ['schools','NNS','school'],
    ['of','IN','of'],
    ['modern','JJ','modern'],
    {
      tag:'GPE',
      content:
      [
        ['American','JJ','am']
      ]
    },
    ['music','NN','mus'],
    [':',':',':'],
    ['minimalism','NN','minim'],
    [',',',',','],
    ['twelve-tone','JJ','twelve-ton'],
    [',',',',','],
    ['neo-romanticism','JJ','neo-romanticism'],
    [',',',',','],
    ['and','CC','and'],
    ['avant-garde','JJ','avant-garde'],
    ['.','.','.']
  ]
},
{
  tag:'S',
  content:
  [
    ['Two','CD','Two'],
    ['of','IN','of'],
    ['his','PRP$','his'],
    ['works','NNS','work'],
    [',',',',','],
    {
      tag:'PERSON',
      content:
      [
        ['Eclogue','NNP','eclog']
      ]
    },
    ['for','IN','for'],
    ['solo','NN','solo'],
    ['piano','NN','piano'],
    [',',',',','],
    ['and','CC','and'],
    ['his','PRP$','his'],
    ['String','NNP','string'],
    ['Quartet','NNP','quartet'],
    ['No','NNP','no'],
    ['.','.','.']
  ]
},
{
  tag:'S',
  content:
  [
    ['3','LS','3'],
    [',',',',','],
    ['are','VBP','be'],
    ['considered','VBN','consid'],
    ['triumphs','NNS','triumph'],
    ['of','IN','of'],
    ['twentieth-century','JJ','twentieth-century'],
    {
      tag:'GPE',
      content:
      [
        ['American','JJ','am']
      ]
    },
    ['music','NN','mus'],
    ['.','.','.']
  ]
},
{
  tag:'S',
  content:
  [
    ['His','PRP$','His'],
    ['large-scale','JJ','large-scal'],
    ['orchestral','JJ','orchest'],
    ['works','NNS','work'],
    ['include','VBP','includ'],
    ['the','DT','the'],
    {
      tag:'ORGANIZATION',
      content:
      [
        ['Symphony','NNP','symphony'],
        ['No','NNP','no']
      ]
    },
    ['.','.','.']
  ]
},
{
  tag:'S',
  content:
  [
    ['1','LS','1'],
    [',',',',','],
    ['premiered','VBN','premy'],
    ['by','IN','by'],
    ['the','DT','the'],
    {
      tag:'ORGANIZATION',
      content:
      [
        ['Hudson','NNP','hudson'],
        ['Valley','NNP','valley'],
        ['Philharmonic','NNP','philharmon']
      ]
    },
    ['and','CC','and'],
    ['recorded','VBD','record'],
    ['by','IN','by'],
    ['the','DT','the'],
    {
      tag:'ORGANIZATION',
      content:
      [
        ['New','NNP','new'],
        ['Zealand','NNP','zealand'],
        ['Symphony','NNP','symphony'],
        ['Orchestra','NNP','orchestr']
      ]
    },
    [';',':',';'],
    ['Articulations','NNS','artic'],
    [',',',',','],
    ['written','VBN','writ'],
    ['for','IN','for'],
    ['the','DT','the'],
    {
      tag:'ORGANIZATION',
      content:
      [
        ['San','NNP','san'],
        ['Francisco','NNP','francisco'],
        ['Symphony','NNP','symphony']
      ]
    },
    ['.','.','.']
  ]
},
{
  tag:'S',
  content:
  [
    {
      tag:'PERSON',
      content:
      [
        ['Wilson','NNP','wilson']
      ]
    },
    ['is','VBZ','be'],
    ['also','RB','also'],
    ['the','DT','the'],
    ['composer','NN','compos'],
    ['of','IN','of'],
    ['the','DT','the'],
    ['one-act','JJ','one-act'],
    ['whimsical','JJ','whims'],
    ['opera','NN','oper'],
    [',',',',','],
    ['Æthelred','JJ','æthelred'],
    ['the','DT','the'],
    {
      tag:'ORGANIZATION',
      content:
      [
        ['Unready','NNP','unready']
      ]
    },
    [',',',',','],
    ['based','VBN','bas'],
    ['on','IN','on'],
    ['the','DT','the'],
    ['exploits','NNS','exploit'],
    ['of','IN','of'],
    ['the','DT','the'],
    ['ill-advised','JJ','ill-advised'],
    ['Saxon','NNP','saxon'],
    ['king','NN','king'],
    [',',',',','],
    {
      tag:'PERSON',
      content:
      [
        ['Ethelred','NNP','ethelr'],
        ['II','NNP','ii']
      ]
    },
    ['of','IN','of'],
    {
      tag:'GPE',
      content:
      [
        ['England','NNP','england']
      ]
    },
    ['.','.','.']
  ]
},
{
  tag:'S',
  content:
  [
    ['He','PRP','He'],
    ['classified','VBD','class'],
    ['the','DT','the'],
    ['three','CD','three'],
    ['types','NNS','typ'],
    ['of','IN','of'],
    ['irregular','JJ','irregul'],
    ['resolutions','NNS','resolv'],
    ['of','IN','of'],
    ['dominant','JJ','domin'],
    ['seventh','NN','seven'],
    ['chords','NNS','chord'],
    ['.','.','.']
  ]
},
{
  tag:'S',
  content:
  [
    ['==Critical','JJ','==critical'],
    ['response==','NN','response=='],
    {
      tag:'PERSON',
      content:
      [
        ['Wilson','NNP','wilson']
      ]
    },
    ['has','VBZ','hav'],
    ['been','VBN','be'],
    ['praised','VBN','pra'],
    ['by','IN','by'],
    ['21st','CD','21st'],
    {
      tag:'ORGANIZATION',
      content:
      [
        ['Century','NNP','century'],
        ['Music','NNP','mus']
      ]
    },
    ['as','IN','as'],
    ['a','DT','a'],
    ['``','``','``'],
    ['splendidly','RB','splendidly'],
    ['talented','VBN','tal'],
    ['and','CC','and'],
    ['highly','RB','high'],
    ['accomplished','VBD','accompl'],
    ['composer','NN','compos'],
    ['whose','WP$','whose'],
    ['music','NN','mus'],
    ['rewards','NNS','reward'],
    ['seeking','VBG','seek'],
    ['out','RP','out'],
    ['''','''',''''],
    ['and','CC','and'],
    ['by','IN','by'],
    ['the','DT','the'],
    {
      tag:'GPE',
      content:
      [
        ['New','NNP','new'],
        ['York','NNP','york']
      ]
    },
    ['Sun','NNP','sun'],
    ['as','IN','as'],
    ['``','``','``'],
    ['possessed','VBN','possess'],
    ['of','IN','of'],
    ['a','DT','a'],
    ['hard-won','JJ','hard-won'],
    ['idiom','NN','idiom'],
    ['that','WDT','that'],
    ['has','VBZ','hav'],
    ['grown','VBN','grow'],
    ['and','CC','and'],
    ['developed','VBD','develop'],
    ['over','RP','over'],
    ['the','DT','the'],
    ['years','NNS','year'],
    ['into','IN','into'],
    ['a','DT','a'],
    ['probing','JJ','prob'],
    ['blend','NN','blend'],
    ['of','IN','of'],
    ['wit','NN','wit'],
    [',',',',','],
    ['classic','JJ','class'],
    ['form','NN','form'],
    [',',',',','],
    ['modern','JJ','modern'],
    ['harmony','NN','harmony'],
    [',',',',','],
    ['and','CC','and'],
    ['impressionistic','JJ','impress'],
    ['color','NN','col'],
    ['.','.','.']
  ]
},
{
  tag:'S',
  content:
  [
    ['``','``','``'],
    ['The','DT','The'],
    {
      tag:'ORGANIZATION',
      content:
      [
        ['New','NNP','new'],
        ['Yorker','NNP','york']
      ]
    },
    ['has','VBZ','hav'],
    ['called','VBN','cal'],
    ['his','PRP$','his'],
    ['String','NNP','string'],
    ['Quartet','NNP','quartet'],
    ['No','NNP','no'],
    ['.','.','.']
  ]
},
{
  tag:'S',
  content:
  [
    ['3','LS','3'],
    ['a','DT','a'],
    ['``','``','``'],
    ['richly','RB','rich'],
    ['wrought','JJ','wrought'],
    ['and','CC','and'],
    ['unusual','JJ','unus'],
    ['composition','NN','composit'],
    [',',',',','],
    ['''','''',''''],
    ['[',':','['],
    ['http','NN','http'],
    [':',':',':'],
    ['//faculty.vassar.edu/riwilson/compositions/StringQuartetNo_3.pdf','JJ','//faculty.vassar.edu/riwilson/compositions/stringquartetno_3.pdf'],
    [']','NN',']'],
    ['while','IN','while'],
    ['the','DT','the'],
    {
      tag:'GPE',
      content:
      [
        ['New','NNP','new'],
        ['York','NNP','york'],
        ['Times','NNP','tim']
      ]
    },
    ['has','VBZ','hav'],
    ['deemed','VBN','deem'],
    ['it','PRP','it'],
    ['``','``','``'],
    ['a','DT','a'],
    ['work','NN','work'],
    ['of','IN','of'],
    ['substance','NN','subst'],
    ['and','CC','and'],
    ['expressivity','NN','express'],
    ['...',':','...'],
    ['[',':','['],
    ['that','IN','that'],
    [']','CD',']'],
    ['merits','NNS','merit'],
    ['a','DT','a'],
    ['place','NN','plac'],
    ['in','IN','in'],
    ['the','DT','the'],
    ['active','JJ','act'],
    ['repertory','NN','repert'],
    ['.','.','.']
  ]
},
{
  tag:'S',
  content:
  [
    ['``','``','``'],
    ['In','IN','In'],
    ['a','DT','a'],
    ['review','NN','review'],
    ['of','IN','of'],
    ['a','DT','a'],
    ['recent','JJ','rec'],
    ['concert','NN','concert'],
    [',',',',','],
    {
      tag:'PERSON',
      content:
      [
        ['Bernard','NNP','bernard'],
        ['Holland','NNP','holland']
      ]
    },
    ['of','IN','of'],
    ['the','DT','the'],
    {
      tag:'GPE',
      content:
      [
        ['New','NNP','new'],
        ['York','NNP','york'],
        ['Times','NNP','tim']
      ]
    },
    ['wrote','VBD','writ'],
    [',',',',','],
    ['``','``','``'],
    {
      tag:'PERSON',
      content:
      [
        ['Richard','NNP','richard'],
        ['Wilson','NNP','wilson']
      ]
    },
    [''s','POS',''s'],
    {
      tag:'PERSON',
      content:
      [
        ['Diablerie','NNP','diablery']
      ]
    },
    ['[','NNP','['],
    ['http','NN','http'],
    [':',':',':'],
    ['//faculty.vassar.edu/riwilson/compositions/Diablerie.pdf','JJ','//faculty.vassar.edu/riwilson/compositions/diablerie.pdf'],
    [']','NN',']'],
    ['stood','NN','stood'],
    ['apart','NN','apart'],
    [',',',',','],
    ['contemporary','JJ','contemp'],
    ['in','IN','in'],
    ['its','PRP$','its'],
    ['vocabulary','JJ','vocab'],
    ['and','CC','and'],
    ['grammar','NN','gramm'],
    ['but','CC','but'],
    ['pursuing','VBG','pursu'],
    ['always','RB','alway'],
    ['the','DT','the'],
    ['long','JJ','long'],
    [',',',',','],
    ['lyrical','JJ','lyr'],
    [',',',',','],
    ['sometimes','RB','sometim'],
    ['operatically','RB','op'],
    ['expressive','JJ','express'],
    ['lines','NNS','lin'],
    ['and','CC','and'],
    ['Romantic-era','NNP','romantic-era'],
    ['concerto','NN','concerto'],
    ['writing','VBG','writ'],
    ['.','.','.']
  ]
},
{
  tag:'S',
  content:
  [
    ['``','``','``'],
    ['A','DT','A'],
    ['review','NN','review'],
    ['in','IN','in'],
    {
      tag:'GPE',
      content:
      [
        ['Strings','NNP','strings']
      ]
    },
    {
      tag:'PERSON',
      content:
      [
        ['Magazine','NNP','magazin']
      ]
    },
    ['heralded','VBD','herald'],
    ['the','DT','the'],
    ['same','JJ','sam'],
    ['composition','NN','composit'],
    ['as','IN','as'],
    ['``','``','``'],
    ['another','DT','another'],
    ['gem','NN','gem'],
    ['in','IN','in'],
    {
      tag:'GPE',
      content:
      [
        ['Wilson','NNP','wilson']
      ]
    },
    [''s','POS',''s'],
    ['mélange','JJ','mélange'],
    ['of','IN','of'],
    ['solo','NN','solo'],
    ['pieces','NNS','piec'],
    ['.','.','.']
  ]
},
{
  tag:'S',
  content:
  [
    ['``','``','``'],
    ['==Honors==','JJ','==honors=='],
    ['In','IN','In'],
    ['2004','CD','2004'],
    {
      tag:'PERSON',
      content:
      [
        ['Wilson','NNP','wilson']
      ]
    },
    ['received','VBD','receiv'],
    ['an','DT','an'],
    {
      tag:'PERSON',
      content:
      [
        ['Academy','NNP','academy'],
        ['Award','NNP','award']
      ]
    },
    ['in','IN','in'],
    {
      tag:'GPE',
      content:
      [
        ['Music','NNP','mus']
      ]
    },
    ['from','IN','from'],
    ['the','DT','the'],
    {
      tag:'ORGANIZATION',
      content:
      [
        ['American','NNP','am'],
        ['Academy','NNP','academy']
      ]
    },
    ['of','IN','of'],
    {
      tag:'ORGANIZATION',
      content:
      [
        ['Arts','NNPS','art']
      ]
    },
    ['and','CC','and'],
    {
      tag:'ORGANIZATION',
      content:
      [
        ['Letters','NNP','let']
      ]
    },
    [',',',',','],
    ['from','IN','from'],
    ['which','WDT','which'],
    ['he','PRP','he'],
    ['previously','RB','prevy'],
    ['received','VBD','receiv'],
    ['the','DT','the'],
    {
      tag:'ORGANIZATION',
      content:
      [
        ['Walter','NNP','walt'],
        ['Hinrichsen','NNP','hinrichs'],
        ['Award','NNP','award']
      ]
    },
    ['.','.','.']
  ]
},
{
  tag:'S',
  content:
  [
    ['Other','JJ','oth'],
    ['recent','JJ','rec'],
    ['honors','NNS','hon'],
    ['include','VBP','includ'],
    [':',':',':'],
    ['the','DT','the'],
    {
      tag:'FACILITY',
      content:
      [
        ['Stoeger','NNP','stoeg'],
        ['Prize','NNP','priz']
      ]
    },
    ['from','IN','from'],
    ['the','DT','the'],
    ['Chamber','NNP','chamb'],
    {
      tag:'PERSON',
      content:
      [
        ['Music','NNP','mus'],
        ['Society','NNP','socy']
      ]
    },
    ['of','IN','of'],
    {
      tag:'PERSON',
      content:
      [
        ['Lincoln','NNP','lincoln'],
        ['Center','NNP','cent']
      ]
    },
    [';',':',';'],
    ['a','DT','a'],
    {
      tag:'ORGANIZATION',
      content:
      [
        ['Guggenheim','NNP','guggenheim'],
        ['Fellowship','NNP','fellow']
      ]
    },
    [';',':',';'],
    ['the','DT','the'],
    {
      tag:'ORGANIZATION',
      content:
      [
        ['Cleveland','NNP','cleveland'],
        ['Arts','NNP','art'],
        ['Prize','NNP','priz']
      ]
    },
    [';',':',';'],
    ['residencies','NNS','resid'],
    ['at','IN','at'],
    ['the','DT','the'],
    {
      tag:'ORGANIZATION',
      content:
      [
        ['Bogliasco','NNP','bogliasco'],
        ['Foundation','NNP','found']
      ]
    },
    ['and','CC','and'],
    ['the','DT','the'],
    {
      tag:'ORGANIZATION',
      content:
      [
        ['Bellagio','NNP','bellagio'],
        ['Center','NNP','cent']
      ]
    },
    ['in','IN','in'],
    {
      tag:'GPE',
      content:
      [
        ['Italy','NNP','ita']
      ]
    },
    [';',':',';'],
    ['and','CC','and'],
    ['commissions','NNS','commit'],
    ['from','IN','from'],
    ['the','DT','the'],
    ['Koussevitsky','NNP','koussevitsky'],
    ['and','CC','and'],
    {
      tag:'ORGANIZATION',
      content:
      [
        ['Fromm','NNP','from'],
        ['Foundations','NNPS','found']
      ]
    },
    [',',',',','],
    {
      tag:'PERSON',
      content:
      [
        ['Chamber','NNP','chamb'],
        ['Music','NNP','mus'],
        ['America','NNP','americ']
      ]
    },
    [',',',',','],
    ['the','DT','the'],
    {
      tag:'ORGANIZATION',
      content:
      [
        ['Walter','NNP','walt']
      ]
    },
    ['W.','NNP','w.'],
    ['Naumburg','NNP','naumburg'],
    ['Foundation','NNP','found'],
    [',',',',','],
    ['the','DT','the'],
    ['Library','NNP','libr'],
    ['of','IN','of'],
    {
      tag:'ORGANIZATION',
      content:
      [
        ['Congress','NNP','congress']
      ]
    },
    [',',',',','],
    ['and','CC','and'],
    ['the','DT','the'],
    {
      tag:'ORGANIZATION',
      content:
      [
        ['San','NNP','san'],
        ['Francisco','NNP','francisco'],
        ['Symphony','NNP','symphony']
      ]
    },
    ['.','.','.']
  ]
},
{
  tag:'S',
  content:
  [
    ['==Works','NNS','==works'],
    ['list==','VBP','list=='],
    ['===',':','==='],
    ['Orchestra===','-NONE-','Orchestra==='],
    ['*','-NONE-','*'],
    ['(','VB','('],
    ['1970','CD','1970'],
    [')','CD',')'],
    ['Initiation','NNP','in'],
    ['[','NNP','['],
    ['http','NN','http'],
    [':',':',':'],
    ['//faculty.vassar.edu/riwilson/compositions/Initiation.pdf','JJ','//faculty.vassar.edu/riwilson/compositions/initiation.pdf'],
    [']','NN',']'],
    ['*','-NONE-','*'],
    ['(',':','('],
    ['1979','CD','1979'],
    [')','CD',')'],
    {
      tag:'PERSON',
      content:
      [
        ['Violin','NNP','violin'],
        ['Concerto','NNP','concerto']
      ]
    },
    ['[','NNP','['],
    ['http','NN','http'],
    [':',':',':'],
    ['//faculty.vassar.edu/riwilson/compositions/ViolinConcerto.pdf','JJ','//faculty.vassar.edu/riwilson/compositions/violinconcerto.pdf'],
    [']','NN',']'],
    ['*','-NONE-','*'],
    ['(',':','('],
    ['1983','CD','1983'],
    [')','CD',')'],
    ['Bassoon','NNP','bassoon'],
    ['Concerto','NNP','concerto'],
    ['[','NNP','['],
    ['http','NN','http'],
    [':',':',':'],
    ['//faculty.vassar.edu/riwilson/compositions/BassoonConcerto.pdf','JJ','//faculty.vassar.edu/riwilson/compositions/bassoonconcerto.pdf'],
    [']','NN',']'],
    ['*','-NONE-','*'],
    ['(',':','('],
    ['1984','CD','1984'],
    [')','CD',')'],
    ['Symphony','NNP','symphony'],
    ['No','NNP','no'],
    ['.','.','.']
  ]
},
{
  tag:'S',
  content:
  [
    ['1','LS','1'],
    ['[','``','['],
    ['http','NN','http'],
    [':',':',':'],
    ['//faculty.vassar.edu/riwilson/compositions/SymphonyNo_1.pdf','JJ','//faculty.vassar.edu/riwilson/compositions/symphonyno_1.pdf'],
    [']','NN',']'],
    ['*','-NONE-','*'],
    ['(',':','('],
    ['1986','CD','1986'],
    [')','CD',')'],
    ['Symphony','NNP','symphony'],
    ['No','NNP','no'],
    ['.','.','.']
  ]
},
{
  tag:'S',
  content:
  [
    ['2','LS','2'],
    ['[','``','['],
    ['http','NN','http'],
    [':',':',':'],
    ['//faculty.vassar.edu/riwilson/compositions/SymphonyNo_2.pdf','JJ','//faculty.vassar.edu/riwilson/compositions/symphonyno_2.pdf'],
    [']','NN',']'],
    ['*','-NONE-','*'],
    ['(',':','('],
    ['1991','CD','1991'],
    [')','CD',')'],
    {
      tag:'PERSON',
      content:
      [
        ['Piano','NNP','piano'],
        ['Concerto','NNP','concerto']
      ]
    },
    ['[','NNP','['],
    ['http','NN','http'],
    [':',':',':'],
    ['//faculty.vassar.edu/riwilson/compositions/TripleConcerto.pdf','JJ','//faculty.vassar.edu/riwilson/compositions/tripleconcerto.pdf'],
    [']','NN',']'],
    ['*','-NONE-','*'],
    ['(',':','('],
    ['1991','CD','1991'],
    [')','CD',')'],
    ['Articulations','NNS','artic'],
    ['[',':','['],
    ['http','NN','http'],
    [':',':',':'],
    ['//faculty.vassar.edu/riwilson/compositions/Articulations.pdf','JJ','//faculty.vassar.edu/riwilson/compositions/articulations.pdf'],
    [']','NN',']'],
    ['*','-NONE-','*'],
    ['(',':','('],
    ['1994','CD','1994'],
    [')','CD',')'],
    ['Agitations','NNS','agit'],
    ['[',':','['],
    ['http','NN','http'],
    [':',':',':'],
    ['//faculty.vassar.edu/riwilson/compositions/Agitations.pdf','JJ','//faculty.vassar.edu/riwilson/compositions/agitations.pdf'],
    [']','NN',']'],
    ['*','-NONE-','*'],
    ['(',':','('],
    ['1994','CD','1994'],
    [')','CD',')'],
    ['Triple','NNP','tripl'],
    ['Concerto','NNP','concerto'],
    ['[','NNP','['],
    ['http','NN','http'],
    [':',':',':'],
    ['//faculty.vassar.edu/riwilson/compositions/TripleConcerto.pdf','JJ','//faculty.vassar.edu/riwilson/compositions/tripleconcerto.pdf'],
    [']','NN',']'],
    ['*','-NONE-','*'],
    ['(',':','('],
    ['1995','CD','1995'],
    [')','CD',')'],
    ['Pamietam','NNP','pamietam'],
    ['[','NNP','['],
    ['http','NN','http'],
    [':',':',':'],
    ['//faculty.vassar.edu/riwilson/compositions/Pamietam.pdf','JJ','//faculty.vassar.edu/riwilson/compositions/pamietam.pdf'],
    [']','NN',']'],
    ['*','-NONE-','*'],
    ['(',':','('],
    ['1997','CD','1997'],
    [')','CD',')'],
    ['A','DT','A'],
    {
      tag:'GPE',
      content:
      [
        ['Child','NNP','child']
      ]
    },
    [''s','POS',''s'],
    {
      tag:'GPE',
      content:
      [
        ['London','NNP','london']
      ]
    },
    ['[','NN','['],
    ['http','NN','http'],
    [':',':',':'],
    ['//faculty.vassar.edu/riwilson/compositions/A','JJ','//faculty.vassar.edu/riwilson/compositions/a'],
    ['%','NN','%'],
    ['20Child','CD','20Child'],
    ['%','NN','%'],
    ['27s','CD','27s'],
    ['%','NN','%'],
    ['20London','CD','20London'],
    ['%','NN','%'],
    ['20orchestra.pdf','CD','20orchestra.pdf'],
    [']','CD',']'],
    ['*','-NONE-','*'],
    ['(',':','('],
    ['1999','CD','1999'],
    [')','CD',')'],
    ['Intimations','NNS','intim'],
    ['[',':','['],
    ['http','NN','http'],
    [':',':',':'],
    ['//faculty.vassar.edu/riwilson/compositions/Intimations.pdf','JJ','//faculty.vassar.edu/riwilson/compositions/intimations.pdf'],
    [']','NN',']'],
    ['*','-NONE-','*'],
    ['(',':','('],
    ['2003','CD','2003'],
    [')','CD',')'],
    ['Peregrinations','NNS','peregrin'],
    ['[',':','['],
    ['http','NN','http'],
    [':',':',':'],
    ['//faculty.vassar.edu/riwilson/compositions/Peregrinations.pdf','JJ','//faculty.vassar.edu/riwilson/compositions/peregrinations.pdf'],
    [']','NN',']'],
    ['*','-NONE-','*'],
    ['(',':','('],
    ['2003','CD','2003'],
    [')','CD',')'],
    ['Silhouette','NNP','silhouet'],
    ['with','IN','with'],
    {
      tag:'PERSON',
      content:
      [
        ['Revelry','NNP','revelry']
      ]
    },
    ['[','NNP','['],
    ['http','NN','http'],
    [':',':',':'],
    ['//faculty.vassar.edu/riwilson/compositions/Silhouette','JJ','//faculty.vassar.edu/riwilson/compositions/silhouette'],
    ['%','NN','%'],
    ['20with','CD','20with'],
    ['%','NN','%'],
    ['20Revelry.pdf','CD','20Revelry.pdf'],
    [']','CD',']'],
    ['*','-NONE-','*'],
    ['(',':','('],
    ['2004','CD','2004'],
    [')','CD',')'],
    ['Four','CD','Four'],
    ['Love','NNP','lov'],
    {
      tag:'PERSON',
      content:
      [
        ['Songs','NNP','song']
      ]
    },
    ['[','NNP','['],
    ['http','NN','http'],
    [':',':',':'],
    ['//faculty.vassar.edu/riwilson/compositions/Four','JJ','//faculty.vassar.edu/riwilson/compositions/four'],
    ['%','NN','%'],
    ['20Love','CD','20Love'],
    ['%','NN','%'],
    ['20Songs.pdf','CD','20Songs.pdf'],
    [']','CD',']'],
    ['*','-NONE-','*'],
    ['(',':','('],
    ['2006','CD','2006'],
    [')','CD',')'],
    ['Chamisha','NNP','chamish'],
    ['Tehillim','NNP','tehillim'],
    ['[','NNP','['],
    ['http','NN','http'],
    [':',':',':'],
    ['//faculty.vassar.edu/riwilson/compositions/Chamisha','JJ','//faculty.vassar.edu/riwilson/compositions/chamisha'],
    ['%','NN','%'],
    ['20Tehillim.pdf','CD','20Tehillim.pdf'],
    [']','CD',']'],
    ['*','-NONE-','*'],
    ['(',':','('],
    ['2008','CD','2008'],
    [')','CD',')'],
    ['The','DT','The'],
    {
      tag:'ORGANIZATION',
      content:
      [
        ['Cello','NNP','cello'],
        ['Has','NNP','has'],
        ['Many','NNP','many'],
        ['Secrets','NNPS','secret']
      ]
    },
    ['[','NNP','['],
    ['http','NN','http'],
    [':',':',':'],
    ['//faculty.vassar.edu/riwilson/compositions/The','JJ','//faculty.vassar.edu/riwilson/compositions/the'],
    ['%','NN','%'],
    ['20Cello','CD','20Cello'],
    ['%','NN','%'],
    ['20Has','CD','20Has'],
    ['%','NN','%'],
    ['20Many','CD','20Many'],
    ['%','NN','%'],
    ['20Secrets.pdf','CD','20Secrets.pdf'],
    [']','CD',']'],
    ['*','-NONE-','*'],
    ['(',':','('],
    ['2010','CD','2010'],
    [')','CD',')'],
    ['Symphony','NNP','symphony'],
    ['No','NNP','no'],
    ['.','.','.']
  ]
},
{
  tag:'S',
  content:
  [
    ['3','LS','3'],
    ['*','-NONE-','*'],
    ['(',':','('],
    ['2010','CD','2010'],
    [')','CD',')'],
    {
      tag:'FACILITY',
      content:
      [
        ['Soundcheck','NNP','soundcheck']
      ]
    },
    ['===Works','NNP','===works'],
    ['for','IN','for'],
    ['mixed','VBN','mix'],
    ['ensemble===','-NONE-','ensemble==='],
    ['*','-NONE-','*'],
    ['(','VB','('],
    ['1963','CD','1963'],
    [')','CD',')'],
    ['Suite','NNP','suit'],
    ['for','IN','for'],
    ['Five','CD','Five'],
    ['Players','NNPS','play'],
    ['[',':','['],
    ['http','NN','http'],
    [':',':',':'],
    ['//faculty.vassar.edu/riwilson/compositions/Suite','JJ','//faculty.vassar.edu/riwilson/compositions/suite'],
    ['%','NN','%'],
    ['20for','CD','20for'],
    ['%','NN','%'],
    ['20Five','CD','20Five'],
    ['%','NN','%'],
    ['20Players.pdf','CD','20Players.pdf'],
    [']','CD',']'],
    ['*','-NONE-','*'],
    ['(',':','('],
    ['1964','CD','1964'],
    [')','CD',')'],
    ['Trio','NNP','trio'],
    ['for','IN','for'],
    {
      tag:'PERSON',
      content:
      [
        ['Oboe','NNP','obo']
      ]
    },
    [',',',',','],
    {
      tag:'PERSON',
      content:
      [
        ['Violin','NNP','violin']
      ]
    },
    ['and','CC','and'],
    {
      tag:'PERSON',
      content:
      [
        ['Cello','NNP','cello']
      ]
    },
    ['[','NNP','['],
    ['http','NN','http'],
    [':',':',':'],
    ['//faculty.vassar.edu/riwilson/compositions/Trio','JJ','//faculty.vassar.edu/riwilson/compositions/trio'],
    ['%','NN','%'],
    ['20for','CD','20for'],
    ['%','NN','%'],
    ['20Oboe.pdf','CD','20Oboe.pdf'],
    [']','CD',']'],
    ['*','-NONE-','*'],
    ['(',':','('],
    ['1965','CD','1965'],
    [')','CD',')'],
    ['Fantasy','NNP','fantasy'],
    ['and','CC','and'],
    ['Variations','NNS','vary'],
    ['[',':','['],
    ['http','NN','http'],
    [':',':',':'],
    ['//faculty.vassar.edu/riwilson/compositions/Fantasy','JJ','//faculty.vassar.edu/riwilson/compositions/fantasy'],
    ['%','NN','%'],
    ['20and','CD','20and'],
    ['%','NN','%'],
    ['20Variations.pdf','CD','20Variations.pdf'],
    [']','CD',']'],
    ['*','-NONE-','*'],
    ['(',':','('],
    ['1967','CD','1967'],
    [')','CD',')'],
    {
      tag:'ORGANIZATION',
      content:
      [
        ['Concert','NNP','concert'],
        ['Piece','NNP','piec']
      ]
    },
    ['[','NNP','['],
    ['http','NN','http'],
    [':',':',':'],
    ['//faculty.vassar.edu/riwilson/compositions/ConcertPiece.pdf','JJ','//faculty.vassar.edu/riwilson/compositions/concertpiece.pdf'],
    [']','NN',']'],
    ['*','-NONE-','*'],
    ['(',':','('],
    ['1969','CD','1969'],
    [')','CD',')'],
    ['Music','NNP','mus'],
    ['for','IN','for'],
    {
      tag:'PERSON',
      content:
      [
        ['Violin','NNP','violin']
      ]
    },
    ['and','CC','and'],
    {
      tag:'PERSON',
      content:
      [
        ['Cello','NNP','cello']
      ]
    },
    ['[','NNP','['],
    ['http','NN','http'],
    [':',':',':'],
    ['//faculty.vassar.edu/riwilson/compositions/music','JJ','//faculty.vassar.edu/riwilson/compositions/music'],
    ['%','NN','%'],
    ['20for','CD','20for'],
    ['%','NN','%'],
    ['20violin','CD','20violin'],
    ['%','NN','%'],
    ['20and','CD','20and'],
    ['%','NN','%'],
    ['20cello.pdf','CD','20cello.pdf'],
    [']','CD',']'],
    ['*','-NONE-','*'],
    ['(',':','('],
    ['1969','CD','1969'],
    [')','CD',')'],
    ['Quartet','NNP','quartet'],
    ['for','IN','for'],
    {
      tag:'GPE',
      content:
      [
        ['Flutes','NNPS','flut']
      ]
    },
    [',',',',','],
    {
      tag:'PERSON',
      content:
      [
        ['Bass','NNP','bass']
      ]
    },
    [',',',',','],
    ['and','CC','and'],
    {
      tag:'ORGANIZATION',
      content:
      [
        ['Harpsichord','NNP','harpsichord']
      ]
    },
    ['[','NNP','['],
    ['http','NN','http'],
    [':',':',':'],
    ['//faculty.vassar.edu/riwilson/compositions/Quartet','JJ','//faculty.vassar.edu/riwilson/compositions/quartet'],
    ['%','NN','%'],
    ['20for','CD','20for'],
    ['%','NN','%'],
    ['20Flutes.pdf','CD','20Flutes.pdf'],
    [']','CD',']'],
    ['*','-NONE-','*'],
    ['(',':','('],
    ['1974','CD','1974'],
    [')','CD',')'],
    ['Wind','NNP','wind'],
    ['Quintet','NNP','quintet'],
    ['[','NNP','['],
    [']','NNP',']'],
    ['[','NNP','['],
    ['http','NN','http'],
    [':',':',':'],
    ['//faculty.vassar.edu/riwilson/compositions/Wind','JJ','//faculty.vassar.edu/riwilson/compositions/wind'],
    ['%','NN','%'],
    ['20Quintet.pdf','CD','20Quintet.pdf'],
    [']','CD',']'],
    ['*','-NONE-','*'],
    ['(',':','('],
    ['1977','CD','1977'],
    [')','CD',')'],
    ['Canzona','NNP','canzon'],
    ['[','NNP','['],
    ['http','NN','http'],
    [':',':',':'],
    ['//faculty.vassar.edu/riwilson/compositions/Canzona.pdf','JJ','//faculty.vassar.edu/riwilson/compositions/canzona.pdf'],
    [']','NN',']'],
    ['*','-NONE-','*'],
    ['(',':','('],
    ['1978','CD','1978'],
    [')','CD',')'],
    ['Serenade','NNP','serenad'],
    [':',':',':'],
    ['Variations','NNS','vary'],
    ['on','IN','on'],
    ['a','DT','a'],
    ['Simple','NNP','simpl'],
    ['March','NNP','march'],
    ['[','NNP','['],
    ['http','NN','http'],
    [':',':',':'],
    ['//faculty.vassar.edu/riwilson/compositions/Serenade.pdf','JJ','//faculty.vassar.edu/riwilson/compositions/serenade.pdf'],
    [']','NN',']'],
    ['*','-NONE-','*'],
    ['(',':','('],
    ['1979','CD','1979'],
    [')','CD',')'],
    ['Deux','NNP','deux'],
    ['pas','IN','pas'],
    ['de','IN','de'],
    {
      tag:'PERSON',
      content:
      [
        ['Trois','NNP','tro']
      ]
    },
    ['[','NNP','['],
    ['http','NN','http'],
    [':',':',':'],
    ['//faculty.vassar.edu/riwilson/compositions/Deux','JJ','//faculty.vassar.edu/riwilson/compositions/deux'],
    ['%','NN','%'],
    ['20Pas','CD','20Pas'],
    ['%','NN','%'],
    ['20de','CD','20de'],
    ['%','NN','%'],
    ['20Trois.pdf','CD','20Trois.pdf'],
    [']','CD',']'],
    ['*','-NONE-','*'],
    ['(',':','('],
    ['1980','CD','1980'],
    [')','CD',')'],
    ['Figuration','NNP','fig'],
    ['[','NNP','['],
    ['http','NN','http'],
    [':',':',':'],
    ['//faculty.vassar.edu/riwilson/compositions/Figuration.pdf','JJ','//faculty.vassar.edu/riwilson/compositions/figuration.pdf'],
    [']','NN',']'],
    ['*','-NONE-','*'],
    ['(',':','('],
    ['1981','CD','1981'],
    [')','CD',')'],
    ['Short','NNP','short'],
    ['Notice','NNP','not'],
    ['[','NNP','['],
    ['http','NN','http'],
    [':',':',':'],
    ['//faculty.vassar.edu/riwilson/compositions/Short','JJ','//faculty.vassar.edu/riwilson/compositions/short'],
    ['%','NN','%'],
    ['20Notice.pdf','CD','20Notice.pdf'],
    [']','CD',']'],
    ['*','-NONE-','*'],
    ['(',':','('],
    ['1981','CD','1981'],
    [')','CD',')'],
    ['Gnomics','NNP','gnom'],
    ['[','NNP','['],
    ['http','NN','http'],
    [':',':',':'],
    ['//faculty.vassar.edu/riwilson/compositions/Gnomics.pdf','JJ','//faculty.vassar.edu/riwilson/compositions/gnomics.pdf'],
    [']','NN',']'],
    ['*','-NONE-','*'],
    ['(',':','('],
    ['1982','CD','1982'],
    [')','CD',')'],
    ['Character','NNP','charact'],
    ['Studies','NNP','study'],
    ['[','NNP','['],
    ['http','NN','http'],
    [':',':',':'],
    ['//faculty.vassar.edu/riwilson/compositions/CharacterStudies.pdf','JJ','//faculty.vassar.edu/riwilson/compositions/characterstudies.pdf'],
    [']','NN',']'],
    ['*','-NONE-','*'],
    ['(',':','('],
    ['1982','CD','1982'],
    [')','CD',')'],
    ['Dithyramb','NNP','dithyramb'],
    ['[','NNP','['],
    ['http','NN','http'],
    [':',':',':'],
    ['//faculty.vassar.edu/riwilson/compositions/Dithyramb.pdf','JJ','//faculty.vassar.edu/riwilson/compositions/dithyramb.pdf'],
    [']','NN',']'],
    ['*','-NONE-','*'],
    ['(',':','('],
    ['1983','CD','1983'],
    [')','CD',')'],
    ['Suite','NNP','suit'],
    ['for','IN','for'],
    {
      tag:'GPE',
      content:
      [
        ['Winds','NNPS','wind']
      ]
    },
    ['[',':','['],
    ['http','NN','http'],
    [':',':',':'],
    ['//faculty.vassar.edu/riwilson/compositions/Suite','JJ','//faculty.vassar.edu/riwilson/compositions/suite'],
    ['%','NN','%'],
    ['20for','CD','20for'],
    ['%','NN','%'],
    ['20Winds.pdf','CD','20Winds.pdf'],
    [']','CD',']'],
    ['*','-NONE-','*'],
    ['(',':','('],
    ['1984','CD','1984'],
    [')','CD',')'],
    {
      tag:'PERSON',
      content:
      [
        ['Line','NNP','lin'],
        ['Drawings','NNP','draw']
      ]
    },
    ['[','NNP','['],
    ['http','NN','http'],
    [':',':',':'],
    ['//faculty.vassar.edu/riwilson/compositions/Line','JJ','//faculty.vassar.edu/riwilson/compositions/line'],
    ['%','NN','%'],
    ['20Drawings.pdf','CD','20Drawings.pdf'],
    [']','CD',']'],
    ['*','-NONE-','*'],
    ['(',':','('],
    ['1988','CD','1988'],
    [')','CD',')'],
    ['Contentions','NNS','cont'],
    ['[',':','['],
    ['http','NN','http'],
    [':',':',':'],
    ['//faculty.vassar.edu/riwilson/compositions/Contentions.pdf','JJ','//faculty.vassar.edu/riwilson/compositions/contentions.pdf'],
    [']','NN',']'],
    ['*','-NONE-','*'],
    ['(',':','('],
    ['1989','CD','1989'],
    [')','CD',')'],
    ['Sonata','NNP','sonat'],
    ['for','IN','for'],
    {
      tag:'PERSON',
      content:
      [
        ['Viola','NNP','viol']
      ]
    },
    ['and','CC','and'],
    {
      tag:'PERSON',
      content:
      [
        ['Piano','NNP','piano']
      ]
    },
    ['[','NNP','['],
    ['http','NN','http'],
    [':',':',':'],
    ['//faculty.vassar.edu/riwilson/compositions/ViolaSonata.pdf','JJ','//faculty.vassar.edu/riwilson/compositions/violasonata.pdf'],
    [']','NN',']'],
    ['*','-NONE-','*'],
    ['(',':','('],
    ['1990','CD','1990'],
    [')','CD',')'],
    ['Affirmations','NNS','affirm'],
    ['[',':','['],
    ['http','NN','http'],
    [':',':',':'],
    ['//faculty.vassar.edu/riwilson/compositions/Affirmations.pdf','JJ','//faculty.vassar.edu/riwilson/compositions/affirmations.pdf'],
    [']','NN',']'],
    ['*','-NONE-','*'],
    ['(',':','('],
    ['1996','CD','1996'],
    [')','CD',')'],
    ['Three','CD','Three'],
    ['Interludes','NNP','interlud'],
    ['for','IN','for'],
    {
      tag:'PERSON',
      content:
      [
        ['Violin','NNP','violin']
      ]
    },
    ['and','CC','and'],
    {
      tag:'PERSON',
      content:
      [
        ['Piano','NNP','piano']
      ]
    },
    ['[','NNP','['],
    ['http','NN','http'],
    [':',':',':'],
    ['//faculty.vassar.edu/riwilson/compositions/ThreeInterludes.pdf','JJ','//faculty.vassar.edu/riwilson/compositions/threeinterludes.pdf'],
    [']','NN',']'],
    ['*','-NONE-','*'],
    ['(',':','('],
    ['2000','CD','2000'],
    [')','CD',')'],
    ['Motivations','NNS','mot'],
    ['[',':','['],
    ['http','NN','http'],
    [':',':',':'],
    ['//faculty.vassar.edu/riwilson/compositions/Motivations.pdf','JJ','//faculty.vassar.edu/riwilson/compositions/motivations.pdf'],
    [']','NN',']'],
    ['*','-NONE-','*'],
    ['(',':','('],
    ['2003','CD','2003'],
    [')','CD',')'],
    {
      tag:'PERSON',
      content:
      [
        ['Piano','NNP','piano'],
        ['Trio','NNP','trio']
      ]
    },
    ['[','NNP','['],
    ['http','NN','http'],
    [':',':',':'],
    ['//faculty.vassar.edu/riwilson/compositions/Piano','JJ','//faculty.vassar.edu/riwilson/compositions/piano'],
    ['%','NN','%'],
    ['20Trio.pdf','CD','20Trio.pdf'],
    [']','CD',']'],
    ['*','-NONE-','*'],
    ['(',':','('],
    ['2005','CD','2005'],
    [')','CD',')'],
    {
      tag:'PERSON',
      content:
      [
        ['Brash','NNP','brash'],
        ['Attacks','NNP','attack']
      ]
    },
    ['[','NNP','['],
    ['http','NN','http'],
    [':',':',':'],
    ['//faculty.vassar.edu/riwilson/compositions/Brash','JJ','//faculty.vassar.edu/riwilson/compositions/brash'],
    ['%','NN','%'],
    ['20Attacks.pdf','CD','20Attacks.pdf'],
    [']','CD',']'],
    ['*','-NONE-','*'],
    ['(',':','('],
    ['2005','CD','2005'],
    [')','CD',')'],
    ['Senza','NNP','senz'],
    ['Furore','NNP','fur'],
    ['[','NNP','['],
    ['http','NN','http'],
    [':',':',':'],
    ['//faculty.vassar.edu/riwilson/compositions/Senza','JJ','//faculty.vassar.edu/riwilson/compositions/senza'],
    ['%','NN','%'],
    ['20Furore.pdf','CD','20Furore.pdf'],
    [']','CD',']'],
    ['*','-NONE-','*'],
    ['(',':','('],
    ['2011','CD','2011'],
    [')','CD',')'],
    ['Speculation','NNP','spec'],
    ['[','NNP','['],
    ['http','NN','http'],
    [':',':',':'],
    ['//faculty.vassar.edu/riwilson/compositions/Speculation.pdf','JJ','//faculty.vassar.edu/riwilson/compositions/speculation.pdf'],
    [']','NN',']'],
    ['===Works','NNS','===works'],
    ['for','IN','for'],
    ['string','VBG','string'],
    ['quartet===','NN','quartet==='],
    ['*','-NONE-','*'],
    ['(',':','('],
    ['1969','CD','1969'],
    [')','CD',')'],
    ['String','NNP','string'],
    ['Quartet','NNP','quartet'],
    ['No','NNP','no'],
    ['.','.','.']
  ]
},
{
  tag:'S',
  content:
  [
    ['1','LS','1'],
    ['[','``','['],
    ['http','NN','http'],
    [':',':',':'],
    ['//faculty.vassar.edu/riwilson/compositions/String','JJ','//faculty.vassar.edu/riwilson/compositions/string'],
    ['%','NN','%'],
    ['20Quartet','CD','20Quartet'],
    ['%','NN','%'],
    ['20No','CD','20No'],
    ['%','NN','%'],
    ['201.pdf','CD','201.pdf'],
    [']','CD',']'],
    ['*','-NONE-','*'],
    ['(',':','('],
    ['1977','CD','1977'],
    [')','CD',')'],
    ['String','NNP','string'],
    ['Quartet','NNP','quartet'],
    ['No','NNP','no'],
    ['.','.','.']
  ]
},
{
  tag:'S',
  content:
  [
    ['2','LS','2'],
    ['[','``','['],
    ['http','NN','http'],
    [':',':',':'],
    ['//faculty.vassar.edu/riwilson/compositions/StringQuartetNo_2.pdf','JJ','//faculty.vassar.edu/riwilson/compositions/stringquartetno_2.pdf'],
    [']','NN',']'],
    ['*','-NONE-','*'],
    ['(',':','('],
    ['1982','CD','1982'],
    [')','CD',')'],
    ['String','NNP','string'],
    ['Quartet','NNP','quartet'],
    ['No','NNP','no'],
    ['.','.','.']
  ]
},
{
  tag:'S',
  content:
  [
    ['3','LS','3'],
    ['[','``','['],
    ['http','NN','http'],
    [':',':',':'],
    ['//faculty.vassar.edu/riwilson/compositions/StringQuartetNo_3.pdf','JJ','//faculty.vassar.edu/riwilson/compositions/stringquartetno_3.pdf'],
    [']','NN',']'],
    ['*','-NONE-','*'],
    ['(',':','('],
    ['1998','CD','1998'],
    [',',',',','],
    ['2001','CD','2001'],
    [')',':',')'],
    ['String','NNP','string'],
    ['Quartet','NNP','quartet'],
    ['No','NNP','no'],
    ['.','.','.']
  ]
},
{
  tag:'S',
  content:
  [
    ['4','LS','4'],
    ['[','``','['],
    ['http','NN','http'],
    [':',':',':'],
    ['//faculty.vassar.edu/riwilson/compositions/String','JJ','//faculty.vassar.edu/riwilson/compositions/string'],
    ['%','NN','%'],
    ['20Quartet','CD','20Quartet'],
    ['%','NN','%'],
    ['20No','CD','20No'],
    ['%','NN','%'],
    ['20','CD','20'],
    ['%','NN','%'],
    ['204.pdf','CD','204.pdf'],
    [']','CD',']'],
    ['*','-NONE-','*'],
    ['(',':','('],
    ['2008','CD','2008'],
    [')','CD',')'],
    ['String','NNP','string'],
    ['Quartet','NNP','quartet'],
    ['No','NNP','no'],
    ['.','.','.']
  ]
},
{
  tag:'S',
  content:
  [
    ['5','LS','5'],
    ['===Works','NNS','===works'],
    ['for','IN','for'],
    ['solo','NN','solo'],
    ['piano===','-NONE-','piano==='],
    ['*','-NONE-','*'],
    ['(','VB','('],
    ['1963','CD','1963'],
    [')','CD',')'],
    ['Three','CD','Three'],
    ['Short','JJ','short'],
    ['Pieces','NNS','piec'],
    ['for','IN','for'],
    {
      tag:'PERSON',
      content:
      [
        ['Piano','NNP','piano']
      ]
    },
    ['[',':','['],
    ['http','NN','http'],
    [':',':',':'],
    ['//faculty.vassar.edu/riwilson/compositions/ThreeShortPieces.pdf','JJ','//faculty.vassar.edu/riwilson/compositions/threeshortpieces.pdf'],
    [']','NN',']'],
    ['*','-NONE-','*'],
    ['(',':','('],
    ['1974','CD','1974'],
    [')','CD',')'],
    {
      tag:'PERSON',
      content:
      [
        ['Eclogue','NNP','eclog']
      ]
    },
    ['[','NNP','['],
    ['http','NN','http'],
    [':',':',':'],
    ['//faculty.vassar.edu/riwilson/compositions/Eclogue.pdf','JJ','//faculty.vassar.edu/riwilson/compositions/eclogue.pdf'],
    [']','NN',']'],
    ['*','-NONE-','*'],
    ['(',':','('],
    ['1979','CD','1979'],
    [')','CD',')'],
    ['Sour','NNP','sour'],
    ['Flowers','NNP','flow'],
    ['*','-NONE-','*'],
    ['(',':','('],
    ['1984','CD','1984'],
    [')','CD',')'],
    ['A','DT','A'],
    {
      tag:'GPE',
      content:
      [
        ['Child','NNP','child']
      ]
    },
    [''s','POS',''s'],
    {
      tag:'GPE',
      content:
      [
        ['London','NNP','london']
      ]
    },
    ['[','NN','['],
    ['http','NN','http'],
    [':',':',':'],
    ['//faculty.vassar.edu/riwilson/compositions/London.pdf','JJ','//faculty.vassar.edu/riwilson/compositions/london.pdf'],
    [']','NN',']'],
    ['*','-NONE-','*'],
    ['(',':','('],
    ['1985','CD','1985'],
    [')','CD',')'],
    ['Fixations','NNS','fix'],
    ['[',':','['],
    ['http','NN','http'],
    [':',':',':'],
    ['//faculty.vassar.edu/riwilson/compositions/Fixations.pdf','JJ','//faculty.vassar.edu/riwilson/compositions/fixations.pdf'],
    [']','NN',']'],
    ['*','-NONE-','*'],
    ['(',':','('],
    ['1986','CD','1986'],
    [')','CD',')'],
    ['Intercalations','NNS','interc'],
    ['[',':','['],
    ['http','NN','http'],
    [':',':',':'],
    ['//faculty.vassar.edu/riwilson/compositions/Intercalations.pdf','JJ','//faculty.vassar.edu/riwilson/compositions/intercalations.pdf'],
    [']','NN',']'],
    ['*','-NONE-','*'],
    ['(',':','('],
    ['2009','CD','2009'],
    [')','CD',')'],
    ['Mnemonics','NNP','mnemon'],
    ['===Works','NNP','===works'],
    ['for','IN','for'],
    ['solo','NN','solo'],
    ['instruments===','-NONE-','instruments==='],
    ['*','-NONE-','*'],
    ['(','VB','('],
    ['1971','CD','1971'],
    [')','CD',')'],
    ['Music','NNP','mus'],
    ['for','IN','for'],
    {
      tag:'PERSON',
      content:
      [
        ['Solo','NNP','solo'],
        ['Cello','NNP','cello']
      ]
    },
    ['[','NNP','['],
    ['http','NN','http'],
    [':',':',':'],
    ['//faculty.vassar.edu/riwilson/compositions/Music','JJ','//faculty.vassar.edu/riwilson/compositions/music'],
    ['%','NN','%'],
    ['20for','CD','20for'],
    ['%','NN','%'],
    ['20Solo','CD','20Solo'],
    ['%','NN','%'],
    ['20Cello.pdf','CD','20Cello.pdf'],
    [']','CD',']'],
    ['*','-NONE-','*'],
    ['(',':','('],
    ['1972','CD','1972'],
    [')','CD',')'],
    ['Music','NNP','mus'],
    ['for','IN','for'],
    {
      tag:'PERSON',
      content:
      [
        ['Solo','NNP','solo'],
        ['Flute','NNP','flut']
      ]
    },
    ['[','NNP','['],
    ['http','NN','http'],
    [':',':',':'],
    ['//faculty.vassar.edu/riwilson/compositions/Music_Solo_Flute.pdf','JJ','//faculty.vassar.edu/riwilson/compositions/music_solo_flute.pdf'],
    [']','NN',']'],
    ['*','-NONE-','*'],
    ['(',':','('],
    ['1980','CD','1980'],
    [')','CD',')'],
    ['Profound','NNP','profound'],
    ['Utterances','NNP','ut'],
    ['[','NNP','['],
    ['http','NN','http'],
    [':',':',':'],
    ['//faculty.vassar.edu/riwilson/compositions/Profound_Utterances.pdf','JJ','//faculty.vassar.edu/riwilson/compositions/profound_utterances.pdf'],
    [']','NN',']'],
    ['*','-NONE-','*'],
    ['(',':','('],
    ['1985','CD','1985'],
    [')','CD',')'],
    ['Flutations','NNS','flut'],
    ['[',':','['],
    ['http','NN','http'],
    [':',':',':'],
    ['//faculty.vassar.edu/riwilson/compositions/Flutations.pdf','JJ','//faculty.vassar.edu/riwilson/compositions/flutations.pdf'],
    [']','NN',']'],
    ['*','-NONE-','*'],
    ['(',':','('],
    ['1987','CD','1987'],
    [')','CD',')'],
    ['Lord','NNP','lord'],
    ['Chesterfield','NNP','chesterfield'],
    ['to','TO','to'],
    ['His','NNP','his'],
    {
      tag:'PERSON',
      content:
      [
        ['Son','NNP','son']
      ]
    },
    ['[','NNP','['],
    ['http','NN','http'],
    [':',':',':'],
    ['//faculty.vassar.edu/riwilson/compositions/LordChesterfield.pdf','JJ','//faculty.vassar.edu/riwilson/compositions/lordchesterfield.pdf'],
    [']','NN',']'],
    ['*','-NONE-','*'],
    ['(',':','('],
    ['1988','CD','1988'],
    [')','CD',')'],
    ['Music','NNP','mus'],
    ['for','IN','for'],
    {
      tag:'PERSON',
      content:
      [
        ['Solo','NNP','solo'],
        ['Viola','NNP','viol']
      ]
    },
    ['[','NNP','['],
    ['http','NN','http'],
    [':',':',':'],
    ['//faculty.vassar.edu/riwilson/compositions/Music','JJ','//faculty.vassar.edu/riwilson/compositions/music'],
    ['%','NN','%'],
    ['20for','CD','20for'],
    ['%','NN','%'],
    ['20Solo','CD','20Solo'],
    ['%','NN','%'],
    ['20Viola.pdf','CD','20Viola.pdf'],
    [']','CD',']'],
    ['*','-NONE-','*'],
    ['(',':','('],
    ['1989','CD','1989'],
    [')','CD',')'],
    ['Intonations','NNS','inton'],
    ['[',':','['],
    ['http','NN','http'],
    [':',':',':'],
    ['//faculty.vassar.edu/riwilson/compositions/Intonations.pdf','JJ','//faculty.vassar.edu/riwilson/compositions/intonations.pdf'],
    [']','NN',']'],
    ['*','-NONE-','*'],
    ['(',':','('],
    ['1992','CD','1992'],
    [')','CD',')'],
    ['Civilization','NNP','civil'],
    ['and','CC','and'],
    {
      tag:'PERSON',
      content:
      [
        ['Its','NNP','it'],
        ['Discontents','NNP','discont']
      ]
    },
    ['[','NNP','['],
    ['http','NN','http'],
    [':',':',':'],
    ['//faculty.vassar.edu/riwilson/compositions/Civilization.pdf','JJ','//faculty.vassar.edu/riwilson/compositions/civilization.pdf'],
    [']','NN',']'],
    ['*','-NONE-','*'],
    ['(',':','('],
    ['1995','CD','1995'],
    [')','CD',')'],
    ['Touchstones','NNS','touchston'],
    ['[',':','['],
    ['http','NN','http'],
    [':',':',':'],
    ['//faculty.vassar.edu/riwilson/compositions/Touchstones.pdf','JJ','//faculty.vassar.edu/riwilson/compositions/touchstones.pdf'],
    [']','NN',']'],
    ['*','-NONE-','*'],
    ['(',':','('],
    ['2000','CD','2000'],
    [')','CD',')'],
    ['Ironies','NNS','irony'],
    ['[',':','['],
    ['http','NN','http'],
    [':',':',':'],
    ['//faculty.vassar.edu/riwilson/compositions/Ironies.pdf','JJ','//faculty.vassar.edu/riwilson/compositions/ironies.pdf'],
    [']','NN',']'],
    ['*','-NONE-','*'],
    ['(',':','('],
    ['2004','CD','2004'],
    [')','CD',')'],
    {
      tag:'PERSON',
      content:
      [
        ['Diablerie','NNP','diablery']
      ]
    },
    ['[','NNP','['],
    ['http','NN','http'],
    [':',':',':'],
    ['//faculty.vassar.edu/riwilson/compositions/Diablerie.pdf','JJ','//faculty.vassar.edu/riwilson/compositions/diablerie.pdf'],
    [']','NN',']'],
    ['*','-NONE-','*'],
    ['(',':','('],
    ['2003','CD','2003'],
    [')','CD',')'],
    {
      tag:'ORGANIZATION',
      content:
      [
        ['Organicity','NNP','org']
      ]
    },
    ['[','NNP','['],
    ['http','NN','http'],
    [':',':',':'],
    ['//faculty.vassar.edu/riwilson/compositions/Organicity.pdf','JJ','//faculty.vassar.edu/riwilson/compositions/organicity.pdf'],
    [']','NN',']'],
    ['*','-NONE-','*'],
    ['(',':','('],
    ['2006','CD','2006'],
    [')','CD',')'],
    ['Gravitas','NNP','gravita'],
    ['[','NNP','['],
    ['http','NN','http'],
    [':',':',':'],
    ['//faculty.vassar.edu/riwilson/compositions/Gravitas.pdf','JJ','//faculty.vassar.edu/riwilson/compositions/gravitas.pdf'],
    [']','NN',']'],
    ['===Works','NNS','===works'],
    ['for','IN','for'],
    ['voice===','JJ','voice==='],
    ['*','-NONE-','*'],
    ['(',':','('],
    ['1975','CD','1975'],
    [')','CD',')'],
    ['The','DT','The'],
    {
      tag:'ORGANIZATION',
      content:
      [
        ['Ballad','NNP','ballad']
      ]
    },
    ['of','IN','of'],
    {
      tag:'ORGANIZATION',
      content:
      [
        ['Longwood','NNP','longwood'],
        ['Glen','NNP','glen']
      ]
    },
    ['[','NNP','['],
    ['http','NN','http'],
    [':',':',':'],
    ['//faculty.vassar.edu/riwilson/compositions/Ballad.pdf','JJ','//faculty.vassar.edu/riwilson/compositions/ballad.pdf'],
    [']','NN',']'],
    ['*','-NONE-','*'],
    ['(',':','('],
    ['1980','CD','1980'],
    [')','CD',')'],
    ['A','DT','A'],
    ['Theory','NNP','the'],
    ['[','NNP','['],
    ['http','NN','http'],
    [':',':',':'],
    ['//faculty.vassar.edu/riwilson/compositions/A_Theory.pdf','JJ','//faculty.vassar.edu/riwilson/compositions/a_theory.pdf'],
    [']','NN',']'],
    ['*','-NONE-','*'],
    ['(',':','('],
    ['1984','CD','1984'],
    [')','CD',')'],
    ['Three','CD','Three'],
    ['Painters','NNS','paint'],
    ['[',':','['],
    ['http','NN','http'],
    [':',':',':'],
    ['//faculty.vassar.edu/riwilson/compositions/Three_Painters.pdf','JJ','//faculty.vassar.edu/riwilson/compositions/three_painters.pdf'],
    [']','NN',']'],
    ['*','-NONE-','*'],
    ['(',':','('],
    ['1988','CD','1988'],
    [')','CD',')'],
    ['Tribulations','NNS','trib'],
    ['[',':','['],
    ['http','NN','http'],
    [':',':',':'],
    ['//faculty.vassar.edu/riwilson/compositions/Tribulations.pdf','JJ','//faculty.vassar.edu/riwilson/compositions/tribulations.pdf'],
    [']','NN',']'],
    ['*','-NONE-','*'],
    ['(',':','('],
    ['1990','CD','1990'],
    [')','CD',')'],
    ['Persuasions','NNS','persuas'],
    ['[',':','['],
    ['http','NN','http'],
    [':',':',':'],
    ['//faculty.vassar.edu/riwilson/compositions/Persuasions.pdf','JJ','//faculty.vassar.edu/riwilson/compositions/persuasions.pdf'],
    [']','NN',']'],
    ['*','-NONE-','*'],
    ['(',':','('],
    ['1991','CD','1991'],
    [')','CD',')'],
    ['The','DT','The'],
    {
      tag:'ORGANIZATION',
      content:
      [
        ['Second','NNP','second'],
        ['Law','NNP','law']
      ]
    },
    ['[','NNP','['],
    ['http','NN','http'],
    [':',':',':'],
    ['//faculty.vassar.edu/riwilson/compositions/The_Second_Law.pdf','JJ','//faculty.vassar.edu/riwilson/compositions/the_second_law.pdf'],
    [']','NN',']'],
    ['*','-NONE-','*'],
    ['(',':','('],
    ['1992','CD','1992'],
    [')','CD',')'],
    ['On','NNP','on'],
    ['the','DT','the'],
    {
      tag:'ORGANIZATION',
      content:
      [
        ['Street','NNP','street']
      ]
    },
    ['[','NNP','['],
    ['http','NN','http'],
    [':',':',':'],
    ['//faculty.vassar.edu/riwilson/compositions/On','JJ','//faculty.vassar.edu/riwilson/compositions/on'],
    ['%','NN','%'],
    ['20the','CD','20the'],
    ['%','NN','%'],
    ['20Street.pdf','CD','20Street.pdf'],
    [']','CD',']'],
    ['*','-NONE-','*'],
    ['(',':','('],
    ['1995','CD','1995'],
    [')','CD',')'],
    ['Five','CD','Five'],
    ['Love','NNP','lov'],
    ['Songs','NNP','song'],
    ['on','IN','on'],
    ['Poems','NNP','poem'],
    ['by','IN','by'],
    {
      tag:'PERSON',
      content:
      [
        ['John','NNP','john'],
        ['Skelton','NNP','skelton']
      ]
    },
    ['[','NNP','['],
    ['http','NN','http'],
    [':',':',':'],
    ['//faculty.vassar.edu/riwilson/compositions/Five','JJ','//faculty.vassar.edu/riwilson/compositions/five'],
    ['%','NN','%'],
    ['20Love','CD','20Love'],
    ['%','NN','%'],
    ['20Songs.pdf','CD','20Songs.pdf'],
    [']','CD',']'],
    ['*','-NONE-','*'],
    ['(',':','('],
    ['1996','CD','1996'],
    [')','CD',')'],
    ['Lights','NNS','light'],
    ['on','IN','on'],
    ['the','DT','the'],
    {
      tag:'ORGANIZATION',
      content:
      [
        ['River','NNP','riv']
      ]
    },
    ['[','NNP','['],
    ['http','NN','http'],
    [':',':',':'],
    ['//faculty.vassar.edu/riwilson/compositions/Lights','NNS','//faculty.vassar.edu/riwilson/compositions/lights'],
    ['%','NN','%'],
    ['20on','CD','20on'],
    ['%','NN','%'],
    ['20the','CD','20the'],
    ['%','NN','%'],
    ['20River.pdf','CD','20River.pdf'],
    [']','CD',']'],
    ['*','-NONE-','*'],
    ['(',':','('],
    ['1996','CD','1996'],
    [')','CD',')'],
    ['Transfigured','NNP','transfig'],
    ['Goat','NNP','goat'],
    ['[','NNP','['],
    ['http','NN','http'],
    [':',':',':'],
    ['//faculty.vassar.edu/riwilson/compositions/Transfigured_Goat.pdf','JJ','//faculty.vassar.edu/riwilson/compositions/transfigured_goat.pdf'],
    [']','NN',']'],
    ['*','-NONE-','*'],
    ['(',':','('],
    ['2000','CD','2000'],
    [')','CD',')'],
    ['Three','CD','Three'],
    ['Songs','NNS','song'],
    ['on','IN','on'],
    ['Poems','NNP','poem'],
    ['by','IN','by'],
    {
      tag:'PERSON',
      content:
      [
        ['John','NNP','john'],
        ['Ashbery','NNP','ashbery']
      ]
    },
    ['[','NNP','['],
    ['http','NN','http'],
    [':',':',':'],
    ['//faculty.vassar.edu/riwilson/compositions/Three','JJ','//faculty.vassar.edu/riwilson/compositions/three'],
    ['%','NN','%'],
    ['20Ashbery','JJ','20ashbery'],
    ['%','NN','%'],
    ['20Songs.pdf','CD','20Songs.pdf'],
    [']','CD',']'],
    ['*','-NONE-','*'],
    ['(',':','('],
    ['2005','CD','2005'],
    [')','CD',')'],
    ['Visits','NNS','visit'],
    ['to','TO','to'],
    {
      tag:'GPE',
      content:
      [
        ['St.','NNP','st.'],
        ['Elizabeth','NNP','elizabe']
      ]
    },
    [''s','POS',''s'],
    ['[','NNP','['],
    ['http','NN','http'],
    [':',':',':'],
    ['//faculty.vassar.edu/riwilson/compositions/Visits','NNS','//faculty.vassar.edu/riwilson/compositions/visits'],
    ['%','NN','%'],
    ['20to','CD','20to'],
    ['%','NN','%'],
    ['20St','CD','20St'],
    ['%','NN','%'],
    ['20Elizabeth.pdf','CD','20Elizabeth.pdf'],
    [']','CD',']'],
    ['*','-NONE-','*'],
    ['(',':','('],
    ['2006','CD','2006'],
    [')','CD',')'],
    ['Three','CD','Three'],
    ['Songs','NNS','song'],
    ['on','IN','on'],
    ['Poems','NNP','poem'],
    ['by','IN','by'],
    {
      tag:'PERSON',
      content:
      [
        ['Paul','NNP','paul'],
        ['Kane','NNP','kan']
      ]
    },
    ['[','NNP','['],
    ['http','NN','http'],
    [':',':',':'],
    ['//faculty.vassar.edu/riwilson/compositions/Three','JJ','//faculty.vassar.edu/riwilson/compositions/three'],
    ['%','NN','%'],
    ['20Songs','NNS','20songs'],
    ['%','NN','%'],
    ['20on','CD','20on'],
    ['%','NN','%'],
    ['20Poems','CD','20Poems'],
    ['%','NN','%'],
    ['20of','CD','20of'],
    ['%','NN','%'],
    ['20Paul','CD','20Paul'],
    ['%','NN','%'],
    ['20Kane.pdf','CD','20Kane.pdf'],
    [']','CD',']'],
    ['*','-NONE-','*'],
    ['(',':','('],
    ['2006','CD','2006'],
    [')','CD',')'],
    ['I','PRP','I'],
    {
      tag:'PERSON',
      content:
      [
        ['Walked','NNP','walk'],
        ['Through','NNP','through']
      ]
    },
    ['the','DT','the'],
    {
      tag:'ORGANIZATION',
      content:
      [
        ['Medieval','NNP','mediev'],
        ['Town','NNP','town']
      ]
    },
    ['[','NNP','['],
    ['http','NN','http'],
    [':',':',':'],
    ['//faculty.vassar.edu/riwilson/compositions/I','JJ','//faculty.vassar.edu/riwilson/compositions/i'],
    ['%','NN','%'],
    ['20Walked','JJ','20walked'],
    ['%','NN','%'],
    ['20Through.pdf','CD','20Through.pdf'],
    [']','CD',']'],
    ['*','-NONE-','*'],
    ['(',':','('],
    ['2009','CD','2009'],
    [')','CD',')'],
    ['Two','CD','Two'],
    ['Songs','NNS','song'],
    ['on','IN','on'],
    ['Poems','NNP','poem'],
    ['by','IN','by'],
    {
      tag:'PERSON',
      content:
      [
        ['Eamon','NNP','eamon'],
        ['Grennan','NNP','gren']
      ]
    },
    ['*','-NONE-','*'],
    ['(',':','('],
    ['2009','CD','2009'],
    [')','CD',')'],
    ['Four','CD','Four'],
    ['Songs','NNS','song'],
    ['on','IN','on'],
    ['Poems','NNP','poem'],
    ['by','IN','by'],
    {
      tag:'PERSON',
      content:
      [
        ['John','NNP','john'],
        ['Updike','NNP','updik']
      ]
    },
    ['===Works','NNP','===works'],
    ['for','IN','for'],
    ['choir===','NNP','choir==='],
    ['*','-NONE-','*'],
    ['(',':','('],
    ['1968','CD','1968'],
    [')','CD',')'],
    ['A','DT','A'],
    {
      tag:'ORGANIZATION',
      content:
      [
        ['Dissolve','NNP','dissolv']
      ]
    },
    ['[','NNP','['],
    ['http','NN','http'],
    [':',':',':'],
    ['//faculty.vassar.edu/riwilson/compositions/A_Dissolve.pdf','JJ','//faculty.vassar.edu/riwilson/compositions/a_dissolve.pdf'],
    [']','NN',']'],
    ['*','-NONE-','*'],
    ['(',':','('],
    ['1968','CD','1968'],
    [')','CD',')'],
    ['Can','NNP','can'],
    ['[','NNP','['],
    ['http','NN','http'],
    [':',':',':'],
    ['//faculty.vassar.edu/riwilson/compositions/Can.pdf','JJ','//faculty.vassar.edu/riwilson/compositions/can.pdf'],
    [']','NN',']'],
    ['*','-NONE-','*'],
    ['(',':','('],
    ['1968','CD','1968'],
    [')','CD',')'],
    ['Light','NNP','light'],
    ['in','IN','in'],
    {
      tag:'GPE',
      content:
      [
        ['Spring','NNP','spring']
      ]
    },
    {
      tag:'PERSON',
      content:
      [
        ['Poplars','NNP','popl']
      ]
    },
    ['[','NNP','['],
    ['http','NN','http'],
    [':',':',':'],
    ['//faculty.vassar.edu/riwilson/compositions/Light','JJ','//faculty.vassar.edu/riwilson/compositions/light'],
    ['%','NN','%'],
    ['20in','CD','20in'],
    ['%','NN','%'],
    ['20Spring','CD','20Spring'],
    ['%','NN','%'],
    ['20Poplars.pdf','CD','20Poplars.pdf'],
    [']','CD',']'],
    ['*','-NONE-','*'],
    ['(',':','('],
    ['1968','CD','1968'],
    [',',',',','],
    ['1972','CD','1972'],
    [')',':',')'],
    ['In','NNP','in'],
    ['Schrafft','NNP','schrafft'],
    [''s','POS',''s'],
    ['[','NNP','['],
    ['http','NN','http'],
    [':',':',':'],
    ['//faculty.vassar.edu/riwilson/compositions/In_Schraffts.pdf','JJ','//faculty.vassar.edu/riwilson/compositions/in_schraffts.pdf'],
    [']','NN',']'],
    ['*','-NONE-','*'],
    ['(',':','('],
    ['1969','CD','1969'],
    [')','CD',')'],
    ['Soaking','NNP','soak'],
    ['[','NNP','['],
    ['http','NN','http'],
    [':',':',':'],
    ['//faculty.vassar.edu/riwilson/compositions/Soaking.pdf','JJ','//faculty.vassar.edu/riwilson/compositions/soaking.pdf'],
    [']','NN',']'],
    ['*','-NONE-','*'],
    ['(',':','('],
    ['1970','CD','1970'],
    [')','CD',')'],
    ['Home','NNP','hom'],
    ['From','NNP','from'],
    ['the','DT','the'],
    {
      tag:'ORGANIZATION',
      content:
      [
        ['Range','NNP','rang']
      ]
    },
    ['[','NNP','['],
    ['http','NN','http'],
    [':',':',':'],
    ['//faculty.vassar.edu/riwilson/compositions/Home','JJ','//faculty.vassar.edu/riwilson/compositions/home'],
    ['%','NN','%'],
    ['20From','CD','20From'],
    ['%','NN','%'],
    ['20the','CD','20the'],
    ['%','NN','%'],
    ['20Range.pdf','CD','20Range.pdf'],
    [']','CD',']'],
    ['*','-NONE-','*'],
    ['(',':','('],
    ['1971','CD','1971'],
    [')','CD',')'],
    ['Elegy','NNP','elegy'],
    ['[','NNP','['],
    ['http','NN','http'],
    [':',':',':'],
    ['//faculty.vassar.edu/riwilson/compositions/Elegy.pdf','JJ','//faculty.vassar.edu/riwilson/compositions/elegy.pdf'],
    [']','NN',']'],
    ['*','-NONE-','*'],
    ['(',':','('],
    ['1972','CD','1972'],
    [')','CD',')'],
    {
      tag:'PERSON',
      content:
      [
        ['Hunter','NNP','hunt']
      ]
    },
    [''s','POS',''s'],
    {
      tag:'PERSON',
      content:
      [
        ['Moon','NNP','moon']
      ]
    },
    ['[','NNP','['],
    ['http','NN','http'],
    [':',':',':'],
    ['//faculty.vassar.edu/riwilson/compositions/Hunters_Moon.pdf','JJ','//faculty.vassar.edu/riwilson/compositions/hunters_moon.pdf'],
    [']','NN',']'],
    ['*','-NONE-','*'],
    ['(',':','('],
    ['1976','CD','1976'],
    [')','CD',')'],
    ['August','NNP','august'],
    ['22','CD','22'],
    ['[','CD','['],
    ['http','NN','http'],
    [':',':',':'],
    ['//faculty.vassar.edu/riwilson/compositions/August22.pdf','JJ','//faculty.vassar.edu/riwilson/compositions/august22.pdf'],
    [']','NN',']'],
    ['*','-NONE-','*'],
    ['(',':','('],
    ['1995','CD','1995'],
    [')','CD',')'],
    ['Poor','NNP','poor'],
    ['Warren','NNP','war'],
    ['[','NNP','['],
    ['http','NN','http'],
    [':',':',':'],
    ['//faculty.vassar.edu/riwilson/compositions/PoorWarren.pdf','JJ','//faculty.vassar.edu/riwilson/compositions/poorwarren.pdf'],
    [']','NN',']'],
    ['===Opera===','NN','===opera==='],
    ['*','-NONE-','*'],
    ['(',':','('],
    ['1994','CD','1994'],
    [',',',',','],
    ['2001','CD','2001'],
    [')',':',')'],
    ['Aethelred','NNP','aethelr'],
    ['the','DT','the'],
    {
      tag:'ORGANIZATION',
      content:
      [
        ['Unready','NNP','unready']
      ]
    },
    ['[','NNP','['],
    ['http','NN','http'],
    [':',':',':'],
    ['//www.aethelred.com/','JJ','//www.aethelred.com/'],
    [']','NN',']'],
    ['===Concert','NN','===concert'],
    ['band===','NN','band==='],
    ['*','-NONE-','*'],
    ['(',':','('],
    ['1981','CD','1981'],
    [')','CD',')'],
    ['Eleven','CD','Eleven'],
    {
      tag:'PERSON',
      content:
      [
        ['Sumner','NNP','sumn'],
        ['Place','NNP','plac']
      ]
    },
    ['[','NNP','['],
    ['http','NN','http'],
    [':',':',':'],
    ['//faculty.vassar.edu/riwilson/compositions/Eleven_Sumner_Place.pdf','JJ','//faculty.vassar.edu/riwilson/compositions/eleven_sumner_place.pdf'],
    [']','NN',']'],
    ['*','-NONE-','*'],
    ['(',':','('],
    ['1987','CD','1987'],
    [')','CD',')'],
    ['Jubilation','NNP','jubl'],
    ['[','NNP','['],
    ['http','NN','http'],
    [':',':',':'],
    ['//faculty.vassar.edu/riwilson/compositions/Jubilation.pdf','JJ','//faculty.vassar.edu/riwilson/compositions/jubilation.pdf'],
    [']','NN',']'],
    ['==Discography==','NN','==discography=='],
    ['*','-NONE-','*'],
    {
      tag:'PERSON',
      content:
      [
        ['Richard','NNP','richard'],
        ['Wilson','NNP','wilson']
      ]
    },
    [':',':',':'],
    {
      tag:'PERSON',
      content:
      [
        ['Brash','NNP','brash'],
        ['Attacks','NNP','attack'],
        ['Albany','NNP','albany'],
        ['Records','NNP','record']
      ]
    },
    ['TROY','NNP','troy'],
    ['1080','CD','1080'],
    ['*','-NONE-','*'],
    {
      tag:'PERSON',
      content:
      [
        ['Richard','NNP','richard'],
        ['Wilson','NNP','wilson']
      ]
    },
    [':',':',':'],
    {
      tag:'PERSON',
      content:
      [
        ['Diablerie','NNP','diablery'],
        ['Albany','NNP','albany'],
        ['Records','NNP','record']
      ]
    },
    ['TROY','NNP','troy'],
    ['773','CD','773'],
    ['*','-NONE-','*'],
    {
      tag:'PERSON',
      content:
      [
        ['Richard','NNP','richard'],
        ['Wilson','NNP','wilson']
      ]
    },
    [':',':',':'],
    ['String','NNP','string'],
    ['Quartets','NNPS','quartet'],
    {
      tag:'PERSON',
      content:
      [
        ['Albany','NNP','albany'],
        ['Records','NNP','record']
      ]
    },
    ['TROY','NNP','troy'],
    ['573','CD','573'],
    ['*','-NONE-','*'],
    {
      tag:'PERSON',
      content:
      [
        ['Richard','NNP','richard'],
        ['Wilson','NNP','wilson']
      ]
    },
    [':',':',':'],
    ['Aethelred','NNP','aethelr'],
    ['the','DT','the'],
    {
      tag:'ORGANIZATION',
      content:
      [
        ['Unready','NNP','unready'],
        ['Albany','NNP','albany'],
        ['Records','NNP','record']
      ]
    },
    ['TROY','NNP','troy'],
    ['512','CD','512'],
    ['*','-NONE-','*'],
    {
      tag:'PERSON',
      content:
      [
        ['Richard','NNP','richard'],
        ['Wilson','NNP','wilson']
      ]
    },
    [':',':',':'],
    ['Affirmations','NNS','affirm'],
    {
      tag:'PERSON',
      content:
      [
        ['Albany','NNP','albany'],
        ['Records','NNP','record']
      ]
    },
    ['TROY','NNP','troy'],
    ['389','CD','389'],
    ['*','-NONE-','*'],
    {
      tag:'PERSON',
      content:
      [
        ['Richard','NNP','richard'],
        ['Wilson','NNP','wilson']
      ]
    },
    [':',':',':'],
    {
      tag:'PERSON',
      content:
      [
        ['Symphony','NNP','symphony'],
        ['No','NNP','no']
      ]
    },
    ['.','.','.']
  ]
},
{
  tag:'S',
  content:
  [
    ['1','LS','1'],
    {
      tag:'PERSON',
      content:
      [
        ['Koch','NNP','koch'],
        ['International','NNP','intern']
      ]
    },
    ['Classics/','NNP','classics/'],
    ['Peermusic','NNP','peermus'],
    ['Classical','NNP','class'],
    ['*','-NONE-','*'],
    ['Stresses','VBZ','stresses'],
    ['in','IN','in'],
    ['the','DT','the'],
    {
      tag:'ORGANIZATION',
      content:
      [
        ['Peaceable','NNP','peac']
      ]
    },
    ['Kingdom','NNP','kingdom'],
    [':',':',':'],
    ['The','DT','The'],
    {
      tag:'ORGANIZATION',
      content:
      [
        ['Choral','NNP','chor'],
        ['Music','NNP','mus']
      ]
    },
    ['of','IN','of'],
    {
      tag:'PERSON',
      content:
      [
        ['Richard','NNP','richard'],
        ['Wilson','NNP','wilson'],
        ['Albany','NNP','albany'],
        ['Records','NNP','record']
      ]
    },
    ['TROY','NNP','troy'],
    ['333','CD','333'],
    ['*','-NONE-','*'],
    {
      tag:'PERSON',
      content:
      [
        ['Richard','NNP','richard'],
        ['Wilson','NNP','wilson']
      ]
    },
    [':',':',':'],
    ['Chamber','NNP','chamb'],
    {
      tag:'PERSON',
      content:
      [
        ['Music','NNP','mus'],
        ['Albany','NNP','albany'],
        ['Records','NNP','record']
      ]
    },
    ['TROY','NNP','troy'],
    ['074','CD','074'],
    ['*','-NONE-','*'],
    {
      tag:'PERSON',
      content:
      [
        ['Richard','NNP','richard'],
        ['Wilson','NNP','wilson']
      ]
    },
    [':',':',':'],
    ['String','NNP','string'],
    ['Quartet','NNP','quartet'],
    ['No','NNP','no'],
    ['.','.','.']
  ]
},
{
  tag:'S',
  content:
  [
    ['3','LS','3'],
    [',',',',','],
    {
      tag:'PERSON',
      content:
      [
        ['Eclogue','NNP','eclog']
      ]
    },
    [',',',',','],
    ['et','NN','et'],
    ['al','NN','al'],
    ['.','.','.']
  ]
},
{
  tag:'S',
  content:
  [
    ['CRI/','NN','cri/'],
    ['New','NNP','new'],
    ['World','NNP','world'],
    ['Records','NNP','record'],
    ['NWCR602','NNP','nwcr602'],
    ['*','-NONE-','*'],
    {
      tag:'PERSON',
      content:
      [
        ['Richard','NNP','richard'],
        ['Wilson','NNP','wilson']
      ]
    },
    [':',':',':'],
    {
      tag:'PERSON',
      content:
      [
        ['Bassoon','NNP','bassoon'],
        ['Concerto','NNP','concerto']
      ]
    },
    ['CRI/','NNP','cri/'],
    ['New','NNP','new'],
    ['World','NNP','world'],
    ['Records','NNP','record'],
    ['NWCR575','NNP','nwcr575'],
    ['*','-NONE-','*'],
    {
      tag:'PERSON',
      content:
      [
        ['Richard','NNP','richard'],
        ['Wilson','NNP','wilson']
      ]
    },
    [':',':',':'],
    {
      tag:'PERSON',
      content:
      [
        ['Piano','NNP','piano'],
        ['Concerto','NNP','concerto']
      ]
    },
    ['CRI/','NNP','cri/'],
    ['New','NNP','new'],
    ['World','NNP','world'],
    ['Records','NNP','record'],
    ['NWCR618','NNP','nwcr618'],
    ['==References==','NNP','==references=='],
    ['*','-NONE-','*'],
    {
      tag:'ORGANIZATION',
      content:
      [
        ['International','NNP','intern'],
        ['Who','NNP','who']
      ]
    },
    [''s','POS',''s'],
    ['Who','NNP','who'],
    ['*','-NONE-','*'],
    ['``','``','``'],
    {
      tag:'PERSON',
      content:
      [
        ['Richard','NNP','richard'],
        ['Wilson','NNP','wilson']
      ]
    },
    ['and','CC','and'],
    ['His','NNP','his'],
    ['Music','NNP','mus'],
    ['''','''',''''],
    ['by','IN','by'],
    {
      tag:'PERSON',
      content:
      [
        ['Bernard','NNP','bernard'],
        ['Jacobson','NNP','jacobson']
      ]
    },
    ['*','-NONE-','*'],
    ['``','``','``'],
    {
      tag:'PERSON',
      content:
      [
        ['Richard','NNP','richard'],
        ['Wilson','NNP','wilson']
      ]
    },
    [',',',',','],
    ['''','''',''''],
    ['entry','NN','entry'],
    ['in','IN','in'],
    ['The','DT','The'],
    {
      tag:'ORGANIZATION',
      content:
      [
        ['New','NNP','new'],
        ['Grove','NNP','grov']
      ]
    },
    ['Dictionary','NNP','dict'],
    ['of','IN','of'],
    {
      tag:'PERSON',
      content:
      [
        ['Music','NNP','mus']
      ]
    },
    ['and','CC','and'],
    {
      tag:'GPE',
      content:
      [
        ['Musicians','NNP','mus']
      ]
    },
    ['(','NNP','('],
    ['2001','CD','2001'],
    [')','CD',')'],
    [',',',',','],
    ['vol','NN','vol'],
    ['27','CD','27'],
    [',',',',','],
    ['p.','NNP','p.'],
    ['425','CD','425'],
    ['.','.','.']
  ]
},
{
  tag:'S',
  content:
  [
    ['*','-NONE-','*'],
    ['``','``','``'],
    {
      tag:'PERSON',
      content:
      [
        ['Richard','NNP','richard'],
        ['Wilson','NNP','wilson']
      ]
    },
    [',',',',','],
    ['''','''',''''],
    ['entry','NN','entry'],
    ['in','IN','in'],
    ['The','DT','The'],
    {
      tag:'ORGANIZATION',
      content:
      [
        ['New','NNP','new'],
        ['Grove','NNP','grov']
      ]
    },
    ['Dictionary','NNP','dict'],
    ['of','IN','of'],
    {
      tag:'GPE',
      content:
      [
        ['American','NNP','am']
      ]
    },
    ['Music','NNP','mus'],
    ['(','NNP','('],
    ['1986','CD','1986'],
    [')','CD',')'],
    [',',',',','],
    ['vol','NN','vol'],
    ['.','.','.']
  ]
},
{
  tag:'S',
  content:
  [
    ['4','LS','4'],
    [',',',',','],
    ['pp','NN','pp'],
    ['.','.','.']
  ]
},
{
  tag:'S',
  content:
  [
    ['539–40','CD','539–40'],
    ['.','.','.']
  ]
},
{
  tag:'S',
  content:
  [
    ['*','-NONE-','*'],
    ['``','``','``'],
    {
      tag:'PERSON',
      content:
      [
        ['Richard','NNP','richard'],
        ['Wilson','NNP','wilson']
      ]
    },
    [',',',',','],
    ['''','''',''''],
    ['entry','NN','entry'],
    ['in','IN','in'],
    {
      tag:'GPE',
      content:
      [
        ['Baker','NNP','bak']
      ]
    },
    [''s','POS',''s'],
    {
      tag:'ORGANIZATION',
      content:
      [
        ['Biographical','NNP','biograph'],
        ['Dictionary','NNP','dict']
      ]
    },
    ['of','IN','of'],
    {
      tag:'GPE',
      content:
      [
        ['Musicians','NNPS','mus']
      ]
    },
    [',',',',','],
    ['5th','CD','5th'],
    ['edition','NN','edit'],
    ['with','IN','with'],
    ['supplement','NN','suppl'],
    ['(',':','('],
    ['1971','CD','1971'],
    [')','CD',')'],
    [',',',',','],
    ['ed','VBN','ed'],
    ['.','.','.']
  ]
},
{
  tag:'S',
  content:
  [
    ['N.','NNP','n.'],
    ['Slonimsky','NNP','slonimsky'],
    [',',',',','],
    ['p.','NNP','p.'],
    ['254','CD','254'],
    ['.','.','.']
  ]
},
{
  tag:'S',
  content:
  [
    ['*','-NONE-','*'],
    ['``','``','``'],
    {
      tag:'PERSON',
      content:
      [
        ['Richard','NNP','richard'],
        ['Wilson','NNP','wilson']
      ]
    },
    [',',',',','],
    ['''','''',''''],
    ['entry','NN','entry'],
    ['in','IN','in'],
    ['The','DT','The'],
    ['Norton/Grove','JJ','norton/grove'],
    {
      tag:'ORGANIZATION',
      content:
      [
        ['Concise','NNP','cont'],
        ['Encyclopedia','NNP','encycloped']
      ]
    },
    ['of','IN','of'],
    {
      tag:'GPE',
      content:
      [
        ['Music','NNP','mus']
      ]
    },
    ['(','NNP','('],
    ['1994','CD','1994'],
    [')','CD',')'],
    [',',',',','],
    ['ed','VBN','ed'],
    ['.','.','.']
  ]
},
{
  tag:'S',
  content:
  [
    {
      tag:'PERSON',
      content:
      [
        ['Stanley','NNP','stanley']
      ]
    },
    {
      tag:'GPE',
      content:
      [
        ['Sadie','NNP','sady']
      ]
    },
    [',',',',','],
    ['p.','NNP','p.'],
    ['891','CD','891'],
    ['.','.','.']
  ]
},
{
  tag:'S',
  content:
  [
    ['*','-NONE-','*'],
    {
      tag:'PERSON',
      content:
      [
        ['James','NNP','jam'],
        ['Reel','NNP','reel']
      ]
    },
    [':',':',':'],
    ['``','``','``'],
    ['A','DT','A'],
    ['Modernist','NNP','modern'],
    ['with','IN','with'],
    ['a','DT','a'],
    ['Taste','NNP','tast'],
    ['for','IN','for'],
    ['the','DT','the'],
    ['Premodern','NNP','premodern'],
    [':',':',':'],
    {
      tag:'ORGANIZATION',
      content:
      [
        ['Composer','NNP','compos']
      ]
    },
    {
      tag:'PERSON',
      content:
      [
        ['Richard','NNP','richard'],
        ['Wilson','NNP','wilson']
      ]
    },
    ['''','''',''''],
    {
      tag:'PERSON',
      content:
      [
        ['Fanfare','NNP','fanf']
      ]
    },
    [',',',',','],
    ['xxiv/4','-NONE-','xxiv/4'],
    ['(',':','('],
    ['2001','CD','2001'],
    [')','CD',')'],
    [',',',',','],
    ['93-6','CD','93-6'],
    [',',',',','],
    ['98','CD','98'],
    ['.','.','.']
  ]
},
{
  tag:'S',
  content:
  [
    ['*','-NONE-','*'],
    ['Ping-Ting','JJ','ping-t'],
    ['Lan','NNP','lan'],
    [':',':',':'],
    ['New','NNP','new'],
    ['Resources','NNPS','resourc'],
    ['in','IN','in'],
    ['Twentieth-Century','NNP','twentieth-century'],
    {
      tag:'PERSON',
      content:
      [
        ['Piano','NNP','piano'],
        ['Music','NNP','mus']
      ]
    },
    ['and','CC','and'],
    {
      tag:'PERSON',
      content:
      [
        ['Richard','NNP','richard']
      ]
    },
    ['Wilson’s','NNP','wilson’s'],
    ['``','``','``'],
    ['Eclogue','NNP','eclog'],
    ['''','''',''''],
    ['(',':','('],
    ['diss.','NNP','diss.'],
    [',',',',','],
    ['U.','NNP','u.'],
    ['of','IN','of'],
    {
      tag:'GPE',
      content:
      [
        ['North','NNP','nor'],
        ['Texas','NNP','texa']
      ]
    },
    [',',',',','],
    ['1974','CD','1974'],
    [')',':',')'],
    ['.','.','.']
  ]
},
{
  tag:'S',
  content:
  [
    ['*','-NONE-','*'],
    {
      tag:'PERSON',
      content:
      [
        ['Mary','NNP','mary'],
        ['Frantz','NNP','frantz']
      ]
    },
    [':',':',':'],
    {
      tag:'PERSON',
      content:
      [
        ['Richard','NNP','richard'],
        ['Wilson','NNP','wilson']
      ]
    },
    [':',':',':'],
    ['The','DT','The'],
    {
      tag:'ORGANIZATION',
      content:
      [
        ['Solo','NNP','solo'],
        ['Piano','NNP','piano'],
        ['Works','NNP','work']
      ]
    },
    ['(','NNP','('],
    ['diss.','NNP','diss.'],
    [',',',',','],
    ['U.','NNP','u.'],
    ['of','IN','of'],
    ['Wisconsin-Madison','NNP','wisconsin-madison'],
    [',',',',','],
    ['1992','CD','1992'],
    [')',':',')'],
    ['.','.','.']
  ]
},
{
  tag:'S',
  content:
  [
    ['==External','JJ','==external'],
    ['links==','NN','links=='],
    ['*','-NONE-','*'],
    {
      tag:'PERSON',
      content:
      [
        ['Richard','NNP','richard'],
        ['Wilson','NNP','wilson'],
        ['Homepage','NNP','homep']
      ]
    },
    ['*','-NONE-','*'],
    {
      tag:'PERSON',
      content:
      [
        ['Vassar','NNP','vass'],
        ['College','NNP','colleg']
      ]
    },
    ['--',':','--'],
    {
      tag:'PERSON',
      content:
      [
        ['Richard','NNP','richard'],
        ['Wilson','NNP','wilson']
      ]
    },
    [',',',',','],
    ['bio','NN','bio'],
    ['*Peermusic','JJ','*peermusic'],
    ['Classical','NNP','class'],
    [':',':',':'],
    {
      tag:'PERSON',
      content:
      [
        ['Richard','NNP','richard'],
        ['Wilson','NNP','wilson'],
        ['Composer','NNP','compos']
      ]
    },
    [''s','POS',''s'],
    ['Publisher','NNP','publ'],
    ['and','CC','and'],
    {
      tag:'PERSON',
      content:
      [
        ['Bio','NNP','bio']
      ]
    },
    ['*Discography','NNP','*discography'],
    ['*Richard','NNP','*richard'],
    {
      tag:'PERSON',
      content:
      [
        ['Wilson','NNP','wilson']
      ]
    },
    ['and','CC','and'],
    {
      tag:'PERSON',
      content:
      [
        ['Joseph','NNP','joseph'],
        ['Genualdi','NNP','genuald']
      ]
    },
    ['play','NN','play'],
    {
      tag:'PERSON',
      content:
      [
        ['Mozart','NNP','mozart'],
        ['Sonata','NNP','sonat']
      ]
    },
    ['in','IN','in'],
    ['F','NNP','f'],
    ['K376','NNP','k376'],
    ['[','NNP','['],
    ['http','NN','http'],
    [':',':',':'],
    ['//www.youtube.com/watch','JJ','//www.youtube.com/watch'],
    ['?','.','?'],
    ['v=v5c1PdLWiXk','JJ','v=v5c1pdlwixk'],
    ['&','CC','&'],
    ['feature=g-all-u','NNP','feature=g-all-u'],
    [']','NNP',']'],
    ['*Wilson','NNP','*wilson'],
    ['and','CC','and'],
    {
      tag:'ORGANIZATION',
      content:
      [
        ['Genualdi','NNP','genuald']
      ]
    },
    ['play','NN','play'],
    {
      tag:'PERSON',
      content:
      [
        ['Schubert','NNP','schubert'],
        ['Rondo','NNP','rondo']
      ]
    },
    ['in','IN','in'],
    ['B','NNP','b'],
    ['minor','CC','minor'],
    ['[','NNP','['],
    ['http','NN','http'],
    [':',':',':'],
    ['//www.youtube.com/watch','JJ','//www.youtube.com/watch'],
    ['?','.','?'],
    ['v=T5FCs7QgiMM','JJ','v=t5fcs7qgimm'],
    ['&','CC','&'],
    ['feature=context-gfa','NNP','feature=context-gfa'],
    [']','NNP',']'],
    ['*Wilson','NNP','*wilson'],
    ['and','CC','and'],
    {
      tag:'ORGANIZATION',
      content:
      [
        ['Genualdi','NNP','genuald']
      ]
    },
    ['play','NN','play'],
    {
      tag:'PERSON',
      content:
      [
        ['Wilson','NNP','wilson']
      ]
    },
    [''s','POS',''s'],
    {
      tag:'ORGANIZATION',
      content:
      [
        ['Mixed','NNP','mix'],
        ['Signals','NNPS','sign']
      ]
    },
    ['[','NNP','['],
    ['http','NN','http'],
    [':',':',':'],
    ['//www.youtube.com/watch','JJ','//www.youtube.com/watch'],
    ['?','.','?'],
    ['v=jpHMTBKHuNc','JJ','v=jphmtbkhunc'],
    ['&','CC','&'],
    ['feature=related','JJ','feature=related'],
    [']','NN',']'],
    ['*Interview','NN','*interview'],
    ['with','IN','with'],
    {
      tag:'PERSON',
      content:
      [
        ['Richard','NNP','richard'],
        ['Wilson','NNP','wilson']
      ]
    },
    ['by','IN','by'],
    {
      tag:'PERSON',
      content:
      [
        ['Bruce','NNP','bruc'],
        ['Duffie','NNP','duffy']
      ]
    },
    [',',',',','],
    ['April','NNP','april'],
    ['22','CD','22'],
    [',',',',','],
    ['1991','CD','1991'],
    ['==Notes==','-NONE-','==Notes==']
  ]
}]