[
{
  tag:'S',
  content:
  [
    {
      tag:'PERSON',
      content:
      [
        ['Fitz','NNP','fitz']
      ]
    },
    {
      tag:'PERSON',
      content:
      [
        ['James','NNP','jam'],
        ['O'Brien','NNP','o'brien']
      ]
    },
    ['(','NNP','('],
    ['also','RB','also'],
    ['spelled','VBD','spel'],
    ['Fitz-James','NNS','fitz-james'],
    [';',':',';'],
    ['December','NNP','decemb'],
    ['31','CD','31'],
    [',',',',','],
    ['1828','CD','1828'],
    ['–',':','–'],
    ['April','NNP','april'],
    ['6','CD','6'],
    [',',',',','],
    ['1862','CD','1862'],
    [')',':',')'],
    ['was','VBD','be'],
    ['an','DT','an'],
    ['Irish-born','JJ','irish-born'],
    {
      tag:'GPE',
      content:
      [
        ['American','JJ','am']
      ]
    },
    ['writer','NN','writ'],
    [',',',',','],
    ['some','DT','some'],
    ['of','IN','of'],
    ['whose','WP$','whose'],
    ['work','NN','work'],
    ['is','VBZ','be'],
    ['often','RB','oft'],
    ['considered','VBN','consid'],
    ['a','DT','a'],
    ['forerunner','NN','forerun'],
    ['of','IN','of'],
    ['today','NN','today'],
    [''s','POS',''s'],
    ['science','NN','sci'],
    ['fiction','NN','fict'],
    ['.','.','.']
  ]
},
{
  tag:'S',
  content:
  [
    ['==Biography==','NN','==biography=='],
    ['He','PRP','He'],
    ['was','VBD','be'],
    ['born','VBN','bear'],
    {
      tag:'PERSON',
      content:
      [
        ['Michael','NNP','michael'],
        ['O'Brien','NNP','o'brien']
      ]
    },
    ['in','IN','in'],
    {
      tag:'GPE',
      content:
      [
        ['County','NNP','county'],
        ['Cork','NNP','cork']
      ]
    },
    ['and','CC','and'],
    ['was','VBD','be'],
    ['very','RB','very'],
    ['young','JJ','young'],
    ['when','WRB','when'],
    ['the','DT','the'],
    ['family','NN','famy'],
    ['moved','VBD','mov'],
    ['to','TO','to'],
    {
      tag:'GPE',
      content:
      [
        ['Limerick','NNP','limerick']
      ]
    },
    [',',',',','],
    {
      tag:'GPE',
      content:
      [
        ['Ireland','NNP','ireland']
      ]
    },
    ['.','.','.']
  ]
},
{
  tag:'S',
  content:
  [
    ['He','PRP','He'],
    ['attended','VBD','attend'],
    ['the','DT','the'],
    {
      tag:'ORGANIZATION',
      content:
      [
        ['University','NNP','univers']
      ]
    },
    ['of','IN','of'],
    {
      tag:'GPE',
      content:
      [
        ['Dublin','NNP','dublin']
      ]
    },
    ['and','CC','and'],
    ['is','VBZ','be'],
    ['believed','VBN','believ'],
    ['to','TO','to'],
    ['have','VB','hav'],
    ['been','VBN','be'],
    ['a','DT','a'],
    ['soldier','NN','soldy'],
    ['in','IN','in'],
    ['the','DT','the'],
    {
      tag:'GPE',
      content:
      [
        ['British','JJ','brit']
      ]
    },
    ['army','NN','army'],
    ['at','IN','at'],
    ['one','CD','one'],
    ['time','NN','tim'],
    ['.','.','.']
  ]
},
{
  tag:'S',
  content:
  [
    ['On','IN','On'],
    ['leaving','NN','leav'],
    ['college','NN','colleg'],
    [',',',',','],
    ['he','PRP','he'],
    ['went','VBD','go'],
    ['to','TO','to'],
    {
      tag:'GPE',
      content:
      [
        ['London','NNP','london']
      ]
    },
    ['and','CC','and'],
    ['in','IN','in'],
    ['the','DT','the'],
    ['course','NN','cours'],
    ['of','IN','of'],
    ['four','CD','four'],
    ['years','NNS','year'],
    ['spent','NN','spent'],
    ['his','PRP$','his'],
    ['inheritance','NN','inherit'],
    ['of','IN','of'],
    ['£8,000','-NONE-','£8,000'],
    [',',',',','],
    ['meanwhile','RB','meanwhil'],
    ['editing','VBG','edit'],
    ['a','DT','a'],
    ['periodical','JJ','period'],
    ['in','IN','in'],
    ['aid','NN','aid'],
    ['of','IN','of'],
    ['the','DT','the'],
    {
      tag:'ORGANIZATION',
      content:
      [
        ['World','NNP','world']
      ]
    },
    [''s','POS',''s'],
    ['Fair','NNP','fair'],
    ['of','IN','of'],
    ['1851','CD','1851'],
    ['.','.','.']
  ]
},
{
  tag:'S',
  content:
  [
    ['About','IN','About'],
    ['1852','CD','1852'],
    ['he','PRP','he'],
    ['emigrated','VBD','emigr'],
    ['to','TO','to'],
    ['the','DT','the'],
    {
      tag:'GPE',
      content:
      [
        ['United','NNP','unit'],
        ['States','NNPS','stat']
      ]
    },
    [',',',',','],
    ['in','IN','in'],
    ['the','DT','the'],
    ['process','NN','process'],
    ['changing','VBG','chang'],
    ['his','PRP$','his'],
    ['name','NN','nam'],
    ['to','TO','to'],
    {
      tag:'PERSON',
      content:
      [
        ['Fitz','NNP','fitz'],
        ['James','NNP','jam']
      ]
    },
    [',',',',','],
    ['and','CC','and'],
    ['thenceforth','JJ','thencefor'],
    ['he','PRP','he'],
    ['devoted','VBD','devot'],
    ['his','PRP$','his'],
    ['attention','NN','at'],
    ['to','TO','to'],
    ['literature','VB','lit'],
    ['.','.','.']
  ]
},
{
  tag:'S',
  content:
  [
    ['While','IN','While'],
    ['he','PRP','he'],
    ['was','VBD','be'],
    ['in','IN','in'],
    ['college','NN','colleg'],
    ['he','PRP','he'],
    ['had','VBD','hav'],
    ['shown','VBN','show'],
    ['an','DT','an'],
    ['aptitude','NN','aptitud'],
    ['for','IN','for'],
    ['writing','NN','writ'],
    ['verse','NN','vers'],
    [',',',',','],
    ['and','CC','and'],
    ['two','CD','two'],
    ['of','IN','of'],
    ['his','PRP$','his'],
    ['poems—Loch','JJ','poems—loch'],
    ['Ine','NNP','in'],
    ['and','CC','and'],
    {
      tag:'GPE',
      content:
      [
        ['Irish','NNP','ir']
      ]
    },
    ['Castles—were','NNP','castles—were'],
    ['published','VBD','publ'],
    ['in','IN','in'],
    ['The','DT','The'],
    {
      tag:'ORGANIZATION',
      content:
      [
        ['Ballads','NNP','ballad']
      ]
    },
    ['of','IN','of'],
    {
      tag:'GPE',
      content:
      [
        ['Ireland','NNP','ireland']
      ]
    },
    ['(','NNP','('],
    ['1856','CD','1856'],
    [')','CD',')'],
    ['.','.','.']
  ]
},
{
  tag:'S',
  content:
  [
    ['His','PRP$','His'],
    ['earliest','NN','earliest'],
    ['writings','NNS','writ'],
    ['in','IN','in'],
    ['the','DT','the'],
    {
      tag:'GPE',
      content:
      [
        ['United','NNP','unit'],
        ['States','NNPS','stat']
      ]
    },
    ['were','VBD','be'],
    ['contributed','VBN','contribut'],
    ['to','TO','to'],
    ['the','DT','the'],
    {
      tag:'GPE',
      content:
      [
        ['Lantern','NNP','lantern']
      ]
    },
    [',',',',','],
    ['which','WDT','which'],
    ['was','VBD','be'],
    ['then','RB','then'],
    ['edited','VBN','edit'],
    ['by','IN','by'],
    {
      tag:'PERSON',
      content:
      [
        ['John','NNP','john'],
        ['Brougham','NNP','brougham']
      ]
    },
    ['.','.','.']
  ]
},
{
  tag:'S',
  content:
  [
    ['Subsequently','RB','subsequ'],
    ['he','PRP','he'],
    ['wrote','VBD','writ'],
    ['for','IN','for'],
    ['the','DT','the'],
    {
      tag:'ORGANIZATION',
      content:
      [
        ['Home','NNP','hom'],
        ['Journal','NNP','journ']
      ]
    },
    [',',',',','],
    ['the','DT','the'],
    {
      tag:'GPE',
      content:
      [
        ['New','NNP','new'],
        ['York','NNP','york'],
        ['Times','NNP','tim']
      ]
    },
    [',',',',','],
    ['and','CC','and'],
    ['the','DT','the'],
    {
      tag:'ORGANIZATION',
      content:
      [
        ['American','NNP','am'],
        ['Whig','NNP','whig'],
        ['Review','NNP','review']
      ]
    },
    ['.','.','.']
  ]
},
{
  tag:'S',
  content:
  [
    ['His','PRP$','His'],
    ['first','JJ','first'],
    ['important','JJ','import'],
    ['literary','NN','lit'],
    ['connection','NN','connect'],
    ['was','VBD','be'],
    ['with','IN','with'],
    {
      tag:'PERSON',
      content:
      [
        ['Harper','NNP','harp']
      ]
    },
    [''s','POS',''s'],
    {
      tag:'PERSON',
      content:
      [
        ['Magazine','NNP','magazin']
      ]
    },
    [',',',',','],
    ['and','CC','and'],
    ['beginning','NN','begin'],
    ['in','IN','in'],
    ['February','NNP','febru'],
    [',',',',','],
    ['1853','CD','1853'],
    [',',',',','],
    ['with','IN','with'],
    ['The','DT','The'],
    ['Two','CD','Two'],
    ['Skulls','NNS','skul'],
    [',',',',','],
    ['he','PRP','he'],
    ['contributed','VBD','contribut'],
    ['more','JJR','mor'],
    ['than','IN','than'],
    ['sixty','NN','sixty'],
    ['articles','NNS','artic'],
    ['in','IN','in'],
    ['prose','NN','pros'],
    ['and','CC','and'],
    ['verse','NN','vers'],
    ['to','TO','to'],
    ['that','DT','that'],
    ['periodical','JJ','period'],
    ['.','.','.']
  ]
},
{
  tag:'S',
  content:
  [
    ['He','PRP','He'],
    ['likewise','VBP','likew'],
    ['wrote','VBD','writ'],
    ['for','IN','for'],
    ['the','DT','the'],
    {
      tag:'GPE',
      content:
      [
        ['New','NNP','new'],
        ['York','NNP','york']
      ]
    },
    ['Saturday','NNP','saturday'],
    ['Press','NNP','press'],
    [',',',',','],
    {
      tag:'PERSON',
      content:
      [
        ['Putnam','NNP','putnam']
      ]
    },
    [''s','POS',''s'],
    {
      tag:'PERSON',
      content:
      [
        ['Magazine','NNP','magazin']
      ]
    },
    [',',',',','],
    {
      tag:'PERSON',
      content:
      [
        ['Vanity','NNP','van'],
        ['Fair','NNP','fair']
      ]
    },
    [',',',',','],
    ['and','CC','and'],
    ['the','DT','the'],
    {
      tag:'ORGANIZATION',
      content:
      [
        ['Atlantic','NNP','atl'],
        ['Monthly','NNP','month']
      ]
    },
    ['.','.','.']
  ]
},
{
  tag:'S',
  content:
  [
    ['To','TO','To'],
    ['the','DT','the'],
    ['latter','NN','lat'],
    ['he','PRP','he'],
    ['sent','VBD','send'],
    ['``','``','``'],
    ['The','DT','The'],
    {
      tag:'ORGANIZATION',
      content:
      [
        ['Diamond','NNP','diamond'],
        ['Lens','NNP','len']
      ]
    },
    ['''','''',''''],
    ['(',':','('],
    ['1858','CD','1858'],
    [')','CD',')'],
    ['and','CC','and'],
    ['``','``','``'],
    ['The','DT','The'],
    {
      tag:'ORGANIZATION',
      content:
      [
        ['Wonder','NNP','wond'],
        ['Smith','NNP','smi']
      ]
    },
    ['''','''',''''],
    ['(',':','('],
    ['1859','CD','1859'],
    [')','CD',')'],
    ['.','.','.']
  ]
},
{
  tag:'S',
  content:
  [
    ['``','``','``'],
    ['The','DT','The'],
    {
      tag:'ORGANIZATION',
      content:
      [
        ['Diamond','NNP','diamond'],
        ['Lens','NNP','len']
      ]
    },
    ['''','''',''''],
    ['is','VBZ','be'],
    ['probably','RB','prob'],
    ['his','PRP$','his'],
    ['most','RBS','most'],
    ['famous','JJ','fam'],
    ['short','NN','short'],
    ['story','NN','story'],
    [',',',',','],
    ['and','CC','and'],
    ['tells','NNS','tel'],
    ['the','DT','the'],
    ['story','NN','story'],
    ['of','IN','of'],
    ['a','DT','a'],
    ['scientist','NN','sci'],
    ['who','WP','who'],
    ['invents','NNS','inv'],
    ['a','DT','a'],
    ['powerful','JJ','pow'],
    ['microscope','NN','microscop'],
    ['and','CC','and'],
    ['discovers','NNS','discov'],
    ['a','DT','a'],
    ['beautiful','JJ','beauty'],
    ['female','NN','fem'],
    ['in','IN','in'],
    ['a','DT','a'],
    ['microscopic','JJ','microscop'],
    ['world','NN','world'],
    ['inside','NN','insid'],
    ['a','DT','a'],
    ['drop','NN','drop'],
    ['of','IN','of'],
    ['water','NN','wat'],
    ['.','.','.']
  ]
},
{
  tag:'S',
  content:
  [
    ['``','``','``'],
    ['The','DT','The'],
    {
      tag:'ORGANIZATION',
      content:
      [
        ['Wonder','NNP','wond'],
        ['Smith','NNP','smi']
      ]
    },
    ['''','''',''''],
    ['is','VBZ','be'],
    ['an','DT','an'],
    ['early','JJ','ear'],
    ['predecessor','NN','predecess'],
    ['of','IN','of'],
    ['robot','NN','robot'],
    ['rebellion','NN','rebel'],
    [',',',',','],
    ['where','WRB','where'],
    ['toys','NNS','toy'],
    ['possessed','VBN','possess'],
    ['by','IN','by'],
    ['evil','JJ','evil'],
    ['spirits','NNS','spirit'],
    ['are','VBP','be'],
    ['transformed','VBN','transform'],
    ['into','IN','into'],
    ['living','NN','liv'],
    ['automatons','NNS','automaton'],
    ['who','WP','who'],
    ['turn','NN','turn'],
    ['against','IN','against'],
    ['their','PRP$','their'],
    ['creators','NNS','cre'],
    ['.','.','.']
  ]
},
{
  tag:'S',
  content:
  [
    ['His','PRP$','His'],
    ['1858','CD','1858'],
    ['short','JJ','short'],
    ['story','NN','story'],
    ['``','``','``'],
    ['From','IN','From'],
    {
      tag:'GPE',
      content:
      [
        ['Hand','NNP','hand']
      ]
    },
    ['to','TO','to'],
    {
      tag:'GPE',
      content:
      [
        ['Mouth','NNP','mou']
      ]
    },
    ['''','''',''''],
    ['has','VBZ','hav'],
    ['been','VBN','be'],
    ['referred','VBN','ref'],
    ['to','TO','to'],
    ['as','RB','as'],
    ['``','``','``'],
    ['the','DT','the'],
    ['single','JJ','singl'],
    ['most','JJS','most'],
    ['striking','JJ','striking'],
    ['example','NN','exampl'],
    ['of','IN','of'],
    ['surrealistic','JJ','sur'],
    ['fiction','NN','fict'],
    ['to','TO','to'],
    ['pre-date','JJ','pre-dat'],
    ['Alice','NNP','al'],
    ['in','IN','in'],
    {
      tag:'GPE',
      content:
      [
        ['Wonderland','NNP','wonderland']
      ]
    },
    ['''','''',''''],
    ['(',':','('],
    {
      tag:'PERSON',
      content:
      [
        ['Sam','NNP','sam'],
        ['Moskowitz','NNP','moskowitz']
      ]
    },
    [',',',',','],
    ['1971','CD','1971'],
    [')',':',')'],
    ['.','.','.']
  ]
},
{
  tag:'S',
  content:
  [
    ['``','``','``'],
    ['What','WP','What'],
    ['Was','NNP','was'],
    ['It','NNP','it'],
    ['?','.','?']
  ]
},
{
  tag:'S',
  content:
  [
    ['A','DT','A'],
    ['Mystery','NNP','mystery'],
    ['''','''',''''],
    ['(',':','('],
    ['1859','CD','1859'],
    [')','CD',')'],
    ['is','VBZ','be'],
    ['one','CD','one'],
    ['of','IN','of'],
    ['the','DT','the'],
    ['earliest','JJS','ear'],
    ['known','VBN','know'],
    ['examples','NNS','exampl'],
    ['of','IN','of'],
    ['invisibility','NN','invis'],
    ['in','IN','in'],
    ['fiction','NN','fict'],
    ['.','.','.']
  ]
},
{
  tag:'S',
  content:
  [
    ['He','PRP','He'],
    ['was','VBD','be'],
    ['also','RB','also'],
    ['employed','VBN','employ'],
    ['in','IN','in'],
    ['writing','NN','writ'],
    ['plays','NNS','play'],
    ['.','.','.']
  ]
},
{
  tag:'S',
  content:
  [
    ['For','IN','For'],
    {
      tag:'PERSON',
      content:
      [
        ['James','NNP','jam'],
        ['W.','NNP','w.']
      ]
    },
    ['Wallack','NNP','wallack'],
    ['he','PRP','he'],
    ['made','VBD','mak'],
    ['A','DT','A'],
    ['Gentleman','NNP','gentlem'],
    ['from','IN','from'],
    {
      tag:'GPE',
      content:
      [
        ['Ireland','NNP','ireland']
      ]
    },
    [',',',',','],
    ['which','WDT','which'],
    ['held','VBN','hold'],
    ['the','DT','the'],
    ['boards','NNS','board'],
    ['for','IN','for'],
    ['a','DT','a'],
    ['generation','NN','gen'],
    ['.','.','.']
  ]
},
{
  tag:'S',
  content:
  [
    ['He','PRP','He'],
    ['also','RB','also'],
    ['wrote','VBD','writ'],
    ['and','CC','and'],
    ['adapted','VBN','adapt'],
    ['other','JJ','oth'],
    ['pieces','NNS','piec'],
    ['for','IN','for'],
    ['the','DT','the'],
    ['theatres','NNS','the'],
    [',',',',','],
    ['but','CC','but'],
    ['they','PRP','they'],
    ['had','VBD','hav'],
    ['a','DT','a'],
    ['shorter','NN','short'],
    ['existence','NN','ex'],
    ['.','.','.']
  ]
},
{
  tag:'S',
  content:
  [
    ['In','IN','In'],
    {
      tag:'GPE',
      content:
      [
        ['New','NNP','new'],
        ['York','NNP','york']
      ]
    },
    ['he','PRP','he'],
    ['at','IN','at'],
    ['once','RB','ont'],
    ['associated','VBN','assocy'],
    ['with','IN','with'],
    ['the','DT','the'],
    ['brilliant','JJ','bril'],
    ['set','NN','set'],
    ['of','IN','of'],
    ['Bohemians','NNPS','bohem'],
    ['of','IN','of'],
    ['that','DT','that'],
    ['day','NN','day'],
    [',',',',','],
    ['among','IN','among'],
    ['whom','WP','whom'],
    ['he','PRP','he'],
    ['was','VBD','be'],
    ['ranked','VBN','rank'],
    ['as','IN','as'],
    ['the','DT','the'],
    ['most','RBS','most'],
    ['able','JJ','abl'],
    ['.','.','.']
  ]
},
{
  tag:'S',
  content:
  [
    ['At','IN','At'],
    ['the','DT','the'],
    ['weekly','JJ','week'],
    ['dinners','NNS','din'],
    ['that','WDT','that'],
    ['were','VBD','be'],
    ['given','VBN','giv'],
    ['by','IN','by'],
    {
      tag:'PERSON',
      content:
      [
        ['John','NNP','john'],
        ['Brougham','NNP','brougham']
      ]
    },
    [',',',',','],
    ['or','CC','or'],
    ['at','IN','at'],
    ['the','DT','the'],
    ['nightly','RB','night'],
    ['suppers','VBZ','sup'],
    ['at','IN','at'],
    {
      tag:'ORGANIZATION',
      content:
      [
        ['Pfaff','NNP','pfaff']
      ]
    },
    [''s','POS',''s'],
    ['on','IN','on'],
    {
      tag:'GPE',
      content:
      [
        ['Broadway','NNP','broadway']
      ]
    },
    [',',',',','],
    ['he','PRP','he'],
    ['was','VBD','be'],
    ['the','DT','the'],
    ['soul','NN','soul'],
    ['of','IN','of'],
    ['the','DT','the'],
    ['entertainment','NN','entertain'],
    ['.','.','.']
  ]
},
{
  tag:'S',
  content:
  [
    ['When','WRB','When'],
    ['the','DT','the'],
    {
      tag:'ORGANIZATION',
      content:
      [
        ['American','NNP','am']
      ]
    },
    ['Civil','NNP','civil'],
    ['War','NNP','war'],
    ['began','VBD','begin'],
    ['in','IN','in'],
    ['1861','CD','1861'],
    [',',',',','],
    ['O'Brien','JJ','o'brien'],
    ['joined','VBN','join'],
    ['the','DT','the'],
    ['7th','JJ','7th'],
    ['regiment','NN','regy'],
    ['of','IN','of'],
    ['the','DT','the'],
    {
      tag:'GPE',
      content:
      [
        ['New','NNP','new'],
        ['York','NNP','york']
      ]
    },
    ['National','NNP','nat'],
    {
      tag:'PERSON',
      content:
      [
        ['Guard','NNP','guard']
      ]
    },
    [',',',',','],
    ['hoping','VBG','hop'],
    ['to','TO','to'],
    ['be','VB','be'],
    ['sent','VBN','send'],
    ['to','TO','to'],
    ['the','DT','the'],
    ['front','NN','front'],
    ['.','.','.']
  ]
},
{
  tag:'S',
  content:
  [
    ['He','PRP','He'],
    ['was','VBD','be'],
    ['stationed','VBN','stat'],
    ['at','IN','at'],
    {
      tag:'FACILITY',
      content:
      [
        ['Camp','NNP','camp'],
        ['Cameron','NNP','cameron']
      ]
    },
    ['outside','IN','outside'],
    {
      tag:'GPE',
      content:
      [
        ['Washington','NNP','washington']
      ]
    },
    [',',',',','],
    {
      tag:'GPE',
      content:
      [
        ['D.C.','NNP','d.c.']
      ]
    },
    ['for','IN','for'],
    ['six','CD','six'],
    ['weeks','NNS','week'],
    ['.','.','.']
  ]
},
{
  tag:'S',
  content:
  [
    ['When','WRB','When'],
    ['his','PRP$','his'],
    ['regiment','NN','regy'],
    ['returned','VBD','return'],
    ['to','TO','to'],
    {
      tag:'GPE',
      content:
      [
        ['New','NNP','new'],
        ['York','NNP','york']
      ]
    },
    ['he','PRP','he'],
    ['received','VBD','receiv'],
    ['an','DT','an'],
    ['appointment','NN','appoint'],
    ['on','IN','on'],
    ['the','DT','the'],
    ['staff','NN','staff'],
    ['of','IN','of'],
    {
      tag:'ORGANIZATION',
      content:
      [
        ['General','NNP','gen']
      ]
    },
    {
      tag:'PERSON',
      content:
      [
        ['Frederick','NNP','frederick'],
        ['W.','NNP','w.'],
        ['Lander','NNP','land']
      ]
    },
    ['.','.','.']
  ]
},
{
  tag:'S',
  content:
  [
    ['He','PRP','He'],
    ['was','VBD','be'],
    ['severely','RB','sev'],
    ['wounded','VBN','wound'],
    ['in','IN','in'],
    ['a','DT','a'],
    ['skirmish','JJ','skirm'],
    ['on','IN','on'],
    ['February','NNP','febru'],
    ['26','CD','26'],
    [',',',',','],
    ['1862','CD','1862'],
    [',',',',','],
    ['and','CC','and'],
    ['lingered','VBD','ling'],
    ['until','IN','until'],
    ['April','NNP','april'],
    [',',',',','],
    ['when','WRB','when'],
    ['he','PRP','he'],
    ['died','VBD','die'],
    ['at','IN','at'],
    {
      tag:'GPE',
      content:
      [
        ['Cumberland','NNP','cumberland']
      ]
    },
    [',',',',','],
    {
      tag:'GPE',
      content:
      [
        ['Maryland','NNP','maryland']
      ]
    },
    ['of','IN','of'],
    ['tetanus','NN','tetan'],
    ['.','.','.']
  ]
},
{
  tag:'S',
  content:
  [
    ['His','PRP$','His'],
    ['friend','NN','friend'],
    [',',',',','],
    {
      tag:'PERSON',
      content:
      [
        ['William','NNP','william'],
        ['Winter','NNP','wint']
      ]
    },
    [',',',',','],
    ['collected','VBD','collect'],
    ['The','DT','The'],
    {
      tag:'ORGANIZATION',
      content:
      [
        ['Poems','NNP','poem']
      ]
    },
    ['and','CC','and'],
    ['Stories','NNP','story'],
    ['of','IN','of'],
    {
      tag:'PERSON',
      content:
      [
        ['Fitz','NNP','fitz'],
        ['James','NNP','jam'],
        ['O'Brien','NNP','o'brien']
      ]
    },
    [',',',',','],
    ['to','TO','to'],
    ['which','WDT','which'],
    ['are','VBP','be'],
    ['added','VBN','ad'],
    ['personal','JJ','person'],
    ['recollections','NNS','recollect'],
    ['by','IN','by'],
    ['old','JJ','old'],
    ['associates','NNS','assocy'],
    ['that','WDT','that'],
    ['survived','VBD','surv'],
    ['him','PRP','him'],
    ['(',':','('],
    {
      tag:'GPE',
      content:
      [
        ['Boston','NNP','boston']
      ]
    },
    [',',',',','],
    ['1881','CD','1881'],
    [')',':',')'],
    ['.','.','.']
  ]
},
{
  tag:'S',
  content:
  [
    {
      tag:'PERSON',
      content:
      [
        ['Mr.','NNP','mr.']
      ]
    },
    ['Winter','NNP','wint'],
    ['also','RB','also'],
    ['wrote','VBD','writ'],
    ['a','DT','a'],
    ['chapter','NN','chapt'],
    ['on','IN','on'],
    ['O'Brien','JJ','o'brien'],
    ['in','IN','in'],
    ['his','PRP$','his'],
    ['book','NN','book'],
    {
      tag:'PERSON',
      content:
      [
        ['Brown','NNP','brown'],
        ['Heath','NNP','hea']
      ]
    },
    ['and','CC','and'],
    {
      tag:'PERSON',
      content:
      [
        ['Blue','NNP','blu'],
        ['Bells','NNP','bel']
      ]
    },
    ['(','NNP','('],
    {
      tag:'GPE',
      content:
      [
        ['New','NNP','new'],
        ['York','NNP','york']
      ]
    },
    [',',',',','],
    ['1895','CD','1895'],
    [')',':',')'],
    ['.','.','.']
  ]
},
{
  tag:'S',
  content:
  [
    ['==References==','NN','==references=='],
    ['*','-NONE-','*'],
    ['Initial','JJ','init'],
    ['text','NN','text'],
    ['from','IN','from'],
    {
      tag:'GPE',
      content:
      [
        ['Appleton','NNP','appleton']
      ]
    },
    [''s','POS',''s'],
    {
      tag:'ORGANIZATION',
      content:
      [
        ['Cyclopedia','NNP','cycloped']
      ]
    },
    ['of','IN','of'],
    {
      tag:'GPE',
      content:
      [
        ['American','NNP','am']
      ]
    },
    ['Biography','NNP','biograph'],
    ['(','NNP','('],
    ['1887–1889','CD','1887–1889'],
    [')','CD',')'],
    ['==External','JJ','==external'],
    ['links==','NN','links=='],
    ['*','-NONE-','*'],
    ['*Bibliography','JJ','*bibliography'],
    ['of','IN','of'],
    ['O'Brien','JJ','o'brien'],
    [''s','POS',''s'],
    ['supernatural','JJ','supern'],
    ['stories','NNS','story'],
    ['*','-NONE-','*'],
    ['''','''',''''],
    ['The','DT','The'],
    {
      tag:'ORGANIZATION',
      content:
      [
        ['Lost','NNP','lost'],
        ['Room','NNP','room']
      ]
    },
    ['''','''',''''],
    ['at','IN','at'],
    {
      tag:'ORGANIZATION',
      content:
      [
        ['Manybooks','NNP','manybook']
      ]
    },
    ['*Discussion','NN','*discussion'],
    ['of','IN','of'],
    ['``','``','``'],
    ['What','WP','What'],
    ['Was','NNP','was'],
    ['it','PRP','it'],
    ['?','.','?']
  ]
},
{
  tag:'S',
  content:
  [
    ['``','``','``']
  ]
}]