[
{
  tag:'S',
  content:
  [
    {
      tag:'GPE',
      content:
      [
        ['Aage','NN','aag']
      ]
    },
    {
      tag:'PERSON',
      content:
      [
        ['Niels','NNS','niel'],
        ['Bohr','NNP','bohr']
      ]
    },
    ['(','NNP','('],
    ['ˈɔːʊ̯ə','NNP','ˈɔːʊ̯ə'],
    ['ˌnels','NNP','ˌnel'],
    ['ˈboɐ̯ˀ','NNP','ˈboɐ̯ˀ'],
    [';',':',';'],
    ['19','CD','19'],
    ['June','NNP','jun'],
    ['1922','CD','1922'],
    ['–','CD','–'],
    ['9','CD','9'],
    ['September','NNP','septemb'],
    ['2009','CD','2009'],
    [')','CD',')'],
    ['was','VBD','be'],
    ['a','DT','a'],
    {
      tag:'GPE',
      content:
      [
        ['Danish','JJ','dan']
      ]
    },
    ['nuclear','JJ','nuclear'],
    ['physicist','NN','phys'],
    ['and','CC','and'],
    {
      tag:'GPE',
      content:
      [
        ['Nobel','NNP','nobel']
      ]
    },
    ['laureate','NN','laur'],
    [',',',',','],
    ['and','CC','and'],
    ['the','DT','the'],
    ['son','NN','son'],
    ['of','IN','of'],
    ['the','DT','the'],
    ['famous','JJ','fam'],
    ['physicist','NN','phys'],
    ['and','CC','and'],
    {
      tag:'GPE',
      content:
      [
        ['Nobel','NNP','nobel']
      ]
    },
    ['laureate','NN','laur'],
    {
      tag:'PERSON',
      content:
      [
        ['Niels','NNPS','niel'],
        ['Bohr','NNP','bohr']
      ]
    },
    ['.','.','.']
  ]
},
{
  tag:'S',
  content:
  [
    ['==Life','JJ','==life'],
    ['and','CC','and'],
    ['career==','JJ','career=='],
    {
      tag:'PERSON',
      content:
      [
        ['Bohr','NNP','bohr']
      ]
    },
    ['was','VBD','be'],
    ['born','VBN','bear'],
    ['in','IN','in'],
    {
      tag:'GPE',
      content:
      [
        ['Copenhagen','NNP','copenh']
      ]
    },
    ['in','IN','in'],
    ['1922','CD','1922'],
    [',',',',','],
    ['and','CC','and'],
    ['grew','VBD','grow'],
    ['up','RP','up'],
    ['surrounded','VBN','surround'],
    ['by','IN','by'],
    ['physicists','NNS','phys'],
    ['such','JJ','such'],
    ['as','IN','as'],
    {
      tag:'PERSON',
      content:
      [
        ['Wolfgang','NNP','wolfgang'],
        ['Pauli','NNP','paul']
      ]
    },
    ['and','CC','and'],
    {
      tag:'PERSON',
      content:
      [
        ['Werner','NNP','wern'],
        ['Heisenberg','NNP','heisenberg']
      ]
    },
    [',',',',','],
    ['who','WP','who'],
    ['were','VBD','be'],
    ['working','VBG','work'],
    ['with','IN','with'],
    ['his','PRP$','his'],
    ['father','NN','fath'],
    ['at','IN','at'],
    ['the','DT','the'],
    {
      tag:'ORGANIZATION',
      content:
      [
        ['Institute','NNP','institut']
      ]
    },
    ['for','IN','for'],
    ['Theoretical','NNP','theoret'],
    ['Physics','NNP','phys'],
    ['(','NNP','('],
    ['now','RB','now'],
    ['the','DT','the'],
    {
      tag:'ORGANIZATION',
      content:
      [
        ['Niels','NNP','niel'],
        ['Bohr','NNP','bohr'],
        ['Institute','NNP','institut']
      ]
    },
    [')','NNP',')'],
    ['at','IN','at'],
    ['the','DT','the'],
    {
      tag:'ORGANIZATION',
      content:
      [
        ['University','NNP','univers']
      ]
    },
    ['of','IN','of'],
    {
      tag:'ORGANIZATION',
      content:
      [
        ['Copenhagen','NNP','copenh']
      ]
    },
    ['.','.','.']
  ]
},
{
  tag:'S',
  content:
  [
    ['In','IN','In'],
    ['1940','CD','1940'],
    [',',',',','],
    ['shortly','RB','short'],
    ['after','IN','after'],
    ['the','DT','the'],
    {
      tag:'GPE',
      content:
      [
        ['German','NNP','germ']
      ]
    },
    ['occupation','NN','occup'],
    ['of','IN','of'],
    {
      tag:'GPE',
      content:
      [
        ['Denmark','NNP','denmark']
      ]
    },
    [',',',',','],
    {
      tag:'PERSON',
      content:
      [
        ['Bohr','NNP','bohr']
      ]
    },
    ['began','VBD','begin'],
    ['his','PRP$','his'],
    ['physics','NN','phys'],
    ['degree','NN','degr'],
    ['at','IN','at'],
    ['the','DT','the'],
    {
      tag:'ORGANIZATION',
      content:
      [
        ['University','NNP','univers']
      ]
    },
    ['of','IN','of'],
    {
      tag:'ORGANIZATION',
      content:
      [
        ['Copenhagen','NNP','copenh']
      ]
    },
    ['.','.','.']
  ]
},
{
  tag:'S',
  content:
  [
    ['In','IN','In'],
    ['October','NNP','octob'],
    ['1943','CD','1943'],
    [',',',',','],
    ['shortly','RB','short'],
    ['before','IN','before'],
    ['he','PRP','he'],
    ['was','VBD','be'],
    ['to','TO','to'],
    ['be','VB','be'],
    ['arrested','VBN','arrest'],
    ['by','IN','by'],
    ['the','DT','the'],
    {
      tag:'GPE',
      content:
      [
        ['German','NNP','germ']
      ]
    },
    ['police','NN','pol'],
    [',',',',','],
    {
      tag:'PERSON',
      content:
      [
        ['Niels','NNP','niel'],
        ['Bohr','NNP','bohr']
      ]
    },
    ['escaped','VBD','escap'],
    ['to','TO','to'],
    {
      tag:'GPE',
      content:
      [
        ['Sweden','NNP','swed']
      ]
    },
    ['with','IN','with'],
    ['his','PRP$','his'],
    ['family','NN','famy'],
    [',',',',','],
    ['later','JJ','lat'],
    ['travelling','NN','travel'],
    ['to','TO','to'],
    {
      tag:'GPE',
      content:
      [
        ['London','NNP','london']
      ]
    },
    ['and','CC','and'],
    ['on','IN','on'],
    ['to','TO','to'],
    ['work','VB','work'],
    ['on','IN','on'],
    ['the','DT','the'],
    {
      tag:'FACILITY',
      content:
      [
        ['Manhattan','NNP','manhat'],
        ['Project','NNP','project']
      ]
    },
    ['.','.','.']
  ]
},
{
  tag:'S',
  content:
  [
    ['During','IN','During'],
    ['this','DT','this'],
    ['time','NN','tim'],
    [',',',',','],
    {
      tag:'PERSON',
      content:
      [
        ['Aage','NNP','aag'],
        ['Bohr','NNP','bohr']
      ]
    },
    ['travelled','VBD','travel'],
    ['with','IN','with'],
    ['his','PRP$','his'],
    ['father','NN','fath'],
    [',',',',','],
    ['acting','VBG','act'],
    ['as','IN','as'],
    ['his','PRP$','his'],
    ['assistant','NN','assist'],
    ['and','CC','and'],
    ['secretary','NN','secret'],
    ['.','.','.']
  ]
},
{
  tag:'S',
  content:
  [
    ['The','DT','The'],
    {
      tag:'ORGANIZATION',
      content:
      [
        ['Bohrs','NNP','bohr']
      ]
    },
    ['returned','VBD','return'],
    ['to','TO','to'],
    {
      tag:'GPE',
      content:
      [
        ['Denmark','NNP','denmark']
      ]
    },
    ['in','IN','in'],
    ['1945','CD','1945'],
    [',',',',','],
    ['and','CC','and'],
    {
      tag:'PERSON',
      content:
      [
        ['Aage','NNP','aag']
      ]
    },
    ['resumed','VBD','resum'],
    ['his','PRP$','his'],
    ['university','NN','univers'],
    ['education','NN','educ'],
    [',',',',','],
    ['graduating','VBG','gradu'],
    ['with','IN','with'],
    ['a','DT','a'],
    ['master','NN','mast'],
    [''s','POS',''s'],
    ['degree','NN','degr'],
    ['in','IN','in'],
    ['1946','CD','1946'],
    [',',',',','],
    ['with','IN','with'],
    ['a','DT','a'],
    ['thesis','NN','thes'],
    ['concerned','VBN','concern'],
    ['with','IN','with'],
    ['some','DT','some'],
    ['aspects','NNS','aspect'],
    ['of','IN','of'],
    ['atomic','JJ','atom'],
    ['stopping','NN','stop'],
    ['problems','NNS','problem'],
    ['.','.','.']
  ]
},
{
  tag:'S',
  content:
  [
    ['Following','VBG','follow'],
    ['graduation','NN','gradu'],
    [',',',',','],
    ['he','PRP','he'],
    ['became','VBD','becom'],
    ['an','DT','an'],
    ['associate','NN','assocy'],
    ['at','IN','at'],
    ['the','DT','the'],
    {
      tag:'ORGANIZATION',
      content:
      [
        ['Niels','NNP','niel'],
        ['Bohr','NNP','bohr'],
        ['Institute','NNP','institut']
      ]
    },
    ['.','.','.']
  ]
},
{
  tag:'S',
  content:
  [
    {
      tag:'PERSON',
      content:
      [
        ['Bohr','NNP','bohr']
      ]
    },
    ['worked','VBD','work'],
    ['at','IN','at'],
    ['the','DT','the'],
    {
      tag:'ORGANIZATION',
      content:
      [
        ['Institute','NNP','institut']
      ]
    },
    ['for','IN','for'],
    {
      tag:'PERSON',
      content:
      [
        ['Advanced','NNP','adv'],
        ['Study','NNP','study']
      ]
    },
    ['in','IN','in'],
    {
      tag:'GPE',
      content:
      [
        ['Princeton','NNP','princeton']
      ]
    },
    ['in','IN','in'],
    ['early','JJ','ear'],
    ['1948','CD','1948'],
    [',',',',','],
    ['and','CC','and'],
    ['later','JJ','lat'],
    ['at','IN','at'],
    {
      tag:'ORGANIZATION',
      content:
      [
        ['Columbia','NNP','columb'],
        ['University','NNP','univers']
      ]
    },
    ['from','IN','from'],
    ['January','NNP','janu'],
    ['1949','CD','1949'],
    ['to','TO','to'],
    ['August','NNP','august'],
    ['1950','CD','1950'],
    ['.','.','.']
  ]
},
{
  tag:'S',
  content:
  [
    ['While','IN','While'],
    ['in','IN','in'],
    ['the','DT','the'],
    {
      tag:'GSP',
      content:
      [
        ['US','NNP','us']
      ]
    },
    [',',',',','],
    {
      tag:'PERSON',
      content:
      [
        ['Bohr','NNP','bohr']
      ]
    },
    ['married','VBD','marry'],
    {
      tag:'PERSON',
      content:
      [
        ['Marietta','NNP','mariett'],
        ['Soffer','NNP','soff']
      ]
    },
    [';',':',';'],
    ['the','DT','the'],
    ['couple','NN','coupl'],
    ['had','VBD','hav'],
    ['three','CD','three'],
    ['children','NNS','child'],
    [',',',',','],
    {
      tag:'PERSON',
      content:
      [
        ['Vilhelm','NNP','vilhelm']
      ]
    },
    [',',',',','],
    {
      tag:'PERSON',
      content:
      [
        ['Tomas','NNP','toma']
      ]
    },
    ['and','CC','and'],
    {
      tag:'PERSON',
      content:
      [
        ['Margrethe','NNP','margreth']
      ]
    },
    ['.','.','.']
  ]
},
{
  tag:'S',
  content:
  [
    ['Only','RB','on'],
    ['after','IN','after'],
    ['doing','VBG','do'],
    ['his','PRP$','his'],
    ['Nobel','NNP','nobel'],
    ['Prize-winning','NNP','prize-winning'],
    ['research','NN','research'],
    ['did','VBD','do'],
    {
      tag:'PERSON',
      content:
      [
        ['Bohr','NNP','bohr']
      ]
    },
    ['receive','NN','receiv'],
    ['his','PRP$','his'],
    ['doctorate','NN','doct'],
    ['from','IN','from'],
    ['the','DT','the'],
    {
      tag:'ORGANIZATION',
      content:
      [
        ['University','NNP','univers']
      ]
    },
    ['of','IN','of'],
    {
      tag:'GPE',
      content:
      [
        ['Copenhagen','NNP','copenh']
      ]
    },
    [',',',',','],
    ['in','IN','in'],
    ['1954','CD','1954'],
    ['or','CC','or'],
    ['1956','CD','1956'],
    ['.','.','.']
  ]
},
{
  tag:'S',
  content:
  [
    {
      tag:'PERSON',
      content:
      [
        ['Bohr','NNP','bohr']
      ]
    },
    ['became','VBD','becom'],
    ['a','DT','a'],
    ['professor','NN','profess'],
    ['at','IN','at'],
    ['the','DT','the'],
    {
      tag:'ORGANIZATION',
      content:
      [
        ['University','NNP','univers']
      ]
    },
    ['of','IN','of'],
    {
      tag:'ORGANIZATION',
      content:
      [
        ['Copenhagen','NNP','copenh']
      ]
    },
    ['in','IN','in'],
    ['1956','CD','1956'],
    [',',',',','],
    ['and','CC','and'],
    [',',',',','],
    ['following','VBG','follow'],
    ['his','PRP$','his'],
    ['father','NN','fath'],
    [''s','POS',''s'],
    ['death','NN','dea'],
    ['in','IN','in'],
    ['1962','CD','1962'],
    [',',',',','],
    ['succeeded','VBD','success'],
    ['him','PRP','him'],
    ['as','IN','as'],
    ['director','NN','direct'],
    ['of','IN','of'],
    ['the','DT','the'],
    {
      tag:'ORGANIZATION',
      content:
      [
        ['Niels','NNP','niel'],
        ['Bohr','NNP','bohr'],
        ['Institute','NNP','institut']
      ]
    },
    [',',',',','],
    ['a','DT','a'],
    ['position','NN','posit'],
    ['he','PRP','he'],
    ['held','VBD','hold'],
    ['until','IN','until'],
    ['1970','CD','1970'],
    ['.','.','.']
  ]
},
{
  tag:'S',
  content:
  [
    ['He','PRP','He'],
    ['was','VBD','be'],
    ['also','RB','also'],
    ['a','DT','a'],
    ['member','NN','memb'],
    ['of','IN','of'],
    ['the','DT','the'],
    ['board','NN','board'],
    ['of','IN','of'],
    ['the','DT','the'],
    {
      tag:'ORGANIZATION',
      content:
      [
        ['Nordic','NNP','nord'],
        ['Institute','NNP','institut']
      ]
    },
    ['for','IN','for'],
    ['Theoretical','NNP','theoret'],
    ['Physics','NNP','phys'],
    ['(','NNP','('],
    ['Nordita','NNP','nordit'],
    [')','NNP',')'],
    ['from','IN','from'],
    ['its','PRP$','its'],
    ['inception','NN','inceiv'],
    ['in','IN','in'],
    ['1957','CD','1957'],
    [',',',',','],
    ['becoming','VBG','becom'],
    ['its','PRP$','its'],
    ['director','NN','direct'],
    ['in','IN','in'],
    ['1975','CD','1975'],
    ['.','.','.']
  ]
},
{
  tag:'S',
  content:
  [
    ['In','IN','In'],
    ['1978','CD','1978'],
    ['he','PRP','he'],
    ['was','VBD','be'],
    ['elected','VBN','elect'],
    ['to','TO','to'],
    ['the','DT','the'],
    {
      tag:'ORGANIZATION',
      content:
      [
        ['Pontifical','NNP','pont'],
        ['Academy','NNP','academy']
      ]
    },
    ['of','IN','of'],
    {
      tag:'ORGANIZATION',
      content:
      [
        ['Sciences','NNPS','sci']
      ]
    },
    ['.','.','.']
  ]
},
{
  tag:'S',
  content:
  [
    {
      tag:'PERSON',
      content:
      [
        ['Aage','NN','aag']
      ]
    },
    {
      tag:'ORGANIZATION',
      content:
      [
        ['Bohr','NNP','bohr']
      ]
    },
    [''s','POS',''s'],
    ['son','NN','son'],
    [',',',',','],
    {
      tag:'PERSON',
      content:
      [
        ['Tomas','NNP','toma'],
        ['Bohr','NNP','bohr']
      ]
    },
    [',',',',','],
    ['is','VBZ','be'],
    ['a','DT','a'],
    ['Professor','NNP','profess'],
    ['of','IN','of'],
    {
      tag:'PERSON',
      content:
      [
        ['Physics','NNP','phys']
      ]
    },
    ['at','IN','at'],
    ['the','DT','the'],
    {
      tag:'ORGANIZATION',
      content:
      [
        ['Technical','NNP','techn'],
        ['University','NNP','univers']
      ]
    },
    ['of','IN','of'],
    {
      tag:'GPE',
      content:
      [
        ['Denmark','NNP','denmark']
      ]
    },
    [',',',',','],
    ['working','VBG','work'],
    ['in','IN','in'],
    ['the','DT','the'],
    ['area','NN','are'],
    ['of','IN','of'],
    ['fluid','NN','fluid'],
    ['dynamics','NNS','dynam'],
    ['.','.','.']
  ]
},
{
  tag:'S',
  content:
  [
    {
      tag:'PERSON',
      content:
      [
        ['Tomas','NNP','toma']
      ]
    },
    [''s','POS',''s'],
    ['two','CD','two'],
    ['cousins','NNS','cousin'],
    [',',',',','],
    {
      tag:'PERSON',
      content:
      [
        ['Jakob','NNP','jakob']
      ]
    },
    ['and','CC','and'],
    {
      tag:'PERSON',
      content:
      [
        ['Henrik','NNP','henrik'],
        ['Bohr','NNP','bohr']
      ]
    },
    [',',',',','],
    ['are','VBP','be'],
    ['also','RB','also'],
    ['professors','NNS','profess'],
    ['at','IN','at'],
    ['the','DT','the'],
    {
      tag:'ORGANIZATION',
      content:
      [
        ['Technical','NNP','techn'],
        ['University','NNP','univers']
      ]
    },
    ['of','IN','of'],
    {
      tag:'GPE',
      content:
      [
        ['Denmark','NNP','denmark']
      ]
    },
    ['.','.','.']
  ]
},
{
  tag:'S',
  content:
  [
    {
      tag:'GPE',
      content:
      [
        ['Jakob','NNP','jakob']
      ]
    },
    ['at','IN','at'],
    {
      tag:'ORGANIZATION',
      content:
      [
        ['DTU','NNP','dtu'],
        ['Nanotech','NNP','nanotech']
      ]
    },
    [',',',',','],
    ['and','CC','and'],
    {
      tag:'PERSON',
      content:
      [
        ['Henrik','NNP','henrik']
      ]
    },
    ['also','RB','also'],
    ['in','IN','in'],
    ['the','DT','the'],
    {
      tag:'ORGANIZATION',
      content:
      [
        ['Physics','NNP','phys'],
        ['Institute','NNP','institut']
      ]
    },
    ['and','CC','and'],
    ['Director','NNP','direct'],
    ['of','IN','of'],
    ['the','DT','the'],
    {
      tag:'ORGANIZATION',
      content:
      [
        ['Quantum','NNP','quant'],
        ['Protein','NNP','protein']
      ]
    },
    ['(','NNP','('],
    {
      tag:'ORGANIZATION',
      content:
      [
        ['QuP','NNP','qup']
      ]
    },
    [')','NNP',')'],
    ['Center','NNP','cent'],
    ['.','.','.']
  ]
},
{
  tag:'S',
  content:
  [
    ['===Physics===','NN','===physics==='],
    ['By','IN','By'],
    ['the','DT','the'],
    ['late','JJ','lat'],
    ['1940s','CD','1940s'],
    ['it','PRP','it'],
    ['was','VBD','be'],
    ['known','VBN','know'],
    ['that','IN','that'],
    ['the','DT','the'],
    ['properties','NNS','property'],
    ['of','IN','of'],
    ['atomic','JJ','atom'],
    ['nucleus','NN','nucle'],
    ['could','MD','could'],
    ['not','RB','not'],
    ['be','VB','be'],
    ['explained','VBN','explain'],
    ['by','IN','by'],
    ['the','DT','the'],
    ['then-current','JJ','then-current'],
    ['models','NNS','model'],
    ['(',':','('],
    ['such','JJ','such'],
    ['as','IN','as'],
    ['the','DT','the'],
    ['liquid','NN','liquid'],
    ['drop','NN','drop'],
    ['model','NN','model'],
    ['developed','VBD','develop'],
    ['by','IN','by'],
    {
      tag:'PERSON',
      content:
      [
        ['Niels','NNP','niel'],
        ['Bohr','NNP','bohr']
      ]
    },
    ['amongst','NN','amongst'],
    ['others','NNS','oth'],
    [')',':',')'],
    ['.','.','.']
  ]
},
{
  tag:'S',
  content:
  [
    ['The','DT','The'],
    ['shell','NN','shel'],
    ['model','NN','model'],
    [',',',',','],
    ['developed','VBD','develop'],
    ['in','IN','in'],
    ['1949','CD','1949'],
    [',',',',','],
    ['allowed','VBN','allow'],
    ['some','DT','some'],
    ['additional','JJ','addit'],
    ['features','NNS','feat'],
    ['to','TO','to'],
    ['be','VB','be'],
    ['explained','VBN','explain'],
    [',',',',','],
    ['in','IN','in'],
    ['particular','JJ','particul'],
    ['the','DT','the'],
    ['so-called','JJ','so-called'],
    ['magic','NN','mag'],
    ['numbers','NNS','numb'],
    ['.','.','.']
  ]
},
{
  tag:'S',
  content:
  [
    ['However','RB','howev'],
    [',',',',','],
    ['there','EX','there'],
    ['were','VBD','be'],
    ['also','RB','also'],
    ['properties','VBZ','property'],
    ['which','WDT','which'],
    ['could','MD','could'],
    ['not','RB','not'],
    ['be','VB','be'],
    ['explained','VBN','explain'],
    [',',',',','],
    ['including','VBG','includ'],
    ['the','DT','the'],
    ['non-spherical','JJ','non-spherical'],
    ['distribution','NN','distribut'],
    ['of','IN','of'],
    ['charge','NN','charg'],
    ['in','IN','in'],
    ['certain','JJ','certain'],
    ['nuclei','NN','nucle'],
    ['.','.','.']
  ]
},
{
  tag:'S',
  content:
  [
    {
      tag:'PERSON',
      content:
      [
        ['James','NNP','jam']
      ]
    },
    ['Rainwater','NNP','rainw'],
    ['of','IN','of'],
    {
      tag:'ORGANIZATION',
      content:
      [
        ['Columbia','NNP','columb'],
        ['University','NNP','univers']
      ]
    },
    ['suggested','VBD','suggest'],
    ['a','DT','a'],
    ['model','NN','model'],
    ['of','IN','of'],
    ['the','DT','the'],
    ['nucleus','NN','nucle'],
    ['which','WDT','which'],
    ['could','MD','could'],
    ['explain','VB','explain'],
    ['a','DT','a'],
    ['non-spherical','JJ','non-spherical'],
    ['charge','NN','charg'],
    ['distribution','NN','distribut'],
    ['in','IN','in'],
    ['a','DT','a'],
    ['1950','CD','1950'],
    ['paper','NN','pap'],
    ['.','.','.']
  ]
},
{
  tag:'S',
  content:
  [
    {
      tag:'GPE',
      content:
      [
        ['Bohr','NNP','bohr']
      ]
    },
    [',',',',','],
    ['visiting','VBG','visit'],
    {
      tag:'GPE',
      content:
      [
        ['Columbia','NNP','columb']
      ]
    },
    ['at','IN','at'],
    ['the','DT','the'],
    ['time','NN','tim'],
    [',',',',','],
    ['had','VBD','hav'],
    ['independently','RB','independ'],
    ['conceived','VBN','conceiv'],
    ['the','DT','the'],
    ['same','JJ','sam'],
    ['idea','NN','ide'],
    [',',',',','],
    ['and','CC','and'],
    ['submitted','VBD','submit'],
    ['a','DT','a'],
    ['paper','NN','pap'],
    ['for','IN','for'],
    ['publication','NN','publ'],
    ['about','IN','about'],
    ['a','DT','a'],
    ['month','NN','mon'],
    ['after','IN','after'],
    {
      tag:'PERSON',
      content:
      [
        ['Rainwater','NNP','rainw']
      ]
    },
    [''s','POS',''s'],
    ['which','WDT','which'],
    ['discussed','VBN','discuss'],
    ['the','DT','the'],
    ['same','JJ','sam'],
    ['problem','NN','problem'],
    ['along','IN','along'],
    ['more','JJR','mor'],
    ['general','JJ','gen'],
    ['lines','NNS','lin'],
    ['.','.','.']
  ]
},
{
  tag:'S',
  content:
  [
    {
      tag:'GPE',
      content:
      [
        ['Bohr','NNP','bohr']
      ]
    },
    ['later','JJ','lat'],
    ['developed','VBD','develop'],
    ['the','DT','the'],
    ['idea','NN','ide'],
    ['further','RB','far'],
    [',',',',','],
    ['in','IN','in'],
    ['1951','CD','1951'],
    ['publishing','NN','publ'],
    ['a','DT','a'],
    ['paper','NN','pap'],
    ['which','WDT','which'],
    ['comprehensively','RB','comprehend'],
    ['treated','VBD','tre'],
    ['the','DT','the'],
    ['relationship','NN','rel'],
    ['between','IN','between'],
    ['oscillations','NNS','oscil'],
    ['of','IN','of'],
    ['the','DT','the'],
    ['surface','NN','surfac'],
    ['of','IN','of'],
    ['the','DT','the'],
    ['nucleus','NN','nucle'],
    ['and','CC','and'],
    ['the','DT','the'],
    ['movement','NN','mov'],
    ['of','IN','of'],
    ['the','DT','the'],
    ['individual','JJ','individ'],
    ['nucleons','NNS','nucleon'],
    ['.','.','.']
  ]
},
{
  tag:'S',
  content:
  [
    ['On','IN','On'],
    ['his','PRP$','his'],
    ['return','NN','return'],
    ['to','TO','to'],
    {
      tag:'GPE',
      content:
      [
        ['Copenhagen','NNP','copenh']
      ]
    },
    ['in','IN','in'],
    ['1950','CD','1950'],
    [',',',',','],
    {
      tag:'PERSON',
      content:
      [
        ['Bohr','NNP','bohr']
      ]
    },
    ['began','VBD','begin'],
    ['working','VBG','work'],
    ['with','IN','with'],
    {
      tag:'PERSON',
      content:
      [
        ['Ben','NNP','ben'],
        ['Roy','NNP','roy'],
        ['Mottelson','NNP','mottelson']
      ]
    },
    ['to','TO','to'],
    ['compare','VB','comp'],
    ['the','DT','the'],
    ['theoretical','JJ','theoret'],
    ['work','NN','work'],
    ['with','IN','with'],
    ['experimental','JJ','expery'],
    ['data','NNS','dat'],
    ['.','.','.']
  ]
},
{
  tag:'S',
  content:
  [
    ['In','IN','In'],
    ['three','CD','three'],
    ['papers','NNS','pap'],
    ['which','WDT','which'],
    ['were','VBD','be'],
    ['published','VBN','publ'],
    ['in','IN','in'],
    ['1952–53','CD','1952–53'],
    [',',',',','],
    {
      tag:'PERSON',
      content:
      [
        ['Bohr','NNP','bohr']
      ]
    },
    ['and','CC','and'],
    {
      tag:'PERSON',
      content:
      [
        ['Mottelson','NNP','mottelson']
      ]
    },
    ['demonstrated','VBD','demonst'],
    ['close','JJ','clos'],
    ['agreement','NN','agr'],
    ['between','IN','between'],
    ['theory','NN','the'],
    ['and','CC','and'],
    ['experiment','NN','expery'],
    [';',':',';'],
    ['for','IN','for'],
    ['example','NN','exampl'],
    [',',',',','],
    ['showing','NN','show'],
    ['that','IN','that'],
    ['the','DT','the'],
    ['energy','NN','energy'],
    ['levels','NNS','level'],
    ['of','IN','of'],
    ['certain','JJ','certain'],
    ['nuclei','NN','nucle'],
    ['could','MD','could'],
    ['be','VB','be'],
    ['described','VBN','describ'],
    ['by','IN','by'],
    ['a','DT','a'],
    ['rotation','NN','rot'],
    ['spectrum','NN','spectr'],
    ['.','.','.']
  ]
},
{
  tag:'S',
  content:
  [
    ['This','DT','This'],
    ['work','NN','work'],
    ['stimulated','VBD','stim'],
    ['new','JJ','new'],
    ['theoretical','JJ','theoret'],
    ['and','CC','and'],
    ['experimental','JJ','expery'],
    ['studies','NNS','study'],
    ['.','.','.']
  ]
},
{
  tag:'S',
  content:
  [
    ['As','IN','As'],
    ['a','DT','a'],
    ['result','NN','result'],
    [',',',',','],
    ['he','PRP','he'],
    ['won','VBD','win'],
    ['the','DT','the'],
    {
      tag:'ORGANIZATION',
      content:
      [
        ['Atoms','NNP','atom']
      ]
    },
    ['for','IN','for'],
    {
      tag:'PERSON',
      content:
      [
        ['Peace','NNP','peac'],
        ['Award','NNP','award']
      ]
    },
    ['in','IN','in'],
    ['1969','CD','1969'],
    ['.','.','.']
  ]
},
{
  tag:'S',
  content:
  [
    {
      tag:'GPE',
      content:
      [
        ['Bohr','NNP','bohr']
      ]
    },
    [',',',',','],
    {
      tag:'PERSON',
      content:
      [
        ['Mottelson','NNP','mottelson']
      ]
    },
    ['and','CC','and'],
    {
      tag:'PERSON',
      content:
      [
        ['Rainwater','NNP','rainw']
      ]
    },
    ['were','VBD','be'],
    ['jointly','RB','joint'],
    ['awarded','VBN','award'],
    ['the','DT','the'],
    ['1975','CD','1975'],
    ['Nobel','NNP','nobel'],
    ['Prize','NNP','priz'],
    ['in','IN','in'],
    {
      tag:'GPE',
      content:
      [
        ['Physics','NNP','phys']
      ]
    },
    ['``','``','``'],
    ['for','IN','for'],
    ['the','DT','the'],
    ['discovery','NN','discovery'],
    ['of','IN','of'],
    ['the','DT','the'],
    ['connection','NN','connect'],
    ['between','IN','between'],
    ['collective','JJ','collect'],
    ['motion','NN','mot'],
    ['and','CC','and'],
    ['particle','NN','partic'],
    ['motion','NN','mot'],
    ['in','IN','in'],
    ['atomic','JJ','atom'],
    ['nuclei','NN','nucle'],
    ['and','CC','and'],
    ['the','DT','the'],
    ['development','NN','develop'],
    ['of','IN','of'],
    ['the','DT','the'],
    ['theory','NN','the'],
    ['of','IN','of'],
    ['the','DT','the'],
    ['structure','NN','structure'],
    ['of','IN','of'],
    ['the','DT','the'],
    ['atomic','JJ','atom'],
    ['nucleus','NN','nucle'],
    ['based','VBN','bas'],
    ['on','IN','on'],
    ['this','DT','this'],
    ['connection','NN','connect'],
    ['''','''',''''],
    ['.','.','.']
  ]
},
{
  tag:'S',
  content:
  [
    {
      tag:'GPE',
      content:
      [
        ['Bohr','NNP','bohr']
      ]
    },
    ['and','CC','and'],
    {
      tag:'PERSON',
      content:
      [
        ['Mottelson','NNP','mottelson']
      ]
    },
    ['continued','VBD','continu'],
    ['to','TO','to'],
    ['work','VB','work'],
    ['together','RP','together'],
    [',',',',','],
    ['publishing','VBG','publ'],
    ['a','DT','a'],
    ['two-volume','JJ','two-volume'],
    ['monograph','NN','monograph'],
    [',',',',','],
    {
      tag:'PERSON',
      content:
      [
        ['Nuclear','NNP','nuclear'],
        ['Structure','NNP','structure']
      ]
    },
    ['.','.','.']
  ]
},
{
  tag:'S',
  content:
  [
    ['The','DT','The'],
    ['first','JJ','first'],
    ['volume','NN','volum'],
    [',',',',','],
    ['Single-Particle','JJ','single-particl'],
    ['Motion','NNP','mot'],
    [',',',',','],
    ['appeared','VBD','appear'],
    ['in','IN','in'],
    ['1969','CD','1969'],
    [',',',',','],
    ['and','CC','and'],
    ['the','DT','the'],
    ['second','JJ','second'],
    ['volume','NN','volum'],
    [',',',',','],
    {
      tag:'PERSON',
      content:
      [
        ['Nuclear','NNP','nuclear'],
        ['Deformations','NNP','deform']
      ]
    },
    [',',',',','],
    ['in','IN','in'],
    ['1975','CD','1975'],
    ['.','.','.']
  ]
},
{
  tag:'S',
  content:
  [
    ['==References==','NN','==references=='],
    ['==External','JJ','==external'],
    ['links==','NN','links=='],
    ['*','-NONE-','*'],
    ['Aage','VB','aag'],
    {
      tag:'PERSON',
      content:
      [
        ['Niels','NNS','niel'],
        ['Bohr','NNP','bohr']
      ]
    },
    ['–','NNP','–'],
    ['Autobiography','NNP','autobiograph'],
    ['*','-NONE-','*'],
    ['Aage','NNP','aag'],
    ['Niels','NNP','niel'],
    ['Bohr','NNP','bohr'],
    ['–','NNP','–'],
    ['Nobel','NNP','nobel'],
    ['Lecture','NNP','lect'],
    ['*Aage','NNP','*aage'],
    ['Bohr','NNP','bohr'],
    ['–','NNP','–'],
    {
      tag:'PERSON',
      content:
      [
        ['Daily','NNP','dai'],
        ['Telegraph','NNP','telegraph']
      ]
    },
    ['obituary','NN','obitu'],
    ['*','-NONE-','*'],
    ['Oral','JJ','or'],
    ['History','NN','hist'],
    ['interview','NN','interview'],
    ['transcript','NN','transcrib'],
    ['with','IN','with'],
    {
      tag:'PERSON',
      content:
      [
        ['Aage','NNP','aag'],
        ['Bohr','NNP','bohr']
      ]
    },
    ['23','CD','23'],
    ['&','CC','&'],
    ['30','CD','30'],
    ['January','NNP','janu'],
    ['1963','CD','1963'],
    [',',',',','],
    {
      tag:'ORGANIZATION',
      content:
      [
        ['American','NNP','am'],
        ['Institute','NNP','institut']
      ]
    },
    ['of','IN','of'],
    {
      tag:'GPE',
      content:
      [
        ['Physics','NNP','phys']
      ]
    },
    [',',',',','],
    {
      tag:'PERSON',
      content:
      [
        ['Niels','NNP','niel'],
        ['Bohr','NNP','bohr'],
        ['Library','NNP','libr']
      ]
    },
    ['and','CC','and'],
    {
      tag:'ORGANIZATION',
      content:
      [
        ['Archives','NNP','arch']
      ]
    }
  ]
}]