[
{
  tag:'S',
  content:
  [
    {
      tag:'PERSON',
      content:
      [
        ['Ralph','NNP','ralph']
      ]
    },
    {
      tag:'ORGANIZATION',
      content:
      [
        ['Kronig','NNP','kronig']
      ]
    },
    ['(','NNP','('],
    ['March','NNP','march'],
    ['10','CD','10'],
    [',',',',','],
    ['1904','CD','1904'],
    ['–',':','–'],
    ['November','NNP','novemb'],
    ['16','CD','16'],
    [',',',',','],
    ['1995','CD','1995'],
    [')',':',')'],
    ['was','VBD','be'],
    ['a','DT','a'],
    ['German-American','JJ','german-americ'],
    ['physicist','NN','phys'],
    ['.','.','.']
  ]
},
{
  tag:'S',
  content:
  [
    ['He','PRP','He'],
    ['is','VBZ','be'],
    ['noted','VBN','not'],
    ['for','IN','for'],
    ['the','DT','the'],
    ['discovery','NN','discovery'],
    ['of','IN','of'],
    ['particle','NN','partic'],
    ['spin','NN','spin'],
    ['and','CC','and'],
    ['for','IN','for'],
    ['his','PRP$','his'],
    ['theory','NN','the'],
    ['of','IN','of'],
    ['x-ray','NNP','x-ray'],
    ['absorption','NN','absorb'],
    ['spectroscopy','NN','spectroscop'],
    ['.','.','.']
  ]
},
{
  tag:'S',
  content:
  [
    ['His','PRP$','His'],
    ['theories','NNS','the'],
    ['include','VBP','includ'],
    ['the','DT','the'],
    ['Kronig–Penney','NN','kronig–penney'],
    ['model','NN','model'],
    [',',',',','],
    ['the','DT','the'],
    ['Coster–Kronig','JJ','coster–kronig'],
    ['transition','NN','transit'],
    ['and','CC','and'],
    ['the','DT','the'],
    ['Kramers–Kronig','JJ','kramers–kronig'],
    ['relation','NN','rel'],
    ['.','.','.']
  ]
},
{
  tag:'S',
  content:
  [
    ['==Background==','NN','==background=='],
    {
      tag:'PERSON',
      content:
      [
        ['Ralph','NNP','ralph'],
        ['Kronig','NNP','kronig']
      ]
    },
    ['(','NNP','('],
    ['later','JJ','lat'],
    {
      tag:'PERSON',
      content:
      [
        ['Ralph','NNP','ralph']
      ]
    },
    ['de','IN','de'],
    {
      tag:'PERSON',
      content:
      [
        ['Laer','NNP','laer'],
        ['Kronig','NNP','kronig']
      ]
    },
    [')','NNP',')'],
    ['was','VBD','be'],
    ['born','VBN','bear'],
    ['on','IN','on'],
    ['10','CD','10'],
    ['March','NNP','march'],
    ['1904','CD','1904'],
    ['to','TO','to'],
    {
      tag:'GPE',
      content:
      [
        ['American','JJ','am']
      ]
    },
    ['parents','NNS','par'],
    ['in','IN','in'],
    {
      tag:'GPE',
      content:
      [
        ['Dresden','NNP','dresd']
      ]
    },
    [',',',',','],
    {
      tag:'GPE',
      content:
      [
        ['Germany','NNP','germany']
      ]
    },
    ['.','.','.']
  ]
},
{
  tag:'S',
  content:
  [
    ['He','PRP','He'],
    ['died','VBD','die'],
    ['in','IN','in'],
    {
      tag:'GPE',
      content:
      [
        ['Zeist','NNP','zeist']
      ]
    },
    ['on','IN','on'],
    ['16','CD','16'],
    ['November','NNP','novemb'],
    ['1995','CD','1995'],
    ['at','IN','at'],
    ['the','DT','the'],
    ['age','NN','ag'],
    ['of','IN','of'],
    ['91','CD','91'],
    ['.','.','.']
  ]
},
{
  tag:'S',
  content:
  [
    {
      tag:'PERSON',
      content:
      [
        ['Kronig','NNP','kronig']
      ]
    },
    ['received','VBD','receiv'],
    ['his','PRP$','his'],
    ['primary','JJ','prim'],
    ['and','CC','and'],
    ['high-school','JJ','high-school'],
    ['education','NN','educ'],
    ['in','IN','in'],
    {
      tag:'GPE',
      content:
      [
        ['Dresden','NNP','dresd']
      ]
    },
    ['and','CC','and'],
    ['went','VBD','go'],
    ['to','TO','to'],
    {
      tag:'GPE',
      content:
      [
        ['New','NNP','new'],
        ['York','NNP','york']
      ]
    },
    ['to','TO','to'],
    ['study','NN','study'],
    ['at','IN','at'],
    {
      tag:'ORGANIZATION',
      content:
      [
        ['Columbia','NNP','columb'],
        ['University','NNP','univers']
      ]
    },
    ['where','WRB','where'],
    ['he','PRP','he'],
    ['received','VBD','receiv'],
    ['his','PRP$','his'],
    {
      tag:'ORGANIZATION',
      content:
      [
        ['PhD','NNP','phd']
      ]
    },
    ['in','IN','in'],
    ['1925','CD','1925'],
    ['and','CC','and'],
    ['subsequently','RB','subsequ'],
    ['became','VBD','becom'],
    ['instructor','NN','instruct'],
    ['(',':','('],
    ['1925','CD','1925'],
    [')','CD',')'],
    ['and','CC','and'],
    ['assistant','JJ','assist'],
    ['professor','NN','profess'],
    ['(',':','('],
    ['1927','CD','1927'],
    [')','CD',')'],
    ['.','.','.']
  ]
},
{
  tag:'S',
  content:
  [
    ['Early','RB','ear'],
    ['in','IN','in'],
    {
      tag:'GPE',
      content:
      [
        ['Kronig','NNP','kronig']
      ]
    },
    [''s','POS',''s'],
    ['career','NN','car'],
    ['he','PRP','he'],
    ['had','VBD','hav'],
    ['encountered','VBN','encount'],
    {
      tag:'PERSON',
      content:
      [
        ['Ehrenfest','NNP','ehrenfest']
      ]
    },
    ['who','WP','who'],
    [',',',',','],
    ['while','IN','while'],
    ['visiting','VBG','visit'],
    {
      tag:'GPE',
      content:
      [
        ['America','NNP','americ']
      ]
    },
    ['in','IN','in'],
    ['1924','CD','1924'],
    [',',',',','],
    ['had','VBD','hav'],
    ['advised','VBN','adv'],
    ['the','DT','the'],
    ['young','JJ','young'],
    {
      tag:'GPE',
      content:
      [
        ['American','NNP','am']
      ]
    },
    ['physicist','NN','phys'],
    {
      tag:'PERSON',
      content:
      [
        ['Ralph','NNP','ralph'],
        ['Kronig','NNP','kronig']
      ]
    },
    ['to','TO','to'],
    ['revisit','VB','revisit'],
    {
      tag:'GPE',
      content:
      [
        ['Europe','NNP','europ']
      ]
    },
    ['.','.','.']
  ]
},
{
  tag:'S',
  content:
  [
    {
      tag:'PERSON',
      content:
      [
        ['Kronig','NNP','kronig']
      ]
    },
    ['left','VBD','leav'],
    ['for','IN','for'],
    ['that','DT','that'],
    ['continent','NN','contin'],
    ['later','JJ','lat'],
    ['in','IN','in'],
    ['1924','CD','1924'],
    ['and','CC','and'],
    ['paid','VBD','pay'],
    ['visits','NNS','visit'],
    ['to','TO','to'],
    ['the','DT','the'],
    ['important','JJ','import'],
    ['centers','NNS','cent'],
    ['for','IN','for'],
    ['theoretical-physics','NNS','theoretical-physics'],
    ['research','NN','research'],
    ['in','IN','in'],
    {
      tag:'GPE',
      content:
      [
        ['Germany','NNP','germany']
      ]
    },
    ['and','CC','and'],
    {
      tag:'ORGANIZATION',
      content:
      [
        ['Copenhagen','NNP','copenh']
      ]
    },
    ['.','.','.']
  ]
},
{
  tag:'S',
  content:
  [
    ['It','PRP','It'],
    ['was','VBD','be'],
    ['a','DT','a'],
    ['time','NN','tim'],
    ['of','IN','of'],
    ['great','JJ','gre'],
    ['expansion','NN','expand'],
    ['in','IN','in'],
    ['the','DT','the'],
    ['development','NN','develop'],
    ['of','IN','of'],
    ['quantum','NN','quant'],
    ['mechanics','NNS','mech'],
    [',',',',','],
    ['and','CC','and'],
    ['that','IN','that'],
    ['development','NN','develop'],
    ['was','VBD','be'],
    ['taking','VBG','tak'],
    ['place','NN','plac'],
    ['in','IN','in'],
    {
      tag:'GPE',
      content:
      [
        ['Europe','NNP','europ']
      ]
    },
    ['.','.','.']
  ]
},
{
  tag:'S',
  content:
  [
    {
      tag:'PERSON',
      content:
      [
        ['Kronig','NNP','kronig']
      ]
    },
    ['was','VBD','be'],
    ['privileged','VBN','privileg'],
    ['to','TO','to'],
    ['be','VB','be'],
    ['a','DT','a'],
    ['young','JJ','young'],
    [',',',',','],
    ['brilliant','JJ','bril'],
    ['physicist','NN','phys'],
    ['in','IN','in'],
    ['that','DT','that'],
    ['glory-day','JJ','glory-day'],
    ['of','IN','of'],
    ['20th','JJ','20th'],
    ['century','NN','century'],
    ['theoretical','JJ','theoret'],
    ['physics','NNS','phys'],
    [',',',',','],
    ['which','WDT','which'],
    ['made','VBN','mak'],
    ['it','PRP','it'],
    ['possible','JJ','poss'],
    ['for','IN','for'],
    ['him','PRP','him'],
    ['to','TO','to'],
    ['live','VB','liv'],
    ['and','CC','and'],
    ['work','VB','work'],
    ['among','IN','among'],
    ['the','DT','the'],
    ['great','JJ','gre'],
    ['physicists','NNS','phys'],
    ['of','IN','of'],
    ['that','DT','that'],
    ['era','NN','er'],
    ['(',':','('],
    {
      tag:'PERSON',
      content:
      [
        ['Bohr','NNP','bohr']
      ]
    },
    [',',',',','],
    {
      tag:'GPE',
      content:
      [
        ['Ehrenfest','NNP','ehrenfest']
      ]
    },
    [',',',',','],
    {
      tag:'PERSON',
      content:
      [
        ['Heisenberg','NNP','heisenberg']
      ]
    },
    [',',',',','],
    {
      tag:'PERSON',
      content:
      [
        ['Pauli','NNP','paul']
      ]
    },
    [',',',',','],
    {
      tag:'ORGANIZATION',
      content:
      [
        ['Kramers','NNP','kram']
      ]
    },
    [')','NNP',')'],
    ['.','.','.']
  ]
},
{
  tag:'S',
  content:
  [
    ['In','IN','In'],
    ['January','NNP','janu'],
    ['1925','CD','1925'],
    [',',',',','],
    ['when','WRB','when'],
    {
      tag:'PERSON',
      content:
      [
        ['Kronig','NNP','kronig']
      ]
    },
    ['was','VBD','be'],
    ['a','DT','a'],
    ['still','RB','stil'],
    ['a','DT','a'],
    {
      tag:'ORGANIZATION',
      content:
      [
        ['Columbia','NNP','columb'],
        ['University','NNP','univers']
      ]
    },
    ['PhD','NNP','phd'],
    ['student','NN','stud'],
    [',',',',','],
    ['he','PRP','he'],
    ['first','RB','first'],
    ['proposed','VBD','propos'],
    ['electron','RB','electron'],
    ['spin','VB','spin'],
    ['after','IN','after'],
    ['hearing','NN','hear'],
    {
      tag:'PERSON',
      content:
      [
        ['Pauli','NNP','paul']
      ]
    },
    ['in','IN','in'],
    ['Tübingen','JJ','tübingen'],
    ['.','.','.']
  ]
},
{
  tag:'S',
  content:
  [
    {
      tag:'PERSON',
      content:
      [
        ['Werner','NNP','wern']
      ]
    },
    {
      tag:'ORGANIZATION',
      content:
      [
        ['Heisenberg','NNP','heisenberg']
      ]
    },
    ['and','CC','and'],
    {
      tag:'PERSON',
      content:
      [
        ['Wolfgang','NNP','wolfgang'],
        ['Pauli','NNP','paul']
      ]
    },
    ['immediately','RB','immedy'],
    ['hated','VBD','hat'],
    ['the','DT','the'],
    ['idea','NN','ide'],
    ['.','.','.']
  ]
},
{
  tag:'S',
  content:
  [
    ['They','PRP','They'],
    ['had','VBD','hav'],
    ['just','RB','just'],
    ['ruled','VBN','rul'],
    ['out','RP','out'],
    ['all','DT','all'],
    ['imaginable','JJ','imagin'],
    ['actions','NNS','act'],
    ['from','IN','from'],
    ['quantum','NN','quant'],
    ['mechanics','NNS','mech'],
    ['.','.','.']
  ]
},
{
  tag:'S',
  content:
  [
    ['Now','RB','now'],
    {
      tag:'PERSON',
      content:
      [
        ['Kronig','NNP','kronig']
      ]
    },
    ['was','VBD','be'],
    ['proposing','VBG','propos'],
    ['to','TO','to'],
    ['set','VB','set'],
    ['the','DT','the'],
    ['electron','NN','electron'],
    ['rotating','VBG','rot'],
    ['in','IN','in'],
    ['space','NN','spac'],
    ['.','.','.']
  ]
},
{
  tag:'S',
  content:
  [
    {
      tag:'PERSON',
      content:
      [
        ['Pauli','NNP','paul']
      ]
    },
    ['especially','RB','espec'],
    ['ridiculed','VBD','ridic'],
    ['the','DT','the'],
    ['idea','NN','ide'],
    ['of','IN','of'],
    ['spin','NN','spin'],
    [',',',',','],
    ['saying','VBG','say'],
    ['that','IN','that'],
    ['``','``','``'],
    ['it','PRP','it'],
    ['is','VBZ','be'],
    ['indeed','RB','indee'],
    ['very','RB','very'],
    ['clever','RB','clev'],
    ['but','CC','but'],
    ['of','IN','of'],
    ['course','NN','cours'],
    ['has','VBZ','hav'],
    ['nothing','NN','noth'],
    ['to','TO','to'],
    ['do','VB','do'],
    ['with','IN','with'],
    ['reality','NN','real'],
    ['''','''',''''],
    ['.','.','.']
  ]
},
{
  tag:'S',
  content:
  [
    ['Faced','NNP','fac'],
    ['with','IN','with'],
    ['such','JJ','such'],
    ['criticism','NN','crit'],
    [',',',',','],
    {
      tag:'PERSON',
      content:
      [
        ['Kronig','NNP','kronig']
      ]
    },
    ['decided','VBD','decid'],
    ['not','RB','not'],
    ['to','TO','to'],
    ['publish','VB','publ'],
    ['his','PRP$','his'],
    ['theory','NN','the'],
    ['and','CC','and'],
    ['the','DT','the'],
    ['idea','NN','ide'],
    ['of','IN','of'],
    ['electron','NN','electron'],
    ['spin','NN','spin'],
    ['had','VBD','hav'],
    ['to','TO','to'],
    ['wait','VB','wait'],
    ['for','IN','for'],
    ['others','NNS','oth'],
    ['to','TO','to'],
    ['take','VB','tak'],
    ['the','DT','the'],
    ['credit','NN','credit'],
    ['.','.','.']
  ]
},
{
  tag:'S',
  content:
  [
    {
      tag:'PERSON',
      content:
      [
        ['Ralph','NNP','ralph']
      ]
    },
    {
      tag:'PERSON',
      content:
      [
        ['Kronig','NNP','kronig']
      ]
    },
    ['had','VBD','hav'],
    ['come','VBN','com'],
    ['up','RP','up'],
    ['with','IN','with'],
    ['the','DT','the'],
    ['idea','NN','ide'],
    ['of','IN','of'],
    ['electron','NN','electron'],
    ['spin','NN','spin'],
    ['several','JJ','sev'],
    ['months','NNS','mon'],
    ['before','IN','before'],
    {
      tag:'PERSON',
      content:
      [
        ['Uhlenbeck','NNP','uhlenbeck']
      ]
    },
    ['and','CC','and'],
    {
      tag:'GPE',
      content:
      [
        ['Goudsmit','NNP','goudsmit']
      ]
    },
    ['.','.','.']
  ]
},
{
  tag:'S',
  content:
  [
    ['Most','JJS','most'],
    ['textbooks','NNS','textbook'],
    ['credit','NN','credit'],
    ['these','DT','these'],
    ['two','CD','two'],
    {
      tag:'GPE',
      content:
      [
        ['Dutch','JJ','dutch']
      ]
    },
    ['physicists','NNS','phys'],
    ['with','IN','with'],
    ['the','DT','the'],
    ['discovery','NN','discovery'],
    ['.','.','.']
  ]
},
{
  tag:'S',
  content:
  [
    {
      tag:'PERSON',
      content:
      [
        ['Ralph','NNP','ralph']
      ]
    },
    {
      tag:'PERSON',
      content:
      [
        ['Kronig','NNP','kronig']
      ]
    },
    ['did','VBD','do'],
    ['not','RB','not'],
    ['hold','VB','hold'],
    ['a','DT','a'],
    ['grudge','NN','grudg'],
    ['against','IN','against'],
    {
      tag:'PERSON',
      content:
      [
        ['Pauli','NNP','paul']
      ]
    },
    ['for','IN','for'],
    ['this','DT','this'],
    ['turn','NN','turn'],
    ['of','IN','of'],
    ['events','NNS','ev'],
    ['.','.','.']
  ]
},
{
  tag:'S',
  content:
  [
    ['In','IN','In'],
    ['fact','NN','fact'],
    [',',',',','],
    {
      tag:'PERSON',
      content:
      [
        ['Kronig','NNP','kronig']
      ]
    },
    ['and','CC','and'],
    {
      tag:'PERSON',
      content:
      [
        ['Pauli','NNP','paul']
      ]
    },
    ['remained','VBD','remain'],
    ['friends','NNS','friend'],
    ['for','IN','for'],
    ['many','JJ','many'],
    ['years','NNS','year'],
    ['into','IN','into'],
    ['the','DT','the'],
    ['future','JJ','fut'],
    ['.','.','.']
  ]
},
{
  tag:'S',
  content:
  [
    ['They','PRP','They'],
    ['exchanged','VBD','exchang'],
    ['many','JJ','many'],
    ['ideas','NNS','ide'],
    ['in','IN','in'],
    ['physics','NN','phys'],
    ['through','IN','through'],
    ['letters','NNS','let'],
    ['.','.','.']
  ]
},
{
  tag:'S',
  content:
  [
    ['But','CC','But'],
    ['it','PRP','it'],
    ['remains','VBZ','remain'],
    ['an','DT','an'],
    ['historic','JJ','hist'],
    ['fact','NN','fact'],
    ['that','IN','that'],
    {
      tag:'PERSON',
      content:
      [
        ['Kronig','NNP','kronig']
      ]
    },
    ['had','VBD','hav'],
    ['told','VBN','tel'],
    {
      tag:'PERSON',
      content:
      [
        ['Pauli','NNP','paul']
      ]
    },
    ['about','IN','about'],
    ['electron','NN','electron'],
    ['spin','NN','spin'],
    ['before','IN','before'],
    {
      tag:'PERSON',
      content:
      [
        ['Pauli','NNP','paul']
      ]
    },
    ['had','VBD','hav'],
    ['published','VBN','publ'],
    ['his','PRP$','his'],
    ['paper','NN','pap'],
    ['showing','VBG','show'],
    ['that','IN','that'],
    ['two','CD','two'],
    ['electrons','NNS','electron'],
    ['can','MD','can'],
    ['inhabit','VB','inhabit'],
    ['the','DT','the'],
    ['same','JJ','sam'],
    ['orbital','NN','orbit'],
    ['(',':','('],
    ['W.','NNP','w.'],
    {
      tag:'PERSON',
      content:
      [
        ['Pauli','NNP','paul']
      ]
    },
    [',',',',','],
    ['``','``','``'],
    ['On','IN','On'],
    ['the','DT','the'],
    {
      tag:'ORGANIZATION',
      content:
      [
        ['Connexion','NNP','connect']
      ]
    },
    ['between','IN','between'],
    ['the','DT','the'],
    {
      tag:'ORGANIZATION',
      content:
      [
        ['Completion','NNP','complet']
      ]
    },
    ['of','IN','of'],
    {
      tag:'ORGANIZATION',
      content:
      [
        ['Electron','NNP','electron'],
        ['Groups','NNP','group']
      ]
    },
    ['in','IN','in'],
    ['an','DT','an'],
    ['Atom','NNP','atom'],
    ['with','IN','with'],
    ['the','DT','the'],
    {
      tag:'ORGANIZATION',
      content:
      [
        ['Complex','NNP','complex'],
        ['Structure','NNP','structure']
      ]
    },
    ['of','IN','of'],
    {
      tag:'GPE',
      content:
      [
        ['Spectra','NNP','spectr']
      ]
    },
    ['''','''',''''],
    [',',',',','],
    ['Z.','NNP','z.'],
    ['Physik','NNP','physik'],
    ['31','CD','31'],
    [',',',',','],
    ['765ff','CD','765ff'],
    [',',',',','],
    ['1925','CD','1925'],
    [')',':',')'],
    ['.','.','.']
  ]
},
{
  tag:'S',
  content:
  [
    ['Months','NNS','month'],
    ['later','JJ','lat'],
    ['when','WRB','when'],
    {
      tag:'PERSON',
      content:
      [
        ['Uhlenbeck','NNP','uhlenbeck']
      ]
    },
    ['and','CC','and'],
    {
      tag:'PERSON',
      content:
      [
        ['Goudsmit','NNP','goudsmit']
      ]
    },
    ['came','VBD','com'],
    ['up','RP','up'],
    ['with','IN','with'],
    ['particle','NN','partic'],
    ['spin','NN','spin'],
    [',',',',','],
    ['it','PRP','it'],
    ['seemed','VBD','seem'],
    ['to','TO','to'],
    ['verify','VB','ver'],
    {
      tag:'PERSON',
      content:
      [
        ['Pauli','NNP','paul']
      ]
    },
    [''s','POS',''s'],
    ['paper','NN','pap'],
    ['.','.','.']
  ]
},
{
  tag:'S',
  content:
  [
    ['Together','RB','togeth'],
    ['with','IN','with'],
    {
      tag:'PERSON',
      content:
      [
        ['Rabi','NNP','rab'],
        ['Kronig','NNP','kronig']
      ]
    },
    ['gave','VBD','giv'],
    ['the','DT','the'],
    ['first','JJ','first'],
    ['solution','NN','solv'],
    ['(',':','('],
    ['1927','CD','1927'],
    [')','CD',')'],
    ['of','IN','of'],
    ['the','DT','the'],
    ['Schrödinger','JJ','schrödinger'],
    ['equation','NN','equ'],
    ['for','IN','for'],
    ['the','DT','the'],
    ['rigid','JJ','rigid'],
    ['symmetric','JJ','symmet'],
    ['top','JJ','top'],
    ['.','.','.']
  ]
},
{
  tag:'S',
  content:
  [
    {
      tag:'PERSON',
      content:
      [
        ['Werner','NNP','wern']
      ]
    },
    {
      tag:'ORGANIZATION',
      content:
      [
        ['Heisenberg','NNP','heisenberg']
      ]
    },
    ['in','IN','in'],
    ['developing','VBG','develop'],
    {
      tag:'PERSON',
      content:
      [
        ['Quantum','NNP','quant'],
        ['Mechanics','NNP','mech']
      ]
    },
    ['involved','VBD','involv'],
    {
      tag:'PERSON',
      content:
      [
        ['Kronig','NNP','kronig']
      ]
    },
    ['in','IN','in'],
    ['his','PRP$','his'],
    ['seminal','JJ','semin'],
    ['ideas','NNS','ide'],
    ['of','IN','of'],
    ['the','DT','the'],
    ['theory','NN','the'],
    ['.','.','.']
  ]
},
{
  tag:'S',
  content:
  [
    ['In','IN','In'],
    ['the','DT','the'],
    ['beginning','NN','begin'],
    ['of','IN','of'],
    ['May','NNP','may'],
    ['1925','CD','1925'],
    [',',',',','],
    {
      tag:'PERSON',
      content:
      [
        ['Heisenberg','NNP','heisenberg']
      ]
    },
    ['wrote','VBD','writ'],
    ['three','CD','three'],
    ['times','NNS','tim'],
    ['to','TO','to'],
    {
      tag:'PERSON',
      content:
      [
        ['Ralph','NNP','ralph'],
        ['Kronig','NNP','kronig']
      ]
    },
    [',',',',','],
    ['with','IN','with'],
    ['whom','WP','whom'],
    ['he','PRP','he'],
    ['had','VBD','hav'],
    ['cooperated','VBN','coop'],
    ['a','DT','a'],
    ['little','RB','littl'],
    ['earlier','RBR','ear'],
    ['in','IN','in'],
    {
      tag:'GPE',
      content:
      [
        ['Copenhagen','NNP','copenh']
      ]
    },
    ['on','IN','on'],
    ['the','DT','the'],
    ['spectral','JJ','spect'],
    ['theory','NN','the'],
    ['of','IN','of'],
    ['multi-electron','JJ','multi-electron'],
    ['atoms','NNS','atom'],
    ['.','.','.']
  ]
},
{
  tag:'S',
  content:
  [
    ['In','IN','In'],
    ['the','DT','the'],
    ['second','JJ','second'],
    ['letter','NN','let'],
    [',',',',','],
    ['dated','VBD','dat'],
    ['5','CD','5'],
    ['May','NNP','may'],
    [',',',',','],
    {
      tag:'PERSON',
      content:
      [
        ['Heisenberg','NNP','heisenberg']
      ]
    },
    ['wrote','VBD','writ'],
    ['down','RP','down'],
    ['in','IN','in'],
    ['some','DT','some'],
    ['detailed','JJ','detail'],
    ['equations','NNS','equ'],
    ['expressing','VBG','express'],
    ['the','DT','the'],
    ['transition','NN','transit'],
    ['to','TO','to'],
    ['his','PRP$','his'],
    ['matrix','NN','matrix'],
    ['mechanics','NNS','mech'],
    ['.','.','.']
  ]
},
{
  tag:'S',
  content:
  [
    ['In','IN','In'],
    ['1927','CD','1927'],
    [',',',',','],
    {
      tag:'PERSON',
      content:
      [
        ['Kronig','NNP','kronig']
      ]
    },
    ['returned','VBD','return'],
    ['to','TO','to'],
    {
      tag:'GPE',
      content:
      [
        ['Europe','NNP','europ']
      ]
    },
    ['for','IN','for'],
    ['good','JJ','good'],
    ['and','CC','and'],
    ['worked','VBD','work'],
    ['in','IN','in'],
    ['different','JJ','diff'],
    ['prominent','NN','promin'],
    ['centres','NNS','cent'],
    ['of','IN','of'],
    ['research','NN','research'],
    [':',':',':'],
    ['Copenhagen','NNP','copenh'],
    [',',',',','],
    {
      tag:'GPE',
      content:
      [
        ['London','NNP','london']
      ]
    },
    [',',',',','],
    {
      tag:'GPE',
      content:
      [
        ['Zürich','JJ','zürich']
      ]
    },
    ['(','NN','('],
    ['where','WRB','where'],
    ['for','IN','for'],
    ['a','DT','a'],
    ['year','NN','year'],
    ['he','PRP','he'],
    ['was','VBD','be'],
    {
      tag:'PERSON',
      content:
      [
        ['Pauli','NNP','paul']
      ]
    },
    [''s','POS',''s'],
    ['assistant','NN','assist'],
    [')',':',')'],
    ['.','.','.']
  ]
},
{
  tag:'S',
  content:
  [
    ['Around','IN','Around'],
    ['1930','CD','1930'],
    ['he','PRP','he'],
    ['settled','VBD','settl'],
    ['in','IN','in'],
    ['the','DT','the'],
    {
      tag:'GPE',
      content:
      [
        ['Netherlands','NNP','netherland']
      ]
    },
    [':',':',':'],
    ['first','JJ','first'],
    ['in','IN','in'],
    {
      tag:'GPE',
      content:
      [
        ['Utrecht','NNP','utrecht']
      ]
    },
    [',',',',','],
    ['then','RB','then'],
    ['in','IN','in'],
    {
      tag:'GPE',
      content:
      [
        ['Groningen','NNP','gron']
      ]
    },
    [',',',',','],
    ['first','JJ','first'],
    ['as','IN','as'],
    {
      tag:'PERSON',
      content:
      [
        ['Dirk','NNP','dirk'],
        ['Coster','NNP','cost']
      ]
    },
    [''s','POS',''s'],
    ['assistant','NN','assist'],
    [',',',',','],
    ['and','CC','and'],
    ['from','IN','from'],
    ['1931','CD','1931'],
    ['as','IN','as'],
    ['an','DT','an'],
    ['associate','NN','assocy'],
    ['professor','NN','profess'],
    [',',',',','],
    ['and','CC','and'],
    ['since','IN','since'],
    ['1939','CD','1939'],
    ['as','IN','as'],
    ['a','DT','a'],
    ['full','JJ','ful'],
    ['professor','NN','profess'],
    ['at','IN','at'],
    ['the','DT','the'],
    {
      tag:'ORGANIZATION',
      content:
      [
        ['Delft','NNP','delft'],
        ['University','NNP','univers']
      ]
    },
    ['of','IN','of'],
    {
      tag:'GPE',
      content:
      [
        ['Technology','NNP','technolog']
      ]
    },
    ['where','WRB','where'],
    ['he','PRP','he'],
    ['stayed','VBD','stay'],
    ['until','IN','until'],
    ['his','PRP$','his'],
    ['retirement','NN','retir'],
    ['in','IN','in'],
    ['1969','CD','1969'],
    ['.','.','.']
  ]
},
{
  tag:'S',
  content:
  [
    ['He','PRP','He'],
    ['was','VBD','be'],
    ['recognized','VBN','recogn'],
    ['internationally','RB','intern'],
    ['by','IN','by'],
    ['then','RB','then'],
    ['as','IN','as'],
    ['a','DT','a'],
    ['renowned','VBN','renown'],
    ['theorist','NN','the'],
    ['who','WP','who'],
    ['corresponded','VBN','correspond'],
    ['with','IN','with'],
    ['the','DT','the'],
    ['leading','VBG','lead'],
    ['characters','NNS','charact'],
    ['of','IN','of'],
    ['that','DT','that'],
    ['time','NN','tim'],
    ['and','CC','and'],
    ['made','VBD','mak'],
    ['interesting','JJ','interest'],
    ['contributions','NNS','contribut'],
    ['to','TO','to'],
    ['quantum','VB','quant'],
    ['mechanics','NNS','mech'],
    ['and','CC','and'],
    ['the','DT','the'],
    ['application','NN','apply'],
    ['of','IN','of'],
    ['it','PRP','it'],
    ['particularly','RB','particul'],
    ['on','IN','on'],
    ['the','DT','the'],
    ['physics','NN','phys'],
    ['of','IN','of'],
    ['molecules','NNS','molec'],
    ['and','CC','and'],
    ['molecular','JJ','molecul'],
    ['spectra','NN','spectr'],
    [',',',',','],
    ['an','DT','an'],
    ['area','NN','are'],
    ['on','IN','on'],
    ['which','WDT','which'],
    ['he','PRP','he'],
    ['was','VBD','be'],
    ['the','DT','the'],
    ['expert','NN','expert'],
    ['of','IN','of'],
    ['those','DT','those'],
    ['days','NNS','day'],
    ['.','.','.']
  ]
},
{
  tag:'S',
  content:
  [
    ['The','DT','The'],
    {
      tag:'ORGANIZATION',
      content:
      [
        ['Max','NNP','max'],
        ['Planck','NNP','planck']
      ]
    },
    ['medal','NN','med'],
    ['was','VBD','be'],
    ['awarded','VBN','award'],
    ['to','TO','to'],
    {
      tag:'PERSON',
      content:
      [
        ['Ralph','NNP','ralph'],
        ['Kronig','NNP','kronig']
      ]
    },
    ['in','IN','in'],
    ['1962','CD','1962'],
    ['.','.','.']
  ]
},
{
  tag:'S',
  content:
  [
    ['Among','IN','Among'],
    {
      tag:'PERSON',
      content:
      [
        ['Ralph','NNP','ralph'],
        ['Kronig','NNP','kronig']
      ]
    },
    [''s','POS',''s'],
    ['substantial','JJ','subst'],
    ['correspondence','NN','correspond'],
    ['are','VBP','be'],
    ['many','JJ','many'],
    ['letters','NNS','let'],
    ['to','TO','to'],
    ['and','CC','and'],
    ['from','IN','from'],
    ['the','DT','the'],
    ['20th','CD','20th'],
    ['century','NN','century'],
    [''s','POS',''s'],
    ['greatest','JJS','gre'],
    ['physicists','NNS','phys'],
    ['that','WDT','that'],
    ['should','MD','should'],
    ['be','VB','be'],
    ['preserved','VBN','preserv'],
    ['for','IN','for'],
    ['posterity','NN','post'],
    ['and','CC','and'],
    {
      tag:'PERSON',
      content:
      [
        ['Kronig','NNP','kronig']
      ]
    },
    ['himself','PRP','himself'],
    ['published','VBD','publ'],
    ['many','JJ','many'],
    ['in','IN','in'],
    ['books','NNS','book'],
    ['.','.','.']
  ]
},
{
  tag:'S',
  content:
  [
    ['Showing','VBG','show'],
    {
      tag:'PERSON',
      content:
      [
        ['Kronig','NNP','kronig']
      ]
    },
    [''s','POS',''s'],
    ['great','JJ','gre'],
    ['respect','NN','respect'],
    ['for','IN','for'],
    {
      tag:'PERSON',
      content:
      [
        ['Pauli','NNP','paul']
      ]
    },
    [',',',',','],
    ['in','IN','in'],
    ['one','CD','one'],
    ['letter','NN','let'],
    {
      tag:'PERSON',
      content:
      [
        ['Ralph','NNP','ralph'],
        ['Kronig','NNP','kronig']
      ]
    },
    ['said','VBD','say'],
    ['regarding','VBG','regard'],
    {
      tag:'PERSON',
      content:
      [
        ['Pauli','NNP','paul']
      ]
    },
    ['and','CC','and'],
    ['the','DT','the'],
    ['slim','NN','slim'],
    ['number','NN','numb'],
    ['of','IN','of'],
    ['actual','JJ','act'],
    ['publications','NNS','publ'],
    ['made','VBN','mak'],
    ['by','IN','by'],
    {
      tag:'PERSON',
      content:
      [
        ['Pauli','NNP','paul']
      ]
    },
    ['considering','VBG','consid'],
    ['the','DT','the'],
    ['extent','NN','ext'],
    ['of','IN','of'],
    ['his','PRP$','his'],
    ['work','NN','work'],
    ['from','IN','from'],
    ['the','DT','the'],
    {
      tag:'GPE',
      content:
      [
        ['German','NNP','germ']
      ]
    },
    [':',':',':'],
    ['''','''',''''],
    ['...',':','...'],
    ['his','PRP$','his'],
    ['[','NN','['],
    {
      tag:'PERSON',
      content:
      [
        ['Pauli','NNP','paul']
      ]
    },
    [''s','POS',''s'],
    [']','NNP',']'],
    ['publications','NNS','publ'],
    ['contain','VBP','contain'],
    ['however','RB','howev'],
    [',',',',','],
    ['which','WDT','which'],
    ['is','VBZ','be'],
    ['understandable','JJ','understand'],
    ['due','JJ','due'],
    ['to','TO','to'],
    {
      tag:'PERSON',
      content:
      [
        ['Pauli','NNP','paul']
      ]
    },
    [''s','POS',''s'],
    ['unusually','RB','unus'],
    ['critical','JJ','crit'],
    ['attitude','NN','attitud'],
    [',',',',','],
    ['only','RB','on'],
    ['a','DT','a'],
    ['small','JJ','smal'],
    ['part','NN','part'],
    ['of','IN','of'],
    ['the','DT','the'],
    ['work','NN','work'],
    ['really','RB','real'],
    ['carried','VBN','carry'],
    ['out','RP','out'],
    ['by','IN','by'],
    ['him','PRP','him'],
    ['.','.','.']
  ]
},
{
  tag:'S',
  content:
  [
    {
      tag:'PERSON',
      content:
      [
        ['Pauli','NNP','paul']
      ]
    },
    ['briefs','VBD','brief'],
    ['in','IN','in'],
    ['his','PRP$','his'],
    ['papers','NNS','pap'],
    ['on','IN','on'],
    ['the','DT','the'],
    ['finished','JJ','fin'],
    ['results','NNS','result'],
    [',',',',','],
    ['but','CC','but'],
    ['not','RB','not'],
    ['on','IN','on'],
    ['the','DT','the'],
    ['long','JJ','long'],
    [',',',',','],
    ['often','RB','oft'],
    ['laborious','JJ','lab'],
    ['way','NN','way'],
    [',',',',','],
    ['which','WDT','which'],
    ['had','VBD','hav'],
    ['led','VBN','lead'],
    ['to','TO','to'],
    ['them','PRP','them'],
    [',',',',','],
    ['and','CC','and'],
    ['also','RB','also'],
    ['not','RB','not'],
    ['on','IN','on'],
    ['incomplete','JJ','incomplet'],
    ['attempts','NNS','attempt'],
    ['.','.','.']
  ]
},
{
  tag:'S',
  content:
  [
    ['A','DT','A'],
    ['part','NN','part'],
    ['of','IN','of'],
    ['his','PRP$','his'],
    ['work','NN','work'],
    ['is','VBZ','be'],
    ['only','RB','on'],
    ['carried','VBN','carry'],
    ['in','IN','in'],
    ['a','DT','a'],
    ['satisfying','NN','satisfy'],
    ['way','NN','way'],
    ['in','IN','in'],
    ['his','PRP$','his'],
    ['extensive','JJ','extend'],
    ['exchange','NN','exchang'],
    ['of','IN','of'],
    ['letters','NNS','let'],
    ['.','.','.']
  ]
},
{
  tag:'S',
  content:
  [
    ['``','``','``'],
    ['Stumm','NNP','stum'],
    ['von','NN','von'],
    {
      tag:'PERSON',
      content:
      [
        ['Bordwehr','NNP','bordwehr']
      ]
    },
    ['(','NNP','('],
    ['1989','CD','1989'],
    [')','CD',')'],
    ['gives','NNS','giv'],
    ['a','DT','a'],
    ['detailed','JJ','detail'],
    ['description','NN','describ'],
    ['of','IN','of'],
    ['the','DT','the'],
    ['life','NN','lif'],
    ['and','CC','and'],
    ['accomplishments','NNS','accompl'],
    ['of','IN','of'],
    {
      tag:'GPE',
      content:
      [
        ['Kronig','NNP','kronig']
      ]
    },
    [',',',',','],
    ['even','RB','ev'],
    ['recounting','VBG','recount'],
    ['how','WRB','how'],
    ['his','PRP$','his'],
    ['name','NN','nam'],
    ['was','VBD','be'],
    ['changed','VBN','chang'],
    ['to','TO','to'],
    {
      tag:'PERSON',
      content:
      [
        ['Ralph','NNP','ralph']
      ]
    },
    ['de','IN','de'],
    {
      tag:'PERSON',
      content:
      [
        ['Laer','NNP','laer'],
        ['Kronig','NNP','kronig']
      ]
    },
    ['.','.','.']
  ]
},
{
  tag:'S',
  content:
  [
    ['==Scientific','JJ','==scientific'],
    ['achievement==','NN','achievement=='],
    {
      tag:'PERSON',
      content:
      [
        ['Ralph','NNP','ralph'],
        ['Kronig','NNP','kronig']
      ]
    },
    ['(','NNP','('],
    ['1931','CD','1931'],
    [',',',',','],
    ['1932','CD','1932'],
    [')',':',')'],
    [',',',',','],
    ['published','VBD','publ'],
    ['the','DT','the'],
    ['first','JJ','first'],
    ['theory','NN','the'],
    ['of','IN','of'],
    ['x-ray','NNP','x-ray'],
    ['absorption','NN','absorb'],
    ['fine','NN','fin'],
    ['structure','NN','structure'],
    [',',',',','],
    ['which','WDT','which'],
    ['contained','VBD','contain'],
    ['some','DT','some'],
    ['of','IN','of'],
    ['the','DT','the'],
    ['basic','JJ','bas'],
    ['concepts','NNS','conceiv'],
    ['of','IN','of'],
    ['the','DT','the'],
    ['modern','JJ','modern'],
    ['interpretation','NN','interpret'],
    ['.','.','.']
  ]
},
{
  tag:'S',
  content:
  [
    ['The','DT','The'],
    ['Kronig-Penney','NN','kronig-penney'],
    {
      tag:'PERSON',
      content:
      [
        ['Model','NNP','model']
      ]
    },
    ['(','NNP','('],
    ['1931','CD','1931'],
    [')','CD',')'],
    ['is','VBZ','be'],
    ['a','DT','a'],
    ['one-dimensional','JJ','one-dimensional'],
    ['model','NN','model'],
    ['of','IN','of'],
    ['a','DT','a'],
    ['crystal','NN','cryst'],
    ['that','WDT','that'],
    ['shows','VBZ','show'],
    ['how','WRB','how'],
    ['the','DT','the'],
    ['electrons','NNS','electron'],
    ['in','IN','in'],
    ['a','DT','a'],
    ['crystal','NN','cryst'],
    ['are','VBP','be'],
    ['dispersed','VBN','dispers'],
    ['into','IN','into'],
    ['allowed','VBN','allow'],
    ['and','CC','and'],
    ['forbidden','JJ','forbid'],
    ['bands','NNS','band'],
    ['by','IN','by'],
    ['scattering','VBG','scat'],
    ['from','IN','from'],
    ['the','DT','the'],
    ['extended','JJ','extend'],
    ['linear','NN','linear'],
    ['array','NN','array'],
    ['of','IN','of'],
    ['atoms','NNS','atom'],
    ['.','.','.']
  ]
},
{
  tag:'S',
  content:
  [
    ['His','PRP$','His'],
    ['first','JJ','first'],
    ['theory','NN','the'],
    ['(',':','('],
    ['1931','CD','1931'],
    [')','CD',')'],
    ['of','IN','of'],
    {
      tag:'ORGANIZATION',
      content:
      [
        ['EXAFS','NNP','exaf']
      ]
    },
    ['was','VBD','be'],
    ['the','DT','the'],
    ['three-dimensional','JJ','three-dimensional'],
    ['equivalent','NN','equ'],
    ['of','IN','of'],
    ['this','DT','this'],
    ['model','NN','model'],
    ['.','.','.']
  ]
},
{
  tag:'S',
  content:
  [
    ['The','DT','The'],
    ['theory','NN','the'],
    ['showed','VBD','show'],
    ['that','IN','that'],
    ['a','DT','a'],
    ['photo','NN','photo'],
    ['electron','NN','electron'],
    ['traversing','VBG','travers'],
    ['a','DT','a'],
    ['crystal','NN','cryst'],
    ['lattice','NN','lat'],
    ['would','MD','would'],
    ['experience','VB','expery'],
    ['permitted','VBN','permit'],
    ['and','CC','and'],
    ['forbidden','JJ','forbid'],
    ['zones','NNS','zon'],
    ['depending','VBG','depend'],
    ['on','IN','on'],
    ['its','PRP$','its'],
    ['wavelength','NN','waveleng'],
    ['and','CC','and'],
    [',',',',','],
    ['that','IN','that'],
    ['even','RB','ev'],
    ['when','WRB','when'],
    ['the','DT','the'],
    ['effect','NN','effect'],
    ['was','VBD','be'],
    ['averaged','VBN','av'],
    ['over','IN','over'],
    ['all','DT','all'],
    ['directions','NNS','direct'],
    ['in','IN','in'],
    ['the','DT','the'],
    ['lattice','NN','lat'],
    [',',',',','],
    ['a','DT','a'],
    ['residual','JJ','resid'],
    ['structure','NN','structure'],
    ['should','MD','should'],
    ['be','VB','be'],
    ['observed','VBN','observ'],
    ['.','.','.']
  ]
},
{
  tag:'S',
  content:
  [
    ['His','PRP$','His'],
    ['theory','NN','the'],
    ['was','VBD','be'],
    ['successful','JJ','success'],
    ['in','IN','in'],
    ['predicting','NN','predict'],
    ['many','JJ','many'],
    ['generally','RB','gen'],
    ['observed','VBN','observ'],
    ['features','NNS','feat'],
    ['of','IN','of'],
    ['the','DT','the'],
    ['fine','NN','fin'],
    ['structure','NN','structure'],
    [',',',',','],
    ['including','VBG','includ'],
    ['similar','JJ','simil'],
    ['structure','NN','structure'],
    ['from','IN','from'],
    ['similar','JJ','simil'],
    ['lattices','NNS','lat'],
    [',',',',','],
    ['inverse','VBP','invers'],
    ['r2','NNP','r2'],
    ['dependence','NN','depend'],
    [',',',',','],
    ['correct','JJ','correct'],
    ['r','NN','r'],
    ['versus','NN','vers'],
    ['T','NNP','t'],
    ['dependence','NN','depend'],
    ['and','CC','and'],
    ['increasing','VBG','increas'],
    ['energy','NN','energy'],
    ['separation','NN','sep'],
    ['of','IN','of'],
    ['the','DT','the'],
    ['fine','NN','fin'],
    ['structure','NN','structure'],
    ['features','NNS','feat'],
    ['with','IN','with'],
    ['energy','NN','energy'],
    ['from','IN','from'],
    ['the','DT','the'],
    ['edge','NN','edg'],
    ['.','.','.']
  ]
},
{
  tag:'S',
  content:
  [
    ['The','DT','The'],
    ['equation','NN','equ'],
    [',',',',','],
    ['which','WDT','which'],
    ['was','VBD','be'],
    ['re-derived','JJ','re-derived'],
    ['in','IN','in'],
    ['a','DT','a'],
    ['more','RBR','mor'],
    ['quantitative','JJ','quantit'],
    ['way','NN','way'],
    ['in','IN','in'],
    ['1932','CD','1932'],
    ['was','VBD','be'],
    ['simple','JJ','simpl'],
    ['to','TO','to'],
    ['apply','VB','apply'],
    ['and','CC','and'],
    ['interpret','VB','interpret'],
    ['.','.','.']
  ]
},
{
  tag:'S',
  content:
  [
    ['Every','DT','Every'],
    ['experimenter','NN','expery'],
    ['found','VBD','find'],
    ['approximate','NN','approxim'],
    ['agreement','NN','agr'],
    ['with','IN','with'],
    ['the','DT','the'],
    ['theory','NN','the'],
    ['.','.','.']
  ]
},
{
  tag:'S',
  content:
  [
    ['There','EX','There'],
    ['were','VBD','be'],
    ['always','RB','alway'],
    ['some','DT','some'],
    ['absorption','NN','absorb'],
    ['features','NNS','feat'],
    ['close','RB','clos'],
    ['to','TO','to'],
    ['that','DT','that'],
    ['predicted','VBN','predict'],
    ['by','IN','by'],
    ['the','DT','the'],
    ['possible','JJ','poss'],
    ['lattice','NN','lat'],
    ['planes','NNS','plan'],
    ['.','.','.']
  ]
},
{
  tag:'S',
  content:
  [
    ['However','RB','howev'],
    [',',',',','],
    ['the','DT','the'],
    ['expected','VBN','expect'],
    ['strong','JJ','strong'],
    ['reflections','NNS','reflect'],
    ['(',':','('],
    ['e.','NNP','e.'],
    ['g.','NNP','g.'],
    ['(','NNP','('],
    ['100','CD','100'],
    [')','CD',')'],
    [',',',',','],
    ['(',':','('],
    ['110','CD','110'],
    [')','CD',')'],
    [',',',',','],
    ['(',':','('],
    ['111','CD','111'],
    [')','CD',')'],
    [',',',',','],
    ['etc','NN','etc'],
    ['.','.','.']
  ]
},
{
  tag:'S',
  content:
  [
    [')','NN',')'],
    ['did','VBD','do'],
    ['not','RB','not'],
    ['always','RB','alway'],
    ['correlate','VB','correl'],
    ['with','IN','with'],
    ['the','DT','the'],
    ['most','RBS','most'],
    ['intense','JJ','intens'],
    ['absorption','NN','absorb'],
    ['features','NNS','feat'],
    ['as','IN','as'],
    ['intuitively','RB','intuit'],
    ['expected','VBN','expect'],
    ['.','.','.']
  ]
},
{
  tag:'S',
  content:
  [
    ['Still','RB','stil'],
    [',',',',','],
    ['agreement','NN','agr'],
    ['was','VBD','be'],
    ['close','JJ','clos'],
    ['enough','RB','enough'],
    ['to','TO','to'],
    ['be','VB','be'],
    ['tantalizing','VBG','tant'],
    ['and','CC','and'],
    ['everyone','NN','everyon'],
    ['tested','VBD','test'],
    ['the','DT','the'],
    ['agreement','NN','agr'],
    ['of','IN','of'],
    ['their','PRP$','their'],
    ['measured','VBN','meas'],
    ['``','``','``'],
    ['Kronig','NNP','kronig'],
    ['structure','NN','structure'],
    ['''','''',''''],
    ['with','IN','with'],
    ['the','DT','the'],
    ['simple','JJ','simpl'],
    ['Kronig','NNP','kronig'],
    ['theory','NN','the'],
    ['.','.','.']
  ]
},
{
  tag:'S',
  content:
  [
    ['In','IN','In'],
    ['the','DT','the'],
    {
      tag:'GPE',
      content:
      [
        ['Kronig','NNP','kronig']
      ]
    },
    ['equation','NN','equ'],
    [',',',',','],
    ['energy','NN','energy'],
    ['positions','NNS','posit'],
    ['Wn','NNP','wn'],
    ['correspond','NN','correspond'],
    ['to','TO','to'],
    ['the','DT','the'],
    ['zone','NN','zon'],
    ['boundaries','NNS','bound'],
    [',',',',','],
    ['i.','NNP','i.'],
    ['e.','NNP','e.'],
    ['not','RB','not'],
    ['the','DT','the'],
    ['absorption','NN','absorb'],
    ['maxima','NN','maxim'],
    ['or','CC','or'],
    ['minima','NN','minim'],
    [',',',',','],
    ['but','CC','but'],
    ['the','DT','the'],
    ['first','JJ','first'],
    ['rise','NN','ris'],
    ['in','IN','in'],
    ['each','DT','each'],
    ['fine','NN','fin'],
    ['structure','NN','structure'],
    ['maximum','NN','maxim'],
    ['.','.','.']
  ]
},
{
  tag:'S',
  content:
  [
    ['abg','NN','abg'],
    ['are','VBP','be'],
    ['the','DT','the'],
    {
      tag:'PERSON',
      content:
      [
        ['Miller','NNP','mil']
      ]
    },
    ['indices','NNS','index'],
    [',',',',','],
    ['a','DT','a'],
    ['is','VBZ','be'],
    ['the','DT','the'],
    ['lattice','NN','lat'],
    ['constant','NN','const'],
    ['and','CC','and'],
    ['q','NN','q'],
    ['is','VBZ','be'],
    ['the','DT','the'],
    ['angle','NN','angl'],
    ['between','IN','between'],
    ['the','DT','the'],
    ['electron','NN','electron'],
    ['direction','NN','direct'],
    ['and','CC','and'],
    ['the','DT','the'],
    ['reciprocal','JJ','reciproc'],
    ['lattice','NN','lat'],
    ['direction','NN','direct'],
    ['.','.','.']
  ]
},
{
  tag:'S',
  content:
  [
    ['When','WRB','When'],
    ['averaged','VBD','av'],
    ['over','RP','over'],
    ['all','DT','all'],
    ['directions','NNS','direct'],
    ['with','IN','with'],
    ['a','DT','a'],
    ['non-polarized','JJ','non-polarized'],
    ['x-ray','NN','x-ray'],
    ['beam','NN','beam'],
    ['and','CC','and'],
    ['a','DT','a'],
    ['polycrystalline','NN','polycrystallin'],
    ['absorber','NN','absorb'],
    [',',',',','],
    {
      tag:'ORGANIZATION',
      content:
      [
        ['cos2q','NNP','cos2q']
      ]
    },
    ['=','NNP','='],
    ['1','CD','1'],
    ['.','.','.']
  ]
},
{
  tag:'S',
  content:
  [
    ['However','RB','howev'],
    [',',',',','],
    ['with','IN','with'],
    ['a','DT','a'],
    ['single','JJ','singl'],
    ['crystal','NN','cryst'],
    ['absorber','NN','absorb'],
    ['and','CC','and'],
    ['polarized','VBD','pol'],
    ['x-rays','NNS','x-ray'],
    ['the','DT','the'],
    ['absorption','NN','absorb'],
    ['features','NNS','feat'],
    ['should','MD','should'],
    ['be','VB','be'],
    ['larger','JJR','larg'],
    ['for','IN','for'],
    ['specific','JJ','spec'],
    ['crystal','NN','cryst'],
    ['planes','NNS','plan'],
    ['.','.','.']
  ]
},
{
  tag:'S',
  content:
  [
    ['This','DT','This'],
    ['was','VBD','be'],
    ['another','DT','another'],
    ['experimental','NN','expery'],
    ['variable','JJ','vary'],
    ['that','IN','that'],
    ['might','MD','might'],
    ['verify','VB','ver'],
    ['the','DT','the'],
    ['theory','NN','the'],
    ['and','CC','and'],
    ['many','JJ','many'],
    ['attempted','VBN','attempt'],
    ['to','TO','to'],
    ['test','NN','test'],
    ['it','PRP','it'],
    ['.','.','.']
  ]
},
{
  tag:'S',
  content:
  [
    ['Thus','RB','thu'],
    ['began','VBD','begin'],
    ['the','DT','the'],
    ['long','JJ','long'],
    ['record','NN','record'],
    ['of','IN','of'],
    ['publications','NNS','publ'],
    ['in','IN','in'],
    ['which','WDT','which'],
    {
      tag:'GPE',
      content:
      [
        ['Kronig','NNP','kronig']
      ]
    },
    ['structure','NN','structure'],
    ['was','VBD','be'],
    ['interpreted','VBN','interpret'],
    ['in','IN','in'],
    ['terms','NNS','term'],
    ['of','IN','of'],
    ['the','DT','the'],
    ['simple','JJ','simpl'],
    ['Kronig','NNP','kronig'],
    ['theory','NN','the'],
    ['.','.','.']
  ]
},
{
  tag:'S',
  content:
  [
    ['Until','IN','Until'],
    ['the','DT','the'],
    ['1970s','CD','1970s'],
    ['fully','RB','ful'],
    ['2','CD','2'],
    ['%','NN','%'],
    ['of','IN','of'],
    ['the','DT','the'],
    ['papers','NNS','pap'],
    ['published','VBD','publ'],
    ['in','IN','in'],
    {
      tag:'GPE',
      content:
      [
        ['Phys','NNP','phy']
      ]
    },
    ['.','.','.']
  ]
},
{
  tag:'S',
  content:
  [
    ['Rev','NNP','rev'],
    ['.','.','.']
  ]
},
{
  tag:'S',
  content:
  [
    ['were','VBD','be'],
    ['devoted','VBN','devot'],
    ['to','TO','to'],
    ['x-ray','NNP','x-ray'],
    ['absorption','NN','absorb'],
    ['spectroscopy','NN','spectroscop'],
    ['and','CC','and'],
    ['most','JJS','most'],
    ['invoked','JJ','invok'],
    {
      tag:'PERSON',
      content:
      [
        ['Kronig','NNP','kronig']
      ]
    },
    [''s','POS',''s'],
    ['theory','NN','the'],
    ['.','.','.']
  ]
},
{
  tag:'S',
  content:
  [
    ['The','DT','The'],
    ['short','JJ','short'],
    ['range','NN','rang'],
    ['order','NN','ord'],
    ['data','NNS','dat'],
    ['of','IN','of'],
    {
      tag:'GPE',
      content:
      [
        ['Hanawalt','NNP','hanawalt']
      ]
    },
    ['(','NNP','('],
    ['1931b','CD','1931b'],
    [')','CD',')'],
    ['stimulated','VBN','stim'],
    {
      tag:'PERSON',
      content:
      [
        ['Kronig','NNP','kronig']
      ]
    },
    ['(','NNP','('],
    ['1932','CD','1932'],
    [')','CD',')'],
    ['to','TO','to'],
    ['develop','VB','develop'],
    ['a','DT','a'],
    ['theory','NN','the'],
    ['for','IN','for'],
    ['molecules','NNS','molec'],
    ['.','.','.']
  ]
},
{
  tag:'S',
  content:
  [
    ['This','DT','This'],
    ['model','NN','model'],
    ['served','VBD','serv'],
    ['as','IN','as'],
    ['the','DT','the'],
    ['starting','NN','start'],
    ['point','NN','point'],
    ['for','IN','for'],
    ['all','DT','all'],
    ['the','DT','the'],
    ['subsequent','JJ','subsequ'],
    ['short','NN','short'],
    ['range','NN','rang'],
    ['order','NN','ord'],
    ['theories','NNS','the'],
    ['but','CC','but'],
    ['few','JJ','few'],
    ['attempted','VBN','attempt'],
    ['to','TO','to'],
    ['compare','VB','comp'],
    ['it','PRP','it'],
    ['to','TO','to'],
    ['their','PRP$','their'],
    ['data','NNS','dat'],
    ['.','.','.']
  ]
},
{
  tag:'S',
  content:
  [
    {
      tag:'GPE',
      content:
      [
        ['Kronig','NNP','kronig']
      ]
    },
    [''s','POS',''s'],
    ['student','NN','stud'],
    [',',',',','],
    ['H.','NNP','h.'],
    ['Petersen','NNP','peters'],
    ['(','NNP','('],
    ['1932','CD','1932'],
    [',',',',','],
    ['1933','CD','1933'],
    [')',':',')'],
    ['continued','VBN','continu'],
    ['this','DT','this'],
    ['work','NN','work'],
    ['.','.','.']
  ]
},
{
  tag:'S',
  content:
  [
    {
      tag:'PERSON',
      content:
      [
        ['Peterson','NNP','peterson']
      ]
    },
    [''s','POS',''s'],
    ['equation','NN','equ'],
    ['shows','VBZ','show'],
    ['many','JJ','many'],
    ['of','IN','of'],
    ['the','DT','the'],
    ['features','NNS','feat'],
    ['of','IN','of'],
    ['the','DT','the'],
    ['modern','JJ','modern'],
    ['theory','NN','the'],
    ['.','.','.']
  ]
},
{
  tag:'S',
  content:
  [
    ['This','DT','This'],
    ['theory','NN','the'],
    ['was','VBD','be'],
    ['applied','VBN','apply'],
    ['to','TO','to'],
    {
      tag:'ORGANIZATION',
      content:
      [
        ['GeCl4','NNP','gecl4']
      ]
    },
    ['by','IN','by'],
    {
      tag:'PERSON',
      content:
      [
        ['Hartree','NNP','hart']
      ]
    },
    [',',',',','],
    {
      tag:'PERSON',
      content:
      [
        ['Kronig','NNP','kronig']
      ]
    },
    ['and','CC','and'],
    {
      tag:'GPE',
      content:
      [
        ['Petersen','NNP','peters']
      ]
    },
    ['(','NNP','('],
    ['1934','CD','1934'],
    [')','CD',')'],
    ['.','.','.']
  ]
},
{
  tag:'S',
  content:
  [
    ['A','DT','A'],
    ['description','NN','describ'],
    ['of','IN','of'],
    ['the','DT','the'],
    {
      tag:'ORGANIZATION',
      content:
      [
        ['Herculean','NNP','herc']
      ]
    },
    ['efforts','NNS','effort'],
    ['required','VBD','requir'],
    ['to','TO','to'],
    ['perform','NN','perform'],
    ['the','DT','the'],
    ['calculations','NNS','calc'],
    ['can','MD','can'],
    ['be','VB','be'],
    ['found','VBN','find'],
    ['in','IN','in'],
    {
      tag:'GPE',
      content:
      [
        ['Stumm','NNP','stum']
      ]
    },
    ['von','NN','von'],
    {
      tag:'PERSON',
      content:
      [
        ['Bordwehr','NNP','bordwehr']
      ]
    },
    ['(','NNP','('],
    ['1989','CD','1989'],
    [')','CD',')'],
    ['.','.','.']
  ]
},
{
  tag:'S',
  content:
  [
    ['The','DT','The'],
    ['Kramers–Kronig','JJ','kramers–kronig'],
    ['relation','NN','rel'],
    ['for','IN','for'],
    ['dispersion','NN','dispers'],
    ['was','VBD','be'],
    ['derived','VBN','der'],
    ['by','IN','by'],
    {
      tag:'PERSON',
      content:
      [
        ['Kronig','NNP','kronig']
      ]
    },
    ['(','NNP','('],
    ['1926','CD','1926'],
    [')','CD',')'],
    ['independently','RB','independ'],
    ['of','IN','of'],
    {
      tag:'GPE',
      content:
      [
        ['Kramers','NNPS','kram']
      ]
    },
    ['(',':','('],
    ['1927','CD','1927'],
    [')','CD',')'],
    ['.','.','.']
  ]
},
{
  tag:'S',
  content:
  [
    ['<','NN','<'],
    ['!','``','!'],
    ['--',':','--'],
    ['Any','DT','Any'],
    ['satisfactory','JJ','satisfact'],
    ['theory','NN','the'],
    ['of','IN','of'],
    ['dispersion','NN','dispers'],
    ['must','MD','must'],
    ['comply','RB','comply'],
    ['with','IN','with'],
    ['the','DT','the'],
    ['condition','NN','condit'],
    ['that','IN','that'],
    ['the','DT','the'],
    ['scattered','VBN','scat'],
    ['wave','NN','wav'],
    ['can','MD','can'],
    ['never','RB','nev'],
    ['appear','VB','appear'],
    ['in','IN','in'],
    ['advance','NN','adv'],
    ['of','IN','of'],
    ['the','DT','the'],
    ['incident','NN','incid'],
    ['wave','NN','wav'],
    ['that','WDT','that'],
    ['produces','VBZ','produc'],
    ['it','PRP','it'],
    ['.','.','.']
  ]
},
{
  tag:'S',
  content:
  [
    ['Physicists','NNS','phys'],
    {
      tag:'PERSON',
      content:
      [
        ['Hendrik','NNP','hendrik'],
        ['Anthony','NNP','anthony'],
        ['Kramers','NNP','kram']
      ]
    },
    ['of','IN','of'],
    ['The','DT','The'],
    {
      tag:'ORGANIZATION',
      content:
      [
        ['Netherlands','NNPS','netherland']
      ]
    },
    ['and','CC','and'],
    {
      tag:'PERSON',
      content:
      [
        ['Ralph','NNP','ralph']
      ]
    },
    ['de','IN','de'],
    {
      tag:'PERSON',
      content:
      [
        ['Laer','NNP','laer'],
        ['Kronig','NNP','kronig']
      ]
    },
    ['of','IN','of'],
    {
      tag:'GPE',
      content:
      [
        ['Germany','NNP','germany']
      ]
    },
    ['showed','VBD','show'],
    ['that','IN','that'],
    ['this','DT','this'],
    ['basic','JJ','bas'],
    ['causality','NN','caus'],
    ['condition','NN','condit'],
    ['implies','VBZ','imply'],
    ['that','IN','that'],
    ['the','DT','the'],
    ['dispersion','NN','dispers'],
    ['(',':','('],
    ['i.e.','NNP','i.e.'],
    [',',',',','],
    ['the','DT','the'],
    ['variation','NN','vary'],
    ['of','IN','of'],
    ['refractive','JJ','refract'],
    ['index','NN','index'],
    ['with','IN','with'],
    ['frequency','NN','frequ'],
    [')',':',')'],
    ['and','CC','and'],
    ['the','DT','the'],
    ['absorption','NN','absorb'],
    ['are','VBP','be'],
    ['not','RB','not'],
    ['independent','JJ','independ'],
    ['.','.','.']
  ]
},
{
  tag:'S',
  content:
  [
    ['They','PRP','They'],
    ['derived','VBD','der'],
    ['equations','NNS','equ'],
    ['enabling','VBG','en'],
    ['the','DT','the'],
    ['absorption','NN','absorb'],
    ['to','TO','to'],
    ['be','VB','be'],
    ['calculated','VBN','calc'],
    ['when','WRB','when'],
    ['the','DT','the'],
    ['dispersion','NN','dispers'],
    ['is','VBZ','be'],
    ['known','VBN','know'],
    ['(','-NONE-','('],
    ['for','IN','for'],
    ['all','DT','all'],
    ['frequencies','NNS','frequ'],
    [')','VBP',')'],
    ['and','CC','and'],
    ['vice','NN','vic'],
    ['versa','NN','vers'],
    ['.','.','.']
  ]
},
{
  tag:'S',
  content:
  [
    ['It','PRP','It'],
    ['is','VBZ','be'],
    ['not','RB','not'],
    ['surprising','JJ','surpr'],
    ['that','IN','that'],
    ['a','DT','a'],
    ['relationship','NN','rel'],
    ['should','MD','should'],
    ['exist','VB','ex'],
    [',',',',','],
    ['because','IN','because'],
    ['dispersion','NN','dispers'],
    ['and','CC','and'],
    ['absorption','NN','absorb'],
    ['are','VBP','be'],
    ['each','DT','each'],
    ['related','JJ','rel'],
    ['to','TO','to'],
    ['the','DT','the'],
    ['resonators','NNS','reson'],
    ['described','VBD','describ'],
    ['above','IN','above'],
    ['in','IN','in'],
    ['connection','NN','connect'],
    ['with','IN','with'],
    ['scattering','NN','scat'],
    ['by','IN','by'],
    ['bound','NN','bound'],
    ['electrons','NNS','electron'],
    ['.','.','.']
  ]
},
{
  tag:'S',
  content:
  [
    ['The','DT','The'],
    ['relationship','NN','rel'],
    ['has','VBZ','hav'],
    ['been','VBN','be'],
    ['found','VBN','find'],
    ['of','IN','of'],
    ['great','JJ','gre'],
    ['importance','NN','import'],
    ['in','IN','in'],
    ['many','JJ','many'],
    ['branches','NNS','branch'],
    ['of','IN','of'],
    ['pure','NN','pur'],
    ['and','CC','and'],
    ['applied','VBD','apply'],
    ['physics','NNS','phys'],
    ['.','.','.']
  ]
},
{
  tag:'S',
  content:
  [
    ['--',':','--'],
    ['>','``','>'],
    ['==Books','NNS','==books'],
    ['published','VBD','publ'],
    ['by','IN','by'],
    {
      tag:'PERSON',
      content:
      [
        ['Ralph','NNP','ralph']
      ]
    },
    ['Kronig==','NNP','kronig=='],
    ['*Correspondence','NNP','*correspondence'],
    ['with','IN','with'],
    {
      tag:'PERSON',
      content:
      [
        ['Niels','NNP','niel'],
        ['Bohr','NNP','bohr']
      ]
    },
    [',',',',','],
    ['1924–1953','CD','1924–1953'],
    ['.','.','.']
  ]
},
{
  tag:'S',
  content:
  [
    ['*Textbook','NN','*textbook'],
    ['of','IN','of'],
    ['physics','NNS','phys'],
    ['.','.','.']
  ]
},
{
  tag:'S',
  content:
  [
    ['Under','IN','Under'],
    ['the','DT','the'],
    ['editorship','NN','edit'],
    ['of','IN','of'],
    ['R.','NNP','r.'],
    ['Kronig','NNP','kronig'],
    ['in','IN','in'],
    ['collaboration','NN','collab'],
    ['with','IN','with'],
    ['J','NNP','j'],
    ['.','.','.']
  ]
},
{
  tag:'S',
  content:
  [
    {
      tag:'PERSON',
      content:
      [
        ['De','NNP','de']
      ]
    },
    ['Boer','NNP','boer'],
    ['others','NNS','oth'],
    ['With','IN','With'],
    ['biographical','JJ','biograph'],
    ['notes','NNS','not'],
    ['and','CC','and'],
    ['tables','NNS','tabl'],
    ['by','IN','by'],
    ['J.','NNP','j.'],
    ['Korringa','NNP','korring'],
    ['.','.','.']
  ]
},
{
  tag:'S',
  content:
  [
    ['*The','DT','*The'],
    ['optical','JJ','opt'],
    ['basis','NN','bas'],
    ['of','IN','of'],
    ['the','DT','the'],
    ['theory','NN','the'],
    ['of','IN','of'],
    ['valence','NN','val'],
    ['/',':','/'],
    ['by','IN','by'],
    ['R.','NNP','r.'],
    ['de','IN','de'],
    ['L.','NNP','l.'],
    {
      tag:'PERSON',
      content:
      [
        ['Kronig','NNP','kronig']
      ]
    },
    ['*Band','NNP','*band'],
    ['spectra','NN','spectr'],
    ['and','CC','and'],
    ['molecular','JJ','molecul'],
    ['structure','NN','structure'],
    ['/',':','/'],
    ['by','IN','by'],
    ['R.','NNP','r.'],
    ['de','IN','de'],
    ['L.','NNP','l.'],
    {
      tag:'PERSON',
      content:
      [
        ['Kronig','NNP','kronig']
      ]
    },
    ['*Oral','NNP','*oral'],
    ['history','NN','hist'],
    ['interview','NN','interview'],
    ['with','IN','with'],
    {
      tag:'PERSON',
      content:
      [
        ['Ralph','NNP','ralph']
      ]
    },
    ['de','IN','de'],
    {
      tag:'PERSON',
      content:
      [
        ['Laer','NNP','laer'],
        ['Kronig','NNP','kronig']
      ]
    },
    [',',',',','],
    ['1962','CD','1962'],
    ['November','NNP','novemb'],
    ['12','CD','12'],
    ['==References==','-NONE-','==References=='],
    ['*The','JJ','*the'],
    {
      tag:'PERSON',
      content:
      [
        ['Samuel','NNP','samuel'],
        ['A.','NNP','a.'],
        ['Goudsmit','NNP','goudsmit'],
        ['Papers','NNP','pap']
      ]
    },
    [',',',',','],
    ['1921–1979','CD','1921–1979'],
    ['Box','NNP','box'],
    ['59','CD','59'],
    ['Folder','NNP','fold'],
    ['48','CD','48'],
    ['Spin','NNP','spin'],
    ['history','NN','hist'],
    ['correspondence','NN','correspond'],
    [':',':',':'],
    ['B.','NNP','b.'],
    ['L.','NNP','l.'],
    ['van','NNP','van'],
    ['der','NN','der'],
    {
      tag:'PERSON',
      content:
      [
        ['Waerden','NNP','waerd']
      ]
    },
    [',',',',','],
    {
      tag:'PERSON',
      content:
      [
        ['Ralph','NNP','ralph'],
        ['Kronig','NNP','kronig']
      ]
    },
    [',',',',','],
    ['and','CC','and'],
    {
      tag:'PERSON',
      content:
      [
        ['George','NNP','georg'],
        ['E.','NNP','e.'],
        ['Uhlenbeck','NNP','uhlenbeck']
      ]
    },
    ['*A.','NNP','*a.'],
    ['Pais','NNP','pai'],
    [',',',',','],
    ['in','IN','in'],
    {
      tag:'GPE',
      content:
      [
        ['Physics','NNP','phys']
      ]
    },
    ['Today','NNP','today'],
    ['(','NNP','('],
    ['December','NNP','decemb'],
    ['1989','CD','1989'],
    [')','CD',')'],
    ['*M.','NNP','*m.'],
    ['J.','NNP','j.'],
    {
      tag:'PERSON',
      content:
      [
        ['Klein','NNP','klein']
      ]
    },
    [',',',',','],
    ['in','IN','in'],
    {
      tag:'GPE',
      content:
      [
        ['Physics','NNP','phys']
      ]
    },
    ['in','IN','in'],
    ['the','DT','the'],
    {
      tag:'ORGANIZATION',
      content:
      [
        ['Making','NNP','mak']
      ]
    },
    ['(','NNP','('],
    ['North-Holland','NNP','north-holland'],
    [',',',',','],
    {
      tag:'PERSON',
      content:
      [
        ['Amsterdam','NNP','amsterdam']
      ]
    },
    [',',',',','],
    ['1989','CD','1989'],
    [')',':',')'],
    ['*Stumm','JJ','*stumm'],
    ['von','NN','von'],
    {
      tag:'PERSON',
      content:
      [
        ['Bordwehr','NNP','bordwehr']
      ]
    },
    [',',',',','],
    ['R.','NNP','r.'],
    [',',',',','],
    {
      tag:'PERSON',
      content:
      [
        ['Ann','NNP','an']
      ]
    },
    ['.','.','.']
  ]
},
{
  tag:'S',
  content:
  [
    ['Phys','NNS','phy'],
    ['.','.','.']
  ]
},
{
  tag:'S',
  content:
  [
    ['Fr.','NNP','fr.'],
    [',',',',','],
    ['14','CD','14'],
    ['(',':','('],
    ['1989','CD','1989'],
    [')','CD',')'],
    [',',',',','],
    ['377','CD','377'],
    ['–',':','–'],
    ['466','CD','466'],
    ['*Isidor','JJ','*isidor'],
    {
      tag:'PERSON',
      content:
      [
        ['Isaac','NNP','isaac'],
        ['Rabi','NNP','rab']
      ]
    },
    [',',',',','],
    ['Stories','NNP','story'],
    ['from','IN','from'],
    ['the','DT','the'],
    ['early','JJ','ear'],
    ['days','NNS','day'],
    ['of','IN','of'],
    ['quantum','NN','quant'],
    ['mechanics','NNS','mech'],
    ['.','.','.']
  ]
},
{
  tag:'S',
  content:
  [
    {
      tag:'GPE',
      content:
      [
        ['Transcribed','NNP','transcrib']
      ]
    },
    ['and','CC','and'],
    ['edited','VBD','edit'],
    ['by','IN','by'],
    ['R.','NNP','r.'],
    {
      tag:'PERSON',
      content:
      [
        ['Fraser','NNP','fras'],
        ['Code','NNP','cod']
      ]
    },
    ['from','IN','from'],
    ['a','DT','a'],
    ['colloquium','NN','colloqu'],
    ['delivered','VBN','del'],
    ['to','TO','to'],
    ['the','DT','the'],
    {
      tag:'ORGANIZATION',
      content:
      [
        ['University','NNP','univers']
      ]
    },
    ['of','IN','of'],
    {
      tag:'GPE',
      content:
      [
        ['Toronto','NNP','toronto']
      ]
    },
    ['physics','NN','phys'],
    ['department','NN','depart'],
    ['on','IN','on'],
    ['5','CD','5'],
    ['April','NNP','april'],
    ['1979','CD','1979'],
    ['.','.','.']
  ]
},
{
  tag:'S',
  content:
  [
    ['*Obituary','JJ','*obituary'],
    ['(','NN','('],
    ['by','IN','by'],
    ['M.','NNP','m.'],
    ['Dresden','NNP','dresd'],
    [')','NNP',')'],
    ['in','IN','in'],
    {
      tag:'GPE',
      content:
      [
        ['Physics','NNP','phys']
      ]
    },
    ['Today','NNP','today'],
    [',',',',','],
    ['50','CD','50'],
    ['(',':','('],
    ['3','CD','3'],
    [')','CD',')'],
    [',',',',','],
    ['March','NNP','march'],
    ['1997','CD','1997'],
    [',',',',','],
    ['p.','NNP','p.'],
    ['97','CD','97'],
    ['.','.','.']
  ]
}]