[
{
  "tag":"S",
  "content":
  [
    {
      "tag":"PERSON",
      "content":
      [
        ["Eduard","NNP","eduard"]
      ]
    },
    {
      "tag":"ORGANIZATION",
      "content":
      [
        ["Gustav","NNP","gustav"]
      ]
    },
    ["von","NN","von"],
    {
      "tag":"PERSON",
      "content":
      [
        ["Toll","NNP","tol"]
      ]
    },
    ["was","VBD","be"],
    ["a","DT","a"],
    {
      "tag":"ORGANIZATION",
      "content":
      [
        ["Baltic","JJ","balt"]
      ]
    },
    {
      "tag":"GPE",
      "content":
      [
        ["German","JJ","germ"]
      ]
    },
    ["geologist","NN","geolog"],
    ["and","CC","and"],
    {
      "tag":"GPE",
      "content":
      [
        ["Arctic","NNP","arct"]
      ]
    },
    ["explorer","NN","expl"],
    ["in","IN","in"],
    {
      "tag":"GPE",
      "content":
      [
        ["Russian","NNP","russ"]
      ]
    },
    ["service","NN","serv"],
    [".",".","."]
  ]
},
{
  "tag":"S",
  "content":
  [
    ["Often","RB","oft"],
    ["referred","VBD","ref"],
    ["to","TO","to"],
    ["as","IN","as"],
    {
      "tag":"PERSON",
      "content":
      [
        ["Baron","NNP","baron"]
      ]
    },
    ["von","NN","von"],
    ["Toll","NNP","tol"],
    ["or","CC","or"],
    ["as","IN","as"],
    {
      "tag":"PERSON",
      "content":
      [
        ["Eduard","NNP","eduard"]
      ]
    },
    ["v.","CC","v."],
    {
      "tag":"PERSON",
      "content":
      [
        ["Toll","NNP","tol"]
      ]
    },
    [",",",",","],
    ["in","IN","in"],
    {
      "tag":"GPE",
      "content":
      [
        ["Russia","NNP","russ"]
      ]
    },
    ["he","PRP","he"],
    ["is","VBZ","be"],
    ["known","VBN","know"],
    ["as","IN","as"],
    {
      "tag":"PERSON",
      "content":
      [
        ["Eduard","NNP","eduard"],
        ["Vasiliyevich","NNP","vasiliyevich"],
        ["Toll","NNP","tol"]
      ]
    },
    ["(","NNP","("],
    ["Эдуард","NNP","эдуард"],
    ["Васильевич","NNP","васильевич"],
    ["Толль","NNP","толль"],
    [")","NNP",")"],
    [".",".","."]
  ]
},
{
  "tag":"S",
  "content":
  [
    {
      "tag":"PERSON",
      "content":
      [
        ["Eduard","NNP","eduard"]
      ]
    },
    {
      "tag":"PERSON",
      "content":
      [
        ["Toll","NNP","tol"]
      ]
    },
    ["was","VBD","be"],
    ["born","VBN","bear"],
    ["on","IN","on"],
    [",",",",","],
    ["in","IN","in"],
    {
      "tag":"GPE",
      "content":
      [
        ["Reval","NNP","rev"]
      ]
    },
    ["(","NNP","("],
    ["now","RB","now"],
    {
      "tag":"PERSON",
      "content":
      [
        ["Tallinn","NNP","tallin"]
      ]
    },
    [",",",",","],
    {
      "tag":"GPE",
      "content":
      [
        ["Estonia","NNP","eston"]
      ]
    },
    [")","NNP",")"],
    ["and","CC","and"],
    ["he","PRP","he"],
    ["died","VBD","die"],
    ["in","IN","in"],
    ["1902","CD","1902"],
    ["in","IN","in"],
    ["an","DT","an"],
    ["unknown","NN","unknown"],
    ["location","NN","loc"],
    ["in","IN","in"],
    ["the","DT","the"],
    {
      "tag":"ORGANIZATION",
      "content":
      [
        ["Arctic","NNP","arct"],
        ["Ocean","NNP","oc"]
      ]
    },
    [".",".","."]
  ]
},
{
  "tag":"S",
  "content":
  [
    ["He","PRP","He"],
    ["belonged","VBD","belong"],
    ["to","TO","to"],
    ["a","DT","a"],
    ["noble","JJ","nobl"],
    ["family","NN","famy"],
    ["of","IN","of"],
    {
      "tag":"ORGANIZATION",
      "content":
      [
        ["Baltic","NNP","balt"],
        ["German","NNP","germ"]
      ]
    },
    ["origin","NN","origin"],
    ["and","CC","and"],
    ["was","VBD","be"],
    ["married","VBN","marry"],
    ["to","TO","to"],
    {
      "tag":"ORGANIZATION",
      "content":
      [
        ["Baroness","NNP","baro"],
        ["Emmy","NNP","emmy"]
      ]
    },
    ["von","NN","von"],
    ["Toll","NNP","tol"],
    [".",".","."]
  ]
},
{
  "tag":"S",
  "content":
  [
    {
      "tag":"PERSON",
      "content":
      [
        ["Eduard","NNP","eduard"]
      ]
    },
    {
      "tag":"PERSON",
      "content":
      [
        ["Toll","NNP","tol"]
      ]
    },
    ["graduated","VBD","gradu"],
    ["from","IN","from"],
    ["the","DT","the"],
    {
      "tag":"ORGANIZATION",
      "content":
      [
        ["University","NNP","univers"]
      ]
    },
    ["of","IN","of"],
    {
      "tag":"GPE",
      "content":
      [
        ["Dorpat","NNP","dorp"]
      ]
    },
    ["(","NNP","("],
    ["Tartu","NNP","tartu"],
    [")","NNP",")"],
    ["as","IN","as"],
    ["a","DT","a"],
    ["zoologist","NN","zoolog"],
    ["in","IN","in"],
    ["1882","CD","1882"],
    [".",".","."]
  ]
},
{
  "tag":"S",
  "content":
  [
    ["Already","RB","already"],
    ["while","IN","while"],
    ["he","PRP","he"],
    ["was","VBD","be"],
    ["a","DT","a"],
    ["student","NN","stud"],
    ["he","PRP","he"],
    ["traveled","VBD","travel"],
    ["to","TO","to"],
    ["the","DT","the"],
    {
      "tag":"ORGANIZATION",
      "content":
      [
        ["Mediterranean","NNP","mediter"]
      ]
    },
    ["and","CC","and"],
    ["researched","VBD","research"],
    ["the","DT","the"],
    ["fauna","NN","faun"],
    [",",",",","],
    ["flora","NN","flor"],
    ["and","CC","and"],
    ["geology","NN","geolog"],
    ["of","IN","of"],
    {
      "tag":"GPE",
      "content":
      [
        ["Algeria","NNP","alger"]
      ]
    },
    ["and","CC","and"],
    ["the","DT","the"],
    {
      "tag":"ORGANIZATION",
      "content":
      [
        ["Balearic","NNP","balear"],
        ["Islands","NNPS","island"]
      ]
    },
    [".",".","."]
  ]
},
{
  "tag":"S",
  "content":
  [
    ["==Expeditions","NNS","==expeditions"],
    ["and","CC","and"],
    ["Surveys==","JJ","surveys=="],
    ["In","NNP","in"],
    ["1885-1886","CD","1885-1886"],
    [",",",",","],
    {
      "tag":"PERSON",
      "content":
      [
        ["Toll","NNP","tol"]
      ]
    },
    ["took","VBD","tak"],
    ["part","NN","part"],
    ["in","IN","in"],
    ["an","DT","an"],
    ["expedition","NN","expedit"],
    ["to","TO","to"],
    ["the","DT","the"],
    {
      "tag":"ORGANIZATION",
      "content":
      [
        ["New","NNP","new"],
        ["Siberian","NNP","sib"],
        ["Islands","NNPS","island"]
      ]
    },
    [",",",",","],
    ["organized","VBN","org"],
    ["by","IN","by"],
    ["the","DT","the"],
    {
      "tag":"ORGANIZATION",
      "content":
      [
        ["St.","NNP","st."],
        ["Petersburg","NNP","petersburg"],
        ["Academy","NNP","academy"]
      ]
    },
    ["of","IN","of"],
    {
      "tag":"ORGANIZATION",
      "content":
      [
        ["Sciences","NNPS","sci"]
      ]
    },
    ["and","CC","and"],
    ["led","VBN","lead"],
    ["by","IN","by"],
    {
      "tag":"PERSON",
      "content":
      [
        ["Alexander","NNP","alexand"],
        ["Bunge","NNP","bung"]
      ]
    },
    [".",".","."]
  ]
},
{
  "tag":"S",
  "content":
  [
    {
      "tag":"PERSON",
      "content":
      [
        ["Eduard","NNP","eduard"]
      ]
    },
    {
      "tag":"PERSON",
      "content":
      [
        ["Toll","NNP","tol"]
      ]
    },
    ["explored","VBD","expl"],
    ["the","DT","the"],
    {
      "tag":"ORGANIZATION",
      "content":
      [
        ["Great","NNP","gre"],
        ["Lyakhovsky","NNP","lyakhovsky"],
        ["Island","NNP","island"]
      ]
    },
    [",",",",","],
    {
      "tag":"PERSON",
      "content":
      [
        ["Bunge","NNP","bung"],
        ["Land","NNP","land"]
      ]
    },
    [",",",",","],
    {
      "tag":"PERSON",
      "content":
      [
        ["Faddeyevsky","NNP","faddeyevsky"],
        ["Island","NNP","island"]
      ]
    },
    [",",",",","],
    {
      "tag":"PERSON",
      "content":
      [
        ["Kotelny","NNP","kotelny"],
        ["Island","NNP","island"]
      ]
    },
    [",",",",","],
    ["as","IN","as"],
    ["well","RB","wel"],
    ["as","IN","as"],
    ["the","DT","the"],
    ["western","NN","western"],
    ["shores","NNS","shor"],
    ["of","IN","of"],
    ["the","DT","the"],
    {
      "tag":"ORGANIZATION",
      "content":
      [
        ["New","NNP","new"],
        ["Siberia","NNP","siber"],
        ["Island","NNP","island"]
      ]
    },
    [".",".","."]
  ]
},
{
  "tag":"S",
  "content":
  [
    ["In","IN","In"],
    ["1886","CD","1886"],
    ["Toll","NNP","tol"],
    ["thought","VBD","think"],
    ["that","IN","that"],
    ["he","PRP","he"],
    ["had","VBD","hav"],
    ["seen","VBN","see"],
    ["an","DT","an"],
    ["unknown","NN","unknown"],
    ["land","NN","land"],
    ["north","NN","nor"],
    ["of","IN","of"],
    {
      "tag":"GPE",
      "content":
      [
        ["Kotelny","NNP","kotelny"]
      ]
    },
    [".",".","."]
  ]
},
{
  "tag":"S",
  "content":
  [
    ["He","PRP","He"],
    ["guessed","VBD","guess"],
    ["that","IN","that"],
    ["this","DT","this"],
    ["was","VBD","be"],
    ["the","DT","the"],
    ["so-called","JJ","so-called"],
    ["``","``","``"],
    {
      "tag":"PERSON",
      "content":
      [
        ["Zemlya","NNP","zemly"],
        ["Sannikova","NNP","sannikov"]
      ]
    },
    ["''","''","''"],
    ["(",":","("],
    {
      "tag":"PERSON",
      "content":
      [
        ["Sannikov","NNP","sannikov"],
        ["Land","NNP","land"]
      ]
    },
    [")","NNP",")"],
    [",",",",","],
    ["a","DT","a"],
    ["land","NN","land"],
    ["that","WDT","that"],
    {
      "tag":"PERSON",
      "content":
      [
        ["Yakov","NNP","yakov"],
        ["Sannikov","NNP","sannikov"]
      ]
    },
    ["and","CC","and"],
    {
      "tag":"PERSON",
      "content":
      [
        ["Matvei","NNP","matve"],
        ["Gedenschtrom","NNP","gedenschtrom"]
      ]
    },
    ["claimed","VBD","claim"],
    ["to","TO","to"],
    ["have","VB","hav"],
    ["seen","VBN","see"],
    ["during","IN","during"],
    ["their","PRP$","their"],
    ["1808-1810","CD","1808-1810"],
    ["expedition","NN","expedit"],
    [",",",",","],
    ["but","CC","but"],
    ["whose","WP$","whose"],
    ["existence","NN","ex"],
    ["had","VBD","hav"],
    ["never","RB","nev"],
    ["been","VBN","be"],
    ["proved","VBN","prov"],
    [".",".","."]
  ]
},
{
  "tag":"S",
  "content":
  [
    ["The","DT","The"],
    ["results","NNS","result"],
    ["of","IN","of"],
    ["this","DT","this"],
    ["expedition","NN","expedit"],
    ["were","VBD","be"],
    ["appreciated","VBN","apprecy"],
    ["by","IN","by"],
    ["the","DT","the"],
    {
      "tag":"ORGANIZATION",
      "content":
      [
        ["Academy","NNP","academy"]
      ]
    },
    ["as","IN","as"],
    ["``","``","``"],
    ["a","DT","a"],
    ["true","JJ","tru"],
    ["geographical","JJ","geograph"],
    ["deed","NN","dee"],
    ["''","''","''"],
    [".",".","."]
  ]
},
{
  "tag":"S",
  "content":
  [
    ["In","IN","In"],
    ["1893","CD","1893"],
    ["Toll","NNP","tol"],
    ["led","VBD","lead"],
    ["an","DT","an"],
    ["expedition","NN","expedit"],
    ["of","IN","of"],
    ["the","DT","the"],
    {
      "tag":"ORGANIZATION",
      "content":
      [
        ["Petersburg","NNP","petersburg"],
        ["Academy","NNP","academy"]
      ]
    },
    ["of","IN","of"],
    {
      "tag":"ORGANIZATION",
      "content":
      [
        ["Sciences","NNPS","sci"]
      ]
    },
    ["to","TO","to"],
    ["the","DT","the"],
    ["northern","JJ","northern"],
    ["parts","NNS","part"],
    ["of","IN","of"],
    {
      "tag":"GPE",
      "content":
      [
        ["Yakutia","NNP","yakut"]
      ]
    },
    ["and","CC","and"],
    ["explored","VBD","expl"],
    ["the","DT","the"],
    ["region","NN","reg"],
    ["between","IN","between"],
    ["the","DT","the"],
    ["lower","JJR","low"],
    ["reaches","NNS","reach"],
    ["of","IN","of"],
    ["the","DT","the"],
    {
      "tag":"ORGANIZATION",
      "content":
      [
        ["Lena","NNP","len"]
      ]
    },
    ["and","CC","and"],
    {
      "tag":"PERSON",
      "content":
      [
        ["Khatanga","NNP","khatang"],
        ["Rivers","NNP","riv"]
      ]
    },
    [".",".","."]
  ]
},
{
  "tag":"S",
  "content":
  [
    {
      "tag":"PERSON",
      "content":
      [
        ["Eduard","NNP","eduard"]
      ]
    },
    {
      "tag":"PERSON",
      "content":
      [
        ["Toll","NNP","tol"]
      ]
    },
    ["was","VBD","be"],
    ["the","DT","the"],
    ["first","JJ","first"],
    ["one","CD","one"],
    ["to","TO","to"],
    ["map","VB","map"],
    ["the","DT","the"],
    ["plateau","NN","plateau"],
    ["between","IN","between"],
    ["the","DT","the"],
    {
      "tag":"ORGANIZATION",
      "content":
      [
        ["Anabar","NNP","anab"]
      ]
    },
    ["and","CC","and"],
    {
      "tag":"PERSON",
      "content":
      [
        ["Popigay","NNP","popigay"],
        ["Rivers","NNP","riv"]
      ]
    },
    ["and","CC","and"],
    ["a","DT","a"],
    ["mountain","NN","mountain"],
    ["ridge","NN","ridg"],
    ["between","IN","between"],
    ["the","DT","the"],
    {
      "tag":"ORGANIZATION",
      "content":
      [
        ["Olenek","NNP","olenek"]
      ]
    },
    ["and","CC","and"],
    {
      "tag":"PERSON",
      "content":
      [
        ["Anabar","NNP","anab"],
        ["Rivers","NNP","riv"]
      ]
    },
    ["(","NNP","("],
    ["which","WDT","which"],
    ["he","PRP","he"],
    ["named","VBD","nam"],
    ["after","IN","after"],
    {
      "tag":"PERSON",
      "content":
      [
        ["Vasily","NNP","vasy"],
        ["Pronchischev","NNP","pronchischev"]
      ]
    },
    [")","NNP",")"],
    [".",".","."]
  ]
},
{
  "tag":"S",
  "content":
  [
    ["He","PRP","He"],
    ["also","RB","also"],
    ["carried","VBD","carry"],
    ["out","RP","out"],
    ["the","DT","the"],
    ["geological","JJ","geolog"],
    ["surveys","NNS","survey"],
    ["in","IN","in"],
    ["the","DT","the"],
    ["basins","NNS","basin"],
    ["of","IN","of"],
    ["the","DT","the"],
    ["following","JJ","follow"],
    ["rivers","NNS","riv"],
    [":",":",":"],
    {
      "tag":"PERSON",
      "content":
      [
        ["Yana","NNP","yan"]
      ]
    },
    [",",",",","],
    {
      "tag":"GPE",
      "content":
      [
        ["Indigirka","NNP","indigirk"]
      ]
    },
    [",",",",","],
    ["and","CC","and"],
    {
      "tag":"PERSON",
      "content":
      [
        ["Kolyma","NNP","kolym"]
      ]
    },
    [".",".","."]
  ]
},
{
  "tag":"S",
  "content":
  [
    ["During","IN","During"],
    ["one","CD","one"],
    ["year","NN","year"],
    ["and","CC","and"],
    ["two","CD","two"],
    ["days","NNS","day"],
    ["the","DT","the"],
    ["expedition","NN","expedit"],
    ["covered","VBD","cov"],
    ["25,000","CD","25,000"],
    ["km","NN","km"],
    [",",",",","],
    ["of","IN","of"],
    ["which","WDT","which"],
    ["4,200","CD","4,200"],
    ["km","NN","km"],
    ["were","VBD","be"],
    ["up","RB","up"],
    ["the","DT","the"],
    ["rivers","NNS","riv"],
    [",",",",","],
    ["carrying","VBG","carry"],
    ["out","RP","out"],
    ["geodesic","JJ","geodes"],
    ["surveys","NNS","survey"],
    ["en","VBP","en"],
    ["route","NN","rout"],
    [".",".","."]
  ]
},
{
  "tag":"S",
  "content":
  [
    ["Owing","VBG","ow"],
    ["to","TO","to"],
    ["the","DT","the"],
    ["difficulties","NNS","difficul"],
    ["of","IN","of"],
    ["the","DT","the"],
    ["expedition","NN","expedit"],
    ["and","CC","and"],
    ["his","PRP$","his"],
    ["hard","NN","hard"],
    ["work","NN","work"],
    [",",",",","],
    ["the","DT","the"],
    {
      "tag":"GPE",
      "content":
      [
        ["Russian","NNP","russ"]
      ]
    },
    ["Academy","NNP","academy"],
    ["of","IN","of"],
    {
      "tag":"ORGANIZATION",
      "content":
      [
        ["Sciences","NNPS","sci"]
      ]
    },
    ["awarded","VBN","award"],
    {
      "tag":"PERSON",
      "content":
      [
        ["Eduard","NNP","eduard"],
        ["v.","NNP","v."],
        ["Toll","NNP","tol"]
      ]
    },
    ["with","IN","with"],
    ["the","DT","the"],
    {
      "tag":"ORGANIZATION",
      "content":
      [
        ["Large","NNP","larg"],
        ["Silver","NNP","silv"],
        ["Medal","NNP","med"]
      ]
    },
    ["of","IN","of"],
    ["N.M.","NNP","n.m."],
    ["Przhevalsky","NNP","przhevalsky"],
    [".",".","."]
  ]
},
{
  "tag":"S",
  "content":
  [
    ["In","IN","In"],
    ["1899","CD","1899"],
    [",",",",","],
    {
      "tag":"PERSON",
      "content":
      [
        ["Toll","NNP","tol"]
      ]
    },
    ["took","VBD","tak"],
    ["part","NN","part"],
    ["in","IN","in"],
    ["a","DT","a"],
    ["voyage","NN","voy"],
    ["of","IN","of"],
    ["the","DT","the"],
    ["icebreaker","NN","icebreak"],
    {
      "tag":"PERSON",
      "content":
      [
        ["Yermak","NNP","yermak"]
      ]
    },
    ["under","IN","under"],
    ["the","DT","the"],
    ["command","NN","command"],
    ["of","IN","of"],
    {
      "tag":"PERSON",
      "content":
      [
        ["Stepan","NNP","step"],
        ["Makarov","NNP","makarov"]
      ]
    },
    ["to","TO","to"],
    ["the","DT","the"],
    ["shores","NNS","shor"],
    ["of","IN","of"],
    {
      "tag":"GPE",
      "content":
      [
        ["Spitsbergen","NNP","spitsberg"]
      ]
    },
    [".",".","."]
  ]
},
{
  "tag":"S",
  "content":
  [
    ["==Toll","JJ","==toll"],
    ["'s","POS","'s"],
    ["last","JJ","last"],
    ["venture","NN","vent"],
    [":",":",":"],
    ["The","DT","The"],
    {
      "tag":"GPE",
      "content":
      [
        ["Russian","JJ","russ"]
      ]
    },
    ["Polar","NNP","pol"],
    ["Expedition","NNP","expedit"],
    [",",",",","],
    ["1900-1903==","CD","1900-1903=="],
    ["In","NNP","in"],
    ["1900-1902","CD","1900-1902"],
    [",",",",","],
    {
      "tag":"PERSON",
      "content":
      [
        ["Eduard","NNP","eduard"],
        ["Toll","NNP","tol"]
      ]
    },
    ["headed","VBD","head"],
    ["an","DT","an"],
    ["expedition","NN","expedit"],
    ["of","IN","of"],
    ["the","DT","the"],
    {
      "tag":"ORGANIZATION",
      "content":
      [
        ["Petersburg","NNP","petersburg"],
        ["Academy","NNP","academy"]
      ]
    },
    ["of","IN","of"],
    {
      "tag":"ORGANIZATION",
      "content":
      [
        ["Sciences","NNPS","sci"]
      ]
    },
    ["to","TO","to"],
    ["the","DT","the"],
    {
      "tag":"ORGANIZATION",
      "content":
      [
        ["New","NNP","new"],
        ["Siberian","NNP","sib"],
        ["Islands","NNPS","island"]
      ]
    },
    [",",",",","],
    ["The","DT","The"],
    {
      "tag":"GPE",
      "content":
      [
        ["Russian","NNP","russ"]
      ]
    },
    ["Polar","NNP","pol"],
    ["Expedition","NNP","expedit"],
    [",",",",","],
    ["on","IN","on"],
    ["ship","NN","ship"],
    {
      "tag":"PERSON",
      "content":
      [
        ["Zarya","NNP","zary"]
      ]
    },
    ["(","NNP","("],
    ["Заря","NNP","заря"],
    [")","NNP",")"],
    [".",".","."]
  ]
},
{
  "tag":"S",
  "content":
  [
    ["The","DT","The"],
    ["main","JJ","main"],
    ["aim","NN","aim"],
    ["of","IN","of"],
    ["the","DT","the"],
    ["expedition","NN","expedit"],
    ["was","VBD","be"],
    ["to","TO","to"],
    ["find","VB","find"],
    ["the","DT","the"],
    ["legendary","JJ","legend"],
    {
      "tag":"PERSON",
      "content":
      [
        ["Sannikov","NNP","sannikov"],
        ["Land","NNP","land"]
      ]
    },
    [".",".","."]
  ]
},
{
  "tag":"S",
  "content":
  [
    ["During","IN","During"],
    ["this","DT","this"],
    ["voyage","NN","voy"],
    ["and","CC","and"],
    ["especially","RB","espec"],
    ["during","IN","during"],
    ["the","DT","the"],
    ["winterings","NNS","wint"],
    ["near","IN","near"],
    ["the","DT","the"],
    ["northwestern","NN","northwestern"],
    ["part","NN","part"],
    ["of","IN","of"],
    ["the","DT","the"],
    {
      "tag":"ORGANIZATION",
      "content":
      [
        ["Taymyr","NNP","taymyr"],
        ["Peninsula","NNP","peninsul"]
      ]
    },
    ["and","CC","and"],
    ["western","JJ","western"],
    ["part","NN","part"],
    ["of","IN","of"],
    ["the","DT","the"],
    {
      "tag":"ORGANIZATION",
      "content":
      [
        ["Kotelny","NNP","kotelny"],
        ["Island","NNP","island"]
      ]
    },
    [",",",",","],
    {
      "tag":"PERSON",
      "content":
      [
        ["Eduard","NNP","eduard"],
        ["Toll","NNP","tol"]
      ]
    },
    ["conducted","VBD","conduc"],
    ["an","DT","an"],
    ["extensive","JJ","extend"],
    ["hydrographical","JJ","hydrograph"],
    [",",",",","],
    ["geographical","JJ","geograph"],
    [",",",",","],
    ["and","CC","and"],
    ["geological","JJ","geolog"],
    ["research","NN","research"],
    [".",".","."]
  ]
},
{
  "tag":"S",
  "content":
  [
    ["Due","JJ","due"],
    ["to","TO","to"],
    ["severe","VB","sev"],
    ["ice","NN","ic"],
    ["conditions","NNS","condit"],
    ["the","DT","the"],
    ["expedition","NN","expedit"],
    ["was","VBD","be"],
    ["forced","VBN","forc"],
    ["to","TO","to"],
    ["spend","VB","spend"],
    ["two","CD","two"],
    ["winters","NNS","wint"],
    ["in","IN","in"],
    ["the","DT","the"],
    ["region","NN","reg"],
    ["of","IN","of"],
    ["the","DT","the"],
    ["bleak","NN","bleak"],
    {
      "tag":"ORGANIZATION",
      "content":
      [
        ["New","NNP","new"],
        ["Siberian","NNP","sib"],
        ["Archipelago","NNP","archipelago"]
      ]
    },
    [".",".","."]
  ]
},
{
  "tag":"S",
  "content":
  [
    ["In","IN","In"],
    ["the","DT","the"],
    ["end","NN","end"],
    [",",",",","],
    {
      "tag":"PERSON",
      "content":
      [
        ["Eduard","NNP","eduard"]
      ]
    },
    ["von","NN","von"],
    {
      "tag":"PERSON",
      "content":
      [
        ["Toll","NNP","tol"]
      ]
    },
    ["traveled","VBD","travel"],
    ["to","TO","to"],
    {
      "tag":"PERSON",
      "content":
      [
        ["Bennett","NNP","bennet"],
        ["Island","NNP","island"]
      ]
    },
    ["by","IN","by"],
    ["sledge","NN","sledg"],
    ["and","CC","and"],
    ["kayak","NN","kayak"],
    ["along","IN","along"],
    ["with","IN","with"],
    ["three","CD","three"],
    ["expedition","NN","expedit"],
    ["members","NNS","memb"],
    [".",".","."]
  ]
},
{
  "tag":"S",
  "content":
  [
    {
      "tag":"GPE",
      "content":
      [
        ["Ship","NN","ship"]
      ]
    },
    ["``","``","``"],
    ["Zarya","NNP","zary"],
    ["''","''","''"],
    ["attempted","VBD","attempt"],
    ["to","TO","to"],
    ["reach","VB","reach"],
    {
      "tag":"PERSON",
      "content":
      [
        ["Bennett","NNP","bennet"],
        ["Island","NNP","island"]
      ]
    },
    ["to","TO","to"],
    ["evacuate","VB","evacu"],
    {
      "tag":"PERSON",
      "content":
      [
        ["Toll","NNP","tol"]
      ]
    },
    ["'s","POS","'s"],
    ["party","NN","party"],
    ["but","CC","but"],
    ["was","VBD","be"],
    ["unable","JJ","un"],
    ["to","TO","to"],
    ["do","VB","do"],
    ["so","RB","so"],
    ["because","IN","because"],
    ["of","IN","of"],
    ["severe","JJ","sev"],
    ["ice","NN","ic"],
    ["conditions","NNS","condit"],
    [".",".","."]
  ]
},
{
  "tag":"S",
  "content":
  [
    ["Apparently","RB","app"],
    [",",",",","],
    {
      "tag":"PERSON",
      "content":
      [
        ["Toll","NNP","tol"]
      ]
    },
    ["made","VBD","mak"],
    ["a","DT","a"],
    ["decision","NN","decid"],
    ["to","TO","to"],
    ["go","VB","go"],
    ["south","NN","sou"],
    ["to","TO","to"],
    ["the","DT","the"],
    ["continent","NN","contin"],
    ["but","CC","but"],
    ["no","DT","no"],
    ["further","JJ","furth"],
    ["traces","NNS","trac"],
    ["of","IN","of"],
    ["the","DT","the"],
    ["four","CD","four"],
    ["men","NNS","men"],
    ["have","VBP","hav"],
    ["ever","RB","ev"],
    ["been","VBN","be"],
    ["found","VBN","find"],
    [".",".","."]
  ]
},
{
  "tag":"S",
  "content":
  [
    ["Two","CD","Two"],
    ["search","NN","search"],
    ["parties","NNS","party"],
    ["were","VBD","be"],
    ["dispatched","VBN","dispatch"],
    ["in","IN","in"],
    ["the","DT","the"],
    ["spring","NN","spring"],
    ["1903","CD","1903"],
    [".",".","."]
  ]
},
{
  "tag":"S",
  "content":
  [
    ["One","CD","One"],
    ["of","IN","of"],
    ["them","PRP","them"],
    [",",",",","],
    ["under","IN","under"],
    ["engineer","NN","engin"],
    {
      "tag":"PERSON",
      "content":
      [
        ["Mikhail","NNP","mikhail"],
        ["Brusnev","NNP","brusnev"]
      ]
    },
    [",",",",","],
    ["searched","VBD","search"],
    ["the","DT","the"],
    ["shores","NNS","shor"],
    ["of","IN","of"],
    ["the","DT","the"],
    {
      "tag":"ORGANIZATION",
      "content":
      [
        ["New","NNP","new"],
        ["Siberian","NNP","sib"],
        ["Islands","NNPS","island"]
      ]
    },
    ["and","CC","and"],
    ["the","DT","the"],
    ["other","JJ","oth"],
    [",",",",","],
    ["naval","JJ","nav"],
    ["commander","NN","command"],
    {
      "tag":"PERSON",
      "content":
      [
        ["Aleksandr","NNP","aleksandr"],
        ["Kolchak","NNP","kolchak"]
      ]
    },
    ["traveled","VBD","travel"],
    ["by","IN","by"],
    ["whaleboat","JJ","whalebo"],
    ["to","TO","to"],
    {
      "tag":"PERSON",
      "content":
      [
        ["Bennet","NNP","bennet"],
        ["Island","NNP","island"]
      ]
    },
    [".",".","."]
  ]
},
{
  "tag":"S",
  "content":
  [
    ["They","PRP","They"],
    ["did","VBD","do"],
    ["not","RB","not"],
    ["find","VB","find"],
    ["the","DT","the"],
    ["lost","JJS","lost"],
    ["explorers","NNS","expl"],
    ["but","CC","but"],
    ["they","PRP","they"],
    ["found","VBD","find"],
    ["the","DT","the"],
    ["diaries","NNS","diary"],
    ["and","CC","and"],
    ["the","DT","the"],
    ["collections","NNS","collect"],
    ["of","IN","of"],
    ["the","DT","the"],
    {
      "tag":"GPE",
      "content":
      [
        ["Zarya","NNP","zary"]
      ]
    },
    ["expedition","NN","expedit"],
    [",",",",","],
    ["which","WDT","which"],
    ["shed","VBD","shed"],
    ["light","JJ","light"],
    ["on","IN","on"],
    ["the","DT","the"],
    ["tragic","JJ","trag"],
    ["fate","NN","fat"],
    ["of","IN","of"],
    {
      "tag":"PERSON",
      "content":
      [
        ["Baron","NNP","baron"],
        ["Eduard","NNP","eduard"]
      ]
    },
    ["von","NN","von"],
    {
      "tag":"PERSON",
      "content":
      [
        ["Toll","NNP","tol"]
      ]
    },
    ["and","CC","and"],
    ["his","PRP$","his"],
    ["companions","NNS","comp"],
    [".",".","."]
  ]
},
{
  "tag":"S",
  "content":
  [
    ["==Posthumous","JJ","==posthumous"],
    ["Honors==","NN","honors=="],
    {
      "tag":"PERSON",
      "content":
      [
        ["Kukruse","NNP","kukrus"]
      ]
    },
    ["mõisa","NNP","mõis"],
    ["peahoone","NN","peahoon"],
    [",",",",","],
    ["2010","CD","2010"],
    [",",",",","],
    ["regnr","NN","regnr"],
    ["13892.jpg|thumb|right|Kukruse","CD","13892.jpg|thumb|right|Kukruse"],
    ["Manor","NNP","man"],
    ["where","WRB","where"],
    {
      "tag":"PERSON",
      "content":
      [
        ["Eduard","NNP","eduard"]
      ]
    },
    ["von","NN","von"],
    {
      "tag":"PERSON",
      "content":
      [
        ["Toll","NNP","tol"]
      ]
    },
    ["lived","VBD","liv"],
    ["The","DT","The"],
    ["name","NN","nam"],
    ["of","IN","of"],
    {
      "tag":"GPE",
      "content":
      [
        ["Eduard","NNP","eduard"]
      ]
    },
    ["von","NN","von"],
    {
      "tag":"PERSON",
      "content":
      [
        ["Toll","NNP","tol"]
      ]
    },
    ["remained","VBD","remain"],
    ["on","IN","on"],
    ["the","DT","the"],
    ["geographical","JJ","geograph"],
    ["maps","NNS","map"],
    {
      "tag":"PERSON",
      "content":
      [
        ["Fridtjof","NNP","fridtjof"],
        ["Nansen","NNP","nans"]
      ]
    },
    ["published","VBD","publ"],
    [".",".","."]
  ]
},
{
  "tag":"S",
  "content":
  [
    ["He","PRP","He"],
    ["named","VBD","nam"],
    ["the","DT","the"],
    {
      "tag":"ORGANIZATION",
      "content":
      [
        ["Bay","NNP","bay"]
      ]
    },
    ["at","IN","at"],
    ["the","DT","the"],
    ["north-west","JJ","north-west"],
    ["coast","NN","coast"],
    ["of","IN","of"],
    ["the","DT","the"],
    {
      "tag":"ORGANIZATION",
      "content":
      [
        ["Taymyr","NNP","taymyr"],
        ["Peninsula","NNP","peninsul"]
      ]
    },
    ["in","IN","in"],
    ["honour","PRP$","honour"],
    ["of","IN","of"],
    {
      "tag":"GPE",
      "content":
      [
        ["Eduard","NNP","eduard"]
      ]
    },
    ["von","NN","von"],
    ["Toll","NNP","tol"],
    [".",".","."]
  ]
},
{
  "tag":"S",
  "content":
  [
    ["There","EX","There"],
    ["is","VBZ","be"],
    ["also","RB","also"],
    ["the","DT","the"],
    {
      "tag":"ORGANIZATION",
      "content":
      [
        ["Tollievaya","NNP","tollievay"],
        ["River","NNP","riv"]
      ]
    },
    [",",",",","],
    ["a","DT","a"],
    ["cape","NN","cap"],
    ["on","IN","on"],
    ["the","DT","the"],
    {
      "tag":"ORGANIZATION",
      "content":
      [
        ["Tsirkul","NNP","tsirk"],
        ["Island","NNP","island"]
      ]
    },
    ["in","IN","in"],
    ["the","DT","the"],
    {
      "tag":"ORGANIZATION",
      "content":
      [
        ["Minina","NNP","minin"],
        ["Skerries","NNP","skerry"]
      ]
    },
    [",",",",","],
    ["mountains","VBZ","mountain"],
    ["in","IN","in"],
    {
      "tag":"ORGANIZATION",
      "content":
      [
        ["Novaya","NNP","novay"],
        ["Zemlya","NNP","zemly"]
      ]
    },
    [",",",",","],
    ["the","DT","the"],
    ["northernmost","JJS","northernmost"],
    ["cape","NN","cap"],
    ["at","IN","at"],
    {
      "tag":"FACILITY",
      "content":
      [
        ["Stolbovoy","NNP","stolbovoy"],
        ["Island","NNP","island"]
      ]
    },
    [",",",",","],
    ["the","DT","the"],
    ["strait","NN","strait"],
    ["and","CC","and"],
    ["a","DT","a"],
    ["plateau","NN","plateau"],
    ["at","IN","at"],
    {
      "tag":"ORGANIZATION",
      "content":
      [
        ["Kotelny","NNP","kotelny"],
        ["Island","NNP","island"]
      ]
    },
    ["and","CC","and"],
    ["the","DT","the"],
    ["central","JJ","cent"],
    ["ice","NN","ic"],
    ["cap","NN","cap"],
    ["at","IN","at"],
    {
      "tag":"ORGANIZATION",
      "content":
      [
        ["Bennett","NNP","bennet"],
        ["Island","NNP","island"]
      ]
    },
    [".",".","."]
  ]
},
{
  "tag":"S",
  "content":
  [
    ["In","IN","In"],
    ["certain","JJ","certain"],
    ["fields","NNS","field"],
    [",",",",","],
    ["like","IN","like"],
    ["paleontology","NN","paleontolog"],
    [",",",",","],
    ["zoology","NN","zoolog"],
    ["and","CC","and"],
    ["botany","NN","botany"],
    ["many","JJ","many"],
    ["specimens","NNS","specim"],
    ["of","IN","of"],
    ["fauna","NN","faun"],
    ["and","CC","and"],
    ["flora","NN","flor"],
    ["are","VBP","be"],
    ["named","VBN","nam"],
    ["after","IN","after"],
    {
      "tag":"PERSON",
      "content":
      [
        ["Baron","NNP","baron"],
        ["Eduard","NNP","eduard"]
      ]
    },
    ["von","NN","von"],
    {
      "tag":"PERSON",
      "content":
      [
        ["Toll","NNP","tol"]
      ]
    },
    [",",",",","],
    ["like","IN","like"],
    ["for","IN","for"],
    ["example","NN","exampl"],
    ["the","DT","the"],
    ["foraminiferan","NN","foramin"],
    ["named","VBD","nam"],
    {
      "tag":"GPE",
      "content":
      [
        ["Dendrophyra","NNP","dendrophyr"]
      ]
    },
    ["tolli","NN","toll"],
    ["(",":","("],
    {
      "tag":"PERSON",
      "content":
      [
        ["Awerinzew","NNP","awerinzew"]
      ]
    },
    [",",",",","],
    ["1911","CD","1911"],
    [")",":",")"],
    [".",".","."]
  ]
},
{
  "tag":"S",
  "content":
  [
    {
      "tag":"PERSON",
      "content":
      [
        ["Baron","NNP","baron"]
      ]
    },
    {
      "tag":"PERSON",
      "content":
      [
        ["Toll","NNP","tol"]
      ]
    },
    ["was","VBD","be"],
    ["an","DT","an"],
    ["expert","NN","expert"],
    ["in","IN","in"],
    {
      "tag":"GPE",
      "content":
      [
        ["Siberian","NNP","sib"]
      ]
    },
    ["palaeontology","NN","palaeontolog"],
    [".",".","."]
  ]
},
{
  "tag":"S",
  "content":
  [
    ["The","DT","The"],
    ["following","VBG","follow"],
    ["statement","NN","stat"],
    ["of","IN","of"],
    {
      "tag":"GPE",
      "content":
      [
        ["Russian","NNP","russ"]
      ]
    },
    ["Academician","NNP","academ"],
    ["V.","NNP","v."],
    ["A.","NNP","a."],
    ["Obruchev","NNP","obruchev"],
    ["is","VBZ","be"],
    ["well-known","JJ","well-known"],
    [":",":",":"],
    ["``","``","``"],
    ["In","IN","In"],
    ["all","DT","all"],
    ["our","PRP$","our"],
    ["guides","NNS","guid"],
    ["on","IN","on"],
    ["physical","JJ","phys"],
    ["geography","NN","geograph"],
    ["you","PRP","you"],
    ["can","MD","can"],
    ["encounter","VB","encount"],
    ["the","DT","the"],
    ["name","NN","nam"],
    ["of","IN","of"],
    {
      "tag":"PERSON",
      "content":
      [
        ["Eduard","NNP","eduard"]
      ]
    },
    ["v.","CC","v."],
    {
      "tag":"PERSON",
      "content":
      [
        ["Toll","NNP","tol"]
      ]
    },
    ["as","IN","as"],
    ["the","DT","the"],
    ["founder","NN","found"],
    ["of","IN","of"],
    ["the","DT","the"],
    ["doctrine","NN","doctrin"],
    ["of","IN","of"],
    ["fossilized","JJ","fossil"],
    ["ice","NN","ic"],
    ["formation","NN","form"],
    ["–",":","–"],
    ["the","DT","the"],
    ["doctrine","NN","doctrin"],
    ["which","WDT","which"],
    ["became","VBD","becom"],
    ["a","DT","a"],
    ["classic","JJ","class"],
    ["one","CD","one"],
    ["''","''","''"],
    [".",".","."]
  ]
},
{
  "tag":"S",
  "content":
  [
    ["==References==","NN","==references=="],
    ["*","-NONE-","*"],
    {
      "tag":"PERSON",
      "content":
      [
        ["William","NNP","william"],
        ["Barr","NNP","bar"]
      ]
    },
    [",",",",","],
    ["(","NNP","("],
    ["1980","CD","1980"],
    [")","CD",")"],
    ["``","``","``"],
    {
      "tag":"PERSON",
      "content":
      [
        ["Baron","NNP","baron"],
        ["Eduard","NNP","eduard"]
      ]
    },
    ["von","NN","von"],
    ["Toll’s","NNS","toll’s"],
    ["Last","JJ","last"],
    ["Expedition","NNP","expedit"],
    [":",":",":"],
    ["The","DT","The"],
    {
      "tag":"GPE",
      "content":
      [
        ["Russian","JJ","russ"]
      ]
    },
    ["Polar","NNP","pol"],
    ["Expedition","NNP","expedit"],
    [",",",",","],
    ["1900-1903","CD","1900-1903"],
    ["''","''","''"],
    [",",",",","],
    {
      "tag":"GPE",
      "content":
      [
        ["Arctic","NNP","arct"]
      ]
    },
    [",",",",","],
    ["34","CD","34"],
    ["(",":","("],
    ["3","CD","3"],
    [":",":",":"],
    ["September","NNP","septemb"],
    [")",":",")"],
    [",",",",","],
    ["p.","NNP","p."],
    ["201-224","CD","201-224"],
    ["*","-NONE-","*"],
    ["A.","NNP","a."],
    ["Bunge","NNP","bung"],
    ["&","CC","&"],
    ["E.","NNP","e."],
    ["von","NN","von"],
    {
      "tag":"PERSON",
      "content":
      [
        ["Toll","NNP","tol"]
      ]
    },
    [",",",",","],
    {
      "tag":"ORGANIZATION",
      "content":
      [
        ["The","NNP","the"],
        ["Expedition","NNP","expedit"]
      ]
    },
    ["to","TO","to"],
    ["the","DT","the"],
    {
      "tag":"ORGANIZATION",
      "content":
      [
        ["New","NNP","new"],
        ["Siberian","NNP","sib"],
        ["Islands","NNPS","island"]
      ]
    },
    ["and","CC","and"],
    ["the","DT","the"],
    {
      "tag":"ORGANIZATION",
      "content":
      [
        ["Jana","NNP","jan"]
      ]
    },
    ["country","NN","country"],
    [",",",",","],
    ["equipped","VBD","equip"],
    ["by","IN","by"],
    ["the","DT","the"],
    {
      "tag":"ORGANIZATION",
      "content":
      [
        ["Imperial","NNP","imp"],
        ["Academy","NNP","academy"]
      ]
    },
    ["of","IN","of"],
    {
      "tag":"GPE",
      "content":
      [
        ["Sciences","NNPS","sci"]
      ]
    },
    [",",",",","],
    ["1887","CD","1887"],
    ["==See","JJ","==see"],
    ["also==","NN","also=="],
    ["*Zarya","NN","*zarya"],
    ["(",":","("],
    ["polar","JJ","pol"],
    ["ship","NN","ship"],
    [")",":",")"],
    ["*New","JJ","*new"],
    {
      "tag":"GPE",
      "content":
      [
        ["Siberian","JJ","sib"]
      ]
    },
    {
      "tag":"ORGANIZATION",
      "content":
      [
        ["Islands","NNS","island"]
      ]
    },
    ["*Great","JJ","*great"],
    {
      "tag":"PERSON",
      "content":
      [
        ["Lyakhovsky","NNP","lyakhovsky"],
        ["Island","NNP","island"]
      ]
    },
    ["*Nikolai","NNP","*nikolai"],
    ["Kolomeitsev","NNP","kolomeitsev"],
    ["*List","NNP","*list"],
    ["of","IN","of"],
    {
      "tag":"ORGANIZATION",
      "content":
      [
        ["Baltic","NNP","balt"]
      ]
    },
    ["German","NNP","germ"],
    ["scientists","NNS","sci"]
  ]
}]