[
{
  "tag":"S",
  "content":
  [
    {
      "tag":"PERSON",
      "content":
      [
        ["Ulrich","NNP","ulrich"]
      ]
    },
    {
      "tag":"ORGANIZATION",
      "content":
      [
        ["Schmidl","NNP","schmidl"]
      ]
    },
    ["or","CC","or"],
    {
      "tag":"GPE",
      "content":
      [
        ["Schmidel","NNP","schmidel"]
      ]
    },
    ["(",":","("],
    ["1510","CD","1510"],
    ["in","IN","in"],
    {
      "tag":"GPE",
      "content":
      [
        ["Straubing","NNP","straubing"]
      ]
    },
    ["-",":","-"],
    ["1579","CD","1579"],
    ["in","IN","in"],
    {
      "tag":"GPE",
      "content":
      [
        ["Regensburg","NNP","regensburg"]
      ]
    },
    [")","NNP",")"],
    ["was","VBD","be"],
    ["a","DT","a"],
    {
      "tag":"ORGANIZATION",
      "content":
      [
        ["German","JJ","germ"],
        ["Landsknecht","NNP","landsknecht"]
      ]
    },
    [",",",",","],
    ["conquistador","NN","conquistad"],
    [",",",",","],
    ["explorer","NN","expl"],
    [",",",",","],
    ["chronicler","NN","chronicler"],
    ["and","CC","and"],
    ["councilman","NN","councilm"],
    [".",".","."]
  ]
},
{
  "tag":"S",
  "content":
  [
    {
      "tag":"PERSON",
      "content":
      [
        ["Schmidl","NNP","schmidl"]
      ]
    },
    ["was","VBD","be"],
    [",",",",","],
    ["beside","RB","besid"],
    ["Hans","NNPS","han"],
    {
      "tag":"PERSON",
      "content":
      [
        ["Staden","NNP","stad"]
      ]
    },
    [",",",",","],
    ["one","CD","one"],
    ["of","IN","of"],
    ["the","DT","the"],
    ["few","JJ","few"],
    ["the","DT","the"],
    {
      "tag":"GPE",
      "content":
      [
        ["Landsknechts","NNP","landsknecht"]
      ]
    },
    [",",",",","],
    ["who","WP","who"],
    ["wrote","VBD","writ"],
    ["his","PRP$","his"],
    ["experiences","NNS","expery"],
    ["down","IN","down"],
    [".",".","."]
  ]
},
{
  "tag":"S",
  "content":
  [
    ["==Biography==","NN","==biography=="],
    {
      "tag":"PERSON",
      "content":
      [
        ["Schmidl","NNP","schmidl"]
      ]
    },
    ["was","VBD","be"],
    ["the","DT","the"],
    ["son","NN","son"],
    ["of","IN","of"],
    ["a","DT","a"],
    ["wealthy","JJ","wealthy"],
    ["merchant","NN","merch"],
    [",",",",","],
    ["and","CC","and"],
    ["received","VBD","receiv"],
    ["a","DT","a"],
    ["good","JJ","good"],
    ["education","NN","educ"],
    [".",".","."]
  ]
},
{
  "tag":"S",
  "content":
  [
    ["He","PRP","He"],
    ["entered","VBD","ent"],
    ["military","JJ","milit"],
    ["service","NN","serv"],
    ["and","CC","and"],
    ["took","VBD","tak"],
    ["part","NN","part"],
    ["1534","CD","1534"],
    ["as","IN","as"],
    ["a","DT","a"],
    ["Landsknecht","NNP","landsknecht"],
    ["under","IN","under"],
    {
      "tag":"PERSON",
      "content":
      [
        ["Pedro","NNP","pedro"]
      ]
    },
    ["de","IN","de"],
    {
      "tag":"GPE",
      "content":
      [
        ["Mendoza","NNP","mendoz"]
      ]
    },
    ["in","IN","in"],
    ["an","DT","an"],
    ["expedition","NN","expedit"],
    ["to","TO","to"],
    ["today","NN","today"],
    ["'s","POS","'s"],
    {
      "tag":"GPE",
      "content":
      [
        ["Argentina","NNP","argentin"]
      ]
    },
    ["(","NNP","("],
    ["Río","NNP","río"],
    ["de","IN","de"],
    ["la","DT","la"],
    ["Plata","NNP","plat"],
    [")","NNP",")"],
    [".",".","."]
  ]
},
{
  "tag":"S",
  "content":
  [
    ["He","PRP","He"],
    ["also","RB","also"],
    ["accompanied","VBD","accompany"],
    {
      "tag":"PERSON",
      "content":
      [
        ["Juan","NNP","juan"]
      ]
    },
    ["de","IN","de"],
    {
      "tag":"GPE",
      "content":
      [
        ["Ayolas","NNP","ayola"]
      ]
    },
    ["on","IN","on"],
    ["his","PRP$","his"],
    ["first","JJ","first"],
    ["trip","NN","trip"],
    ["in","IN","in"],
    ["quest","NN","quest"],
    ["of","IN","of"],
    ["provisions","NNS","provid"],
    [",",",",","],
    ["and","CC","and"],
    ["afterward","NN","afterward"],
    ["went","VBD","go"],
    ["with","IN","with"],
    {
      "tag":"PERSON",
      "content":
      [
        ["Ayolas","NNP","ayola"]
      ]
    },
    ["in","IN","in"],
    ["his","PRP$","his"],
    ["expedition","NN","expedit"],
    ["up","IN","up"],
    {
      "tag":"ORGANIZATION",
      "content":
      [
        ["Paraguay","NNP","paraguay"],
        ["River","NNP","riv"]
      ]
    },
    [",",",",","],
    ["and","CC","and"],
    ["was","VBD","be"],
    ["one","CD","one"],
    ["of","IN","of"],
    ["the","DT","the"],
    ["soldiers","NNS","soldy"],
    ["that","WDT","that"],
    ["were","VBD","be"],
    ["left","VBN","leav"],
    ["with","IN","with"],
    {
      "tag":"PERSON",
      "content":
      [
        ["Domingo","NNP","domingo"],
        ["Irala","NNP","iral"]
      ]
    },
    ["in","IN","in"],
    ["charge","NN","charg"],
    ["of","IN","of"],
    ["the","DT","the"],
    ["vessels","NNS","vessel"],
    ["in","IN","in"],
    ["the","DT","the"],
    ["port","NN","port"],
    ["of","IN","of"],
    {
      "tag":"GPE",
      "content":
      [
        ["Candelaria","NNP","candelar"]
      ]
    },
    [".",".","."]
  ]
},
{
  "tag":"S",
  "content":
  [
    ["When","WRB","When"],
    {
      "tag":"PERSON",
      "content":
      [
        ["Cabeza","NNP","cabez"]
      ]
    },
    ["de","IN","de"],
    {
      "tag":"PERSON",
      "content":
      [
        ["Vaca","NNP","vac"]
      ]
    },
    ["was","VBD","be"],
    ["deposed","VBN","depos"],
    ["in","IN","in"],
    ["April","NNP","april"],
    ["1544","CD","1544"],
    [",",",",","],
    {
      "tag":"PERSON",
      "content":
      [
        ["Schmidel","NNP","schmidel"]
      ]
    },
    ["sustained","VBD","sustain"],
    {
      "tag":"GPE",
      "content":
      [
        ["Irala","NNP","iral"]
      ]
    },
    [",",",",","],
    ["who","WP","who"],
    ["was","VBD","be"],
    ["the","DT","the"],
    ["new","JJ","new"],
    ["governor","NN","govern"],
    [",",",",","],
    ["and","CC","and"],
    ["in","IN","in"],
    ["1546","CD","1546"],
    ["accompanied","VBN","accompany"],
    ["him","PRP","him"],
    ["in","IN","in"],
    ["his","PRP$","his"],
    ["expedition","NN","expedit"],
    ["to","TO","to"],
    {
      "tag":"PERSON",
      "content":
      [
        ["Peru","NNP","peru"]
      ]
    },
    ["as","IN","as"],
    ["far","RB","far"],
    ["as","IN","as"],
    ["the","DT","the"],
    ["foot","NN","foot"],
    ["of","IN","of"],
    ["the","DT","the"],
    ["Andes","NNP","and"],
    [",",",",","],
    ["where","WRB","where"],
    ["he","PRP","he"],
    ["was","VBD","be"],
    ["despatched","VBN","despatch"],
    ["with","IN","with"],
    ["Nuño","JJ","nuño"],
    ["de","NN","de"],
    ["Chaves","NNS","chav"],
    ["to","TO","to"],
    ["President","NNP","presid"],
    {
      "tag":"PERSON",
      "content":
      [
        ["La","NNP","la"],
        ["Gasca","NNP","gasc"]
      ]
    },
    [".",".","."]
  ]
},
{
  "tag":"S",
  "content":
  [
    ["He","PRP","He"],
    ["accompanied","VBD","accompany"],
    {
      "tag":"GPE",
      "content":
      [
        ["Irala","NNP","iral"]
      ]
    },
    ["on","IN","on"],
    ["his","PRP$","his"],
    ["last","JJ","last"],
    ["unfortunate","NN","unfortun"],
    ["expedition","NN","expedit"],
    ["of","IN","of"],
    ["1550","CD","1550"],
    [".",".","."]
  ]
},
{
  "tag":"S",
  "content":
  [
    ["He","PRP","He"],
    ["became","VBD","becom"],
    ["a","DT","a"],
    ["founder","NN","found"],
    ["of","IN","of"],
    {
      "tag":"PERSON",
      "content":
      [
        ["Buenos","NNP","bueno"],
        ["Aires","NNP","air"]
      ]
    },
    [".",".","."]
  ]
},
{
  "tag":"S",
  "content":
  [
    ["His","PRP$","His"],
    ["journey","NN","journey"],
    ["led","VBD","lead"],
    ["him","PRP","him"],
    ["across","IN","across"],
    ["the","DT","the"],
    ["Río","NNP","río"],
    ["Paraná","NNP","paraná"],
    ["and","CC","and"],
    ["Río","NNP","río"],
    ["Paraguay","NNP","paraguay"],
    ["and","CC","and"],
    ["into","IN","into"],
    ["today","NN","today"],
    ["'s","POS","'s"],
    {
      "tag":"ORGANIZATION",
      "content":
      [
        ["Paraguay","NNP","paraguay"]
      ]
    },
    [",",",",","],
    ["where","WRB","where"],
    ["he","PRP","he"],
    ["helped","VBD","help"],
    ["to","TO","to"],
    ["found","VB","find"],
    ["Asunción","JJ","asunción"],
    [".",".","."]
  ]
},
{
  "tag":"S",
  "content":
  [
    ["From","IN","From"],
    ["there","EX","there"],
    ["he","PRP","he"],
    ["undertook","VBD","undertak"],
    ["several","JJ","sev"],
    ["expeditions","NNS","expedit"],
    ["in","IN","in"],
    ["the","DT","the"],
    {
      "tag":"ORGANIZATION",
      "content":
      [
        ["Gran","NNP","gran"]
      ]
    },
    ["Chaco","NNP","chaco"],
    [",",",",","],
    ["which","WDT","which"],
    ["led","VBN","lead"],
    ["him","PRP","him"],
    ["into","IN","into"],
    ["southeast","JJ","southeast"],
    {
      "tag":"GPE",
      "content":
      [
        ["Bolivia","NNP","boliv"]
      ]
    },
    [".",".","."]
  ]
},
{
  "tag":"S",
  "content":
  [
    ["In","IN","In"],
    ["1552","CD","1552"],
    [",",",",","],
    ["on","IN","on"],
    ["learning","NN","learn"],
    ["of","IN","of"],
    ["the","DT","the"],
    ["death","NN","dea"],
    ["of","IN","of"],
    ["his","PRP$","his"],
    ["elder","NN","eld"],
    ["brother","NN","broth"],
    ["to","TO","to"],
    ["whose","WP$","whose"],
    ["estate","NN","est"],
    ["he","PRP","he"],
    ["was","VBD","be"],
    ["to","TO","to"],
    ["succeed","VB","success"],
    [",",",",","],
    {
      "tag":"PERSON",
      "content":
      [
        ["Schmidel","NNP","schmidel"]
      ]
    },
    ["obtained","VBD","obtain"],
    ["his","PRP$","his"],
    ["discharge","NN","discharg"],
    [".",".","."]
  ]
},
{
  "tag":"S",
  "content":
  [
    ["In","IN","In"],
    {
      "tag":"GPE",
      "content":
      [
        ["Seville","NNP","sevil"]
      ]
    },
    [",",",",","],
    ["he","PRP","he"],
    ["presented","VBD","pres"],
    ["to","TO","to"],
    ["the","DT","the"],
    ["council","NN","council"],
    ["of","IN","of"],
    ["the","DT","the"],
    {
      "tag":"GPE",
      "content":
      [
        ["Indies","NNPS","indy"]
      ]
    },
    ["letters","NNS","let"],
    ["from","IN","from"],
    {
      "tag":"GPE",
      "content":
      [
        ["Irala","NNP","iral"]
      ]
    },
    ["with","IN","with"],
    ["the","DT","the"],
    ["report","NN","report"],
    ["of","IN","of"],
    ["his","PRP$","his"],
    ["discoveries","NNS","discovery"],
    [",",",",","],
    ["and","CC","and"],
    ["arrived","VBD","ar"],
    ["toward","IN","toward"],
    ["the","DT","the"],
    ["close","NN","clos"],
    ["of","IN","of"],
    ["1554","CD","1554"],
    ["in","IN","in"],
    {
      "tag":"GPE",
      "content":
      [
        ["Straubing","NNP","straubing"]
      ]
    },
    [",",",",","],
    ["where","WRB","where"],
    ["he","PRP","he"],
    ["afterward","VBD","afterward"],
    ["resided","VBN","resid"],
    [".",".","."]
  ]
},
{
  "tag":"S",
  "content":
  [
    ["He","PRP","He"],
    ["had","VBD","hav"],
    ["kept","VBN","keep"],
    ["a","DT","a"],
    ["diary","JJ","diary"],
    ["during","IN","during"],
    ["his","PRP$","his"],
    ["wanderings","NNS","wand"],
    [",",",",","],
    ["and","CC","and"],
    ["wrote","VBD","writ"],
    ["a","DT","a"],
    ["narrative","JJ","nar"],
    ["of","IN","of"],
    ["his","PRP$","his"],
    ["adventures","NNS","adv"],
    ["under","IN","under"],
    ["the","DT","the"],
    ["title","NN","titl"],
    ["of","IN","of"],
    {
      "tag":"PERSON",
      "content":
      [
        ["Wahre","NNP","wahr"],
        ["Geschichte","NNP","geschicht"]
      ]
    },
    ["einer","NN","ein"],
    ["merkwürdigen","-NONE-","merkwürdigen"],
    ["Reise","NNP","reis"],
    [",",",",","],
    ["gemacht","VBD","gemacht"],
    ["durch","NN","durch"],
    {
      "tag":"PERSON",
      "content":
      [
        ["Ulrich","NNP","ulrich"],
        ["Schmidel","NNP","schmidel"]
      ]
    },
    ["von","NN","von"],
    ["Straubingen","NNP","straubingen"],
    [",",",",","],
    ["in","IN","in"],
    {
      "tag":"GPE",
      "content":
      [
        ["America","NNP","americ"]
      ]
    },
    ["oder","NN","od"],
    ["der","NN","der"],
    {
      "tag":"PERSON",
      "content":
      [
        ["Neuen","NNP","neu"],
        ["Welt","NNP","welt"]
      ]
    },
    [",",",",","],
    ["von","NN","von"],
    ["1534","CD","1534"],
    ["bis","NNS","bi"],
    ["1554","CD","1554"],
    [",",",",","],
    ["wo","MD","wo"],
    ["man","VB","man"],
    ["findet","NN","findet"],
    ["alle","NN","al"],
    ["seine","NN","sein"],
    {
      "tag":"PERSON",
      "content":
      [
        ["Leiden","NNP","leid"]
      ]
    },
    ["in","IN","in"],
    ["19","CD","19"],
    {
      "tag":"GPE",
      "content":
      [
        ["Jahren","NNP","jahr"]
      ]
    },
    [",",",",","],
    ["und","VBD","und"],
    ["die","VB","die"],
    {
      "tag":"PERSON",
      "content":
      [
        ["Beschreibung","NNP","beschreibung"]
      ]
    },
    ["der","NN","der"],
    ["Länder","NN","länder"],
    ["und","NN","und"],
    ["merkwürdigen","NN","merkwürdig"],
    ["Völker","NN","völker"],
    ["die","VB","die"],
    ["er","NN","er"],
    ["gesehen","RB","geseh"],
    [",",",",","],
    ["von","NN","von"],
    ["ihm","NN","ihm"],
    ["selbst","NN","selbst"],
    ["geschrieben","NN","geschrieb"],
    ["(",":","("],
    ["The","DT","The"],
    ["true","JJ","tru"],
    ["story","NN","story"],
    ["of","IN","of"],
    ["a","DT","a"],
    ["noteworthy","JJ","noteworthy"],
    ["trip","NN","trip"],
    ["made","VBD","mak"],
    ["by","IN","by"],
    {
      "tag":"PERSON",
      "content":
      [
        ["Ulrich","NNP","ulrich"],
        ["Schmidel","NNP","schmidel"]
      ]
    },
    ["von","NN","von"],
    ["Straubingen","NNP","straubingen"],
    ["in","IN","in"],
    {
      "tag":"GPE",
      "content":
      [
        ["America","NNP","americ"]
      ]
    },
    ["or","CC","or"],
    ["the","DT","the"],
    {
      "tag":"ORGANIZATION",
      "content":
      [
        ["New","NNP","new"]
      ]
    },
    ["World","NNP","world"],
    ["from","IN","from"],
    ["1534","CD","1534"],
    ["to","TO","to"],
    ["1554","CD","1554"],
    [",",",",","],
    ["where","WRB","where"],
    ["will","MD","will"],
    ["be","VB","be"],
    ["found","VBN","find"],
    ["all","DT","all"],
    ["his","PRP$","his"],
    ["troubles","NNS","troubl"],
    ["of","IN","of"],
    ["19","CD","19"],
    ["years","NNS","year"],
    ["and","CC","and"],
    ["the","DT","the"],
    ["description","NN","describ"],
    ["of","IN","of"],
    ["lands","NNS","land"],
    ["and","CC","and"],
    ["noteworthy","JJ","noteworthy"],
    ["peoples","NNS","peopl"],
    ["he","PRP","he"],
    ["saw","VBD","saw"],
    [",",",",","],
    ["described","VBN","describ"],
    ["by","IN","by"],
    ["himself","PRP","himself"],
    [";",":",";"],
    {
      "tag":"GPE",
      "content":
      [
        ["Frankfort","NNP","frankfort"]
      ]
    },
    [",",",",","],
    ["1557","CD","1557"],
    [")",":",")"],
    [",",",",","],
    ["of","IN","of"],
    ["which","WDT","which"],
    ["a","DT","a"],
    ["Latin","NNP","latin"],
    ["version","NN","vert"],
    ["appeared","VBD","appear"],
    ["in","IN","in"],
    {
      "tag":"GPE",
      "content":
      [
        ["Nuremberg","NNP","nuremberg"]
      ]
    },
    ["in","IN","in"],
    ["1599","CD","1599"],
    ["as","IN","as"],
    {
      "tag":"GPE",
      "content":
      [
        ["Vera","NNP","ver"]
      ]
    },
    ["historia","NN","histor"],
    [",",",",","],
    ["etc","NN","etc"],
    [".",".","."]
  ]
},
{
  "tag":"S",
  "content":
  [
    {
      "tag":"GPE",
      "content":
      [
        ["Henri","NNP","henr"]
      ]
    },
    ["Ternaux-Compans","NNS","ternaux-compans"],
    ["published","VBD","publ"],
    ["a","DT","a"],
    ["translation","NN","transl"],
    ["of","IN","of"],
    ["the","DT","the"],
    ["work","NN","work"],
    ["in","IN","in"],
    ["his","PRP$","his"],
    ["Voyages","NNS","voy"],
    [",",",",","],
    ["relations","NNS","rel"],
    ["et","VBP","et"],
    ["mémoires","NNS","mémoires"],
    ["originaux","NN","originaux"],
    ["pour","NN","pour"],
    ["servir","NN","servir"],
    ["à",":","à"],
    ["l'histoire","JJ","l'histoire"],
    ["de","NN","de"],
    ["la","NN","la"],
    ["découverte","JJ","découverte"],
    ["de","NN","de"],
    ["l'Amérique","JJ","l'amérique"],
    [",",",",","],
    ["recueil","NN","recueil"],
    ["de","IN","de"],
    ["documents","NNS","docu"],
    ["sur","VBP","sur"],
    ["la","NN","la"],
    {
      "tag":"PERSON",
      "content":
      [
        ["Floride","NNP","florid"]
      ]
    },
    ["(","NNP","("],
    ["20","CD","20"],
    ["vol.","NNP","vol."],
    [",",",",","],
    ["1837-1841","CD","1837-1841"],
    [")",":",")"],
    ["and","CC","and"],
    ["Andrés","JJ","andré"],
    ["González","NN","gonzález"],
    ["de","IN","de"],
    {
      "tag":"PERSON",
      "content":
      [
        ["Barcia","NNP","barc"]
      ]
    },
    ["in","IN","in"],
    ["his","PRP$","his"],
    ["Historiadores","NNS","historiad"],
    ["primitivos","NNS","primitivo"],
    ["de","VBP","de"],
    {
      "tag":"GPE",
      "content":
      [
        ["Indias","NNP","india"]
      ]
    },
    [".",".","."]
  ]
},
{
  "tag":"S",
  "content":
  [
    {
      "tag":"GPE",
      "content":
      [
        ["Schmidel","NNP","schmidel"]
      ]
    },
    ["thus","RB","thu"],
    ["became","VBD","becom"],
    ["the","DT","the"],
    ["first","JJ","first"],
    ["historian","NN","hist"],
    ["of","IN","of"],
    {
      "tag":"GPE",
      "content":
      [
        ["Argentina","NNP","argentin"]
      ]
    },
    [".",".","."]
  ]
},
{
  "tag":"S",
  "content":
  [
    ["His","PRP$","His"],
    ["narrative","JJ","nar"],
    ["gives","NNS","giv"],
    ["the","DT","the"],
    ["names","NNS","nam"],
    ["and","CC","and"],
    ["tells","NNS","tel"],
    ["of","IN","of"],
    ["the","DT","the"],
    ["habits","NNS","habit"],
    ["and","CC","and"],
    ["manner","NN","man"],
    ["of","IN","of"],
    ["living","NN","liv"],
    ["of","IN","of"],
    ["many","JJ","many"],
    {
      "tag":"GPE",
      "content":
      [
        ["Indian","JJ","ind"]
      ]
    },
    ["nations","NNS","nat"],
    ["that","WDT","that"],
    ["were","VBD","be"],
    ["extinct","VBP","extinct"],
    ["a","DT","a"],
    ["century","NN","century"],
    ["later","JJ","lat"],
    [".",".","."]
  ]
},
{
  "tag":"S",
  "content":
  [
    ["Perhaps","RB","perhap"],
    ["the","DT","the"],
    ["most","RBS","most"],
    ["fascinating","VBG","fascin"],
    ["parts","NNS","part"],
    ["of","IN","of"],
    ["his","PRP$","his"],
    ["accounts","NNS","account"],
    ["are","VBP","be"],
    ["those","DT","those"],
    ["that","WDT","that"],
    ["attribute","NN","attribut"],
    ["cannibalism","NN","cannib"],
    ["not","RB","not"],
    ["to","TO","to"],
    ["the","DT","the"],
    {
      "tag":"LOCATION",
      "content":
      [
        ["South","NNP","sou"],
        ["American","NNP","am"]
      ]
    },
    ["natives","VBZ","nat"],
    [",",",",","],
    ["but","CC","but"],
    ["rather","RB","rath"],
    ["to","TO","to"],
    ["the","DT","the"],
    ["desperate","NN","desp"],
    ["conquistadors","NNS","conquistad"],
    ["who","WP","who"],
    ["were","VBD","be"],
    ["unsuited","VBN","unsuit"],
    ["for","IN","for"],
    ["survival","NN","surv"],
    ["in","IN","in"],
    ["the","DT","the"],
    ["rough","JJ","rough"],
    ["climate","NN","clim"],
    [",",",",","],
    ["and","CC","and"],
    ["would","MD","would"],
    ["frequently","RB","frequ"],
    ["consume","VB","consum"],
    ["one","CD","one"],
    ["another","DT","another"],
    ["in","IN","in"],
    ["an","DT","an"],
    ["effort","NN","effort"],
    ["to","TO","to"],
    ["escape","NN","escap"],
    ["starvation","NN","starv"],
    [".",".","."]
  ]
},
{
  "tag":"S",
  "content":
  [
    ["A","DT","A"],
    ["particularly","RB","particul"],
    ["notable","JJ","not"],
    ["account","NN","account"],
    ["states","NNS","stat"],
    ["that","WDT","that"],
    ["Spaniards","NNS","spaniard"],
    ["who","WP","who"],
    ["were","VBD","be"],
    ["hung","VBN","hang"],
    [",",",",","],
    ["and","CC","and"],
    ["while","IN","while"],
    ["barely","RB","bar"],
    ["dead","JJ","dead"],
    [",",",",","],
    ["were","VBD","be"],
    ["hacked","VBN","hack"],
    ["up","RP","up"],
    ["by","IN","by"],
    ["their","PRP$","their"],
    ["fellow","JJ","fellow"],
    ["countrymen","NNS","countrym"],
    [",",",",","],
    ["and","CC","and"],
    ["devoured","VBD","devo"],
    [".",".","."]
  ]
},
{
  "tag":"S",
  "content":
  [
    ["After","IN","After"],
    ["his","PRP$","his"],
    ["return","NN","return"],
    ["to","TO","to"],
    ["Straubing","NNP","straubing"],
    ["with","IN","with"],
    ["a","DT","a"],
    ["few","JJ","few"],
    ["pieces","NNS","piec"],
    ["of","IN","of"],
    ["booty","NN","booty"],
    [",",",",","],
    ["he","PRP","he"],
    ["inherited","VBD","inherit"],
    ["the","DT","the"],
    ["fortune","NN","fortun"],
    ["of","IN","of"],
    ["his","PRP$","his"],
    ["deceased","VBN","deceas"],
    ["brother","NN","broth"],
    [",",",",","],
    ["and","CC","and"],
    ["became","VBD","becom"],
    ["a","DT","a"],
    ["councilman","NN","councilm"],
    [".",".","."]
  ]
},
{
  "tag":"S",
  "content":
  [
    ["Because","IN","Because"],
    ["of","IN","of"],
    ["religious","JJ","religy"],
    ["strife","NN","strife"],
    ["he","PRP","he"],
    ["had","VBD","hav"],
    ["to","TO","to"],
    ["leave","VB","leav"],
    ["Straubing","NNP","straubing"],
    ["and","CC","and"],
    ["went","VBD","go"],
    ["in","IN","in"],
    ["1562","CD","1562"],
    ["to","TO","to"],
    {
      "tag":"GPE",
      "content":
      [
        ["Regensburg","NNP","regensburg"]
      ]
    },
    [",",",",","],
    ["where","WRB","where"],
    ["he","PRP","he"],
    ["died","VBD","die"],
    ["in","IN","in"],
    ["1579","CD","1579"],
    [".",".","."]
  ]
},
{
  "tag":"S",
  "content":
  [
    ["==Notes==","NN","==notes=="],
    ["==","``","=="],
    ["Sources","NNS","sourc"],
    ["==","VBP","=="],
    ["*","-NONE-","*"],
    ["*","-NONE-","*"],
    ["*","-NONE-","*"]
  ]
}]