[
{
  tag:'S',
  content:
  [
    {
      tag:'PERSON',
      content:
      [
        ['John','NNP','john']
      ]
    },
    {
      tag:'PERSON',
      content:
      [
        ['Daly','NNP','daly']
      ]
    },
    ['may','MD','may'],
    ['refer','VB','ref'],
    ['to','TO','to'],
    [':',':',':'],
    ['*','-NONE-','*'],
    ['J.','NNP','j.'],
    ['Burrwood','NNP','burrwood'],
    ['Daly','NNP','daly'],
    ['(','NNP','('],
    ['1872–1939','CD','1872–1939'],
    [')','CD',')'],
    [',',',',','],
    {
      tag:'GPE',
      content:
      [
        ['U.S.','NNP','u.s.']
      ]
    },
    ['Representative','NNP','repres'],
    ['from','IN','from'],
    {
      tag:'GPE',
      content:
      [
        ['Pennsylvania','NNP','pennsylvan']
      ]
    },
    ['*','-NONE-','*'],
    {
      tag:'PERSON',
      content:
      [
        ['John','NNP','john'],
        ['Charles','NNP','charl'],
        ['Daly','NNP','daly']
      ]
    },
    ['(','NNP','('],
    ['1914–1991','CD','1914–1991'],
    [')','CD',')'],
    [',',',',','],
    ['radio','NN','radio'],
    ['&','CC','&'],
    ['TV','NNP','tv'],
    ['newsman','NN','newsm'],
    ['and','CC','and'],
    ['television','NN','televid'],
    ['host','NN','host'],
    ['on','IN','on'],
    ['What','WP','What'],
    [''s','VBZ',''s'],
    ['My','NNP','my'],
    ['Line','NNP','lin'],
    ['?','.','?']
  ]
},
{
  tag:'S',
  content:
  [
    ['1950–1967','CD','1950–1967'],
    ['*','-NONE-','*'],
    {
      tag:'PERSON',
      content:
      [
        ['John','NNP','john'],
        ['Corry','NNP','corry'],
        ['Wilson','NNP','wilson'],
        ['Daly','NNP','daly']
      ]
    },
    ['(','NNP','('],
    ['1796–1878','CD','1796–1878'],
    [')','CD',')'],
    [',',',',','],
    ['early','JJ','ear'],
    {
      tag:'GPE',
      content:
      [
        ['Canadian','JJ','canad']
      ]
    },
    ['politician','NN','polit'],
    [',',',',','],
    ['first','JJ','first'],
    ['mayor','NN','may'],
    ['of','IN','of'],
    {
      tag:'GPE',
      content:
      [
        ['Stratford','NNP','stratford']
      ]
    },
    [',',',',','],
    {
      tag:'PERSON',
      content:
      [
        ['Ontario','NNP','ontario']
      ]
    },
    ['*','-NONE-','*'],
    {
      tag:'PERSON',
      content:
      [
        ['John','NNP','john'],
        ['Daly','NNP','daly']
      ]
    },
    ['(','NNP','('],
    {
      tag:'GPE',
      content:
      [
        ['American','NNP','am']
      ]
    },
    ['media','NNS','med'],
    ['personality','NN','person'],
    [')',':',')'],
    [',',',',','],
    ['1990s','CD','1990s'],
    {
      tag:'GPE',
      content:
      [
        ['American','NNP','am']
      ]
    },
    ['journalist','NN','journ'],
    ['*','-NONE-','*'],
    {
      tag:'PERSON',
      content:
      [
        ['John','NNP','john'],
        ['Daly','NNP','daly']
      ]
    },
    ['(','NNP','('],
    ['athlete','NN','athlet'],
    [')',':',')'],
    ['(',':','('],
    ['1880–1969','CD','1880–1969'],
    [')','CD',')'],
    [',',',',','],
    {
      tag:'GPE',
      content:
      [
        ['Irish','NNP','ir']
      ]
    },
    ['athlete','NN','athlet'],
    ['who','WP','who'],
    ['won','NN','won'],
    ['an','DT','an'],
    ['Olympic','NNP','olymp'],
    ['silver','NN','silv'],
    ['medal','NN','med'],
    ['*','-NONE-','*'],
    {
      tag:'PERSON',
      content:
      [
        ['John','NNP','john'],
        ['Daly','NNP','daly']
      ]
    },
    ['(','NNP','('],
    {
      tag:'GPE',
      content:
      [
        ['Australian','NNP','aust']
      ]
    },
    ['politician','NN','polit'],
    [')',':',')'],
    ['(',':','('],
    ['1891–1942','CD','1891–1942'],
    [')','CD',')'],
    ['*','-NONE-','*'],
    {
      tag:'PERSON',
      content:
      [
        ['John','NNP','john'],
        ['Daly','NNP','daly']
      ]
    },
    ['(','NNP','('],
    ['bishop','NN','bishop'],
    [')',':',')'],
    ['(',':','('],
    ['1901–1985','CD','1901–1985'],
    [')','CD',')'],
    [',',',',','],
    ['former','JJ','form'],
    ['colonial','JJ','colon'],
    {
      tag:'GPE',
      content:
      [
        ['Anglican','NNP','angl']
      ]
    },
    ['bishop','NN','bishop'],
    ['*','-NONE-','*'],
    {
      tag:'PERSON',
      content:
      [
        ['John','NNP','john'],
        ['Daly','NNP','daly']
      ]
    },
    ['(','NNP','('],
    ['drink','NN','drink'],
    [')',':',')'],
    [',',',',','],
    ['an','DT','an'],
    ['alcoholic','JJ','alcohol'],
    ['drink','NN','drink'],
    ['*','-NONE-','*'],
    {
      tag:'PERSON',
      content:
      [
        ['John','NNP','john'],
        ['Daly','NNP','daly']
      ]
    },
    ['(','NNP','('],
    {
      tag:'PERSON',
      content:
      [
        ['Fenian','NNP','fen']
      ]
    },
    [')','NNP',')'],
    ['(','NNP','('],
    ['1845–1916','CD','1845–1916'],
    [')','CD',')'],
    [',',',',','],
    {
      tag:'GPE',
      content:
      [
        ['Irish','NNP','ir']
      ]
    },
    ['revolutionary','NN','revolv'],
    ['and','CC','and'],
    ['leading','VBG','lead'],
    ['Member','NNP','memb'],
    ['of','IN','of'],
    ['the','DT','the'],
    {
      tag:'GPE',
      content:
      [
        ['Irish','NNP','ir']
      ]
    },
    {
      tag:'ORGANIZATION',
      content:
      [
        ['Republican','NNP','republ'],
        ['Brotherhood','NNP','broth']
      ]
    },
    ['*','-NONE-','*'],
    {
      tag:'PERSON',
      content:
      [
        ['John','NNP','john'],
        ['Daly','NNP','daly']
      ]
    },
    ['(','NNP','('],
    ['footballer','NN','footbal'],
    [')',':',')'],
    ['(',':','('],
    ['1870–','CD','1870–'],
    ['?','.','?']
  ]
},
{
  tag:'S',
  content:
  [
    [')','NN',')'],
    [',',',',','],
    {
      tag:'GPE',
      content:
      [
        ['Australian','JJ','aust']
      ]
    },
    ['rules','NNS','rul'],
    ['footballer','VBP','footbal'],
    ['*','-NONE-','*'],
    {
      tag:'PERSON',
      content:
      [
        ['John','NNP','john'],
        ['Daly','NNP','daly']
      ]
    },
    ['(','NNP','('],
    ['gambler','NN','gambl'],
    [')',':',')'],
    ['(',':','('],
    ['1838–1906','CD','1838–1906'],
    [')','CD',')'],
    [',',',',','],
    {
      tag:'GPE',
      content:
      [
        ['New','NNP','new'],
        ['York','NNP','york'],
        ['City','NNP','city']
      ]
    },
    ['criminal','JJ','crimin'],
    ['*','-NONE-','*'],
    {
      tag:'PERSON',
      content:
      [
        ['John','NNP','john'],
        ['Daly','NNP','daly']
      ]
    },
    ['(','NNP','('],
    ['golfer','NN','golf'],
    [')',':',')'],
    ['(',':','('],
    ['born','NN','born'],
    ['1966','CD','1966'],
    [')','CD',')'],
    [',',',',','],
    ['golfer','NN','golf'],
    ['on','IN','on'],
    ['the','DT','the'],
    {
      tag:'ORGANIZATION',
      content:
      [
        ['PGA','NNP','pga'],
        ['Tour','NNP','tour']
      ]
    },
    ['*','-NONE-','*'],
    {
      tag:'PERSON',
      content:
      [
        ['John','NNP','john'],
        ['Daly','NNP','daly']
      ]
    },
    ['(','NNP','('],
    {
      tag:'PERSON',
      content:
      [
        ['Irish','NNP','ir'],
        ['Member','NNP','memb']
      ]
    },
    ['of','IN','of'],
    {
      tag:'ORGANIZATION',
      content:
      [
        ['Parliament','NNP','parlia']
      ]
    },
    [')','NNP',')'],
    ['(','NNP','('],
    ['1834–1888','CD','1834–1888'],
    [')','CD',')'],
    [',',',',','],
    {
      tag:'GPE',
      content:
      [
        ['Irish','NNP','ir']
      ]
    },
    ['Nationalist','NNP','nat'],
    ['Member','NNP','memb'],
    ['of','IN','of'],
    {
      tag:'ORGANIZATION',
      content:
      [
        ['Parliament','NNP','parlia']
      ]
    },
    ['for','IN','for'],
    {
      tag:'PERSON',
      content:
      [
        ['Cork','NNP','cork'],
        ['City','NNP','city']
      ]
    },
    ['1880–1884','CD','1880–1884'],
    ['*','-NONE-','*'],
    {
      tag:'PERSON',
      content:
      [
        ['John','NNP','john'],
        ['Daly','NNP','daly']
      ]
    },
    ['(','NNP','('],
    {
      tag:'GPE',
      content:
      [
        ['Irish','NNP','ir']
      ]
    },
    ['politician','NN','polit'],
    [')',':',')'],
    ['(',':','('],
    ['1867–1932','CD','1867–1932'],
    [')','CD',')'],
    [',',',',','],
    ['represented','VBN','repres'],
    {
      tag:'PERSON',
      content:
      [
        ['Cork','NNP','cork']
      ]
    },
    ['in','IN','in'],
    ['the','DT','the'],
    ['1920s','NNS','1920s'],
    ['*','-NONE-','*'],
    {
      tag:'PERSON',
      content:
      [
        ['John','NNP','john'],
        ['Daly','NNP','daly']
      ]
    },
    ['(','NNP','('],
    {
      tag:'PERSON',
      content:
      [
        ['Irish','NNP','ir']
      ]
    },
    ['TV','NNP','tv'],
    ['presenter','NN','pres'],
    [')',':',')'],
    [',',',',','],
    {
      tag:'GPE',
      content:
      [
        ['Northern','NNP','northern'],
        ['Irish','NNP','ir']
      ]
    },
    ['chat','WDT','chat'],
    ['show','NN','show'],
    ['host','NN','host'],
    ['*','-NONE-','*'],
    {
      tag:'PERSON',
      content:
      [
        ['John','NNP','john'],
        ['Daly','NNP','daly']
      ]
    },
    ['(','NNP','('],
    ['outlaw','NN','outlaw'],
    [')',':',')'],
    ['(',':','('],
    ['1839–1864','CD','1839–1864'],
    [')','CD',')'],
    [',',',',','],
    {
      tag:'GPE',
      content:
      [
        ['American','NNP','am']
      ]
    },
    ['Western','NNP','western'],
    ['outlaw','NN','outlaw'],
    ['*','-NONE-','*'],
    {
      tag:'PERSON',
      content:
      [
        ['John','NNP','john'],
        ['Daly','NNP','daly']
      ]
    },
    ['(','NNP','('],
    ['producer','NN','produc'],
    [')',':',')'],
    ['(','NN','('],
    ['1937–2008','CD','1937–2008'],
    [')','CD',')'],
    [',',',',','],
    {
      tag:'GPE',
      content:
      [
        ['British','NNP','brit']
      ]
    },
    ['movie','NN','movy'],
    ['producer','NN','produc'],
    ['and','CC','and'],
    ['director','NN','direct'],
    ['of','IN','of'],
    ['The','DT','The'],
    ['Big','NNP','big'],
    ['Bang','NNP','bang'],
    ['*','-NONE-','*'],
    {
      tag:'PERSON',
      content:
      [
        ['John','NNP','john'],
        ['Daly','NNP','daly']
      ]
    },
    ['(','NNP','('],
    ['rugby','NN','rugby'],
    [')',':',')'],
    ['(',':','('],
    {
      tag:'PERSON',
      content:
      [
        ['John','NNP','john'],
        ['Christopher','NNP','christopher'],
        ['Daly','NNP','daly']
      ]
    },
    [')','NNP',')'],
    [',',',',','],
    {
      tag:'GPE',
      content:
      [
        ['Irish','NNP','ir']
      ]
    },
    ['rugby','NN','rugby'],
    ['union','NN','un'],
    ['and','CC','and'],
    ['rugby','NN','rugby'],
    ['league','NN','leagu'],
    ['footballer','NN','footbal'],
    ['of','IN','of'],
    ['the','DT','the'],
    ['1940s','CD','1940s'],
    ['and','CC','and'],
    [''50s','CD',''50s'],
    ['*','-NONE-','*'],
    {
      tag:'PERSON',
      content:
      [
        ['John','NNP','john'],
        ['Daly','NNP','daly']
      ]
    },
    ['(','NNP','('],
    ['skeleton','NN','skeleton'],
    ['racer','NN','rac'],
    [')',':',')'],
    ['(',':','('],
    ['born','NN','born'],
    ['1985','CD','1985'],
    [')','CD',')'],
    [',',',',','],
    {
      tag:'GPE',
      content:
      [
        ['American','NNP','am']
      ]
    },
    ['skeleton','NN','skeleton'],
    ['racer','NN','rac'],
    ['*','-NONE-','*'],
    {
      tag:'PERSON',
      content:
      [
        ['John','NNP','john'],
        ['Daly','NNP','daly']
      ]
    },
    ['(','NNP','('],
    ['soccer','NN','socc'],
    ['coach','NN','coach'],
    [')',':',')'],
    [',',',',','],
    {
      tag:'GPE',
      content:
      [
        ['English','JJ','engl']
      ]
    },
    {
      tag:'GPE',
      content:
      [
        ['American','JJ','am']
      ]
    },
    ['college','NN','colleg'],
    ['soccer','NN','socc'],
    ['coach','NN','coach'],
    ['*','-NONE-','*'],
    {
      tag:'PERSON',
      content:
      [
        ['John','NNP','john'],
        ['Donald','NNP','donald'],
        ['Daly','NNP','daly']
      ]
    },
    ['(','NNP','('],
    ['1841–1923','CD','1841–1923'],
    [')','CD',')'],
    [',',',',','],
    {
      tag:'GPE',
      content:
      [
        ['American','NNP','am']
      ]
    },
    ['businessman','NN','businessm'],
    ['and','CC','and'],
    ['landowner','NN','landown'],
    [',',',',','],
    ['for','IN','for'],
    ['whom','WP','whom'],
    {
      tag:'PERSON',
      content:
      [
        ['Daly','NNP','daly'],
        ['City','NNP','city']
      ]
    },
    [',',',',','],
    {
      tag:'GPE',
      content:
      [
        ['California','NNP','californ']
      ]
    },
    [',',',',','],
    ['is','VBZ','be'],
    ['named','VBN','nam'],
    ['*','-NONE-','*'],
    {
      tag:'PERSON',
      content:
      [
        ['John','NNP','john'],
        ['Lawrence','NNP','lawr'],
        ['Daly','NNP','daly']
      ]
    },
    ['(','NNP','('],
    ['1943–2004','CD','1943–2004'],
    [')','CD',')'],
    [',',',',','],
    ['self-declared','JJ','self-declared'],
    ['``','``','``'],
    {
      tag:'ORGANIZATION',
      content:
      [
        ['Greenhouse','NNP','greenh']
      ]
    },
    ['skeptic','JJ','skept'],
    ['''','''',''''],
    ['*','-NONE-','*'],
    {
      tag:'PERSON',
      content:
      [
        ['John','NNP','john'],
        ['Daly','NNP','daly']
      ]
    },
    [',',',',','],
    ['robber','NN','rob'],
    ['in','IN','in'],
    ['the','DT','the'],
    {
      tag:'ORGANIZATION',
      content:
      [
        ['Great','NNP','gre'],
        ['Train','NNP','train'],
        ['Robbery','NNP','robbery']
      ]
    },
    ['(','NNP','('],
    ['1963','CD','1963'],
    [')','CD',')'],
    ['==See','JJ','==see'],
    ['also==','NN','also=='],
    ['*','-NONE-','*'],
    {
      tag:'PERSON',
      content:
      [
        ['Jack','NNP','jack'],
        ['Daly','NNP','daly']
      ]
    },
    ['(','NNP','('],
    ['1915–1988','CD','1915–1988'],
    [')','CD',')'],
    [',',',',','],
    {
      tag:'GPE',
      content:
      [
        ['Irish','NNP','ir']
      ]
    },
    ['politician','NN','polit'],
    ['*','-NONE-','*'],
    {
      tag:'PERSON',
      content:
      [
        ['John','NNP','john'],
        ['Daley','NNP','daley']
      ]
    },
    ['(','NNP','('],
    ['disambiguation','NN','disambigu'],
    [')',':',')'],
    ['*','-NONE-','*'],
    {
      tag:'PERSON',
      content:
      [
        ['Jon','NNP','jon'],
        ['Daly','NNP','daly']
      ]
    },
    ['(','NNP','('],
    ['born','NN','born'],
    ['1983','CD','1983'],
    [')','CD',')'],
    [',',',',','],
    {
      tag:'GPE',
      content:
      [
        ['Irish','NNP','ir']
      ]
    },
    ['footballer','NN','footbal'],
    ['*','-NONE-','*'],
    {
      tag:'PERSON',
      content:
      [
        ['John','NNP','john'],
        ['Daly','NNP','daly']
      ]
    },
    ['(','NNP','('],
    ['drink','NN','drink'],
    [')',':',')']
  ]
}]