[
{
  "tag":"S",
  "content":
  [
    ["Wednesday","NNP","wednesday"],
    [",",",",","],
    ["October","NNP","octob"],
    ["16","CD","16"],
    [",",",",","],
    ["2013","CD","2013"],
    ["3:49","CD","3:49"],
    ["PM","NNP","pm"],
    ["EDT","NNP","edt"],
    ["Facebook","NNP","facebook"],
    ["Twitter","NNP","twit"],
    ["RSS","NNP","rss"],
    ["thestar.com","NNP","thestar.com"],
    ["Stage","NNP","stag"],
    ["Search","NNP","search"],
    ["the","DT","the"],
    ["archives","NNS","arch"],
    {
      "tag":"ORGANIZATION",
      "content":
      [
        ["DIGITAL","NNP","digit"]
      ]
    },
    ["ACCESS","NNP","access"],
    ["Just","NNP","just"],
    ["99","CD","99"],
    ["cents","NNS","cent"],
    ["+",":","+"],
    ["tax","NN","tax"],
    ["for","IN","for"],
    ["your","PRP$","your"],
    ["first","JJ","first"],
    ["month","NN","mon"],
    {
      "tag":"ORGANIZATION",
      "content":
      [
        ["GET","NN","get"]
      ]
    },
    {
      "tag":"ORGANIZATION",
      "content":
      [
        ["DIGITAL","NNP","digit"]
      ]
    },
    ["ACCESS","NNP","access"],
    ["customers","NNS","custom"],
    ["get","VBP","get"],
    {
      "tag":"ORGANIZATION",
      "content":
      [
        ["FREE","NNP","fre"]
      ]
    },
    ["Saturday","NNP","saturday"],
    ["Home","NNP","hom"],
    ["Delivery","NNP","delivery"],
    ["in","IN","in"],
    ["the","DT","the"],
    {
      "tag":"ORGANIZATION",
      "content":
      [
        ["GTA","NNP","gta"]
      ]
    },
    ["GET","NNP","get"],
    {
      "tag":"ORGANIZATION",
      "content":
      [
        ["DIGITAL","NNP","digit"]
      ]
    },
    ["ACCESS","NNP","access"],
    ["on","IN","on"],
    ["all","DT","all"],
    ["your","PRP$","your"],
    ["devices","NNS","dev"],
    {
      "tag":"PERSON",
      "content":
      [
        ["Home","NNP","hom"],
        ["News","NNP","new"]
      ]
    },
    ["GTA","NNP","gta"],
    ["Queen","NNP","queen"],
    ["'s","POS","'s"],
    {
      "tag":"FACILITY",
      "content":
      [
        ["Park","NNP","park"],
        ["Canada","NNP","canad"]
      ]
    },
    ["World","NNP","world"],
    ["Investigations","NNP","investig"],
    ["Crime","NNP","crim"],
    ["Your","NNP","yo"],
    {
      "tag":"ORGANIZATION",
      "content":
      [
        ["Toronto","NNP","toronto"],
        ["Schools","NNP","schools"]
      ]
    },
    ["The","NNP","the"],
    {
      "tag":"PERSON",
      "content":
      [
        ["Fixer","NNP","fix"],
        ["Reviews","NNP","review"],
        ["Traffic","NNP","traff"],
        ["Opinion","NNP","opin"],
        ["Editorials","NNP","edit"]
      ]
    },
    ["Commentary","NNP","com"],
    ["Readers","NNP","read"],
    ["'","POS","'"],
    {
      "tag":"ORGANIZATION",
      "content":
      [
        ["Letters","NNP","let"],
        ["Public","NNP","publ"]
      ]
    },
    ["Editor","NNP","edit"],
    ["Corrections","NNP","correct"],
    ["Editorial","NNP","edit"],
    {
      "tag":"PERSON",
      "content":
      [
        ["Cartoon","NNP","cartoon"],
        ["Sports","NNP","sport"],
        ["Hockey","NNP","hockey"],
        ["Baseball","NNP","basebal"],
        ["Basketball","NNP","basketbal"],
        ["Football","NNP","footbal"],
        ["Soccer","NNP","socc"],
        ["Amateur","NNP","am"],
        ["Tennis","NNP","ten"],
        ["Golf","NNP","golf"],
        ["Figure","NNP","fig"],
        ["Skating","NNP","skat"],
        ["Curling","NNP","curl"],
        ["Lacrosse","NNP","lacross"],
        ["Business","NNP","busy"],
        ["Economy","NNP","econom"],
        ["Personal","NNP","person"],
        ["Finance","NNP","fin"],
        ["Tech","NNP","tech"],
        ["News","NNP","new"],
        ["Real","NNP","real"],
        ["Estate","NNP","est"],
        ["Entertainment","NNP","entertain"]
      ]
    },
    {
      "tag":"ORGANIZATION",
      "content":
      [
        ["Television","NNP","televid"],
        ["Movies","NNPS","movy"]
      ]
    },
    ["Stage","NNP","stag"],
    {
      "tag":"PERSON",
      "content":
      [
        ["Music","NNP","mus"],
        ["Stargazing","NNP","stargaz"],
        ["Books","NNP","book"],
        ["Visual","NNP","vis"],
        ["Arts","NNP","art"],
        ["Life","NNP","lif"],
        ["Technology","NNP","technolog"],
        ["Food","NNP","food"]
      ]
    },
    ["&","CC","&"],
    {
      "tag":"PERSON",
      "content":
      [
        ["Wine","NNP","win"],
        ["Travel","NNP","travel"]
      ]
    },
    ["Fashion","NNP","fash"],
    ["&","CC","&"],
    {
      "tag":"PERSON",
      "content":
      [
        ["Style","NNP","styl"],
        ["Homes","NNP","hom"],
        ["Health","NNP","heal"]
      ]
    },
    ["&","CC","&"],
    {
      "tag":"ORGANIZATION",
      "content":
      [
        ["Wellness","NNP","wel"],
        ["Parent","NNP","par"],
        ["Photos","NNP","photo"],
        ["Diversions","NNP","divert"],
        ["Classifieds","NNP","class"],
        ["Obituaries","NNPS","obitu"],
        ["Inside","NNP","insid"]
      ]
    },
    ["thestar.com","NNP","thestar.com"],
    ["Do","NNP","do"],
    ["husbands","VBZ","husband"],
    ["and","CC","and"],
    ["wives","NNS","wif"],
    ["respond","VBP","respond"],
    ["differently","RB","diff"],
    ["to","TO","to"],
    ["infidelity","NN","infidel"],
    ["?",".","?"]
  ]
},
{
  "tag":"S",
  "content":
  [
    ["Did","NNP","did"],
    ["you","PRP","you"],
    ["know","VB","know"],
    ["you","PRP","you"],
    ["could","MD","could"],
    ["renew","VB","renew"],
    ["your","PRP$","your"],
    ["driver","NN","driv"],
    ["'s","POS","'s"],
    ["licence","NN","lic"],
    ["online","NN","onlin"],
    ["?",".","?"]
  ]
},
{
  "tag":"S",
  "content":
  [
    {
      "tag":"GPE",
      "content":
      [
        ["Sea","NNP","sea"]
      ]
    },
    ["creature","NN","cre"],
    ["5","CD","5"],
    ["metres","NNS","met"],
    ["long","RB","long"],
    ["found","VBN","find"],
    ["off","RP","off"],
    {
      "tag":"GPE",
      "content":
      [
        ["California","NNP","californ"]
      ]
    },
    ["Entertainment","NNP","entertain"],
    ["/","NNP","/"],
    ["Stage","NNP","stag"],
    ["María","NNP","marí"],
    ["Pagés","NNP","pagé"],
    ["brings","VBZ","bring"],
    {
      "tag":"PERSON",
      "content":
      [
        ["Autorretrato","NNP","autorretrato"]
      ]
    },
    ["to","TO","to"],
    ["the","DT","the"],
    {
      "tag":"ORGANIZATION",
      "content":
      [
        ["Sony","NNP","sony"],
        ["Centre","NNP","cent"],
        ["Flamenco","NNP","flamenco"]
      ]
    },
    ["star","NN","star"],
    ["'s","POS","'s"],
    ["latest","JJS","lat"],
    ["work","NN","work"],
    ["a","DT","a"],
    ["danced","VBN","dant"],
    ["self-portrait","JJ","self-portrait"],
    ["Text","NNP","text"],
    ["size","NN","siz"],
    [":",":",":"],
    {
      "tag":"PERSON",
      "content":
      [
        ["Increase","NNP","increas"],
        ["Decrease","NNP","decreas"],
        ["Reset","NNP","reset"],
        ["Share","NNP","shar"]
      ]
    },
    ["via","IN","via"],
    {
      "tag":"PERSON",
      "content":
      [
        ["Email","NNP","email"],
        ["Print","NNP","print"]
      ]
    },
    ["Report","NNP","report"],
    ["an","DT","an"],
    ["Error","NNP","er"],
    ["Save","NNP","sav"],
    ["to","TO","to"],
    ["mystar","VB","myst"],
    {
      "tag":"ORGANIZATION",
      "content":
      [
        ["HIROYUKI","NNP","hiroyuk"]
      ]
    },
    ["KAWASHIMA","NNP","kawashim"],
    ["Members","NNP","memb"],
    ["of","IN","of"],
    ["the","DT","the"],
    {
      "tag":"FACILITY",
      "content":
      [
        ["Maria","NNP","mar"],
        ["Pages","NNP","pag"]
      ]
    },
    ["dance","NN","dant"],
    ["company","NN","company"],
    ["in","IN","in"],
    {
      "tag":"GPE",
      "content":
      [
        ["Autorretrato","NNP","autorretrato"]
      ]
    },
    [",",",",","],
    ["at","IN","at"],
    ["the","DT","the"],
    {
      "tag":"ORGANIZATION",
      "content":
      [
        ["Sony","NNP","sony"],
        ["Centre","NNP","cent"]
      ]
    },
    ["March","NNP","march"],
    ["30","CD","30"],
    [".",".","."]
  ]
},
{
  "tag":"S",
  "content":
  [
    ["By","IN","By"],
    [":",":",":"],
    {
      "tag":"PERSON",
      "content":
      [
        ["Michael","NNP","michael"],
        ["Crabb","NNP","crab"],
        ["Dance","NNP","dant"]
      ]
    },
    [",",",",","],
    {
      "tag":"PERSON",
      "content":
      [
        ["Published","NNP","publ"]
      ]
    },
    ["on","IN","on"],
    ["Wed","NNP","wed"],
    ["Mar","NNP","mar"],
    ["27","CD","27"],
    ["2013","CD","2013"],
    ["Explore","NNP","expl"],
    ["This","NNP","thi"],
    ["Story","NNP","story"],
    ["1","CD","1"],
    ["Photo","NNP","photo"],
    ["?",".","?"]
  ]
},
{
  "tag":"S",
  "content":
  [
    ["Comments","NNS","com"],
    ["Save","VBP","sav"],
    ["to","TO","to"],
    ["mystar","VB","myst"],
    {
      "tag":"PERSON",
      "content":
      [
        ["Share","NNP","shar"]
      ]
    },
    ["on","IN","on"],
    {
      "tag":"PERSON",
      "content":
      [
        ["Facebook","NNP","facebook"],
        ["Tweet","NNP","tweet"],
        ["Republish","NNP","republ"],
        ["Featured","NNP","feat"],
        ["Video","NNP","video"],
        ["Close","NNP","clos"],
        ["More","NNP","mor"],
        ["Video","NNP","video"],
        ["Toronto","NNP","toronto"]
      ]
    },
    ["Mayor","NNP","may"],
    {
      "tag":"PERSON",
      "content":
      [
        ["Rob","NNP","rob"],
        ["Ford","NNP","ford"]
      ]
    },
    ["mocked","VBD","mock"],
    ["on","IN","on"],
    ["The","DT","The"],
    {
      "tag":"ORGANIZATION",
      "content":
      [
        ["Daily","NNP","dai"],
        ["Show","NNP","show"]
      ]
    },
    ["The","NNP","the"],
    ["last","JJ","last"],
    ["time","NN","tim"],
    ["María","-NONE-","María"],
    ["Pagés","VBZ","pagé"],
    ["danced","VBN","dant"],
    ["in","IN","in"],
    {
      "tag":"GPE",
      "content":
      [
        ["Toronto","NNP","toronto"]
      ]
    },
    ["she","PRP","she"],
    ["burned","VBD","burn"],
    ["the","DT","the"],
    ["floor","NN","flo"],
    [";",":",";"],
    ["well","RB","wel"],
    [",",",",","],
    ["almost","RB","almost"],
    [".",".","."]
  ]
},
{
  "tag":"S",
  "content":
  [
    ["The","DT","The"],
    ["internationally","RB","intern"],
    ["acclaimed","VBN","acclaim"],
    ["flamenco","NN","flamenco"],
    ["artist’s","-NONE-","artist’s"],
    ["fleet-footed","JJ","fleet-footed"],
    ["star","NN","star"],
    ["turn","NN","turn"],
    ["in","IN","in"],
    ["“Firedance”","JJ","“firedance”"],
    ["was","VBD","be"],
    ["a","DT","a"],
    ["scorching","NN","scorch"],
    ["showstopper","NN","showstop"],
    ["when","WRB","when"],
    ["the","DT","the"],
    ["megahit","NN","megahit"],
    {
      "tag":"PERSON",
      "content":
      [
        ["Riverdance","NNP","riverd"]
      ]
    },
    ["made","VBD","mak"],
    ["its","PRP$","its"],
    {
      "tag":"ORGANIZATION",
      "content":
      [
        ["Toronto","NNP","toronto"]
      ]
    },
    ["debut","NN","debut"],
    ["more","JJR","mor"],
    ["than","IN","than"],
    ["15","CD","15"],
    ["years","NNS","year"],
    ["ago","IN","ago"],
    [",",",",","],
    ["at","IN","at"],
    ["what","WP","what"],
    ["was","VBD","be"],
    ["then","RB","then"],
    ["called","VBN","cal"],
    ["the","DT","the"],
    {
      "tag":"ORGANIZATION",
      "content":
      [
        ["Hummingbird","NNP","hummingbird"],
        ["Centre","NNP","cent"]
      ]
    },
    [".",".","."]
  ]
},
{
  "tag":"S",
  "content":
  [
    ["Now","RB","now"],
    [",",",",","],
    ["after","IN","after"],
    ["an","DT","an"],
    ["appallingly","RB","appal"],
    ["long","JJ","long"],
    ["absence","NN","abs"],
    [",",",",","],
    ["Pagés","NNP","pagé"],
    ["returns","NNS","return"],
    ["to","TO","to"],
    ["the","DT","the"],
    ["renamed","VBN","renam"],
    ["venue","NN","venu"],
    ["with","IN","with"],
    ["her","PRP$","her"],
    ["own","JJ","own"],
    ["celebrated","VBN","celebr"],
    ["company","NN","company"],
    ["in","IN","in"],
    ["a","DT","a"],
    ["work","NN","work"],
    ["that","WDT","that"],
    ["probes","VBZ","prob"],
    ["the","DT","the"],
    ["very","JJ","very"],
    ["roots","NNS","root"],
    ["of","IN","of"],
    ["her","PRP$","her"],
    ["lifelong","JJ","lifelong"],
    ["love","NN","lov"],
    ["affair","NN","affair"],
    ["with","IN","with"],
    ["flamenco","NN","flamenco"],
    [".",".","."]
  ]
},
{
  "tag":"S",
  "content":
  [
    ["That","DT","That"],
    ["Pagés","JJ","pagé"],
    ["first","JJ","first"],
    ["appeared","JJ","appear"],
    ["here","RB","her"],
    ["as","IN","as"],
    ["part","NN","part"],
    ["of","IN","of"],
    ["an","DT","an"],
    {
      "tag":"GPE",
      "content":
      [
        ["Irish","JJ","ir"]
      ]
    },
    ["step-dance","NN","step-dance"],
    ["spectacle","NN","spectac"],
    ["speaks","NNS","speak"],
    ["to","TO","to"],
    ["the","DT","the"],
    ["fact","NN","fact"],
    ["that","IN","that"],
    ["she","PRP","she"],
    ["is","VBZ","be"],
    ["not","RB","not"],
    ["your","PRP$","your"],
    ["garden","NN","gard"],
    ["variety","NN","vary"],
    ["castanets-and-frilly-skirt","NN","castanets-and-frilly-skirt"],
    ["flamenco","NN","flamenco"],
    ["artist","NN","art"],
    [".",".","."]
  ]
},
{
  "tag":"S",
  "content":
  [
    ["“Tradition","NN","“tradition"],
    ["is","VBZ","be"],
    ["not","RB","not"],
    ["something","NN","someth"],
    ["that","WDT","that"],
    ["should","MD","should"],
    ["block","VB","block"],
    ["us","PRP","us"],
    ["as","IN","as"],
    ["artists","NNS","art"],
    [",",",",","],
    ["”",":","”"],
    ["Pagés","JJ","pagé"],
    ["explained","VBN","explain"],
    ["from","IN","from"],
    ["her","PRP$","her"],
    ["home","NN","hom"],
    ["in","IN","in"],
    {
      "tag":"GPE",
      "content":
      [
        ["Madrid","NNP","madrid"]
      ]
    },
    ["last","JJ","last"],
    ["week","NN","week"],
    ["as","IN","as"],
    ["she","PRP","she"],
    ["prepared","VBD","prep"],
    ["for","IN","for"],
    ["a","DT","a"],
    ["four-city","NN","four-city"],
    {
      "tag":"GPE",
      "content":
      [
        ["Canadian","JJ","canad"]
      ]
    },
    ["tour","NN","tour"],
    [".",".","."]
  ]
},
{
  "tag":"S",
  "content":
  [
    ["“Flamenco","NN","“flamenco"],
    ["is","VBZ","be"],
    ["a","DT","a"],
    ["living","NN","liv"],
    ["art","NN","art"],
    ["that","WDT","that"],
    ["must","MD","must"],
    ["express","VB","express"],
    ["the","DT","the"],
    ["times","NNS","tim"],
    ["and","CC","and"],
    ["the","DT","the"],
    ["way","NN","way"],
    ["we","PRP","we"],
    ["live","VBP","liv"],
    ["now.”","-NONE-","now.”"],
    ["Pagés","-NONE-","Pagés"],
    [",",",",","],
    ["born","NN","born"],
    ["in","IN","in"],
    ["1963","CD","1963"],
    ["in","IN","in"],
    {
      "tag":"GPE",
      "content":
      [
        ["Seville","NNP","sevil"]
      ]
    },
    [",",",",","],
    ["the","DT","the"],
    ["capital","NN","capit"],
    ["of","IN","of"],
    {
      "tag":"GPE",
      "content":
      [
        ["Andalusia","NNP","andalus"]
      ]
    },
    [",",",",","],
    ["knows","VBZ","know"],
    ["her","PRP$","her"],
    ["traditional","JJ","tradit"],
    ["flamenco","NN","flamenco"],
    ["inside","NN","insid"],
    ["out","IN","out"],
    [",",",",","],
    ["but","CC","but"],
    ["it’s","NNP","it’s"],
    ["the","DT","the"],
    ["openness","NN","op"],
    ["of","IN","of"],
    ["her","PRP$","her"],
    ["approach","NN","approach"],
    ["and","CC","and"],
    ["her","PRP$","her"],
    ["innovative","JJ","innov"],
    ["way","NN","way"],
    ["of","IN","of"],
    ["framing","VBG","fram"],
    ["it","PRP","it"],
    ["within","IN","within"],
    ["a","DT","a"],
    ["larger","JJR","larg"],
    ["theatrical","JJ","the"],
    ["setting","NN","set"],
    ["that","WDT","that"],
    ["makes","VBZ","mak"],
    ["Pagés","-NONE-","Pagés"],
    ["a","DT","a"],
    ["standout","NN","standout"],
    [".",".","."]
  ]
},
{
  "tag":"S",
  "content":
  [
    {
      "tag":"GPE",
      "content":
      [
        ["Apart","NNP","apart"]
      ]
    },
    ["from","IN","from"],
    ["being","VBG","be"],
    ["part","NN","part"],
    ["of","IN","of"],
    ["the","DT","the"],
    ["creative","JJ","cre"],
    ["team","NN","team"],
    ["that","WDT","that"],
    ["transformed","VBD","transform"],
    ["Riverdance","NNP","riverd"],
    ["from","IN","from"],
    ["a","DT","a"],
    ["1994","CD","1994"],
    ["Eurovision","NNP","eurovid"],
    ["Song","NNP","song"],
    ["Contest","NNP","contest"],
    ["intermission","NN","intermit"],
    ["feature","NN","feat"],
    ["into","IN","into"],
    ["a","DT","a"],
    ["full-blown","JJ","full-blown"],
    ["stage","NN","stag"],
    ["show","NN","show"],
    [",",",",","],
    ["Pagés","NNP","pagé"],
    ["has","VBZ","hav"],
    ["choreographed","VBN","choreograph"],
    ["for","IN","for"],
    ["film","NN","film"],
    ["and","CC","and"],
    ["for","IN","for"],
    ["ballet","NN","ballet"],
    ["stars","NNS","star"],
    [",",",",","],
    ["and","CC","and"],
    ["shared","VBD","shar"],
    ["a","DT","a"],
    ["program","NN","program"],
    ["with","IN","with"],
    ["Belgium’s","JJ","belgium’s"],
    ["dance","NN","dant"],
    ["avant","NN","av"],
    ["gardist","NN","gard"],
    {
      "tag":"PERSON",
      "content":
      [
        ["Sidi","NNP","sid"],
        ["Larbi","NNP","larb"],
        ["Cherkaoui","NNP","cherkaou"]
      ]
    },
    [".",".","."]
  ]
},
{
  "tag":"S",
  "content":
  [
    ["And","CC","And"],
    ["it","PRP","it"],
    ["was","VBD","be"],
    ["a","DT","a"],
    ["chance","NN","chant"],
    ["meeting","NN","meet"],
    ["in","IN","in"],
    {
      "tag":"GPE",
      "content":
      [
        ["Madrid","NNP","madrid"]
      ]
    },
    ["with","IN","with"],
    {
      "tag":"PERSON",
      "content":
      [
        ["Mikhail","NNP","mikhail"],
        ["Baryshnikov","NNP","baryshnikov"]
      ]
    },
    [",",",",","],
    ["the","DT","the"],
    ["ballet","NN","ballet"],
    ["superstar","NN","superst"],
    ["who","WP","who"],
    ["bolted","VBN","bolt"],
    ["from","IN","from"],
    {
      "tag":"GPE",
      "content":
      [
        ["Soviet","JJ","soviet"]
      ]
    },
    ["oppression","NN","oppress"],
    ["while","IN","while"],
    ["on","IN","on"],
    ["tour","PRP$","tour"],
    ["in","IN","in"],
    {
      "tag":"GPE",
      "content":
      [
        ["Toronto","NNP","toronto"]
      ]
    },
    ["almost","RB","almost"],
    ["four","CD","four"],
    ["decades","NNS","decad"],
    ["ago","RB","ago"],
    [",",",",","],
    ["that","IN","that"],
    ["led","VBN","lead"],
    ["to","TO","to"],
    ["the","DT","the"],
    ["creation","NN","cre"],
    ["of","IN","of"],
    {
      "tag":"GPE",
      "content":
      [
        ["Autorretrato","NNP","autorretrato"]
      ]
    },
    [",",",",","],
    ["the","DT","the"],
    ["work","NN","work"],
    ["Pagés","VBZ","pagé"],
    ["will","MD","will"],
    ["present","VB","pres"],
    ["here","RB","her"],
    ["on","IN","on"],
    ["Saturday","NNP","saturday"],
    [".",".","."]
  ]
},
{
  "tag":"S",
  "content":
  [
    ["Since","IN","Since"],
    ["shelving","NN","shelv"],
    ["his","PRP$","his"],
    ["ballet","NN","ballet"],
    ["slippers","NNS","slip"],
    [",",",",","],
    {
      "tag":"PERSON",
      "content":
      [
        ["Baryshnikov","NNP","baryshnikov"]
      ]
    },
    ["has","VBZ","hav"],
    ["invested","VBN","invest"],
    ["his","PRP$","his"],
    ["efforts","NNS","effort"],
    [",",",",","],
    ["and","CC","and"],
    ["a","DT","a"],
    ["good","JJ","good"],
    ["deal","NN","deal"],
    ["of","IN","of"],
    ["his","PRP$","his"],
    ["own","JJ","own"],
    ["resources","NNS","resourc"],
    [",",",",","],
    ["into","IN","into"],
    ["the","DT","the"],
    ["operation","NN","op"],
    ["of","IN","of"],
    ["a","DT","a"],
    ["creative","JJ","cre"],
    ["laboratory","NN","lab"],
    ["in","IN","in"],
    {
      "tag":"GPE",
      "content":
      [
        ["New","NNP","new"],
        ["York","NNP","york"]
      ]
    },
    [",",",",","],
    ["the","DT","the"],
    {
      "tag":"PERSON",
      "content":
      [
        ["Baryshnikov","NNP","baryshnikov"],
        ["Arts","NNP","art"],
        ["Center","NNP","cent"]
      ]
    },
    [".",".","."]
  ]
},
{
  "tag":"S",
  "content":
  [
    ["In","IN","In"],
    ["2006","CD","2006"],
    [",",",",","],
    ["he","PRP","he"],
    ["invited","VBD","invit"],
    ["Pagés","-NONE-","Pagés"],
    ["there","EX","there"],
    ["for","IN","for"],
    ["a","DT","a"],
    ["creative","JJ","cre"],
    ["residency","NN","resid"],
    ["she","PRP","she"],
    ["now","RB","now"],
    ["describes","VBZ","describ"],
    ["as","IN","as"],
    ["“an","JJ","“an"],
    ["artistic","JJ","art"],
    ["rebirth.”","NN","rebirth.”"],
    ["Until","IN","Until"],
    ["then","RB","then"],
    [",",",",","],
    ["Pagés’","NNP","pagés’"],
    ["creative","JJ","cre"],
    ["energy","NN","energy"],
    ["was","VBD","be"],
    ["primarily","RB","prim"],
    ["focused","VBN","foc"],
    ["on","IN","on"],
    ["the","DT","the"],
    ["eponymous","JJ","eponym"],
    ["troupe","NN","troup"],
    ["she","PRP","she"],
    ["founded","VBD","found"],
    ["in","IN","in"],
    ["1990","CD","1990"],
    [".",".","."]
  ]
},
{
  "tag":"S",
  "content":
  [
    ["Arriving","VBG","ar"],
    ["alone","RB","alon"],
    ["in","IN","in"],
    {
      "tag":"GPE",
      "content":
      [
        ["New","NNP","new"],
        ["York","NNP","york"]
      ]
    },
    [",",",",","],
    ["she","PRP","she"],
    ["wasn’t","JJ","wasn’t"],
    ["quite","RB","quit"],
    ["sure","JJ","sur"],
    ["where","WRB","where"],
    ["to","TO","to"],
    ["start","VB","start"],
    [".",".","."]
  ]
},
{
  "tag":"S",
  "content":
  [
    ["“Do","NN","“do"],
    ["something","NN","someth"],
    ["that","WDT","that"],
    ["is","VBZ","be"],
    ["about","IN","about"],
    ["you","PRP","you"],
    [",",",",","],
    ["not","RB","not"],
    ["about","RB","about"],
    ["your","PRP$","your"],
    ["company","NN","company"],
    [";",":",";"],
    ["something","NN","someth"],
    ["personal","JJ","person"],
    [",",",",","],
    ["”",":","”"],
    ["advised","VBD","adv"],
    {
      "tag":"PERSON",
      "content":
      [
        ["Baryshnikov","NNP","baryshnikov"]
      ]
    },
    [".",".","."]
  ]
},
{
  "tag":"S",
  "content":
  [
    ["Pagés","NNS","pagé"],
    ["looked","VBD","look"],
    ["inward","NN","inward"],
    [",",",",","],
    ["to","TO","to"],
    ["the","DT","the"],
    ["elemental","JJ","el"],
    ["human","NN","hum"],
    ["characteristics","NNS","charact"],
    ["of","IN","of"],
    ["flamenco","NN","flamenco"],
    ["that","IN","that"],
    ["had","VBD","hav"],
    ["originally","RB","origin"],
    ["inspired","VBN","inspir"],
    ["her","PRP$","her"],
    [".",".","."]
  ]
},
{
  "tag":"S",
  "content":
  [
    ["She","PRP","She"],
    ["examined","VBD","examin"],
    ["how","WRB","how"],
    ["they","PRP","they"],
    ["related","VBD","rel"],
    ["to","TO","to"],
    ["who","WP","who"],
    ["she","PRP","she"],
    ["is","VBZ","be"],
    ["as","RB","as"],
    ["a","DT","a"],
    ["woman","NN","wom"],
    ["and","CC","and"],
    ["artist","NN","art"],
    [".",".","."]
  ]
},
{
  "tag":"S",
  "content":
  [
    ["“It","JJ","“it"],
    ["forced","VBN","forc"],
    ["me","PRP","me"],
    ["to","TO","to"],
    ["analyze","VB","analys"],
    ["myself","PRP","myself"],
    ["and","CC","and"],
    [",",",",","],
    ["in","IN","in"],
    ["the","DT","the"],
    ["process","NN","process"],
    [",",",",","],
    ["I","PRP","I"],
    ["was","VBD","be"],
    ["transformed","VBN","transform"],
    [",",",",","],
    ["”","NNP","”"],
    ["Pagés","NNP","pagé"],
    ["explains","VBZ","explain"],
    [".",".","."]
  ]
},
{
  "tag":"S",
  "content":
  [
    ["“it","JJ","“it"],
    ["was","VBD","be"],
    ["influenced","VBN","influ"],
    ["everything","NN","everyth"],
    ["I’ve","JJ","i’ve"],
    ["done","NN","don"],
    ["since","IN","since"],
    ["that","DT","that"],
    ["moment.”","JJ","moment.”"],
    ["What","WP","What"],
    ["emerged","JJ","emerg"],
    ["was","VBD","be"],
    ["a","DT","a"],
    ["danced","VBN","dant"],
    ["self-portrait","JJ","self-portrait"],
    [",",",",","],
    ["in","IN","in"],
    {
      "tag":"GPE",
      "content":
      [
        ["Spanish","NNP","span"]
      ]
    },
    ["an","DT","an"],
    ["“autorretrato.”","JJ","“autorretrato.”"],
    ["She","NNP","she"],
    ["performed","VBD","perform"],
    ["it","PRP","it"],
    ["as","IN","as"],
    ["a","DT","a"],
    ["solo","NN","solo"],
    ["in","IN","in"],
    {
      "tag":"GPE",
      "content":
      [
        ["New","NNP","new"],
        ["York","NNP","york"]
      ]
    },
    ["but","CC","but"],
    ["then","RB","then"],
    ["began","VBD","begin"],
    ["devising","VBG","dev"],
    ["ways","NNS","way"],
    ["to","TO","to"],
    ["“reformat”","NNP","“reformat”"],
    ["the","DT","the"],
    ["material","NN","mat"],
    ["into","IN","into"],
    ["the","DT","the"],
    ["80-minute","JJ","80-minute"],
    ["ensemble","JJ","ensembl"],
    ["work","NN","work"],
    ["that","WDT","that"],
    ["Pagés","-NONE-","Pagés"],
    ["unveiled","VBD","unveil"],
    ["in","IN","in"],
    {
      "tag":"GPE",
      "content":
      [
        ["Tokyo","NNP","tokyo"]
      ]
    },
    ["in","IN","in"],
    ["2008","CD","2008"],
    ["and","CC","and"],
    ["has","VBZ","hav"],
    ["since","IN","since"],
    ["been","VBN","be"],
    ["touring","VBG","tour"],
    ["worldwide","NN","worldwid"],
    [".",".","."]
  ]
},
{
  "tag":"S",
  "content":
  [
    {
      "tag":"GPE",
      "content":
      [
        ["Apart","NNP","apart"]
      ]
    },
    ["from","IN","from"],
    ["Pagés","NNP","pagé"],
    [",",",",","],
    ["the","DT","the"],
    ["expanded","VBN","expand"],
    {
      "tag":"ORGANIZATION",
      "content":
      [
        ["Autorretrato","NNP","autorretrato"]
      ]
    },
    ["includes","VBZ","includ"],
    ["an","DT","an"],
    ["ensemble","JJ","ensembl"],
    ["of","IN","of"],
    ["three","CD","three"],
    ["women","NNS","wom"],
    ["and","CC","and"],
    ["four","CD","four"],
    ["men","NNS","men"],
    [",",",",","],
    ["accompanied","VBD","accompany"],
    ["by","IN","by"],
    ["six","CD","six"],
    ["top-notch","JJ","top-notch"],
    ["flamenco","NN","flamenco"],
    ["musicians","NNS","mus"],
    [".",".","."]
  ]
},
{
  "tag":"S",
  "content":
  [
    ["The","DT","The"],
    ["theme","NN","them"],
    ["of","IN","of"],
    ["building","NN","build"],
    ["a","DT","a"],
    ["new","JJ","new"],
    ["self-awareness","NN","self-awareness"],
    ["through","IN","through"],
    ["close","JJ","clos"],
    ["self-examination","NN","self-examination"],
    ["remains","VBZ","remain"],
    ["unchanged","JJ","unchang"],
    [".",".","."]
  ]
},
{
  "tag":"S",
  "content":
  [
    ["The","DT","The"],
    ["shifting","NN","shift"],
    ["picture","NN","pict"],
    ["frames","VBZ","fram"],
    ["metaphorically","RB","metaph"],
    ["featured","VBN","feat"],
    ["in","IN","in"],
    ["the","DT","the"],
    ["work","NN","work"],
    ["are","VBP","be"],
    ["a","DT","a"],
    ["reminder","NN","remind"],
    ["that","WDT","that"],
    ["no","DT","no"],
    ["self-portrait","NN","self-portrait"],
    ["is","VBZ","be"],
    ["ever","RB","ev"],
    ["complete","JJ","complet"],
    [".",".","."]
  ]
},
{
  "tag":"S",
  "content":
  [
    ["“We","JJ","“we"],
    ["are","VBP","be"],
    ["continually","RB","contin"],
    ["changing","VBG","chang"],
    [",",",",","],
    ["”",":","”"],
    ["says","VBZ","say"],
    ["Pagés","JJ","pagé"],
    [".",".","."]
  ]
},
{
  "tag":"S",
  "content":
  [
    ["“A","NN","“a"],
    ["person","NN","person"],
    ["is","VBZ","be"],
    ["always","RB","alway"],
    ["a","DT","a"],
    ["complexity","NN","complex"],
    ["of","IN","of"],
    ["selves.”","NNP","selves.”"],
    ["It’s","NNP","it’s"],
    ["the","DT","the"],
    ["same","JJ","sam"],
    ["understanding","NN","understand"],
    ["that","WDT","that"],
    ["enlivens","VBZ","enl"],
    ["Pagés’","-NONE-","Pagés’"],
    ["relationship","NN","rel"],
    ["with","IN","with"],
    ["flamenco","NN","flamenco"],
    [".",".","."]
  ]
},
{
  "tag":"S",
  "content":
  [
    ["“It","JJ","“it"],
    ["can","MD","can"],
    ["be","VB","be"],
    ["traditional","JJ","tradit"],
    [",",",",","],
    ["modern","JJ","modern"],
    ["and","CC","and"],
    ["avant","JJ","av"],
    ["garde","NN","gard"],
    [",",",",","],
    ["”",":","”"],
    ["she","PRP","she"],
    ["insists","VBZ","insist"],
    [".",".","."]
  ]
},
{
  "tag":"S",
  "content":
  [
    ["“In","JJ","“in"],
    ["this","DT","this"],
    ["way","NN","way"],
    ["we","PRP","we"],
    ["get","VBP","get"],
    ["to","TO","to"],
    ["know","VB","know"],
    ["more","JJR","mor"],
    ["about","IN","about"],
    ["our","PRP$","our"],
    ["art","NN","art"],
    ["and","CC","and"],
    ["about","IN","about"],
    ["ourselves.”","NNP","ourselves.”"],
    ["Autorretrato","NNP","autorretrato"],
    ["is","VBZ","be"],
    ["at","IN","at"],
    ["the","DT","the"],
    ["http","NN","http"],
    [":",":",":"],
    ["//www.sonycentre.ca/","JJ","//www.sonycentre.ca/"],
    {
      "tag":"PERSON",
      "content":
      [
        ["Sony","NNP","sony"],
        ["CentreEND","NNP","centreend"]
      ]
    },
    [",",",",","],
    ["1","CD","1"],
    ["Front","NNP","front"],
    ["St.","NNP","st."],
    ["E.","NNP","e."],
    [",",",",","],
    ["on","IN","on"],
    ["March","NNP","march"],
    ["30","CD","30"],
    [";",":",";"],
    ["http","NN","http"],
    [":",":",":"],
    ["//www.ticketmaster.ca/","JJ","//www.ticketmaster.ca/"],
    ["www.ticketmaster.caEND","NN","www.ticketmaster.caend"],
    ["or","CC","or"],
    ["1-855-985-2787","CD","1-855-985-2787"],
    [".",".","."]
  ]
},
{
  "tag":"S",
  "content":
  [
    ["We","PRP","We"],
    ["value","VBP","valu"],
    ["respectful","JJ","respect"],
    ["and","CC","and"],
    ["thoughtful","JJ","thought"],
    ["discussion","NN","discuss"],
    [".",".","."]
  ]
},
{
  "tag":"S",
  "content":
  [
    ["Readers","NNS","read"],
    ["are","VBP","be"],
    ["encouraged","VBN","enco"],
    ["to","TO","to"],
    ["flag","VB","flag"],
    ["comments","NNS","com"],
    ["that","WDT","that"],
    ["fail","NN","fail"],
    ["to","TO","to"],
    ["meet","VB","meet"],
    ["the","DT","the"],
    ["standards","NNS","standard"],
    ["outlined","VBD","outlin"],
    ["in","IN","in"],
    ["our","PRP$","our"],
    {
      "tag":"ORGANIZATION",
      "content":
      [
        ["Community","NNP","commun"],
        ["Code","NNP","cod"]
      ]
    },
    ["of","IN","of"],
    {
      "tag":"GSP",
      "content":
      [
        ["Conduct","NNP","conduc"]
      ]
    },
    [".",".","."]
  ]
},
{
  "tag":"S",
  "content":
  [
    ["For","IN","For"],
    ["further","JJ","furth"],
    ["information","NN","inform"],
    [",",",",","],
    ["including","VBG","includ"],
    ["our","PRP$","our"],
    ["legal","JJ","leg"],
    ["guidelines","NNS","guidelin"],
    [",",",",","],
    ["please","VB","pleas"],
    ["see","NN","see"],
    ["our","PRP$","our"],
    ["full","JJ","ful"],
    ["website","NN","websit"],
    ["Terms","NNS","term"],
    ["and","CC","and"],
    ["Conditions","NNS","condit"],
    [".",".","."]
  ]
},
{
  "tag":"S",
  "content":
  [
    ["Commenting","VBG","com"],
    ["is","VBZ","be"],
    ["now","RB","now"],
    ["closed","VBN","clos"],
    [".",".","."]
  ]
},
{
  "tag":"S",
  "content":
  [
    {
      "tag":"PERSON",
      "content":
      [
        ["Top","NNP","top"]
      ]
    },
    {
      "tag":"ORGANIZATION",
      "content":
      [
        ["News","NNP","new"]
      ]
    },
    ["NDP","NNP","ndp"],
    ["to","TO","to"],
    ["raise","VB","rais"],
    {
      "tag":"ORGANIZATION",
      "content":
      [
        ["Senate","NNP","sen"]
      ]
    },
    ["scandal","NN","scand"],
    ["moment","NN","mom"],
    ["after","IN","after"],
    ["throne","NN","throne"],
    ["speech","NN","speech"],
    ["ends","NNS","end"],
    ["It","PRP","It"],
    ["'s","VBZ","'s"],
    ["too","RB","too"],
    ["dangerous","JJ","dang"],
    ["to","TO","to"],
    ["talk","VB","talk"],
    ["down","RP","down"],
    ["someone","NN","someon"],
    ["with","IN","with"],
    ["a","DT","a"],
    ["knife","NN","knif"],
    [",",",",","],
    ["police","NNS","pol"],
    ["inquest","VBP","inquest"],
    ["hears","NNS","hear"],
    {
      "tag":"PERSON",
      "content":
      [
        ["Updated","NNP","upd"],
        ["Senate","NNP","sen"]
      ]
    },
    ["reaches","VBZ","reach"],
    ["deal","NN","deal"],
    ["to","TO","to"],
    ["end","VB","end"],
    {
      "tag":"GPE",
      "content":
      [
        ["U.S.","NNP","u.s."]
      ]
    },
    ["government","NN","govern"],
    ["shutdown","NN","shutdown"],
    [",",",",","],
    ["avoid","VBD","avoid"],
    ["default","NN","default"],
    {
      "tag":"PERSON",
      "content":
      [
        ["Loblaw","NNP","loblaw"],
        ["Companies","NNP","company"]
      ]
    },
    ["Ltd.","NNP","ltd."],
    ["to","TO","to"],
    ["lay","VB","lay"],
    ["off","RP","off"],
    ["275","CD","275"],
    ["employees","NNS","employ"],
    ["Corrections","NNS","correct"],
    ["head","VBP","head"],
    ["admits","NNS","admit"],
    ["overreliance","NN","over"],
    ["on","IN","on"],
    ["segregation","NN","segreg"],
    {
      "tag":"PERSON",
      "content":
      [
        ["Video","NNP","video"],
        ["Rob","NNP","rob"],
        ["Ford","NNP","ford"]
      ]
    },
    ["'s","POS","'s"],
    ["favourite","JJ","favourit"],
    ["fish","NN","fish"],
    ["?",".","?"]
  ]
},
{
  "tag":"S",
  "content":
  [
    {
      "tag":"GPE",
      "content":
      [
        ["Hint","NNP","hint"]
      ]
    },
    [":",":",":"],
    ["It","PRP","It"],
    ["has","VBZ","hav"],
    ["big","JJ","big"],
    ["teeth","NN","tee"],
    ["and","CC","and"],
    ["a","DT","a"],
    ["fin","NN","fin"],
    ["Do","NNP","do"],
    ["husbands","NNS","husband"],
    ["and","CC","and"],
    ["wives","NNS","wif"],
    ["respond","VBP","respond"],
    ["differently","RB","diff"],
    ["to","TO","to"],
    ["infidelity","NN","infidel"],
    ["?",".","?"]
  ]
},
{
  "tag":"S",
  "content":
  [
    {
      "tag":"ORGANIZATION",
      "content":
      [
        ["NEW","NNP","new"]
      ]
    },
    {
      "tag":"PERSON",
      "content":
      [
        ["Maple","NNP","mapl"]
      ]
    },
    ["Leafs’","NNP","leafs’"],
    {
      "tag":"PERSON",
      "content":
      [
        ["James","NNP","jam"],
        ["Reimer","NNP","reim"]
      ]
    },
    ["reignites","VBZ","reignit"],
    ["goalie","NN","goa"],
    ["debate","NN","deb"],
    ["with","IN","with"],
    ["strong","JJ","strong"],
    ["showing","NN","show"],
    ["The","DT","The"],
    {
      "tag":"GPE",
      "content":
      [
        ["Grid","NNP","grid"]
      ]
    },
    [":",":",":"],
    ["Does","VBZ","doe"],
    ["your","PRP$","your"],
    ["shopping","NN","shop"],
    ["list","NN","list"],
    ["include","NN","includ"],
    ["coffee","NN","coff"],
    [",",",",","],
    ["handbags","NNS","handb"],
    [",",",",","],
    ["and","CC","and"],
    ["sex","NN","sex"],
    ["oils","NNS","oil"],
    ["?",".","?"]
  ]
},
{
  "tag":"S",
  "content":
  [
    ["Go","NNP","go"],
    ["here","RB","her"],
    [".",".","."]
  ]
},
{
  "tag":"S",
  "content":
  [
    ["The","DT","The"],
    ["Kit","NNP","kit"],
    [":",":",":"],
    ["Red","NNP","red"],
    ["carpet","NN","carpet"],
    ["style","NN","styl"],
    ["goes","VBZ","go"],
    ["from","IN","from"],
    ["formal","JJ","form"],
    ["to","TO","to"],
    ["experimental","JJ","expery"],
    ["Boot","NN","boot"],
    ["camp","NN","camp"],
    ["brings","VBZ","bring"],
    ["relief","NN","reliev"],
    {
      "tag":"PERSON",
      "content":
      [
        ["Luxury","NNP","luxury"],
        ["Travel","NNP","travel"],
        ["Asia","NNP","as"]
      ]
    },
    [":",":",":"],
    {
      "tag":"PERSON",
      "content":
      [
        ["Bali","NNP","bal"],
        ["Saving","NNP","sav"]
      ]
    },
    ["for","IN","for"],
    ["school","NN","school"],
    ["Alice","NNP","al"],
    ["Munro","NNP","munro"],
    ["Why","NNP","why"],
    ["we","PRP","we"],
    ["love","VBP","lov"],
    ["Canada’s","-NONE-","Canada’s"],
    ["Nobel","NNP","nobel"],
    ["laureate","NN","laur"],
    ["Because","IN","Because"],
    ["she","PRP","she"],
    ["is","VBZ","be"],
    ["ours","NNS","our"],
    ["—",":","—"],
    ["our","PRP$","our"],
    ["geography","NN","geograph"],
    [",",",",","],
    ["our","PRP$","our"],
    ["cultural","JJ","cult"],
    ["touchstones","NNS","touchston"],
    [",",",",","],
    ["our","PRP$","our"],
    ["hearts","NNS","heart"],
    [".",".","."]
  ]
},
{
  "tag":"S",
  "content":
  [
    ["TV","NN","tv"],
    ["Listings","NNS","list"],
    ["What","WP","What"],
    ["'s","VBZ","'s"],
    ["on","IN","on"],
    ["television","NN","televid"],
    ["tonight","NN","tonight"],
    ["Most","JJS","most"],
    {
      "tag":"PERSON",
      "content":
      [
        ["Popular","JJ","popul"],
        ["Road","NNP","road"]
      ]
    },
    ["re","NN","re"]
  ]
}]