[
{
  "tag":"S",
  "content":
  [
    {
      "tag":"ORGANIZATION",
      "content":
      [
        ["Navigation","NN","navig"]
      ]
    },
    {
      "tag":"PERSON",
      "content":
      [
        ["Ciao","NNP","ciao"],
        ["Lunigiana","NNP","lunigian"],
        ["Slow","NNP","slow"]
      ]
    },
    ["travel","NN","travel"],
    ["in","IN","in"],
    {
      "tag":"GPE",
      "content":
      [
        ["Lunigiana","NNP","lunigian"]
      ]
    },
    [",",",",","],
    {
      "tag":"GPE",
      "content":
      [
        ["Northern","NNP","northern"]
      ]
    },
    ["tuscany","NN","tuscany"],
    {
      "tag":"PERSON",
      "content":
      [
        ["Home","NNP","hom"],
        ["Ciao","NNP","ciao"],
        ["Lunigiana","NNP","lunigian"],
        ["Menuhome","NNP","menuhom"]
      ]
    },
    ["local","JJ","loc"],
    ["blogs","NNS","blog"],
    ["calendar","NN","calend"],
    ["event","NN","ev"],
    ["posters","NNS","post"],
    ["key","JJ","key"],
    ["facts","NNS","fact"],
    ["location","NN","loc"],
    ["geography","NN","geograph"],
    ["&","CC","&"],
    ["climate","NN","clim"],
    ["brief","NN","brief"],
    ["history","NN","hist"],
    ["brochures","NNS","broch"],
    ["from","IN","from"],
    {
      "tag":"PERSON",
      "content":
      [
        ["Ciao","NNP","ciao"],
        ["Lunigaina","NNP","lunigain"]
      ]
    },
    ["site","NN","sit"],
    ["from","IN","from"],
    {
      "tag":"PERSON",
      "content":
      [
        ["Massa","NNP","mass"],
        ["Carrara","NNP","carrar"],
        ["Tourist","NNP","tour"]
      ]
    },
    ["Office","NNP","off"],
    ["guides","VBZ","guid"],
    ["castles","NNS","castl"],
    ["coeliac’s","-NONE-","coeliac’s"],
    ["guide","VBP","guid"],
    ["cycling","VBG","cyc"],
    ["markets","NNS","market"],
    ["horse","VBP","hors"],
    ["riding","VBG","rid"],
    ["museums","NNS","muse"],
    {
      "tag":"PERSON",
      "content":
      [
        ["Pontremoli","NNP","pontremol"]
      ]
    },
    ["for","IN","for"],
    ["slow","JJ","slow"],
    ["foodies","NNS","foody"],
    ["summer","NN","sum"],
    ["activities","NNS","act"],
    ["for","IN","for"],
    ["children","NNS","child"],
    {
      "tag":"PERSON",
      "content":
      [
        ["Pontremoli","NNP","pontremol"]
      ]
    },
    ["for","IN","for"],
    ["children","NNS","child"],
    ["wakeboarding","VBG","wakeboard"],
    ["wine","NN","win"],
    ["winter","NN","wint"],
    ["sports","NNS","sport"],
    ["useful","JJ","us"],
    ["links","NNS","link"],
    ["accommodation","NN","accommod"],
    ["restaurants","NNS","resta"],
    ["recipes","NNS","recip"],
    ["expat","VBP","exp"],
    ["info","NN","info"],
    ["contact","NN","contact"],
    ["flipboard","NN","flipboard"],
    ["facebook","NN","facebook"],
    ["page","NN","pag"],
    ["forum","NN","for"],
    ["friends","NNS","friend"],
    {
      "tag":"PERSON",
      "content":
      [
        ["Return","NNP","return"]
      ]
    },
    ["to","TO","to"],
    {
      "tag":"ORGANIZATION",
      "content":
      [
        ["Content","NNP","cont"]
      ]
    },
    ["World’s","NNP","world’s"],
    ["biggest","JJS","big"],
    ["expedition","NN","expedit"],
    ["on","IN","on"],
    ["global","JJ","glob"],
    ["change","NN","chang"],
    ["named","VBD","nam"],
    ["after","IN","after"],
    ["explorer","NN","expl"],
    ["from","IN","from"],
    {
      "tag":"PERSON",
      "content":
      [
        ["Lunigiana","NNP","lunigian"],
        ["The","NNP","the"]
      ]
    },
    ["biggest","JJS","big"],
    ["of","IN","of"],
    ["its","PRP$","its"],
    ["kind","NN","kind"],
    [",",",",","],
    ["a","DT","a"],
    {
      "tag":"GPE",
      "content":
      [
        ["Spanish","NNP","span"]
      ]
    },
    ["expedition","NN","expedit"],
    ["to","TO","to"],
    ["explore","VB","expl"],
    ["the","DT","the"],
    ["effects","NNS","effect"],
    ["of","IN","of"],
    ["global","JJ","glob"],
    ["change","NN","chang"],
    ["on","IN","on"],
    ["the","DT","the"],
    ["biodiversity","NN","biodivers"],
    ["of","IN","of"],
    ["the","DT","the"],
    ["world’s","JJ","world’s"],
    ["oceans","NNS","oc"],
    ["has","VBZ","hav"],
    ["been","VBN","be"],
    ["named","VBN","nam"],
    ["after","IN","after"],
    ["an","DT","an"],
    {
      "tag":"GPE",
      "content":
      [
        ["Italian","JJ","it"]
      ]
    },
    ["nobleman","NN","noblem"],
    ["born","NN","born"],
    ["in","IN","in"],
    ["1754","CD","1754"],
    ["in","IN","in"],
    {
      "tag":"GPE",
      "content":
      [
        ["Mulazzo","NNP","mulazzo"]
      ]
    },
    [".",".","."]
  ]
},
{
  "tag":"S",
  "content":
  [
    {
      "tag":"PERSON",
      "content":
      [
        ["Alessandro","NNP","alessandro"],
        ["Malaspina","NNP","malaspin"]
      ]
    },
    [",",",",","],
    ["who","WP","who"],
    ["spent","NN","spent"],
    ["most","JJS","most"],
    ["of","IN","of"],
    ["his","PRP$","his"],
    ["life","NN","lif"],
    ["as","IN","as"],
    ["a","DT","a"],
    ["frigate","NN","frig"],
    ["captain","NN","captain"],
    ["the","DT","the"],
    {
      "tag":"GPE",
      "content":
      [
        ["Spanish","NNP","span"]
      ]
    },
    ["navy","NN","navy"],
    [",",",",","],
    ["led","VBN","lead"],
    ["the","DT","the"],
    ["first","JJ","first"],
    {
      "tag":"GPE",
      "content":
      [
        ["Spanish","NNP","span"]
      ]
    },
    ["circumnavigation","NN","circumnavig"],
    ["and","CC","and"],
    ["was","VBD","be"],
    ["a","DT","a"],
    ["forerunner","NN","forerun"],
    ["in","IN","in"],
    ["the","DT","the"],
    ["field","NN","field"],
    ["of","IN","of"],
    ["oceanographic","JJ","oceanograph"],
    ["research","NN","research"],
    [".",".","."]
  ]
},
{
  "tag":"S",
  "content":
  [
    ["For","IN","For"],
    ["five","CD","five"],
    ["years","NNS","year"],
    ["from","IN","from"],
    ["July","NNP","july"],
    ["1789","CD","1789"],
    [",",",",","],
    ["he","PRP","he"],
    ["co-led","JJ","co-led"],
    ["the","DT","the"],
    ["circumnavigation","NN","circumnavig"],
    ["that","IN","that"],
    ["enabled","VBN","en"],
    ["researchers","NNS","research"],
    ["to","TO","to"],
    ["collect","VB","collect"],
    ["data","NNS","dat"],
    [",",",",","],
    ["chart","NN","chart"],
    ["territories","NNS","territ"],
    [",",",",","],
    ["and","CC","and"],
    ["study","NN","study"],
    ["fauna","NN","faun"],
    ["and","CC","and"],
    ["the","DT","the"],
    ["sea","NN","sea"],
    [".",".","."]
  ]
},
{
  "tag":"S",
  "content":
  [
    ["On","IN","On"],
    ["the","DT","the"],
    ["voyage","NN","voy"],
    [",",",",","],
    ["much","RB","much"],
    ["of","IN","of"],
    ["the","DT","the"],
    ["west","NN","west"],
    ["coast","NN","coast"],
    ["of","IN","of"],
    {
      "tag":"GPE",
      "content":
      [
        ["North","NNP","nor"]
      ]
    },
    ["and","CC","and"],
    {
      "tag":"GPE",
      "content":
      [
        ["South","NNP","sou"],
        ["America","NNP","americ"]
      ]
    },
    ["was","VBD","be"],
    ["mapped","VBN","map"],
    [".",".","."]
  ]
},
{
  "tag":"S",
  "content":
  [
    ["The","DT","The"],
    ["scientists","NNS","sci"],
    ["were","VBD","be"],
    ["the","DT","the"],
    ["first","JJ","first"],
    ["to","TO","to"],
    ["study","NN","study"],
    ["the","DT","the"],
    ["flora","NN","flor"],
    ["and","CC","and"],
    ["fauna","NN","faun"],
    ["of","IN","of"],
    ["the","DT","the"],
    {
      "tag":"ORGANIZATION",
      "content":
      [
        ["Galapagos","NNP","galapago"]
      ]
    },
    ["and","CC","and"],
    ["the","DT","the"],
    ["first","JJ","first"],
    ["to","TO","to"],
    ["measure","NN","meas"],
    ["the","DT","the"],
    ["levels","NNS","level"],
    ["of","IN","of"],
    ["the","DT","the"],
    {
      "tag":"ORGANIZATION",
      "content":
      [
        ["Atlantic","NNP","atl"]
      ]
    },
    ["and","CC","and"],
    {
      "tag":"GPE",
      "content":
      [
        ["Pacific","NNP","pac"]
      ]
    },
    ["oceans","NNS","oc"],
    [".",".","."]
  ]
},
{
  "tag":"S",
  "content":
  [
    ["On","IN","On"],
    ["his","PRP$","his"],
    ["return","NN","return"],
    ["to","TO","to"],
    {
      "tag":"GPE",
      "content":
      [
        ["Spain","NNP","spain"]
      ]
    },
    [",",",",","],
    {
      "tag":"GPE",
      "content":
      [
        ["Malaspina","NNP","malaspin"]
      ]
    },
    ["fell","VBD","fel"],
    ["foul","JJ","foul"],
    ["of","IN","of"],
    ["the","DT","the"],
    ["intrigues","NNS","intrigu"],
    ["of","IN","of"],
    ["the","DT","the"],
    {
      "tag":"ORGANIZATION",
      "content":
      [
        ["Spanish","NNP","span"],
        ["Court","NNP","court"]
      ]
    },
    [",",",",","],
    ["was","VBD","be"],
    ["accused","VBN","accus"],
    ["of","IN","of"],
    ["heresy","JJ","heresy"],
    ["and","CC","and"],
    ["denounced","VBD","denount"],
    ["to","TO","to"],
    ["the","DT","the"],
    {
      "tag":"ORGANIZATION",
      "content":
      [
        ["Spanish","NNP","span"],
        ["Inquisition","NNP","inquisit"]
      ]
    },
    [".",".","."]
  ]
},
{
  "tag":"S",
  "content":
  [
    ["After","IN","After"],
    ["six","CD","six"],
    ["years","NNS","year"],
    ["of","IN","of"],
    ["imprisonment","NN","imprison"],
    ["he","PRP","he"],
    ["returned","VBD","return"],
    ["to","TO","to"],
    {
      "tag":"GPE",
      "content":
      [
        ["Italy","NNP","ita"]
      ]
    },
    [",",",",","],
    ["where","WRB","where"],
    ["he","PRP","he"],
    ["settled","VBD","settl"],
    ["in","IN","in"],
    {
      "tag":"GPE",
      "content":
      [
        ["Pontremoli","NNP","pontremol"]
      ]
    },
    [".",".","."]
  ]
},
{
  "tag":"S",
  "content":
  [
    ["In","IN","In"],
    {
      "tag":"GPE",
      "content":
      [
        ["Pontremoli","NNP","pontremol"]
      ]
    },
    [",",",",","],
    {
      "tag":"GPE",
      "content":
      [
        ["Malaspina","NNP","malaspin"]
      ]
    },
    ["became","VBD","becom"],
    ["involved","VBN","involv"],
    ["with","IN","with"],
    ["local","JJ","loc"],
    ["politics","NNS","polit"],
    [".",".","."]
  ]
},
{
  "tag":"S",
  "content":
  [
    ["In","IN","In"],
    ["1803","CD","1803"],
    ["he","PRP","he"],
    ["helped","VBD","help"],
    ["stop","VB","stop"],
    ["the","DT","the"],
    ["spread","NN","spread"],
    ["of","IN","of"],
    ["yellow","JJ","yellow"],
    ["fever","NN","fev"],
    ["following","VBG","follow"],
    ["an","DT","an"],
    ["epidemic","JJ","epidem"],
    ["in","IN","in"],
    {
      "tag":"GPE",
      "content":
      [
        ["Livorno","NNP","livorno"]
      ]
    },
    ["by","IN","by"],
    ["organising","NN","org"],
    ["a","DT","a"],
    ["quarantine","NN","quarantin"],
    ["between","IN","between"],
    ["the","DT","the"],
    {
      "tag":"GPE",
      "content":
      [
        ["Italian","JJ","it"]
      ]
    },
    {
      "tag":"ORGANIZATION",
      "content":
      [
        ["Republic","NNP","republ"]
      ]
    },
    ["and","CC","and"],
    ["the","DT","the"],
    {
      "tag":"ORGANIZATION",
      "content":
      [
        ["Kingdom","NNP","kingdom"]
      ]
    },
    ["of","IN","of"],
    {
      "tag":"GPE",
      "content":
      [
        ["Etruria","NNP","etrur"]
      ]
    },
    [".",".","."]
  ]
},
{
  "tag":"S",
  "content":
  [
    ["In","IN","In"],
    ["1805","CD","1805"],
    ["he","PRP","he"],
    ["bacame","VBD","bacam"],
    ["an","DT","an"],
    ["official","NN","off"],
    ["advisor","NN","adv"],
    ["to","TO","to"],
    ["the","DT","the"],
    {
      "tag":"ORGANIZATION",
      "content":
      [
        ["Kingdom","NNP","kingdom"]
      ]
    },
    ["of","IN","of"],
    {
      "tag":"GPE",
      "content":
      [
        ["Italy","NNP","ita"]
      ]
    },
    ["and","CC","and"],
    ["in","IN","in"],
    ["1806","CD","1806"],
    ["was","VBD","be"],
    ["admitted","VBN","admit"],
    ["to","TO","to"],
    ["the","DT","the"],
    {
      "tag":"ORGANIZATION",
      "content":
      [
        ["Columban","NNP","columb"],
        ["Society","NNP","socy"]
      ]
    },
    ["in","IN","in"],
    {
      "tag":"GPE",
      "content":
      [
        ["Florence","NNP","flor"]
      ]
    },
    [".",".","."]
  ]
},
{
  "tag":"S",
  "content":
  [
    ["He","PRP","He"],
    ["died","VBD","die"],
    ["200","CD","200"],
    ["years","NNS","year"],
    ["ago","IN","ago"],
    ["of","IN","of"],
    ["an","DT","an"],
    ["incurable","JJ","int"],
    ["illness","NN","il"],
    ["aged","VBD","ag"],
    ["55","CD","55"],
    [",",",",","],
    ["his","PRP$","his"],
    ["role","NN","rol"],
    ["in","IN","in"],
    ["the","DT","the"],
    ["important","JJ","import"],
    {
      "tag":"GPE",
      "content":
      [
        ["Spanish","NNP","span"]
      ]
    },
    ["circumnavigation","NN","circumnavig"],
    ["largely","RB","larg"],
    ["forgotten","VBN","forget"],
    ["until","IN","until"],
    ["the","DT","the"],
    ["late","JJ","lat"],
    ["20th","CD","20th"],
    ["century","NN","century"],
    [".",".","."]
  ]
},
{
  "tag":"S",
  "content":
  [
    ["The","DT","The"],
    ["current","JJ","cur"],
    ["expedition","NN","expedit"],
    ["aims","NNS","aim"],
    ["to","TO","to"],
    ["restore","VB","rest"],
    {
      "tag":"PERSON",
      "content":
      [
        ["Alessandro","NNP","alessandro"]
      ]
    },
    ["Malaspina’s","NNP","malaspina’s"],
    ["pioneering","NN","pion"],
    ["expedition","NN","expedit"],
    ["to","TO","to"],
    ["the","DT","the"],
    ["prominence","NN","promin"],
    ["it","PRP","it"],
    ["deserves","VBZ","deserv"],
    [".",".","."]
  ]
},
{
  "tag":"S",
  "content":
  [
    ["World’s","NNS","world’s"],
    ["biggest","VBP","biggest"],
    ["expedition","NN","expedit"],
    ["on","IN","on"],
    ["global","JJ","glob"],
    ["change","NN","chang"],
    ["named","VBD","nam"],
    ["after","IN","after"],
    ["explorer","NN","expl"],
    ["from","IN","from"],
    {
      "tag":"GPE",
      "content":
      [
        ["Lunigiana","NNP","lunigian"]
      ]
    },
    ["first","JJ","first"],
    ["appeared","VBD","appear"],
    ["on","IN","on"],
    {
      "tag":"PERSON",
      "content":
      [
        ["Ciao","NNP","ciao"],
        ["Lunigiana","NNP","lunigian"]
      ]
    },
    ["on","IN","on"],
    ["24","CD","24"],
    ["December","NNP","decemb"],
    ["2010","CD","2010"],
    [".",".","."]
  ]
},
{
  "tag":"S",
  "content":
  [
    ["All","DT","All"],
    ["rights","NNS","right"],
    ["reserved","VBN","reserv"],
    [".",".","."]
  ]
},
{
  "tag":"S",
  "content":
  [
    {
      "tag":"GPE",
      "content":
      [
        ["Mulazzo","NNP","mulazzo"]
      ]
    },
    [",",",",","],
    {
      "tag":"PERSON",
      "content":
      [
        ["Pontremoli","NNP","pontremol"],
        ["Major","NNP","maj"]
      ]
    },
    ["new","JJ","new"],
    ["initiative","JJ","in"],
    ["to","TO","to"],
    ["promote","VB","promot"],
    {
      "tag":"PERSON",
      "content":
      [
        ["Lunigiana","NNP","lunigian"]
      ]
    },
    ["produce","NN","produc"],
    ["Excessive","NNP","excess"],
    ["rain","NN","rain"],
    [",",",",","],
    ["landslides","VBZ","landslid"],
    ["and","CC","and"],
    ["road","NN","road"],
    ["closures","NNS","clos"],
    ["in","IN","in"],
    {
      "tag":"GPE",
      "content":
      [
        ["Lunigiana","NNP","lunigian"]
      ]
    },
    ["Comments","NNP","com"],
    ["are","VBP","be"],
    ["closed","VBN","clos"],
    [".",".","."]
  ]
},
{
  "tag":"S",
  "content":
  [
    {
      "tag":"GPE",
      "content":
      [
        ["Traddure","NN","trad"]
      ]
    },
    ["stay","NN","stay"],
    ["in","IN","in"],
    ["touch","NN","touch"],
    {
      "tag":"PERSON",
      "content":
      [
        ["Meteo","NNP","meteo"],
        ["Apuane","NNP","apu"]
      ]
    },
    ["events","NNS","ev"],
    ["in","IN","in"],
    ["Lunigianaplaces","NNS","lunigianaplac"],
    ["we’re","JJ","we’r"],
    ["talking","NN","talk"],
    {
      "tag":"ORGANIZATION",
      "content":
      [
        ["aboutAgnino","NNP","aboutagnino"],
        ["Ameglia","NNP","amegl"],
        ["Apella","NNP","apell"],
        ["Aulla","NNP","aull"],
        ["Bagnone","NNP","bagnon"],
        ["Barbarasco","NNP","barbarasco"],
        ["Casola","NNP","casol"]
      ]
    },
    ["Castiglione","NNP","castigl"],
    ["del","NN","del"],
    {
      "tag":"PERSON",
      "content":
      [
        ["Terziere","NNP","terzy"],
        ["Cerreto","NNP","cerreto"],
        ["Laghi","NNP","lagh"],
        ["Ceserano","NNP","ceserano"],
        ["Coast","NNP","coast"],
        ["Colonnata","NNP","colonnat"],
        ["Comano","NNP","comano"],
        ["Corlaga","NNP","corlag"],
        ["Equi","NNP","equ"],
        ["Terme","NNP","term"],
        ["Featured","NNP","feat"],
        ["Filattiera","NNP","filattier"],
        ["Filetto","NNP","filetto"],
        ["Fivizzano","NNP","fivizzano"]
      ]
    },
    ["fosdinovo","NN","fosdinovo"],
    {
      "tag":"PERSON",
      "content":
      [
        ["Gragnola","NNP","gragnol"],
        ["Grondola","NNP","grondol"],
        ["Licciana","NNP","liccian"],
        ["Nardi","NNP","nard"],
        ["Lombardy","NNP","lombardy"],
        ["Lunezia","NNP","lunez"],
        ["Lusuolo","NNP","lusuolo"],
        ["Malgrate","NNP","malgr"],
        ["Merizzo","NNP","merizzo"],
        ["Mocrone","NNP","mocron"],
        ["Monti","NNP","mont"],
        ["Monzone","NNP","monzon"],
        ["Mountains","NNP","mountain"],
        ["Mulazzo","NNP","mulazzo"],
        ["Pallerone","NNP","palleron"],
        ["Pontremoli","NNP","pontremol"],
        ["Sarzana","NNP","sarzan"],
        ["Sucissa","NNP","suciss"],
        ["Tavernelle","NNP","tavernel"],
        ["Terrarossa","NNP","terraross"],
        ["Tresana","NNP","tresan"],
        ["Val","NNP","val"]
      ]
    },
    ["di","NN","di"],
    {
      "tag":"PERSON",
      "content":
      [
        ["Magra","NNP","magr"],
        ["Versilia","NNP","versil"],
        ["Villafranca","NNP","villafranc"],
        ["Virgoletta","NNP","virgolett"],
        ["Zeri","NNP","zer"]
      ]
    },
    ["things","NNS","thing"],
    ["we’re","JJ","we’r"],
    ["talking","NN","talk"],
    {
      "tag":"ORGANIZATION",
      "content":
      [
        ["aboutActivities","NNS","aboutact"],
        ["Apps","NNP","ap"],
        ["Brochures","NNP","broch"],
        ["Calendar","NNP","calend"],
        ["Castles","NNP","castl"],
        ["Coast","NNP","coast"],
        ["Culture","NNP","cult"]
      ]
    },
    ["Cycling","NNP","cyc"],
    ["Earthquakes","NNP","earthquak"],
    ["Edible","NNP","ed"],
    ["Lunigiana","NNP","lunigian"],
    ["Environment","NNP","environ"],
    ["Events","NNP","ev"],
    ["Facebook","NNP","facebook"],
    ["Hiking","NNP","hik"],
    ["Horse","NNP","hors"],
    ["riding","NN","rid"],
    {
      "tag":"ORGANIZATION",
      "content":
      [
        ["Legal","NNP","leg"],
        ["Markets","NNPS","market"]
      ]
    },
    ["Meet","NNP","meet"],
    ["the","DT","the"],
    ["locals","NNS","loc"],
    {
      "tag":"ORGANIZATION",
      "content":
      [
        ["News","NNP","new"]
      ]
    },
    ["Other","NNP","oth"],
    ["stuff","NN","stuff"],
    {
      "tag":"PERSON",
      "content":
      [
        ["People","NNP","peopl"],
        ["Recipes","NNP","recip"],
        ["Resource","NNP","resourc"]
      ]
    },
    ["guides","VBZ","guid"],
    {
      "tag":"ORGANIZATION",
      "content":
      [
        ["Restaurants","NNS","resta"],
        ["Services","NNPS","serv"],
        ["Shops","NNP","shop"],
        ["Sightings","NNP","sight"],
        ["Tourism","NNP","tour"],
        ["Tours","NNP","tour"]
      ]
    },
    ["Videos","NNP","video"],
    ["War","NNP","war"],
    ["Winter","NNP","wint"],
    ["sports","NNS","sport"],
    ["archives","VBZ","arch"],
    {
      "tag":"PERSON",
      "content":
      [
        ["Select","NNP","select"],
        ["Month","NNP","mon"]
      ]
    },
    ["October","NNP","octob"],
    ["2013","CD","2013"],
    ["(","CD","("],
    ["4","CD","4"],
    [")","CD",")"],
    ["September","NNP","septemb"],
    ["2013","CD","2013"],
    ["(","CD","("],
    ["8","CD","8"],
    [")","CD",")"],
    ["August","NNP","august"],
    ["2013","CD","2013"],
    ["(","CD","("],
    ["8","CD","8"],
    [")","CD",")"],
    ["July","NNP","july"],
    ["2013","CD","2013"],
    ["(","CD","("],
    ["11","CD","11"],
    [")","CD",")"],
    ["June","NNP","jun"],
    ["2013","CD","2013"],
    ["(","CD","("],
    ["8","CD","8"],
    [")","CD",")"],
    ["May","NNP","may"],
    ["2013","CD","2013"],
    ["(","CD","("],
    ["8","CD","8"],
    [")","CD",")"],
    ["April","NNP","april"],
    ["2013","CD","2013"],
    ["(","CD","("],
    ["9","CD","9"],
    [")","CD",")"],
    ["March","NNP","march"],
    ["2013","CD","2013"],
    ["(","CD","("],
    ["10","CD","10"],
    [")","CD",")"],
    ["February","NNP","febru"],
    ["2013","CD","2013"],
    ["(","CD","("],
    ["7","CD","7"],
    [")","CD",")"],
    ["January","NNP","janu"],
    ["2013","CD","2013"],
    ["(","CD","("],
    ["7","CD","7"],
    [")","CD",")"],
    ["December","NNP","decemb"],
    ["2012","CD","2012"],
    ["(","CD","("],
    ["8","CD","8"],
    [")","CD",")"],
    ["November","NNP","novemb"],
    ["2012","CD","2012"],
    ["(","CD","("],
    ["10","CD","10"],
    [")","CD",")"],
    ["October","NNP","octob"],
    ["2012","CD","2012"],
    ["(","CD","("],
    ["9","CD","9"],
    [")","CD",")"],
    ["September","NNP","septemb"],
    ["2012","CD","2012"],
    ["(","CD","("],
    ["9","CD","9"],
    [")","CD",")"],
    ["August","NNP","august"],
    ["2012","CD","2012"],
    ["(","CD","("],
    ["7","CD","7"],
    [")","CD",")"],
    ["July","NNP","july"],
    ["2012","CD","2012"],
    ["(","CD","("],
    ["8","CD","8"],
    [")","CD",")"],
    ["June","NNP","jun"],
    ["2012","CD","2012"],
    ["(","CD","("],
    ["9","CD","9"],
    [")","CD",")"],
    ["May","NNP","may"],
    ["2012","CD","2012"],
    ["(","CD","("],
    ["9","CD","9"],
    [")","CD",")"],
    ["April","NNP","april"],
    ["2012","CD","2012"],
    ["(","CD","("],
    ["11","CD","11"],
    [")","CD",")"],
    ["March","NNP","march"],
    ["2012","CD","2012"],
    ["(","CD","("],
    ["12","CD","12"],
    [")","CD",")"],
    ["February","NNP","febru"],
    ["2012","CD","2012"],
    ["(","CD","("],
    ["10","CD","10"],
    [")","CD",")"],
    ["January","NNP","janu"],
    ["2012","CD","2012"],
    ["(","CD","("],
    ["10","CD","10"],
    [")","CD",")"],
    ["December","NNP","decemb"],
    ["2011","CD","2011"],
    ["(","CD","("],
    ["8","CD","8"],
    [")","CD",")"],
    ["November","NNP","novemb"],
    ["2011","CD","2011"],
    ["(","CD","("],
    ["10","CD","10"],
    [")","CD",")"],
    ["October","NNP","octob"],
    ["2011","CD","2011"],
    ["(","CD","("],
    ["7","CD","7"],
    [")","CD",")"],
    ["September","NNP","septemb"],
    ["2011","CD","2011"],
    ["(","CD","("],
    ["7","CD","7"],
    [")","CD",")"],
    ["August","NNP","august"],
    ["2011","CD","2011"],
    ["(","CD","("],
    ["8","CD","8"],
    [")","CD",")"],
    ["July","NNP","july"],
    ["2011","CD","2011"],
    ["(","CD","("],
    ["9","CD","9"],
    [")","CD",")"],
    ["June","NNP","jun"],
    ["2011","CD","2011"],
    ["(","CD","("],
    ["14","CD","14"],
    [")","CD",")"],
    ["May","NNP","may"],
    ["2011","CD","2011"],
    ["(","CD","("],
    ["14","CD","14"],
    [")","CD",")"],
    ["April","NNP","april"],
    ["2011","CD","2011"],
    ["(","CD","("],
    ["7","CD","7"],
    [")","CD",")"],
    ["March","NNP","march"],
    ["2011","CD","2011"],
    ["(","CD","("],
    ["9","CD","9"],
    [")","CD",")"],
    ["February","NNP","febru"],
    ["2011","CD","2011"],
    ["(","CD","("],
    ["12","CD","12"],
    [")","CD",")"],
    ["January","NNP","janu"],
    ["2011","CD","2011"],
    ["(","CD","("],
    ["15","CD","15"],
    [")","CD",")"],
    ["December","NNP","decemb"],
    ["2010","CD","2010"],
    ["(","CD","("],
    ["19","CD","19"],
    [")","CD",")"],
    ["November","NNP","novemb"],
    ["2010","CD","2010"],
    ["(","CD","("],
    ["15","CD","15"],
    [")","CD",")"],
    ["October","NNP","octob"],
    ["2010","CD","2010"],
    ["(","CD","("],
    ["4","CD","4"],
    [")","CD",")"],
    ["©","CD","©"],
    ["2013","CD","2013"],
    ["Ciao","NNP","ciao"],
    ["Lunigiana","NNP","lunigian"],
    [".",".","."]
  ]
},
{
  "tag":"S",
  "content":
  [
    ["All","DT","All"],
    ["Rights","NNS","right"],
    ["Reserved","VBN","reserv"],
    [".",".","."]
  ]
},
{
  "tag":"S",
  "content":
  [
    ["About","IN","About"],
    {
      "tag":"PERSON",
      "content":
      [
        ["Ciao","NNP","ciao"],
        ["Lunigiana","NNP","lunigian"],
        ["Disclaimer","NNP","disclaim"],
        ["Privacy","NNP","priv"],
        ["Policy","NNP","policy"],
        ["Site","NNP","sit"],
        ["Map","NNP","map"]
      ]
    }
  ]
}]