[
{
  "tag":"S",
  "content":
  [
    {
      "tag":"GPE",
      "content":
      [
        ["Membership","NN","memb"]
      ]
    },
    {
      "tag":"ORGANIZATION",
      "content":
      [
        ["Services","NNS","serv"],
        ["Subscribe","NNP","subscrib"],
        ["Jobs","NNP","job"],
        ["Cars","NNP","car"],
        ["Real","NNP","real"],
        ["Estate","NNP","est"],
        ["Rentals","NNP","rent"],
        ["Classifieds","NNP","class"],
        ["Custom","NNP","custom"]
      ]
    },
    ["Publishing","NNP","publ"],
    ["Place","NNP","plac"],
    ["Ad","NNP","ad"],
    {
      "tag":"PERSON",
      "content":
      [
        ["Books","NNP","book"]
      ]
    },
    ["HOME","NNP","hom"],
    ["LOCAL","NNP","loc"],
    ["L.A.","NNP","l.a."],
    ["Now","NNP","now"],
    ["Politics","NNP","polit"],
    ["Crime","NNP","crim"],
    ["Education","NNP","educ"],
    ["O.C","NNP","o.c"],
    [".",".","."]
  ]
},
{
  "tag":"S",
  "content":
  [
    {
      "tag":"GPE",
      "content":
      [
        ["Westside","NNP","westsid"]
      ]
    },
    {
      "tag":"ORGANIZATION",
      "content":
      [
        ["Neighborhoods","NNP","neighb"],
        ["Environment","NNP","environ"],
        ["Obituaries","NNPS","obitu"],
        ["Data","NNP","dat"]
      ]
    },
    ["&","CC","&"],
    {
      "tag":"PERSON",
      "content":
      [
        ["Maps","NNP","map"],
        ["U.S","NNP","u.s"]
      ]
    },
    [".",".","."]
  ]
},
{
  "tag":"S",
  "content":
  [
    ["Politics","NNS","polit"],
    {
      "tag":"PERSON",
      "content":
      [
        ["Nation","NNP","nat"],
        ["Now","NNP","now"],
        ["Politics","NNP","polit"],
        ["Now","NNP","now"],
        ["Top","NNP","top"]
      ]
    },
    ["of","IN","of"],
    ["the","DT","the"],
    {
      "tag":"ORGANIZATION",
      "content":
      [
        ["Ticket","NNP","ticket"],
        ["Science","NNP","sci"],
        ["Science","NNP","sci"],
        ["Now","NNP","now"],
        ["Obituaries","NNPS","obitu"],
        ["Religion","NNP","relig"]
      ]
    },
    ["WORLD","NNP","world"],
    ["World","NNP","world"],
    ["Now","NNP","now"],
    ["Afghanistan","NNP","afgh"],
    ["war","NN","war"],
    {
      "tag":"PERSON",
      "content":
      [
        ["Africa","NNP","afric"],
        ["Americas","NNP","america"],
        ["Asia","NNP","as"],
        ["Europe","NNP","europ"],
        ["Middle","NNP","middl"],
        ["East","NNP","east"],
        ["Business","NNP","busy"],
        ["Money","NNP","money"]
      ]
    },
    ["&","CC","&"],
    ["Co.","NNP","co."],
    ["Technology","NNP","technolog"],
    ["Highway","NNP","highway"],
    ["1","CD","1"],
    {
      "tag":"ORGANIZATION",
      "content":
      [
        ["Company","NNP","company"],
        ["Town","NNP","town"],
        ["Personal","NNP","person"],
        ["Finance","NNP","fin"],
        ["Jobs","NNP","job"],
        ["Real","NNP","real"],
        ["Estate","NNP","est"],
        ["Cars","NNP","car"]
      ]
    },
    ["SPORTS","NNP","sport"],
    ["Sports","NNP","sport"],
    ["Now","NNP","now"],
    ["Lakers","NNP","lak"],
    {
      "tag":"PERSON",
      "content":
      [
        ["Clippers","NNP","clip"],
        ["Dodgers","NNP","dodg"],
        ["Angels","NNP","angel"]
      ]
    },
    ["NFL","NNP","nfl"],
    ["Kings","NNP","king"],
    ["NHL/Ducks","NNP","nhl/ducks"],
    ["USC","NNP","usc"],
    ["UCLA","NNP","ucl"],
    ["Preps","NNP","prep"],
    {
      "tag":"PERSON",
      "content":
      [
        ["Scores","NNP","scor"]
      ]
    },
    {
      "tag":"ORGANIZATION",
      "content":
      [
        ["ENTERTAINMENT","NNP","entertain"],
        ["Movies","NNPS","movy"],
        ["Television","NNP","televid"],
        ["Music","NNP","mus"]
      ]
    },
    ["Celebrity","NNP","celebr"],
    ["Arts","NNP","art"],
    ["&","CC","&"],
    {
      "tag":"PERSON",
      "content":
      [
        ["Culture","NNP","cult"],
        ["Industry","NNP","industry"],
        ["Awards","NNP","award"]
      ]
    },
    [":",":",":"],
    ["The","DT","The"],
    {
      "tag":"ORGANIZATION",
      "content":
      [
        ["Envelope","NNP","envelop"],
        ["Calendar","NNP","calend"],
        ["Books","NNP","book"],
        ["Comics","NNP","com"],
        ["Health","NNP","heal"],
        ["Booster","NNP","boost"],
        ["Shots","NNP","shot"],
        ["Science","NNP","sci"]
      ]
    },
    ["Now","NNP","now"],
    {
      "tag":"PERSON",
      "content":
      [
        ["Medicine","NNP","medicin"],
        ["Fitness","NNP","fit"]
      ]
    },
    ["&","CC","&"],
    {
      "tag":"PERSON",
      "content":
      [
        ["Nutrition","NNP","nutrit"],
        ["Mental","NNP","ment"],
        ["Health","NNP","heal"],
        ["Health","NNP","heal"],
        ["Reform","NNP","reform"],
        ["Cancer","NNP","cant"],
        ["Living","NNP","liv"],
        ["Home","NNP","hom"],
        ["Food","NNP","food"],
        ["Image","NNP","im"],
        ["Books","NNP","book"]
      ]
    },
    ["L.A.","NNP","l.a."],
    ["Affairs","NNP","affair"],
    ["Summer","NNP","sum"],
    ["Guide","NNP","guid"],
    ["Comics","NNP","com"],
    ["Reader","NNP","read"],
    {
      "tag":"PERSON",
      "content":
      [
        ["Photos","NNP","photo"],
        ["Travel","NNP","travel"],
        ["California","NNP","californ"],
        ["Hawaii","NNP","hawai"],
        ["Mexico","NNP","mexico"],
        ["Las","NNP","las"],
        ["Vegas","NNP","vega"],
        ["Europe","NNP","europ"],
        ["Asia","NNP","as"],
        ["Australia","NNP","austral"],
        ["Travel","NNP","travel"]
      ]
    },
    ["&","CC","&"],
    {
      "tag":"PERSON",
      "content":
      [
        ["Deal","NNP","deal"],
        ["Blog","NNP","blog"],
        ["Opinion","NNP","opin"],
        ["Editorials","NNP","edit"]
      ]
    },
    ["Op-Ed","NNP","op-ed"],
    ["Letters","NNP","let"],
    ["Opinion","NNP","opin"],
    ["L.A","NNP","l.a"],
    [".",".","."]
  ]
},
{
  "tag":"S",
  "content":
  [
    {
      "tag":"GPE",
      "content":
      [
        ["Reader","NNP","read"]
      ]
    },
    ["'s","POS","'s"],
    ["Rep","NNP","rep"],
    ["Shop","NNP","shop"],
    {
      "tag":"PERSON",
      "content":
      [
        ["Daily","NNP","dai"],
        ["Deals","NNP","deal"],
        ["Travel","NNP","travel"]
      ]
    },
    ["Offers","NNP","off"],
    ["Coupons","NNP","coupon"],
    ["Weekly","NNP","week"],
    {
      "tag":"PERSON",
      "content":
      [
        ["Circulars","NNP","circul"],
        ["Offers","NNP","off"]
      ]
    },
    ["&","CC","&"],
    {
      "tag":"PERSON",
      "content":
      [
        ["Deals","NNP","deal"],
        ["Sports","NNP","sport"],
        ["Gear","NNP","gear"],
        ["LA","NNP","la"],
        ["Times","NNP","tim"],
        ["Product","NNP","produc"],
        ["See","NNP","see"],
        ["More","NNP","mor"],
        ["Mobile","NNP","mobl"],
        ["Site","NNP","sit"],
        ["Subscribe","NNP","subscrib"]
      ]
    },
    ["/","NNP","/"],
    ["Manage","NNP","man"],
    ["Account","NNP","account"],
    ["Print","NNP","print"],
    ["Ads","NNP","ad"],
    ["Place","NNP","plac"],
    ["an","DT","an"],
    ["Ad","NNP","ad"],
    ["LAT","NNP","lat"],
    ["Store","NNP","stor"],
    ["Jobs","NNP","job"],
    {
      "tag":"PERSON",
      "content":
      [
        ["Cars","NNP","car"],
        ["Real","NNP","real"],
        ["Estate","NNP","est"],
        ["Rentals","NNP","rent"],
        ["More","NNP","mor"],
        ["Classifieds","NNP","class"],
        ["Weekly","NNP","week"],
        ["Ad","NNP","ad"]
      ]
    },
    ["#","#","#"],
    {
      "tag":"ORGANIZATION",
      "content":
      [
        ["inTheNews","NNP","inthenew"]
      ]
    },
    ["{","NNP","{"],
    ["min-height:20px","NNP","min-height:20px"],
    [";",":",";"],
    ["}",":","}"],
    {
      "tag":"PERSON",
      "content":
      [
        ["Advanced","NNP","adv"],
        ["Search","NNP","search"],
        ["Advanced","NNP","adv"],
        ["Search","NNP","search"]
      ]
    },
    ["X","NNP","x"],
    ["include","VBP","includ"],
    ["all","DT","all"],
    ["of","IN","of"],
    ["these","DT","these"],
    ["words","NNS","word"],
    [":",":",":"],
    ["include","VBP","includ"],
    ["any","DT","any"],
    ["of","IN","of"],
    ["these","DT","these"],
    ["words","NNS","word"],
    [":",":",":"],
    ["include","VBP","includ"],
    ["this","DT","this"],
    ["exact","NN","exact"],
    ["phrase","NN","phrase"],
    [":",":",":"],
    ["exclude","NN","exclud"],
    [":",":",":"],
    ["Select","JJ","select"],
    ["a","DT","a"],
    ["date","NN","dat"],
    ["range","NN","rang"],
    ["this","DT","this"],
    ["week","NN","week"],
    ["past","NN","past"],
    ["30","CD","30"],
    ["days","NNS","day"],
    ["past","JJ","past"],
    ["3","CD","3"],
    ["months","NNS","mon"],
    ["past","JJ","past"],
    ["year","NN","year"],
    ["Create","NNP","cre"],
    ["a","DT","a"],
    ["custom","NN","custom"],
    ["date","NN","dat"],
    ["range","NN","rang"],
    ["From","IN","From"],
    [":",":",":"],
    ["To","TO","To"],
    [":",":",":"],
    ["Jacket","NN","jacket"],
    {
      "tag":"ORGANIZATION",
      "content":
      [
        ["CopyBooks","NNS","copybook"]
      ]
    },
    [",",",",","],
    ["authors","NNS","auth"],
    ["and","CC","and"],
    ["all","DT","all"],
    ["things","NNS","thing"],
    ["bookish","VBP","book"],
    ["«",":","«"],
    ["Previous","JJ","prevy"],
    ["|","NN","|"],
    {
      "tag":"PERSON",
      "content":
      [
        ["Jacket","NN","jacket"],
        ["Copy","NNP","cop"],
        ["Home","NNP","hom"]
      ]
    },
    ["|","NNP","|"],
    ["Next»","NNP","next»"],
    ["Seven","NNP","sev"],
    ["questions","NNS","quest"],
    ["on","IN","on"],
    {
      "tag":"ORGANIZATION",
      "content":
      [
        ["Virginia","NNP","virgin"],
        ["Woolf","NNP","woolf"]
      ]
    },
    ["January","NNP","janu"],
    ["28","CD","28"],
    [",",",",","],
    ["2009","CD","2009"],
    ["|",":","|"],
    ["9:48","CD","9:48"],
    ["am","NN","am"],
    {
      "tag":"ORGANIZATION",
      "content":
      [
        ["Virginia","NNP","virgin"],
        ["Woolf","NNP","woolf"]
      ]
    },
    ["This","NNP","thi"],
    ["week","NN","week"],
    ["marks","VBZ","mark"],
    ["the","DT","the"],
    ["127th","JJ","127th"],
    ["anniversary","NN","annivers"],
    ["of","IN","of"],
    {
      "tag":"GPE",
      "content":
      [
        ["Virginia","NNP","virgin"],
        ["Woolf","NNP","woolf"]
      ]
    },
    ["'s","POS","'s"],
    ["birth","JJ","bir"],
    [",",",",","],
    ["which","WDT","which"],
    ["made","VBN","mak"],
    ["me","PRP","me"],
    ["think","VBP","think"],
    ["of","IN","of"],
    {
      "tag":"PERSON",
      "content":
      [
        ["Anne","NNP","an"],
        ["Fernald","NNP","fernald"]
      ]
    },
    [".",".","."]
  ]
},
{
  "tag":"S",
  "content":
  [
    ["It","PRP","It"],
    ["'s","VBZ","'s"],
    ["not","RB","not"],
    ["that","IN","that"],
    ["much","RB","much"],
    ["of","IN","of"],
    ["a","DT","a"],
    ["stretch","NN","stretch"],
    [";",":",";"],
    {
      "tag":"PERSON",
      "content":
      [
        ["Anne","NNP","an"]
      ]
    },
    [",",",",","],
    ["a","DT","a"],
    ["thoughtful","JJ","thought"],
    ["and","CC","and"],
    ["engaged","VBD","eng"],
    ["litblogger","NN","litblog"],
    [",",",",","],
    ["is","VBZ","be"],
    ["a","DT","a"],
    {
      "tag":"GPE",
      "content":
      [
        ["Woolf","NNP","woolf"]
      ]
    },
    ["scholar","NN","scholar"],
    ["and","CC","and"],
    ["author","NN","auth"],
    ["of","IN","of"],
    ["``","``","``"],
    {
      "tag":"ORGANIZATION",
      "content":
      [
        ["Virginia","NNP","virgin"],
        ["Woolf","NNP","woolf"]
      ]
    },
    [":",":",":"],
    ["Feminism","NNP","femin"],
    ["and","CC","and"],
    ["the","DT","the"],
    {
      "tag":"ORGANIZATION",
      "content":
      [
        ["Reader","NNP","read"]
      ]
    },
    ["''","''","''"],
    ["and","CC","and"],
    ["is","VBZ","be"],
    ["working","VBG","work"],
    ["on","IN","on"],
    ["the","DT","the"],
    {
      "tag":"ORGANIZATION",
      "content":
      [
        ["Cambridge","NNP","cambridg"],
        ["University","NNP","univers"]
      ]
    },
    ["Press","NNP","press"],
    ["edition","NN","edit"],
    ["of","IN","of"],
    ["``","``","``"],
    ["Mrs","NNS","mrs"],
    [".",".","."]
  ]
},
{
  "tag":"S",
  "content":
  [
    {
      "tag":"GPE",
      "content":
      [
        ["Dalloway","NNP","dalloway"]
      ]
    },
    [".",".","."]
  ]
},
{
  "tag":"S",
  "content":
  [
    ["``","``","``"],
    ["She","PRP","She"],
    ["teaches","VBZ","teach"],
    ["at","IN","at"],
    {
      "tag":"ORGANIZATION",
      "content":
      [
        ["Fordham","NNP","fordham"],
        ["University","NNP","univers"]
      ]
    },
    ["in","IN","in"],
    {
      "tag":"GPE",
      "content":
      [
        ["New","NNP","new"],
        ["York","NNP","york"]
      ]
    },
    [",",",",","],
    ["which","WDT","which"],
    ["will","MD","will"],
    ["hold","VB","hold"],
    ["a","DT","a"],
    ["conference","NN","conf"],
    ["on","IN","on"],
    {
      "tag":"ORGANIZATION",
      "content":
      [
        ["Viriginia","NNP","virigin"],
        ["Woolf","NNP","woolf"]
      ]
    },
    ["--",":","--"],
    ["``","``","``"],
    {
      "tag":"PERSON",
      "content":
      [
        ["Woolf","NNP","woolf"]
      ]
    },
    ["and","CC","and"],
    ["the","DT","the"],
    {
      "tag":"ORGANIZATION",
      "content":
      [
        ["City","NNP","city"]
      ]
    },
    ["''","''","''"],
    ["--",":","--"],
    ["in","IN","in"],
    ["June","NNP","jun"],
    [".",".","."]
  ]
},
{
  "tag":"S",
  "content":
  [
    ["She","PRP","She"],
    ["kindly","RB","kind"],
    ["agreed","VBD","agr"],
    ["to","TO","to"],
    ["answer","VB","answ"],
    ["seven","CD","seven"],
    ["questions","NNS","quest"],
    ["--",":","--"],
    ["from","IN","from"],
    ["a","DT","a"],
    {
      "tag":"GPE",
      "content":
      [
        ["Woolf","NNP","woolf"]
      ]
    },
    ["novice","NN","nov"],
    [".",".","."]
  ]
},
{
  "tag":"S",
  "content":
  [
    {
      "tag":"PERSON",
      "content":
      [
        ["Jacket","NN","jacket"],
        ["Copy","NNP","cop"]
      ]
    },
    [":",":",":"],
    ["I","PRP","I"],
    ["'ve","VBP","'ve"],
    ["never","RB","nev"],
    ["read","VBN","read"],
    ["any","DT","any"],
    {
      "tag":"ORGANIZATION",
      "content":
      [
        ["Virginia","NNP","virgin"],
        ["Woolf","NNP","woolf"]
      ]
    },
    [".",".","."]
  ]
},
{
  "tag":"S",
  "content":
  [
    ["Where","WRB","Where"],
    ["should","MD","should"],
    ["I","PRP","I"],
    ["start","VB","start"],
    ["?",".","?"]
  ]
},
{
  "tag":"S",
  "content":
  [
    {
      "tag":"PERSON",
      "content":
      [
        ["Anne","NNP","an"]
      ]
    },
    {
      "tag":"PERSON",
      "content":
      [
        ["Fernald","NNP","fernald"]
      ]
    },
    [":",":",":"],
    ["There","EX","There"],
    ["are","VBP","be"],
    ["a","DT","a"],
    ["lot","NN","lot"],
    ["of","IN","of"],
    ["ways","NNS","way"],
    ["to","TO","to"],
    ["start","VB","start"],
    {
      "tag":"PERSON",
      "content":
      [
        ["Woolf","NNP","woolf"]
      ]
    },
    [".",".","."]
  ]
},
{
  "tag":"S",
  "content":
  [
    ["If","IN","If"],
    ["you","PRP","you"],
    ["are","VBP","be"],
    ["interested","JJ","interest"],
    ["in","IN","in"],
    ["experimental","JJ","expery"],
    ["fiction","NN","fict"],
    [",",",",","],
    ["then","RB","then"],
    ["``","``","``"],
    ["The","DT","The"],
    {
      "tag":"ORGANIZATION",
      "content":
      [
        ["Waves","NNP","wav"]
      ]
    },
    [",",",",","],
    ["''","''","''"],
    ["her","PRP$","her"],
    ["most","JJS","most"],
    ["experimental","JJ","expery"],
    ["(","NN","("],
    ["and","CC","and"],
    ["perhaps","RB","perhap"],
    ["her","PRP$","her"],
    ["most","RBS","most"],
    ["difficult","JJ","difficult"],
    [")","NN",")"],
    ["text","NN","text"],
    [",",",",","],
    ["can","MD","can"],
    ["be","VB","be"],
    ["a","DT","a"],
    ["good","JJ","good"],
    ["starting","NN","start"],
    ["place","NN","plac"],
    [".",".","."]
  ]
},
{
  "tag":"S",
  "content":
  [
    ["It","PRP","It"],
    ["follows","VBZ","follow"],
    ["six","CD","six"],
    ["friends","NNS","friend"],
    ["from","IN","from"],
    ["childhood","NN","child"],
    ["through","IN","through"],
    ["middle","JJ","middl"],
    ["age","NN","ag"],
    [",",",",","],
    ["all","DT","all"],
    ["in","IN","in"],
    ["interior","JJ","intery"],
    ["monologues","NNS","monolog"],
    ["--",":","--"],
    ["you","PRP","you"],
    ["flow","VBP","flow"],
    [",",",",","],
    ["like","IN","like"],
    ["waves","NNS","wav"],
    [",",",",","],
    ["in","IN","in"],
    ["and","CC","and"],
    ["out","IN","out"],
    ["of","IN","of"],
    ["the","DT","the"],
    ["thoughts","NNS","thought"],
    ["of","IN","of"],
    {
      "tag":"GPE",
      "content":
      [
        ["Rhoda","NNP","rhod"]
      ]
    },
    [",",",",","],
    {
      "tag":"PERSON",
      "content":
      [
        ["Jinny","NNP","jinny"]
      ]
    },
    [",",",",","],
    {
      "tag":"GPE",
      "content":
      [
        ["Susan","NNP","sus"]
      ]
    },
    [",",",",","],
    {
      "tag":"GPE",
      "content":
      [
        ["Neville","NNP","nevil"]
      ]
    },
    [",",",",","],
    {
      "tag":"PERSON",
      "content":
      [
        ["Louis","NNP","lou"]
      ]
    },
    ["(","NNP","("],
    ["based","VBD","bas"],
    ["on","IN","on"],
    ["T.S","NNS","t.s"],
    [".",".","."]
  ]
},
{
  "tag":"S",
  "content":
  [
    {
      "tag":"GPE",
      "content":
      [
        ["Eliot","NNP","eliot"]
      ]
    },
    [",",",",","],
    ["from","IN","from"],
    {
      "tag":"GPE",
      "content":
      [
        ["St.","NNP","st."]
      ]
    },
    ["*Louis*","-NONE-","*Louis*"],
    ["!",".","!"]
  ]
},
{
  "tag":"S",
  "content":
  [
    ["ha","NN","ha"],
    [")","``",")"],
    [",",",",","],
    ["and","CC","and"],
    {
      "tag":"PERSON",
      "content":
      [
        ["Bernard","NNP","bernard"]
      ]
    },
    [".",".","."]
  ]
},
{
  "tag":"S",
  "content":
  [
    ["But","CC","But"],
    [",",",",","],
    ["if","IN","if"],
    ["you","PRP","you"],
    ["prefer","VBP","pref"],
    ["your","PRP$","your"],
    ["novels","NNS","novel"],
    ["more","RBR","mor"],
    ["autobiographical","JJ","autobiograph"],
    [",",",",","],
    ["then","RB","then"],
    ["``","``","``"],
    ["To","TO","To"],
    ["the","DT","the"],
    {
      "tag":"ORGANIZATION",
      "content":
      [
        ["Lighthouse","NNP","lighth"]
      ]
    },
    ["''","''","''"],
    ["is","VBZ","be"],
    ["a","DT","a"],
    ["lovely","RB","lov"],
    ["entry","NN","entry"],
    ["point","NN","point"],
    [".",".","."]
  ]
},
{
  "tag":"S",
  "content":
  [
    {
      "tag":"PERSON",
      "content":
      [
        ["Woolf","NNP","woolf"]
      ]
    },
    ["'s","POS","'s"],
    ["most","JJS","most"],
    ["autobiographical","JJ","autobiograph"],
    ["novel","NN","novel"],
    [",",",",","],
    ["it","PRP","it"],
    ["depicts","VBZ","depict"],
    ["a","DT","a"],
    ["large","JJ","larg"],
    {
      "tag":"GPE",
      "content":
      [
        ["Victorian","JJ","vict"]
      ]
    },
    ["family","NN","famy"],
    ["on","IN","on"],
    ["summer","NN","sum"],
    ["vacation","NN","vac"],
    ["and","CC","and"],
    ["then","RB","then"],
    ["charts","NNS","chart"],
    ["the","DT","the"],
    ["impact","NN","impact"],
    ["of","IN","of"],
    {
      "tag":"ORGANIZATION",
      "content":
      [
        ["WWI","NNP","wwi"]
      ]
    },
    ["and","CC","and"],
    ["other","JJ","oth"],
    ["life","NN","lif"],
    ["events","NNS","ev"],
    ["over","IN","over"],
    ["the","DT","the"],
    ["years","NNS","year"],
    [".",".","."]
  ]
},
{
  "tag":"S",
  "content":
  [
    ["It","PRP","It"],
    ["'s","VBZ","'s"],
    ["got","VBN","get"],
    {
      "tag":"PERSON",
      "content":
      [
        ["Woolf","NNP","woolf"]
      ]
    },
    ["'s","POS","'s"],
    ["best","JJS","best"],
    ["artist-figure","NN","artist-figure"],
    ["in","IN","in"],
    ["it","PRP","it"],
    [":",":",":"],
    ["Lily","RB","lily"],
    {
      "tag":"GPE",
      "content":
      [
        ["Briscoe","NNP","brisco"]
      ]
    },
    [",",",",","],
    ["a","DT","a"],
    ["frustrated","VBN","frust"],
    ["painter","NN","paint"],
    [".",".","."]
  ]
},
{
  "tag":"S",
  "content":
  [
    ["For","IN","For"],
    ["sheer","NN","she"],
    ["perfection","NN","perfect"],
    ["of","IN","of"],
    ["prose","NN","pros"],
    [",",",",","],
    ["I","PRP","I"],
    ["love","VBP","lov"],
    ["``","``","``"],
    ["A","DT","A"],
    ["Room","NNP","room"],
    ["of","IN","of"],
    ["One","CD","One"],
    ["'s","POS","'s"],
    ["Own","NNP","own"],
    [",",",",","],
    ["''","''","''"],
    ["her","PRP$","her"],
    ["1929","CD","1929"],
    ["feminist","NN","femin"],
    ["masterpiece","NN","masterpiec"],
    [".",".","."]
  ]
},
{
  "tag":"S",
  "content":
  [
    ["It","PRP","It"],
    ["'s","VBZ","'s"],
    ["a","DT","a"],
    ["great","JJ","gre"],
    ["manifesto","NN","manifesto"],
    ["for","IN","for"],
    ["all","DT","all"],
    ["writers","NNS","writ"],
    [":",":",":"],
    ["the","DT","the"],
    ["need","NN","nee"],
    ["for","IN","for"],
    ["both","DT","both"],
    ["privacy","NN","priv"],
    ["and","CC","and"],
    ["the","DT","the"],
    ["ability","NN","abl"],
    ["to","TO","to"],
    ["roam","VB","roam"],
    ["about","IN","about"],
    ["unmolested","VBN","unmolest"],
    ["in","IN","in"],
    ["the","DT","the"],
    ["world","NN","world"],
    [".",".","."]
  ]
},
{
  "tag":"S",
  "content":
  [
    ["But","CC","But"],
    ["I","PRP","I"],
    ["love","VBP","lov"],
    ["it","PRP","it"],
    ["for","IN","for"],
    ["its","PRP$","its"],
    ["gorgeous","JJ","gorg"],
    ["sentences","NNS","sent"],
    [",",",",","],
    ["its","PRP$","its"],
    ["glorious","JJ","glory"],
    ["metaphors","NNS","metaph"],
    [",",",",","],
    ["the","DT","the"],
    ["amazing","NN","amaz"],
    ["way","NN","way"],
    ["that","IN","that"],
    ["its","PRP$","its"],
    ["pieces","NNS","piec"],
    ["all","DT","all"],
    ["fit","NN","fit"],
    ["together","RP","together"],
    ["into","IN","into"],
    ["a","DT","a"],
    ["symphony","JJ","symphony"],
    [".",".","."]
  ]
},
{
  "tag":"S",
  "content":
  [
    {
      "tag":"GPE",
      "content":
      [
        ["Overall","JJ","overal"]
      ]
    },
    [",",",",","],
    ["for","IN","for"],
    ["me","PRP","me"],
    [",",",",","],
    ["her","PRP$","her"],
    ["masterpiece","NN","masterpiec"],
    ["is","VBZ","be"],
    ["``","``","``"],
    ["Mrs","NNS","mrs"],
    [".",".","."]
  ]
},
{
  "tag":"S",
  "content":
  [
    {
      "tag":"GPE",
      "content":
      [
        ["Dalloway","NNP","dalloway"]
      ]
    },
    [".",".","."]
  ]
},
{
  "tag":"S",
  "content":
  [
    ["``","``","``"],
    ["There","EX","There"],
    ["is","VBZ","be"],
    ["a","DT","a"],
    ["lot","NN","lot"],
    ["not","RB","not"],
    ["to","TO","to"],
    ["like","VB","lik"],
    ["about","IN","about"],
    ["the","DT","the"],
    ["main","JJ","main"],
    ["character","NN","charact"],
    [",",",",","],
    ["a","DT","a"],
    ["hostess","NN","hostess"],
    ["throwing","VBG","throw"],
    ["a","DT","a"],
    ["party","NN","party"],
    ["(",":","("],
    ["snore","NN","snor"],
    [")",":",")"],
    [",",",",","],
    ["but","CC","but"],
    {
      "tag":"PERSON",
      "content":
      [
        ["Woolf","NNP","woolf"]
      ]
    },
    ["knows","VBZ","know"],
    ["that","IN","that"],
    ["and","CC","and"],
    ["teaches","NNS","teach"],
    ["you","PRP","you"],
    ["to","TO","to"],
    ["care","VB","car"],
    ["about","IN","about"],
    ["her","PRP$","her"],
    ["in","IN","in"],
    ["spite","NN","spit"],
    ["of","IN","of"],
    {
      "tag":"GPE",
      "content":
      [
        ["Clarissa","NNP","clariss"]
      ]
    },
    ["'s","POS","'s"],
    ["flaws","NNS","flaw"],
    [".",".","."]
  ]
},
{
  "tag":"S",
  "content":
  [
    ["It","PRP","It"],
    ["'s","VBZ","'s"],
    ["an","DT","an"],
    ["amazing","VBG","amaz"],
    ["book","NN","book"],
    ["and","CC","and"],
    ["one","CD","one"],
    ["of","IN","of"],
    ["the","DT","the"],
    ["best","JJS","best"],
    ["treatments","NNS","tre"],
    ["of","IN","of"],
    ["shellshock","NN","shellshock"],
    ["I","PRP","I"],
    ["know","VBP","know"],
    [".",".","."]
  ]
},
{
  "tag":"S",
  "content":
  [
    ["A","DT","A"],
    ["great","JJ","gre"],
    ["version","NN","vert"],
    ["of","IN","of"],
    ["the","DT","the"],
    ["novel","NN","novel"],
    ["set","VBD","set"],
    ["in","IN","in"],
    ["a","DT","a"],
    ["single","JJ","singl"],
    ["day","NN","day"],
    [",",",",","],
    ["too","RB","too"],
    [".",".","."]
  ]
},
{
  "tag":"S",
  "content":
  [
    ["JC","NNP","jc"],
    [":",":",":"],
    ["Which","NNP","which"],
    ["authors","NNS","auth"],
    ["would","MD","would"],
    ["you","PRP","you"],
    ["compare","VB","comp"],
    ["her","PRP$","her"],
    ["work","NN","work"],
    ["to","TO","to"],
    ["--",":","--"],
    {
      "tag":"PERSON",
      "content":
      [
        ["James","NNP","jam"],
        ["Joyce","NNP","joyc"]
      ]
    },
    ["?",".","?"]
  ]
},
{
  "tag":"S",
  "content":
  [
    {
      "tag":"PERSON",
      "content":
      [
        ["William","NNP","william"],
        ["Burroughs","NNP","burrough"]
      ]
    },
    ["?",".","?"]
  ]
},
{
  "tag":"S",
  "content":
  [
    {
      "tag":"GPE",
      "content":
      [
        ["Someone","NN","someon"]
      ]
    },
    ["entirely","RB","entir"],
    ["different","JJ","diff"],
    ["?",".","?"]
  ]
},
{
  "tag":"S",
  "content":
  [
    ["AF","NNP","af"],
    [":",":",":"],
    {
      "tag":"PERSON",
      "content":
      [
        ["Joyce","NNP","joyc"]
      ]
    },
    ["is","VBZ","be"],
    ["right","RB","right"],
    ["in","IN","in"],
    ["many","JJ","many"],
    ["ways","NNS","way"],
    ["as","IN","as"],
    ["``","``","``"],
    ["Mrs.","NNP","mrs."],
    ["Dalloway","NNP","dalloway"],
    ["''","''","''"],
    ["(",":","("],
    ["1925","CD","1925"],
    [")","CD",")"],
    ["is","VBZ","be"],
    ["her","PRP$","her"],
    ["answer","NN","answ"],
    ["to","TO","to"],
    ["``","``","``"],
    ["Ulysses","NNS","ulyss"],
    ["''","''","''"],
    ["(",":","("],
    ["1922","CD","1922"],
    [")","CD",")"],
    [",",",",","],
    ["a","DT","a"],
    ["novel","NN","novel"],
    ["she","PRP","she"],
    ["did","VBD","do"],
    ["n't","RB","n't"],
    ["fully","RB","ful"],
    ["appreciate","VB","apprecy"],
    ["but","CC","but"],
    ["was","VBD","be"],
    ["jealous","JJ","jeal"],
    ["of","IN","of"],
    [".",".","."]
  ]
},
{
  "tag":"S",
  "content":
  [
    ["But","CC","But"],
    ["reading","NN","read"],
    {
      "tag":"PERSON",
      "content":
      [
        ["Woolf","NNP","woolf"]
      ]
    },
    ["does","VBZ","do"],
    ["n't","RB","n't"],
    ["feel","VB","feel"],
    ["like","IN","like"],
    ["reading","NN","read"],
    {
      "tag":"PERSON",
      "content":
      [
        ["Joyce","NNP","joyc"]
      ]
    },
    [".",".","."]
  ]
},
{
  "tag":"S",
  "content":
  [
    {
      "tag":"PERSON",
      "content":
      [
        ["Woolf","NNP","woolf"]
      ]
    },
    ["'s","POS","'s"],
    ["allusions","NNS","allud"],
    ["are","VBP","be"],
    ["n't","RB","n't"],
    ["sparkling","VBG","sparkl"],
    ["on","IN","on"],
    ["the","DT","the"],
    ["surface","NN","surfac"],
    [",",",",","],
    ["they","PRP","they"],
    ["are","VBP","be"],
    ["buried","VBN","bury"],
    [",",",",","],
    ["echoing","NN","echo"],
    ["and","CC","and"],
    ["resonating","VBG","reson"],
    ["much","RB","much"],
    ["more","JJR","mor"],
    ["deeply","RB","deeply"],
    [".",".","."]
  ]
},
{
  "tag":"S",
  "content":
  [
    ["She","PRP","She"],
    ["shares","NNS","shar"],
    ["E.M.","-NONE-","E.M."],
    ["Forster","NNP","forst"],
    ["'s","POS","'s"],
    ["sensibility","NN","sens"],
    [":",":",":"],
    ["keenly","RB","keen"],
    ["aware","JJ","aw"],
    ["of","IN","of"],
    ["class","NN","class"],
    ["issues","NNS","issu"],
    ["that","WDT","that"],
    ["she","PRP","she"],
    ["would","MD","would"],
    ["like","VB","lik"],
    ["to","TO","to"],
    ["escape","VB","escap"],
    [".",".","."]
  ]
},
{
  "tag":"S",
  "content":
  [
    ["She","PRP","She"],
    ["shares","NNS","shar"],
    ["Shakespeare","VBP","shakespear"],
    ["'s","POS","'s"],
    ["ability","NN","abl"],
    ["to","TO","to"],
    ["give","VB","giv"],
    ["you","PRP","you"],
    ["the","DT","the"],
    ["impression","NN","impress"],
    ["that","IN","that"],
    ["her","PRP$","her"],
    ["fictional","JJ","fict"],
    ["world","NN","world"],
    ["is","VBZ","be"],
    ["the","DT","the"],
    ["whole","JJ","whol"],
    ["world","NN","world"],
    [":",":",":"],
    ["that","IN","that"],
    ["is","VBZ","be"],
    [",",",",","],
    ["you","PRP","you"],
    ["can","MD","can"],
    ["study","VB","study"],
    {
      "tag":"PERSON",
      "content":
      [
        ["Woolf","NNP","woolf"]
      ]
    },
    ["for","IN","for"],
    ["many","JJ","many"],
    ["years","NNS","year"],
    ["and","CC","and"],
    ["not","RB","not"],
    ["feel","VB","feel"],
    ["like","IN","like"],
    ["you","PRP","you"],
    ["'re","VBP","'re"],
    ["missing","VBG","miss"],
    ["vast","JJ","vast"],
    ["avenues","NNS","avenu"],
    ["of","IN","of"],
    ["human","JJ","hum"],
    ["experience","NN","expery"],
    [".",".","."]
  ]
},
{
  "tag":"S",
  "content":
  [
    ["Her","PRP$","Her"],
    ["feminism","NN","femin"],
    ["is","VBZ","be"],
    ["like","IN","like"],
    {
      "tag":"PERSON",
      "content":
      [
        ["Katherine","NNP","katherin"],
        ["Mansfield","NNP","mansfield"]
      ]
    },
    ["'s","POS","'s"],
    [",",",",","],
    ["in","IN","in"],
    ["that","DT","that"],
    ["it","PRP","it"],
    ["'s","VBZ","'s"],
    ["not","RB","not"],
    ["overt","VB","overt"],
    ["(",":","("],
    ["as","IN","as"],
    {
      "tag":"PERSON",
      "content":
      [
        ["Rebecca","NNP","rebecc"],
        ["West","NNP","west"]
      ]
    },
    ["'s","POS","'s"],
    ["often","RB","oft"],
    ["is","VBZ","be"],
    [")",":",")"],
    [",",",",","],
    ["but","CC","but"],
    ["manifest","JJS","manifest"],
    ["in","IN","in"],
    ["the","DT","the"],
    ["quiet","JJ","quiet"],
    ["frustration","NN","frust"],
    ["and","CC","and"],
    ["desperation","NN","desp"],
    ["of","IN","of"],
    ["women","NNS","wom"],
    ["characters","NNS","charact"],
    ["whose","WP$","whose"],
    ["lives","NNS","lif"],
    ["do","VBP","do"],
    ["n't","RB","n't"],
    ["have","VB","hav"],
    ["enough","JJ","enough"],
    ["choices","NNS","cho"],
    [".",".","."]
  ]
},
{
  "tag":"S",
  "content":
  [
    ["She","PRP","She"],
    ["'s","VBZ","'s"],
    ["not","RB","not"],
    ["good","JJ","good"],
    ["at","IN","at"],
    ["writing","NN","writ"],
    ["sex","NN","sex"],
    [",",",",","],
    ["but","CC","but"],
    ["she","PRP","she"],
    ["'s","VBZ","'s"],
    ["wonderful","JJ","wond"],
    ["at","IN","at"],
    ["eros","NNS","ero"],
    [";",":",";"],
    ["it","PRP","it"],
    ["'s","VBZ","'s"],
    ["easy","JJ","easy"],
    ["to","TO","to"],
    ["mistake","VB","mistak"],
    ["the","DT","the"],
    ["lack","NN","lack"],
    ["of","IN","of"],
    ["sex","NN","sex"],
    ["for","IN","for"],
    ["coldness","NN","cold"],
    [",",",",","],
    ["but","CC","but"],
    ["it","PRP","it"],
    ["would","MD","would"],
    ["be","VB","be"],
    ["inaccurate","JJ","inacc"],
    ["to","TO","to"],
    ["link","VB","link"],
    ["her","PRP$","her"],
    ["too","NN","too"],
    ["closely","RB","clos"],
    ["to","TO","to"],
    ["a","DT","a"],
    ["chilly","RB","chil"],
    ["successor","NN","success"],
    ["like","IN","like"],
    {
      "tag":"PERSON",
      "content":
      [
        ["Bowen","NNP","bow"]
      ]
    },
    [".",".","."]
  ]
},
{
  "tag":"S",
  "content":
  [
    ["There","EX","There"],
    ["is","VBZ","be"],
    ["a","DT","a"],
    ["lot","NN","lot"],
    ["of","IN","of"],
    ["warmth","NN","warm"],
    ["in","IN","in"],
    {
      "tag":"GPE",
      "content":
      [
        ["Woolf","NNP","woolf"]
      ]
    },
    [",",",",","],
    ["but","CC","but"],
    ["it","PRP","it"],
    ["emerges","VBZ","emerg"],
    ["in","IN","in"],
    ["friendships","NNS","friend"],
    [",",",",","],
    ["in","IN","in"],
    ["unspoken","NN","unspok"],
    ["connections","NNS","connect"],
    [".",".","."]
  ]
},
{
  "tag":"S",
  "content":
  [
    ["JC","NNP","jc"],
    [":",":",":"],
    ["It","PRP","It"],
    ["'s","VBZ","'s"],
    ["127","CD","127"],
    ["years","NNS","year"],
    ["since","IN","since"],
    {
      "tag":"PERSON",
      "content":
      [
        ["Woolf","NNP","woolf"]
      ]
    },
    ["'s","POS","'s"],
    ["birth","JJ","bir"],
    [";",":",";"],
    ["what","WP","what"],
    ["place","NN","plac"],
    ["do","VBP","do"],
    ["you","PRP","you"],
    ["think","VB","think"],
    ["she","PRP","she"],
    ["has","VBZ","hav"],
    ["in","IN","in"],
    ["taken","VBN","tak"],
    ["in","IN","in"],
    ["the","DT","the"],
    ["history","NN","hist"],
    ["of","IN","of"],
    ["literature","NN","lit"],
    ["?",".","?"]
  ]
},
{
  "tag":"S",
  "content":
  [
    ["The","DT","The"],
    ["answer","NN","answ"],
    ["...",":","..."],
    ["after","IN","after"],
    ["the","DT","the"],
    ["jump","NN","jump"],
    [".",".","."]
  ]
},
{
  "tag":"S",
  "content":
  [
    ["3.","CD","3."],
    ["recap","NN","recap"],
    [":",":",":"],
    ["What","WP","What"],
    ["do","VBP","do"],
    ["you","PRP","you"],
    ["think","VB","think"],
    {
      "tag":"PERSON",
      "content":
      [
        ["Woolf","NNP","woolf"]
      ]
    },
    ["'s","POS","'s"],
    ["place","NN","plac"],
    ["is","VBZ","be"],
    ["in","IN","in"],
    ["the","DT","the"],
    ["history","NN","hist"],
    ["of","IN","of"],
    ["literature","NN","lit"],
    ["?",".","?"]
  ]
},
{
  "tag":"S",
  "content":
  [
    ["AF","NNP","af"],
    [":",":",":"],
    {
      "tag":"PERSON",
      "content":
      [
        ["Woolf","NNP","woolf"]
      ]
    },
    ["is","VBZ","be"],
    ["one","CD","one"],
    ["of","IN","of"],
    ["the","DT","the"],
    ["most","RBS","most"],
    ["important","JJ","import"],
    ["feminist","NN","femin"],
    ["theorists","NNS","the"],
    ["of","IN","of"],
    ["the","DT","the"],
    ["20th","JJ","20th"],
    ["century","NN","century"],
    ["--",":","--"],
    ["in","IN","in"],
    ["a","DT","a"],
    ["class","NN","class"],
    ["with","IN","with"],
    {
      "tag":"PERSON",
      "content":
      [
        ["Beauvoir","NNP","beauvoir"]
      ]
    },
    ["and","CC","and"],
    [",",",",","],
    ["really","RB","real"],
    [",",",",","],
    ["probably","RB","prob"],
    ["no","DT","no"],
    ["one","NN","on"],
    ["else","NN","els"],
    [".",".","."]
  ]
},
{
  "tag":"S",
  "content":
  [
    {
      "tag":"GPE",
      "content":
      [
        ["Woolf","NNP","woolf"]
      ]
    },
    ["is","VBZ","be"],
    ["probably","RB","prob"],
    ["the","DT","the"],
    ["greatest","JJS","gre"],
    ["woman","NN","wom"],
    ["novelist","NN","novel"],
    ["writing","VBG","writ"],
    ["in","IN","in"],
    {
      "tag":"GPE",
      "content":
      [
        ["English","NNP","engl"]
      ]
    },
    ["in","IN","in"],
    ["the","DT","the"],
    ["20th","JJ","20th"],
    ["century","NN","century"],
    [".",".","."]
  ]
},
{
  "tag":"S",
  "content":
  [
    ["She","PRP","She"],
    ["is","VBZ","be"],
    ["one","CD","one"],
    ["of","IN","of"],
    ["the","DT","the"],
    ["great","JJ","gre"],
    ["writers","NNS","writ"],
    ["of","IN","of"],
    {
      "tag":"GPE",
      "content":
      [
        ["English","NNP","engl"]
      ]
    },
    ["literature","NN","lit"],
    [",",",",","],
    ["period","NN","period"],
    [".",".","."]
  ]
},
{
  "tag":"S",
  "content":
  [
    ["Her","PRP$","Her"],
    ["position","NN","posit"],
    ["is","VBZ","be"],
    ["really","RB","real"],
    ["pretty","RB","pretty"],
    ["unparalleled","VBN","unparallel"],
    ["and","CC","and"],
    ["I","PRP","I"],
    ["do","VBP","do"],
    ["n't","RB","n't"],
    ["see","VB","see"],
    ["her","PRP$","her"],
    ["stock","NN","stock"],
    ["dropping","VBG","drop"],
    ["anytime","RB","anytim"],
    ["soon","RB","soon"],
    [".",".","."]
  ]
},
{
  "tag":"S",
  "content":
  [
    ["Two","CD","Two"],
    ["anecdotes","NNS","anecdot"],
    ["to","TO","to"],
    ["whet","VB","whet"],
    ["the","DT","the"],
    ["palate","NN","pal"],
    [":",":",":"],
    ["at","IN","at"],
    {
      "tag":"ORGANIZATION",
      "content":
      [
        ["Cambridge","NNP","cambridg"],
        ["University","NNP","univers"]
      ]
    },
    ["Press","NNP","press"],
    ["a","DT","a"],
    ["few","JJ","few"],
    ["years","NNS","year"],
    ["back","RB","back"],
    [",",",",","],
    ["I","PRP","I"],
    ["was","VBD","be"],
    ["told","JJ","told"],
    ["that","IN","that"],
    ["scholarly","JJ","scholarly"],
    ["studies","NNS","study"],
    ["of","IN","of"],
    ["a","DT","a"],
    ["single","JJ","singl"],
    ["author","NN","auth"],
    ["are","VBP","be"],
    ["pretty","RB","pretty"],
    ["much","RB","much"],
    ["a","DT","a"],
    ["no-go","JJ","no-go"],
    ["for","IN","for"],
    ["sales","NNS","sal"],
    ["unless","IN","unless"],
    ["that","DT","that"],
    ["author","NN","auth"],
    ["is","VBZ","be"],
    {
      "tag":"PERSON",
      "content":
      [
        ["Shakespeare","NNP","shakespear"]
      ]
    },
    ["or","CC","or"],
    {
      "tag":"GPE",
      "content":
      [
        ["Woolf","NNP","woolf"]
      ]
    },
    [".",".","."]
  ]
},
{
  "tag":"S",
  "content":
  [
    ["More","JJR","mor"],
    ["substantively","RB","subst"],
    [",",",",","],
    ["in","IN","in"],
    ["the","DT","the"],
    ["50th","JJ","50th"],
    ["&","CC","&"],
    ["100th","CD","100th"],
    ["anniversary","JJ","annivers"],
    ["celebratory","NN","celebr"],
    ["issues","NNS","issu"],
    ["of","IN","of"],
    ["the","DT","the"],
    {
      "tag":"ORGANIZATION",
      "content":
      [
        ["TLS","NNP","tls"]
      ]
    },
    [",",",",","],
    {
      "tag":"PERSON",
      "content":
      [
        ["Woolf","NNP","woolf"]
      ]
    },
    ["is","VBZ","be"],
    ["the","DT","the"],
    {
      "tag":"ORGANIZATION",
      "content":
      [
        ["ONLY","NNP","on"]
      ]
    },
    ["female","NN","fem"],
    ["reviewer","NN","review"],
    ["mentioned","VBD","ment"],
    ["among","IN","among"],
    ["the","DT","the"],
    ["list","NN","list"],
    ["of","IN","of"],
    ["early","JJ","ear"],
    ["contributors","NNS","contribut"],
    [".",".","."]
  ]
},
{
  "tag":"S",
  "content":
  [
    ["During","IN","During"],
    ["her","PRP$","her"],
    ["years","NNS","year"],
    ["writing","VBG","writ"],
    ["reviews","NNS","review"],
    ["for","IN","for"],
    ["the","DT","the"],
    {
      "tag":"ORGANIZATION",
      "content":
      [
        ["TLS","NNPS","tls"]
      ]
    },
    ["(","NNP","("],
    ["which","WDT","which"],
    ["were","VBD","be"],
    ["all","DT","all"],
    ["anonymous","JJ","anonym"],
    [")","NN",")"],
    [",",",",","],
    ["she","PRP","she"],
    ["was","VBD","be"],
    ["paid","VBN","pay"],
    ["DOUBLE","NNP","doubl"],
    ["the","DT","the"],
    ["going","VBG","go"],
    ["rate","NN","rat"],
    [".",".","."]
  ]
},
{
  "tag":"S",
  "content":
  [
    ["She","PRP","She"],
    ["was","VBD","be"],
    ["the","DT","the"],
    ["only","JJ","on"],
    ["reviewer","NN","review"],
    ["accorded","VBD","accord"],
    ["that","IN","that"],
    ["privilege","NN","privileg"],
    [".",".","."]
  ]
},
{
  "tag":"S",
  "content":
  [
    ["To","TO","To"],
    ["me","PRP","me"],
    [",",",",","],
    ["there","EX","there"],
    ["is","VBZ","be"],
    ["just","RB","just"],
    ["no","DT","no"],
    ["denying","NN","deny"],
    ["her","PRP","her"],
    ["stature","NN","stat"],
    [".",".","."]
  ]
},
{
  "tag":"S",
  "content":
  [
    ["This","DT","This"],
    ["is","VBZ","be"],
    ["sometimes","RB","sometim"],
    ["not","RB","not"],
    ["a","DT","a"],
    ["good","JJ","good"],
    ["thing","NN","thing"],
    [",",",",","],
    ["but","CC","but"],
    ["it","PRP","it"],
    ["'s","VBZ","'s"],
    ["true.4","-NONE-","true.4"],
    [".",".","."]
  ]
},
{
  "tag":"S",
  "content":
  [
    ["What","WP","What"],
    ["first","RB","first"],
    ["drew","VBD","draw"],
    ["you","PRP","you"],
    ["to","TO","to"],
    {
      "tag":"GPE",
      "content":
      [
        ["Virginia","NNP","virgin"],
        ["Woolf","NNP","woolf"]
      ]
    },
    ["'s","POS","'s"],
    ["work","NN","work"],
    ["?",".","?"],
    ["AF","NNP","af"],
    [":",":",":"],
    ["The","DT","The"],
    ["gorgeousness","NN","gorg"],
    ["of","IN","of"],
    ["her","PRP$","her"],
    ["sentences","NNS","sent"],
    [".",".","."]
  ]
},
{
  "tag":"S",
  "content":
  [
    ["Her","PRP$","Her"],
    ["sentences","NNS","sent"],
    ["are","VBP","be"],
    ["so","RB","so"],
    ["beautiful","JJ","beauty"],
    [".",".","."]
  ]
},
{
  "tag":"S",
  "content":
  [
    ["Like","IN","Like"],
    ["poetry","NN","poetry"],
    [".",".","."]
  ]
},
{
  "tag":"S",
  "content":
  [
    ["That","DT","That"],
    ["and","CC","and"],
    ["the","DT","the"],
    ["clarity","NN","clar"],
    ["of","IN","of"],
    ["her","PRP$","her"],
    ["judgments","NNS","judg"],
    ["about","IN","about"],
    ["literature","NN","lit"],
    [".",".","."]
  ]
},
{
  "tag":"S",
  "content":
  [
    ["I","PRP","I"],
    ["avoided","VBD","avoid"],
    ["her","PRP","her"],
    ["for","IN","for"],
    ["years","NNS","year"],
    [".",".","."]
  ]
},
{
  "tag":"S",
  "content":
  [
    ["My","PRP$","My"],
    ["(","NN","("],
    ["very","RB","very"],
    ["mean","JJ","mean"],
    [")","NN",")"],
    ["grandmother","NN","grandmoth"],
    ["loved","VBD","lov"],
    ["her","PRP","her"],
    [":",":",":"],
    ["that","IN","that"],
    ["was","VBD","be"],
    ["a","DT","a"],
    ["good","JJ","good"],
    ["reason","NN","reason"],
    ["not","RB","not"],
    ["to","TO","to"],
    ["read","VB","read"],
    ["her","PRP$","her"],
    [".",".","."]
  ]
},
{
  "tag":"S",
  "content":
  [
    ["I","PRP","I"],
    ["went","VBD","go"],
    ["to","TO","to"],
    ["a","DT","a"],
    ["women","NNS","wom"],
    ["'s","POS","'s"],
    ["college","NN","colleg"],
    ["which","WDT","which"],
    ["had","VBD","hav"],
    ["overdosed","VBN","overdos"],
    ["on","IN","on"],
    {
      "tag":"GPE",
      "content":
      [
        ["Woolf","NNP","woolf"]
      ]
    },
    ["in","IN","in"],
    ["the","DT","the"],
    ["'70s","JJ","'70s"],
    [",",",",","],
    ["so","RB","so"],
    ["my","PRP$","my"],
    ["professors","NNS","profess"],
    ["did","VBD","do"],
    ["n't","RB","n't"],
    ["teach","VB","teach"],
    ["her","PRP$","her"],
    ["at","IN","at"],
    ["all","DT","all"],
    ["and","CC","and"],
    ["thought","VBD","think"],
    ["of","IN","of"],
    ["her","PRP$","her"],
    ["as","IN","as"],
    ["tired","JJ","tir"],
    [".",".","."]
  ]
},
{
  "tag":"S",
  "content":
  [
    ["When","WRB","When"],
    ["I","PRP","I"],
    ["read","VBP","read"],
    ["her","PRP","her"],
    ["for","IN","for"],
    ["the","DT","the"],
    ["first","JJ","first"],
    ["time","NN","tim"],
    [",",",",","],
    ["I","PRP","I"],
    ["fell","VBD","fel"],
    ["in","IN","in"],
    ["love.JC","JJ","love.jc"],
    [":",":",":"],
    ["Do","NNP","do"],
    ["you","PRP","you"],
    ["think","VBP","think"],
    ["that","IN","that"],
    {
      "tag":"PERSON",
      "content":
      [
        ["Woolf","NNP","woolf"]
      ]
    },
    ["'s","POS","'s"],
    ["appeal","NN","ap"],
    ["is","VBZ","be"],
    ["gendered","VBN","gend"],
    ["--",":","--"],
    ["do","VBP","do"],
    ["women","NNS","wom"],
    ["tend","VBP","tend"],
    ["to","TO","to"],
    ["respond","VB","respond"],
    ["to","TO","to"],
    ["her","PRP$","her"],
    ["work","NN","work"],
    ["more","JJR","mor"],
    ["than","IN","than"],
    ["men","NNS","men"],
    ["?",".","?"],
    ["AF","NNP","af"],
    [":",":",":"],
    ["I","PRP","I"],
    ["think","VBP","think"],
    ["that","IN","that"],
    ["people","NNS","peopl"],
    ["who","WP","who"],
    ["have","VBP","hav"],
    ["n't","RB","n't"],
    ["read","VB","read"],
    {
      "tag":"PERSON",
      "content":
      [
        ["Woolf","NNP","woolf"]
      ]
    },
    ["imagine","NN","imagin"],
    ["her","PRP","her"],
    ["as","IN","as"],
    ["a","DT","a"],
    ["women","NNS","wom"],
    ["'s","POS","'s"],
    ["writer","NN","writ"],
    ["and","CC","and"],
    ["that","IN","that"],
    ["men","NNS","men"],
    ["do","VBP","do"],
    ["n't","RB","n't"],
    ["read","VB","read"],
    ["her","PRP$","her"],
    ["because","IN","because"],
    ["they","PRP","they"],
    ["think","VBP","think"],
    ["it","PRP","it"],
    ["'s","VBZ","'s"],
    ["going","VBG","go"],
    ["to","TO","to"],
    ["be","VB","be"],
    ["soft","JJ","soft"],
    [",",",",","],
    ["lesbian","JJ","lesb"],
    [",",",",","],
    ["flow-y","JJ","flow-y"],
    ["stuff","NN","stuff"],
    [",",",",","],
    ["or","CC","or"],
    ["hysterical","JJ","hyst"],
    ["feminist","NN","femin"],
    ["screeching","VBG","screech"],
    [".",".","."]
  ]
},
{
  "tag":"S",
  "content":
  [
    ["It","PRP","It"],
    ["'s","VBZ","'s"],
    ["not","RB","not"],
    ["any","DT","any"],
    ["of","IN","of"],
    ["those","DT","those"],
    ["things","NNS","thing"],
    [".",".","."]
  ]
},
{
  "tag":"S",
  "content":
  [
    ["The","DT","The"],
    ["gendering","NN","gend"],
    ["of","IN","of"],
    {
      "tag":"GPE",
      "content":
      [
        ["Woolf","NNP","woolf"]
      ]
    },
    ["has","VBZ","hav"],
    ["everything","VBG","everyth"],
    ["to","TO","to"],
    ["do","VB","do"],
    ["with","IN","with"],
    ["those","DT","those"],
    ["who","WP","who"],
    ["have","VBP","hav"],
    ["n't","RB","n't"],
    ["read","VB","read"],
    ["her","PRP$","her"],
    ["making","NN","mak"],
    ["ill-informed","JJ","ill-informed"],
    ["guesses","NNS","guess"],
    [".",".","."]
  ]
},
{
  "tag":"S",
  "content":
  [
    ["JC","NNP","jc"],
    [":",":",":"],
    ["Fordham","NNP","fordham"],
    ["has","VBZ","hav"],
    ["a","DT","a"],
    ["big","JJ","big"],
    ["Woolf","NNP","woolf"],
    ["conference","NN","conf"],
    ["coming","VBG","com"],
    ["up","RP","up"],
    ["later","JJ","lat"],
    ["this","DT","this"],
    ["year","NN","year"],
    [".",".","."]
  ]
},
{
  "tag":"S",
  "content":
  [
    ["What","WP","What"],
    ["'s","VBZ","'s"],
    ["some","DT","some"],
    ["of","IN","of"],
    ["the","DT","the"],
    ["most","RBS","most"],
    ["interesting","JJ","interest"],
    ["Woolf","NNP","woolf"],
    ["scholarship","NN","scholarship"],
    ["today","NN","today"],
    ["?",".","?"],
    ["AF","NNP","af"],
    [":",":",":"],
    ["The","DT","The"],
    ["theme","NN","them"],
    ["of","IN","of"],
    ["our","PRP$","our"],
    ["conference","NN","conf"],
    ["is","VBZ","be"],
    ["``","``","``"],
    {
      "tag":"PERSON",
      "content":
      [
        ["Woolf","NNP","woolf"]
      ]
    },
    ["and","CC","and"],
    ["the","DT","the"],
    {
      "tag":"ORGANIZATION",
      "content":
      [
        ["City","NNP","city"]
      ]
    },
    [",",",",","],
    ["''","''","''"],
    ["and","CC","and"],
    ["there","EX","there"],
    ["is","VBZ","be"],
    ["some","DT","some"],
    ["really","RB","real"],
    ["interesting","JJ","interest"],
    ["work","NN","work"],
    ["going","VBG","go"],
    ["on","IN","on"],
    ["situating","VBG","situ"],
    {
      "tag":"PERSON",
      "content":
      [
        ["Woolf","NNP","woolf"]
      ]
    },
    ["in","IN","in"],
    ["the","DT","the"],
    ["geographical","JJ","geograph"],
    ["and","CC","and"],
    ["political","JJ","polit"],
    ["climate","NN","clim"],
    ["of","IN","of"],
    ["her","PRP$","her"],
    ["day","NN","day"],
    [".",".","."]
  ]
},
{
  "tag":"S",
  "content":
  [
    ["We","PRP","We"],
    ["will","MD","will"],
    ["have","VB","hav"],
    ["plenary","JJ","plen"],
    ["talks","NNS","talk"],
    ["on","IN","on"],
    ["the","DT","the"],
    ["``","``","``"],
    ["soundscape","NN","soundscap"],
    ["''","''","''"],
    ["of","IN","of"],
    ["her","PRP$","her"],
    ["'30s","JJ","'30s"],
    ["novel","NN","novel"],
    [",",",",","],
    ["``","``","``"],
    ["The","DT","The"],
    ["Years","NNS","year"],
    [",",",",","],
    ["''","''","''"],
    ["and","CC","and"],
    ["on","IN","on"],
    ["the","DT","the"],
    ["connection","NN","connect"],
    ["between","IN","between"],
    ["her","PRP$","her"],
    ["second","JJ","second"],
    ["feminist","NN","femin"],
    ["pamphlet","NN","pamphlet"],
    [",",",",","],
    ["``","``","``"],
    ["Three","NNP","three"],
    ["Guineas","NNP","guinea"],
    [",",",",","],
    ["''","''","''"],
    ["to","TO","to"],
    ["the","DT","the"],
    {
      "tag":"ORGANIZATION",
      "content":
      [
        ["Spanish","NNP","span"]
      ]
    },
    ["Civil","NNP","civil"],
    ["War","NNP","war"],
    [".",".","."]
  ]
},
{
  "tag":"S",
  "content":
  [
    ["Recent","JJ","rec"],
    ["studies","NNS","study"],
    ["have","VBP","hav"],
    ["also","RB","also"],
    ["looked","VBN","look"],
    ["at","IN","at"],
    ["the","DT","the"],
    ["role","NN","rol"],
    {
      "tag":"PERSON",
      "content":
      [
        ["Woolf","NNP","woolf"]
      ]
    },
    ["played","VBD","play"],
    ["in","IN","in"],
    ["critiquing","NN","crit"],
    ["(",":","("],
    ["and","CC","and"],
    ["occasionally","RB","occas"],
    ["helping","VBG","help"],
    ["build","NN","build"],
    [")",":",")"],
    ["the","DT","the"],
    ["heritage","NN","herit"],
    ["industry","NN","industry"],
    [".",".","."]
  ]
},
{
  "tag":"S",
  "content":
  [
    ["For","IN","For"],
    ["example","NN","exampl"],
    [",",",",","],
    {
      "tag":"PERSON",
      "content":
      [
        ["Andrea","NNP","andre"],
        ["Zemgulys","NNP","zemgu"]
      ]
    },
    ["has","VBZ","hav"],
    ["a","DT","a"],
    ["new","JJ","new"],
    ["book","NN","book"],
    ["that","WDT","that"],
    ["examines","VBZ","examin"],
    {
      "tag":"PERSON",
      "content":
      [
        ["Woolf","NNP","woolf"]
      ]
    },
    ["among","IN","among"],
    ["other","JJ","oth"],
    ["participants","NNS","particip"],
    ["in","IN","in"],
    ["the","DT","the"],
    ["whole","JJ","whol"],
    ["``","``","``"],
    ["blue","JJ","blu"],
    ["plaque","NN","plaqu"],
    ["''","''","''"],
    ["heritage-making","JJ","heritage-making"],
    [",",",",","],
    ["and","CC","and"],
    {
      "tag":"PERSON",
      "content":
      [
        ["Joshua","NNP","joshu"],
        ["Esty","NNP","esty"]
      ]
    },
    ["wrote","VBD","writ"],
    [",",",",","],
    ["a","DT","a"],
    ["few","JJ","few"],
    ["years","NNS","year"],
    ["back","RB","back"],
    [",",",",","],
    ["about","IN","about"],
    {
      "tag":"PERSON",
      "content":
      [
        ["Woolf","NNP","woolf"]
      ]
    },
    ["'s","POS","'s"],
    ["critique","NN","crit"],
    ["of","IN","of"],
    ["the","DT","the"],
    ["patriotic","JJ","patriot"],
    ["village","NN","vil"],
    ["pageant","NN","pag"],
    ["in","IN","in"],
    ["her","PRP$","her"],
    ["last","JJ","last"],
    ["novel","NN","novel"],
    [",",",",","],
    ["``","``","``"],
    ["Between","IN","Between"],
    ["the","DT","the"],
    ["Acts","NNPS","act"],
    [".",".","."]
  ]
},
{
  "tag":"S",
  "content":
  [
    ["``","``","``"],
    ["Elsewhere","RB","elsewh"],
    [",",",",","],
    ["there","EX","there"],
    ["is","VBZ","be"],
    ["ongoing","VBG","ongo"],
    ["work","NN","work"],
    ["on","IN","on"],
    {
      "tag":"PERSON",
      "content":
      [
        ["Woolf","NNP","woolf"]
      ]
    },
    ["and","CC","and"],
    ["trauma","NN","traum"],
    ["--",":","--"],
    ["war","NN","war"],
    ["trauma","NN","traum"],
    ["as","IN","as"],
    ["well","RB","wel"],
    ["as","IN","as"],
    ["trauma","NN","traum"],
    ["more","JJR","mor"],
    ["generally","RB","gen"],
    [".",".","."]
  ]
},
{
  "tag":"S",
  "content":
  [
    ["And","CC","And"],
    ["I","PRP","I"],
    ["have","VBP","hav"],
    ["some","DT","some"],
    ["friends","NNS","friend"],
    [",",",",","],
    {
      "tag":"PERSON",
      "content":
      [
        ["Alice","NNP","al"],
        ["Staveley","NNP","staveley"]
      ]
    },
    ["and","CC","and"],
    {
      "tag":"PERSON",
      "content":
      [
        ["Pat","NNP","pat"],
        ["Collier","NNP","col"]
      ]
    },
    ["in","IN","in"],
    ["particular","JJ","particul"],
    [",",",",","],
    ["who","WP","who"],
    ["are","VBP","be"],
    ["doing","VBG","do"],
    ["archival","NN","arch"],
    ["work","NN","work"],
    ["on","IN","on"],
    ["the","DT","the"],
    ["his","PRP$","his"]
  ]
}]