[
{
  "tag":"S",
  "content":
  [
    {
      "tag":"ORGANIZATION",
      "content":
      [
        ["ABC","NNP","abc"],
        ["News","NNP","new"],
        ["Blogs","NNP","blog"]
      ]
    },
    [">","NNP",">"],
    ["Entertainment","NNP","entertain"],
    [">","NNP",">"],
    ["Celebrities","NNPS","celebr"],
    ["Celebrities","NNP","celebr"],
    ["Headlines","NNP","headlin"],
    ["Politics","NNP","polit"],
    ["Entertainment","NNP","entertain"],
    ["Health","NNP","heal"],
    ["Lifestyle","NNP","lifestyl"],
    ["Business","NNP","busy"],
    ["Technology","NNP","technolog"],
    ["Why","NNP","why"],
    ["Katy","NNP","katy"],
    {
      "tag":"PERSON",
      "content":
      [
        ["Perry","NNP","perry"],
        ["Could","NNP","could"],
        ["Never","NNP","nev"],
        ["Dress","NNP","dress"],
        ["Like","NNP","lik"],
        ["Rihanna","NNP","rihann"],
        ["Email","NNP","email"],
        ["Smaller","NNP","smal"],
        ["Font","NNP","font"],
        ["Text","NNP","text"],
        ["Larger","NNP","larg"],
        ["Text","NNP","text"]
      ]
    },
    ["|","NNP","|"],
    ["Print","NNP","print"],
    ["By","NNP","by"],
    {
      "tag":"PERSON",
      "content":
      [
        ["Michael","NNP","michael"],
        ["Rothman","NNP","rothm"]
      ]
    },
    ["@","NNP","@"],
    ["TheRealRothmanFind","NNP","therealrothmanfind"],
    ["on","IN","on"],
    {
      "tag":"ORGANIZATION",
      "content":
      [
        ["FacebookFollow","NNP","facebookfollow"]
      ]
    },
    ["on","IN","on"],
    {
      "tag":"PERSON",
      "content":
      [
        ["Twitter","NNP","twit"],
        ["Oct","NNP","oct"]
      ]
    },
    ["6","CD","6"],
    [",",",",","],
    ["2013","CD","2013"],
    ["6:00am","CD","6:00am"],
    ["(","CD","("],
    {
      "tag":"ORGANIZATION",
      "content":
      [
        ["Photo","NNP","photo"]
      ]
    },
    ["Credit","NNP","credit"],
    [":",":",":"],
    {
      "tag":"PERSON",
      "content":
      [
        ["Michel","NNP","michel"]
      ]
    },
    ["Dufour/Getty","JJ","dufour/getty"],
    ["Images","NNS","im"],
    [")",":",")"],
    {
      "tag":"PERSON",
      "content":
      [
        ["Katy","NNP","katy"],
        ["Perry","NNP","perry"]
      ]
    },
    ["posed","VBD","pos"],
    ["naked","VBN","nak"],
    ["for","IN","for"],
    ["the","DT","the"],
    ["cover","NN","cov"],
    ["of","IN","of"],
    ["her","PRP$","her"],
    ["album","NN","alb"],
    ["“Teenage","NN","“teenage"],
    ["Dream”","NN","dream”"],
    ["and","CC","and"],
    ["has","VBZ","hav"],
    ["worn","VBN","wear"],
    ["her","PRP$","her"],
    ["share","NN","shar"],
    ["of","IN","of"],
    ["revealing","NN","rev"],
    ["outfits","NNS","outfit"],
    ["on","IN","on"],
    ["stage","NN","stag"],
    ["and","CC","and"],
    ["in","IN","in"],
    ["videos","NNS","video"],
    [".",".","."]
  ]
},
{
  "tag":"S",
  "content":
  [
    ["But","CC","But"],
    {
      "tag":"PERSON",
      "content":
      [
        ["Perry","NNP","perry"]
      ]
    },
    [",",",",","],
    ["28","CD","28"],
    [",",",",","],
    ["said","VBD","say"],
    ["that","IN","that"],
    ["for","IN","for"],
    ["her","PRP$","her"],
    ["upcoming","NN","upcom"],
    ["album","NN","alb"],
    ["“Prism","NN","“prism"],
    [",",",",","],
    ["”",":","”"],
    ["she’s","JJ","she’s"],
    ["going","NN","going"],
    ["to","TO","to"],
    ["tone","NN","ton"],
    ["it","PRP","it"],
    ["down","IN","down"],
    ["a","DT","a"],
    ["bit","NN","bit"],
    ["because","IN","because"],
    [",",",",","],
    ["unlike","IN","unlike"],
    ["her","PRP$","her"],
    ["close","NN","clos"],
    ["friend","NN","friend"],
    {
      "tag":"PERSON",
      "content":
      [
        ["Rihanna","NNP","rihann"]
      ]
    },
    [",",",",","],
    ["she","PRP","she"],
    ["just","RB","just"],
    ["doesn’t","JJ","doesn’t"],
    ["think","NN","think"],
    ["she","PRP","she"],
    ["can","MD","can"],
    ["get","VB","get"],
    ["away","RB","away"],
    ["with","IN","with"],
    ["it","PRP","it"],
    ["anymore","JJR","anym"],
    [".",".","."]
  ]
},
{
  "tag":"S",
  "content":
  [
    ["Speaking","VBG","speak"],
    ["to","TO","to"],
    ["London’s","NNS","london’s"],
    {
      "tag":"ORGANIZATION",
      "content":
      [
        ["Capital","NNP","capit"]
      ]
    },
    ["FM","NNP","fm"],
    [",",",",","],
    {
      "tag":"PERSON",
      "content":
      [
        ["Perry","NNP","perry"]
      ]
    },
    ["said","VBD","say"],
    [",",",",","],
    ["“Maybe","JJ","“maybe"],
    ["I’m","NN","i’m"],
    ["just","RB","just"],
    ["getting","VBG","get"],
    ["a","DT","a"],
    ["little","RB","littl"],
    ["bit","NN","bit"],
    ["older","NN","old"],
    ["…",":","…"],
    ["as","IN","as"],
    ["you","PRP","you"],
    ["get","VBP","get"],
    ["older","JJR","old"],
    ["you","PRP","you"],
    ["realize","VBP","real"],
    [",",",",","],
    ["‘Oh","JJ","‘oh"],
    [",",",",","],
    ["I","PRP","I"],
    ["don’t","VBP","don’t"],
    ["know","RB","know"],
    ["if","IN","if"],
    ["I","PRP","I"],
    ["can","MD","can"],
    ["pull","VB","pul"],
    ["that","IN","that"],
    ["off","IN","off"],
    ["anymore.’","JJ","anymore.’"],
    ["I","PRP","I"],
    ["mean","VBP","mean"],
    [",",",",","],
    ["if","IN","if"],
    ["I","PRP","I"],
    ["had","VBD","hav"],
    ["Rihanna’s","JJ","rihanna’s"],
    ["body","NN","body"],
    [",",",",","],
    ["I","PRP","I"],
    ["would","MD","would"],
    ["wear","VB","wear"],
    ["everything","NN","everyth"],
    ["that","WDT","that"],
    {
      "tag":"PERSON",
      "content":
      [
        ["Rihanna","NNP","rihann"]
      ]
    },
    ["wears","VBZ","wear"],
    ["because","IN","because"],
    ["she","PRP","she"],
    ["looks","VBZ","look"],
    ["fabulous","JJ","fab"],
    ["in","IN","in"],
    ["all","DT","all"],
    ["of","IN","of"],
    ["it","PRP","it"],
    [".",".","."]
  ]
},
{
  "tag":"S",
  "content":
  [
    ["But","CC","But"],
    ["I","PRP","I"],
    ["think","VBP","think"],
    ["I","PRP","I"],
    ["want","VBP","want"],
    ["to","TO","to"],
    ["keep","VB","keep"],
    ["the","DT","the"],
    ["attention","NN","at"],
    ["on","IN","on"],
    ["my","PRP$","my"],
    ["music.”","NN","music.”"],
    ["Read","NNP","read"],
    [":",":",":"],
    {
      "tag":"PERSON",
      "content":
      [
        ["Katy","NNP","katy"],
        ["Perry","NNP","perry"]
      ]
    },
    ["Says","VBZ","say"],
    ["A","DT","A"],
    ["Year","NN","year"],
    {
      "tag":"PERSON",
      "content":
      [
        ["Ago","NNP","ago"]
      ]
    },
    [",",",",","],
    {
      "tag":"PERSON",
      "content":
      [
        ["She","NNP","she"],
        ["Was","NNP","was"]
      ]
    },
    ["‘Unbalanced’","NNP","‘unbalanced’"],
    ["and","CC","and"],
    ["‘Immature’","NNP","‘immature’"],
    ["Noting","NNP","not"],
    ["that","IN","that"],
    ["she","PRP","she"],
    ["has","VBZ","hav"],
    ["“a","JJ","“a"],
    ["lot","NN","lot"],
    ["of","IN","of"],
    ["confidence”","NN","confidence”"],
    ["in","IN","in"],
    ["the","DT","the"],
    ["songs","NNS","song"],
    ["on","IN","on"],
    ["“Prism","NN","“prism"],
    [",",",",","],
    ["”",":","”"],
    {
      "tag":"PERSON",
      "content":
      [
        ["Perry","NNP","perry"]
      ]
    },
    ["added","VBD","ad"],
    ["that","IN","that"],
    ["it’s","JJ","it’s"],
    ["the","DT","the"],
    ["music","JJ","mus"],
    ["she","PRP","she"],
    ["wants","VBZ","want"],
    ["fans","NNS","fan"],
    ["to","TO","to"],
    ["focus","VB","foc"],
    ["on","IN","on"],
    [".",".","."]
  ]
},
{
  "tag":"S",
  "content":
  [
    ["“I","NN","“i"],
    ["don’t","NN","don’t"],
    ["want","NN","want"],
    ["to","TO","to"],
    ["abuse","VB","abus"],
    ["anyone’s","JJ","anyone’s"],
    ["attention","NN","at"],
    ["when","WRB","when"],
    ["I","PRP","I"],
    ["get","VBP","get"],
    ["it","PRP","it"],
    [",",",",","],
    ["”",":","”"],
    ["she","PRP","she"],
    ["said","VBD","say"],
    [".",".","."]
  ]
},
{
  "tag":"S",
  "content":
  [
    ["”Because","NN","”because"],
    ["I","PRP","I"],
    ["know","VBP","know"],
    ["you","PRP","you"],
    ["only","RB","on"],
    ["have","VBP","hav"],
    ["it","PRP","it"],
    ["from","IN","from"],
    ["people","NNS","peopl"],
    ["for","IN","for"],
    ["a","DT","a"],
    ["matter","NN","mat"],
    ["of","IN","of"],
    ["minutes","NNS","minut"],
    [",",",",","],
    ["and","CC","and"],
    ["then","RB","then"],
    ["you","PRP","you"],
    ["have","VB","hav"],
    ["to","TO","to"],
    ["move","VB","mov"],
    ["on","IN","on"],
    [".",".","."]
  ]
},
{
  "tag":"S",
  "content":
  [
    ["So","IN","So"],
    ["it’s","JJ","it’s"],
    ["important","JJ","import"],
    ["for","IN","for"],
    ["me","PRP","me"],
    ["to","TO","to"],
    ["keep","VB","keep"],
    ["it","PRP","it"],
    ["about","IN","about"],
    ["the","DT","the"],
    ["music.”","NN","music.”"],
    ["Related","NNP","rel"],
    [":",":",":"],
    {
      "tag":"PERSON",
      "content":
      [
        ["Katy","NNP","katy"],
        ["Perry","NNP","perry"]
      ]
    },
    ["on","IN","on"],
    {
      "tag":"PERSON",
      "content":
      [
        ["Love","NNP","lov"]
      ]
    },
    ["–","NNP","–"],
    ["Past","NNP","past"],
    ["and","CC","and"],
    ["Present","NNP","pres"],
    ["In","NNP","in"],
    ["terms","NNS","term"],
    ["of","IN","of"],
    ["what","WP","what"],
    ["she","PRP","she"],
    ["will","MD","will"],
    ["wear","VB","wear"],
    [",",",",","],
    {
      "tag":"PERSON",
      "content":
      [
        ["Perry","NNP","perry"]
      ]
    },
    ["said","VBD","say"],
    ["she","PRP","she"],
    ["might","MD","might"],
    ["emulate","VB","em"],
    ["another","DT","another"],
    ["pop","NN","pop"],
    ["star","NN","star"],
    ["known","VBN","know"],
    ["for","IN","for"],
    ["her","PRP$","her"],
    ["fashion","NN","fash"],
    ["–",":","–"],
    {
      "tag":"PERSON",
      "content":
      [
        ["Gwen","NNP","gwen"],
        ["Stefani","NNP","stefan"]
      ]
    },
    [".",".","."]
  ]
},
{
  "tag":"S",
  "content":
  [
    ["“She’s","NNS","“she’s"],
    ["someone","VBP","someon"],
    ["that’s","JJ","that’s"],
    ["been","VBN","be"],
    ["a","DT","a"],
    ["real","JJ","real"],
    ["important","JJ","import"],
    ["character","NN","charact"],
    ["in","IN","in"],
    ["my","PRP$","my"],
    ["life","NN","lif"],
    [",",",",","],
    ["someone","NN","someon"],
    ["I","PRP","I"],
    ["look","VBP","look"],
    ["up","RP","up"],
    ["to","TO","to"],
    [",",",",","],
    ["”",":","”"],
    ["she","PRP","she"],
    ["told","VBD","tel"],
    ["The","DT","The"],
    {
      "tag":"ORGANIZATION",
      "content":
      [
        ["Telegraph","NNP","telegraph"]
      ]
    },
    [".",".","."]
  ]
},
{
  "tag":"S",
  "content":
  [
    ["“I","NN","“i"],
    ["loved","VBD","lov"],
    {
      "tag":"PERSON",
      "content":
      [
        ["Gwen","NNP","gwen"],
        ["Stefani","NNP","stefan"]
      ]
    },
    ["when","WRB","when"],
    ["I","PRP","I"],
    ["was","VBD","be"],
    ["a","DT","a"],
    ["lot","NN","lot"],
    ["younger","NN","young"],
    [",",",",","],
    ["when","WRB","when"],
    ["I","PRP","I"],
    ["discovered","VBD","discov"],
    ["her","PRP","her"],
    ["in","IN","in"],
    ["my","PRP$","my"],
    ["teens","NNS","teen"],
    [".",".","."]
  ]
},
{
  "tag":"S",
  "content":
  [
    ["And","CC","And"],
    ["I","PRP","I"],
    ["still","RB","stil"],
    ["love","VBP","lov"],
    ["her","PRP","her"],
    ["now","RB","now"],
    [",",",",","],
    ["I","PRP","I"],
    ["think","VBP","think"],
    ["she","PRP","she"],
    ["makes","VBZ","mak"],
    ["fantastic","JJ","fantast"],
    ["fashion","NN","fash"],
    ["choices","NNS","cho"],
    [".",".","."]
  ]
},
{
  "tag":"S",
  "content":
  [
    ["She","PRP","She"],
    ["has","VBZ","hav"],
    ["her","PRP$","her"],
    ["own","JJ","own"],
    ["sense","NN","sens"],
    ["of","IN","of"],
    ["style","NN","styl"],
    [",",",",","],
    ["she’s","NNP","she’s"],
    ["a","DT","a"],
    ["creator","NN","cre"],
    [",",",",","],
    ["she","PRP","she"],
    ["is","VBZ","be"],
    ["chic","JJ","chic"],
    ["while","IN","while"],
    ["still","RB","stil"],
    ["being","VBG","be"],
    ["still","RB","stil"],
    ["kind","JJ","kind"],
    ["of","IN","of"],
    ["punk","NN","punk"],
    ["rock","NN","rock"],
    ["about","IN","about"],
    ["all","DT","all"],
    ["of","IN","of"],
    ["it.”","JJ","it.”"],
    ["SHOWS","NNS","show"],
    [":",":",":"],
    ["Good","JJ","good"],
    ["Morning","NN","morn"],
    {
      "tag":"ORGANIZATION",
      "content":
      [
        ["America","NNP","americ"],
        ["Email","NNP","email"],
        ["Smaller","NNP","smal"],
        ["Font","NNP","font"],
        ["Text","NNP","text"],
        ["Larger","NNP","larg"],
        ["Text","NNP","text"]
      ]
    },
    ["|","NNP","|"],
    ["Print","NNP","print"],
    ["Related","NNP","rel"],
    ["Videos","NNP","video"],
    ["GMA","NNP","gma"],
    ["LIVE","NNP","liv"],
    ["(","NNP","("],
    ["10.16.13","CD","10.16.13"],
    [")","CD",")"],
    ["Butterfinger","NNP","butterf"],
    ["Peanut","NNP","peanut"],
    ["Butter","NNP","but"],
    ["Cups","NNP","cup"],
    ["Coming","NNP","com"],
    ["in","IN","in"],
    ["2014","CD","2014"],
    ["PreviousMiley","NNP","previousmiley"],
    ["Cyrus","NNP","cyr"],
    ["on","IN","on"],
    ["‘SNL’","NNP","‘snl’"],
    ["(","NNP","("],
    ["Live","NNP","liv"],
    ["Updates","NNP","upd"],
    [")","NNP",")"],
    ["–","NNP","–"],
    ["The","NNP","the"],
    {
      "tag":"PERSON",
      "content":
      [
        ["Live","NNP","liv"],
        ["Live","NNP","liv"],
        ["Blog","NNP","blog"]
      ]
    },
    ["NextMiley","NNP","nextmiley"],
    ["Cyrus","NNP","cyr"],
    ["on","IN","on"],
    ["‘Saturday","JJ","‘saturday"],
    {
      "tag":"PERSON",
      "content":
      [
        ["Night","NNP","night"]
      ]
    },
    ["Live’","NNP","live’"],
    [":",":",":"],
    {
      "tag":"PERSON",
      "content":
      [
        ["Her","NNP","her"],
        ["Top","NNP","top"]
      ]
    },
    ["5","CD","5"],
    ["Moments","NNS","mom"],
    ["You","PRP","You"],
    ["are","VBP","be"],
    ["using","VBG","us"],
    ["an","DT","an"],
    ["outdated","JJ","outd"],
    ["version","NN","vert"],
    ["of","IN","of"],
    ["Internet","NNP","internet"],
    ["Explorer","NNP","expl"],
    [".",".","."]
  ]
},
{
  "tag":"S",
  "content":
  [
    {
      "tag":"GPE",
      "content":
      [
        ["Please","NN","pleas"]
      ]
    },
    ["click","VBD","click"],
    ["here","RB","her"],
    ["to","TO","to"],
    ["upgrade","VB","upgrad"],
    ["your","PRP$","your"],
    ["browser","NN","brows"],
    ["in","IN","in"],
    ["order","NN","ord"],
    ["to","TO","to"],
    ["comment","VB","com"],
    [".",".","."]
  ]
},
{
  "tag":"S",
  "content":
  [
    {
      "tag":"GPE",
      "content":
      [
        ["Please","NN","pleas"]
      ]
    },
    ["enable","JJ","en"],
    {
      "tag":"ORGANIZATION",
      "content":
      [
        ["JavaScript","NNP","javascrib"]
      ]
    },
    ["to","TO","to"],
    ["view","VB","view"],
    ["the","DT","the"],
    ["comments","NNS","com"],
    ["powered","VBD","pow"],
    ["by","IN","by"],
    {
      "tag":"PERSON",
      "content":
      [
        ["Disqus","NNP","disq"]
      ]
    },
    [".",".","."]
  ]
},
{
  "tag":"S",
  "content":
  [
    ["blog","NN","blog"],
    ["comments","NNS","com"],
    ["powered","VBD","pow"],
    ["by","IN","by"],
    {
      "tag":"PERSON",
      "content":
      [
        ["Disqus","NNP","disq"],
        ["About","NNP","about"]
      ]
    },
    ["CelebritiesCelebrity","NNP","celebritiescelebr"],
    ["gossip","NN","gossip"],
    [",",",",","],
    ["red","VBD","red"],
    ["carpet","NN","carpet"],
    ["moments","NNS","mom"],
    ["and","CC","and"],
    ["the","DT","the"],
    ["latest","JJS","lat"],
    ["fashion","NN","fash"],
    ["trends","NNS","trend"],
    [".",".","."]
  ]
},
{
  "tag":"S",
  "content":
  [
    ["Categories","NNS","categ"],
    ["Celebrities","NNPS","celebr"],
    ["Celebrity","NNP","celebr"],
    ["Law","NNP","law"],
    ["Fashion","NNP","fash"],
    ["Movies","NNP","movy"],
    {
      "tag":"PERSON",
      "content":
      [
        ["Music","NNP","mus"],
        ["Oscars","NNP","osc"],
        ["The","NNP","the"],
        ["Royal","NNP","roy"],
        ["Bump","NNP","bump"]
      ]
    },
    ["TV","NNP","tv"],
    ["Top","NNP","top"],
    ["Posts","NNP","post"],
    ["See","NNP","see"],
    {
      "tag":"PERSON",
      "content":
      [
        ["Miley","NNP","miley"],
        ["Cyrus","NNP","cyr"],
        ["Naked","NNP","nak"]
      ]
    },
    ["in","IN","in"],
    {
      "tag":"GPE",
      "content":
      [
        ["Body","NNP","body"]
      ]
    },
    ["Paint","NNP","paint"],
    ["for","IN","for"],
    ["Rapper’s","NNP","rapper’s"],
    ["Video","NNP","video"],
    {
      "tag":"PERSON",
      "content":
      [
        ["Mike","NNP","mik"],
        ["Myers","NNP","myer"]
      ]
    },
    ["and","CC","and"],
    {
      "tag":"PERSON",
      "content":
      [
        ["Kelly","NNP","kel"],
        ["Tisdale","NNP","tisd"],
        ["Expecting","NNP","expect"]
      ]
    },
    ["Second","NNP","second"],
    ["Child","NNP","child"],
    ["Why","NNP","why"],
    ["Kate","NNP","kat"],
    ["Winslet","NNP","winslet"],
    ["Refuses","NNP","refus"],
    ["to","TO","to"],
    ["Hire","NNP","hir"],
    ["a","DT","a"],
    {
      "tag":"GPE",
      "content":
      [
        ["Nanny","NNP","nanny"]
      ]
    },
    [",",",",","],
    ["a","DT","a"],
    {
      "tag":"ORGANIZATION",
      "content":
      [
        ["Housekeeper","NNP","housekeep"]
      ]
    },
    ["Or","CC","Or"],
    ["a","DT","a"],
    {
      "tag":"ORGANIZATION",
      "content":
      [
        ["Trainer","NNP","train"],
        ["Britney","NNP","britney"],
        ["Spears","NNP","spear"]
      ]
    },
    ["on","IN","on"],
    {
      "tag":"PERSON",
      "content":
      [
        ["Miley","NNP","miley"],
        ["Cyrus","NNP","cyr"]
      ]
    },
    [":",":",":"],
    ["‘I","JJ","‘i"],
    ["Think","NNP","think"],
    ["She’s","NNP","she’s"],
    ["Brilliant’","NNP","brilliant’"],
    ["You’ll","NNP","you’ll"],
    ["Never","NNP","nev"],
    ["Believe","NNP","believ"],
    ["What","NNP","what"],
    {
      "tag":"PERSON",
      "content":
      [
        ["Movie","NNP","movy"],
        ["Avril","NNP","avril"],
        ["Lavigne","NNP","lavign"],
        ["Made","NNP","mad"],
        ["Chad","NNP","chad"],
        ["Kroeger","NNP","kroeg"],
        ["Watch","NNP","watch"],
        ["You","NNP","you"]
      ]
    },
    ["might","MD","might"],
    ["also","RB","also"],
    ["like","VB","lik"],
    {
      "tag":"PERSON",
      "content":
      [
        ["Top","NNP","top"],
        ["Stories","NNP","story"]
      ]
    },
    ["on","IN","on"],
    {
      "tag":"ORGANIZATION",
      "content":
      [
        ["ABC","NNP","abc"]
      ]
    },
    ["NewsCollege","NNP","newscolleg"],
    ["Football","NNP","footbal"],
    ["Playoff","NNP","playoff"],
    ["Selection","NNP","select"],
    ["Panel","NNP","panel"],
    {
      "tag":"ORGANIZATION",
      "content":
      [
        ["UnveiledND","NNP","unveilednd"],
        ["Wants","NNP","want"],
        ["Answers","NNP","answ"]
      ]
    },
    ["on","IN","on"],
    {
      "tag":"PERSON",
      "content":
      [
        ["Ruptured","NNP","rupt"],
        ["Pipeline","NNP","pipelin"],
        ["InspectionsStosur","NNP","inspectionsstos"]
      ]
    },
    [",",",",","],
    {
      "tag":"PERSON",
      "content":
      [
        ["Kuznertsova","NNP","kuznertsov"],
        ["Advance","NNP","adv"]
      ]
    },
    ["at","IN","at"],
    {
      "tag":"FACILITY",
      "content":
      [
        ["Kremlin","NNP","kremlin"],
        ["CupOnline","NNP","cuponlin"],
        ["Images","NNP","im"],
        ["Examined","NNP","examin"]
      ]
    },
    ["After","NNP","aft"],
    ["Ohio","NNP","ohio"],
    ["U.","NNP","u."],
    ["Rape","NNP","rap"],
    ["ReportSF-Area","NNP","reportsf-area"],
    {
      "tag":"PERSON",
      "content":
      [
        ["Trains","NNP","train"],
        ["Run","NNP","run"]
      ]
    },
    ["as","IN","as"],
    {
      "tag":"PERSON",
      "content":
      [
        ["Strike","NNP","strike"],
        ["Talks","NNP","talk"],
        ["Drag","NNP","drag"]
      ]
    },
    ["OnSubscribe","NNP","onsubscrib"],
    ["RSS","NNP","rss"],
    ["Twitter","NNP","twit"],
    ["Facebook","NNP","facebook"]
  ]
}]