[
{
  "tag":"S",
  "content":
  [
    ["Try","NNP","try"],
    ["a","DT","a"],
    {
      "tag":"ORGANIZATION",
      "content":
      [
        ["Digital","NNP","digit"],
        ["Subscription","NNP","subscrib"]
      ]
    },
    ["campaign","NN","campaign"],
    [":",":",":"],
    ["inyt2013_bar1_hp_ros_digi_3KXQQ","NNP","inyt2013_bar1_hp_ros_digi_3kxqq"],
    ["--",":","--"],
    ["227471","CD","227471"],
    [",",",",","],
    ["creative","JJ","cre"],
    [":",":",":"],
    ["bar1_ros_inyt_hp_digi_3KXQQ","NNP","bar1_ros_inyt_hp_digi_3kxqq"],
    ["--",":","--"],
    ["351672","CD","351672"],
    [",",",",","],
    ["page","NN","pag"],
    [":",":",":"],
    ["www.nytimes.com/yr/mo/day/movies/anthology-film-archives-celebrates-georges-simenon.html","JJ","www.nytimes.com/yr/mo/day/movies/anthology-film-archives-celebrates-georges-simenon.html"],
    [",",",",","],
    ["targetedPage","NNP","targetedp"],
    [":",":",":"],
    ["www.nytimes.com/yr/mo/day/movies","NNS","www.nytimes.com/yr/mo/day/movies"],
    [",",",",","],
    ["position","NN","posit"],
    [":",":",":"],
    {
      "tag":"ORGANIZATION",
      "content":
      [
        ["Bar1","NNP","bar1"],
        ["Log","NNP","log"]
      ]
    },
    ["In","NNP","in"],
    ["Register","NNP","reg"],
    ["Now","NNP","now"],
    ["Help","NNP","help"],
    ["Home","NNP","hom"],
    ["Page","NNP","pag"],
    ["Today","NNP","today"],
    ["'s","POS","'s"],
    {
      "tag":"PERSON",
      "content":
      [
        ["Paper","NNP","pap"],
        ["Video","NNP","video"],
        ["Most","NNP","most"],
        ["Popular","NNP","popul"]
      ]
    },
    ["Edition","NNP","edit"],
    [":",":",":"],
    {
      "tag":"GPE",
      "content":
      [
        ["U.S.","NNP","u.s."]
      ]
    },
    ["/",":","/"],
    {
      "tag":"PERSON",
      "content":
      [
        ["Global","NNP","glob"],
        ["Search","NNP","search"],
        ["All","NNP","al"]
      ]
    },
    ["NYTimes.com","NNP","nytimes.com"],
    ["Movies","NNPS","movy"],
    ["World","NNP","world"],
    {
      "tag":"GPE",
      "content":
      [
        ["U.S.","NNP","u.s."]
      ]
    },
    ["N.Y.","NNP","n.y."],
    ["/","NNP","/"],
    ["Region","NNP","reg"],
    ["Business","NNP","busy"],
    ["Technology","NNP","technolog"],
    ["Science","NNP","sci"],
    ["Health","NNP","heal"],
    ["Sports","NNP","sport"],
    ["Opinion","NNP","opin"],
    ["Arts","NNP","art"],
    ["Style","NNP","styl"],
    {
      "tag":"PERSON",
      "content":
      [
        ["Travel","NNP","travel"],
        ["Jobs","NNP","job"],
        ["Real","NNP","real"],
        ["Estate","NNP","est"],
        ["Autos","NNP","auto"],
        ["Search","NNP","search"]
      ]
    },
    ["Movies","NNPS","movy"],
    ["or","CC","or"],
    ["Showtimes","NNP","showtim"],
    ["by","IN","by"],
    {
      "tag":"ORGANIZATION",
      "content":
      [
        ["ZIP","NNP","zip"],
        ["Code","NNP","cod"],
        ["More","NNP","mor"]
      ]
    },
    ["in","IN","in"],
    {
      "tag":"GPE",
      "content":
      [
        ["Movies","NNPS","movy"]
      ]
    },
    ["»",":","»"],
    ["In","NNP","in"],
    ["Theaters","NNP","the"],
    ["Coming","NNP","com"],
    ["Soon","NNP","soon"],
    ["Critics","NNP","crit"],
    ["'","POS","'"],
    {
      "tag":"PERSON",
      "content":
      [
        ["Picks","NNP","pick"],
        ["On","NNP","on"]
      ]
    },
    ["DVD","NNP","dvd"],
    ["Tickets","NNP","ticket"],
    ["&","CC","&"],
    {
      "tag":"PERSON",
      "content":
      [
        ["Showtimes","NNP","showtim"],
        ["Trailers","NNP","trail"]
      ]
    },
    ["ArtsBeat","NNP","artsb"],
    ["So","NNP","so"],
    ["Many","NNP","many"],
    ["Movies","NNPS","movy"],
    ["by","IN","by"],
    {
      "tag":"ORGANIZATION",
      "content":
      [
        ["Way","NNP","way"]
      ]
    },
    ["of","IN","of"],
    ["One","CD","One"],
    {
      "tag":"ORGANIZATION",
      "content":
      [
        ["NovelistAnthology","NNP","novelistantholog"],
        ["Film","NNP","film"],
        ["Archives","NNP","arch"],
        ["Celebrates","NNP","celebr"],
        ["Georges","NNP","georg"],
        ["Simenon","NNP","simenon"],
        ["Rialto","NNP","rialto"],
        ["Pictures","NNP","pict"],
        ["Philippe","NNP","philip"],
        ["Noiret","NNP","noiret"]
      ]
    },
    ["in","IN","in"],
    ["a","DT","a"],
    ["scene","NN","scen"],
    ["from","IN","from"],
    ["“The","NNP","“the"],
    ["Clockmaker.”","NNP","clockmaker.”"],
    ["By","NNP","by"],
    {
      "tag":"ORGANIZATION",
      "content":
      [
        ["MIKE","NNP","mik"]
      ]
    },
    ["HALE","NNP","hal"],
    ["Published","NNP","publ"],
    [":",":",":"],
    ["August","NNP","august"],
    ["2","CD","2"],
    [",",",",","],
    ["2013","CD","2013"],
    ["The","DT","The"],
    ["worldwide","NN","worldwid"],
    {
      "tag":"PERSON",
      "content":
      [
        ["Georges","NNS","georg"],
        ["Simenon","NNP","simenon"]
      ]
    },
    ["fan","NN","fan"],
    ["club","NN","club"],
    ["is","VBZ","be"],
    ["large","JJ","larg"],
    ["—","NN","—"],
    ["you","PRP","you"],
    ["don’t","JJ","don’t"],
    ["publish","JJ","publ"],
    ["400","CD","400"],
    ["to","TO","to"],
    ["500","CD","500"],
    ["books","NNS","book"],
    ["during","IN","during"],
    ["your","PRP$","your"],
    ["lifetime","NN","lifetim"],
    ["if","IN","if"],
    ["you’re","JJ","you’re"],
    ["not","RB","not"],
    ["striking","VBG","strike"],
    ["a","DT","a"],
    ["chord","NN","chord"],
    ["—",":","—"],
    ["and","CC","and"],
    ["moviemakers","NNS","moviemak"],
    ["make","VBP","mak"],
    ["up","RP","up"],
    ["one","CD","one"],
    ["of","IN","of"],
    ["its","PRP$","its"],
    ["most","RBS","most"],
    ["active","JJ","act"],
    ["chapters","NNS","chapt"],
    [".",".","."]
  ]
},
{
  "tag":"S",
  "content":
  [
    ["More","JJR","mor"],
    ["than","IN","than"],
    ["120","CD","120"],
    ["feature","NN","feat"],
    ["films","NNS","film"],
    ["and","CC","and"],
    ["at","IN","at"],
    ["least","JJS","least"],
    ["7","CD","7"],
    ["television","NN","televid"],
    ["series","NNS","sery"],
    ["have","VBP","hav"],
    ["been","VBN","be"],
    ["based","VBN","bas"],
    ["on","IN","on"],
    ["novels","NNS","novel"],
    ["and","CC","and"],
    ["short","JJ","short"],
    ["stories","NNS","story"],
    ["by","IN","by"],
    {
      "tag":"PERSON",
      "content":
      [
        ["Simenon","NNP","simenon"]
      ]
    },
    [",",",",","],
    ["the","DT","the"],
    ["prodigious","JJ","prodigy"],
    {
      "tag":"GPE",
      "content":
      [
        ["Belgian","NNP","belg"]
      ]
    },
    ["writer","NN","writ"],
    ["who","WP","who"],
    ["died","VBD","die"],
    ["in","IN","in"],
    ["1989","CD","1989"],
    [".",".","."]
  ]
},
{
  "tag":"S",
  "content":
  [
    ["These","DT","These"],
    ["days","NNS","day"],
    [",",",",","],
    ["entire","JJ","entir"],
    ["studios","NNS","studio"],
    [",",",",","],
    ["networks","NNS","network"],
    ["and","CC","and"],
    ["streaming-video","NNP","streaming-video"],
    ["services","NNS","serv"],
    ["are","VBP","be"],
    ["built","VBN","build"],
    ["on","IN","on"],
    ["less","JJR","less"],
    ["content","NN","cont"],
    ["than","IN","than"],
    ["that","DT","that"],
    [".",".","."]
  ]
},
{
  "tag":"S",
  "content":
  [
    {
      "tag":"GPE",
      "content":
      [
        ["Enlarge","NNP","enlarg"]
      ]
    },
    ["This","DT","This"],
    ["Image","NNP","im"],
    ["Agence","NNP","ag"],
    ["France-Presse","NNP","france-press"],
    {
      "tag":"PERSON",
      "content":
      [
        ["Georges","NNP","georg"],
        ["Simenon","NNP","simenon"]
      ]
    },
    ["in","IN","in"],
    ["1989","CD","1989"],
    [".",".","."]
  ]
},
{
  "tag":"S",
  "content":
  [
    {
      "tag":"GPE",
      "content":
      [
        ["Enlarge","NNP","enlarg"]
      ]
    },
    ["This","DT","This"],
    ["Image","NNP","im"],
    ["Anthology","NNP","antholog"],
    ["Film","NNP","film"],
    {
      "tag":"PERSON",
      "content":
      [
        ["Archives","NNP","arch"],
        ["Alexandre","NNP","alexandr"],
        ["Rignault","NNP","rignault"]
      ]
    },
    [",",",",","],
    ["left","VBD","leav"],
    [",",",",","],
    ["and","CC","and"],
    {
      "tag":"PERSON",
      "content":
      [
        ["Harry","NNP","harry"],
        ["Baur","NNP","baur"]
      ]
    },
    ["in","IN","in"],
    ["“A","NNP","“a"],
    ["Man’s","NNP","man’s"],
    ["Neck","NNP","neck"],
    [",",",",","],
    ["”","NNP","”"],
    ["from","IN","from"],
    ["1933","CD","1933"],
    [".",".","."]
  ]
},
{
  "tag":"S",
  "content":
  [
    {
      "tag":"PERSON",
      "content":
      [
        ["Anthology","NNP","antholog"]
      ]
    },
    {
      "tag":"ORGANIZATION",
      "content":
      [
        ["Film","NNP","film"],
        ["Archives","NNP","arch"]
      ]
    },
    ["in","IN","in"],
    ["the","DT","the"],
    {
      "tag":"LOCATION",
      "content":
      [
        ["East","NNP","east"],
        ["Village","NNP","vil"]
      ]
    },
    ["is","VBZ","be"],
    ["celebrating","VBG","celebr"],
    ["that","IN","that"],
    ["prodigious","JJ","prodigy"],
    ["output","NN","output"],
    ["with","IN","with"],
    ["Cine-Simenon","JJ","cine-simenon"],
    [",",",",","],
    ["a","DT","a"],
    ["series","NN","sery"],
    ["of","IN","of"],
    ["14","CD","14"],
    ["features","NNS","feat"],
    [",",",",","],
    ["beginning","NN","begin"],
    ["on","IN","on"],
    ["Thursday","NNP","thursday"],
    ["and","CC","and"],
    ["running","VBG","run"],
    ["through","IN","through"],
    ["Aug.","NNP","aug."],
    ["21","CD","21"],
    [",",",",","],
    ["that","IN","that"],
    ["explores","NNS","expl"],
    ["what","WP","what"],
    ["filmmakers","NNS","filmmak"],
    ["have","VBP","hav"],
    ["found","VBN","find"],
    ["in","IN","in"],
    ["Simenon’s","NNP","simenon’s"],
    ["work","NN","work"],
    ["as","IN","as"],
    ["well","RB","wel"],
    ["as","IN","as"],
    ["the","DT","the"],
    ["many","JJ","many"],
    ["ways","NNS","way"],
    ["they","PRP","they"],
    ["have","VBP","hav"],
    ["made","VBN","mak"],
    ["use","NN","us"],
    ["of","IN","of"],
    ["it","PRP","it"],
    [".",".","."]
  ]
},
{
  "tag":"S",
  "content":
  [
    ["The","DT","The"],
    ["qualities","NNS","qual"],
    ["that","WDT","that"],
    ["make","VBP","mak"],
    ["his","PRP$","his"],
    ["books","NNS","book"],
    ["camera","NN","camer"],
    ["friendly","RB","friend"],
    ["—",".","—"],
    ["in","IN","in"],
    ["both","DT","both"],
    ["his","PRP$","his"],
    ["Inspector","NNP","inspect"],
    ["Maigret","NNP","maigret"],
    ["mystery","NN","mystery"],
    ["stories","NNS","story"],
    ["and","CC","and"],
    ["the","DT","the"],
    ["nongenre","NN","nongenr"],
    ["works","VBZ","work"],
    ["he","PRP","he"],
    ["called","VBD","cal"],
    ["romans","NNS","rom"],
    ["durs","NNS","dur"],
    [",",",",","],
    ["or","CC","or"],
    ["hard","RB","hard"],
    ["novels","VBZ","novel"],
    ["—",":","—"],
    ["are","VBP","be"],
    ["easy","JJ","easy"],
    ["to","TO","to"],
    ["see","VB","see"],
    [".",".","."]
  ]
},
{
  "tag":"S",
  "content":
  [
    ["They’re","JJ","they’re"],
    ["brilliantly","RB","bril"],
    ["assembled","VBN","assembl"],
    [",",",",","],
    ["brutally","RB","brut"],
    ["effective","JJ","effect"],
    [",",",",","],
    ["airtight","NN","airtight"],
    ["machines","NNS","machin"],
    ["of","IN","of"],
    ["plot","NN","plot"],
    ["and","CC","and"],
    ["observation","NN","observ"],
    ["in","IN","in"],
    ["which","WDT","which"],
    ["ordinary","JJ","ordin"],
    ["weaknesses","NNS","weak"],
    ["and","CC","and"],
    ["desires","NNS","desir"],
    ["have","VBP","hav"],
    ["inevitably","RB","inevit"],
    ["dire","JJ","dir"],
    ["consequences","NNS","consequ"],
    [".",".","."]
  ]
},
{
  "tag":"S",
  "content":
  [
    ["They","PRP","They"],
    ["may","MD","may"],
    ["not","RB","not"],
    ["lend","VB","lend"],
    ["themselves","PRP","themselves"],
    ["to","TO","to"],
    ["blockbusters","NNS","blockbust"],
    [",",",",","],
    ["but","CC","but"],
    ["as","IN","as"],
    ["early","JJ","ear"],
    ["as","IN","as"],
    ["the","DT","the"],
    ["1930s","CD","1930s"],
    ["and","CC","and"],
    ["’40s","CD","’40s"],
    [",",",",","],
    ["blue-chip","JJ","blue-chip"],
    {
      "tag":"GPE",
      "content":
      [
        ["French","JJ","french"]
      ]
    },
    ["screenwriters","NNS","screenwriter"],
    ["and","CC","and"],
    ["directors","NNS","direct"],
    ["like","IN","like"],
    {
      "tag":"PERSON",
      "content":
      [
        ["Jean","NNP","jean"],
        ["Renoir","NNP","renoir"]
      ]
    },
    ["(","NNP","("],
    ["“Night","NNP","“night"],
    ["at","IN","at"],
    ["the","DT","the"],
    ["Crossroads”","NNP","crossroads”"],
    [")","NNP",")"],
    [",",",",","],
    ["Henri-Georges","NNS","henri-georges"],
    {
      "tag":"PERSON",
      "content":
      [
        ["Clouzot","NNP","clouzot"]
      ]
    },
    ["(","NNP","("],
    ["“Strangers","NNP","“strangers"],
    ["in","IN","in"],
    ["the","DT","the"],
    ["House”","NN","house”"],
    [")",":",")"],
    ["and","CC","and"],
    {
      "tag":"PERSON",
      "content":
      [
        ["Julien","NNP","july"],
        ["Duvivier","NNP","duvivy"]
      ]
    },
    ["(","NNP","("],
    ["“Panic”","NNP","“panic”"],
    [")","NNP",")"],
    ["recognized","VBD","recogn"],
    ["their","PRP$","their"],
    ["appeal","NN","ap"],
    [".",".","."]
  ]
},
{
  "tag":"S",
  "content":
  [
    ["Those","DT","Those"],
    ["films","NNS","film"],
    ["aren’t","JJ","aren’t"],
    ["in","IN","in"],
    ["Cine-Simenon","JJ","cine-simenon"],
    ["—","NN","—"],
    {
      "tag":"PERSON",
      "content":
      [
        ["Jed","NNP","jed"],
        ["Rapfogel","NNP","rapfogel"]
      ]
    },
    [",",",",","],
    ["Anthology’s","NNP","anthology’s"],
    ["programmer","NN","program"],
    [",",",",","],
    ["said","VBD","say"],
    ["by","IN","by"],
    ["e-mail","JJ","e-mail"],
    ["that","IN","that"],
    ["it","PRP","it"],
    ["was","VBD","be"],
    ["“heartbreaking”","JJ","“heartbreaking”"],
    ["that","IN","that"],
    ["the","DT","the"],
    {
      "tag":"GPE",
      "content":
      [
        ["Renoir","NNP","renoir"]
      ]
    },
    ["film","NN","film"],
    ["was","VBD","be"],
    ["too","RB","too"],
    ["expensive","JJ","expend"],
    ["for","IN","for"],
    ["the","DT","the"],
    ["repertory","NN","repert"],
    ["house","NN","hous"],
    ["to","TO","to"],
    ["rent","NN","rent"],
    ["—",":","—"],
    ["but","CC","but"],
    ["the","DT","the"],
    ["program","NN","program"],
    ["has","VBZ","hav"],
    ["its","PRP$","its"],
    ["luminaries","NNS","lumin"],
    [",",",",","],
    ["like","IN","like"],
    {
      "tag":"PERSON",
      "content":
      [
        ["Marcel","NNP","marcel"],
        ["Carné","NNP","carné"]
      ]
    },
    [",",",",","],
    ["represented","VBD","repres"],
    ["by","IN","by"],
    ["the","DT","the"],
    ["slyly","RB","sly"],
    ["cynical","JJ","cyn"],
    ["1950","CD","1950"],
    ["romance","NN","rom"],
    ["“La","NN","“la"],
    {
      "tag":"PERSON",
      "content":
      [
        ["Marie","NNP","mary"]
      ]
    },
    ["du","NN","du"],
    ["Port”","-NONE-","Port”"],
    ["starring","VBG","star"],
    {
      "tag":"PERSON",
      "content":
      [
        ["Jean","NNP","jean"],
        ["Gabin","NNP","gabin"]
      ]
    },
    [",",",",","],
    ["and","CC","and"],
    {
      "tag":"PERSON",
      "content":
      [
        ["Claude","NNP","claud"],
        ["Chabrol","NNP","chabrol"]
      ]
    },
    [",",",",","],
    ["with","IN","with"],
    ["the","DT","the"],
    ["chic","JJ","chic"],
    ["and","CC","and"],
    ["bleak","NN","bleak"],
    ["“Betty”","NN","“betty”"],
    ["(",":","("],
    ["1992","CD","1992"],
    [")","CD",")"],
    [".",".","."]
  ]
},
{
  "tag":"S",
  "content":
  [
    {
      "tag":"GPE",
      "content":
      [
        ["Duvivier","NNP","duvivy"]
      ]
    },
    ["is","VBZ","be"],
    ["here","RB","her"],
    [",",",",","],
    ["too","RB","too"],
    [",",",",","],
    ["with","IN","with"],
    ["“A","NNP","“a"],
    ["Man’s","NNP","man’s"],
    ["Neck”","NNP","neck”"],
    ["(","NNP","("],
    ["1933","CD","1933"],
    [")","CD",")"],
    [",",",",","],
    ["one","CD","one"],
    ["of","IN","of"],
    ["two","CD","two"],
    ["films","NNS","film"],
    ["in","IN","in"],
    ["the","DT","the"],
    ["series","NN","sery"],
    ["based","VBN","bas"],
    ["on","IN","on"],
    ["the","DT","the"],
    ["same","JJ","sam"],
    ["novel","NN","novel"],
    [",",",",","],
    ["“La","NNP","“la"],
    ["Tête","NNP","tête"],
    ["d’un","NNP","d’un"],
    ["Homme.”","NNP","homme.”"],
    ["(","NNP","("],
    ["They’re","NNP","they’re"],
    ["the","DT","the"],
    ["only","JJ","on"],
    ["Maigret","NNP","maigret"],
    ["stories","NNS","story"],
    ["that","WDT","that"],
    ["were","VBD","be"],
    ["chosen","VBN","choos"],
    [".",".","."]
  ]
},
{
  "tag":"S",
  "content":
  [
    ["“It’s","NNS","“it’s"],
    ["true","VBP","tru"],
    ["that","IN","that"],
    ["I","PRP","I"],
    ["am","VBP","be"],
    ["partial","JJ","part"],
    ["to","TO","to"],
    ["Simenon’s","NNP","simenon’s"],
    ["romans","NNS","rom"],
    ["durs","NNS","dur"],
    [",",",",","],
    ["”",":","”"],
    {
      "tag":"PERSON",
      "content":
      [
        ["Mr.","NNP","mr."],
        ["Rapfogel","NNP","rapfogel"]
      ]
    },
    ["wrote","VBD","writ"],
    [".",".","."]
  ]
},
{
  "tag":"S",
  "content":
  [
    [")","NN",")"],
    ["Aside","NNP","asid"],
    ["from","IN","from"],
    ["the","DT","the"],
    ["sheer","NN","she"],
    ["pleasure","NN","pleas"],
    ["of","IN","of"],
    ["seeing","VBG","see"],
    ["these","DT","these"],
    ["stories","NNS","story"],
    ["in","IN","in"],
    ["action","NN","act"],
    [",",",",","],
    ["the","DT","the"],
    ["value","NN","valu"],
    ["of","IN","of"],
    ["Cine-Simenon","JJ","cine-simenon"],
    ["lies","NNS","lie"],
    ["in","IN","in"],
    ["its","PRP$","its"],
    ["variety","NN","vary"],
    [",",",",","],
    ["a","DT","a"],
    ["demonstration","NN","demonst"],
    ["of","IN","of"],
    ["the","DT","the"],
    ["writer’s","JJ","writer’s"],
    ["wide","NN","wid"],
    ["reach","NN","reach"],
    ["across","IN","across"],
    ["genres","NNS","genr"],
    [",",",",","],
    ["borders","NNS","bord"],
    ["and","CC","and"],
    ["temperaments","NNS","tempera"],
    [".",".","."]
  ]
},
{
  "tag":"S",
  "content":
  [
    ["The","DT","The"],
    ["14","CD","14"],
    ["films","NNS","film"],
    ["represent","VBP","repres"],
    ["five","CD","five"],
    ["countries","NNS","country"],
    ["(",":","("],
    {
      "tag":"GPE",
      "content":
      [
        ["France","NNP","frant"]
      ]
    },
    [",",",",","],
    {
      "tag":"GPE",
      "content":
      [
        ["Britain","NNP","britain"]
      ]
    },
    [",",",",","],
    ["the","DT","the"],
    {
      "tag":"GPE",
      "content":
      [
        ["United","NNP","unit"],
        ["States","NNPS","stat"]
      ]
    },
    [",",",",","],
    {
      "tag":"GPE",
      "content":
      [
        ["Mexico","NNP","mexico"]
      ]
    },
    ["and","CC","and"],
    {
      "tag":"GPE",
      "content":
      [
        ["Hungary","NNP","hung"]
      ]
    },
    [")","NNP",")"],
    ["and","CC","and"],
    ["range","NN","rang"],
    ["from","IN","from"],
    ["traditional","JJ","tradit"],
    ["detective","JJ","detect"],
    ["tale","NN","tal"],
    ["to","TO","to"],
    ["gangster","VB","gangst"],
    ["drama","NN","dram"],
    [",",",",","],
    ["romance","NN","rom"],
    [",",",",","],
    ["psychological","JJ","psycholog"],
    ["thriller","NN","thriller"],
    [",",",",","],
    ["a","DT","a"],
    ["war","NN","war"],
    ["story","NN","story"],
    ["and","CC","and"],
    ["even","RB","ev"],
    ["a","DT","a"],
    ["modern","JJ","modern"],
    ["western","NN","western"],
    [".",".","."]
  ]
},
{
  "tag":"S",
  "content":
  [
    ["Despite","IN","Despite"],
    ["the","DT","the"],
    ["differences","NNS","diff"],
    [",",",",","],
    ["though","IN","though"],
    ["—","NNP","—"],
    ["and","CC","and"],
    ["it’s","NNP","it’s"],
    ["a","DT","a"],
    ["long","JJ","long"],
    ["way","NN","way"],
    ["from","IN","from"],
    ["the","DT","the"],
    ["repressed","VBN","repress"],
    {
      "tag":"GPE",
      "content":
      [
        ["American","NNP","am"]
      ]
    },
    ["melodrama","NN","melodram"],
    ["of","IN","of"],
    {
      "tag":"PERSON",
      "content":
      [
        ["Henry","NNP","henry"]
      ]
    },
    ["Hathaway’s","NNP","hathaway’s"],
    ["“Bottom","NNP","“bottom"],
    ["of","IN","of"],
    ["the","DT","the"],
    ["Bottle”","JJ","bottle”"],
    ["(","NN","("],
    ["1956","CD","1956"],
    [")","CD",")"],
    ["to","TO","to"],
    {
      "tag":"PERSON",
      "content":
      [
        ["Bertrand","NNP","bertrand"]
      ]
    },
    ["Tavernier’s","NNP","tavernier’s"],
    ["debut","CC","debut"],
    ["feature","NN","feat"],
    [",",",",","],
    ["“The","NNP","“the"],
    ["Clockmaker”","NNP","clockmaker”"],
    ["(","NNP","("],
    ["1974","CD","1974"],
    [")","CD",")"],
    [",",",",","],
    ["a","DT","a"],
    ["murder","NN","murd"],
    ["mystery","NN","mystery"],
    ["saturated","VBD","sat"],
    ["in","IN","in"],
    ["post-1968","-NONE-","post-1968"],
    {
      "tag":"GPE",
      "content":
      [
        ["French","JJ","french"]
      ]
    },
    ["politics","NNS","polit"],
    ["and","CC","and"],
    ["ideology","NN","ideolog"],
    ["—",":","—"],
    ["Simenon’s","JJ","simenon’s"],
    ["characteristic","JJ","charact"],
    ["themes","NNS","them"],
    ["crop","NN","crop"],
    ["up","RB","up"],
    ["in","IN","in"],
    ["film","NN","film"],
    ["after","IN","after"],
    ["film","NN","film"],
    [".",".","."]
  ]
},
{
  "tag":"S",
  "content":
  [
    ["As","IN","As"],
    ["different","JJ","diff"],
    ["as","IN","as"],
    ["the","DT","the"],
    {
      "tag":"ORGANIZATION",
      "content":
      [
        ["Hathaway","NNP","hathaway"]
      ]
    },
    ["and","CC","and"],
    {
      "tag":"ORGANIZATION",
      "content":
      [
        ["Tavernier","NNP","taverny"]
      ]
    },
    ["movies","NNS","movy"],
    ["are","VBP","be"],
    ["on","IN","on"],
    ["the","DT","the"],
    ["surface","NN","surfac"],
    [",",",",","],
    ["they’re","JJ","they’re"],
    ["both","DT","both"],
    ["fundamentally","RB","funda"],
    ["about","IN","about"],
    ["family","NN","famy"],
    ["members","NNS","memb"],
    ["(","VBP","("],
    ["brothers","NNS","broth"],
    ["in","IN","in"],
    ["“Bottom","JJ","“bottom"],
    ["of","IN","of"],
    ["the","DT","the"],
    {
      "tag":"GPE",
      "content":
      [
        ["Bottle","NNP","bottl"]
      ]
    },
    [",",",",","],
    ["”","NNP","”"],
    ["a","DT","a"],
    ["father","NN","fath"],
    ["and","CC","and"],
    ["son","NN","son"],
    ["in","IN","in"],
    ["“The","NNP","“the"],
    ["Clockmaker”","NNP","clockmaker”"],
    [")","NNP",")"],
    ["whose","WP$","whose"],
    ["resentments","NNS","res"],
    ["and","CC","and"],
    ["failures","NNS","fail"],
    ["of","IN","of"],
    ["communication","NN","commun"],
    ["lead","NN","lead"],
    ["to","TO","to"],
    ["tragedy","JJ","tragedy"],
    [".",".","."]
  ]
},
{
  "tag":"S",
  "content":
  [
    ["The","DT","The"],
    ["same","JJ","sam"],
    ["dynamic","JJ","dynam"],
    ["plays","NNS","play"],
    ["out","IN","out"],
    ["between","IN","between"],
    ["husbands","NNS","husband"],
    ["and","CC","and"],
    ["wives","NNS","wif"],
    ["in","IN","in"],
    ["Cédric","JJ","cédric"],
    ["Kahn’s","NNS","kahn’s"],
    ["“Red","JJ","“red"],
    ["Lights”","NN","lights”"],
    ["(",":","("],
    ["2004","CD","2004"],
    [")","CD",")"],
    ["and","CC","and"],
    [",",",",","],
    ["to","TO","to"],
    ["more","JJR","mor"],
    ["comic","JJ","com"],
    ["effect","NN","effect"],
    [",",",",","],
    ["in","IN","in"],
    ["“La","NNP","“la"],
    {
      "tag":"PERSON",
      "content":
      [
        ["Marie","NNP","mary"]
      ]
    },
    ["du","NN","du"],
    ["Port.”","-NONE-","Port.”"],
    ["Another","DT","Another"],
    ["notable","JJ","not"],
    ["Simenon","NNP","simenon"],
    ["motif","IN","motif"],
    ["is","VBZ","be"],
    ["alcohol","NN","alcohol"],
    [".",".","."]
  ]
},
{
  "tag":"S",
  "content":
  [
    ["It’s","NNS","it’s"],
    ["a","DT","a"],
    ["major","JJ","maj"],
    ["factor","NN","fact"],
    ["in","IN","in"],
    ["“The","NNP","“the"],
    ["Bottom","NNP","bottom"],
    ["of","IN","of"],
    ["the","DT","the"],
    {
      "tag":"GPE",
      "content":
      [
        ["Bottle","NNP","bottl"]
      ]
    },
    [",",",",","],
    ["”","NNP","”"],
    ["in","IN","in"],
    ["which","WDT","which"],
    ["the","DT","the"],
    ["escaped","VBD","escap"],
    ["convict","NN","convict"],
    ["played","VBN","play"],
    ["by","IN","by"],
    {
      "tag":"PERSON",
      "content":
      [
        ["Van","NNP","van"],
        ["Johnson","NNP","johnson"]
      ]
    },
    ["fights","NNS","fight"],
    ["to","TO","to"],
    ["stay","VB","stay"],
    ["dry","JJ","dry"],
    ["in","IN","in"],
    ["the","DT","the"],
    ["boozy","NN","boozy"],
    ["environs","NNS","environ"],
    ["of","IN","of"],
    ["the","DT","the"],
    ["1950s","CD","1950s"],
    {
      "tag":"ORGANIZATION",
      "content":
      [
        ["American","NNP","am"],
        ["West","NNP","west"]
      ]
    },
    [";",":",";"],
    ["“Betty","JJ","“betty"],
    [",",",",","],
    ["”",":","”"],
    ["in","IN","in"],
    ["which","WDT","which"],
    ["a","DT","a"],
    ["poor","JJ","poor"],
    ["childhood","NN","child"],
    ["and","CC","and"],
    ["a","DT","a"],
    ["stifling","NN","stifl"],
    ["marriage","NN","marry"],
    ["drive","VBP","driv"],
    ["the","DT","the"],
    ["heroine","NN","heroin"],
    ["to","TO","to"],
    ["seek","VB","seek"],
    ["freedom","NN","freedom"],
    ["in","IN","in"],
    ["alcohol","NN","alcohol"],
    ["and","CC","and"],
    ["sex","NN","sex"],
    [";",":",";"],
    ["and","CC","and"],
    ["“Red","JJ","“red"],
    ["Lights","NNS","light"],
    [",",",",","],
    ["”",":","”"],
    ["in","IN","in"],
    ["which","WDT","which"],
    ["Jean-Pierre","-NONE-","Jean-Pierre"],
    {
      "tag":"PERSON",
      "content":
      [
        ["Darroussin","NNP","darroussin"]
      ]
    },
    ["gives","VBZ","giv"],
    ["a","DT","a"],
    ["wonderfully","RB","wond"],
    ["focused","VBN","foc"],
    ["performance","NN","perform"],
    ["as","IN","as"],
    ["a","DT","a"],
    ["husband","NN","husband"],
    ["whose","WP$","whose"],
    ["simmering","VBG","sim"],
    ["belligerence","NN","bellig"],
    ["emerges","NNS","emerg"],
    ["as","IN","as"],
    ["crazy","JJ","crazy"],
    [",",",",","],
    ["frightening","VBG","fright"],
    ["theater","NN","the"],
    ["when","WRB","when"],
    ["he","PRP","he"],
    ["drives","VBZ","driv"],
    ["drunk","NN","drunk"],
    [".",".","."]
  ]
},
{
  "tag":"S",
  "content":
  [
    ["Simenon’s","NNS","simenon’s"],
    ["attention","NN","at"],
    ["to","TO","to"],
    ["geography","NN","geograph"],
    ["is","VBZ","be"],
    ["apparent","JJ","app"],
    ["on","IN","on"],
    ["an","DT","an"],
    ["intimate","JJ","intim"],
    ["scale","NN","scal"],
    ["in","IN","in"],
    ["the","DT","the"],
    ["apartment-house","JJ","apartment-house"],
    ["layouts","NNS","layout"],
    ["in","IN","in"],
    ["“The","NNP","“the"],
    ["Clockmaker”","NNP","clockmaker”"],
    ["and","CC","and"],
    {
      "tag":"PERSON",
      "content":
      [
        ["Patrice","NNP","pat"]
      ]
    },
    ["Leconte’s","NNP","leconte’s"],
    ["“Monsieur","NNP","“monsieur"],
    ["Hire”","NNP","hire”"],
    ["(","NNP","("],
    ["1989","CD","1989"],
    [")","CD",")"],
    ["and","CC","and"],
    ["on","IN","on"],
    ["a","DT","a"],
    ["larger","JJR","larg"],
    ["scale","NN","scal"],
    ["in","IN","in"],
    ["the","DT","the"],
    ["border-crossing","JJ","border-crossing"],
    ["story","NN","story"],
    ["of","IN","of"],
    ["“The","NNP","“the"],
    ["Bottom","NNP","bottom"],
    ["of","IN","of"],
    ["the","DT","the"],
    ["Bottle”","JJ","bottle”"],
    ["and","CC","and"],
    ["the","DT","the"],
    ["cat-and-mouse","JJ","cat-and-mouse"],
    ["pursuit","NN","pursuit"],
    ["of","IN","of"],
    ["a","DT","a"],
    ["killer","NN","kil"],
    ["across","IN","across"],
    {
      "tag":"GPE",
      "content":
      [
        ["Mexico","NNP","mexico"],
        ["City","NNP","city"]
      ]
    },
    ["in","IN","in"],
    ["“A","NNP","“a"],
    ["Life","NNP","lif"],
    ["in","IN","in"],
    ["the","DT","the"],
    ["Balance”","NN","balance”"],
    ["(",":","("],
    ["1955","CD","1955"],
    [")","CD",")"],
    [",",",",","],
    ["an","DT","an"],
    ["American-Mexican","JJ","american-mexic"],
    ["coproduction","NN","coproduc"],
    ["directed","VBD","direct"],
    ["by","IN","by"],
    {
      "tag":"PERSON",
      "content":
      [
        ["Harry","NNP","harry"],
        ["Horner","NNP","horn"]
      ]
    },
    ["and","CC","and"],
    {
      "tag":"PERSON",
      "content":
      [
        ["Rafael","NNP","rafael"],
        ["Portillo","NNP","portillo"]
      ]
    },
    [".",".","."]
  ]
},
{
  "tag":"S",
  "content":
  [
    ["Transportation","NNP","transport"],
    ["by","IN","by"],
    ["car","NN","car"],
    ["or","CC","or"],
    ["train","VB","train"],
    ["is","VBZ","be"],
    ["vital","JJ","vit"],
    ["to","TO","to"],
    ["many","JJ","many"],
    ["of","IN","of"],
    ["the","DT","the"],
    ["films","NNS","film"],
    [",",",",","],
    ["including","VBG","includ"],
    ["“Red","JJ","“red"],
    ["Lights","NNS","light"],
    [",",",",","],
    ["”",":","”"],
    {
      "tag":"PERSON",
      "content":
      [
        ["Harold","NNP","harold"],
        ["French’s","NNP","french’s"]
      ]
    },
    ["“Man","NNP","“man"],
    ["Who","NNP","who"],
    {
      "tag":"PERSON",
      "content":
      [
        ["Watched","NNP","watch"],
        ["Trains","NNP","train"],
        ["Go","NNP","go"]
      ]
    },
    ["By”","NNP","by”"],
    ["(","NNP","("],
    ["1952","CD","1952"],
    [")","CD",")"],
    ["and","CC","and"],
    {
      "tag":"PERSON",
      "content":
      [
        ["Pierre","NNP","pier"]
      ]
    },
    ["Granier-Deferre’s","NNP","granier-deferre’s"],
    ["“Last","NNP","“last"],
    ["Train”","NNP","train”"],
    ["(","NNP","("],
    ["1973","CD","1973"],
    [")","CD",")"],
    [",",",",","],
    ["a","DT","a"],
    ["story","NN","story"],
    ["of","IN","of"],
    ["World","NNP","world"],
    ["War","NNP","war"],
    ["II","NNP","ii"],
    ["refugees","VBZ","refug"],
    ["starring","VBG","star"],
    ["Jean-Louis","NNS","jean-louis"],
    ["Trintignant","NNP","trintign"],
    [".",".","."]
  ]
},
{
  "tag":"S",
  "content":
  [
    ["Given","RB","giv"],
    ["the","DT","the"],
    ["dense","NN","dens"],
    ["plotting","VBG","plot"],
    ["and","CC","and"],
    ["the","DT","the"],
    ["acute","NN","acut"],
    [",",",",","],
    ["seemingly","RB","seem"],
    ["effortless","NN","effortless"],
    ["psychological","JJ","psycholog"],
    ["realism","NN","real"],
    ["of","IN","of"],
    ["Simenon’s","JJ","simenon’s"],
    ["books","NNS","book"],
    [",",",",","],
    ["it’s","NNP","it’s"],
    ["not","RB","not"],
    ["really","RB","real"],
    ["a","DT","a"],
    ["criticism","NN","crit"],
    ["of","IN","of"],
    ["the","DT","the"],
    {
      "tag":"ORGANIZATION",
      "content":
      [
        ["Anthology","NNP","antholog"],
        ["Archives","NNP","arch"]
      ]
    },
    ["series","NN","sery"],
    ["to","TO","to"],
    ["say","VB","say"],
    ["that","IN","that"],
    ["another","DT","another"],
    ["thing","NN","thing"],
    ["it","PRP","it"],
    ["reflects","VBZ","reflect"],
    ["is","VBZ","be"],
    ["the","DT","the"],
    ["hopelessness","NN","hopeless"],
    ["of","IN","of"],
    ["capturing","VBG","capt"],
    ["them","PRP","them"],
    ["on","IN","on"],
    ["screen","NN","screen"],
    ["with","IN","with"],
    ["any","DT","any"],
    ["real","JJ","real"],
    ["fidelity","NN","fidel"],
    [".",".","."]
  ]
},
{
  "tag":"S",
  "content":
  [
    ["(","NN","("],
    ["The","DT","The"],
    ["one","CD","one"],
    ["exception","NN","exceiv"],
    ["may","MD","may"],
    ["be","VB","be"],
    ["Duvivier’s","NNS","duvivier’s"],
    ["“Man’s","-NONE-","“Man’s"],
    ["Neck","NNP","neck"],
    [",",",",","],
    ["”","NNP","”"],
    ["based","VBN","bas"],
    ["on","IN","on"],
    ["a","DT","a"],
    ["relatively","RB","rel"],
    ["lighter","JJ","light"],
    {
      "tag":"ORGANIZATION",
      "content":
      [
        ["Maigret","NNP","maigret"]
      ]
    },
    ["novel","NN","novel"],
    [",",",",","],
    ["though","IN","though"],
    ["even","RB","ev"],
    ["there","EX","there"],
    ["the","DT","the"],
    ["story","NN","story"],
    ["is","VBZ","be"],
    ["rejiggered","VBN","rejig"],
    ["in","IN","in"],
    ["chronological","JJ","chronological"],
    ["fashion","NN","fash"],
    ["and","CC","and"],
    ["the","DT","the"],
    ["book’s","NNP","book’s"],
    ["dramatic","JJ","dram"],
    ["opening","VBG","op"],
    ["scene","NN","scen"],
    ["is","VBZ","be"],
    ["jettisoned","VBN","jettison"],
    [".",".","."]
  ]
},
{
  "tag":"S",
  "content":
  [
    [")","NN",")"],
    ["Most","RBS","most"],
    ["obvious","JJ","obvy"],
    ["are","VBP","be"],
    ["the","DT","the"],
    ["softer","JJR","soft"],
    ["or","CC","or"],
    ["more","JJR","mor"],
    ["heroic","JJ","hero"],
    ["endings","NNS","end"],
    ["given","VBN","giv"],
    ["to","TO","to"],
    ["a","DT","a"],
    ["number","NN","numb"],
    ["of","IN","of"],
    ["the","DT","the"],
    ["films","NNS","film"],
    [".",".","."]
  ]
},
{
  "tag":"S",
  "content":
  [
    ["Without","IN","Without"],
    ["completely","RB","complet"],
    ["changing","VBG","chang"],
    ["the","DT","the"],
    ["tenor","NN","ten"],
    ["of","IN","of"],
    ["the","DT","the"],
    ["stories","NNS","story"],
    [",",",",","],
    ["writers","NNS","writ"],
    [",",",",","],
    ["directors","NNS","direct"],
    ["or","CC","or"],
    ["producers","NNS","produc"],
    ["found","VBD","find"],
    ["ways","NNS","way"],
    ["to","TO","to"],
    ["lighten","VB","light"],
    ["or","CC","or"],
    ["moralize","VB","mor"],
    ["conclusions","NNS","conclud"],
    [".",".","."]
  ]
},
{
  "tag":"S",
  "content":
  [
    ["Interestingly","RB","interest"],
    [",",",",","],
    ["while","IN","while"],
    ["this","DT","this"],
    ["can","MD","can"],
    ["mean","VB","mean"],
    ["that","IN","that"],
    ["someone","NN","someon"],
    ["who","WP","who"],
    ["dies","NNS","dy"],
    ["in","IN","in"],
    ["the","DT","the"],
    ["book","NN","book"],
    ["doesn’t","NN","doesn’t"],
    ["die","VB","die"],
    ["in","IN","in"],
    ["the","DT","the"],
    ["film","NN","film"],
    ["(",":","("],
    ["“The","JJ","“the"],
    ["Bottom","NNP","bottom"],
    ["of","IN","of"],
    ["the","DT","the"],
    ["Bottle”","JJ","bottle”"],
    [")","NN",")"],
    [",",",",","],
    ["it","PRP","it"],
    ["more","JJR","mor"],
    ["often","RB","oft"],
    ["means","VBZ","mean"],
    ["that","IN","that"],
    ["someone","NN","someon"],
    ["who","WP","who"],
    ["walked","VBN","walk"],
    ["away","RB","away"],
    ["in","IN","in"],
    ["the","DT","the"],
    ["book","NN","book"],
    ["is","VBZ","be"],
    ["killed","VBN","kil"],
    ["or","CC","or"],
    ["condemned","VBN","condemn"],
    ["in","IN","in"],
    ["the","DT","the"],
    ["film","NN","film"],
    ["(",":","("],
    ["“Red","JJ","“red"],
    ["Lights","NNS","light"],
    [",",",",","],
    ["”",":","”"],
    ["“The","DT","“The"],
    ["Last","JJ","last"],
    ["Train","NNP","train"],
    [",",",",","],
    ["”","NNP","”"],
    {
      "tag":"PERSON",
      "content":
      [
        ["Phil","NNP","phil"]
      ]
    },
    ["Karlson’s","NNP","karlson’s"],
    ["B-movie","NNP","b-movie"],
    ["gangster","NN","gangst"],
    ["noir","NN","noir"],
    ["“The","NN","“the"],
    {
      "tag":"ORGANIZATION",
      "content":
      [
        ["Brothers","NNPS","broth"]
      ]
    },
    ["Rico”","NNP","rico”"],
    ["from","IN","from"],
    ["1957","CD","1957"],
    [")","CD",")"],
    [".",".","."]
  ]
},
{
  "tag":"S",
  "content":
  [
    ["The","DT","The"],
    {
      "tag":"ORGANIZATION",
      "content":
      [
        ["Simenon","NNP","simenon"]
      ]
    },
    ["connection","NN","connect"],
    ["doesn’t","NN","doesn’t"],
    ["necessarily","RB","necess"],
    ["make","VB","mak"],
    ["every","DT","every"],
    ["film","NN","film"],
    ["in","IN","in"],
    ["Cine-Simenon","NNP","cine-simenon"],
    ["worth","NN","wor"],
    ["watching","VBG","watch"],
    [".",".","."]
  ]
},
{
  "tag":"S",
  "content":
  [
    ["The","DT","The"],
    ["second","JJ","second"],
    ["movie","NN","movy"],
    ["based","VBN","bas"],
    ["on","IN","on"],
    ["“La","NNP","“la"],
    ["Tete","NNP","tet"],
    ["d’un","NNP","d’un"],
    ["Homme","NNP","hom"],
    [",",",",","],
    ["”","NNP","”"],
    ["Burgess","NNP","burgess"],
    ["Meredith’s","NNP","meredith’s"],
    ["“Man","NNP","“man"],
    ["on","IN","on"],
    ["the","DT","the"],
    {
      "tag":"ORGANIZATION",
      "content":
      [
        ["Eiffel","NNP","eiffel"]
      ]
    },
    ["Tower”","NNP","tower”"],
    ["(","NNP","("],
    ["1949","CD","1949"],
    [")","CD",")"],
    [",",",",","],
    ["is","VBZ","be"],
    ["a","DT","a"],
    ["stiff","JJ","stiff"],
    ["and","CC","and"],
    ["amateurish","JJ","am"],
    ["dud","NN","dud"],
    [",",",",","],
    ["though","IN","though"],
    {
      "tag":"PERSON",
      "content":
      [
        ["Charles","NNP","charl"],
        ["Laughton","NNP","laughton"]
      ]
    },
    ["is","VBZ","be"],
    ["an","DT","an"],
    ["entertaining","VBG","entertain"],
    {
      "tag":"PERSON",
      "content":
      [
        ["Maigret","NNP","maigret"]
      ]
    },
    [".",".","."]
  ]
},
{
  "tag":"S",
  "content":
  [
    ["The","DT","The"],
    ["celebrated","VBN","celebr"],
    {
      "tag":"GPE",
      "content":
      [
        ["Hungarian","NNP","hung"]
      ]
    },
    ["director","NN","direct"],
    {
      "tag":"PERSON",
      "content":
      [
        ["Bela","NNP","bel"],
        ["Tarr","NNP","tar"]
      ]
    },
    ["seemed","VBD","seem"],
    ["to","TO","to"],
    ["get","VB","get"],
    {
      "tag":"PERSON",
      "content":
      [
        ["Simenon","NNP","simenon"]
      ]
    },
    ["when","WRB","when"],
    ["he","PRP","he"],
    ["explained","VBD","explain"],
    ["why","WRB","why"],
    ["he","PRP","he"],
    ["wanted","VBD","want"],
    ["to","TO","to"],
    ["adapt","VB","adapt"],
    ["“The","JJ","“the"],
    ["Man","NNP","man"],
    ["From","NNP","from"],
    ["London”","NNP","london”"],
    ["(","NNP","("],
    ["2007","CD","2007"],
    [")","CD",")"],
    ["—","CD","—"],
    ["it","PRP","it"],
    ["“contains","VBZ","“contains"],
    ["the","DT","the"],
    ["totality","NN","tot"],
    ["of","IN","of"],
    ["nature","NN","nat"],
    ["and","CC","and"],
    ["man","NN","man"],
    [",",",",","],
    ["just","RB","just"],
    ["as","IN","as"],
    ["it","PRP","it"],
    ["contains","VBZ","contain"],
    ["their","PRP$","their"],
    ["pettiness","NN","petty"],
    [",",",",","],
    ["”",":","”"],
    ["he","PRP","he"],
    ["said","VBD","say"],
    ["at","IN","at"],
    ["the","DT","the"],
    ["time","NN","tim"],
    ["—",":","—"],
    ["but","CC","but"],
    ["the","DT","the"],
    ["resulting","VBG","result"],
    ["139-minute","JJ","139-minute"],
    ["film","NN","film"],
    ["is","VBZ","be"],
    ["mainly","RB","main"],
    ["a","DT","a"],
    ["demonstration","NN","demonst"],
    ["of","IN","of"],
    ["the","DT","the"],
    ["enervating","NN","enerv"],
    ["effects","NNS","effect"],
    ["of","IN","of"],
    ["his","PRP$","his"],
    ["glacial","JJ","glac"],
    [",",",",","],
    ["portentous","JJ","port"],
    ["style","NN","styl"],
    [".",".","."]
  ]
},
{
  "tag":"S",
  "content":
  [
    ["Most","JJS","most"],
    ["of","IN","of"],
    ["the","DT","the"],
    ["films","NNS","film"],
    ["in","IN","in"],
    ["the","DT","the"],
    ["series","NN","sery"],
    ["have","VBP","hav"],
    ["their","PRP$","their"],
    ["rewards","NNS","reward"],
    [",",",",","],
    ["however","RB","howev"],
    [",",",",","],
    ["no","DT","no"],
    ["matter","NN","mat"],
    ["how","WRB","how"],
    ["faithful","JJ","faith"],
    ["they","PRP","they"],
    ["are","VBP","be"],
    ["to","TO","to"],
    ["their","PRP$","their"],
    ["hard-boiled","JJ","hard-boil"],
    ["source","NN","sourc"],
    [".",".","."]
  ]
},
{
  "tag":"S",
  "content":
  [
    ["“La","NN","“la"],
    {
      "tag":"PERSON",
      "content":
      [
        ["Marie","NNP","mary"]
      ]
    },
    ["du","NN","du"],
    {
      "tag":"GPE",
      "content":
      [
        ["Port","NNP","port"]
      ]
    },
    [",",",",","],
    ["”","NNP","”"],
    ["with","IN","with"],
    ["a","DT","a"],
    ["typically","RB","typ"],
    ["sharp","JJ","sharp"],
    ["screenplay","NN","screenplay"],
    ["by","IN","by"],
    {
      "tag":"PERSON",
      "content":
      [
        ["Jacques","NNP","jacqu"],
        ["Prévert","NNP","prévert"]
      ]
    },
    [",",",",","],
    ["is","VBZ","be"],
    ["an","DT","an"],
    ["obscure","NN","obsc"],
    ["but","CC","but"],
    ["winning","VBG","win"],
    ["example","NN","exampl"],
    ["of","IN","of"],
    ["sophisticated","JJ","soph"],
    ["midcentury","NN","midcentury"],
    {
      "tag":"GPE",
      "content":
      [
        ["French","JJ","french"]
      ]
    },
    ["domestic","JJ","domest"],
    ["drama","NN","dram"],
    [".",".","."]
  ]
},
{
  "tag":"S",
  "content":
  [
    ["“Monsieur","JJ","“monsieur"],
    ["Hire”","NN","hire”"],
    ["doesn’t","NN","doesn’t"],
    ["have","VBP","hav"],
    ["the","DT","the"],
    ["scope","NN","scop"],
    ["or","CC","or"],
    ["the","DT","the"],
    ["devastating","NN","devast"],
    ["narrative","NN","nar"],
    ["drive","VBP","driv"],
    ["of","IN","of"],
    ["its","PRP$","its"],
    ["source","NN","sourc"],
    [",",",",","],
    ["the","DT","the"],
    ["wonderful","JJ","wond"],
    ["novel","NN","novel"],
    ["“The","NN","“the"],
    ["Engagement","NNP","eng"],
    [",",",",","],
    ["”","NNP","”"],
    ["but","CC","but"],
    ["it’s","NNP","it’s"],
    ["a","DT","a"],
    ["satisfyingly","RB","satisfy"],
    ["nasty","JJ","nasty"],
    ["little","JJ","littl"],
    ["thriller","NN","thriller"],
    ["in","IN","in"],
    ["its","PRP$","its"],
    ["own","JJ","own"],
    ["right","NN","right"],
    [".",".","."]
  ]
},
{
  "tag":"S",
  "content":
  [
    {
      "tag":"PERSON",
      "content":
      [
        ["Mr.","NNP","mr."]
      ]
    },
    ["Darroussin’s","NNP","darroussin’s"],
    ["performance","NN","perform"],
    ["and","CC","and"],
    {
      "tag":"PERSON",
      "content":
      [
        ["Mr.","NNP","mr."]
      ]
    },
    ["Kahn’s","NNP","kahn’s"],
    ["fastidious","VBZ","fastidy"],
    ["direction","NN","direct"],
    ["give","VBP","giv"],
    ["“Red","JJ","“red"],
    ["Lights”","NN","lights”"],
    ["a","DT","a"],
    ["hypnotic","JJ","hypnot"],
    ["pull","NN","pul"],
    [".",".","."]
  ]
},
{
  "tag":"S",
  "content":
  [
    ["“The","DT","“The"],
    ["Bottom","NNP","bottom"],
    ["of","IN","of"],
    ["the","DT","the"],
    {
      "tag":"GPE",
      "content":
      [
        ["Bottle","NNP","bottl"]
      ]
    },
    [",",",",","],
    ["”","NNP","”"],
    ["directed","VBD","direct"],
    ["by","IN","by"],
    ["the","DT","the"],
    ["studio","NN","studio"],
    ["mainstay","NN","mainstay"],
    {
      "tag":"PERSON",
      "content":
      [
        ["Hathaway","NNP","hathaway"]
      ]
    },
    [",",",",","],
    ["could","MD","could"],
    ["be","VB","be"],
    ["written","VBN","writ"],
    ["off","RP","off"],
    ["as","IN","as"],
    ["just","RB","just"],
    ["another","DT","another"],
    ["moralizing","NN","mor"],
    ["1950s","CD","1950s"],
    ["soap","NN","soap"],
    ["opera","NN","oper"],
    [",",",",","],
    ["but","CC","but"],
    ["there’s","NNP","there’s"],
    ["a","DT","a"],
    ["lot","NN","lot"],
    ["to","TO","to"],
    ["see","VB","see"],
    ["in","IN","in"],
    ["it","PRP","it"],
    [":",":",":"],
    ["striking","VBG","strike"],
    ["location","NN","loc"],
    ["shooting","VBG","shoot"],
    ["on","IN","on"],
    ["the","DT","the"],
    ["Arizona-Mexico","NNP","arizona-mexico"],
    ["border","NN","bord"],
    ["(",":","("],
    ["predating","VBG","pred"],
    {
      "tag":"PERSON",
      "content":
      [
        ["Orson","NNP","orson"]
      ]
    },
    ["Welles’s","NNP","welles’"],
    ["“Touch","JJ","“touch"],
    ["of","IN","of"],
    ["Evil”","JJ","evil”"],
    ["by","IN","by"],
    ["two","CD","two"],
    ["years","NNS","year"],
    [")",":",")"],
    [",",",",","],
    ["dramatically","RB","dram"],
    ["composed","VBN","compos"],
    ["interiors","NNS","intery"],
    ["and","CC","and"],
    ["solid","JJ","solid"],
    ["performances","NNS","perform"],
    ["by","IN","by"],
    {
      "tag":"PERSON",
      "content":
      [
        ["Van","NNP","van"],
        ["Johnson","NNP","johnson"]
      ]
    },
    ["and","CC","and"],
    {
      "tag":"PERSON",
      "content":
      [
        ["Joseph","NNP","joseph"],
        ["Cotten","NNP","cot"]
      ]
    },
    ["as","IN","as"],
    ["the","DT","the"],
    ["estranged","JJ","estrang"],
    ["brothers","NNS","broth"],
    [".",".","."]
  ]
},
{
  "tag":"S",
  "content":
  [
    ["And","CC","And"],
    ["“The","DT","“The"],
    ["Clockmaker”","NN","clockmaker”"],
    ["—",":","—"],
    ["moved","VBD","mov"],
    ["from","IN","from"],
    ["the","DT","the"],
    ["upstate","JJ","upst"],
    {
      "tag":"GPE",
      "content":
      [
        ["New","NNP","new"],
        ["York","NNP","york"]
      ]
    },
    ["setting","VBG","set"],
    ["of","IN","of"],
    ["the","DT","the"],
    ["book","NN","book"],
    ["to","TO","to"],
    {
      "tag":"GPE",
      "content":
      [
        ["Lyon","NNP","lyon"]
      ]
    },
    [",",",",","],
    {
      "tag":"GPE",
      "content":
      [
        ["France","NNP","frant"]
      ]
    },
    ["—","NNP","—"],
    ["is","VBZ","be"],
    ["a","DT","a"],
    ["sprawling","JJ","sprawling"],
    ["tale","NN","tal"],
    [",",",",","],
    ["much","RB","much"],
    ["livelier","JJR","liv"],
    ["than","IN","than"],
    ["later","JJ","lat"],
    ["Tavernier","NNP","taverny"],
    ["films","NNS","film"],
    ["like","IN","like"],
    ["“Coup","NN","“coup"],
    ["de","IN","de"],
    ["Torchon”","NNP","torchon”"],
    ["and","CC","and"],
    ["“Round","JJ","“round"],
    {
      "tag":"GPE",
      "content":
      [
        ["Midnight","NNP","midnight"]
      ]
    },
    [",",",",","],
    ["”","NNP","”"],
    ["with","IN","with"],
    ["polished","JJ","pol"],
    ["work","NN","work"],
    ["by","IN","by"],
    ["the","DT","the"],
    ["great","JJ","gre"],
    {
      "tag":"GPE",
      "content":
      [
        ["French","JJ","french"]
      ]
    },
    ["actors","NNS","act"],
    {
      "tag":"PERSON",
      "content":
      [
        ["Philippe","NNP","philip"],
        ["Noiret","NNP","noiret"]
      ]
    },
    ["as","IN","as"],
    ["a","DT","a"],
    ["conservative","JJ","conserv"],
    ["provincial","NN","provint"],
    ["father","NN","fath"],
    ["whose","WP$","whose"],
    ["son","NN","son"],
    ["goes","VBZ","go"],
    ["on","IN","on"],
    ["the","DT","the"],
    ["run","NN","run"],
    ["and","CC","and"],
    {
      "tag":"PERSON",
      "content":
      [
        ["Jean","NNP","jean"],
        ["Rochefort","NNP","rochefort"]
      ]
    },
    ["as","IN","as"],
    ["a","DT","a"],
    ["sympathetic","JJ","sympathet"],
    ["detective","JJ","detect"],
    [".",".","."]
  ]
},
{
  "tag":"S",
  "content":
  [
    ["What","WP","What"],
    ["the","DT","the"],
    ["kaleidoscope","NN","kaleidoscop"],
    ["of","IN","of"],
    ["films","NNS","film"],
    ["in","IN","in"],
    ["Cine-Simenon","JJ","cine-simenon"],
    ["have","VBP","hav"],
    ["in","IN","in"],
    ["common","JJ","common"],
    ["might","NN","might"],
    ["be","VB","be"],
    ["best","JJS","best"],
    ["summed","VBN","sum"],
    ["up","RP","up"],
    ["by","IN","by"],
    ["the","DT","the"],
    ["writer","NN","writ"],
    ["himself","PRP","himself"],
    [".",".","."]
  ]
},
{
  "tag":"S",
  "content":
  [
    ["In","IN","In"],
    ["a","DT","a"],
    ["1955","CD","1955"],
    ["interview","NN","interview"],
    ["with","IN","with"],
    ["The","DT","The"],
    {
      "tag":"ORGANIZATION",
      "content":
      [
        ["Paris","NNP","par"],
        ["Review","NNP","review"]
      ]
    },
    [",",",",","],
    ["he","PRP","he"],
    ["defined","VBD","defin"],
    ["the","DT","the"],
    ["mission","NN","miss"],
    ["of","IN","of"],
    ["the","DT","the"],
    ["modern","JJ","modern"],
    ["novelist","NN","novel"],
    [",",",",","],
    ["no","DT","no"],
    ["longer","NN","long"],
    ["fettered","VBN","fet"],
    ["by","IN","by"],
    ["earlier","JJR","ear"],
    ["traditions","NNS","tradit"],
    ["of","IN","of"],
    ["storytelling","VBG","storytel"],
    [",",",",","],
    ["saying","VBG","say"],
    [",",",",","],
    ["“We","JJ","“we"],
    ["don’t","NN","don’t"],
    ["stop","NN","stop"],
    ["when","WRB","when"],
    ["they","PRP","they"],
    ["marry","VBP","marry"],
    [",",",",","],
    ["we","PRP","we"],
    ["don’t","JJ","don’t"],
    ["stop","NN","stop"],
    ["when","WRB","when"],
    ["they","PRP","they"],
    ["begin","VBP","begin"],
    ["to","TO","to"],
    ["be","VB","be"],
    ["bored","VBN","bor"],
    [",",",",","],
    ["we","PRP","we"],
    ["go","VBP","go"],
    ["to","TO","to"],
    ["the","DT","the"],
    ["end.”","NN","end.”"],
    ["A","DT","A"],
    ["moviemaker","NN","moviemak"],
    ["can’t","NN","can’t"],
    ["ask","NN","ask"],
    ["for","IN","for"],
    ["more","JJR","mor"],
    ["than","IN","than"],
    ["a","DT","a"],
    ["story","NN","story"],
    ["that","WDT","that"],
    ["goes","VBZ","go"],
    ["to","TO","to"],
    ["the","DT","the"],
    ["end","NN","end"],
    [".",".","."]
  ]
},
{
  "tag":"S",
  "content":
  [
    ["A","DT","A"],
    ["version","NN","vert"],
    ["of","IN","of"],
    ["this","DT","this"],
    ["article","NN","artic"],
    ["appeared","VBD","appear"],
    ["in","IN","in"],
    ["print","NN","print"],
    ["on","IN","on"],
    ["August","NNP","august"],
    ["4","CD","4"],
    [",",",",","],
    ["2013","CD","2013"],
    [",",",",","],
    ["on","IN","on"],
    ["page","NN","pag"],
    {
      "tag":"ORGANIZATION",
      "content":
      [
        ["AR10","NNP","ar10"]
      ]
    },
    ["of","IN","of"],
    ["the","DT","the"],
    {
      "tag":"GPE",
      "content":
      [
        ["New","NNP","new"],
        ["York","NNP","york"]
      ]
    },
    ["edition","NN","edit"],
    ["with","IN","with"],
    ["the","DT","the"],
    ["headline","NN","headlin"],
    [":",":",":"],
    ["So","RB","so"],
    ["Many","JJ","many"],
    ["Movies","NNS","movy"],
    ["by","IN","by"],
    {
      "tag":"ORGANIZATION",
      "content":
      [
        ["Way","NNP","way"]
      ]
    },
    ["of","IN","of"],
    ["One","CD","One"],
    ["Novelist","NNP","novel"],
    [".",".","."]
  ]
},
{
  "tag":"S",
  "content":
  [
    ["This","DT","This"],
    ["week","NN","week"],
    [":",":",":"],
    ["complimentary","JJ","comply"],
    ["access","NN","access"],
    ["to","TO","to"],
    {
      "tag":"ORGANIZATION",
      "content":
      [
        ["International","NNP","intern"],
        ["New","NNP","new"],
        ["York","NNP","york"],
        ["Times","NNP","tim"],
        ["Get","NNP","get"],
        ["Free","NNP","fre"]
      ]
    },
    ["E-mail","NNP","e-mail"],
    {
      "tag":"PERSON",
      "content":
      [
        ["Alerts","NNP","alert"]
      ]
    },
    ["on","IN","on"],
    ["These","DT","These"],
    {
      "tag":"ORGANIZATION",
      "content":
      [
        ["Topics","NNP","top"],
        ["Movies","NNPS","movy"],
        ["Simenon","NNP","simenon"]
      ]
    },
    [",",",",","],
    {
      "tag":"PERSON",
      "content":
      [
        ["Georges","NNP","georg"],
        ["Anthology","NNP","antholog"],
        ["Film","NNP","film"],
        ["Archives","NNP","arch"],
        ["Inside","NNP","insid"]
      ]
    },
    ["NYTimes.com","NNP","nytimes.com"],
    ["Theater","NNP","the"],
    ["»","NNP","»"],
    ["‘The","NNP","‘the"],
    {
      "tag":"PERSON",
      "content":
      [
        ["Model","NNP","model"],
        ["Apartment","NNP","apart"]
      ]
    },
    [",",",",","],
    ["’","NNP","’"],
    ["by","IN","by"],
    {
      "tag":"ORGANIZATION",
      "content":
      [
        ["Donald","NNP","donald"],
        ["Margulies","NNPS","margu"],
        ["Sports","NNP","sport"]
      ]
    },
    ["»","NNP","»"],
    ["In","NNP","in"],
    ["Argentine","NNP","argentin"],
    ["Soccer","NNP","socc"],
    [",",",",","],
    ["a","DT","a"],
    {
      "tag":"ORGANIZATION",
      "content":
      [
        ["Rivalry","NNP","rivalry"]
      ]
    },
    ["Cleaves","NNP","cleav"],
    ["a","DT","a"],
    {
      "tag":"ORGANIZATION",
      "content":
      [
        ["City","NNP","city"],
        ["Opinion","NNP","opin"]
      ]
    },
    ["»","NNP","»"],
    ["Invitation","NNP","invit"],
    ["to","TO","to"],
    ["a","DT","a"],
    ["Dialogue","NNP","dialog"],
    [":",":",":"],
    ["When","WRB","When"],
    {
      "tag":"PERSON",
      "content":
      [
        ["Doctors","NNS","doct"],
        ["Slip","NNP","slip"],
        ["Up","NNP","up"],
        ["Dining","NNP","din"]
      ]
    },
    ["&","CC","&"],
    {
      "tag":"PERSON",
      "content":
      [
        ["Wine","NNP","win"]
      ]
    },
    ["»","NNP","»"],
    ["Restaurants","NNP","resta"],
    [":",":",":"],
    ["Khe-Yo","JJ","khe-yo"],
    ["and","CC","and"],
    {
      "tag":"PERSON",
      "content":
      [
        ["Whiskey","NNP","whiskey"],
        ["Soda","NNP","sod"],
        ["Lounge","NNP","loung"],
        ["Opinion","NNP","opin"]
      ]
    },
    ["»","NNP","»"],
    ["Op-Ed","NNP","op-ed"],
    [":",":",":"],
    {
      "tag":"PERSON",
      "content":
      [
        ["Beyond","NNP","beyond"]
      ]
    },
    ["Boehner’s","NNP","boehner’s"],
    ["Reach","NNP","reach"],
    ["When","NNP","when"],
    ["freedom","NN","freedom"],
    ["is","VBZ","be"],
    ["outlawed","VBN","outlaw"],
    [",",",",","],
    ["only","RB","on"],
    ["outlaws","VBZ","outlaw"],
    ["will","MD","will"],
    ["be","VB","be"],
    ["free","JJ","fre"],
    [".",".","."]
  ]
},
{
  "tag":"S",
  "content":
  [
    ["Or","CC","Or"],
    ["certain","JJ","certain"],
    ["climbers","NNS","climb"],
    ["in","IN","in"],
    {
      "tag":"ORGANIZATION",
      "content":
      [
        ["Yosemite","NNP","yosemit"],
        ["National","NNP","nat"],
        ["Park","NNP","park"]
      ]
    },
    [".",".","."]
  ]
},
{
  "tag":"S",
  "content":
  [
    ["World","NN","world"],
    ["»","``","»"]
  ]
}]