[
{
  "tag":"S",
  "content":
  [
    ["AUTOS","NNS","auto"],
    {
      "tag":"ORGANIZATION",
      "content":
      [
        ["HOMES","NNP","hom"]
      ]
    },
    ["JOBS","NNP","job"],
    ["Tuesday","NNP","tuesday"],
    [",",",",","],
    ["Oct","NNP","oct"],
    ["15","CD","15"],
    [",",",",","],
    ["2013","CD","2013"],
    ["79°","CD","79°"],
    ["Home","NNP","hom"],
    {
      "tag":"ORGANIZATION",
      "content":
      [
        ["Local","NNP","loc"],
        ["News","NNP","new"]
      ]
    },
    ["Breaking","NNP","break"],
    ["News","NNP","new"],
    ["Video","NNP","video"],
    ["Business","NNP","busy"],
    ["Crime","NNP","crim"],
    ["&","CC","&"],
    {
      "tag":"PERSON",
      "content":
      [
        ["Courts","NNP","court"],
        ["Education","NNP","educ"],
        ["Galleries","NNP","gallery"],
        ["Military","NNP","milit"]
      ]
    }
  ]
}]