[
{
  "tag":"S",
  "content":
  [
    ["Enter","NNP","ent"],
    ["your","PRP$","your"],
    ["search","NN","search"],
    ["terms","NNS","term"],
    {
      "tag":"PERSON",
      "content":
      [
        ["Submit","NNP","submit"]
      ]
    },
    ["search","NN","search"],
    ["form","NN","form"],
    ["Web","NNP","web"],
    ["GeorgeOrwell.org","NNP","georgeorwell.org"],
    ["move","NN","mov"],
    ["cusor","NN","cus"],
    ["over","IN","over"],
    ["to","TO","to"],
    ["pause","VB","paus"],
    {
      "tag":"PERSON",
      "content":
      [
        ["Early","NNP","ear"],
        ["Life","NNP","lif"]
      ]
    },
    ["&","CC","&"],
    {
      "tag":"PERSON",
      "content":
      [
        ["Education","NNP","educ"],
        ["Burma","NNP","burm"]
      ]
    },
    ["and","CC","and"],
    ["the","DT","the"],
    ["early","JJ","ear"],
    ["novels","NNS","novel"],
    {
      "tag":"PERSON",
      "content":
      [
        ["Spanish","NNP","span"],
        ["Civil","NNP","civil"]
      ]
    },
    ["War","NNP","war"],
    ["World","NNP","world"],
    ["War","NNP","war"],
    ["II","NNP","ii"],
    ["Post","NNP","post"],
    ["War","NNP","war"],
    ["and","CC","and"],
    ["death","NN","dea"],
    ["Books","NNS","book"],
    [",",",",","],
    {
      "tag":"PERSON",
      "content":
      [
        ["Quotes","NNP","quot"]
      ]
    },
    ["and","CC","and"],
    {
      "tag":"ORGANIZATION",
      "content":
      [
        ["Essays","NNP","essay"],
        ["Movies","NNPS","movy"]
      ]
    },
    ["based","VBN","bas"],
    ["on","IN","on"],
    {
      "tag":"ORGANIZATION",
      "content":
      [
        ["Orwell","NNP","orwel"]
      ]
    },
    ["'s","POS","'s"],
    ["works","NNS","work"],
    {
      "tag":"PERSON",
      "content":
      [
        ["Links","NNPS","link"],
        ["George","NNP","georg"],
        ["Orwell","NNP","orwel"]
      ]
    },
    [",",",",","],
    {
      "tag":"GPE",
      "content":
      [
        ["English","NNP","engl"]
      ]
    },
    ["author","NN","auth"],
    {
      "tag":"PERSON",
      "content":
      [
        ["Eric","NNP","er"],
        ["Blair","NNP","blair"]
      ]
    },
    ["(","NNP","("],
    {
      "tag":"PERSON",
      "content":
      [
        ["George","NNP","georg"],
        ["Orwell","NNP","orwel"]
      ]
    },
    ["r","NN","r"],
    [")",":",")"],
    ["with","IN","with"],
    ["his","PRP$","his"],
    ["mother","NN","moth"],
    [",",",",","],
    {
      "tag":"PERSON",
      "content":
      [
        ["Ida","NNP","id"],
        ["Mable","NNP","mabl"]
      ]
    },
    [",",",",","],
    ["sister","NN","sist"],
    {
      "tag":"PERSON",
      "content":
      [
        ["Avril","NNP","avril"]
      ]
    },
    ["and","CC","and"],
    ["father","NN","fath"],
    [",",",",","],
    {
      "tag":"PERSON",
      "content":
      [
        ["Richard","NNP","richard"]
      ]
    },
    ["in","IN","in"],
    ["1916","CD","1916"],
    {
      "tag":"PERSON",
      "content":
      [
        ["George","NNP","georg"],
        ["Orwell","NNP","orwel"]
      ]
    },
    ["was","VBD","be"],
    ["one","CD","one"],
    ["of","IN","of"],
    ["the","DT","the"],
    ["most","RBS","most"],
    ["important","JJ","import"],
    ["writers","NNS","writ"],
    ["of","IN","of"],
    ["the","DT","the"],
    ["20th","JJ","20th"],
    ["century","NN","century"],
    ["and","CC","and"],
    ["his","PRP$","his"],
    ["works","NNS","work"],
    ["have","VBP","hav"],
    ["sold","VBN","sel"],
    ["millions","NNS","mil"],
    ["of","IN","of"],
    ["copies","NNS","cop"],
    [".",".","."]
  ]
},
{
  "tag":"S",
  "content":
  [
    ["Despite","IN","Despite"],
    ["his","PRP$","his"],
    ["fame","NN","fam"],
    [",",",",","],
    {
      "tag":"PERSON",
      "content":
      [
        ["Orwell","NNP","orwel"]
      ]
    },
    ["was","VBD","be"],
    ["an","DT","an"],
    ["very","RB","very"],
    ["private","JJ","priv"],
    ["man","NN","man"],
    ["whose","WP$","whose"],
    ["life","NN","lif"],
    ["was","VBD","be"],
    ["full","JJ","ful"],
    ["of","IN","of"],
    ["contradictions","NNS","contradict"],
    [".",".","."]
  ]
},
{
  "tag":"S",
  "content":
  [
    {
      "tag":"GPE",
      "content":
      [
        ["Orwell","NNP","orwel"]
      ]
    },
    ["'s","POS","'s"],
    ["socialism","NN","soc"],
    ["found","VBD","find"],
    ["root","NN","root"],
    ["in","IN","in"],
    ["the","DT","the"],
    ["Depression","NNP","depress"],
    ["of","IN","of"],
    ["the","DT","the"],
    ["1930s","CD","1930s"],
    ["with","IN","with"],
    ["early","JJ","ear"],
    ["works","NNS","work"],
    ["such","JJ","such"],
    ["as","IN","as"],
    {
      "tag":"PERSON",
      "content":
      [
        ["Down","NNP","down"]
      ]
    },
    ["and","CC","and"],
    ["Out","NNP","out"],
    ["in","IN","in"],
    {
      "tag":"GPE",
      "content":
      [
        ["Paris","NNP","par"]
      ]
    },
    ["and","CC","and"],
    ["The","DT","The"],
    {
      "tag":"ORGANIZATION",
      "content":
      [
        ["Road","NNP","road"]
      ]
    },
    ["to","TO","to"],
    {
      "tag":"PERSON",
      "content":
      [
        ["Wigan","NNP","wig"],
        ["Pier","NNP","pier"]
      ]
    },
    [".",".","."]
  ]
},
{
  "tag":"S",
  "content":
  [
    {
      "tag":"GPE",
      "content":
      [
        ["Disillusionment","NNP","disillud"]
      ]
    },
    ["followed","VBD","follow"],
    ["after","IN","after"],
    ["going","VBG","go"],
    ["to","TO","to"],
    {
      "tag":"GPE",
      "content":
      [
        ["Spain","NNP","spain"]
      ]
    },
    ["to","TO","to"],
    ["fight","NN","fight"],
    ["in","IN","in"],
    ["the","DT","the"],
    {
      "tag":"GPE",
      "content":
      [
        ["Spanish","NNP","span"]
      ]
    },
    ["civil","NN","civil"],
    ["war","NN","war"],
    ["and","CC","and"],
    {
      "tag":"PERSON",
      "content":
      [
        ["Homage","NNP","hom"]
      ]
    },
    ["to","TO","to"],
    {
      "tag":"GPE",
      "content":
      [
        ["Catalonia","NNP","catalon"]
      ]
    },
    ["shows","VBZ","show"],
    ["his","PRP$","his"],
    ["break","NN","break"],
    ["with","IN","with"],
    ["the","DT","the"],
    ["orthodox","NN","orthodox"],
    ["left","VBD","leav"],
    ["and","CC","and"],
    ["became","VBD","becom"],
    ["more","RBR","mor"],
    ["politically","RB","polit"],
    ["isolated","VBN","isol"],
    ["in","IN","in"],
    ["the","DT","the"],
    ["later","JJ","lat"],
    ["years","NNS","year"],
    ["of","IN","of"],
    ["his","PRP$","his"],
    ["life","NN","lif"],
    ["as","IN","as"],
    ["his","PRP$","his"],
    ["works","NNS","work"],
    ["warned","VBD","warn"],
    ["of","IN","of"],
    ["the","DT","the"],
    ["dangers","NNS","dang"],
    ["of","IN","of"],
    ["totalitarian","JJ","totalit"],
    ["thought","NN","thought"],
    ["and","CC","and"],
    ["the","DT","the"],
    ["end","NN","end"],
    ["results","NNS","result"],
    ["of","IN","of"],
    ["revolutionary","JJ","revolv"],
    ["ideals","NNS","id"],
    [".",".","."]
  ]
},
{
  "tag":"S",
  "content":
  [
    ["He","PRP","He"],
    ["died","VBD","die"],
    ["of","IN","of"],
    ["tuberculosis","NN","tuberculos"],
    ["at","IN","at"],
    ["the","DT","the"],
    ["age","NN","ag"],
    ["of","IN","of"],
    ["46","CD","46"],
    [",",",",","],
    ["six","CD","six"],
    ["months","NNS","mon"],
    ["after","IN","after"],
    ["1984","CD","1984"],
    ["was","VBD","be"],
    ["published","VBN","publ"],
    [".",".","."]
  ]
},
{
  "tag":"S",
  "content":
  [
    ["Unfortunately","RB","unfortun"],
    [",",",",","],
    ["he","PRP","he"],
    ["was","VBD","be"],
    ["too","RB","too"],
    ["ill","RB","il"],
    ["to","TO","to"],
    ["enjoy","VB","enjoy"],
    ["his","PRP$","his"],
    ["fame","NN","fam"],
    ["and","CC","and"],
    ["fortune","NN","fortun"],
    ["to","TO","to"],
    ["enjoy","VB","enjoy"],
    ["much","JJ","much"],
    ["benefit","NN","benefit"],
    ["from","IN","from"],
    ["it","PRP","it"],
    [".",".","."]
  ]
},
{
  "tag":"S",
  "content":
  [
    {
      "tag":"GPE",
      "content":
      [
        ["Video","NNP","video"]
      ]
    },
    ["and","CC","and"],
    ["audio","NN","audio"],
    ["on","IN","on"],
    {
      "tag":"PERSON",
      "content":
      [
        ["George","NNP","georg"],
        ["Orwell","NNP","orwel"],
        ["George","NNP","georg"],
        ["Orwell","NNP","orwel"]
      ]
    },
    [":",":",":"],
    ["A","DT","A"],
    ["life","NN","lif"],
    ["in","IN","in"],
    ["pictures","NNS","pict"],
    {
      "tag":"ORGANIZATION",
      "content":
      [
        ["BBC","NNP","bbc"]
      ]
    },
    ["1984","CD","1984"],
    ["trailer","NN","trail"],
    ["The","DT","The"],
    ["real","JJ","real"],
    ["room","NN","room"],
    ["101","CD","101"],
    ["The","DT","The"],
    {
      "tag":"ORGANIZATION",
      "content":
      [
        ["Orwell","NNP","orwel"],
        ["Diaries","NNP","diary"]
      ]
    },
    [".",".","."]
  ]
},
{
  "tag":"S",
  "content":
  [
    {
      "tag":"GPE",
      "content":
      [
        ["Report","NN","report"]
      ]
    },
    ["about","IN","about"],
    ["how","WRB","how"],
    {
      "tag":"PERSON",
      "content":
      [
        ["George","NNP","georg"],
        ["Orwell","NNP","orwel"]
      ]
    },
    ["'s","POS","'s"],
    ["diaries","NNS","diary"],
    ["will","MD","will"],
    ["be","VB","be"],
    ["put","VBN","put"],
    ["online","NN","onlin"],
    [".",".","."]
  ]
},
{
  "tag":"S",
  "content":
  [
    {
      "tag":"PERSON",
      "content":
      [
        ["Orwell","NNP","orwel"]
      ]
    },
    {
      "tag":"PERSON",
      "content":
      [
        ["Biography","NNP","biograph"],
        ["Christopher","NNP","christopher"],
        ["Hitchens","NNP","hitch"]
      ]
    },
    ["author","NN","auth"],
    ["of","IN","of"],
    {
      "tag":"ORGANIZATION",
      "content":
      [
        ["Why","NNP","why"],
        ["Orwell","NNP","orwel"],
        ["Matters","NNP","mat"]
      ]
    },
    ["interviewed","VBD","interview"],
    ["on","IN","on"],
    {
      "tag":"ORGANIZATION",
      "content":
      [
        ["NPR","NNP","npr"],
        ["Audio","NNP","audio"]
      ]
    },
    ["lecture","NN","lect"],
    ["by","IN","by"],
    {
      "tag":"PERSON",
      "content":
      [
        ["Jean","NNP","jean"],
        ["Seaton","NNP","seaton"],
        ["Jean","NNP","jean"],
        ["Seaton","NNP","seaton"]
      ]
    },
    ["is","VBZ","be"],
    ["Professor","NNP","profess"],
    ["of","IN","of"],
    {
      "tag":"ORGANIZATION",
      "content":
      [
        ["Media","NNP","med"],
        ["History","NNP","hist"]
      ]
    },
    ["at","IN","at"],
    ["he","PRP","he"],
    {
      "tag":"ORGANIZATION",
      "content":
      [
        ["University","NNP","univers"]
      ]
    },
    ["of","IN","of"],
    {
      "tag":"GPE",
      "content":
      [
        ["Westminster","NNP","westminst"]
      ]
    },
    [";",":",";"],
    ["and","CC","and"],
    ["the","DT","the"],
    {
      "tag":"ORGANIZATION",
      "content":
      [
        ["Official","NNP","off"],
        ["Historian","NNP","hist"]
      ]
    },
    ["of","IN","of"],
    ["the","DT","the"],
    {
      "tag":"ORGANIZATION",
      "content":
      [
        ["BBC","NNP","bbc"]
      ]
    },
    [".",".","."]
  ]
},
{
  "tag":"S",
  "content":
  [
    ["She","PRP","She"],
    ["is","VBZ","be"],
    ["the","DT","the"],
    ["Director","NNP","direct"],
    ["of","IN","of"],
    ["the","DT","the"],
    {
      "tag":"ORGANIZATION",
      "content":
      [
        ["Orwell","NNP","orwel"]
      ]
    },
    ["Prize","NNP","priz"],
    ["The","NNP","the"],
    {
      "tag":"ORGANIZATION",
      "content":
      [
        ["Spanish","NNP","span"]
      ]
    },
    ["Civil","NNP","civil"],
    ["War","NNP","war"],
    [":",":",":"],
    ["Battleground","NNP","battleground"],
    ["for","IN","for"],
    ["idealists","NNS","id"],
    ["Background","NNP","background"],
    ["of","IN","of"],
    {
      "tag":"PERSON",
      "content":
      [
        ["Animal","NNP","anim"],
        ["Farm","NNP","farm"],
        ["Gordon","NNP","gordon"],
        ["Bowker","NNP","bowk"],
        ["Orwell","NNP","orwel"]
      ]
    },
    ["biography","NN","biograph"],
    ["In","IN","In"],
    ["all","DT","all"],
    ["his","PRP$","his"],
    ["complex","NN","complex"],
    ["contradictions","NNS","contradict"],
    [",",",",","],
    {
      "tag":"ORGANIZATION",
      "content":
      [
        ["Orwell","NNP","orwel"]
      ]
    },
    ["comes","VBZ","com"],
    ["to","TO","to"],
    ["energetic","JJ","energet"],
    ["life","NN","lif"],
    ["1984","CD","1984"],
    ["film","NN","film"],
    ["(",":","("],
    ["1984","CD","1984"],
    ["version","NN","vert"],
    [")",":",")"],
    {
      "tag":"PERSON",
      "content":
      [
        ["Richard","NNP","richard"],
        ["Burton","NNP","burton"]
      ]
    },
    ["'s","POS","'s"],
    ["last","JJ","last"],
    ["movie","NN","movy"],
    ["1984","CD","1984"],
    ["(","CD","("],
    ["1954","CD","1954"],
    ["version","NN","vert"],
    [")",":",")"],
    ["Why","WRB","Why"],
    {
      "tag":"PERSON",
      "content":
      [
        ["Orwell","NNP","orwel"],
        ["Matters","NNP","mat"],
        ["Cool","NNP","cool"],
        ["Orwell","NNP","orwel"]
      ]
    },
    ["related","VBD","rel"],
    ["t","NN","t"],
    ["shirts","NNS","shirt"],
    ["1984","CD","1984"],
    ["soundtrack","NN","soundtrack"],
    ["Eurymithics","NNP","eurymith"],
    ["early","RB","ear"],
    ["life","NN","lif"],
    ["privacy","NN","priv"]
  ]
}]