[
{
  "tag":"S",
  "content":
  [
    [".cfpg-gallery","JJ",".cfpg-gallery"],
    ["img","NN","img"],
    ["{",":","{"],
    ["display","NN","display"],
    [":",":",":"],
    ["inline-block","JJ","inline-block"],
    [";",":",";"],
    ["}",":","}"],
    [".recentcomments","NNS",".recentcomments"],
    ["a","DT","a"],
    ["{","NN","{"],
    ["display","NN","display"],
    [":",":",":"],
    ["inline","NN","inlin"],
    ["!",".","!"],
    ["important","JJ","import"],
    [";",":",";"],
    ["padding:0","-NONE-","padding:0"],
    ["!",".","!"],
    ["important","JJ","import"],
    [";",":",";"],
    ["margin:0","-NONE-","margin:0"],
    ["!",".","!"],
    ["important","JJ","import"],
    [";",":",";"],
    ["}",":","}"],
    [".recentcomments","NNS",".recentcomments"],
    ["a","DT","a"],
    ["{","NN","{"],
    ["display","NN","display"],
    [":",":",":"],
    ["inline","NN","inlin"],
    ["!",".","!"],
    ["important","JJ","import"],
    [";",":",";"],
    ["padding:0","-NONE-","padding:0"],
    ["!",".","!"],
    ["important","JJ","import"],
    [";",":",";"],
    ["margin:0","-NONE-","margin:0"],
    ["!",".","!"],
    ["important","JJ","import"],
    [";",":",";"],
    ["}",":","}"],
    ["Advertisement","NNP","advert"],
    ["Science","NNP","sci"],
    ["Blogs","NNP","blog"],
    ["Go","NNP","go"],
    ["to","TO","to"],
    {
      "tag":"PERSON",
      "content":
      [
        ["Select","NNP","select"],
        ["Blog","NNP","blog"]
      ]
    },
    ["...",":","..."],
    {
      "tag":"ORGANIZATION",
      "content":
      [
        ["ScienceBlogs","NNP","scienceblog"],
        ["Home","NNP","hom"]
      ]
    },
    ["AardvarchaeologyAetiologyA","NNP","aardvarchaeologyaetiology"],
    ["Few","NNP","few"],
    ["Things","NNP","thing"],
    ["Ill","NNP","il"],
    ["ConsideredBrookhaven","NNP","consideredbrookhav"],
    ["Bits","NNP","bit"],
    ["&","CC","&"],
    {
      "tag":"ORGANIZATION",
      "content":
      [
        ["BytesBuilt","NNP","bytesbuilt"]
      ]
    },
    ["on","IN","on"],
    {
      "tag":"ORGANIZATION",
      "content":
      [
        ["FactsCasaubon","NNP","factscasaubon"]
      ]
    },
    ["'s","POS","'s"],
    {
      "tag":"ORGANIZATION",
      "content":
      [
        ["BookClass","NNP","bookclass"]
      ]
    },
    ["MCommon","NNP","mcommon"],
    ["KnowledgeConfessions","NNP","knowledgeconfess"],
    ["of","IN","of"],
    ["a","DT","a"],
    {
      "tag":"ORGANIZATION",
      "content":
      [
        ["Science","NNP","sci"],
        ["LibrarianDean","NNP","librariand"]
      ]
    },
    ["'s","POS","'s"],
    {
      "tag":"ORGANIZATION",
      "content":
      [
        ["CornerDeltoiddenialism","NNP","cornerdeltoid"]
      ]
    },
    ["blogDeveloping","NNP","blogdevelop"],
    ["IntelligenceDiscovering","NNP","intelligencediscov"],
    ["Biology","NNP","biolog"],
    ["in","IN","in"],
    ["a","DT","a"],
    {
      "tag":"ORGANIZATION",
      "content":
      [
        ["Digital","NNP","digit"]
      ]
    },
    ["WorldDynamics","NNP","worlddynam"],
    ["of","IN","of"],
    {
      "tag":"ORGANIZATION",
      "content":
      [
        ["CatsEffect","NNP","catseffect"]
      ]
    },
    ["MeasureervEvolutionBlogEvolution","NNP","measureervevolutionblogevolv"],
    ["for","IN","for"],
    {
      "tag":"ORGANIZATION",
      "content":
      [
        ["EveryoneGreg","NNP","everyonegreg"],
        ["Laden","NNP","lad"]
      ]
    },
    ["'s","POS","'s"],
    {
      "tag":"ORGANIZATION",
      "content":
      [
        ["BlogLife","NNP","blogl"]
      ]
    },
    ["at","IN","at"],
    ["the","DT","the"],
    {
      "tag":"ORGANIZATION",
      "content":
      [
        ["SETI","NNP","set"]
      ]
    },
    ["InstituteLife","NNP","institutel"],
    ["LinesOmni","NNP","linesomn"],
    ["BrainPage","NNP","brainp"],
    ["3.14PharyngulaRespectful","JJ","3.14pharyngularespectful"],
    {
      "tag":"ORGANIZATION",
      "content":
      [
        ["InsolenceSciencePunkSignificant","NNP","insolencesciencepunksign"],
        ["Figures","NNP","fig"]
      ]
    },
    ["by","IN","by"],
    {
      "tag":"PERSON",
      "content":
      [
        ["Peter","NNP","pet"],
        ["GleickStarts","NNP","gleickstart"]
      ]
    },
    ["With","NNP","with"],
    ["A","DT","A"],
    {
      "tag":"ORGANIZATION",
      "content":
      [
        ["BangStoatThe","NNP","bangstoatth"],
        ["Corpus","NNP","corp"]
      ]
    },
    ["CallosumThe","NNP","callosumth"],
    ["Pump","NNP","pump"],
    ["HandleThe","NNP","handleth"],
    ["Weizmann","NNP","weizman"],
    ["WaveThoughts","NNP","wavethought"],
    ["from","IN","from"],
    {
      "tag":"ORGANIZATION",
      "content":
      [
        ["KansasTomorrow","NNP","kansastomorrow"]
      ]
    },
    ["'s","POS","'s"],
    {
      "tag":"ORGANIZATION",
      "content":
      [
        ["TableUncertain","NNP","tableuncertain"]
      ]
    },
    ["PrinciplesUniverseUSA","NNP","principlesuniverseus"],
    ["Science","NNP","sci"],
    ["and","CC","and"],
    ["Engineering","NNP","engin"],
    ["Festival","NNP","fest"],
    [":",":",":"],
    ["The","DT","The"],
    {
      "tag":"ORGANIZATION",
      "content":
      [
        ["BlogWe","NNP","blogw"]
      ]
    },
    ["BeastiesWorld","NNP","beastiesworld"],
    ["'s","POS","'s"],
    {
      "tag":"ORGANIZATION",
      "content":
      [
        ["FairZooillogix2010","NNP","fairzooillogix2010"]
      ]
    },
    ["World","NNP","world"],
    ["Science","NNP","sci"],
    ["Festival","NNP","fest"],
    ["BlogA","NNP","blog"],
    ["Blog","NNP","blog"],
    ["Around","NNP","around"],
    ["The","NNP","the"],
    {
      "tag":"ORGANIZATION",
      "content":
      [
        ["ClockAdventures","NNP","clockadv"]
      ]
    },
    ["in","IN","in"],
    {
      "tag":"GPE",
      "content":
      [
        ["Ethics","NNP","eth"]
      ]
    },
    ["and","CC","and"],
    {
      "tag":"ORGANIZATION",
      "content":
      [
        ["ScienceA","NNP","science"],
        ["Good","NNP","good"]
      ]
    },
    ["PoopAll","NNP","poopal"],
    ["of","IN","of"],
    ["My","NNP","my"],
    ["Faults","NNP","fault"],
    ["Are","NNP","ar"],
    ["Stress","NNP","stress"],
    ["RelatedAngry","NNP","relatedangry"],
    ["ToxicologistApplied","NNP","toxicologistapply"],
    ["StatisticsArt","NNP","statisticsart"],
    ["of","IN","of"],
    {
      "tag":"ORGANIZATION",
      "content":
      [
        ["Science","NNP","sci"]
      ]
    },
    ["LearningA","NNP","learning"],
    ["Vote","NNP","vot"],
    ["For","NNP","for"],
    {
      "tag":"ORGANIZATION",
      "content":
      [
        ["ScienceBasic","NNP","sciencebas"],
        ["Concepts","NNPS","conceiv"]
      ]
    },
    ["in","IN","in"],
    ["SciencebioephemeraBlogging","NNP","sciencebioephemerablog"],
    ["the","DT","the"],
    {
      "tag":"ORGANIZATION",
      "content":
      [
        ["OriginChaotic","NNP","originchaot"]
      ]
    },
    {
      "tag":"ORGANIZATION",
      "content":
      [
        ["UtopiaChristina","NNP","utopiachristin"]
      ]
    },
    ["'s","POS","'s"],
    {
      "tag":"ORGANIZATION",
      "content":
      [
        ["LIS","NNP","lis"]
      ]
    },
    ["RantCognitive","NNP","rantcognit"],
    ["DailyCulture","NNP","dailycult"],
    {
      "tag":"ORGANIZATION",
      "content":
      [
        ["DishDeep","NNP","dishdeep"],
        ["Sea","NNP","sea"]
      ]
    },
    ["NewsDispatches","NNP","newsdispatch"],
    ["from","IN","from"],
    ["the","DT","the"],
    {
      "tag":"ORGANIZATION",
      "content":
      [
        ["Creation","NNP","cre"]
      ]
    },
    ["WarsDot","NNP","warsdot"],
    ["PhysicsDr","NNP","physicsdr"],
    [".",".","."]
  ]
},
{
  "tag":"S",
  "content":
  [
    {
      "tag":"PERSON",
      "content":
      [
        ["Joan","NNP","joan"]
      ]
    },
    {
      "tag":"ORGANIZATION",
      "content":
      [
        ["Bushwell","NNP","bushwel"]
      ]
    },
    ["'s","POS","'s"],
    {
      "tag":"ORGANIZATION",
      "content":
      [
        ["Chimpanzee","NNP","chimpanz"]
      ]
    },
    ["RefugeEruptionsevolgenEvolving","NNP","refugeeruptionsevolgenevolv"],
    ["ThoughtsFraming","NNP","thoughtsfram"],
    {
      "tag":"ORGANIZATION",
      "content":
      [
        ["ScienceGalactic","NNP","sciencegalact"]
      ]
    },
    ["InteractionsGene","NNP","interactionsg"],
    {
      "tag":"ORGANIZATION",
      "content":
      [
        ["ExpressionGenetic","NNP","expressiongenet"]
      ]
    },
    ["FutureGood","NNP","futuregood"],
    ["Math","NNP","math"],
    [",",",",","],
    {
      "tag":"PERSON",
      "content":
      [
        ["Bad","NNP","bad"],
        ["MathGreen","NNP","mathgreen"]
      ]
    },
    ["GabbroGuilty","NNP","gabbroguil"],
    ["PlanetIntegrity","NNP","planetintegr"],
    ["of","IN","of"],
    {
      "tag":"ORGANIZATION",
      "content":
      [
        ["ScienceIntel","NNP","scienceintel"]
      ]
    },
    ["ISEFLaelapsLiving","NNP","iseflaelapsl"],
    ["the","DT","the"],
    {
      "tag":"ORGANIZATION",
      "content":
      [
        ["Scientific","NNP","sci"],
        ["Life","NNP","lif"]
      ]
    },
    ["(","NNP","("],
    ["Scientist","NNP","sci"],
    [",",",",","],
    {
      "tag":"ORGANIZATION",
      "content":
      [
        ["Interrupted","NNP","interrupt"]
      ]
    },
    [")","NNP",")"],
    ["Mike","NNP","mik"],
    ["the","DT","the"],
    {
      "tag":"ORGANIZATION",
      "content":
      [
        ["Mad","NNP","mad"]
      ]
    },
    ["BiologistMixing","NNP","biologistmix"],
    ["MemoryMolecule","NNP","memorymolec"],
    ["of","IN","of"],
    ["the","DT","the"],
    {
      "tag":"ORGANIZATION",
      "content":
      [
        ["DayMyrmecosNeuron","NNP","daymyrmecosneuron"]
      ]
    },
    ["CultureNeuronticNeurophilosophyNeurotopiaNot","NNP","cultureneuronticneurophilosophyneurotopianot"],
    ["Exactly","NNP","exact"],
    ["Rocket","NNP","rocket"],
    ["ScienceObesity","NNP","scienceobes"],
    ["PanaceaObservations","NNP","panaceaobserv"],
    ["of","IN","of"],
    ["a","DT","a"],
    {
      "tag":"ORGANIZATION",
      "content":
      [
        ["NerdOf","NNP","nerdof"]
      ]
    },
    ["Two","NNP","two"],
    {
      "tag":"ORGANIZATION",
      "content":
      [
        ["MindsOn","NNP","mindson"]
      ]
    },
    ["Becoming","NNP","becom"],
    ["a","DT","a"],
    {
      "tag":"ORGANIZATION",
      "content":
      [
        ["Domestic","NNP","domest"]
      ]
    },
    ["and","CC","and"],
    {
      "tag":"ORGANIZATION",
      "content":
      [
        ["Laboratory","NNP","lab"]
      ]
    },
    ["GoddessOscillatorPhoto","NNP","goddessoscillatorphoto"],
    ["SynthesisPure","NNP","synthesisp"],
    ["PedantryRetrospectacle","NNP","pedantryretrospectac"],
    [":",":",":"],
    ["A","DT","A"],
    ["Neuroscience","NNP","neuroscy"],
    ["BlogRevolutionary","NNP","blogrevolv"],
    ["Minds","NNPS","mind"],
    ["Think","NNP","think"],
    ["TankScience","NNP","tankscy"],
    ["+","NNP","+"],
    {
      "tag":"ORGANIZATION",
      "content":
      [
        ["SocietyScience","NNP","societyscy"]
      ]
    },
    ["After","NNP","aft"],
    ["SunclipseScience","NNP","sunclipsescy"],
    ["is","VBZ","be"],
    ["CultureScienceOnline","NNP","culturescienceonlin"],
    ["2010","CD","2010"],
    [":",":",":"],
    ["The","DT","The"],
    {
      "tag":"ORGANIZATION",
      "content":
      [
        ["BlogScience","NNP","blogscy"],
        ["To","NNP","to"]
      ]
    },
    ["LifeSciencewomenSeed/MoMA","NNP","lifesciencewomenseed/moma"],
    {
      "tag":"ORGANIZATION",
      "content":
      [
        ["SalonSee","NNP","salons"],
        ["Jane","NNP","jan"]
      ]
    },
    ["ComputeShifting","NNP","computeshift"],
    ["BaselinesSignoutSpeakeasy","NNP","baselinessignoutspeakeasy"],
    ["ScienceSpeaking","NNP","sciencespeak"],
    ["Science","NNP","sci"],
    ["2.0Stranger","CD","2.0Stranger"],
    {
      "tag":"ORGANIZATION",
      "content":
      [
        ["FruitSuperbugTerra","NNP","fruitsuperbugterr"]
      ]
    },
    ["SigillataTetrapod","NNP","sigillatatetrapod"],
    {
      "tag":"ORGANIZATION",
      "content":
      [
        ["ZoologyThe","NNP","zoologyth"],
        ["Blogger","NNP","blog"]
      ]
    },
    {
      "tag":"ORGANIZATION",
      "content":
      [
        ["SAT","NNP","sat"]
      ]
    },
    ["ChallengeThe","NNP","challengeth"],
    ["Book","NNP","book"],
    ["of","IN","of"],
    {
      "tag":"ORGANIZATION",
      "content":
      [
        ["TrogoolThe","NNP","trogoolth"],
        ["Cheerful","NNP","che"]
      ]
    },
    ["OncologistThe","NNP","oncologistth"],
    ["Examining","NNP","examin"],
    ["Room","NNP","room"],
    ["of","IN","of"],
    ["Dr.","NNP","dr."],
    ["CharlesThe","NNP","charlesth"],
    ["Frontal","NNP","front"],
    {
      "tag":"ORGANIZATION",
      "content":
      [
        ["CortexThe","NNP","cortexth"]
      ]
    },
    {
      "tag":"ORGANIZATION",
      "content":
      [
        ["IntersectionThe","NNP","intersectionth"],
        ["Island","NNP","island"]
      ]
    },
    ["of","IN","of"],
    {
      "tag":"ORGANIZATION",
      "content":
      [
        ["DoubtThe","NNP","doubtth"]
      ]
    },
    ["LoomThe","NNP","loomth"],
    ["Primate","NNP","prim"],
    {
      "tag":"ORGANIZATION",
      "content":
      [
        ["DiariesThe","NNP","diariesth"],
        ["Quantum","NNP","quant"]
      ]
    },
    {
      "tag":"ORGANIZATION",
      "content":
      [
        ["PontiffThe","NNP","pontiffth"],
        ["Questionable","NNP","quest"]
      ]
    },
    ["AuthorityThe","NNP","authorityth"],
    ["Rightful","NNP","right"],
    ["Place","NNP","plac"],
    ["ProjectThe","NNP","projectth"],
    ["ScienceBlogs","NNP","scienceblog"],
    ["Book","NNP","book"],
    {
      "tag":"ORGANIZATION",
      "content":
      [
        ["ClubThe","NNP","clubth"],
        ["Scientific","NNP","sci"]
      ]
    },
    ["ActivistThe","NNP","activistth"],
    ["Scientific","NNP","sci"],
    ["IndianThe","NNP","indianth"],
    ["Thoughtful","NNP","thought"],
    ["AnimalThe","NNP","animalth"],
    ["Voltage","NNP","volt"],
    ["GateThus","NNP","gateth"],
    ["Spake","NNP","spak"],
    ["ZuskaTranscription","NNP","zuskatranscrib"],
    ["and","CC","and"],
    {
      "tag":"ORGANIZATION",
      "content":
      [
        ["TranslationWalt","NNP","translationwalt"]
      ]
    },
    ["at","IN","at"],
    {
      "tag":"ORGANIZATION",
      "content":
      [
        ["RandomWhite","NNP","randomwhit"],
        ["Coat","NNP","coat"],
        ["Underground","NNP","underground"],
        ["Search","NNP","search"],
        ["National","NNP","nat"],
        ["Geographic","NNP","geograph"],
        ["Search","NNP","search"]
      ]
    },
    ["nationalgeographic.com","NNP","nationalgeographic.com"],
    ["Submit","NNP","submit"],
    ["Last","NNP","last"],
    ["24","CD","24"],
    {
      "tag":"ORGANIZATION",
      "content":
      [
        ["HrsLife","NNP","hrslife"]
      ]
    },
    ["SciencePhysical","NNP","sciencephys"],
    ["ScienceEnvironmentHumanitiesEducationPoliticsMedicineBrain","NNP","scienceenvironmenthumanitieseducationpoliticsmedicinebrain"],
    ["&","CC","&"],
    {
      "tag":"ORGANIZATION",
      "content":
      [
        ["BehaviorTechnologyInformation","NNP","behaviortechnologyinform"]
      ]
    },
    ["ScienceJobs","NNP","sciencejob"],
    ["Reading","NNP","read"],
    ["Diary","NNP","diary"],
    [":",":",":"],
    ["The","DT","The"],
    ["Boy","NNP","boy"],
    ["who","WP","who"],
    {
      "tag":"PERSON",
      "content":
      [
        ["Loved","NNP","lov"],
        ["Math","NNP","math"]
      ]
    },
    [":",":",":"],
    ["The","DT","The"],
    {
      "tag":"ORGANIZATION",
      "content":
      [
        ["Improbable","NNP","improb"],
        ["Life","NNP","lif"]
      ]
    },
    ["of","IN","of"],
    {
      "tag":"PERSON",
      "content":
      [
        ["Paul","NNP","paul"]
      ]
    },
    ["Erdős","NNP","erdő"],
    ["by","IN","by"],
    {
      "tag":"PERSON",
      "content":
      [
        ["Deborah","NNP","deborah"],
        ["Heiligman","NNP","heiligm"]
      ]
    },
    ["and","CC","and"],
    {
      "tag":"ORGANIZATION",
      "content":
      [
        ["LeUyen","NNP","leuy"],
        ["Pham","NNP","pham"]
      ]
    },
    ["Posted","NNP","post"],
    ["by","IN","by"],
    {
      "tag":"PERSON",
      "content":
      [
        ["John","NNP","john"],
        ["Dupuis","NNP","dupu"]
      ]
    },
    ["on","IN","on"],
    ["July","NNP","july"],
    ["8","CD","8"],
    [",",",",","],
    ["2013","CD","2013"],
    ["(",":","("],
    ["2","CD","2"],
    [")","CD",")"],
    ["More","NNP","mor"],
    ["»","NNP","»"],
    ["There","NNP","ther"],
    ["are","VBP","be"],
    ["two","CD","two"],
    ["kinds","NNS","kind"],
    ["of","IN","of"],
    ["children’s","JJ","children’s"],
    ["books","NNS","book"],
    [":",":",":"],
    ["those","DT","those"],
    ["that","WDT","that"],
    ["are","VBP","be"],
    ["aimed","VBN","aim"],
    ["primarily","RB","prim"],
    ["at","IN","at"],
    ["the","DT","the"],
    ["kids","NNS","kid"],
    ["themselves","PRP","themselves"],
    ["and","CC","and"],
    ["those","DT","those"],
    ["that","WDT","that"],
    ["are","VBP","be"],
    ["aimed","VBN","aim"],
    ["at","IN","at"],
    ["the","DT","the"],
    ["adults","NNS","adult"],
    ["that","WDT","that"],
    ["actually","RB","act"],
    ["shell","VBP","shel"],
    ["out","RP","out"],
    ["the","DT","the"],
    ["cash","NN","cash"],
    ["to","TO","to"],
    ["pay","VB","pay"],
    ["for","IN","for"],
    ["the","DT","the"],
    ["books","NNS","book"],
    [".",".","."]
  ]
},
{
  "tag":"S",
  "content":
  [
    ["There’s","NNS","there’s"],
    ["certainly","RB","certain"],
    ["a","DT","a"],
    ["lot","NN","lot"],
    ["of","IN","of"],
    ["overlap","NN","overlap"],
    ["—",":","—"],
    ["books","NNS","book"],
    ["that","WDT","that"],
    ["kids","NNS","kid"],
    ["love","VBP","lov"],
    ["but","CC","but"],
    ["that","IN","that"],
    ["also","RB","also"],
    ["catch","VBP","catch"],
    ["the","DT","the"],
    ["eyes","NNS","ey"],
    [",",",",","],
    ["hearts","NNS","heart"],
    ["&","CC","&"],
    ["minds","NNS","mind"],
    ["and","CC","and"],
    ["wallets","NNS","wallet"],
    ["of","IN","of"],
    ["the","DT","the"],
    ["adults","NNS","adult"],
    ["doing","VBG","do"],
    ["the","DT","the"],
    ["shopping","VBG","shop"],
    [".",".","."]
  ]
},
{
  "tag":"S",
  "content":
  [
    ["But","CC","But"],
    ["wander","NN","wand"],
    ["the","DT","the"],
    ["aisles","NNS","aisl"],
    ["of","IN","of"],
    ["your","PRP$","your"],
    ["local","JJ","loc"],
    ["bookstore","NN","bookst"],
    ["and","CC","and"],
    ["you’ll","NNP","you’ll"],
    ["see","VB","see"],
    ["what","WP","what"],
    ["I","PRP","I"],
    ["mean","VBP","mean"],
    [".",".","."]
  ]
},
{
  "tag":"S",
  "content":
  [
    ["Often","RB","oft"],
    ["beautifully","RB","beauty"],
    ["illustrated","VBN","illust"],
    [",",",",","],
    ["with","IN","with"],
    ["a","DT","a"],
    ["sophisticated","JJ","soph"],
    ["artistic","JJ","art"],
    ["touch","NN","touch"],
    ["and","CC","and"],
    ["a","DT","a"],
    ["mature","NN","mat"],
    ["and","CC","and"],
    ["serious","JJ","sery"],
    ["topic","JJ","top"],
    [",",",",","],
    ["you","PRP","you"],
    ["can","MD","can"],
    ["tell","VB","tel"],
    ["the","DT","the"],
    ["books","NNS","book"],
    ["that","WDT","that"],
    ["are","VBP","be"],
    ["aimed","VBN","aim"],
    ["at","IN","at"],
    ["the","DT","the"],
    ["parents","NNS","par"],
    ["and","CC","and"],
    ["uncles","NNS","unc"],
    ["and","CC","and"],
    ["cousins","NNS","cousin"],
    ["and","CC","and"],
    ["aunts","NNS","aunt"],
    ["and","CC","and"],
    ["friends","NNS","friend"],
    ["and","CC","and"],
    ["neighbours","NNS","neighbo"],
    ["and","CC","and"],
    ["grandparents","NNS","grandp"],
    [".",".","."]
  ]
},
{
  "tag":"S",
  "content":
  [
    ["Next","JJ","next"],
    ["to","TO","to"],
    ["them","PRP","them"],
    ["are","VBP","be"],
    ["the","DT","the"],
    ["fun","NN","fun"],
    [",",",",","],
    ["silly","RB","sil"],
    ["and","CC","and"],
    ["truly","RB","tru"],
    ["childish","JJ","child"],
    ["books","NNS","book"],
    ["that","WDT","that"],
    ["appeal","NN","ap"],
    ["to","TO","to"],
    ["the","DT","the"],
    ["actual","JJ","act"],
    ["kids","NNS","kid"],
    ["themselves","PRP","themselves"],
    [".",".","."]
  ]
},
{
  "tag":"S",
  "content":
  [
    ["And","CC","And"],
    ["the","DT","the"],
    ["reverse","NN","revers"],
    [",",",",","],
    ["too","RB","too"],
    [",",",",","],
    ["silly","RB","sil"],
    ["books","VBZ","book"],
    ["that","IN","that"],
    ["are","VBP","be"],
    ["aimed","VBN","aim"],
    ["at","IN","at"],
    ["what","WP","what"],
    ["adults","NNS","adult"],
    ["thinks","VBZ","think"],
    ["of","IN","of"],
    ["as","RB","as"],
    ["childish","JJ","child"],
    ["concerns","NNS","concern"],
    ["but","CC","but"],
    ["that","IN","that"],
    ["miss","NNS","miss"],
    ["the","DT","the"],
    ["mark","NN","mark"],
    [".",".","."]
  ]
},
{
  "tag":"S",
  "content":
  [
    ["There","EX","There"],
    ["are","VBP","be"],
    ["plenty","NN","plenty"],
    ["of","IN","of"],
    ["serious","JJ","sery"],
    ["books","NNS","book"],
    ["that","WDT","that"],
    ["perfectly","RB","perfect"],
    ["frame","VBD","fram"],
    ["the","DT","the"],
    ["real","JJ","real"],
    ["issues","NNS","issu"],
    ["in","IN","in"],
    ["kids’","NNP","kids’"],
    ["lives","NNS","lif"],
    ["but","CC","but"],
    ["are","VBP","be"],
    ["perhaps","RB","perhap"],
    ["too","RB","too"],
    ["“gritty”","JJ","“gritty”"],
    ["or","CC","or"],
    ["“realistic”","JJ","“realistic”"],
    ["for","IN","for"],
    ["adults","NNS","adult"],
    ["to","TO","to"],
    ["think","VB","think"],
    ["that","IN","that"],
    ["the","DT","the"],
    ["kids","NNS","kid"],
    ["in","IN","in"],
    ["their","PRP$","their"],
    ["lives","NNS","lif"],
    ["would","MD","would"],
    ["be","VB","be"],
    ["ready","RB","ready"],
    ["or","CC","or"],
    ["mature","VB","mat"],
    ["enough","JJ","enough"],
    ["to","TO","to"],
    ["understand","VB","understand"],
    ["them","PRP","them"],
    [".",".","."]
  ]
},
{
  "tag":"S",
  "content":
  [
    ["And","CC","And"],
    ["now","RB","now"],
    ["we","PRP","we"],
    ["come","VBP","com"],
    ["to","TO","to"],
    ["the","DT","the"],
    ["notion","NN","not"],
    ["of","IN","of"],
    ["a","DT","a"],
    ["biographical","JJ","biograph"],
    ["kids","NNS","kid"],
    ["book","NN","book"],
    ["about","IN","about"],
    ["a","DT","a"],
    ["mathematician","JJ","mathem"],
    [".",".","."]
  ]
},
{
  "tag":"S",
  "content":
  [
    ["It","PRP","It"],
    ["seems","VBZ","seem"],
    ["kind","JJ","kind"],
    ["of","IN","of"],
    ["counter-intuitive","JJ","counter-intuitive"],
    [",",",",","],
    ["of","IN","of"],
    ["course","NN","cours"],
    [",",",",","],
    ["at","IN","at"],
    ["first","JJ","first"],
    ["glance","NN","glant"],
    ["but","CC","but"],
    ["then","RB","then"],
    ["you","PRP","you"],
    ["remember","VBP","rememb"],
    ["that","IN","that"],
    ["perhaps","RB","perhap"],
    ["there","EX","there"],
    ["are","VBP","be"],
    ["a","DT","a"],
    ["few","JJ","few"],
    ["interesting","JJ","interest"],
    ["oddballs","NNS","oddbal"],
    ["among","IN","among"],
    ["the","DT","the"],
    ["mathematical","JJ","mathem"],
    ["ranks","NNS","rank"],
    [".",".","."]
  ]
},
{
  "tag":"S",
  "content":
  [
    ["Even","RB","ev"],
    ["among","IN","among"],
    ["the","DT","the"],
    ["oddballs","NNS","oddbal"],
    [",",",",","],
    ["perhaps","RB","perhap"],
    ["most","RBS","most"],
    ["wouldn’t","JJ","wouldn’t"],
    ["make","NN","mak"],
    ["for","IN","for"],
    ["great","JJ","gre"],
    ["stories","NNS","story"],
    ["for","IN","for"],
    ["kids","NNS","kid"],
    ["—",":","—"],
    ["think","VBP","think"],
    {
      "tag":"PERSON",
      "content":
      [
        ["Paul","NNP","paul"],
        ["Dirac","NNP","dirac"]
      ]
    },
    ["or","CC","or"],
    {
      "tag":"PERSON",
      "content":
      [
        ["Grigori","NNP","grigor"],
        ["Perelman","NNP","perelm"]
      ]
    },
    ["for","IN","for"],
    ["example","NN","exampl"],
    [".",".","."]
  ]
},
{
  "tag":"S",
  "content":
  [
    ["And","CC","And"],
    ["then","RB","then"],
    ["you","PRP","you"],
    ["remember","VBP","rememb"],
    {
      "tag":"PERSON",
      "content":
      [
        ["Paul","NNP","paul"]
      ]
    },
    ["Erdős","NNP","erdő"],
    [".",".","."]
  ]
},
{
  "tag":"S",
  "content":
  [
    ["And","CC","And"],
    ["yeah","VBP","yeah"],
    [",",",",","],
    ["perfect","NN","perfect"],
    [".",".","."]
  ]
},
{
  "tag":"S",
  "content":
  [
    ["And","CC","And"],
    ["that","DT","that"],
    ["brings","VBZ","bring"],
    ["us","PRP","us"],
    ["to","TO","to"],
    ["the","DT","the"],
    ["book","NN","book"],
    ["at","IN","at"],
    ["hand","NN","hand"],
    [",",",",","],
    {
      "tag":"ORGANIZATION",
      "content":
      [
        ["The","NNP","the"],
        ["Boy","NNP","boy"],
        ["Who","NNP","who"],
        ["Loved","NNP","lov"]
      ]
    },
    ["Math","NNP","math"],
    [":",":",":"],
    ["The","DT","The"],
    {
      "tag":"ORGANIZATION",
      "content":
      [
        ["Improbable","NNP","improb"],
        ["Life","NNP","lif"]
      ]
    },
    ["of","IN","of"],
    {
      "tag":"PERSON",
      "content":
      [
        ["Paul","NNP","paul"],
        ["Erdos","NNP","erdo"]
      ]
    },
    ["by","IN","by"],
    {
      "tag":"PERSON",
      "content":
      [
        ["Deborah","NNP","deborah"],
        ["Heiligman","NNP","heiligm"]
      ]
    },
    ["and","CC","and"],
    {
      "tag":"ORGANIZATION",
      "content":
      [
        ["LeUyen","NNP","leuy"],
        ["Pham","NNP","pham"]
      ]
    },
    ["(","NNP","("],
    ["ages","NNS","ag"],
    ["3-8","CD","3-8"],
    [")","CD",")"],
    [".",".","."]
  ]
},
{
  "tag":"S",
  "content":
  [
    ["A","DT","A"],
    ["kids","NNS","kid"],
    ["book","NN","book"],
    ["about","IN","about"],
    {
      "tag":"PERSON",
      "content":
      [
        ["Paul","NNP","paul"]
      ]
    },
    ["Erdős","NNP","erdő"],
    ["actually","RB","act"],
    ["kind","VBP","kind"],
    ["of","IN","of"],
    ["makes","NNS","mak"],
    ["sense","VBP","sens"],
    [".",".","."]
  ]
},
{
  "tag":"S",
  "content":
  [
    ["Certainly","RB","certain"],
    ["he","PRP","he"],
    ["had","VBD","hav"],
    ["his","PRP$","his"],
    ["quirks","NNS","quirk"],
    ["and","CC","and"],
    ["oddities","NNS","od"],
    [",",",",","],
    ["in","IN","in"],
    ["fact","NN","fact"],
    ["his","PRP$","his"],
    ["whole","JJ","whol"],
    ["life","NN","lif"],
    ["was","VBD","be"],
    ["a","DT","a"],
    ["bit","NN","bit"],
    ["of","IN","of"],
    ["an","DT","an"],
    ["oddity","NN","od"],
    [".",".","."]
  ]
},
{
  "tag":"S",
  "content":
  [
    ["Basically","RB","bas"],
    [",",",",","],
    ["he","PRP","he"],
    ["spent","VBD","spend"],
    ["most","JJS","most"],
    ["of","IN","of"],
    ["his","PRP$","his"],
    ["adult","NN","adult"],
    ["life","NN","lif"],
    ["couch","NN","couch"],
    ["surfing","VBG","surf"],
    ["from","IN","from"],
    ["city","NN","city"],
    ["to","TO","to"],
    ["city","NN","city"],
    [",",",",","],
    ["from","IN","from"],
    ["the","DT","the"],
    ["home","NN","hom"],
    ["of","IN","of"],
    ["one","CD","one"],
    ["mathematician","JJ","mathem"],
    ["to","TO","to"],
    ["another","DT","another"],
    [",",",",","],
    ["sleeping","VBG","sleep"],
    ["on","IN","on"],
    ["their","PRP$","their"],
    ["beds","NNS","bed"],
    [",",",",","],
    ["eating","VBG","eat"],
    ["their","PRP$","their"],
    ["food","NN","food"],
    ["and","CC","and"],
    ["most","JJS","most"],
    ["of","IN","of"],
    ["all","DT","all"],
    [",",",",","],
    ["collaborating","VBG","collab"],
    ["with","IN","with"],
    ["them","PRP","them"],
    ["and","CC","and"],
    ["producing","VBG","produc"],
    ["scholarly","RB","scholarly"],
    ["papers","NNS","pap"],
    ["by","IN","by"],
    ["the","DT","the"],
    ["ream","NN","ream"],
    [".",".","."]
  ]
},
{
  "tag":"S",
  "content":
  [
    ["He’s","NNS","he’s"],
    ["actually","RB","act"],
    ["kind","VBP","kind"],
    ["of","IN","of"],
    ["famous","JJ","fam"],
    ["for","IN","for"],
    ["that","DT","that"],
    ["habit","NN","habit"],
    ["of","IN","of"],
    ["collaboration","NN","collab"],
    ["—",":","—"],
    ["it’s","JJ","it’s"],
    ["even","RB","ev"],
    ["spawned","VBN","spawn"],
    ["the","DT","the"],
    ["famous","JJ","fam"],
    ["Erdős","NNS","erdő"],
    ["Number","NNP","numb"],
    ["(","NNP","("],
    ["and","CC","and"],
    ["variants","NNS","vary"],
    ["like","IN","like"],
    ["the","DT","the"],
    ["Erdős-Bacon","JJ","erdős-bacon"],
    ["number","NN","numb"],
    [")",":",")"],
    [",",",",","],
    ["which","WDT","which"],
    ["calculates","VBZ","calc"],
    ["the","DT","the"],
    ["degrees","NNS","degr"],
    ["of","IN","of"],
    ["collaborative","JJ","collab"],
    ["separation","NN","sep"],
    ["between","IN","between"],
    ["mathematicians","NNS","mathem"],
    ["and","CC","and"],
    ["Erdős","JJ","erdő"],
    ["himself","PRP","himself"],
    [".",".","."]
  ]
},
{
  "tag":"S",
  "content":
  [
    ["But","CC","But"],
    [",",",",","],
    ["to","TO","to"],
    ["once","RB","ont"],
    ["again","RB","again"],
    ["somehow","RB","somehow"],
    ["circle","NN","circ"],
    ["around","IN","around"],
    ["to","TO","to"],
    ["the","DT","the"],
    ["main","JJ","main"],
    ["reason","NN","reason"],
    ["for","IN","for"],
    ["this","DT","this"],
    ["review","NN","review"],
    [",",",",","],
    ["this","DT","this"],
    ["bizarre","NN","bizar"],
    ["idea","NN","ide"],
    ["of","IN","of"],
    ["a","DT","a"],
    ["kid’s","JJ","kid’s"],
    ["book","NN","book"],
    ["about","IN","about"],
    ["this","DT","this"],
    ["eccentric","JJ","ecc"],
    ["mathematician","NN","mathem"],
    [".",".","."]
  ]
},
{
  "tag":"S",
  "content":
  [
    ["Does","VBZ","doe"],
    ["it","PRP","it"],
    ["work","VB","work"],
    ["?",".","?"]
  ]
},
{
  "tag":"S",
  "content":
  [
    ["Yes","NNS","ye"],
    [",",",",","],
    ["actually","RB","act"],
    ["it","PRP","it"],
    ["does","VBZ","do"],
    [".",".","."]
  ]
},
{
  "tag":"S",
  "content":
  [
    ["Not","RB","not"],
    ["surprising","JJ","surpr"],
    [",",",",","],
    ["it’s","JJ","it’s"],
    ["quirky","NN","quirky"],
    ["and","CC","and"],
    ["playful","JJ","play"],
    ["and","CC","and"],
    ["a","DT","a"],
    ["little","RB","littl"],
    ["nutty","JJ","nutty"],
    [",",",",","],
    ["and","CC","and"],
    ["definitely","RB","definit"],
    ["plays","VBZ","play"],
    ["up","RP","up"],
    ["the","DT","the"],
    ["more","RBR","mor"],
    ["child-like","JJ","child-like"],
    ["aspects","NNS","aspect"],
    ["of","IN","of"],
    ["Erdős’s","NNS","erdős’"],
    ["life","VBP","lif"],
    ["and","CC","and"],
    ["personality","NN","person"],
    ["like","IN","like"],
    ["his","PRP$","his"],
    ["obsession","NN","obsess"],
    ["of","IN","of"],
    ["numbers","NNS","numb"],
    ["and","CC","and"],
    ["his","PRP$","his"],
    ["playful","JJ","play"],
    ["disdain","NN","disdain"],
    ["for","IN","for"],
    ["everyday","NN","everyday"],
    ["life","NN","lif"],
    ["and","CC","and"],
    ["habits","NNS","habit"],
    ["(",":","("],
    ["and","CC","and"],
    ["not","RB","not"],
    ["the","DT","the"],
    ["more","RBR","mor"],
    ["adult","NN","adult"],
    ["sides","NNS","sid"],
    [",",",",","],
    ["like","IN","like"],
    ["his","PRP$","his"],
    ["drug","NN","drug"],
    ["use","NN","us"],
    [")",":",")"],
    [".",".","."]
  ]
},
{
  "tag":"S",
  "content":
  [
    ["The","DT","The"],
    ["book","NN","book"],
    ["is","VBZ","be"],
    ["actually","RB","act"],
    ["quite","RB","quit"],
    ["light-hearted","JJ","light-hearted"],
    [".",".","."]
  ]
},
{
  "tag":"S",
  "content":
  [
    {
      "tag":"ORGANIZATION",
      "content":
      [
        ["LeUyen","NNP","leuy"]
      ]
    },
    ["Pham’s","NNP","pham’s"],
    ["artwork","NN","artwork"],
    ["very","RB","very"],
    ["nicely","RB","nic"],
    ["picks","VBZ","pick"],
    ["up","RP","up"],
    ["on","IN","on"],
    ["the","DT","the"],
    ["mathematical","JJ","mathem"],
    ["themes","NNS","them"],
    ["with","IN","with"],
    ["lots","NNS","lot"],
    ["of","IN","of"],
    ["numbers","NNS","numb"],
    ["and","CC","and"],
    ["equations","NNS","equ"],
    ["and","CC","and"],
    ["visual","JJ","vis"],
    ["hat-tips","NNS","hat-tips"],
    ["to","TO","to"],
    ["math","NN","math"],
    ["embedded","VBN","emb"],
    ["in","IN","in"],
    ["the","DT","the"],
    ["various","JJ","vary"],
    ["scenes","NNS","scen"],
    [".",".","."]
  ]
},
{
  "tag":"S",
  "content":
  [
    ["It’s","NNS","it’s"],
    ["also","RB","also"],
    ["clean","JJ","cle"],
    ["and","CC","and"],
    ["a","DT","a"],
    ["bit","NN","bit"],
    ["retro","NN","retro"],
    ["even","RB","ev"],
    [",",",",","],
    ["not","RB","not"],
    ["distracting","VBG","distract"],
    ["at","IN","at"],
    ["all","DT","all"],
    ["from","IN","from"],
    ["story","NN","story"],
    [".",".","."]
  ]
},
{
  "tag":"S",
  "content":
  [
    ["The","DT","The"],
    ["notes","NNS","not"],
    ["at","IN","at"],
    ["the","DT","the"],
    ["end","NN","end"],
    ["explain","NN","explain"],
    ["a","DT","a"],
    ["lot","NN","lot"],
    ["more","RBR","mor"],
    ["about","IN","about"],
    ["Erdős’","NNP","erdős’"],
    ["life","NN","lif"],
    ["and","CC","and"],
    ["math","NN","math"],
    [",",",",","],
    ["something","NN","someth"],
    ["perhaps","RB","perhap"],
    ["for","IN","for"],
    ["the","DT","the"],
    ["adults","NNS","adult"],
    ["reading","VBG","read"],
    ["the","DT","the"],
    ["book","NN","book"],
    ["to","TO","to"],
    ["pick","VB","pick"],
    ["up","RP","up"],
    ["a","DT","a"],
    ["bit","NN","bit"],
    ["more","RBR","mor"],
    ["than","IN","than"],
    ["the","DT","the"],
    ["kids","NNS","kid"],
    [".",".","."]
  ]
},
{
  "tag":"S",
  "content":
  [
    ["Which","WDT","Which"],
    ["cycles","NNS","cyc"],
    ["me","PRP","me"],
    ["even","RB","ev"],
    ["further","RB","far"],
    ["back","RB","back"],
    ["(",":","("],
    ["recurses","NNS","recurs"],
    [",",",",","],
    ["maybe","RB","mayb"],
    ["?",".","?"]
  ]
},
{
  "tag":"S",
  "content":
  [
    [")","NN",")"],
    ["to","TO","to"],
    ["the","DT","the"],
    ["beginning","NN","begin"],
    ["of","IN","of"],
    ["the","DT","the"],
    ["review","NN","review"],
    [".",".","."]
  ]
},
{
  "tag":"S",
  "content":
  [
    ["Is","VBZ","is"],
    ["this","DT","this"],
    ["a","DT","a"],
    ["kids","NNS","kid"],
    ["book","NN","book"],
    ["for","IN","for"],
    ["kids","NNS","kid"],
    ["or","CC","or"],
    ["a","DT","a"],
    ["kids","NNS","kid"],
    ["book","NN","book"],
    ["for","IN","for"],
    ["adults","NNS","adult"],
    ["?",".","?"]
  ]
},
{
  "tag":"S",
  "content":
  [
    {
      "tag":"GPE",
      "content":
      [
        ["Eh","NNP","eh"]
      ]
    },
    [",",",",","],
    ["a","DT","a"],
    ["little","RB","littl"],
    ["of","IN","of"],
    ["both","DT","both"],
    [".",".","."]
  ]
},
{
  "tag":"S",
  "content":
  [
    ["Definitely","RB","definit"],
    ["not","RB","not"],
    ["something","NN","someth"],
    ["just","RB","just"],
    ["anybody","NN","anybody"],
    ["would","MD","would"],
    ["pick","VB","pick"],
    ["up","RP","up"],
    ["for","IN","for"],
    ["just","RB","just"],
    ["any","DT","any"],
    ["kid","JJ","kid"],
    ["—","NN","—"],
    ["either","DT","either"],
    ["the","DT","the"],
    ["adult","NN","adult"],
    ["will","MD","will"],
    ["likely","RB","lik"],
    ["have","VB","hav"],
    ["a","DT","a"],
    ["math","NN","math"],
    ["connection","NN","connect"],
    ["that","WDT","that"],
    ["they","PRP","they"],
    ["want","VBP","want"],
    ["to","TO","to"],
    ["infect","VB","infect"],
    ["the","DT","the"],
    ["kid","NN","kid"],
    ["with","IN","with"],
    ["or","CC","or"],
    ["perhaps","RB","perhap"],
    ["some","DT","some"],
    ["adult","NN","adult"],
    ["will","MD","will"],
    ["recognize","VB","recogn"],
    ["a","DT","a"],
    ["kid","JJ","kid"],
    ["with","IN","with"],
    ["a","DT","a"],
    ["math","NN","math"],
    ["bug","NN","bug"],
    ["and","CC","and"],
    ["research","NN","research"],
    ["math-related","JJ","math-related"],
    ["kids","NNS","kid"],
    ["books","NNS","book"],
    ["and","CC","and"],
    ["find","VBP","find"],
    ["this","DT","this"],
    ["one","CD","one"],
    [".",".","."]
  ]
},
{
  "tag":"S",
  "content":
  [
    ["Which","WDT","Which"],
    ["is","VBZ","be"],
    ["kind","VBP","kind"],
    ["of","IN","of"],
    ["too","RB","too"],
    ["bad","JJ","bad"],
    [".",".","."]
  ]
},
{
  "tag":"S",
  "content":
  [
    ["I","PRP","I"],
    ["think","VBP","think"],
    ["any","DT","any"],
    ["kid","NN","kid"],
    ["would","MD","would"],
    ["enjoy","VB","enjoy"],
    ["this","DT","this"],
    ["book","NN","book"],
    [",",",",","],
    ["as","IN","as"],
    ["would","MD","would"],
    ["any","DT","any"],
    ["math-loving","JJ","math-loving"],
    ["adult","NN","adult"],
    [".",".","."]
  ]
},
{
  "tag":"S",
  "content":
  [
    ["It","PRP","It"],
    ["would","MD","would"],
    ["make","VB","mak"],
    ["a","DT","a"],
    ["great","JJ","gre"],
    ["present","NN","pres"],
    ["for","IN","for"],
    ["any","DT","any"],
    ["family","NN","famy"],
    ["with","IN","with"],
    ["a","DT","a"],
    ["young","JJ","young"],
    ["kid","NN","kid"],
    ["or","CC","or"],
    ["as","IN","as"],
    ["a","DT","a"],
    ["fun","NN","fun"],
    ["gift","NN","gift"],
    ["for","IN","for"],
    ["any","DT","any"],
    ["sciencey","NN","sciencey"],
    ["person","NN","person"],
    ["in","IN","in"],
    ["your","PRP$","your"],
    ["life","NN","lif"],
    [".",".","."]
  ]
},
{
  "tag":"S",
  "content":
  [
    ["And","CC","And"],
    ["to","TO","to"],
    ["cycle","VB","cyc"],
    ["even","RB","ev"],
    ["further","JJR","furth"],
    ["back","RB","back"],
    ["in","IN","in"],
    ["time","NN","tim"],
    [",",",",","],
    ["I","PRP","I"],
    ["first","RB","first"],
    ["heard","VBD","hear"],
    ["about","IN","about"],
    ["this","DT","this"],
    ["book","NN","book"],
    ["at","IN","at"],
    ["the","DT","the"],
    ["end","NN","end"],
    ["of","IN","of"],
    ["January","NNP","janu"],
    [",",",",","],
    ["at","IN","at"],
    ["the","DT","the"],
    {
      "tag":"ORGANIZATION",
      "content":
      [
        ["Ontatio","NNP","ontatio"],
        ["Library","NNP","libr"],
        ["Association","NNP","assocy"]
      ]
    },
    ["SuperConference","NNP","superconf"],
    [",",",",","],
    ["in","IN","in"],
    ["the","DT","the"],
    ["exhibits","NNS","exhibit"],
    ["room","VBP","room"],
    [".",".","."]
  ]
},
{
  "tag":"S",
  "content":
  [
    ["The","DT","The"],
    ["distributor","NN","distribut"],
    ["for","IN","for"],
    ["the","DT","the"],
    ["book","NN","book"],
    ["had","VBD","hav"],
    ["a","DT","a"],
    ["few","JJ","few"],
    ["copies","NNS","cop"],
    ["on","IN","on"],
    ["display","NN","display"],
    ["and","CC","and"],
    ["I","PRP","I"],
    ["tweeted","VBD","tweet"],
    ["a","DT","a"],
    ["picture","NN","pict"],
    ["of","IN","of"],
    ["the","DT","the"],
    ["cover","NN","cov"],
    [":",":",":"],
    ["It","PRP","It"],
    ["'s","VBZ","'s"],
    ["hilariously","RB","hil"],
    ["fantastic","JJ","fantast"],
    ["that","IN","that"],
    ["there","EX","there"],
    ["'s","VBZ","'s"],
    ["a","DT","a"],
    ["kids","NNS","kid"],
    ["book","NN","book"],
    ["about","IN","about"],
    {
      "tag":"PERSON",
      "content":
      [
        ["Paul","NNP","paul"],
        ["Erdos","NNP","erdo"]
      ]
    },
    [":",":",":"],
    ["#","#","#"],
    {
      "tag":"ORGANIZATION",
      "content":
      [
        ["SC13","NNP","sc13"]
      ]
    },
    ["pic.twitter.com/Z99QtJke","NNP","pic.twitter.com/z99qtjke"],
    ["—","NNP","—"],
    {
      "tag":"PERSON",
      "content":
      [
        ["John","NNP","john"],
        ["Dupuis","NNP","dupu"]
      ]
    },
    ["(","NNP","("],
    ["@","NNP","@"],
    ["dupuisj","NN","dupuiss"],
    [")",":",")"],
    ["January","NNP","janu"],
    ["31","CD","31"],
    [",",",",","],
    ["2013","CD","2013"],
    ["Which","WDT","Which"],
    ["at","IN","at"],
    ["one","CD","one"],
    ["point","NN","point"],
    ["was","VBD","be"],
    ["the","DT","the"],
    ["top","JJ","top"],
    ["tweet","NN","tweet"],
    ["for","IN","for"],
    ["the","DT","the"],
    ["conference","NN","conf"],
    ["!",".","!"]
  ]
},
{
  "tag":"S",
  "content":
  [
    ["And","CC","And"],
    ["luckily","RB","lucky"],
    [",",",",","],
    ["while","IN","while"],
    ["expressing","VBG","express"],
    ["my","PRP$","my"],
    ["excitement","NN","excit"],
    ["over","IN","over"],
    ["the","DT","the"],
    ["book","NN","book"],
    ["to","TO","to"],
    ["the","DT","the"],
    ["staff","NN","staff"],
    ["at","IN","at"],
    ["the","DT","the"],
    ["distributor’s","NNS","distributor’s"],
    ["both","DT","both"],
    [",",",",","],
    ["they","PRP","they"],
    ["were","VBD","be"],
    ["kind","JJ","kind"],
    ["enough","RB","enough"],
    ["to","TO","to"],
    ["give","VB","giv"],
    ["me","PRP","me"],
    ["the","DT","the"],
    ["copy","NN","cop"],
    ["to","TO","to"],
    ["take","VB","tak"],
    ["home","NN","hom"],
    [".",".","."]
  ]
},
{
  "tag":"S",
  "content":
  [
    ["A","DT","A"],
    ["favour","PRP$","favour"],
    ["I’m","NN","i’m"],
    ["returning","VBG","return"],
    ["with","IN","with"],
    ["this","DT","this"],
    ["review","NN","review"],
    [".",".","."]
  ]
},
{
  "tag":"S",
  "content":
  [
    ["Trust","NNP","trust"],
    ["me","PRP","me"],
    [",",",",","],
    ["it","PRP","it"],
    ["was","VBD","be"],
    ["tough","JJ","tough"],
    ["waiting","NN","wait"],
    ["until","IN","until"],
    ["the","DT","the"],
    ["book","NN","book"],
    ["was","VBD","be"],
    ["actually","RB","act"],
    ["released","VBN","releas"],
    ["to","TO","to"],
    ["review","VB","review"],
    ["it","PRP","it"],
    ["!",".","!"]
  ]
},
{
  "tag":"S",
  "content":
  [
    ["Of","IN","Of"],
    ["course","NN","cours"],
    [",",",",","],
    ["the","DT","the"],
    ["book","NN","book"],
    ["is","VBZ","be"],
    ["titled","VBN","titl"],
    ["The","DT","The"],
    ["Boy","NNP","boy"],
    ["who","WP","who"],
    {
      "tag":"PERSON",
      "content":
      [
        ["Loved","NNP","lov"],
        ["Math","NNP","math"]
      ]
    },
    [".",".","."]
  ]
},
{
  "tag":"S",
  "content":
  [
    ["And","CC","And"],
    ["we","PRP","we"],
    ["don’t","JJ","don’t"],
    ["all","DT","all"],
    ["have","VBP","hav"],
    ["boys","NNS","boy"],
    [".",".","."]
  ]
},
{
  "tag":"S",
  "content":
  [
    ["What","WP","What"],
    ["about","IN","about"],
    ["girls","NNS","girl"],
    ["that","WDT","that"],
    ["love","IN","love"],
    ["math","NN","math"],
    ["?",".","?"]
  ]
},
{
  "tag":"S",
  "content":
  [
    ["Or","CC","Or"],
    ["who","WP","who"],
    ["could","MD","could"],
    ["love","VB","lov"],
    ["math","NN","math"],
    ["if","IN","if"],
    ["they","PRP","they"],
    ["had","VBD","hav"],
    ["a","DT","a"],
    ["book","NN","book"],
    ["with","IN","with"],
    ["a","DT","a"],
    ["female","JJ","fem"],
    ["role","NN","rol"],
    ["model","NN","model"],
    ["?",".","?"]
  ]
},
{
  "tag":"S",
  "content":
  [
    ["What","WP","What"],
    ["books","NNS","book"],
    ["could","MD","could"],
    ["we","VB","we"],
    ["buy","VB","buy"],
    ["for","IN","for"],
    ["them","PRP","them"],
    ["?",".","?"]
  ]
},
{
  "tag":"S",
  "content":
  [
    ["I","PRP","I"],
    ["have","VBP","hav"],
    ["some","DT","some"],
    ["suggestions","NNS","suggest"],
    [",",",",","],
    ["although","IN","although"],
    ["not","RB","not"],
    ["many","JJ","many"],
    ["that","IN","that"],
    ["would","MD","would"],
    ["be","VB","be"],
    ["for","IN","for"],
    ["girls","NNS","girl"],
    ["in","IN","in"],
    ["the","DT","the"],
    ["3-8","CD","3-8"],
    ["age","NN","ag"],
    ["range","NN","rang"],
    ["that","WDT","that"],
    ["the","DT","the"],
    ["Erdős","NNP","erdő"],
    ["appeals","NNS","ap"],
    ["to","TO","to"],
    [".",".","."]
  ]
},
{
  "tag":"S",
  "content":
  [
    {
      "tag":"PERSON",
      "content":
      [
        ["Emmy","NNP","emmy"]
      ]
    },
    ["Noether","NNP","noeth"],
    [":",":",":"],
    ["The","DT","The"],
    ["Mother","NNP","moth"],
    ["of","IN","of"],
    {
      "tag":"GPE",
      "content":
      [
        ["Modern","NNP","modern"]
      ]
    },
    ["Algebra","NNP","algebr"],
    ["Math","NNP","math"],
    ["Girls","NNP","girl"],
    ["and","CC","and"],
    {
      "tag":"PERSON",
      "content":
      [
        ["Math","NNP","math"],
        ["Girls","NNP","girl"]
      ]
    },
    ["2","CD","2"],
    [":",":",":"],
    ["Fermat’s","JJ","fermat’s"],
    ["Last","JJ","last"],
    ["Theorem","NNP","theorem"],
    ["by","IN","by"],
    {
      "tag":"PERSON",
      "content":
      [
        ["Hiroshi","NNP","hirosh"],
        ["Yuki","NNP","yuk"],
        ["Danica","NNP","danic"],
        ["McKellar","NNP","mckellar"]
      ]
    },
    ["has","VBZ","hav"],
    ["a","DT","a"],
    ["bunch","NN","bunch"],
    ["of","IN","of"],
    ["books","NNS","book"],
    ["on","IN","on"],
    ["math","NN","math"],
    ["aimed","VBN","aim"],
    ["at","IN","at"],
    ["girls","NNS","girl"],
    ["Not","RB","not"],
    ["quite","RB","quit"],
    ["math","JJ","math"],
    [",",",",","],
    ["but","CC","but"],
    ["there","EX","there"],
    ["are","VBP","be"],
    ["a","DT","a"],
    ["few","JJ","few"],
    ["books","NNS","book"],
    ["on","IN","on"],
    {
      "tag":"PERSON",
      "content":
      [
        ["Grace","NNP","grac"],
        ["Hopper","NNP","hop"]
      ]
    },
    ["aimed","VBD","aim"],
    ["at","IN","at"],
    ["girls","NNS","girl"],
    [".",".","."]
  ]
},
{
  "tag":"S",
  "content":
  [
    ["Dignifying","VBG","dign"],
    {
      "tag":"PERSON",
      "content":
      [
        ["Science","NN","sci"]
      ]
    },
    [":",":",":"],
    ["Stories","NNS","story"],
    ["About","IN","About"],
    {
      "tag":"ORGANIZATION",
      "content":
      [
        ["Women","NNP","wom"],
        ["Scientists","NNPS","sci"]
      ]
    },
    [",",",",","],
    ["a","DT","a"],
    ["graphic","JJ","graph"],
    ["novel","NN","novel"],
    ["by","IN","by"],
    {
      "tag":"PERSON",
      "content":
      [
        ["Jim","NNP","jim"],
        ["Ottaviani","NNP","ottavian"]
      ]
    },
    ["and","CC","and"],
    ["others","NNS","oth"],
    [".",".","."]
  ]
},
{
  "tag":"S",
  "content":
  [
    ["Primates","NNS","prim"],
    [":",":",":"],
    ["The","DT","The"],
    {
      "tag":"ORGANIZATION",
      "content":
      [
        ["Fearless","NNP","fearless"],
        ["Science","NNP","sci"]
      ]
    },
    ["of","IN","of"],
    {
      "tag":"PERSON",
      "content":
      [
        ["Jane","NNP","jan"],
        ["Goodall","NNP","goodal"]
      ]
    },
    [",",",",","],
    {
      "tag":"PERSON",
      "content":
      [
        ["Dian","NNP","dian"],
        ["Fossey","NNP","fossey"]
      ]
    },
    [",",",",","],
    ["and","CC","and"],
    ["Biruté","NNP","biruté"],
    ["Galdikas","NNP","galdika"],
    ["by","IN","by"],
    {
      "tag":"PERSON",
      "content":
      [
        ["Jim","NNP","jim"],
        ["Ottaviani","NNP","ottavian"]
      ]
    },
    ["and","CC","and"],
    {
      "tag":"PERSON",
      "content":
      [
        ["Maris","NNP","mar"],
        ["Wicks","NNP","wick"]
      ]
    },
    ["(","NNP","("],
    ["my","PRP$","my"],
    ["review","NN","review"],
    [")",":",")"],
    ["Further","NNP","furth"],
    ["suggestions","NNS","suggest"],
    ["of","IN","of"],
    ["books","NNS","book"],
    ["appealing","VBG","ap"],
    ["to","TO","to"],
    ["girls","NNS","girl"],
    ["(",":","("],
    ["and","CC","and"],
    ["boys","NNS","boy"],
    [")",":",")"],
    ["are","VBP","be"],
    [",",",",","],
    ["of","IN","of"],
    ["course","NN","cours"],
    [",",",",","],
    ["welcome","VB","welcom"],
    ["in","IN","in"],
    ["the","DT","the"],
    ["comments","NNS","com"],
    [".",".","."]
  ]
},
{
  "tag":"S",
  "content":
  [
    {
      "tag":"GPE",
      "content":
      [
        ["Heiligman","NNP","heiligm"]
      ]
    },
    [",",",",","],
    {
      "tag":"PERSON",
      "content":
      [
        ["Deborah","NNP","deborah"]
      ]
    },
    ["and","CC","and"],
    {
      "tag":"ORGANIZATION",
      "content":
      [
        ["LeUyen","NNP","leuy"],
        ["Pham","NNP","pham"]
      ]
    },
    [".",".","."]
  ]
},
{
  "tag":"S",
  "content":
  [
    ["The","DT","The"],
    ["Boy","NNP","boy"],
    ["Who","NNP","who"],
    ["Loved","NNP","lov"],
    ["Math","NNP","math"],
    [":",":",":"],
    ["The","DT","The"],
    {
      "tag":"ORGANIZATION",
      "content":
      [
        ["Improbable","NNP","improb"],
        ["Life","NNP","lif"]
      ]
    },
    ["of","IN","of"],
    {
      "tag":"PERSON",
      "content":
      [
        ["Paul","NNP","paul"],
        ["Erdos","NNP","erdo"]
      ]
    },
    [".",".","."]
  ]
},
{
  "tag":"S",
  "content":
  [
    {
      "tag":"GPE",
      "content":
      [
        ["New","NNP","new"],
        ["York","NNP","york"]
      ]
    },
    [":",":",":"],
    ["Roaring","NNP","roar"],
    ["Book","NNP","book"],
    ["Press","NNP","press"],
    [",",",",","],
    ["2013","CD","2013"],
    [".",".","."]
  ]
},
{
  "tag":"S",
  "content":
  [
    ["37pp","CD","37pp"],
    [".",".","."]
  ]
},
{
  "tag":"S",
  "content":
  [
    ["ISBN-13","-NONE-","ISBN-13"],
    [":",":",":"],
    ["978-1596433076","CD","978-1596433076"],
    ["(","CD","("],
    ["for","IN","for"],
    ["ages","NNS","ag"],
    ["3-8","CD","3-8"],
    [")","CD",")"],
    ["(","CD","("],
    {
      "tag":"ORGANIZATION",
      "content":
      [
        ["Advanced","NNP","adv"]
      ]
    },
    ["Reading","NNP","read"],
    {
      "tag":"PERSON",
      "content":
      [
        ["Copy","NNP","cop"]
      ]
    },
    ["provided","VBD","provid"],
    ["by","IN","by"],
    ["publisher/distributer","JJ","publisher/distribut"],
    [")","NN",")"],
    ["(",":","("],
    ["A","DT","A"],
    ["more","RBR","mor"],
    ["math-centric","JJ","math-centric"],
    ["review","NN","review"],
    ["here","RB","her"],
    [".",".","."]
  ]
},
{
  "tag":"S",
  "content":
  [
    [")","NN",")"],
    ["(","``","("],
    ["2","CD","2"],
    [")","CD",")"],
    ["More","NNP","mor"],
    ["»","NNP","»"],
    ["Comments","NNP","com"],
    ["#","#","#"],
    ["1","CD","1"],
    {
      "tag":"PERSON",
      "content":
      [
        ["Mr.","NNP","mr."],
        ["Gunn","NNP","gun"]
      ]
    },
    ["July","NNP","july"],
    ["10","CD","10"],
    [",",",",","],
    ["2013","CD","2013"],
    ["I","PRP","I"],
    ["got","VBD","get"],
    ["this","DT","this"],
    ["after","IN","after"],
    ["hearing","NN","hear"],
    ["about","IN","about"],
    ["it","PRP","it"],
    ["on","IN","on"],
    ["Boing","NNP","boing"],
    ["Boing","NNP","boing"],
    ["and","CC","and"],
    ["my","PRP$","my"],
    ["daughter","NN","daught"],
    ["loves","NNS","lov"],
    ["it","PRP","it"],
    [".",".","."]
  ]
},
{
  "tag":"S",
  "content":
  [
    ["#","#","#"],
    ["2","CD","2"],
    {
      "tag":"PERSON",
      "content":
      [
        ["John","NNP","john"],
        ["Dupuis","NNP","dupu"]
      ]
    },
    ["July","NNP","july"],
    ["12","CD","12"],
    [",",",",","],
    ["2013","CD","2013"],
    ["Yes","NNS","ye"],
    [",",",",","],
    ["it","PRP","it"],
    ["is","VBZ","be"],
    ["wonderful","JJ","wond"],
    [".",".","."]
  ]
},
{
  "tag":"S",
  "content":
  [
    ["My","PRP$","My"],
    ["copy","NN","cop"],
    ["is","VBZ","be"],
    ["actually","RB","act"],
    ["going","VBG","go"],
    ["to","TO","to"],
    ["a","DT","a"],
    ["friend","NN","friend"],
    ["with","IN","with"],
    ["a","DT","a"],
    ["baby","NN","baby"],
    ["daughter","NN","daught"],
    [".",".","."]
  ]
},
{
  "tag":"S",
  "content":
  [
    ["Post","NNP","post"],
    ["a","DT","a"],
    ["comment","NN","com"],
    ["Name","NNP","nam"],
    [":",":",":"],
    ["*","-NONE-","*"],
    ["Email","VB","email"],
    [":",":",":"],
    ["*","-NONE-","*"],
    ["Location","NN","loc"],
    [":",":",":"],
    ["Comment","NNP","com"],
    [":",":",":"],
    ["cancel","NN","cancel"],
    ["reply","RB","reply"],
    ["Notify","NNP","not"],
    ["me","PRP","me"],
    ["of","IN","of"],
    ["followup","NN","followup"],
    ["comments","NNS","com"],
    ["via","IN","via"],
    ["E-Mail","JJ","e-mail"],
    [".",".","."]
  ]
},
{
  "tag":"S",
  "content":
  [
    {
      "tag":"GPE",
      "content":
      [
        ["Search","NNP","search"]
      ]
    },
    ["This","DT","This"],
    ["Blog","NNP","blog"],
    ["Search","NNP","search"],
    ["for","IN","for"],
    [":",":",":"],
    {
      "tag":"PERSON",
      "content":
      [
        ["Subscribe","NNP","subscrib"],
        ["Subscribe","NNP","subscrib"]
      ]
    },
    ["via","IN","via"],
    [":",":",":"],
    {
      "tag":"ORGANIZATION",
      "content":
      [
        ["RSS2","NNP","rss2"],
        ["Atom","NNP","atom"],
        ["Subscribe","NNP","subscrib"]
      ]
    },
    ["via","IN","via"],
    ["a","DT","a"],
    ["feed","NN","fee"],
    ["reader","NN","read"],
    ["Search","NNP","search"],
    ["for","IN","for"],
    [":",":",":"],
    ["Recent","JJ","rec"],
    ["Posts","NNS","post"],
    {
      "tag":"GPE",
      "content":
      [
        ["Canadian","JJ","canad"]
      ]
    },
    ["Tri-Agency","NN","tri-agency"],
    {
      "tag":"PERSON",
      "content":
      [
        ["Draft","NNP","draft"],
        ["Open","NNP","op"],
        ["Access","NNP","access"],
        ["Policy","NNP","policy"]
      ]
    },
    ["&","CC","&"],
    ["Consultations","NNP","consult"],
    [":",":",":"],
    ["NSERC","NNP","nserc"],
    [",",",",","],
    {
      "tag":"ORGANIZATION",
      "content":
      [
        ["SSHRC","NNP","sshrc"]
      ]
    },
    [",",",",","],
    {
      "tag":"ORGANIZATION",
      "content":
      [
        ["CIHR","NNP","cihr"]
      ]
    },
    ["With","NNP","with"],
    ["Open","NNP","op"],
    ["Access","NNP","access"],
    ["Week","NNP","week"],
    ["next","JJ","next"],
    ["week","NN","week"],
    [",",",",","],
    ["there","EX","there"],
    ["could","MD","could"],
    ["be","VB","be"],
    ["no","RB","no"],
    ["greater","JJR","gre"],
    ["open","JJ","op"],
    ["access-related","JJ","access-related"],
    ["news","NN","new"],
    ["here","RB","her"],
    ["in…","JJ","in…"],
    ["Welcome","NNP","welcom"],
    ["to","TO","to"],
    {
      "tag":"PERSON",
      "content":
      [
        ["Yet","NNP","yet"],
        ["Another","NNP","anoth"],
        ["Science","NNP","sci"],
        ["Blogging","NNP","blog"]
      ]
    },
    ["Community","NNP","commun"],
    [":",":",":"],
    ["Popular","JJ","popul"],
    ["Science","NN","sci"],
    {
      "tag":"PERSON",
      "content":
      [
        ["Blog","NNP","blog"],
        ["Network","NNP","network"],
        ["Yes","NNP","ye"]
      ]
    },
    [",",",",","],
    ["another","DT","another"],
    ["science","NN","sci"],
    ["blogging","VBG","blog"],
    ["community","NN","commun"],
    ["among","IN","among"],
    ["the","DT","the"],
    ["many","JJ","many"],
    ["and","CC","and"],
    ["yet","RB","yet"],
    ["another","DT","another"],
    ["where","WRB","where"],
    ["an","DT","an"],
    ["established","JJ","est"],
    ["print","NN","print"],
    ["magazine…","NN","magazine…"],
    ["The","DT","The"],
    {
      "tag":"GPE",
      "content":
      [
        ["Canadian","JJ","canad"]
      ]
    },
    ["War","NNP","war"],
    ["on","IN","on"],
    {
      "tag":"GPE",
      "content":
      [
        ["Science","NNP","sci"]
      ]
    },
    [":",":",":"],
    ["Updates","NNPS","upd"],
    ["to","TO","to"],
    ["the","DT","the"],
    ["chronology","NN","chronology"],
    ["of","IN","of"],
    ["the","DT","the"],
    {
      "tag":"ORGANIZATION",
      "content":
      [
        ["Conservative","NNP","conserv"]
      ]
    },
    ["government’s","NNP","government’s"],
    ["anti-science","NNP","anti-science"],
    ["actions","NNS","act"],
    ["How","WRB","How"],
    ["bad","JJ","bad"],
    ["is","VBZ","be"],
    ["it","PRP","it"],
    ["?",".","?"]
  ]
},
{
  "tag":"S",
  "content":
  [
    ["Even","RB","ev"],
    ["the","DT","the"],
    {
      "tag":"GPE",
      "content":
      [
        ["New","NNP","new"],
        ["York","NNP","york"],
        ["Times","NNP","tim"]
      ]
    },
    ["has","VBZ","hav"],
    ["noticed","VBN","not"],
    ["what","WP","what"],
    ["is","VBZ","be"],
    ["going","VBG","go"],
    ["on","IN","on"],
    ["with…","JJ","with…"],
    ["Reading","NNP","read"],
    ["Diary","NNP","diary"],
    [":",":",":"],
    ["Tesla","NNP","tesl"],
    [":",":",":"],
    ["Inventor","NNP","inv"],
    ["of","IN","of"],
    ["the","DT","the"],
    {
      "tag":"ORGANIZATION",
      "content":
      [
        ["Electrical","NNP","elect"],
        ["Age","NNP","ag"]
      ]
    },
    ["by","IN","by"],
    ["W.","NNP","w."],
    {
      "tag":"PERSON",
      "content":
      [
        ["Bernard","NNP","bernard"],
        ["Carlson","NNP","carlson"],
        ["Nikola","NNP","nikol"],
        ["Tesla","NNP","tesl"]
      ]
    },
    ["is","VBZ","be"],
    ["a","DT","a"],
    ["science","NN","sci"],
    ["rockstar","NN","rockst"],
    [".",".","."]
  ]
},
{
  "tag":"S",
  "content":
  [
    ["How","WRB","How"],
    ["can","MD","can"],
    ["you","PRP","you"],
    ["tell","VB","tel"],
    ["?",".","?"]
  ]
},
{
  "tag":"S",
  "content":
  [
    ["Like","IN","Like"],
    ["any","DT","any"],
    ["great","JJ","gre"],
    ["rockstar","NN","rockst"],
    [",",",",","],
    ["he’s","NNP","he’s"],
    ["dead.…","NNP","dead.…"],
    ["Cool","NNP","cool"],
    ["linky","NN","linky"],
    ["stuff","NN","stuff"],
    ["for","IN","for"],
    ["science","NN","sci"],
    ["undergrads","NNS","undergrad"],
    ["(",":","("],
    ["9","CD","9"],
    [")","CD",")"],
    ["I","PRP","I"],
    ["have","VBP","hav"],
    ["a","DT","a"],
    ["son","NN","son"],
    ["who’s","VBZ","who’s"],
    ["starting","VBG","start"],
    ["his","PRP$","his"],
    ["second","JJ","second"],
    ["year","NN","year"],
    ["as","IN","as"],
    ["a","DT","a"],
    ["physics","NN","phys"],
    ["undergrad","NN","undergrad"],
    [".",".","."]
  ]
},
{
  "tag":"S",
  "content":
  [
    ["As","IN","As"],
    ["you…","JJ","you…"],
    ["Recent","NNP","rec"],
    ["CommentsCathyKarr04","NNP","commentscathykarr04"],
    ["on","IN","on"],
    ["A","DT","A"],
    ["year","NN","year"],
    ["in","IN","in"],
    ["Open","NNP","op"],
    ["Access","NNP","access"],
    ["advocacy","NN","advoc"],
    [":",":",":"],
    ["2012Canadian","JJ","2012canadian"],
    ["Government","NN","govern"],
    ["and","CC","and"],
    {
      "tag":"PERSON",
      "content":
      [
        ["Science","NNP","sci"]
      ]
    },
    ["|","NNP","|"],
    ["News","NNP","new"],
    ["Watcher","NNP","watch"],
    ["Report","NNP","report"],
    ["on","IN","on"],
    ["The","DT","The"],
    {
      "tag":"GPE",
      "content":
      [
        ["Canadian","JJ","canad"]
      ]
    },
    ["War","NNP","war"],
    ["on","IN","on"],
    {
      "tag":"GPE",
      "content":
      [
        ["Science","NNP","sci"]
      ]
    },
    [":",":",":"],
    ["A","DT","A"],
    ["long","JJ","long"],
    [",",",",","],
    ["unexaggerated","VBN","unexag"],
    [",",",",","],
    ["devastating","VBG","devast"],
    ["chronological","JJ","chronological"],
    {
      "tag":"ORGANIZATION",
      "content":
      [
        ["indictmentWhen","NNP","indictmentwh"]
      ]
    },
    ["failure","NN","fail"],
    ["leads","NNS","lead"],
    ["to","TO","to"],
    ["success","NN","success"],
    ["|",":","|"],
    {
      "tag":"PERSON",
      "content":
      [
        ["Kentucky","NNP","kentucky"],
        ["Teacher","NNP","teach"]
      ]
    },
    ["on","IN","on"],
    ["Reading","NNP","read"],
    ["Diary","NNP","diary"],
    [":",":",":"],
    ["On","IN","On"],
    ["a","DT","a"],
    ["beam","NN","beam"],
    ["of","IN","of"],
    ["light","JJ","light"],
    [":",":",":"],
    ["A","DT","A"],
    ["story","NN","story"],
    ["of","IN","of"],
    {
      "tag":"PERSON",
      "content":
      [
        ["Albert","NNP","albert"],
        ["Einstein","NNP","einstein"]
      ]
    },
    ["by","IN","by"],
    {
      "tag":"PERSON",
      "content":
      [
        ["Jennifer","NNP","jen"],
        ["Berne","NNP","bern"]
      ]
    },
    ["and","CC","and"],
    {
      "tag":"PERSON",
      "content":
      [
        ["Vladimir","NNP","vladimir"],
        ["Radunskybella","NNP","radunskybell"]
      ]
    },
    ["'s","POS","'s"],
    ["prom","NN","prom"],
    ["dress","NN","dress"],
    ["for","IN","for"],
    ["sale","NN","sal"],
    ["on","IN","on"],
    {
      "tag":"PERSON",
      "content":
      [
        ["Lane","NNP","lan"],
        ["Anderson","NNP","anderson"],
        ["Award","NNP","award"],
        ["Winners","NNP","win"]
      ]
    },
    [":",":",":"],
    ["Celebrating","NNP","celebr"],
    ["the","DT","the"],
    {
      "tag":"FACILITY",
      "content":
      [
        ["Best","NNP","best"],
        ["Science","NNP","sci"],
        ["Writing","NNP","writ"]
      ]
    },
    ["in","IN","in"],
    {
      "tag":"GPE",
      "content":
      [
        ["Canadaiwp851i8k","NNP","canadaiwp851i8k"]
      ]
    },
    ["on","IN","on"],
    ["Around","NNP","around"],
    ["the","DT","the"],
    ["Web","NNP","web"],
    [":",":",":"],
    ["Cults","NNS","cult"],
    ["of","IN","of"],
    ["librarian","JJ","libr"],
    ["personalities","NNS","person"],
    [",",",",","],
    {
      "tag":"PERSON",
      "content":
      [
        ["Undergrads","NNP","undergrad"]
      ]
    },
    ["as","IN","as"],
    ["first","JJ","first"],
    ["class","NN","class"],
    ["citizens","NNS","cit"],
    ["and","CC","and"],
    {
      "tag":"ORGANIZATION",
      "content":
      [
        ["moreArchives","NNP","morearch"]
      ]
    },
    ["October","NNP","octob"],
    ["2013","CD","2013"],
    ["September","NNP","septemb"],
    ["2013","CD","2013"],
    ["August","NNP","august"],
    ["2013","CD","2013"],
    ["July","NNP","july"],
    ["2013","CD","2013"],
    ["June","NNP","jun"],
    ["2013","CD","2013"],
    ["May","NNP","may"],
    ["2013","CD","2013"],
    ["April","NNP","april"],
    ["2013","CD","2013"],
    ["March","NNP","march"],
    ["2013","CD","2013"],
    ["February","NNP","febru"],
    ["2013","CD","2013"],
    ["January","NNP","janu"],
    ["2013","CD","2013"],
    ["December","NNP","decemb"],
    ["2012","CD","2012"],
    ["November","NNP","novemb"],
    ["2012","CD","2012"],
    ["October","NNP","octob"],
    ["2012","CD","2012"],
    ["September","NNP","septemb"],
    ["2012","CD","2012"],
    ["August","NNP","august"],
    ["2012","CD","2012"],
    ["July","NNP","july"],
    ["2012","CD","2012"],
    ["June","NNP","jun"],
    ["2012","CD","2012"],
    ["May","NNP","may"],
    ["2012","CD","2012"],
    ["April","NNP","april"],
    ["2012","CD","2012"],
    ["March","NNP","march"],
    ["2012","CD","2012"],
    ["February","NNP","febru"],
    ["2012","CD","2012"],
    ["January","NNP","janu"],
    ["2012","CD","2012"],
    ["December","NNP","decemb"],
    ["2011","CD","2011"],
    ["November","NNP","novemb"],
    ["2011","CD","2011"],
    ["October","NNP","octob"],
    ["2011","CD","2011"],
    ["September","NNP","septemb"],
    ["2011","CD","2011"],
    ["August","NNP","august"],
    ["2011","CD","2011"],
    ["July","NNP","july"],
    ["2011","CD","2011"],
    ["June","NNP","jun"],
    ["2011","CD","2011"],
    ["May","NNP","may"],
    ["2011","CD","2011"],
    ["April","NNP","april"],
    ["2011","CD","2011"],
    ["March","NNP","march"],
    ["2011","CD","2011"],
    ["February","NNP","febru"],
    ["2011","CD","2011"],
    ["January","NNP","janu"],
    ["2011","CD","2011"],
    ["December","NNP","decemb"],
    ["2010","CD","2010"],
    ["November","NNP","novemb"],
    ["2010","CD","2010"],
    ["October","NNP","octob"],
    ["2010","CD","2010"],
    ["September","NNP","septemb"],
    ["2010","CD","2010"],
    ["August","NNP","august"],
    ["2010","CD","2010"]
  ]
}]