[
{
  "tag":"S",
  "content":
  [
    {
      "tag":"GPE",
      "content":
      [
        ["Trove","NNP","trov"]
      ]
    },
    [":",":",":"],
    ["Home","NNP","hom"],
    ["About","IN","About"],
    {
      "tag":"ORGANIZATION",
      "content":
      [
        ["Site","NNP","sit"]
      ]
    },
    ["news","NN","new"],
    {
      "tag":"PERSON",
      "content":
      [
        ["Statistics","NNP","stat"],
        ["Tags","NNP","tag"],
        ["Help","NNP","help"],
        ["Forum","NNP","for"]
      ]
    },
    ["Contact","NNP","contact"],
    ["us","PRP","us"],
    ["Home","NNP","hom"],
    ["About","IN","About"],
    {
      "tag":"PERSON",
      "content":
      [
        ["Browse","NNP","brows"],
        ["Help","NNP","help"],
        ["Advanced","NNP","adv"]
      ]
    },
    ["search","NN","search"],
    {
      "tag":"PERSON",
      "content":
      [
        ["Search","NNP","search"],
        ["Sign","NNP","sign"]
      ]
    },
    ["upLogin","NNP","uplogin"],
    ["The","NNP","the"],
    ["Charleville","NNP","charlevil"],
    ["Times","NNP","tim"],
    ["(","NNP","("],
    ["Brisbane","NNP","brisb"],
    [",",",",","],
    {
      "tag":"PERSON",
      "content":
      [
        ["Qld","NNP","qld"]
      ]
    },
    [".",".","."]
  ]
},
{
  "tag":"S",
  "content":
  [
    [":",":",":"],
    ["1896","CD","1896"],
    ["-",":","-"],
    ["1954","CD","1954"],
    [")","CD",")"],
    ["(","CD","("],
    ["about","IN","about"],
    [")","CD",")"],
    ["Previous","JJ","prevy"],
    ["issue","NN","issu"],
    ["Friday","NNP","friday"],
    ["24","CD","24"],
    ["June","NNP","jun"],
    ["1938","CD","1938"],
    ["Next","NNP","next"],
    ["issue","NN","issu"],
    ["Previous","NNP","prevy"],
    ["page","NN","pag"],
    ["Page","NNP","pag"],
    ["1","CD","1"],
    ["2","CD","2"],
    ["3","CD","3"],
    ["4","CD","4"],
    ["5","CD","5"],
    ["6","CD","6"],
    ["7","CD","7"],
    ["8","CD","8"],
    ["9","CD","9"],
    ["10","CD","10"],
    ["Goof","NNP","goof"],
    ["10","CD","10"],
    ["Next","NNP","next"],
    ["page","NN","pag"],
    ["Send","NNP","send"],
    ["to","TO","to"],
    [":",":",":"],
    ["Print","NNP","print"],
    ["PDF","NNP","pdf"],
    ["JPG","NNP","jpg"],
    ["TXT","NNP","txt"],
    ["Cite","NNP","cit"],
    ["Buy","NNP","buy"],
    ["Lists","NNP","list"],
    ["(","NNP","("],
    ["None","NNP","non"],
    ["yet","RB","yet"],
    [")",":",")"],
    {
      "tag":"PERSON",
      "content":
      [
        ["Login","NNP","login"]
      ]
    },
    ["to","TO","to"],
    ["create","VB","cre"],
    ["lists","NNS","list"],
    {
      "tag":"PERSON",
      "content":
      [
        ["Tagged","NNP","tag"]
      ]
    },
    ["(","NNP","("],
    ["None","NNP","non"],
    ["yet","RB","yet"],
    [")",":",")"],
    {
      "tag":"PERSON",
      "content":
      [
        ["Add","NNP","ad"],
        ["Tags","NNP","tag"],
        ["Comments","NNP","com"]
      ]
    },
    ["(","NNP","("],
    ["None","NNP","non"],
    ["yet","RB","yet"],
    [")",":",")"],
    {
      "tag":"PERSON",
      "content":
      [
        ["Add","NNP","ad"],
        ["New","NNP","new"]
      ]
    },
    ["Comment","NNP","com"],
    ["Electronically","NNP","electron"],
    ["Translated","NNP","transl"],
    ["Text","NNP","text"],
    ["Why","NNP","why"],
    ["may","MD","may"],
    ["this","DT","this"],
    ["text","NN","text"],
    ["have","VBP","hav"],
    ["mistakes","NNS","mistak"],
    ["?",".","?"]
  ]
},
{
  "tag":"S",
  "content":
  [
    ["How","WRB","How"],
    ["to","TO","to"],
    ["correct","VB","correct"],
    ["this","DT","this"],
    ["text","NN","text"],
    ["?",".","?"]
  ]
},
{
  "tag":"S",
  "content":
  [
    ["No","DT","No"],
    ["corrections","NNS","correct"],
    ["yet","RB","yet"],
    {
      "tag":"PERSON",
      "content":
      [
        ["Mr.","NNP","mr."],
        ["Jack","NNP","jack"]
      ]
    },
    ["HIDES","NNP","hid"],
    ["DEAD","NNP","dead"],
    [",",",",","],
    ["j","NN","j"],
    {
      "tag":"PERSON",
      "content":
      [
        ["Papuan","NNP","papu"],
        ["Explorer","NNP","expl"]
      ]
    },
    ["and","CC","and"],
    {
      "tag":"GPE",
      "content":
      [
        ["Author","NNP","auth"]
      ]
    },
    [".",".","."]
  ]
},
{
  "tag":"S",
  "content":
  [
    {
      "tag":"PERSON",
      "content":
      [
        ["Mr.","NNP","mr."]
      ]
    },
    {
      "tag":"PERSON",
      "content":
      [
        ["Jack","NNP","jack"],
        ["Hides","NNP","hid"]
      ]
    },
    [".",".","."]
  ]
},
{
  "tag":"S",
  "content":
  [
    {
      "tag":"GPE",
      "content":
      [
        ["Papuan","NNP","papu"]
      ]
    },
    ["explorer","NN","expl"],
    ["and","CC","and"],
    ["author","NN","auth"],
    [",",",",","],
    ["died","VBD","die"],
    ["in","IN","in"],
    ["a","DT","a"],
    ["private","JJ","priv"],
    ["hospital","NN","hospit"],
    ["at","IN","at"],
    {
      "tag":"FACILITY",
      "content":
      [
        ["Darlinghurst","NNP","darlinghurst"]
      ]
    },
    ["on","IN","on"],
    ["Sunday","NNP","sunday"],
    [",",",",","],
    ["from","IN","from"],
    ["pneumonia","NN","pneumon"],
    [".",".","."]
  ]
},
{
  "tag":"S",
  "content":
  [
    ["Mr","NNP","mr"],
    [".",".","."]
  ]
},
{
  "tag":"S",
  "content":
  [
    {
      "tag":"GPE",
      "content":
      [
        ["Hides","NNP","hid"]
      ]
    },
    [",",",",","],
    ["who","WP","who"],
    ["was","VBD","be"],
    ["about","IN","about"],
    ["31.","CD","31."],
    ["was","VBD","be"],
    ["the","DT","the"],
    ["leader","NN","lead"],
    ["of","IN","of"],
    ["the","DT","the"],
    ["famed","VBN","fam"],
    {
      "tag":"PERSON",
      "content":
      [
        ["Papuan","NNP","papu"],
        ["Patrol","NNP","patrol"]
      ]
    },
    ["ol*","-NONE-","ol*"],
    ["eight","CD","eight"],
    ["months","NNS","mon"],
    [",",",",","],
    ["which","WDT","which"],
    ["discov","NN","discov"],
    ["ered","VBD","er"],
    ["a","DT","a"],
    ["native","JJ","nat"],
    ["race","NN","rac"],
    ["of","IN","of"],
    ["a","DT","a"],
    ["type","NN","typ"],
    ["previously","RB","prevy"],
    ["unknown","NN","unknown"],
    ["to","TO","to"],
    ["anthropologists","NNS","anthropolog"],
    [".",".","."]
  ]
},
{
  "tag":"S",
  "content":
  [
    ["The","DT","The"],
    ["pat","NN","pat"],
    ["I","PRP","I"],
    ["rol","VBP","rol"],
    ["also","RB","also"],
    ["found","VBN","find"],
    ["a","DT","a"],
    ["Papuan","NNP","papu"],
    ["``","``","``"],
    ["wonderland","NN","wonderland"],
    [".",".","."]
  ]
},
{
  "tag":"S",
  "content":
  [
    ["'*","-NONE-","'*"],
    ["fertile","VBP","fertil"],
    [",",",",","],
    ["and","CC","and"],
    ["cultivated","VBD","cult"],
    ["with","IN","with"],
    ["``","``","``"],
    ["wooden","VBN","wood"],
    ["spades","NNS","spad"],
    ["by","IN","by"],
    ["natives","NNS","nat"],
    ["of","IN","of"],
    ["an","DT","an"],
    {
      "tag":"GPE",
      "content":
      [
        ["Asiatic","JJ","asy"]
      ]
    },
    ["type","NN","typ"],
    [".",".","."]
  ]
},
{
  "tag":"S",
  "content":
  [
    ["He","PRP","He"],
    ["was","VBD","be"],
    ["an","DT","an"],
    ["experienced","VBN","expery"],
    ["patrol","NN","patrol"],
    ["officer","NN","off"],
    [",",",",","],
    ["and","CC","and"],
    ["had","VBD","hav"],
    ["led","VBN","lead"],
    ["v'arious","JJ","v'arious"],
    ["successful","JJ","success"],
    ["expedi","NN","exped"],
    ["tions","NNS","tion"],
    ["into","IN","into"],
    ["the","DT","the"],
    ["unknown","NN","unknown"],
    ["interior","NN","intery"],
    ["of","IN","of"],
    {
      "tag":"GPE",
      "content":
      [
        ["Papua","NNP","papu"]
      ]
    },
    ["and","CC","and"],
    {
      "tag":"GPE",
      "content":
      [
        ["New","NNP","new"],
        ["Guinea","NNP","guine"]
      ]
    },
    [".",".","."]
  ]
},
{
  "tag":"S",
  "content":
  [
    ["He","PRP","He"],
    ["wrote","VBD","writ"],
    ["a","DT","a"],
    ["book","NN","book"],
    ["describing","VBG","describ"],
    ["his","PRP$","his"],
    ["experiences","NNS","expery"],
    [".",".","."]
  ]
},
{
  "tag":"S",
  "content":
  [
    ["Mr","NNP","mr"],
    [".",".","."]
  ]
},
{
  "tag":"S",
  "content":
  [
    {
      "tag":"PERSON",
      "content":
      [
        ["Hides","NNP","hid"]
      ]
    },
    ["was","VBD","be"],
    ["born","VBN","bear"],
    ["in","IN","in"],
    {
      "tag":"GPE",
      "content":
      [
        ["Papua","NNP","papu"]
      ]
    },
    [",",",",","],
    ["his","PRP$","his"],
    ["father","NN","fath"],
    ["being","VBG","be"],
    ["one","CD","one"],
    ["of","IN","of"],
    ["the","DT","the"],
    ["pioneers","NNS","pion"],
    ["of","IN","of"],
    ["j","NN","j"],
    ["that","IN","that"],
    ["country","NN","country"],
    [".",".","."]
  ]
},
{
  "tag":"S",
  "content":
  [
    ["His","PRP$","His"],
    ["mother","NN","moth"],
    ["was","VBD","be"],
    ["the","DT","the"],
    ["first","JJ","first"],
    ["white","JJ","whit"],
    ["woman","NN","wom"],
    ["to","TO","to"],
    ["visit","VB","visit"],
    {
      "tag":"GPE",
      "content":
      [
        ["Dutch","JJ","dutch"]
      ]
    },
    ["New","NNP","new"],
    ["I","NNP","i"],
    ["Guinea","NNP","guine"],
    [".",".","."]
  ]
},
{
  "tag":"S",
  "content":
  [
    ["He","PRP","He"],
    ["resigned","VBD","resign"],
    ["from","IN","from"],
    ["the","DT","the"],
    ["service","NN","serv"],
    ["j","NN","j"],
    ["t","NN","t"],
    [")",":",")"],
    ["f","NN","f"],
    ["the","DT","the"],
    {
      "tag":"PERSON",
      "content":
      [
        ["Papuan","NNP","papu"],
        ["Administration","NNP","admin"]
      ]
    },
    ["in","IN","in"],
    ["1936","CD","1936"],
    ["'","POS","'"],
    ["ta","NN","ta"],
    ["lead","NN","lead"],
    ["an","DT","an"],
    ["expedition","NN","expedit"],
    ["into","IN","into"],
    {
      "tag":"PERSON",
      "content":
      [
        ["Papua","NNP","papu"]
      ]
    },
    ["and","CC","and"],
    ["'","POS","'"],
    {
      "tag":"ORGANIZATION",
      "content":
      [
        ["New","NNP","new"],
        ["Guinea","NNP","guine"]
      ]
    },
    ["in","IN","in"],
    ["search","NN","search"],
    ["of","IN","of"],
    ["gold","NN","gold"],
    [".",".","."]
  ]
},
{
  "tag":"S",
  "content":
  [
    {
      "tag":"GPE",
      "content":
      [
        ["Zoom","NNP","zoom"]
      ]
    },
    ["plus","CC","plus"],
    ["thumb","NN","thumb"],
    ["minus","NN","min"],
    ["left","VBD","leav"],
    ["thumb","NN","thumb"],
    ["right","RB","right"],
    ["up","IN","up"],
    ["thumb","NN","thumb"],
    ["down","IN","down"]
  ]
}]