[
{
  "tag":"S",
  "content":
  [
    {
      "tag":"ORGANIZATION",
      "content":
      [
        ["io9","NNP","io9"]
      ]
    },
    ["CMorning","NNP","cmorn"],
    ["SpoilersCObservation","NNP","spoilerscobserv"],
    ["DeckCSpaceCUpgrade","NNP","deckcspacecupgrad"],
    ["KinjaDeadspinGawkerGizmodoio9JalopnikJezebelKotakuLifehackerPOS","NNP","kinjadeadspingawkergizmodoio9jalopnikjezebelkotakulifehackerpos"],
    ["SAdvancedInclude","NNP","sadvancedinclud"],
    ["UnpublishedInclude","NNP","unpublishedinclud"],
    ["RepliesInclude","NNP","repliesinclud"],
    ["only","RB","on"],
    ["posts","VBZ","post"],
    ["that","IN","that"],
    ["have","VBP","hav"],
    ["...",":","..."],
    ["ImagesVideoMarked","NNP","imagesvideomark"],
    ["as","IN","as"],
    {
      "tag":"ORGANIZATION",
      "content":
      [
        ["Spam171EjiGeEdit","NNP","spam171ejigeedit"]
      ]
    },
    ["BPromote","NNP","bpromote"],
    ["Science","NNP","sci"],
    ["and","CC","and"],
    ["entertainment","NN","entertain"],
    ["from","IN","from"],
    ["the","DT","the"],
    ["world","NN","world"],
    ["of","IN","of"],
    ["tomorrow","NN","tomorrow"],
    [".",".","."]
  ]
},
{
  "tag":"S",
  "content":
  [
    {
      "tag":"GPE",
      "content":
      [
        ["Science","NN","sci"]
      ]
    },
    ["·","``","·"],
    ["Movies","NNS","movy"],
    ["·","VBP","·"],
    ["Tv","NNP","tv"],
    ["·","NNP","·"],
    {
      "tag":"PERSON",
      "content":
      [
        ["Books","NNP","book"]
      ]
    },
    ["·","NNP","·"],
    ["Futurism","NNP","fut"],
    ["·","NNP","·"],
    ["Concept","NNP","conceiv"],
    ["Art","NNP","art"],
    ["·","NNP","·"],
    ["Comics","NNP","com"],
    ["·","NNP","·"],
    ["Space","NNP","spac"],
    ["·","NNP","·"],
    ["Superlist","NNP","superl"],
    ["io9Top","NNP","io9top"],
    ["stories","VBZ","story"],
    {
      "tag":"PERSON",
      "content":
      [
        ["Patton","NNP","patton"],
        ["Oswalt","NNP","oswalt"]
      ]
    },
    ["'s","POS","'s"],
    {
      "tag":"ORGANIZATION",
      "content":
      [
        ["TED","NNP","ted"],
        ["Talk","NNP","talk"]
      ]
    },
    ["is","VBZ","be"],
    ["true","JJ","tru"],
    {
      "tag":"ORGANIZATION",
      "content":
      [
        ["geniusStop","NNP","geniusstop"]
      ]
    },
    ["working","NN","work"],
    ["and","CC","and"],
    ["watch","NN","watch"],
    ["this","DT","this"],
    ["Game","NNP","gam"],
    ["of","IN","of"],
    {
      "tag":"GPE",
      "content":
      [
        ["Thrones","NNP","thrones"]
      ]
    },
    ["bad","JJ","bad"],
    ["lip","NN","lip"],
    ["reading","NN","read"],
    ["NOWThis","NNP","nowth"],
    ["map","NN","map"],
    ["of","IN","of"],
    ["gender","NN","gend"],
    ["segregation","NN","segreg"],
    ["shows","VBZ","show"],
    ["how","WRB","how"],
    {
      "tag":"ORGANIZATION",
      "content":
      [
        ["New","NNP","new"],
        ["Yorkers","NNPS","york"]
      ]
    },
    ["live","VBP","liv"],
    ["and","CC","and"],
    {
      "tag":"ORGANIZATION",
      "content":
      [
        ["dieThe","NNP","dieth"]
      ]
    },
    ["Top","NNP","top"],
    ["50","CD","50"],
    {
      "tag":"ORGANIZATION",
      "content":
      [
        ["Scariest","NNP","scariest"],
        ["Television","NNP","televid"],
        ["Episodes","NNP","episod"]
      ]
    },
    ["of","IN","of"],
    {
      "tag":"ORGANIZATION",
      "content":
      [
        ["All","NNP","al"],
        ["Time","NNP","tim"]
      ]
    },
    [",",",",","],
    {
      "tag":"ORGANIZATION",
      "content":
      [
        ["Part","NNP","part"]
      ]
    },
    ["1The","CD","1The"],
    {
      "tag":"PERSON",
      "content":
      [
        ["Freakiest","NNP","freakiest"],
        ["Thing","NNP","thing"],
        ["Julianne","NNP","julian"],
        ["Moore","NNP","moor"],
        ["Does","NNP","doe"]
      ]
    },
    ["in","IN","in"],
    ["the","DT","the"],
    {
      "tag":"ORGANIZATION",
      "content":
      [
        ["Carrie","NNP","carry"]
      ]
    },
    ["RemakeWhat","NNP","remakewh"],
    ["is","VBZ","be"],
    ["going","VBG","go"],
    ["on","IN","on"],
    ["in","IN","in"],
    ["these","DT","these"],
    ["horrifying","NN","horr"],
    ["Game","NNP","gam"],
    ["of","IN","of"],
    {
      "tag":"GPE",
      "content":
      [
        ["Thrones","NNP","thrones"]
      ]
    },
    ["set","NN","set"],
    ["photos","NNS","photo"],
    ["?",".","?"],
    ["How","WRB","How"],
    ["does","VBZ","do"],
    {
      "tag":"PERSON",
      "content":
      [
        ["Tetanus","NNP","tetan"]
      ]
    },
    ["actually","RB","act"],
    ["lock","NN","lock"],
    ["your","PRP$","your"],
    ["jaw","NN","jaw"],
    ["together","RB","togeth"],
    ["?",".","?"],
    ["This","DT","This"],
    {
      "tag":"PERSON",
      "content":
      [
        ["Honest","NNP","honest"],
        ["Trailer","NNP","trail"]
      ]
    },
    ["for","IN","for"],
    ["The","DT","The"],
    ["Walking","NNP","walk"],
    ["Dead","NNP","dead"],
    ["is","VBZ","be"],
    ["dead","JJ","dead"],
    {
      "tag":"ORGANIZATION",
      "content":
      [
        ["onVin","NNP","onvin"],
        ["Diesel","NNP","diesel"]
      ]
    },
    ["will","MD","will"],
    ["only","RB","on"],
    ["have","VB","hav"],
    ["one","CD","one"],
    ["line","NN","lin"],
    ["in","IN","in"],
    {
      "tag":"GPE",
      "content":
      [
        ["Guardians","NNP","guard"]
      ]
    },
    ["of","IN","of"],
    ["the","DT","the"],
    {
      "tag":"ORGANIZATION",
      "content":
      [
        ["GalaxyThese","NNP","galaxythes"]
      ]
    },
    ["images","VBZ","im"],
    ["show","NN","show"],
    ["just","RB","just"],
    ["how","WRB","how"],
    ["differently","RB","diff"],
    ["cats","VBZ","cat"],
    ["and","CC","and"],
    ["humans","NNS","hum"],
    ["see","VBP","see"],
    ["the","DT","the"],
    {
      "tag":"ORGANIZATION",
      "content":
      [
        ["worldThis","NNP","worldth"]
      ]
    },
    ["trailer","NN","trail"],
    ["for","IN","for"],
    {
      "tag":"PERSON",
      "content":
      [
        ["Blade","NNP","blad"],
        ["Runner","NNP","run"]
      ]
    },
    ["as","IN","as"],
    ["a","DT","a"],
    ["1940s","CD","1940s"],
    ["noir","NN","noir"],
    ["film","NN","film"],
    ["is","VBZ","be"],
    {
      "tag":"ORGANIZATION",
      "content":
      [
        ["geniusWatch","NNP","geniuswatch"]
      ]
    },
    ["this","DT","this"],
    ["amazing","NN","amaz"],
    ["short","NN","short"],
    ["film","NN","film"],
    ["celebrating","VBG","celebr"],
    ["Superman’s","NNS","superman’s"],
    ["75th","CD","75th"],
    {
      "tag":"ORGANIZATION",
      "content":
      [
        ["anniversaryHow","NNP","anniversaryhow"]
      ]
    },
    ["to","TO","to"],
    ["Win","NNP","win"],
    ["a","DT","a"],
    ["Fight","NNP","fight"],
    ["with","IN","with"],
    ["a","DT","a"],
    ["Superfan","NNP","superf"],
    ["on","IN","on"],
    ["the","DT","the"],
    {
      "tag":"ORGANIZATION",
      "content":
      [
        ["InternetRussians","NNP","internetruss"],
        ["Pull","NNP","pul"],
        ["Chelyabinsk","NNP","chelyabinsk"]
      ]
    },
    {
      "tag":"ORGANIZATION",
      "content":
      [
        ["Meteorite","NNP","meteorit"]
      ]
    },
    ["From","NNP","from"],
    ["Lake","NNP","lak"],
    [",",",",","],
    {
      "tag":"PERSON",
      "content":
      [
        ["Promptly","NNP","prompt"],
        ["Break","NNP","break"]
      ]
    },
    ["ItWhat","NNP","itwh"],
    ["if","IN","if"],
    ["the","DT","the"],
    {
      "tag":"ORGANIZATION",
      "content":
      [
        ["Moon","NNP","moon"]
      ]
    },
    ["was","VBD","be"],
    ["as","IN","as"],
    ["close","JJ","clos"],
    ["as","IN","as"],
    ["the","DT","the"],
    {
      "tag":"ORGANIZATION",
      "content":
      [
        ["International","NNP","intern"],
        ["Space","NNP","spac"],
        ["Station","NNP","stat"]
      ]
    },
    ["?",".","?"],
    ["What","WP","What"],
    ["book","NN","book"],
    ["would","MD","would"],
    ["you","PRP","you"],
    ["give","VB","giv"],
    ["someone","NN","someon"],
    ["you","PRP","you"],
    ["wanted","VBD","want"],
    ["to","TO","to"],
    ["have","VB","hav"],
    ["terrible","JJ","terr"],
    ["dreams","NNS","dream"],
    ["?",".","?"],
    ["I","PRP","I"],
    ["ca","MD","ca"],
    ["n't","RB","n't"],
    ["stop","VB","stop"],
    ["watching","VBG","watch"],
    ["this","DT","this"],
    ["video","NN","video"],
    ["of","IN","of"],
    ["a","DT","a"],
    ["rocket","NN","rocket"],
    ["launching","VBG","launch"],
    ["and","CC","and"],
    {
      "tag":"ORGANIZATION",
      "content":
      [
        ["landingThis","NNP","landingth"]
      ]
    },
    ["map","NN","map"],
    ["of","IN","of"],
    {
      "tag":"GPE",
      "content":
      [
        ["Nobel","NNP","nobel"]
      ]
    },
    ["prize","NN","priz"],
    ["winners","NNS","win"],
    ["shows","VBZ","show"],
    ["a","DT","a"],
    ["disturbing","JJ","disturb"],
    ["level","NN","level"],
    ["of","IN","of"],
    {
      "tag":"ORGANIZATION",
      "content":
      [
        ["inequalitySomebody","NNP","inequalitysomebody"]
      ]
    },
    ["help","NN","help"],
    ["–",":","–"],
    ["we","PRP","we"],
    ["ca","MD","ca"],
    ["n't","RB","n't"],
    ["stop","VB","stop"],
    ["watching","VBG","watch"],
    ["these","DT","these"],
    ["trippy","JJ","trippy"],
    ["animated","VBN","anim"],
    {
      "tag":"ORGANIZATION",
      "content":
      [
        ["gifsA","NNP","gifs"],
        ["Whole","NNP","whol"],
        ["Galaxy","NNP","galaxy"]
      ]
    },
    ["'s","POS","'s"],
    ["Worth","NNP","wor"],
    ["of","IN","of"],
    {
      "tag":"ORGANIZATION",
      "content":
      [
        ["Star","NNP","star"],
        ["Wars","NNP","war"]
      ]
    },
    [":",":",":"],
    {
      "tag":"PERSON",
      "content":
      [
        ["Rebels","NNPS","rebel"],
        ["Concept","NNP","conceiv"],
        ["Art","NNP","art"]
      ]
    },
    ["!",".","!"]
  ]
},
{
  "tag":"S",
  "content":
  [
    {
      "tag":"PERSON",
      "content":
      [
        ["Click","NNP","click"]
      ]
    },
    ["here","RB","her"],
    ["to","TO","to"],
    ["continue","VB","continu"],
    ["reading","NN","read"],
    ["...",":","..."],
    ["XPlease","NNP","xplease"],
    ["update","NN","upd"],
    ["your","PRP$","your"],
    ["browser","NN","brows"],
    ["for","IN","for"],
    ["a","DT","a"],
    ["better","JJR","good"],
    ["experience","NN","expery"],
    ["on","IN","on"],
    ["io9.XYour","JJ","io9.xyour"],
    ["Kinja","NNP","kinj"],
    ["blog","NN","blog"],
    ["will","MD","will"],
    ["upgrade","VB","upgrad"],
    ["to","TO","to"],
    ["our","PRP$","our"],
    ["latest","JJS","lat"],
    ["design","NN","design"],
    ["on","IN","on"],
    ["October","NNP","octob"],
    ["18","CD","18"],
    ["at","IN","at"],
    ["6AM","CD","6AM"],
    ["EDT","NNP","edt"],
    [".",".","."]
  ]
},
{
  "tag":"S",
  "content":
  [
    {
      "tag":"PERSON",
      "content":
      [
        ["George","NNP","georg"]
      ]
    },
    {
      "tag":"PERSON",
      "content":
      [
        ["Dvorsky","NNP","dvorsky"],
        ["Neuroscience","NNP","neuroscy"]
      ]
    },
    ["cognitive","JJ","cognit"],
    ["science","NN","sci"],
    ["albert","NN","albert"],
    ["einstein","NN","einstein"],
    ["corpus","VBZ","corp"],
    ["callosum","NN","callos"],
    ["genius","NN","geni"],
    ["scientists","NNS","sci"],
    ["famous","JJ","fam"],
    ["scientists","NNS","sci"],
    ["science","NN","sci"]
  ]
}]