[
{
  "tag":"S",
  "content":
  [
    {
      "tag":"GPE",
      "content":
      [
        ["Skip","NNP","skip"]
      ]
    },
    ["to","TO","to"],
    ["main","VB","main"],
    ["content","NN","cont"],
    ["A","DT","A"],
    ["&","CC","&"],
    {
      "tag":"ORGANIZATION",
      "content":
      [
        ["ENewsLifeLeisureSportsTechVideo","NNP","enewslifeleisuresportstechvideo"],
        ["Facebook","NNP","facebook"]
      ]
    },
    ["Twitter","NNP","twit"],
    ["Google+","NNP","google+"],
    ["Search","NNP","search"],
    ["Login/logout","NNP","login/logout"],
    ["Arts","NNP","art"],
    ["&","CC","&"],
    {
      "tag":"ORGANIZATION",
      "content":
      [
        ["Entertainment","NNP","entertain"],
        ["Performing","NNP","perform"],
        ["Arts","NNP","art"]
      ]
    },
    ["Zachary","NNP","zach"],
    {
      "tag":"PERSON",
      "content":
      [
        ["Andrews","NNP","andrew"]
      ]
    },
    ["sinks","VBZ","sink"],
    ["his","PRP$","his"],
    ["teeth","NN","tee"],
    ["into","IN","into"],
    ["The","DT","The"],
    {
      "tag":"ORGANIZATION",
      "content":
      [
        ["Coterie","NNP","cotery"]
      ]
    },
    ["'s","POS","'s"],
    ["``","``","``"],
    ["Dracula","NNP","dracul"],
    ["''","''","''"],
    ["production","NN","produc"],
    ["(",":","("],
    {
      "tag":"GPE",
      "content":
      [
        ["Photos","NNP","photo"]
      ]
    },
    [")",":",")"],
    {
      "tag":"ORGANIZATION",
      "content":
      [
        ["Comment","NNP","com"],
        ["Share","NNP","shar"],
        ["Facebook","NNP","facebook"]
      ]
    },
    ["Twitter","NNP","twit"],
    ["Google+","NNP","google+"],
    ["Email","NNP","email"],
    ["Print","NNP","print"],
    ["See","NNP","see"],
    ["alsoTheater","NNP","alsoth"],
    ["Performing","NNP","perform"],
    ["Arts","NNP","art"],
    {
      "tag":"PERSON",
      "content":
      [
        ["Kansas","NNP","kansa"],
        ["City","NNP","city"]
      ]
    },
    ["Theater","NNP","the"],
    ["Arts","NNP","art"],
    ["&","CC","&"],
    {
      "tag":"ORGANIZATION",
      "content":
      [
        ["Entertainment","NNP","entertain"]
      ]
    },
    ["View","NNP","view"],
    ["13","CD","13"],
    ["photosCamera","NNP","photoscamer"],
    ["''","''","''"],
    {
      "tag":"PERSON",
      "content":
      [
        ["Dracula","NNP","dracul"]
      ]
    },
    [":",":",":"],
    ["The","DT","The"],
    {
      "tag":"ORGANIZATION",
      "content":
      [
        ["Journal","NNP","journ"]
      ]
    },
    ["of","IN","of"],
    {
      "tag":"PERSON",
      "content":
      [
        ["Jonathan","NNP","jonath"],
        ["Harker","NNP","hark"]
      ]
    },
    ["''","''","''"],
    ["at","IN","at"],
    {
      "tag":"ORGANIZATION",
      "content":
      [
        ["Kansas","NNP","kansa"],
        ["City","NNP","city"]
      ]
    },
    ["'s","POS","'s"],
    ["The","NNP","the"],
    {
      "tag":"PERSON",
      "content":
      [
        ["Coterie","NNP","cotery"],
        ["Theatre","NNP","the"]
      ]
    },
    ["(","NNP","("],
    ["J.","NNP","j."],
    {
      "tag":"PERSON",
      "content":
      [
        ["Robert","NNP","robert"],
        ["Schrader","NNP","schrader"]
      ]
    },
    [")","NNP",")"],
    {
      "tag":"PERSON",
      "content":
      [
        ["Bob","NNP","bob"],
        ["EvansKansas","NNP","evanskansa"],
        ["City","NNP","city"],
        ["Performing","NNP","perform"],
        ["Arts","NNP","art"],
        ["Examiner","NNP","examin"],
        ["Subscribe","NNP","subscrib"],
        ["Follow","NNP","follow"]
      ]
    },
    [":",":",":"],
    {
      "tag":"PERSON",
      "content":
      [
        ["Related","NNP","rel"],
        ["Photo","NNP","photo"]
      ]
    },
    [":",":",":"],
    {
      "tag":"PERSON",
      "content":
      [
        ["Holly","NNP","hol"],
        ["Burrows","NNP","burrow"]
      ]
    },
    ["From","NNP","from"],
    ["the","DT","the"],
    ["young","JJ","young"],
    ["to","TO","to"],
    ["the","DT","the"],
    ["young-at-heart","NN","young-at-heart"],
    [",",",",","],
    {
      "tag":"ORGANIZATION",
      "content":
      [
        ["The","NNP","the"],
        ["Coterie","NNP","cotery"],
        ["Theatre","NNP","the"]
      ]
    },
    ["'s","POS","'s"],
    ["current","JJ","cur"],
    ["production","NN","produc"],
    ["``","``","``"],
    {
      "tag":"PERSON",
      "content":
      [
        ["Dracula","NNP","dracul"]
      ]
    },
    [":",":",":"],
    ["The","DT","The"],
    {
      "tag":"ORGANIZATION",
      "content":
      [
        ["Journal","NNP","journ"]
      ]
    },
    ["of","IN","of"],
    {
      "tag":"PERSON",
      "content":
      [
        ["Jonathan","NNP","jonath"],
        ["Harker","NNP","hark"]
      ]
    },
    ["''","''","''"],
    ["brings","VBZ","bring"],
    {
      "tag":"PERSON",
      "content":
      [
        ["Halloween","NNP","halloween"]
      ]
    },
    ["season","NN","season"],
    ["chills","NNS","chil"],
    ["as","IN","as"],
    ["it","PRP","it"],
    ["re-enacts","VBZ","re-enacts"],
    ["the","DT","the"],
    ["story","NN","story"],
    ["of","IN","of"],
    ["the","DT","the"],
    ["legendary","JJ","legend"],
    ["vampire..","NNP","vampire.."],
    ["Holly","NNP","hol"],
    ["Burrows","NNP","burrow"],
    ["Advertisement","NNP","advert"],
    ["Dracula","NNP","dracul"],
    [":",":",":"],
    ["The","DT","The"],
    {
      "tag":"ORGANIZATION",
      "content":
      [
        ["Journal","NNP","journ"]
      ]
    },
    ["of","IN","of"],
    {
      "tag":"PERSON",
      "content":
      [
        ["Jonathan","NNP","jonath"],
        ["Harker","NNP","hark"]
      ]
    },
    ["Rating","NNP","rat"],
    [":",":",":"],
    {
      "tag":"ORGANIZATION",
      "content":
      [
        ["Star5StarStarStarStar","NNP","star5starstarstarst"]
      ]
    },
    ["October","NNP","octob"],
    ["12","CD","12"],
    [",",",",","],
    ["2013","CD","2013"],
    ["So","RB","so"],
    ["fitting","VBG","fit"],
    ["for","IN","for"],
    {
      "tag":"PERSON",
      "content":
      [
        ["Halloween","NNP","halloween"]
      ]
    },
    ["season","NN","season"],
    ["approaching","VBG","approach"],
    [",",",",","],
    ["The","DT","The"],
    ["Coterie’s","NNP","coterie’s"],
    ["current","JJ","cur"],
    ["show","NN","show"],
    [",",",",","],
    {
      "tag":"PERSON",
      "content":
      [
        ["Dracula","NNP","dracul"]
      ]
    },
    [":",":",":"],
    ["The","DT","The"],
    {
      "tag":"ORGANIZATION",
      "content":
      [
        ["Journal","NNP","journ"]
      ]
    },
    ["of","IN","of"],
    {
      "tag":"PERSON",
      "content":
      [
        ["Jonathan","NNP","jonath"],
        ["Harker","NNP","hark"]
      ]
    },
    [",",",",","],
    ["presents","NNS","pres"],
    ["a","DT","a"],
    ["one-man","JJ","one-man"],
    ["dynamic","JJ","dynam"],
    ["performance","NN","perform"],
    ["of","IN","of"],
    ["acting","VBG","act"],
    ["expertise","NN","expert"],
    [",",",",","],
    ["physical","JJ","phys"],
    ["movement","NN","mov"],
    [",",",",","],
    ["and","CC","and"],
    ["creepy","NN","creepy"],
    ["storytelling","VBG","storytel"],
    ["to","TO","to"],
    ["the","DT","the"],
    ["delight","NN","delight"],
    ["of","IN","of"],
    ["the","DT","the"],
    ["audience","NN","audy"],
    ["who","WP","who"],
    ["rewarded","VBN","reward"],
    ["the","DT","the"],
    ["actor","NN","act"],
    ["a","DT","a"],
    ["standing","NN","stand"],
    ["ovation","NN","ov"],
    [".",".","."]
  ]
},
{
  "tag":"S",
  "content":
  [
    {
      "tag":"PERSON",
      "content":
      [
        ["Dracula","NNP","dracul"]
      ]
    },
    ["opened","VBD","op"],
    ["Oct.","NNP","oct."],
    ["13","CD","13"],
    ["at","IN","at"],
    {
      "tag":"FACILITY",
      "content":
      [
        ["The","DT","The"],
        ["Coterie","NNP","cotery"]
      ]
    },
    [",",",",","],
    {
      "tag":"PERSON",
      "content":
      [
        ["Kansas","NNP","kansa"]
      ]
    },
    ["City’s","NNP","city’s"],
    ["nationally","RB","nat"],
    ["recognized","VBD","recogn"],
    ["theater","NN","the"],
    ["for","IN","for"],
    ["young","JJ","young"],
    ["audiences","NNS","audy"],
    [",",",",","],
    ["but","CC","but"],
    ["judging","VBG","judg"],
    ["from","IN","from"],
    ["the","DT","the"],
    ["audience","NN","audy"],
    [",",",",","],
    ["the","DT","the"],
    ["theater","NN","the"],
    ["attracts","VBZ","attract"],
    ["more","JJR","mor"],
    ["adults","NNS","adult"],
    ["than","IN","than"],
    ["children","NNS","child"],
    [".",".","."]
  ]
},
{
  "tag":"S",
  "content":
  [
    ["The","DT","The"],
    ["story","NN","story"],
    ["of","IN","of"],
    {
      "tag":"PERSON",
      "content":
      [
        ["Jonathan","NNP","jonath"],
        ["Harker","NNP","hark"]
      ]
    },
    ["appeals","NNS","ap"],
    ["to","TO","to"],
    ["the","DT","the"],
    ["young","JJ","young"],
    ["at","IN","at"],
    ["heart","NN","heart"],
    [",",",",","],
    ["regardless","RB","regardless"],
    ["of","IN","of"],
    ["age","NN","ag"],
    [".",".","."]
  ]
},
{
  "tag":"S",
  "content":
  [
    ["The","DT","The"],
    ["story","NN","story"],
    ["of","IN","of"],
    {
      "tag":"PERSON",
      "content":
      [
        ["Count","NNP","count"],
        ["Dracula","NNP","dracul"]
      ]
    },
    ["and","CC","and"],
    ["his","PRP$","his"],
    ["thirst","NN","thirst"],
    ["for","IN","for"],
    ["blood","NN","blood"],
    ["continues","VBZ","continu"],
    ["to","TO","to"],
    ["be","VB","be"],
    ["the","DT","the"],
    ["basis","NN","bas"],
    ["for","IN","for"],
    ["all","DT","all"],
    ["the","DT","the"],
    ["subsequent","JJ","subsequ"],
    ["vampire","NN","vampir"],
    ["movies","NNS","movy"],
    ["and","CC","and"],
    ["horror","NN","hor"],
    ["stories","NNS","story"],
    [".",".","."]
  ]
},
{
  "tag":"S",
  "content":
  [
    ["The","DT","The"],
    ["Coterie’s","JJ","coterie’s"],
    ["production","NN","produc"],
    ["does","VBZ","do"],
    ["an","DT","an"],
    ["astounding","NN","astound"],
    ["job","NN","job"],
    ["of","IN","of"],
    ["presenting","VBG","pres"],
    ["the","DT","the"],
    ["story","NN","story"],
    ["of","IN","of"],
    ["the","DT","the"],
    {
      "tag":"ORGANIZATION",
      "content":
      [
        ["Bram","NNP","bram"]
      ]
    },
    ["Stoker","NNP","stok"],
    ["1897","CD","1897"],
    ["Gothic","NNP","goth"],
    ["novel","NN","novel"],
    [".",".","."]
  ]
},
{
  "tag":"S",
  "content":
  [
    ["At","IN","At"],
    {
      "tag":"FACILITY",
      "content":
      [
        ["The","DT","The"],
        ["Coterie","NNP","cotery"]
      ]
    },
    [",",",",","],
    ["just","RB","just"],
    ["sit","NN","sit"],
    ["back","RB","back"],
    ["and","CC","and"],
    ["know","VB","know"],
    ["the","DT","the"],
    ["show","NN","show"],
    ["will","MD","will"],
    ["appeal","VB","ap"],
    ["to","TO","to"],
    ["all","DT","all"],
    ["ages","NNS","ag"],
    [".",".","."]
  ]
},
{
  "tag":"S",
  "content":
  [
    {
      "tag":"GPE",
      "content":
      [
        ["Rest","NN","rest"]
      ]
    },
    ["assured","VBD","ass"],
    ["adult","NN","adult"],
    ["language","NN","langu"],
    ["never","RB","nev"],
    ["occurs","VBZ","occ"],
    [",",",",","],
    ["and","CC","and"],
    ["all","DT","all"],
    ["productions","NNS","produc"],
    ["encourage","VBP","enco"],
    ["family-friendly","JJ","family-friend"],
    ["audiences","NNS","audy"],
    [".",".","."]
  ]
},
{
  "tag":"S",
  "content":
  [
    ["With","IN","With"],
    ["most","JJS","most"],
    ["shows","NNS","show"],
    ["about","IN","about"],
    ["an","DT","an"],
    ["hour","NN","hour"],
    ["in","IN","in"],
    ["length","NN","leng"],
    [",",",",","],
    ["weekday","NN","weekday"],
    ["performances","NNS","perform"],
    ["welcome","VB","welcom"],
    ["bus","NNS","bus"],
    ["loads","NNS","load"],
    ["of","IN","of"],
    ["students","NNS","stud"],
    ["from","IN","from"],
    ["the","DT","the"],
    ["metro","NN","metro"],
    ["area","NN","are"],
    ["who","WP","who"],
    ["need","VBP","nee"],
    ["to","TO","to"],
    ["experience","NN","expery"],
    ["live","VB","liv"],
    ["theater","NN","the"],
    ["specifically","RB","spec"],
    ["directed","VBN","direct"],
    ["toward","IN","toward"],
    ["their","PRP$","their"],
    ["interests","NNS","interest"],
    [".",".","."]
  ]
},
{
  "tag":"S",
  "content":
  [
    {
      "tag":"GPE",
      "content":
      [
        ["Dracula","NNP","dracul"]
      ]
    },
    [":",":",":"],
    ["The","DT","The"],
    {
      "tag":"ORGANIZATION",
      "content":
      [
        ["Journal","NNP","journ"]
      ]
    },
    ["of","IN","of"],
    {
      "tag":"GPE",
      "content":
      [
        ["Harker","NNP","hark"]
      ]
    },
    ["depicts","NNS","depict"],
    ["the","DT","the"],
    ["live","JJ","liv"],
    ["action","NN","act"],
    ["full","JJ","ful"],
    ["story","NN","story"],
    ["of","IN","of"],
    ["the","DT","the"],
    ["famous","JJ","fam"],
    ["book","NN","book"],
    ["with","IN","with"],
    ["main","JJ","main"],
    ["characters","NNS","charact"],
    ["all","DT","all"],
    ["portrayed","VBN","portray"],
    ["and","CC","and"],
    ["developed","VBD","develop"],
    ["by","IN","by"],
    {
      "tag":"PERSON",
      "content":
      [
        ["Zachary","NNP","zach"],
        ["Andrews","NNP","andrew"]
      ]
    },
    ["under","IN","under"],
    ["the","DT","the"],
    ["direction","NN","direct"],
    ["of","IN","of"],
    ["the","DT","the"],
    ["Coterie’s","JJ","coterie’s"],
    {
      "tag":"PERSON",
      "content":
      [
        ["Jeff","NNP","jeff"],
        ["Church","NNP","church"]
      ]
    },
    [".",".","."]
  ]
},
{
  "tag":"S",
  "content":
  [
    ["The","DT","The"],
    ["script","NN","script"],
    ["minimalizes","VBZ","minim"],
    ["the","DT","the"],
    ["characters","NNS","charact"],
    ["and","CC","and"],
    ["countless","NN","countless"],
    ["pages","NNS","pag"],
    ["of","IN","of"],
    ["description","NN","describ"],
    ["to","TO","to"],
    ["take","VB","tak"],
    ["the","DT","the"],
    ["audience","NN","audy"],
    ["directly","RB","direct"],
    ["into","IN","into"],
    ["Dracula’s","JJ","dracula’s"],
    ["lair","NN","lair"],
    [",",",",","],
    ["his","PRP$","his"],
    ["creepy","NN","creepy"],
    {
      "tag":"PERSON",
      "content":
      [
        ["Gothic","NNP","goth"]
      ]
    },
    [",",",",","],
    ["morbid","VBD","morbid"],
    ["castle","NN","castl"],
    [".",".","."]
  ]
},
{
  "tag":"S",
  "content":
  [
    ["Church’s","NNS","church’s"],
    ["masterful","VBP","mast"],
    ["direction","NN","direct"],
    ["of","IN","of"],
    ["the","DT","the"],
    ["truly","RB","tru"],
    ["talented","VBN","tal"],
    ["and","CC","and"],
    ["focused","VBN","foc"],
    {
      "tag":"PERSON",
      "content":
      [
        ["Andrews","NNP","andrew"]
      ]
    },
    ["keeps","NNS","keep"],
    ["the","DT","the"],
    ["play","NN","play"],
    ["dark","NN","dark"],
    [",",",",","],
    ["intense","JJ","intens"],
    [",",",",","],
    ["sharp","JJ","sharp"],
    [",",",",","],
    ["and","CC","and"],
    ["detailed","VBD","detail"],
    ["with","IN","with"],
    ["no","DT","no"],
    ["distractions","NNS","distract"],
    [".",".","."]
  ]
},
{
  "tag":"S",
  "content":
  [
    ["Because","IN","Because"],
    ["of","IN","of"],
    ["the","DT","the"],
    ["creative","JJ","cre"],
    ["teamwork","NN","teamwork"],
    ["to","TO","to"],
    ["create","VB","cre"],
    ["a","DT","a"],
    ["working","VBG","work"],
    ["set","NN","set"],
    [",",",",","],
    ["realistic","JJ","real"],
    ["props","NNS","prop"],
    [",",",",","],
    ["clever","RB","clev"],
    ["lighting","VBG","light"],
    [",",",",","],
    ["sharp","JJ","sharp"],
    ["sound","NN","sound"],
    ["and","CC","and"],
    ["background","NN","background"],
    ["noised","VBD","nois"],
    [",",",",","],
    ["artistic","JJ","art"],
    ["blocking","NN","block"],
    [",",",",","],
    ["a","DT","a"],
    ["costume","NN","costum"],
    ["that","WDT","that"],
    ["allows","VBZ","allow"],
    ["for","IN","for"],
    ["gymnastic","JJ","gymnast"],
    ["movements","NNS","mov"],
    ["without","IN","without"],
    ["distracting","VBG","distract"],
    ["from","IN","from"],
    ["the","DT","the"],
    ["characters","NNS","charact"],
    [",",",",","],
    ["and","CC","and"],
    ["stage","NN","stag"],
    ["management","NN","man"],
    [",",",",","],
    ["the","DT","the"],
    ["piece","NN","piec"],
    ["stays","VBZ","stay"],
    ["true","JJ","tru"],
    ["to","TO","to"],
    ["the","DT","the"],
    ["original","JJ","origin"],
    ["Stoker","NNP","stok"],
    ["novel","NN","novel"],
    [".",".","."]
  ]
},
{
  "tag":"S",
  "content":
  [
    ["Andrews’","NN","andrews’"],
    ["gymnastic","JJ","gymnast"],
    ["movements","NNS","mov"],
    ["around","IN","around"],
    ["and","CC","and"],
    ["through","IN","through"],
    ["the","DT","the"],
    ["set","NN","set"],
    ["does","VBZ","do"],
    ["not","RB","not"],
    ["break","VB","break"],
    ["the","DT","the"],
    ["flow","NN","flow"],
    ["of","IN","of"],
    ["the","DT","the"],
    ["story","NN","story"],
    ["for","IN","for"],
    ["even","RB","ev"],
    ["a","DT","a"],
    ["second","JJ","second"],
    [".",".","."]
  ]
},
{
  "tag":"S",
  "content":
  [
    {
      "tag":"PERSON",
      "content":
      [
        ["Andrews","NNS","andrew"]
      ]
    },
    ["said","VBD","say"],
    ["after","IN","after"],
    ["the","DT","the"],
    ["show","NN","show"],
    ["that","IN","that"],
    ["the","DT","the"],
    ["show’s","NNS","show’s"],
    ["tandem","VBP","tandem"],
    ["production","NN","produc"],
    ["in","IN","in"],
    {
      "tag":"GPE",
      "content":
      [
        ["Florida","NNP","florid"]
      ]
    },
    ["runs","VBZ","run"],
    ["concurrently","RB","concur"],
    ["with","IN","with"],
    ["the","DT","the"],
    {
      "tag":"ORGANIZATION",
      "content":
      [
        ["Kansas","NNP","kansa"],
        ["City","NNP","city"]
      ]
    },
    ["show","NN","show"],
    [".",".","."]
  ]
},
{
  "tag":"S",
  "content":
  [
    ["The","DT","The"],
    ["show","NN","show"],
    ["was","VBD","be"],
    ["developed","VBN","develop"],
    ["and","CC","and"],
    ["workshopped","VBD","workshop"],
    ["in","IN","in"],
    {
      "tag":"GPE",
      "content":
      [
        ["Florida","NNP","florid"]
      ]
    },
    ["and","CC","and"],
    ["now","RB","now"],
    ["the","DT","the"],
    ["tandem","NN","tandem"],
    ["productions","NNS","produc"],
    ["entertain","VBP","entertain"],
    ["audiences","NNS","audy"],
    [".",".","."]
  ]
},
{
  "tag":"S",
  "content":
  [
    ["Andrews","NNS","andrew"],
    [",",",",","],
    ["originally","RB","origin"],
    ["from","IN","from"],
    {
      "tag":"GPE",
      "content":
      [
        ["Denver","NNP","denv"]
      ]
    },
    [",",",",","],
    ["leaves","VBZ","leav"],
    ["all","DT","all"],
    ["traces","NNS","trac"],
    ["of","IN","of"],
    ["his","PRP$","his"],
    {
      "tag":"GPE",
      "content":
      [
        ["Midwest","NNP","midwest"]
      ]
    },
    ["life","NN","lif"],
    ["far","RB","far"],
    ["behind","IN","behind"],
    ["as","IN","as"],
    ["he","PRP","he"],
    ["creates","VBZ","cre"],
    ["the","DT","the"],
    ["cast","NN","cast"],
    ["of","IN","of"],
    {
      "tag":"GPE",
      "content":
      [
        ["Dracula","NNP","dracul"]
      ]
    },
    [".",".","."]
  ]
},
{
  "tag":"S",
  "content":
  [
    ["He","PRP","He"],
    ["is","VBZ","be"],
    {
      "tag":"GPE",
      "content":
      [
        ["English","NNP","engl"]
      ]
    },
    [",",",",","],
    ["without","IN","without"],
    ["a","DT","a"],
    ["flaw","NN","flaw"],
    [",",",",","],
    ["at","IN","at"],
    {
      "tag":"ORGANIZATION",
      "content":
      [
        ["Jonathan","NNP","jonath"],
        ["Harker","NNP","hark"]
      ]
    },
    [".",".","."]
  ]
},
{
  "tag":"S",
  "content":
  [
    ["He","PRP","He"],
    ["is","VBZ","be"],
    {
      "tag":"PERSON",
      "content":
      [
        ["Count","NNP","count"],
        ["Dracula","NNP","dracul"]
      ]
    },
    ["of","IN","of"],
    {
      "tag":"GPE",
      "content":
      [
        ["Transylvania","NNP","transylvan"]
      ]
    },
    ["with","IN","with"],
    ["accent","NN","acc"],
    ["resembling","VBG","resembl"],
    {
      "tag":"PERSON",
      "content":
      [
        ["Bela","NNP","bel"]
      ]
    },
    ["Lugoui’s","NNP","lugoui’s"],
    ["from","IN","from"],
    ["the","DT","the"],
    ["original","JJ","origin"],
    ["movie","NN","movy"],
    [".",".","."]
  ]
},
{
  "tag":"S",
  "content":
  [
    ["He","PRP","He"],
    ["takes","VBZ","tak"],
    ["on","IN","on"],
    ["a","DT","a"],
    {
      "tag":"GPE",
      "content":
      [
        ["Texas","NNP","texa"]
      ]
    },
    ["drawl","NN","drawl"],
    ["for","IN","for"],
    ["one","CD","one"],
    ["of","IN","of"],
    ["the","DT","the"],
    ["vampire","NN","vampir"],
    ["hunters","NNS","hunt"],
    [".",".","."]
  ]
},
{
  "tag":"S",
  "content":
  [
    ["He’s","NNS","he’s"],
    ["a","DT","a"],
    ["different","JJ","diff"],
    ["voice","NN","voic"],
    ["and","CC","and"],
    ["accent","NN","acc"],
    ["for","IN","for"],
    {
      "tag":"PERSON",
      "content":
      [
        ["Van","NNP","van"],
        ["Helsing","NNP","hels"]
      ]
    },
    [".",".","."]
  ]
},
{
  "tag":"S",
  "content":
  [
    ["All","DT","All"],
    ["in","IN","in"],
    ["all","DT","all"],
    [",",",",","],
    {
      "tag":"PERSON",
      "content":
      [
        ["Andrews","NNP","andrew"]
      ]
    },
    ["is","VBZ","be"],
    ["phenomenal","JJ","phenom"],
    ["in","IN","in"],
    ["a","DT","a"],
    ["tour-d-force","JJ","tour-d-force"],
    [",",",",","],
    ["75","CD","75"],
    ["minute","NN","minut"],
    ["retelling","VBG","retel"],
    ["of","IN","of"],
    ["the","DT","the"],
    {
      "tag":"ORGANIZATION",
      "content":
      [
        ["Dracula","NNP","dracul"]
      ]
    },
    ["legend","NN","legend"],
    [".",".","."]
  ]
},
{
  "tag":"S",
  "content":
  [
    ["With","IN","With"],
    ["one","CD","one"],
    ["costume","NN","costum"],
    [",",",",","],
    ["and","CC","and"],
    ["only","RB","on"],
    ["a","DT","a"],
    ["few","JJ","few"],
    ["props","NNS","prop"],
    [",",",",","],
    {
      "tag":"PERSON",
      "content":
      [
        ["Andrews","NNP","andrew"]
      ]
    },
    ["creates","VBZ","cre"],
    ["other","JJ","oth"],
    ["personalities","NNS","person"],
    ["within","IN","within"],
    ["the","DT","the"],
    ["piece","NN","piec"],
    [".",".","."]
  ]
},
{
  "tag":"S",
  "content":
  [
    ["He","PRP","He"],
    ["does","VBZ","do"],
    ["not","RB","not"],
    ["rely","RB","rely"],
    ["solely","RB","sol"],
    ["on","IN","on"],
    ["dialect","NN","dialect"],
    [",",",",","],
    ["but","CC","but"],
    ["rather","RB","rath"],
    ["changes","NNS","chang"],
    ["stance","VBP","stant"],
    [",",",",","],
    ["voice","NN","voic"],
    [",",",",","],
    ["delivery","NN","delivery"],
    ["and","CC","and"],
    ["other","JJ","oth"],
    ["tricks","NNS","trick"],
    ["to","TO","to"],
    ["keep","VB","keep"],
    ["the","DT","the"],
    ["various","JJ","vary"],
    ["characters","NNS","charact"],
    ["separate","JJ","sep"],
    [".",".","."]
  ]
},
{
  "tag":"S",
  "content":
  [
    ["His","PRP$","His"],
    ["dialogue","NN","dialog"],
    ["delivery","NN","delivery"],
    ["is","VBZ","be"],
    ["quick","JJ","quick"],
    [",",",",","],
    ["responsive","JJ","respond"],
    ["to","TO","to"],
    ["the","DT","the"],
    ["changes","NNS","chang"],
    ["in","IN","in"],
    ["characters","NNS","charact"],
    [",",",",","],
    ["and","CC","and"],
    ["never","RB","nev"],
    ["wavers","NNS","wav"],
    ["as","IN","as"],
    ["he","PRP","he"],
    ["morphs","VBZ","morph"],
    ["from","IN","from"],
    ["one","CD","one"],
    ["character","NN","charact"],
    ["to","TO","to"],
    ["another","DT","another"],
    ["and","CC","and"],
    ["back","RB","back"],
    [".",".","."]
  ]
},
{
  "tag":"S",
  "content":
  [
    ["In","IN","In"],
    {
      "tag":"GPE",
      "content":
      [
        ["Dracula","NNP","dracul"]
      ]
    },
    [":",":",":"],
    ["The","DT","The"],
    {
      "tag":"ORGANIZATION",
      "content":
      [
        ["Journal","NNP","journ"]
      ]
    },
    ["of","IN","of"],
    {
      "tag":"PERSON",
      "content":
      [
        ["Jonathan","NNP","jonath"],
        ["Harker","NNP","hark"]
      ]
    },
    [",",",",","],
    {
      "tag":"PERSON",
      "content":
      [
        ["Andrews","NNP","andrew"]
      ]
    },
    ["portrays","VBZ","portray"],
    [":",":",":"],
    {
      "tag":"PERSON",
      "content":
      [
        ["Jonathan","NNP","jonath"],
        ["Harker","NNP","hark"]
      ]
    },
    [",",",",","],
    ["an","DT","an"],
    ["old","JJ","old"],
    ["woman","NN","wom"],
    [",",",",","],
    {
      "tag":"PERSON",
      "content":
      [
        ["Count","NNP","count"],
        ["Dracula","NNP","dracul"]
      ]
    },
    [",",",",","],
    ["a","DT","a"],
    ["newspaper","NN","newspap"],
    ["man","NN","man"],
    [",",",",","],
    {
      "tag":"PERSON",
      "content":
      [
        ["Mina","NNP","min"],
        ["Harker","NNP","hark"]
      ]
    },
    [",",",",","],
    {
      "tag":"PERSON",
      "content":
      [
        ["Sister","NNP","sist"],
        ["Agatha","NNP","agath"]
      ]
    },
    [",",",",","],
    ["Dr.","NNP","dr."],
    {
      "tag":"PERSON",
      "content":
      [
        ["Van","NNP","van"],
        ["Helsing","NNP","hels"]
      ]
    },
    [",",",",","],
    {
      "tag":"PERSON",
      "content":
      [
        ["Arthur","NNP","arth"],
        ["Quincey","NNP","quincey"]
      ]
    },
    ["and","CC","and"],
    {
      "tag":"PERSON",
      "content":
      [
        ["Renfield","NNP","renfield"]
      ]
    },
    [".",".","."]
  ]
},
{
  "tag":"S",
  "content":
  [
    ["Each","DT","Each"],
    ["is","VBZ","be"],
    ["a","DT","a"],
    ["different","JJ","diff"],
    ["voice","NN","voic"],
    [",",",",","],
    ["pitch","NN","pitch"],
    [",",",",","],
    ["physical","JJ","phys"],
    ["demeanor","NN","dem"],
    [".",".","."]
  ]
},
{
  "tag":"S",
  "content":
  [
    ["Each","DT","Each"],
    ["change","NN","chang"],
    ["comes","VBZ","com"],
    ["quickly","RB","quick"],
    ["and","CC","and"],
    ["sharply","RB","sharply"],
    ["without","IN","without"],
    ["wandering","VBG","wand"],
    ["into","IN","into"],
    ["campy/","JJ","campy/"],
    ["Dracula","NNP","dracul"],
    [":",":",":"],
    ["The","DT","The"],
    {
      "tag":"ORGANIZATION",
      "content":
      [
        ["Journal","NNP","journ"]
      ]
    },
    ["of","IN","of"],
    {
      "tag":"PERSON",
      "content":
      [
        ["Jonathan","NNP","jonath"],
        ["Harker","NNP","hark"]
      ]
    },
    [",",",",","],
    ["a","DT","a"],
    ["feast","NN","feast"],
    ["for","IN","for"],
    ["those","DT","those"],
    ["who","WP","who"],
    ["enjoy","NN","enjoy"],
    ["the","DT","the"],
    ["darkness","NN","dark"],
    ["of","IN","of"],
    ["a","DT","a"],
    {
      "tag":"GPE",
      "content":
      [
        ["Gothic","NNP","goth"]
      ]
    },
    ["thriller","NN","thriller"],
    [",",",",","],
    ["enthralls","NNS","enthral"],
    ["audiences","NNS","audy"],
    ["from","IN","from"],
    ["the","DT","the"],
    ["onset","NN","onset"],
    [".",".","."]
  ]
},
{
  "tag":"S",
  "content":
  [
    ["The","DT","The"],
    ["idea","NN","ide"],
    ["that","IN","that"],
    ["the","DT","the"],
    ["entirety","NN","entir"],
    ["of","IN","of"],
    ["the","DT","the"],
    {
      "tag":"ORGANIZATION",
      "content":
      [
        ["Bram","NNP","bram"],
        ["Stoker","NNP","stok"]
      ]
    },
    ["thick","NN","thick"],
    ["novel","NN","novel"],
    ["condenses","NNS","condens"],
    ["to","TO","to"],
    ["a","DT","a"],
    ["one-man","JJ","one-man"],
    ["show","NN","show"],
    ["without","IN","without"],
    ["losing","VBG","los"],
    ["any","DT","any"],
    ["of","IN","of"],
    ["the","DT","the"],
    ["eerie","NN","eery"],
    [",",",",","],
    ["morbid","VBD","morbid"],
    [",",",",","],
    ["dark","JJ","dark"],
    ["features","NNS","feat"],
    ["entertains","VBZ","entertain"],
    ["all","DT","all"],
    ["who","WP","who"],
    ["attend","NN","attend"],
    [".",".","."]
  ]
},
{
  "tag":"S",
  "content":
  [
    ["And","CC","And"],
    [",",",",","],
    ["even","RB","ev"],
    ["with","IN","with"],
    ["the","DT","the"],
    ["darkness","NN","dark"],
    ["of","IN","of"],
    ["the","DT","the"],
    ["plot","NN","plot"],
    [",",",",","],
    ["audiences","NNS","audy"],
    ["laughed","VBD","laugh"],
    ["at","IN","at"],
    ["some","DT","some"],
    ["of","IN","of"],
    ["the","DT","the"],
    ["lighter","NN","light"],
    ["moments","NNS","mom"],
    ["throughout","IN","throughout"],
    ["the","DT","the"],
    ["piece","NN","piec"],
    [".",".","."]
  ]
},
{
  "tag":"S",
  "content":
  [
    ["A","DT","A"],
    ["few","JJ","few"],
    ["of","IN","of"],
    ["the","DT","the"],
    ["younger","JJR","young"],
    ["audience","NN","audy"],
    ["members","NNS","memb"],
    ["reacted","VBD","react"],
    ["will","MD","will"],
    ["when","WRB","when"],
    ["in","IN","in"],
    ["one","CD","one"],
    ["scene","NN","scen"],
    [",",",",","],
    ["rodents","NNS","rod"],
    ["were","VBD","be"],
    ["loosened","VBN","loos"],
    ["on","IN","on"],
    ["the","DT","the"],
    ["floor","NN","flo"],
    ["(",":","("],
    ["via","IN","via"],
    ["lighting","NN","light"],
    ["spots","NNS","spot"],
    ["of","IN","of"],
    ["red","VBN","red"],
    ["and","CC","and"],
    ["green","JJ","green"],
    [")","NN",")"],
    [".",".","."]
  ]
},
{
  "tag":"S",
  "content":
  [
    ["They","PRP","They"],
    ["could","MD","could"],
    ["be","VB","be"],
    ["seen","VBN","see"],
    ["drawing","VBG","draw"],
    ["their","PRP$","their"],
    ["feet","NN","foot"],
    ["up","RP","up"],
    ["to","TO","to"],
    ["their","PRP$","their"],
    ["seats","NNS","seat"],
    ["and","CC","and"],
    ["then","RB","then"],
    ["summoning","VBG","summon"],
    ["their","PRP$","their"],
    ["bravery","NN","bravery"],
    ["reach","NN","reach"],
    ["for","IN","for"],
    ["the","DT","the"],
    ["floor","NN","flo"],
    ["to","TO","to"],
    ["see","VB","see"],
    ["if","IN","if"],
    ["there","EX","there"],
    ["live","JJ","liv"],
    ["vermin","NN","vermin"],
    ["actually","RB","act"],
    ["existed","VBN","ex"],
    [".",".","."]
  ]
},
{
  "tag":"S",
  "content":
  [
    ["A","DT","A"],
    ["quick","NN","quick"],
    ["smile","NN","smil"],
    ["ensured","VBD","ens"],
    ["their","PRP$","their"],
    ["safety","NN","saf"],
    [".",".","."]
  ]
},
{
  "tag":"S",
  "content":
  [
    {
      "tag":"GPE",
      "content":
      [
        ["Dracula","NNP","dracul"]
      ]
    },
    [":",":",":"],
    ["The","DT","The"],
    {
      "tag":"ORGANIZATION",
      "content":
      [
        ["Journal","NNP","journ"]
      ]
    },
    ["of","IN","of"],
    {
      "tag":"PERSON",
      "content":
      [
        ["Jonathan","NNP","jonath"],
        ["Harker","NNP","hark"]
      ]
    },
    ["comes","VBZ","com"],
    ["with","IN","with"],
    ["highest","JJS","high"],
    ["recommendation","NN","recommend"],
    ["for","IN","for"],
    ["children","NNS","child"],
    ["and","CC","and"],
    ["the","DT","the"],
    ["young","JJ","young"],
    ["at","IN","at"],
    ["heart","NN","heart"],
    ["who","WP","who"],
    ["enjoy","NN","enjoy"],
    ["a","DT","a"],
    ["spooky","NN","spooky"],
    ["yarn","NN","yarn"],
    ["so","RB","so"],
    ["appropriate","JJ","appropry"],
    ["for","IN","for"],
    ["the","DT","the"],
    {
      "tag":"ORGANIZATION",
      "content":
      [
        ["Halloween","NNP","halloween"]
      ]
    },
    ["season","NN","season"],
    [".",".","."]
  ]
},
{
  "tag":"S",
  "content":
  [
    ["The","DT","The"],
    ["show","NN","show"],
    ["entrenches","VBZ","entrench"],
    ["the","DT","the"],
    ["audience","NN","audy"],
    ["in","IN","in"],
    ["a","DT","a"],
    {
      "tag":"GPE",
      "content":
      [
        ["Gothic","NNP","goth"]
      ]
    },
    ["dark","NN","dark"],
    ["tale","NN","tal"],
    ["of","IN","of"],
    ["the","DT","the"],
    ["supernatural","JJ","supern"],
    ["and","CC","and"],
    ["fully","RB","ful"],
    ["entertains","VBZ","entertain"],
    [".",".","."]
  ]
},
{
  "tag":"S",
  "content":
  [
    ["No","DT","No"],
    ["one","NN","on"],
    ["leaves","VBZ","leav"],
    ["disappointed","VBN","disappoint"],
    ["with","IN","with"],
    ["the","DT","the"],
    ["production","NN","produc"],
    [",",",",","],
    ["the","DT","the"],
    ["creative","JJ","cre"],
    ["staff","NN","staff"],
    ["that","WDT","that"],
    ["designed","VBN","design"],
    ["and","CC","and"],
    ["directed","VBN","direct"],
    [",",",",","],
    ["and","CC","and"],
    ["the","DT","the"],
    ["actor","NN","act"],
    ["who","WP","who"],
    ["wore","RB","wor"],
    ["the","DT","the"],
    ["characters","NNS","charact"],
    ["he","PRP","he"],
    ["portrayed","VBD","portray"],
    [".",".","."]
  ]
},
{
  "tag":"S",
  "content":
  [
    ["Running","VBG","run"],
    ["through","IN","through"],
    ["Nov.","NNP","nov."],
    ["2","CD","2"],
    [",",",",","],
    {
      "tag":"PERSON",
      "content":
      [
        ["Dracula","NNP","dracul"]
      ]
    },
    [":",":",":"],
    ["The","DT","The"],
    {
      "tag":"ORGANIZATION",
      "content":
      [
        ["Journal","NNP","journ"]
      ]
    },
    ["of","IN","of"],
    {
      "tag":"PERSON",
      "content":
      [
        ["Jonathan","NNP","jonath"],
        ["Harker","NNP","hark"]
      ]
    },
    ["should","MD","should"],
    ["not","RB","not"],
    ["be","VB","be"],
    ["missed","VBN","miss"],
    ["if","IN","if"],
    ["you","PRP","you"],
    ["enjoy","VBP","enjoy"],
    ["good","JJ","good"],
    [",",",",","],
    ["live","JJ","liv"],
    ["theater","NN","the"],
    [".",".","."]
  ]
},
{
  "tag":"S",
  "content":
  [
    ["For","IN","For"],
    ["tickets","NNS","ticket"],
    [",",",",","],
    ["times","NNS","tim"],
    [",",",",","],
    ["and","CC","and"],
    ["more","JJR","mor"],
    ["information","NN","inform"],
    ["check","NN","check"],
    ["the","DT","the"],
    ["website","NN","websit"],
    [":",":",":"],
    ["thecoterie.org","JJ","thecoterie.org"],
    [".",".","."]
  ]
},
{
  "tag":"S",
  "content":
  [
    [".",".","."]
  ]
},
{
  "tag":"S",
  "content":
  [
    ["Next","JJ","next"],
    ["View","NNP","view"],
    ["the","DT","the"],
    ["slideshow","NN","slideshow"],
    ["Report","NNP","report"],
    ["this","DT","this"],
    ["content","NN","cont"],
    ["View","NNP","view"],
    ["the","DT","the"],
    ["discussion","NN","discuss"],
    ["thread","NN","thread"],
    [".",".","."]
  ]
},
{
  "tag":"S",
  "content":
  [
    ["Advertisement","NNP","advert"],
    ["Next","NNP","next"],
    ["article","NN","artic"],
    ["Coeurage’s","NNS","coeurage’s"],
    ["‘Love’s","-NONE-","‘Love’s"],
    ["Labour’s","JJ","labour’s"],
    ["Lost’","NN","lost’"],
    ["is","VBZ","be"],
    ["fresh","JJ","fresh"],
    [",",",",","],
    ["fun","NN","fun"],
    ["and","CC","and"],
    ["inventive","JJ","inv"],
    ["Related","NNP","rel"],
    ["slideshow","NN","slideshow"],
    ["Coeurage’s","NNS","coeurage’s"],
    ["‘Love’s","-NONE-","‘Love’s"],
    ["Labour’s","JJ","labour’s"],
    ["Lost’","NN","lost’"],
    ["is","VBZ","be"],
    ["fresh","JJ","fresh"],
    [",",",",","],
    ["fun","NN","fun"],
    ["and","CC","and"],
    ["inventive","JJ","inv"],
    ["6","CD","6"],
    {
      "tag":"PERSON",
      "content":
      [
        ["Photos","NNP","photo"],
        ["Advertisement","NNP","advert"],
        ["Popular","NNP","popul"]
      ]
    },
    ["in","IN","in"],
    ["Performing","NNP","perform"],
    ["Arts","NNP","art"],
    {
      "tag":"PERSON",
      "content":
      [
        ["Alison","NNP","alison"],
        ["Gold","NNP","gold"]
      ]
    },
    ["the","DT","the"],
    ["new","JJ","new"],
    {
      "tag":"PERSON",
      "content":
      [
        ["Rebecca","NNP","rebecc"],
        ["Black","NNP","black"]
      ]
    },
    ["with","IN","with"],
    {
      "tag":"PERSON",
      "content":
      [
        ["Patrice","NNP","pat"],
        ["Wilson","NNP","wilson"]
      ]
    },
    ["produced","VBD","produc"],
    ["'Chinese","JJ","'chinese"],
    ["Food'","NN","food'"],
    {
      "tag":"ORGANIZATION",
      "content":
      [
        ["KIIS","NNP","kii"]
      ]
    },
    ["FM","NNP","fm"],
    ["'s","POS","'s"],
    {
      "tag":"PERSON",
      "content":
      [
        ["Jingle","NNP","jingl"],
        ["Ball","NNP","bal"]
      ]
    },
    ["2013","CD","2013"],
    ["!",".","!"]
  ]
},
{
  "tag":"S",
  "content":
  [
    ["Coeurage’s","NNS","coeurage’s"],
    ["‘Love’s","VBP","‘love’s"],
    ["Labour’s","JJ","labour’s"],
    ["Lost’","NN","lost’"],
    ["is","VBZ","be"],
    ["fresh","JJ","fresh"],
    [",",",",","],
    ["fun","NN","fun"],
    ["and","CC","and"],
    ["inventive","JJ","inv"],
    {
      "tag":"PERSON",
      "content":
      [
        ["Jonathan","NNP","jonath"],
        ["Dove","NNP","dov"]
      ]
    },
    ["'s","POS","'s"],
    ["'Siren","JJ","'siren"],
    ["Song","NNP","song"],
    ["'","''","'"],
    ["opens","VBZ","op"],
    ["the","DT","the"],
    ["17th","JJ","17th"],
    ["annual","JJ","an"],
    ["Fringe","NNP","fring"],
    ["Festival","NNP","fest"],
    ["Comedian","NNP","com"],
    {
      "tag":"PERSON",
      "content":
      [
        ["Doug","NNP","doug"],
        ["Stanhope","NNP","stanhop"]
      ]
    },
    ["returns","NNS","return"],
    ["to","TO","to"],
    {
      "tag":"GPE",
      "content":
      [
        ["Boston","NNP","boston"]
      ]
    },
    ["on","IN","on"],
    ["October","NNP","octob"],
    ["19","CD","19"],
    ["(","CD","("],
    ["interview","NN","interview"],
    [")",":",")"],
    ["Load","NNP","load"],
    ["more","JJR","mor"],
    ["Latest","NNP","latest"],
    ["in","IN","in"]
  ]
}]