[
{
  "tag":"S",
  "content":
  [
    {
      "tag":"PERSON",
      "content":
      [
        ["Unanswered","NNP","unansw"]
      ]
    },
    {
      "tag":"PERSON",
      "content":
      [
        ["Questions","NNP","quest"],
        ["New","NNP","new"],
        ["Answers","NNP","answ"]
      ]
    },
    ["Q","NNP","q"],
    ["&","CC","&"],
    ["A","DT","A"],
    {
      "tag":"ORGANIZATION",
      "content":
      [
        ["Categories","NNP","categ"],
        ["Coupons","NNP","coupon"],
        ["Guides","NNP","guid"],
        ["Sign","NNP","sign"]
      ]
    },
    ["In","NNP","in"],
    ["|","NNP","|"],
    ["Sign","NNP","sign"],
    ["Up","NNP","up"],
    ["Home","NNP","hom"],
    ["Search","NNP","search"],
    ["Settings","NNP","set"],
    ["Top","NNP","top"],
    ["Contributors","NNP","contribut"],
    ["Help","NNP","help"],
    ["Center","NNP","cent"],
    ["Home","NNP","hom"],
    ["Answers","NNP","answ"],
    ["Entertainment","NNP","entertain"],
    ["Technology","NNP","technolog"],
    ["Health","NNP","heal"],
    ["Food","NNP","food"],
    {
      "tag":"ORGANIZATION",
      "content":
      [
        ["Business","NNP","busy"],
        ["Animals","NNPS","anim"],
        ["Cars","NNP","car"],
        ["Sports","NNP","sport"]
      ]
    },
    ["History","NNP","hist"],
    ["&","CC","&"],
    {
      "tag":"PERSON",
      "content":
      [
        ["Politics","NNP","polit"],
        ["Hobbies","NNP","hobby"],
        ["Home","NNP","hom"]
      ]
    },
    ["&","CC","&"],
    {
      "tag":"PERSON",
      "content":
      [
        ["Garden","NNP","gard"],
        ["Humor","NNP","hum"],
        ["Jobs","NNP","job"]
      ]
    },
    ["&","CC","&"],
    {
      "tag":"PERSON",
      "content":
      [
        ["Education","NNP","educ"],
        ["Legal","NNP","leg"],
        ["Local","NNP","loc"],
        ["Literature","NNP","lit"],
        ["Relationships","NNP","rel"],
        ["Religion","NNP","relig"],
        ["Science","NNP","sci"],
        ["Shopping","NNP","shop"],
        ["Travel","NNP","travel"],
        ["Miscellaneous","NNP","miscel"],
        ["Browse","NNP","brows"],
        ["More","NNP","mor"]
      ]
    },
    ["Q","NNP","q"],
    ["&","CC","&"],
    ["A","DT","A"],
    ["Reference","NNP","ref"],
    ["Animals","NNP","anim"],
    ["Business","NNP","busy"],
    {
      "tag":"PERSON",
      "content":
      [
        ["Cars","NNP","car"],
        ["Entertainment","NNP","entertain"],
        ["Food","NNP","food"],
        ["Health","NNP","heal"],
        ["History","NNP","hist"]
      ]
    },
    ["&","CC","&"],
    {
      "tag":"ORGANIZATION",
      "content":
      [
        ["Politics","NNP","polit"],
        ["Home","NNP","hom"]
      ]
    },
    ["&","CC","&"],
    {
      "tag":"PERSON",
      "content":
      [
        ["Garden","NNP","gard"],
        ["Legal","NNP","leg"],
        ["Literature","NNP","lit"],
        ["Miscellaneous","NNP","miscel"],
        ["Religion","NNP","relig"],
        ["Science","NNP","sci"],
        ["Sports","NNP","sport"],
        ["Technology","NNP","technolog"],
        ["Travel","NNP","travel"],
        ["Library","NNP","libr"],
        ["Sign","NNP","sign"]
      ]
    },
    ["in","IN","in"],
    ["using","VBG","us"],
    [":",":",":"],
    ["Answers","NNS","answ"],
    ["members","NNS","memb"],
    [":",":",":"],
    {
      "tag":"PERSON",
      "content":
      [
        ["Username","NNP","usernam"],
        ["Lost","NNP","lost"]
      ]
    },
    ["password","NN","password"],
    ["?",".","?"]
  ]
},
{
  "tag":"S",
  "content":
  [
    {
      "tag":"PERSON",
      "content":
      [
        ["Password","NNP","password"]
      ]
    },
    ["Remember","NNP","rememb"],
    ["me","PRP","me"],
    ["Explorers","NNP","expl"],
    ["and","CC","and"],
    ["Expeditions","NNS","expedit"],
    {
      "tag":"PERSON",
      "content":
      [
        ["History","NNP","hist"],
        ["History","NNP","hist"]
      ]
    },
    [",",",",","],
    {
      "tag":"PERSON",
      "content":
      [
        ["Politics","NNP","polit"]
      ]
    },
    ["&","CC","&"],
    {
      "tag":"PERSON",
      "content":
      [
        ["Society","NNP","socy"],
        ["Wiki","NNP","wik"],
        ["Answers","NNP","answ"]
      ]
    },
    [">","NNP",">"],
    ["History","NNP","hist"],
    [",",",",","],
    {
      "tag":"PERSON",
      "content":
      [
        ["Politics","NNP","polit"]
      ]
    },
    ["&","CC","&"],
    {
      "tag":"PERSON",
      "content":
      [
        ["Society","NNP","socy"]
      ]
    },
    [">","NNP",">"],
    ["History","NNP","hist"],
    [">","NNP",">"],
    ["Explorers","NNP","expl"],
    ["and","CC","and"],
    ["Expeditions","NNS","expedit"],
    [">",":",">"],
    {
      "tag":"PERSON",
      "content":
      [
        ["James","NNP","jam"],
        ["Cook","NNP","cook"]
      ]
    },
    {
      "tag":"PERSON",
      "content":
      [
        ["James","NNP","jam"],
        ["Cook","NNP","cook"],
        ["Popular","NNP","popul"],
        ["Questions","NNP","quest"],
        ["Tammy","NNP","tammy"],
        ["Kr","NNP","kr"]
      ]
    },
    ["What","NNP","what"],
    ["food","NN","food"],
    ["did","VBD","do"],
    ["the","DT","the"],
    ["crew","NN","crew"],
    ["of","IN","of"],
    ["the","DT","the"],
    ["Endeavour","NNP","endeavo"],
    ["eat","NN","eat"],
    ["?",".","?"]
  ]
},
{
  "tag":"S",
  "content":
  [
    ["men","NNS","men"],
    ["on","IN","on"],
    ["board","NN","board"],
    ["the","DT","the"],
    ["ship","NN","ship"],
    ["did","VBD","do"],
    ["n't","RB","n't"],
    ["eat","VB","eat"],
    ["much","JJ","much"],
    ["in","IN","in"],
    ["the","DT","the"],
    ["way","NN","way"],
    ["of","IN","of"],
    ["healthy","JJ","healthy"],
    ["...",":","..."],
    ["Chase","NNP","chas"],
    ["When","NNP","when"],
    ["did","VBD","do"],
    {
      "tag":"PERSON",
      "content":
      [
        ["Captain","NNP","captain"],
        ["Cook","NNP","cook"]
      ]
    },
    ["come","NN","com"],
    ["to","TO","to"],
    {
      "tag":"GPE",
      "content":
      [
        ["Australia","NNP","austral"]
      ]
    },
    ["?",".","?"]
  ]
},
{
  "tag":"S",
  "content":
  [
    {
      "tag":"GPE",
      "content":
      [
        ["Captain","NNP","captain"]
      ]
    },
    {
      "tag":"ORGANIZATION",
      "content":
      [
        ["Cook","NNP","cook"]
      ]
    },
    ["first","RB","first"],
    ["came","VBD","com"],
    ["to","TO","to"],
    {
      "tag":"GPE",
      "content":
      [
        ["Australia","NNP","austral"]
      ]
    },
    ["in","IN","in"],
    ["1770","CD","1770"],
    [",",",",","],
    ["first","JJ","first"],
    ["...",":","..."],
    {
      "tag":"PERSON",
      "content":
      [
        ["Jponbac","NNP","jponbac"],
        ["Who","NNP","who"]
      ]
    },
    ["is","VBZ","be"],
    ["explorer","JJR","expl"],
    ["credited","VBN","credit"],
    ["with","IN","with"],
    ["being","VBG","be"],
    ["first","JJ","first"],
    ["in","IN","in"],
    {
      "tag":"GPE",
      "content":
      [
        ["Georgia","NNP","georg"]
      ]
    },
    ["?",".","?"]
  ]
},
{
  "tag":"S",
  "content":
  [
    ["I","PRP","I"],
    ["would","MD","would"],
    ["say","VB","say"],
    {
      "tag":"PERSON",
      "content":
      [
        ["De","NNP","de"],
        ["Soto","NNP","soto"]
      ]
    },
    ["in","IN","in"],
    ["1540","CD","1540"],
    [".",".","."]
  ]
},
{
  "tag":"S",
  "content":
  [
    ["He","PRP","He"],
    ["landed","VBD","land"],
    ["in","IN","in"],
    {
      "tag":"GPE",
      "content":
      [
        ["Fl","NNP","fl"]
      ]
    },
    ["and","CC","and"],
    ["walked","VBD","walk"],
    ["the","DT","the"],
    ["...",":","..."],
    {
      "tag":"PERSON",
      "content":
      [
        ["Alondra","NNP","alondr"],
        ["Who","NNP","who"]
      ]
    },
    ["is","VBZ","be"],
    {
      "tag":"PERSON",
      "content":
      [
        ["Captain","NNP","captain"],
        ["Chocolate","NNP","chocol"],
        ["Face","NNP","fac"]
      ]
    },
    ["?",".","?"]
  ]
},
{
  "tag":"S",
  "content":
  [
    {
      "tag":"GPE",
      "content":
      [
        ["Captain","NNP","captain"]
      ]
    },
    {
      "tag":"ORGANIZATION",
      "content":
      [
        ["Chocolate","NNP","chocol"],
        ["Face","NNP","fac"]
      ]
    },
    ["is","VBZ","be"],
    ["the","DT","the"],
    ["leader","NN","lead"],
    ["of","IN","of"],
    ["the","DT","the"],
    {
      "tag":"ORGANIZATION",
      "content":
      [
        ["Red","NNP","red"],
        ["Barons","NNP","baron"]
      ]
    },
    [",",",",","],
    ["an","DT","an"],
    ["...",":","..."],
    {
      "tag":"PERSON",
      "content":
      [
        ["William","NNP","william"],
        ["What","NNP","what"]
      ]
    },
    ["is","VBZ","be"],
    ["some","DT","some"],
    ["information","NN","inform"],
    ["about","IN","about"],
    {
      "tag":"PERSON",
      "content":
      [
        ["Captain","NNP","captain"],
        ["James","NNP","jam"],
        ["Cook","NNP","cook"]
      ]
    },
    ["?",".","?"]
  ]
},
{
  "tag":"S",
  "content":
  [
    {
      "tag":"GPE",
      "content":
      [
        ["Captain","NNP","captain"]
      ]
    },
    {
      "tag":"PERSON",
      "content":
      [
        ["Cook","NNP","cook"],
        ["Captain","NNP","captain"]
      ]
    },
    {
      "tag":"PERSON",
      "content":
      [
        ["James","NNP","jam"],
        ["Cook","NNP","cook"]
      ]
    },
    ["was","VBD","be"],
    ["born","VBN","bear"],
    ["on","IN","on"],
    ["the","DT","the"],
    ["27th","JJ","27th"],
    ["of","IN","of"],
    ["...",":","..."],
    ["CJ","NNP","cj"],
    ["How","NNP","how"],
    ["can","MD","can"],
    ["you","PRP","you"],
    ["briefly","RB","brief"],
    ["describe","VBP","describ"],
    {
      "tag":"PERSON",
      "content":
      [
        ["Captain","NNP","captain"],
        ["Cook","NNP","cook"]
      ]
    },
    ["'s","POS","'s"],
    ["three","CD","three"],
    ["voyages","NNS","voy"],
    ["?",".","?"]
  ]
},
{
  "tag":"S",
  "content":
  [
    {
      "tag":"PERSON",
      "content":
      [
        ["James","NNP","jam"]
      ]
    },
    {
      "tag":"PERSON",
      "content":
      [
        ["Cook","NNP","cook"]
      ]
    },
    ["made","VBD","mak"],
    ["three","CD","three"],
    ["major","JJ","maj"],
    ["journeys","NNS","journey"],
    [".",".","."]
  ]
},
{
  "tag":"S",
  "content":
  [
    {
      "tag":"GPE",
      "content":
      [
        ["Cook","NNP","cook"]
      ]
    },
    ["'s","POS","'s"],
    ["first","JJ","first"],
    ["voyage","NN","voy"],
    ["...",":","..."]
  ]
},
{
  "tag":"S",
  "content":
  [
    {
      "tag":"PERSON",
      "content":
      [
        ["Featured","NNP","feat"]
      ]
    },
    {
      "tag":"PERSON",
      "content":
      [
        ["Answer","NNP","answ"],
        ["Why","NNP","why"]
      ]
    },
    ["did","VBD","do"],
    {
      "tag":"PERSON",
      "content":
      [
        ["Captain","NNP","captain"],
        ["Cook","NNP","cook"]
      ]
    },
    ["become","NN","becom"],
    ["a","DT","a"],
    ["cook","NN","cook"],
    ["?",".","?"]
  ]
},
{
  "tag":"S",
  "content":
  [
    {
      "tag":"PERSON",
      "content":
      [
        ["James","NNP","jam"]
      ]
    },
    {
      "tag":"PERSON",
      "content":
      [
        ["Cook","NNP","cook"]
      ]
    },
    ["did","VBD","do"],
    ["not","RB","not"],
    ["become","VB","becom"],
    ["a","DT","a"],
    ["cook","NN","cook"],
    [".",".","."]
  ]
},
{
  "tag":"S",
  "content":
  [
    ["He","PRP","He"],
    ["was","VBD","be"],
    ["an","DT","an"],
    ["important","JJ","import"],
    ["ship","NN","ship"],
    ["'s","POS","'s"],
    ["captain","NN","captain"],
    ["whose","WP$","whose"],
    ["exploration","NN","expl"],
    ["contributed","VBD","contribut"],
    ["significantly","RB","sign"],
    ["to","TO","to"],
    ["the","DT","the"],
    ["knowledge","NN","knowledg"],
    ["of","IN","of"],
    ["islands","NNS","island"],
    ["and","CC","and"],
    ["...",":","..."],
    {
      "tag":"PERSON",
      "content":
      [
        ["Emilee","NNP","emil"]
      ]
    },
    ["What","WP","What"],
    ["was","VBD","be"],
    {
      "tag":"PERSON",
      "content":
      [
        ["James","NNP","jam"],
        ["Cook","NNP","cook"]
      ]
    },
    ["'s","POS","'s"],
    ["expedition","NN","expedit"],
    ["?",".","?"]
  ]
},
{
  "tag":"S",
  "content":
  [
    ["On","IN","On"],
    {
      "tag":"PERSON",
      "content":
      [
        ["Cook","NNP","cook"]
      ]
    },
    ["'s","POS","'s"],
    ["first","JJ","first"],
    ["journey","NN","journey"],
    [",",",",","],
    ["departing","VBG","depart"],
    ["in","IN","in"],
    ["1768","CD","1768"],
    [",",",",","],
    ["his","PRP$","his"],
    ["mission","NN","miss"],
    ["was","VBD","be"],
    ["...",":","..."],
    {
      "tag":"PERSON",
      "content":
      [
        ["Diana","NNP","dian"],
        ["When","NNP","when"]
      ]
    },
    ["were","VBD","be"],
    ["the","DT","the"],
    ["dates","NNS","dat"],
    ["of","IN","of"],
    {
      "tag":"PERSON",
      "content":
      [
        ["James","NNP","jam"],
        ["Cook","NNP","cook"]
      ]
    },
    ["'s","POS","'s"],
    ["3","CD","3"],
    ["voyages","NNS","voy"],
    ["to","TO","to"],
    ["the","DT","the"],
    {
      "tag":"ORGANIZATION",
      "content":
      [
        ["Pacific","NNP","pac"]
      ]
    },
    ["?",".","?"]
  ]
},
{
  "tag":"S",
  "content":
  [
    ["On","IN","On"],
    ["Captain","NNP","captain"],
    {
      "tag":"PERSON",
      "content":
      [
        ["Cook","NNP","cook"]
      ]
    },
    ["'s","POS","'s"],
    ["first","JJ","first"],
    ["journey","NN","journey"],
    [",",",",","],
    ["departing","VBG","depart"],
    ["in","IN","in"],
    ["1768","CD","1768"],
    [",",",",","],
    ["he","PRP","he"],
    ["...",":","..."],
    {
      "tag":"PERSON",
      "content":
      [
        ["Nick","NNP","nick"]
      ]
    },
    ["What","WP","What"],
    ["was","VBD","be"],
    ["the","DT","the"],
    ["impact","NN","impact"],
    ["of","IN","of"],
    {
      "tag":"GPE",
      "content":
      [
        ["Captain","NNP","captain"],
        ["Cook","NNP","cook"]
      ]
    },
    ["'s","POS","'s"],
    ["explorations","NNS","expl"],
    ["?",".","?"]
  ]
},
{
  "tag":"S",
  "content":
  [
    ["Contrary","NNP","cont"],
    ["to","TO","to"],
    ["popular","JJ","popul"],
    ["opinion","NN","opin"],
    [",",",",","],
    {
      "tag":"PERSON",
      "content":
      [
        ["Cook","NNP","cook"]
      ]
    },
    ["did","VBD","do"],
    {
      "tag":"ORGANIZATION",
      "content":
      [
        ["NOT","NNP","not"]
      ]
    },
    ["discover","NN","discov"],
    ["...",":","..."],
    {
      "tag":"PERSON",
      "content":
      [
        ["Jaden","NNP","jad"],
        ["Where","NNP","wher"]
      ]
    },
    ["were","VBD","be"],
    {
      "tag":"PERSON",
      "content":
      [
        ["Captain","NNP","captain"],
        ["Cook","NNP","cook"]
      ]
    },
    ["'s","POS","'s"],
    ["voyages","NNS","voy"],
    ["?",".","?"]
  ]
},
{
  "tag":"S",
  "content":
  [
    {
      "tag":"GPE",
      "content":
      [
        ["Captain","NNP","captain"]
      ]
    },
    {
      "tag":"PERSON",
      "content":
      [
        ["James","NNP","jam"],
        ["Cook","NNP","cook"]
      ]
    },
    ["completed","VBD","complet"],
    ["three","CD","three"],
    ["main","JJ","main"],
    ["voyages","NNS","voy"],
    ["of","IN","of"],
    ["...",":","..."]
  ]
},
{
  "tag":"S",
  "content":
  [
    ["Supervisors","NNS","superv"],
    ["Supervised","VBN","superv"],
    ["by","IN","by"],
    [":",":",":"],
    ["On","IN","On"],
    ["the","DT","the"],
    {
      "tag":"ORGANIZATION",
      "content":
      [
        ["Wallaby","NNP","wallaby"]
      ]
    },
    ["Become","NNP","becom"],
    ["a","DT","a"],
    ["Supervisor","NNP","superv"],
    ["!",".","!"]
  ]
},
{
  "tag":"S",
  "content":
  [
    ["Recent","JJ","rec"],
    ["Activity","NN","act"],
    ["Contributor","NNP","contribut"],
    ["wrote","VBD","writ"],
    ["the","DT","the"],
    ["first","JJ","first"],
    ["answer","NN","answ"],
    ["to","TO","to"],
    {
      "tag":"PERSON",
      "content":
      [
        ["Captain","NNP","captain"],
        ["Cook","NNP","cook"]
      ]
    },
    ["'s","POS","'s"],
    ["family","NN","famy"],
    ["tree","NN","tre"],
    ["15","CD","15"],
    ["Oct","NNP","oct"],
    ["2013","CD","2013"],
    ["15:02","CD","15:02"],
    ["C.Hainsaw","JJ","c.hainsaw"],
    ["(","NN","("],
    ["supervisor","NN","superv"],
    [")",":",")"],
    ["[",":","["],
    ["8618","CD","8618"],
    ["]","CD","]"],
    ["removed","VBN","remov"],
    ["the","DT","the"],
    ["answer","NN","answ"],
    ["of","IN","of"],
    ["What","WP","What"],
    ["did","VBD","do"],
    {
      "tag":"PERSON",
      "content":
      [
        ["James","NNP","jam"]
      ]
    },
    ["cook","NN","cook"],
    ["find","NN","find"],
    ["on","IN","on"],
    ["his","PRP$","his"],
    ["second","JJ","second"],
    ["voyages","NNS","voy"],
    ["12","CD","12"],
    ["Oct","NNP","oct"],
    ["2013","CD","2013"],
    ["21:53","CD","21:53"],
    ["Contributor","NNP","contribut"],
    ["wrote","VBD","writ"],
    ["the","DT","the"],
    ["first","JJ","first"],
    ["answer","NN","answ"],
    ["to","TO","to"],
    ["What","WP","What"],
    ["did","VBD","do"],
    {
      "tag":"PERSON",
      "content":
      [
        ["James","NNP","jam"]
      ]
    },
    ["cook","NN","cook"],
    ["find","NN","find"],
    ["on","IN","on"],
    ["his","PRP$","his"],
    ["second","JJ","second"],
    ["voyages","NNS","voy"],
    ["12","CD","12"],
    ["Oct","NNP","oct"],
    ["2013","CD","2013"],
    ["20:51","CD","20:51"],
    {
      "tag":"ORGANIZATION",
      "content":
      [
        ["KazikM","NNP","kazikm"]
      ]
    },
    ["(","NNP","("],
    ["supervisor","NN","superv"],
    [")",":",")"],
    ["[",":","["],
    ["419","CD","419"],
    ["]","CD","]"],
    ["removed","VBN","remov"],
    ["the","DT","the"],
    ["answer","NN","answ"],
    ["of","IN","of"],
    ["Who","WP","Who"],
    ["did","VBD","do"],
    ["mesopotamia","VBP","mesopotam"],
    ["cooks","NNS","cook"],
    ["cook","VBP","cook"],
    ["for","IN","for"],
    ["11","CD","11"],
    ["Oct","NNP","oct"],
    ["2013","CD","2013"],
    ["04:40","CD","04:40"],
    ["See","NNP","see"],
    ["more","JJR","mor"],
    ["activity","NN","act"],
    {
      "tag":"PERSON",
      "content":
      [
        ["Top","NNP","top"],
        ["Contributors","NNP","contribut"]
      ]
    },
    ["this","DT","this"],
    ["month","NN","mon"],
    ["Questions","NNS","quest"],
    ["No","DT","No"],
    ["contributors","NNS","contribut"],
    {
      "tag":"ORGANIZATION",
      "content":
      [
        ["Answers","NNPS","answ"],
        ["No","NNP","no"]
      ]
    },
    ["contributors","NNS","contribut"],
    {
      "tag":"PERSON",
      "content":
      [
        ["Edits","NNPS","edit"],
        ["Bobo192","NNP","bobo192"],
        ["Keshia","NNP","kesh"],
        ["Davis","NNP","dav"]
      ]
    },
    ["Skullcandy88","NNP","skullcandy88"],
    ["KazikM","NNP","kazikm"],
    ["C.Hainsaw","NNP","c.hainsaw"],
    ["On","NNP","on"],
    ["the","DT","the"],
    {
      "tag":"ORGANIZATION",
      "content":
      [
        ["Wallaby","NNP","wallaby"],
        ["Organization","NNP","org"],
        ["Keshia","NNP","kesh"],
        ["Davis","NNP","dav"],
        ["Sugu","NNP","sugu"]
      ]
    },
    ["ece1983","NNP","ece1983"],
    ["Community","NNP","commun"],
    ["No","NNP","no"],
    ["contributors","NNS","contribut"],
    {
      "tag":"PERSON",
      "content":
      [
        ["See","NNP","see"],
        ["All","NNP","al"],
        ["Answers","NNP","answ"],
        ["Current","NNP","cur"],
        ["Leaders","NNP","lead"],
        ["Hall","NNP","hal"]
      ]
    },
    ["of","IN","of"],
    {
      "tag":"PERSON",
      "content":
      [
        ["Fame","NNP","fam"],
        ["Answers","NNP","answ"]
      ]
    },
    ["Properties","NNPS","property"],
    ["Answers","NNP","answ"],
    ["Wiki","NNP","wik"],
    ["Answers","NNP","answ"],
    ["Experts","NNP","expert"],
    ["Coupons","NNP","coupon"],
    ["Guides","NNP","guid"],
    ["Video","NNP","video"],
    ["Answers","NNP","answ"],
    {
      "tag":"PERSON",
      "content":
      [
        ["Local","NNP","loc"],
        ["Answers","NNP","answ"]
      ]
    },
    ["ResellerRatings","NNP","reseller"],
    ["Surveys","NNP","survey"],
    ["Blog","NNP","blog"],
    {
      "tag":"PERSON",
      "content":
      [
        ["Sitemap","NNP","sitemap"],
        ["Company","NNP","company"],
        ["About","NNP","about"],
        ["Careers","NNP","car"],
        ["Terms","NNP","term"]
      ]
    },
    ["of","IN","of"],
    {
      "tag":"ORGANIZATION",
      "content":
      [
        ["Use","NNP","us"],
        ["Privacy","NNP","priv"],
        ["Policy","NNP","policy"],
        ["Consumer","NNP","consum"]
      ]
    },
    ["Choice","NNP","cho"],
    ["IP","NNP","ip"],
    ["Issues","NNPS","issu"],
    {
      "tag":"ORGANIZATION",
      "content":
      [
        ["Disclaimer","NNP","disclaim"]
      ]
    },
    ["Community","NNP","commun"],
    ["Guidelines","NNP","guidelin"],
    ["Reputation","NNP","reput"]
  ]
}]