[
{
  "tag":"S",
  "content":
  [
    {
      "tag":"GPE",
      "content":
      [
        ["Skip","NNP","skip"]
      ]
    },
    ["to","TO","to"],
    ["main","VB","main"],
    ["content","NN","cont"],
    ["A","DT","A"],
    ["&","CC","&"],
    {
      "tag":"ORGANIZATION",
      "content":
      [
        ["ENewsLifeLeisureSportsTechVideo","NNP","enewslifeleisuresportstechvideo"],
        ["Facebook","NNP","facebook"]
      ]
    },
    ["Twitter","NNP","twit"],
    ["Google+","NNP","google+"],
    ["Search","NNP","search"],
    ["Login/logout","NNP","login/logout"],
    ["Leisure","NNP","leis"],
    {
      "tag":"PERSON",
      "content":
      [
        ["Travel","NNP","travel"],
        ["International","NNP","intern"],
        ["Travel","NNP","travel"],
        ["Diana","NNP","dian"],
        ["Ross","NNP","ross"]
      ]
    },
    ["coming","VBG","com"],
    ["to","TO","to"],
    {
      "tag":"GPE",
      "content":
      [
        ["San","NNP","san"],
        ["Francisco","NNP","francisco"]
      ]
    },
    ["for","IN","for"],
    ["two","CD","two"],
    ["nights","NNS","night"],
    ["only","RB","on"],
    [",",",",","],
    ["but","CC","but"],
    ["hurry","NN","hurry"],
    ["(",":","("],
    {
      "tag":"GPE",
      "content":
      [
        ["Video","NNP","video"]
      ]
    },
    [")",":",")"],
    {
      "tag":"ORGANIZATION",
      "content":
      [
        ["Comment","NNP","com"],
        ["Share","NNP","shar"],
        ["Facebook","NNP","facebook"]
      ]
    },
    ["Twitter","NNP","twit"],
    ["Google+","NNP","google+"],
    ["Email","NNP","email"],
    ["Print","NNP","print"],
    ["See","NNP","see"],
    ["alsoDomestic","NNP","alsodomest"],
    ["travel","NN","travel"],
    {
      "tag":"PERSON",
      "content":
      [
        ["Diana","NNP","dian"],
        ["Ross","NNP","ross"],
        ["San","NNP","san"],
        ["Francisco","NNP","francisco"],
        ["Golden","NNP","gold"]
      ]
    },
    ["Globe","NNP","glob"],
    ["The","NNP","the"],
    {
      "tag":"ORGANIZATION",
      "content":
      [
        ["Supremes","NNP","suprem"]
      ]
    },
    ["PlayRarely","NNP","playr"],
    ["seen","IN","seen"],
    ["footage","NN","foot"],
    ["from","IN","from"],
    {
      "tag":"PERSON",
      "content":
      [
        ["Diana","NNP","dian"],
        ["Ross","NNP","ross"]
      ]
    },
    ["'","POS","'"],
    ["1983","CD","1983"],
    {
      "tag":"ORGANIZATION",
      "content":
      [
        ["Central","NNP","cent"],
        ["Park","NNP","park"]
      ]
    },
    ["concert","NN","concert"],
    ["hitting","VBG","hit"],
    {
      "tag":"ORGANIZATION",
      "content":
      [
        ["DVD","NNP","dvd"]
      ]
    },
    ["for","IN","for"],
    ["the","DT","the"],
    ["first","JJ","first"],
    ["time","NN","tim"],
    ["on","IN","on"],
    ["May","NNP","may"],
    ["15","CD","15"],
    ["In","NNP","in"],
    ["1983","CD","1983"],
    [",",",",","],
    ["legendary","JJ","legend"],
    ["singer","NN","sing"],
    {
      "tag":"PERSON",
      "content":
      [
        ["Diana","NNP","dian"],
        ["Ross","NNP","ross"]
      ]
    },
    ["made","VBD","mak"],
    ["history","NN","hist"],
    ["when","WRB","when"],
    ["she","PRP","she"],
    ["performed","VBD","perform"],
    ["in","IN","in"],
    {
      "tag":"ORGANIZATION",
      "content":
      [
        ["NYC","NNP","nyc"]
      ]
    },
    ["'s","POS","'s"],
    {
      "tag":"ORGANIZATION",
      "content":
      [
        ["Central","NNP","cent"],
        ["Park","NNP","park"]
      ]
    },
    ["despite","IN","despite"],
    ["an","DT","an"],
    ["unstoppable","JJ","unstop"],
    ["downpour","NN","downpo"],
    ["!",".","!"]
  ]
},
{
  "tag":"S",
  "content":
  [
    {
      "tag":"GPE",
      "content":
      [
        ["Forced","NNP","forc"]
      ]
    },
    ["to","TO","to"],
    ["cancel","VB","cancel"],
    ["the","DT","the"],
    ["...",":","..."],
    ["(",":","("],
    ["on.aol.com","JJ","on.aol.com"],
    [")","NN",")"],
    {
      "tag":"PERSON",
      "content":
      [
        ["Sheila","NNP","sheil"],
        ["OConnorSF","NNP","oconnorsf"]
      ]
    },
    ["World","NNP","world"],
    ["Travel","NNP","travel"],
    ["Examiner","NNP","examin"],
    ["Subscribe","NNP","subscrib"],
    ["Follow","NNP","follow"],
    [":",":",":"],
    {
      "tag":"PERSON",
      "content":
      [
        ["Related","NNP","rel"],
        ["Photo","NNP","photo"]
      ]
    },
    [":",":",":"],
    {
      "tag":"PERSON",
      "content":
      [
        ["Rick","NNP","rick"],
        ["Bartolini","NNP","bartolin"]
      ]
    },
    ["Presents","NNP","pres"],
    {
      "tag":"PERSON",
      "content":
      [
        ["Diana","NNP","dian"],
        ["Ross","NNP","ross"]
      ]
    },
    ["in","IN","in"],
    {
      "tag":"GPE",
      "content":
      [
        ["San","NNP","san"],
        ["Francisco","NNP","francisco"]
      ]
    },
    [".",".","."]
  ]
},
{
  "tag":"S",
  "content":
  [
    {
      "tag":"PERSON",
      "content":
      [
        ["Rick","NNP","rick"]
      ]
    },
    {
      "tag":"PERSON",
      "content":
      [
        ["Bartolini","NNP","bartolin"],
        ["Presents","NNP","pres"],
        ["Related","NNP","rel"],
        ["Slideshow","NNP","slideshow"]
      ]
    },
    [":",":",":"],
    ["See","NNP","see"],
    ["all","DT","all"],
    ["photos","NNS","photo"],
    ["Advertisement","NNP","advert"],
    ["July","NNP","july"],
    ["29","CD","29"],
    [",",",",","],
    ["2013","CD","2013"],
    {
      "tag":"PERSON",
      "content":
      [
        ["San","NNP","san"],
        ["Francisco","NNP","francisco"]
      ]
    },
    ["residents","NNS","resid"],
    [",",",",","],
    ["or","CC","or"],
    ["world","NN","world"],
    ["travelers","NNS","travel"],
    ["heading","VBG","head"],
    ["to","TO","to"],
    ["the","DT","the"],
    ["City","NNP","city"],
    ["by","IN","by"],
    ["the","DT","the"],
    {
      "tag":"ORGANIZATION",
      "content":
      [
        ["Bay","NNP","bay"]
      ]
    },
    [",",",",","],
    ["should","MD","should"],
    ["note","VB","not"],
    ["that","IN","that"],
    ["none","NN","non"],
    ["other","JJ","oth"],
    ["than","IN","than"],
    ["the","DT","the"],
    ["legendary","JJ","legend"],
    {
      "tag":"PERSON",
      "content":
      [
        ["Diana","NNP","dian"],
        ["Ross","NNP","ross"]
      ]
    },
    ["is","VBZ","be"],
    ["coming","VBG","com"],
    ["to","TO","to"],
    ["town","VB","town"],
    [".",".","."]
  ]
},
{
  "tag":"S",
  "content":
  [
    ["And","CC","And"],
    ["this","DT","this"],
    ["is","VBZ","be"],
    ["a","DT","a"],
    ["show","NN","show"],
    ["not","RB","not"],
    ["to","TO","to"],
    ["be","VB","be"],
    ["missed","VBN","miss"],
    ["!",".","!"]
  ]
},
{
  "tag":"S",
  "content":
  [
    ["The","DT","The"],
    ["magical","JJ","mag"],
    ["and","CC","and"],
    ["musical","JJ","mus"],
    ["record-breaking","JJ","record-breaking"],
    ["legend","NN","legend"],
    ["will","MD","will"],
    ["be","VB","be"],
    ["here","RB","her"],
    ["for","IN","for"],
    ["just","RB","just"],
    ["two","CD","two"],
    ["nights","NNS","night"],
    [",",",",","],
    ["August","NNP","august"],
    ["6","CD","6"],
    ["and","CC","and"],
    ["7","CD","7"],
    [",",",",","],
    ["2013","CD","2013"],
    [".",".","."]
  ]
},
{
  "tag":"S",
  "content":
  [
    ["Tickets","NNS","ticket"],
    ["are","VBP","be"],
    ["now","RB","now"],
    ["on","IN","on"],
    ["sale","NN","sal"],
    ["and","CC","and"],
    ["you","PRP","you"],
    ["should","MD","should"],
    ["get","VB","get"],
    ["them","PRP","them"],
    ["quickly","RB","quick"],
    ["because","IN","because"],
    ["they","PRP","they"],
    ["will","MD","will"],
    ["be","VB","be"],
    ["sure","JJ","sur"],
    ["to","TO","to"],
    ["sell","VB","sel"],
    ["out","RP","out"],
    ["!",".","!"]
  ]
},
{
  "tag":"S",
  "content":
  [
    {
      "tag":"PERSON",
      "content":
      [
        ["Diana","NNP","dian"]
      ]
    },
    {
      "tag":"PERSON",
      "content":
      [
        ["Ross","NNP","ross"]
      ]
    },
    ["was","VBD","be"],
    ["last","JJ","last"],
    ["here","RB","her"],
    ["in","IN","in"],
    {
      "tag":"GPE",
      "content":
      [
        ["San","NNP","san"]
      ]
    },
    ["Francisco","NNP","francisco"],
    ["back","RB","back"],
    ["in","IN","in"],
    ["2011","CD","2011"],
    ["and","CC","and"],
    ["that","IN","that"],
    ["show","NN","show"],
    ["marked","VBD","mark"],
    ["her","PRP","her"],
    ["first","RB","first"],
    ["one","CD","one"],
    ["since","IN","since"],
    ["she","PRP","she"],
    ["performed","VBD","perform"],
    ["with","IN","with"],
    ["her","PRP$","her"],
    ["beloved","VBN","belov"],
    {
      "tag":"PERSON",
      "content":
      [
        ["Supremes","NNP","suprem"]
      ]
    },
    ["back","RB","back"],
    ["in","IN","in"],
    ["1969","CD","1969"],
    [".",".","."]
  ]
},
{
  "tag":"S",
  "content":
  [
    ["That","DT","That"],
    ["show","NN","show"],
    ["was","VBD","be"],
    ["held","VBN","hold"],
    ["at","IN","at"],
    ["the","DT","the"],
    {
      "tag":"ORGANIZATION",
      "content":
      [
        ["Fairmont","NNP","fairmont"],
        ["Hotel","NNP","hotel"]
      ]
    },
    [".",".","."]
  ]
},
{
  "tag":"S",
  "content":
  [
    ["So","IN","So"],
    ["it","PRP","it"],
    ["'s","VBZ","'s"],
    ["been","VBN","be"],
    ["40","CD","40"],
    ["long","JJ","long"],
    ["years","NNS","year"],
    ["since","IN","since"],
    ["she","PRP","she"],
    ["was","VBD","be"],
    ["last","JJ","last"],
    ["here","RB","her"],
    [".",".","."]
  ]
},
{
  "tag":"S",
  "content":
  [
    ["But","CC","But"],
    ["who","WP","who"],
    ["'s","VBZ","'s"],
    ["counting","VBG","count"],
    ["?",".","?"]
  ]
},
{
  "tag":"S",
  "content":
  [
    ["Mayor","NNP","may"],
    {
      "tag":"PERSON",
      "content":
      [
        ["Ed","NNP","ed"],
        ["Lee","NNP","lee"]
      ]
    },
    ["has","VBZ","hav"],
    ["now","RB","now"],
    ["proclaimed","VBN","proclaim"],
    ["September","NNP","septemb"],
    ["16","CD","16"],
    [",",",",","],
    ["200","CD","200"],
    ["as","IN","as"],
    {
      "tag":"PERSON",
      "content":
      [
        ["Diana","NNP","dian"],
        ["Ross","NNP","ross"]
      ]
    },
    ["Day","NNP","day"],
    ["in","IN","in"],
    ["both","DT","both"],
    ["the","DT","the"],
    {
      "tag":"ORGANIZATION",
      "content":
      [
        ["City","NNP","city"]
      ]
    },
    ["and","CC","and"],
    {
      "tag":"ORGANIZATION",
      "content":
      [
        ["County","NNP","county"]
      ]
    },
    ["of","IN","of"],
    {
      "tag":"GPE",
      "content":
      [
        ["San","NNP","san"],
        ["Francisco","NNP","francisco"]
      ]
    },
    [".",".","."]
  ]
},
{
  "tag":"S",
  "content":
  [
    ["In","IN","In"],
    ["order","NN","ord"],
    ["to","TO","to"],
    ["mark","VB","mark"],
    ["the","DT","the"],
    ["occasion","NN","occas"],
    [",",",",","],
    ["there","EX","there"],
    ["will","MD","will"],
    ["be","VB","be"],
    ["two","CD","two"],
    ["unique","JJ","un"],
    ["shows","NNS","show"],
    ["in","IN","in"],
    {
      "tag":"GPE",
      "content":
      [
        ["San","NNP","san"],
        ["Francisco","NNP","francisco"]
      ]
    },
    [".",".","."]
  ]
},
{
  "tag":"S",
  "content":
  [
    ["And","CC","And"],
    ["this","DT","this"],
    ["historic","JJ","hist"],
    ["occasion","NN","occas"],
    ["will","MD","will"],
    ["be","VB","be"],
    ["performed","VBN","perform"],
    ["in","IN","in"],
    ["a","DT","a"],
    ["historic","JJ","hist"],
    ["venue","NN","venu"],
    [":",":",":"],
    ["the","DT","the"],
    {
      "tag":"ORGANIZATION",
      "content":
      [
        ["Diana","NNP","dian"],
        ["Ross","NNP","ross"]
      ]
    },
    ["show","NN","show"],
    ["will","MD","will"],
    ["be","VB","be"],
    ["performed","VBN","perform"],
    ["at","IN","at"],
    ["the","DT","the"],
    {
      "tag":"ORGANIZATION",
      "content":
      [
        ["SHN","NNP","shn"],
        ["Golden","NNP","gold"],
        ["Gate","NNP","gat"]
      ]
    },
    ["Theater","NNP","the"],
    [".",".","."]
  ]
},
{
  "tag":"S",
  "content":
  [
    ["So","IN","So"],
    ["just","RB","just"],
    ["how","WRB","how"],
    ["much","JJ","much"],
    ["do","VBP","do"],
    ["you","PRP","you"],
    ["know","VB","know"],
    ["about","IN","about"],
    {
      "tag":"PERSON",
      "content":
      [
        ["Diana","NNP","dian"],
        ["Ross","NNP","ross"]
      ]
    },
    ["anyway","NN","anyway"],
    ["?",".","?"]
  ]
},
{
  "tag":"S",
  "content":
  [
    ["Here","RB","her"],
    ["are","VBP","be"],
    ["some","DT","some"],
    ["things","NNS","thing"],
    ["you","PRP","you"],
    ["might","MD","might"],
    ["not","RB","not"],
    ["know","VB","know"],
    ["about","IN","about"],
    ["her","PRP$","her"],
    [":",":",":"],
    ["The","DT","The"],
    {
      "tag":"ORGANIZATION",
      "content":
      [
        ["Diana","NNP","dian"],
        ["Ross","NNP","ross"]
      ]
    },
    ["concerts","NNS","concert"],
    ["on","IN","on"],
    ["August","NNP","august"],
    ["6","CD","6"],
    ["and","CC","and"],
    ["7","CD","7"],
    ["will","MD","will"],
    ["feature","VB","feat"],
    ["beautiful","JJ","beauty"],
    ["costumes","NNS","costum"],
    ["and","CC","and"],
    ["breathtaking","VBG","breathtak"],
    ["stage","NN","stag"],
    ["designs","NNS","design"],
    [";",":",";"],
    {
      "tag":"PERSON",
      "content":
      [
        ["Diana","NNP","dian"],
        ["Ross","NNP","ross"]
      ]
    },
    ["actually","RB","act"],
    ["became","VBD","becom"],
    ["known","VBN","know"],
    ["in","IN","in"],
    {
      "tag":"GPE",
      "content":
      [
        ["America","NNP","americ"]
      ]
    },
    ["in","IN","in"],
    ["the","DT","the"],
    ["1960s","CD","1960s"],
    [",",",",","],
    ["just","RB","just"],
    ["after","IN","after"],
    ["she","PRP","she"],
    ["signed","VBD","sign"],
    ["with","IN","with"],
    {
      "tag":"PERSON",
      "content":
      [
        ["Motown","NNP","motown"],
        ["Records","NNP","record"]
      ]
    },
    ["and","CC","and"],
    ["with","IN","with"],
    ["The","DT","The"],
    {
      "tag":"ORGANIZATION",
      "content":
      [
        ["Supremes","NNP","suprem"]
      ]
    },
    [".",".","."]
  ]
},
{
  "tag":"S",
  "content":
  [
    {
      "tag":"PERSON",
      "content":
      [
        ["Diana","NNP","dian"]
      ]
    },
    {
      "tag":"PERSON",
      "content":
      [
        ["Ross","NNP","ross"]
      ]
    },
    ["'s","POS","'s"],
    ["solo","NN","solo"],
    ["career","NN","car"],
    ["actually","RB","act"],
    ["started","VBN","start"],
    ["in","IN","in"],
    ["1970","CD","1970"],
    [".",".","."]
  ]
},
{
  "tag":"S",
  "content":
  [
    {
      "tag":"PERSON",
      "content":
      [
        ["Diana","NNP","dian"]
      ]
    },
    {
      "tag":"PERSON",
      "content":
      [
        ["Ross","NNP","ross"]
      ]
    },
    ["has","VBZ","hav"],
    ["sold","VBN","sel"],
    ["over","IN","over"],
    ["100","CD","100"],
    ["million","CD","million"],
    ["records","NNS","record"],
    [".",".","."]
  ]
},
{
  "tag":"S",
  "content":
  [
    ["Among","IN","Among"],
    ["those","DT","those"],
    ["100","CD","100"],
    ["million","CD","million"],
    ["records","NNS","record"],
    ["sold","VBD","sel"],
    [",",",",","],
    ["18","CD","18"],
    ["number","NN","numb"],
    ["one","CD","one"],
    ["hits","NNS","hit"],
    ["have","VBP","hav"],
    ["been","VBN","be"],
    ["the","DT","the"],
    ["result","NN","result"],
    [".",".","."]
  ]
},
{
  "tag":"S",
  "content":
  [
    {
      "tag":"PERSON",
      "content":
      [
        ["Diana","NNP","dian"]
      ]
    },
    {
      "tag":"PERSON",
      "content":
      [
        ["Ross","NNP","ross"]
      ]
    },
    ["was","VBD","be"],
    ["nominated","VBN","nomin"],
    ["for","IN","for"],
    ["an","DT","an"],
    {
      "tag":"PERSON",
      "content":
      [
        ["Academy","NNP","academy"],
        ["Award","NNP","award"]
      ]
    },
    ["after","IN","after"],
    ["she","PRP","she"],
    ["played","VBD","play"],
    ["in","IN","in"],
    ["the","DT","the"],
    ["movie","NN","movy"],
    ["'Lady","JJ","'lady"],
    ["Sings","NNS","sing"],
    ["the","DT","the"],
    {
      "tag":"GPE",
      "content":
      [
        ["Blues","NNP","blu"]
      ]
    },
    [".",".","."]
  ]
},
{
  "tag":"S",
  "content":
  [
    ["'","POS","'"],
    ["She","PRP","She"],
    ["played","VBD","play"],
    ["the","DT","the"],
    ["part","NN","part"],
    ["of","IN","of"],
    {
      "tag":"PERSON",
      "content":
      [
        ["Billie","NNP","bil"]
      ]
    },
    ["Holiday","NNP","holiday"],
    [".",".","."]
  ]
},
{
  "tag":"S",
  "content":
  [
    ["She","PRP","She"],
    ["has","VBZ","hav"],
    ["won","VBN","win"],
    ["both","DT","both"],
    ["a","DT","a"],
    ["Tony","NNP","tony"],
    ["and","CC","and"],
    ["a","DT","a"],
    {
      "tag":"ORGANIZATION",
      "content":
      [
        ["Golden","NNP","gold"],
        ["Globe","NNP","glob"],
        ["Award","NNP","award"]
      ]
    },
    [".",".","."]
  ]
},
{
  "tag":"S",
  "content":
  [
    {
      "tag":"PERSON",
      "content":
      [
        ["Diana","NNP","dian"]
      ]
    },
    {
      "tag":"PERSON",
      "content":
      [
        ["Ross","NNP","ross"]
      ]
    },
    ["has","VBZ","hav"],
    ["also","RB","also"],
    ["won","VBD","win"],
    ["accolades","NNS","accolad"],
    ["as","IN","as"],
    ["a","DT","a"],
    ["bestselling","NN","bestsel"],
    ["author","NN","auth"],
    [",",",",","],
    ["is","VBZ","be"],
    ["the","DT","the"],
    ["winner","NN","win"],
    ["of","IN","of"],
    ["8","CD","8"],
    {
      "tag":"ORGANIZATION",
      "content":
      [
        ["American","JJ","am"],
        ["Music","NNP","mus"],
        ["Awards","NNP","award"]
      ]
    },
    ["and","CC","and"],
    ["can","MD","can"],
    ["boast","VB","boast"],
    ["being","VBG","be"],
    ["the","DT","the"],
    ["recipient","JJ","recipy"],
    ["of","IN","of"],
    ["The","DT","The"],
    {
      "tag":"FACILITY",
      "content":
      [
        ["Kennedy","NNP","kennedy"],
        ["Center","NNP","cent"],
        ["Honors","NNP","hon"]
      ]
    },
    [".",".","."]
  ]
},
{
  "tag":"S",
  "content":
  [
    ["It","PRP","It"],
    ["'s","VBZ","'s"],
    ["no","DT","no"],
    ["wonder","NN","wond"],
    ["her","PRP","her"],
    ["shows","VBZ","show"],
    ["are","VBP","be"],
    ["likely","JJ","lik"],
    ["to","TO","to"],
    ["be","VB","be"],
    ["sell-outs","NNS","sell-outs"],
    ["!",".","!"]
  ]
},
{
  "tag":"S",
  "content":
  [
    ["Note","VB","not"],
    ["you","PRP","you"],
    ["can","MD","can"],
    ["see","VB","see"],
    ["them","PRP","them"],
    ["both","DT","both"],
    ["at","IN","at"],
    ["the","DT","the"],
    {
      "tag":"ORGANIZATION",
      "content":
      [
        ["SHN","NNP","shn"],
        ["Golden","NNP","gold"],
        ["Gate","NNP","gat"]
      ]
    },
    ["Theater","NNP","the"],
    [".",".","."]
  ]
},
{
  "tag":"S",
  "content":
  [
    ["This","DT","This"],
    ["has","VBZ","hav"],
    ["been","VBN","be"],
    ["described","VBN","describ"],
    ["as","IN","as"],
    ["``","``","``"],
    ["one","CD","one"],
    ["of","IN","of"],
    ["the","DT","the"],
    {
      "tag":"LOCATION",
      "content":
      [
        ["West","NNP","west"]
      ]
    },
    ["Coast’s","NNP","coast’s"],
    ["premier","NN","premy"],
    ["venues","NNS","venu"],
    ["for","IN","for"],
    ["live","JJ","liv"],
    ["entertainment","NN","entertain"],
    [".",".","."]
  ]
},
{
  "tag":"S",
  "content":
  [
    ["``","``","``"],
    ["The","DT","The"],
    ["theater","NN","the"],
    ["is","VBZ","be"],
    ["easy","JJ","easy"],
    ["to","TO","to"],
    ["get","VB","get"],
    ["to","TO","to"],
    ["in","IN","in"],
    ["downtown","NN","downtown"],
    {
      "tag":"PERSON",
      "content":
      [
        ["San","NNP","san"],
        ["Francisco","NNP","francisco"]
      ]
    },
    [",",",",","],
    ["and","CC","and"],
    ["this","DT","this"],
    ["historic","JJ","hist"],
    ["1922","CD","1922"],
    ["art","NN","art"],
    ["deco","NN","deco"],
    ["theater","NN","the"],
    ["boasts","NNS","boast"],
    ["having","VBG","hav"],
    ["a","DT","a"],
    ["dramatic","JJ","dram"],
    [",",",",","],
    ["yet","CC","yet"],
    ["intimate","VB","intim"],
    [",",",",","],
    ["setting","VBG","set"],
    [".",".","."]
  ]
},
{
  "tag":"S",
  "content":
  [
    {
      "tag":"GPE",
      "content":
      [
        ["Location","NN","loc"]
      ]
    },
    ["is","VBZ","be"],
    ["1","CD","1"],
    {
      "tag":"FACILITY",
      "content":
      [
        ["Taylor","NNP","tayl"],
        ["Street","NNP","street"]
      ]
    },
    [",",",",","],
    ["at","IN","at"],
    {
      "tag":"FACILITY",
      "content":
      [
        ["Market","NNP","market"],
        ["Street","NNP","street"]
      ]
    },
    ["&","CC","&"],
    ["6th","CD","6th"],
    ["in","IN","in"],
    {
      "tag":"GPE",
      "content":
      [
        ["San","NNP","san"],
        ["Francisco","NNP","francisco"]
      ]
    },
    [".",".","."]
  ]
},
{
  "tag":"S",
  "content":
  [
    ["Even","RB","ev"],
    ["better","JJR","good"],
    [",",",",","],
    ["the","DT","the"],
    {
      "tag":"ORGANIZATION",
      "content":
      [
        ["Golden","NNP","gold"],
        ["Gate","NNP","gat"]
      ]
    },
    ["Theater","NNP","the"],
    ["is","VBZ","be"],
    ["close","JJ","clos"],
    ["to","TO","to"],
    {
      "tag":"ORGANIZATION",
      "content":
      [
        ["BART","NNP","bart"]
      ]
    },
    ["and","CC","and"],
    {
      "tag":"ORGANIZATION",
      "content":
      [
        ["MUNI","NNP","mun"]
      ]
    },
    ["and","CC","and"],
    ["public","JJ","publ"],
    ["transport","NN","transport"],
    ["is","VBZ","be"],
    ["always","RB","alway"],
    ["recommended","VBN","recommend"],
    [".",".","."]
  ]
},
{
  "tag":"S",
  "content":
  [
    ["The","DT","The"],
    {
      "tag":"ORGANIZATION",
      "content":
      [
        ["Diana","NNP","dian"]
      ]
    },
    ["Ross’","NNP","ross’"],
    ["performances","NNS","perform"],
    ["are","VBP","be"],
    ["brought","VBN","bring"],
    ["to","TO","to"],
    ["you","PRP","you"],
    ["by","IN","by"],
    {
      "tag":"GPE",
      "content":
      [
        ["Northern","NNP","northern"],
        ["California","NNP","californ"]
      ]
    },
    ["based","VBD","bas"],
    {
      "tag":"PERSON",
      "content":
      [
        ["Concert","NNP","concert"],
        ["Promoters","NNP","promot"]
      ]
    },
    {
      "tag":"PERSON",
      "content":
      [
        ["Rick","NNP","rick"],
        ["Bartalini","NNP","bartalin"],
        ["Presents","NNP","pres"]
      ]
    },
    [".",".","."]
  ]
},
{
  "tag":"S",
  "content":
  [
    ["If","IN","If"],
    ["you","PRP","you"],
    ["go","VBP","go"],
    [":",":",":"],
    {
      "tag":"PERSON",
      "content":
      [
        ["Ticket","NNP","ticket"],
        ["Information","NNP","inform"]
      ]
    },
    [":",":",":"],
    ["Tickets","NNPS","ticket"],
    ["are","VBP","be"],
    ["now","RB","now"],
    ["on","IN","on"],
    ["sale","NN","sal"],
    ["and","CC","and"],
    ["can","MD","can"],
    ["be","VB","be"],
    ["purchased","VBN","purchas"],
    ["on-line","-NONE-","on-line"],
    ["at","IN","at"],
    ["www.shnsf.com","JJ","www.shnsf.com"],
    ["or","CC","or"],
    ["by","IN","by"],
    ["phone","NN","phon"],
    ["at","IN","at"],
    {
      "tag":"ORGANIZATION",
      "content":
      [
        ["SHN","NNP","shn"],
        ["Audience","NNP","audy"],
        ["Services","NNPS","serv"]
      ]
    },
    ["at","IN","at"],
    ["888-746-1799","CD","888-746-1799"],
    [".",".","."]
  ]
},
{
  "tag":"S",
  "content":
  [
    ["Tickets","NNS","ticket"],
    ["range","VBP","rang"],
    ["in","IN","in"],
    ["price","NN","pric"],
    ["from","IN","from"],
    ["$","$","$"],
    ["70.00-","CD","70.00-"],
    ["$","$","$"],
    ["265.00","CD","265.00"],
    [".",".","."]
  ]
},
{
  "tag":"S",
  "content":
  [
    {
      "tag":"GPE",
      "content":
      [
        ["Performance","NN","perform"]
      ]
    },
    {
      "tag":"PERSON",
      "content":
      [
        ["Schedule","NNP","schedule"]
      ]
    },
    [":",":",":"],
    ["August","NNP","august"],
    ["6","CD","6"],
    ["at","IN","at"],
    ["8pmAugust","CD","8pmAugust"],
    ["7","CD","7"],
    ["at","IN","at"],
    ["8pm","CD","8pm"],
    {
      "tag":"ORGANIZATION",
      "content":
      [
        ["SHN","NNP","shn"],
        ["Golden","NNP","gold"],
        ["Gate","NNP","gat"]
      ]
    },
    ["Theatre","NNP","the"],
    [":",":",":"],
    ["1","LS","1"],
    {
      "tag":"PERSON",
      "content":
      [
        ["Taylor","NNP","tayl"],
        ["Street","NNP","street"]
      ]
    },
    ["at","IN","at"],
    {
      "tag":"ORGANIZATION",
      "content":
      [
        ["Market","NNP","market"],
        ["For","NNP","for"]
      ]
    },
    ["more","JJR","mor"],
    ["information","NN","inform"],
    ["visit","NN","visit"],
    [":",":",":"],
    ["http","NN","http"],
    [":",":",":"],
    ["//www.shnsf.com/online/dianarossSee","JJ","//www.shnsf.com/online/dianarosssee"],
    ["the","DT","the"],
    ["video","NN","video"],
    ["at","IN","at"],
    [":",":",":"],
    ["https","NNS","http"],
    [":",":",":"],
    ["//www.shnsf.com/online/dianaross","JJ","//www.shnsf.com/online/dianaross"],
    ["&","CC","&"],
    ["tabNumber=3Connect","JJ","tabnumber=3connect"],
    ["with","IN","with"],
    {
      "tag":"ORGANIZATION",
      "content":
      [
        ["SHN","NNP","shn"]
      ]
    },
    ["at","IN","at"],
    [":",":",":"],
    ["www.shnsf.com","JJ","www.shnsf.com"],
    ["World","NN","world"],
    ["travelers","NNS","travel"],
    ["can","MD","can"],
    ["fly","RB","fly"],
    ["into","IN","into"],
    {
      "tag":"PERSON",
      "content":
      [
        ["San","NNP","san"],
        ["Francisco","NNP","francisco"]
      ]
    },
    ["to","TO","to"],
    ["see","VB","see"],
    ["the","DT","the"],
    {
      "tag":"ORGANIZATION",
      "content":
      [
        ["Diana","NNP","dian"],
        ["Ross","NNP","ross"]
      ]
    },
    ["show","NN","show"],
    ["by","IN","by"],
    ["arriving","NN","ar"],
    ["at","IN","at"],
    {
      "tag":"ORGANIZATION",
      "content":
      [
        ["SFO","NNP","sfo"],
        ["International","NNP","intern"],
        ["Airport","NNP","airport"]
      ]
    },
    [".",".","."]
  ]
},
{
  "tag":"S",
  "content":
  [
    ["Several","JJ","sev"],
    ["airlines","NNS","airlin"],
    ["fly","RB","fly"],
    ["into","IN","into"],
    ["the","DT","the"],
    ["City","NNP","city"],
    ["by","IN","by"],
    ["the","DT","the"],
    {
      "tag":"ORGANIZATION",
      "content":
      [
        ["Bay","NNP","bay"]
      ]
    },
    [".",".","."]
  ]
},
{
  "tag":"S",
  "content":
  [
    {
      "tag":"GPE",
      "content":
      [
        ["See","NNP","see"]
      ]
    },
    ["online","NN","onlin"],
    ["websites","VBZ","websit"],
    ["offering","NN","off"],
    ["great","JJ","gre"],
    ["deals","NNS","deal"],
    ["to","TO","to"],
    {
      "tag":"GPE",
      "content":
      [
        ["San","NNP","san"],
        ["Francisco","NNP","francisco"]
      ]
    },
    [".",".","."]
  ]
},
{
  "tag":"S",
  "content":
  [
    {
      "tag":"GPE",
      "content":
      [
        ["See","NNP","see"]
      ]
    },
    ["photos","NNS","photo"],
    ["in","IN","in"],
    ["the","DT","the"],
    ["slideshow","NN","slideshow"],
    ["above","IN","above"],
    [".",".","."]
  ]
},
{
  "tag":"S",
  "content":
  [
    {
      "tag":"PERSON",
      "content":
      [
        ["Follow","NNP","follow"]
      ]
    },
    {
      "tag":"ORGANIZATION",
      "content":
      [
        ["Sheila","NNP","sheil"]
      ]
    },
    ["on","IN","on"],
    ["Twitter","NNP","twit"],
    ["(","NNP","("],
    ["@","NNP","@"],
    ["Sheilamba","NNP","sheilamb"],
    [")","NNP",")"],
    ["Suggested","NNP","suggest"],
    ["by","IN","by"],
    ["the","DT","the"],
    ["author","NN","auth"],
    {
      "tag":"GPE",
      "content":
      [
        ["Northern","NNP","northern"],
        ["Ireland","NNP","ireland"]
      ]
    },
    ["day","NN","day"],
    ["1","CD","1"],
    {
      "tag":"GPE",
      "content":
      [
        ["Northern","NNP","northern"],
        ["Ireland","NNP","ireland"]
      ]
    },
    ["Day","NNP","day"],
    ["2","CD","2"],
    {
      "tag":"GPE",
      "content":
      [
        ["Northern","NNP","northern"],
        ["Ireland","NNP","ireland"]
      ]
    },
    ["Day","NNP","day"],
    ["3","CD","3"],
    {
      "tag":"GPE",
      "content":
      [
        ["Northern","NNP","northern"],
        ["Ireland","NNP","ireland"]
      ]
    },
    ["Day","NNP","day"],
    ["4","CD","4"],
    {
      "tag":"GPE",
      "content":
      [
        ["Northern","NNP","northern"],
        ["Ireland","NNP","ireland"]
      ]
    },
    ["Day","NNP","day"],
    ["5","CD","5"],
    ["Report","NNP","report"],
    ["this","DT","this"],
    ["content","NN","cont"],
    ["View","NNP","view"],
    ["the","DT","the"],
    ["discussion","NN","discuss"],
    ["thread","NN","thread"],
    [".",".","."]
  ]
},
{
  "tag":"S",
  "content":
  [
    ["Advertisement","NNP","advert"],
    ["Next","NNP","next"],
    ["article","NN","artic"],
    {
      "tag":"PERSON",
      "content":
      [
        ["Folsom","NNP","folsom"],
        ["Street","NNP","street"]
      ]
    },
    ["Fair","NNP","fair"],
    ["2013","CD","2013"],
    [":",":",":"],
    {
      "tag":"PERSON",
      "content":
      [
        ["Photos","NNP","photo"]
      ]
    },
    ["and","CC","and"],
    ["six","CD","six"],
    ["reasons","NNS","reason"],
    ["why","WRB","why"],
    ["thousands","NNS","thousand"],
    ["flock","VBP","flock"],
    ["...",":","..."],
    ["Related","NNP","rel"],
    ["slideshow","NN","slideshow"],
    {
      "tag":"PERSON",
      "content":
      [
        ["Postcard","NNP","postcard"]
      ]
    },
    ["from","IN","from"],
    {
      "tag":"GPE",
      "content":
      [
        ["Alaska","NNP","alask"]
      ]
    },
    ["7","CD","7"],
    {
      "tag":"PERSON",
      "content":
      [
        ["Photos","NNP","photo"],
        ["Advertisement","NNP","advert"],
        ["Popular","NNP","popul"]
      ]
    },
    ["in","IN","in"],
    {
      "tag":"ORGANIZATION",
      "content":
      [
        ["International","NNP","intern"]
      ]
    },
    ["Travel","NNP","travel"],
    ["2013","CD","2013"],
    ["-",":","-"],
    ["2014","CD","2014"],
    {
      "tag":"GPE",
      "content":
      [
        ["New","NNP","new"],
        ["York","NNP","york"],
        ["City","NNP","city"]
      ]
    },
    ["holiday","NN","holiday"],
    ["guide","NN","guid"],
    ["preview","NN","preview"],
    ["New","NNP","new"],
    ["Year","NNP","year"],
    ["'s","POS","'s"],
    ["Eve","NNP","ev"],
    ["2013","CD","2013"],
    ["-",":","-"],
    ["2014","CD","2014"],
    ["at","IN","at"],
    {
      "tag":"ORGANIZATION",
      "content":
      [
        ["NYC","NNP","nyc"],
        ["Marriott","NNP","marriot"]
      ]
    },
    ["Marquis","NNP","marqu"],
    ["2013","CD","2013"],
    ["Guide","NNP","guid"],
    ["to","TO","to"],
    {
      "tag":"PERSON",
      "content":
      [
        ["Christmas","NNP","christmas"]
      ]
    },
    ["at","IN","at"],
    {
      "tag":"ORGANIZATION",
      "content":
      [
        ["Rockefeller","NNP","rockefel"]
      ]
    },
    ["Center","NNP","cent"],
    [":",":",":"],
    ["tree","NN","tre"],
    ["lighting","VBG","light"],
    {
      "tag":"GPE",
      "content":
      [
        ["London","NNP","london"]
      ]
    },
    [":",":",":"],
    ["Harrods","NNS","harrod"],
    ["Bus","CC","Bus"],
    ["Tour","NNP","tour"],
    ["Things","NNP","thing"],
    ["to","TO","to"],
    ["do","VB","do"],
    ["in","IN","in"],
    {
      "tag":"ORGANIZATION",
      "content":
      [
        ["NYC","NNP","nyc"]
      ]
    },
    ["for","IN","for"],
    ["the","DT","the"],
    ["2013","CD","2013"],
    ["-",":","-"],
    ["2014","CD","2014"],
    ["Holiday","NNP","holiday"],
    {
      "tag":"PERSON",
      "content":
      [
        ["Season","NNP","season"],
        ["Load","NNP","load"]
      ]
    },
    ["more","JJR","mor"]
  ]
}]