[
{
  "tag":"S",
  "content":
  [
    {
      "tag":"GPE",
      "content":
      [
        ["Welcome","NNP","welcom"]
      ]
    },
    ["(",":","("],
    ["sign","NN","sign"],
    ["in","IN","in"],
    ["|","NNP","|"],
    ["sign","NN","sign"],
    ["up","IN","up"],
    [")","CD",")"],
    ["Facebook","NNP","facebook"],
    ["Twitter","NNP","twit"],
    ["RSS","NNP","rss"],
    ["Shopping","NNP","shop"],
    ["cart","NN","cart"],
    ["(",":","("],
    ["0","-NONE-","0"],
    ["items","NNS","item"],
    [")","VBP",")"],
    {
      "tag":"PERSON",
      "content":
      [
        ["Advanced","NNP","adv"],
        ["Search","NNP","search"],
        ["Welcome","NNP","welcom"]
      ]
    },
    ["(","NNP","("],
    ["sign","NN","sign"],
    ["in","IN","in"],
    ["|","NNP","|"],
    ["sign","NN","sign"],
    ["up","IN","up"],
    [")","CD",")"],
    ["Subscribe","NNP","subscrib"],
    ["Gift","NNP","gift"],
    ["a","DT","a"],
    {
      "tag":"ORGANIZATION",
      "content":
      [
        ["Gift","NNP","gift"],
        ["Subscription","NNP","subscrib"],
        ["Renew","NNP","renew"],
        ["Subscription","NNP","subscrib"],
        ["Online","NNP","onlin"],
        ["Edition","NNP","edit"]
      ]
    },
    {
      "tag":"ORGANIZATION",
      "content":
      [
        ["Digital","NNP","digit"],
        ["Edition","NNP","edit"]
      ]
    },
    ["by","IN","by"],
    {
      "tag":"PERSON",
      "content":
      [
        ["Zinio","NNP","zinio"]
      ]
    },
    ["Academic/Institutional","JJ","academic/institutional"],
    ["Newsletters","NNS","newslet"],
    ["Subscriber","NNP","subscrib"],
    {
      "tag":"PERSON",
      "content":
      [
        ["Alert","NNP","alert"],
        ["Current","NNP","cur"],
        ["Issue","NNP","issu"],
        ["Blogs","NNP","blog"]
      ]
    },
    {
      "tag":"ORGANIZATION",
      "content":
      [
        ["NYRblog","NNP","nyrblog"]
      ]
    },
    ["NYRgallery","NNP","nyrgallery"],
    ["50","CD","50"],
    ["Years","NNS","year"],
    ["Events","NNS","ev"],
    {
      "tag":"PERSON",
      "content":
      [
        ["Print","NNP","print"],
        ["Archive","NNP","arch"],
        ["Classifieds","NNP","class"],
        ["Shop","NNP","shop"]
      ]
    },
    ["Illustrations","NNP","illust"],
    ["50","CD","50"],
    ["Years","NNS","year"],
    {
      "tag":"PERSON",
      "content":
      [
        ["Books","NNP","book"],
        ["Advanced","NNP","adv"],
        ["Search","NNP","search"],
        ["Subscribe","NNP","subscrib"]
      ]
    },
    ["Gift","NNP","gift"],
    ["a","DT","a"],
    {
      "tag":"ORGANIZATION",
      "content":
      [
        ["Gift","NNP","gift"],
        ["Subscription","NNP","subscrib"],
        ["Renew","NNP","renew"],
        ["Subscription","NNP","subscrib"],
        ["Online","NNP","onlin"],
        ["Edition","NNP","edit"]
      ]
    },
    {
      "tag":"ORGANIZATION",
      "content":
      [
        ["Digital","NNP","digit"],
        ["Edition","NNP","edit"]
      ]
    },
    ["by","IN","by"],
    {
      "tag":"PERSON",
      "content":
      [
        ["Zinio","NNP","zinio"]
      ]
    },
    ["Academic/Institutional","JJ","academic/institutional"],
    ["Newsletters","NNS","newslet"],
    ["Subscriber","NNP","subscrib"],
    {
      "tag":"PERSON",
      "content":
      [
        ["Alert","NNP","alert"],
        ["Current","NNP","cur"],
        ["Issue","NNP","issu"],
        ["Blogs","NNP","blog"]
      ]
    },
    {
      "tag":"ORGANIZATION",
      "content":
      [
        ["NYRblog","NNP","nyrblog"]
      ]
    },
    ["NYRgallery","NNP","nyrgallery"],
    ["50","CD","50"],
    ["Years","NNS","year"],
    ["Events","NNS","ev"],
    {
      "tag":"PERSON",
      "content":
      [
        ["Print","NNP","print"],
        ["Archive","NNP","arch"],
        ["Classifieds","NNP","class"],
        ["Shop","NNP","shop"],
        ["Illustrations","NNP","illust"],
        ["Email","NNP","email"],
        ["Print","NNP","print"],
        ["Tweet","NNP","tweet"]
      ]
    },
    ["March","NNP","march"],
    ["17","CD","17"],
    [",",",",","],
    ["1966","CD","1966"],
    {
      "tag":"PERSON",
      "content":
      [
        ["Issue","NNP","issu"],
        ["On","NNP","on"],
        ["Albert","NNP","albert"],
        ["Einstein","NNP","einstein"]
      ]
    },
    {
      "tag":"PERSON",
      "content":
      [
        ["Robert","NNP","robert"],
        ["Oppenheimer","NNP","oppenheim"]
      ]
    },
    ["Though","NNP","though"],
    ["I","NNP","i"],
    ["knew","VBD","know"],
    {
      "tag":"PERSON",
      "content":
      [
        ["Einstein","NNP","einstein"]
      ]
    },
    ["for","IN","for"],
    ["two","CD","two"],
    ["or","CC","or"],
    ["three","CD","three"],
    ["decades","NNS","decad"],
    [",",",",","],
    ["it","PRP","it"],
    ["was","VBD","be"],
    ["only","RB","on"],
    ["in","IN","in"],
    ["the","DT","the"],
    ["last","JJ","last"],
    ["decade","NN","decad"],
    ["of","IN","of"],
    ["his","PRP$","his"],
    ["life","NN","lif"],
    ["that","IN","that"],
    ["we","PRP","we"],
    ["were","VBD","be"],
    ["close","RB","clos"],
    ["colleagues","NNS","colleagu"],
    ["and","CC","and"],
    ["something","NN","someth"],
    ["of","IN","of"],
    ["friends","NNS","friend"],
    [".",".","."]
  ]
},
{
  "tag":"S",
  "content":
  [
    ["But","CC","But"],
    ["I","PRP","I"],
    ["thought","VBD","think"],
    ["that","IN","that"],
    ["it","PRP","it"],
    ["might","MD","might"],
    ["be","VB","be"],
    ["useful","JJ","us"],
    [",",",",","],
    ["because","IN","because"],
    ["I","PRP","I"],
    ["am","VBP","be"],
    ["sure","JJ","sur"],
    ["that","IN","that"],
    ["it","PRP","it"],
    ["is","VBZ","be"],
    ["not","RB","not"],
    ["too","RB","too"],
    ["soon—and","JJ","soon—and"],
    ["for","IN","for"],
    ["our","PRP$","our"],
    ["generation","NN","gen"],
    ["perhaps","RB","perhap"],
    ["almost","RB","almost"],
    ["too","RB","too"],
    ["late—to","JJ","late—to"],
    ["start","NN","start"],
    ["to","TO","to"],
    ["dispel","VB","dispel"],
    ["the","DT","the"],
    ["clouds","NNS","cloud"],
    ["of","IN","of"],
    ["myth","NN","myth"],
    ["and","CC","and"],
    ["to","TO","to"],
    ["see","VB","see"],
    ["the","DT","the"],
    ["great","JJ","gre"],
    ["mountain","NN","mountain"],
    ["peak","NN","peak"],
    ["that","WDT","that"],
    ["these","DT","these"],
    ["clouds","NNS","cloud"],
    ["hide","VBP","hid"],
    [".",".","."]
  ]
},
{
  "tag":"S",
  "content":
  [
    ["As","IN","As"],
    ["always","RB","alway"],
    [",",",",","],
    ["the","DT","the"],
    ["myth","NN","myth"],
    ["has","VBZ","hav"],
    ["its","PRP$","its"],
    ["charms","NNS","charm"],
    [";",":",";"],
    ["but","CC","but"],
    ["the","DT","the"],
    ["truth","NN","tru"],
    ["is","VBZ","be"],
    ["far","RB","far"],
    ["more","RBR","mor"],
    ["beautiful","JJ","beauty"],
    [".",".","."]
  ]
},
{
  "tag":"S",
  "content":
  [
    ["Late","RB","lat"],
    ["in","IN","in"],
    ["his","PRP$","his"],
    ["life","NN","lif"],
    [",",",",","],
    ["in","IN","in"],
    ["connection","NN","connect"],
    ["with","IN","with"],
    ["his","PRP$","his"],
    ["despair","NN","despair"],
    ["over","IN","over"],
    ["weapons","NNS","weapon"],
    ["and","CC","and"],
    ["wars","NNS","war"],
    [",",",",","],
    {
      "tag":"PERSON",
      "content":
      [
        ["Einstein","NNP","einstein"]
      ]
    },
    ["said","VBD","say"],
    ["that","IN","that"],
    ["if","IN","if"],
    ["he","PRP","he"],
    ["had","VBD","hav"],
    ["to","TO","to"],
    ["live","VB","liv"],
    ["it","PRP","it"],
    ["over","IN","over"],
    ["again","RB","again"],
    ["he","PRP","he"],
    ["would","MD","would"],
    ["be","VB","be"],
    ["a","DT","a"],
    ["plumber","NN","plumb"],
    [".",".","."]
  ]
},
{
  "tag":"S",
  "content":
  [
    ["This","DT","This"],
    ["was","VBD","be"],
    ["a","DT","a"],
    ["balance","NN","bal"],
    ["of","IN","of"],
    ["seriousness","NN","sery"],
    ["and","CC","and"],
    ["jest","JJS","jest"],
    ["that","IN","that"],
    ["no","DT","no"],
    ["one","NN","on"],
    ["should","MD","should"],
    ["now","RB","now"],
    ["attempt","VB","attempt"],
    ["to","TO","to"],
    ["disturb","VB","disturb"],
    [".",".","."]
  ]
},
{
  "tag":"S",
  "content":
  [
    {
      "tag":"GPE",
      "content":
      [
        ["Believe","NNP","believ"]
      ]
    },
    ["me","PRP","me"],
    [",",",",","],
    ["he","PRP","he"],
    ["had","VBD","hav"],
    ["no","DT","no"],
    ["idea","NN","ide"],
    ["of","IN","of"],
    ["what","WP","what"],
    ["it","PRP","it"],
    ["was","VBD","be"],
    ["to","TO","to"],
    ["be","VB","be"],
    ["a","DT","a"],
    ["plumber","NN","plumb"],
    [";",":",";"],
    ["least","JJS","least"],
    ["of","IN","of"],
    ["all","DT","all"],
    ["in","IN","in"],
    ["the","DT","the"],
    {
      "tag":"GPE",
      "content":
      [
        ["United","NNP","unit"],
        ["States","NNPS","stat"]
      ]
    },
    [",",",",","],
    ["where","WRB","where"],
    ["we","PRP","we"],
    ["have","VBP","hav"],
    ["a","DT","a"],
    ["joke","NN","jok"],
    ["that","WDT","that"],
    ["the","DT","the"],
    ["typical","JJ","typ"],
    ["behavior","NN","behavy"],
    ["of","IN","of"],
    ["this","DT","this"],
    ["specialist","NN","spec"],
    ["is","VBZ","be"],
    ["that","IN","that"],
    ["he","PRP","he"],
    ["never","RB","nev"],
    ["brings","VBZ","bring"],
    ["his","PRP$","his"],
    ["tools","NNS","tool"],
    ["to","TO","to"],
    ["the","DT","the"],
    ["scene","NN","scen"],
    ["of","IN","of"],
    ["the","DT","the"],
    ["crisis","NN","cris"],
    [".",".","."]
  ]
},
{
  "tag":"S",
  "content":
  [
    {
      "tag":"PERSON",
      "content":
      [
        ["Einstein","NNP","einstein"]
      ]
    },
    ["brought","VBD","bring"],
    ["his","PRP$","his"],
    ["tools","NNS","tool"],
    ["to","TO","to"],
    ["his","PRP$","his"],
    ["crises","NNS","cris"],
    [";",":",";"],
    {
      "tag":"PERSON",
      "content":
      [
        ["Einstein","NNP","einstein"]
      ]
    },
    ["was","VBD","be"],
    ["a","DT","a"],
    ["physicist","NN","phys"],
    [",",",",","],
    ["a","DT","a"],
    ["natural","JJ","nat"],
    ["philosopher","NN","philosoph"],
    [",",",",","],
    ["the","DT","the"],
    ["greatest","JJS","gre"],
    ["of","IN","of"],
    ["our","PRP$","our"],
    ["time","NN","tim"],
    [".",".","."]
  ]
},
{
  "tag":"S",
  "content":
  [
    ["What","WP","What"],
    ["we","PRP","we"],
    ["have","VBP","hav"],
    ["heard","VBN","hear"],
    [",",",",","],
    ["what","WP","what"],
    ["you","PRP","you"],
    ["all","VBP","al"],
    ["know","VBP","know"],
    [",",",",","],
    ["what","WP","what"],
    ["is","VBZ","be"],
    ["the","DT","the"],
    ["true","JJ","tru"],
    ["part","NN","part"],
    ["of","IN","of"],
    ["the","DT","the"],
    ["myth","NN","myth"],
    ["is","VBZ","be"],
    ["his","PRP$","his"],
    ["extraordinary","JJ","extraordin"],
    ["originality","NN","origin"],
    [".",".","."]
  ]
},
{
  "tag":"S",
  "content":
  [
    ["The","DT","The"],
    ["discovery","NN","discovery"],
    ["of","IN","of"],
    ["quanta","NN","quant"],
    ["would","MD","would"],
    ["surely","RB","sur"],
    ["have","VB","hav"],
    ["come","VBN","com"],
    ["one","CD","one"],
    ["way","NN","way"],
    ["or","CC","or"],
    ["another","DT","another"],
    [",",",",","],
    ["but","CC","but"],
    ["he","PRP","he"],
    ["discovered","VBD","discov"],
    ["them","PRP","them"],
    [".",".","."]
  ]
},
{
  "tag":"S",
  "content":
  [
    {
      "tag":"GPE",
      "content":
      [
        ["Deep","NNP","deep"]
      ]
    },
    ["understanding","NN","understand"],
    ["of","IN","of"],
    ["what","WP","what"],
    ["it","PRP","it"],
    ["means","VBZ","mean"],
    ["that","IN","that"],
    ["no","DT","no"],
    ["signal","NN","sign"],
    ["could","MD","could"],
    ["travel","VB","travel"],
    ["faster","JJR","fast"],
    ["than","IN","than"],
    ["light","JJ","light"],
    ["would","MD","would"],
    ["surely","RB","sur"],
    ["have","VB","hav"],
    ["come","VBN","com"],
    [";",":",";"],
    ["the","DT","the"],
    ["formal","JJ","form"],
    ["equations","NNS","equ"],
    ["were","VBD","be"],
    ["already","RB","already"],
    ["known","VBN","know"],
    [";",":",";"],
    ["but","CC","but"],
    ["this","DT","this"],
    ["simple","NN","simpl"],
    [",",",",","],
    ["brilliant","JJ","bril"],
    ["understanding","NN","understand"],
    ["of","IN","of"],
    ["the","DT","the"],
    ["physics","NN","phys"],
    ["could","MD","could"],
    ["well","RB","wel"],
    ["have","VB","hav"],
    ["been","VBN","be"],
    ["slow","JJ","slow"],
    ["in","IN","in"],
    ["coming","VBG","com"],
    [",",",",","],
    ["and","CC","and"],
    ["blurred","VBD","blur"],
    [",",",",","],
    ["had","VBD","hav"],
    ["he","PRP","he"],
    ["not","RB","not"],
    ["done","VBN","do"],
    ["it","PRP","it"],
    ["for","IN","for"],
    ["us","PRP","us"],
    [".",".","."]
  ]
},
{
  "tag":"S",
  "content":
  [
    ["The","DT","The"],
    ["general","JJ","gen"],
    ["theory","NN","the"],
    ["of","IN","of"],
    ["relativity","NN","rel"],
    ["which","WDT","which"],
    [",",",",","],
    ["even","RB","ev"],
    ["today","NN","today"],
    [",",",",","],
    ["is","VBZ","be"],
    ["not","RB","not"],
    ["well","RB","wel"],
    ["proved","VBD","prov"],
    ["experimentally","RB","expery"],
    [",",",",","],
    ["no","DT","no"],
    ["one","PRP","one"],
    ["but","CC","but"],
    ["he","PRP","he"],
    ["would","MD","would"],
    ["have","VB","hav"],
    ["done","VBN","do"],
    ["for","IN","for"],
    ["a","DT","a"],
    ["long","JJ","long"],
    [",",",",","],
    ["long","RB","long"],
    ["time","NN","tim"],
    [".",".","."]
  ]
},
{
  "tag":"S",
  "content":
  [
    ["It","PRP","It"],
    ["is","VBZ","be"],
    ["in","IN","in"],
    ["fact","NN","fact"],
    ["only","RB","on"],
    ["in","IN","in"],
    ["the","DT","the"],
    ["last","JJ","last"],
    ["decade","NN","decad"],
    [",",",",","],
    ["the","DT","the"],
    ["last","JJ","last"],
    ["years","NNS","year"],
    [",",",",","],
    ["that","IN","that"],
    ["one","CD","one"],
    ["has","VBZ","hav"],
    ["seen","VBN","see"],
    ["how","WRB","how"],
    ["a","DT","a"],
    ["pedestrian","JJ","pedest"],
    ["and","CC","and"],
    ["hard-working","JJ","hard-working"],
    ["physicist","NN","phys"],
    [",",",",","],
    ["or","CC","or"],
    ["many","JJ","many"],
    ["of","IN","of"],
    ["them","PRP","them"],
    [",",",",","],
    ["might","MD","might"],
    ["reach","VB","reach"],
    ["that","IN","that"],
    ["theory","NN","the"],
    ["and","CC","and"],
    ["understand","NN","understand"],
    ["this","DT","this"],
    ["singular","NN","singul"],
    ["union","NN","un"],
    ["of","IN","of"],
    ["geometry","NN","geometry"],
    ["and","CC","and"],
    ["gravitation","NN","gravit"],
    [";",":",";"],
    ["and","CC","and"],
    ["we","PRP","we"],
    ["can","MD","can"],
    ["do","VB","do"],
    ["even","RB","ev"],
    ["that","IN","that"],
    ["today","NN","today"],
    ["only","RB","on"],
    ["because","IN","because"],
    ["some","DT","some"],
    ["of","IN","of"],
    ["the","DT","the"],
    ["a","DT","a"],
    ["priori","NN","prior"],
    ["open","JJ","op"],
    ["possibilities","NNS","poss"],
    ["are","VBP","be"],
    ["limited","VBN","limit"],
    ["by","IN","by"],
    ["the","DT","the"],
    ["confirmation","NN","confirm"],
    ["of","IN","of"],
    ["Einstein’s","JJ","einstein’s"],
    ["discovery","NN","discovery"],
    ["that","WDT","that"],
    ["light","JJ","light"],
    ["would","MD","would"],
    ["be","VB","be"],
    ["deflected","VBN","deflect"],
    ["by","IN","by"],
    ["gravity","NN","grav"],
    [".",".","."]
  ]
},
{
  "tag":"S",
  "content":
  [
    ["Yet","CC","Yet"],
    ["there","EX","there"],
    ["is","VBZ","be"],
    ["another","DT","another"],
    ["side","NN","sid"],
    ["besides","VBZ","besid"],
    ["the","DT","the"],
    ["originality","NN","origin"],
    [".",".","."]
  ]
},
{
  "tag":"S",
  "content":
  [
    {
      "tag":"PERSON",
      "content":
      [
        ["Einstein","NNP","einstein"]
      ]
    },
    ["brought","VBD","bring"],
    ["to","TO","to"],
    ["the","DT","the"],
    ["work","NN","work"],
    ["of","IN","of"],
    ["originality","NN","origin"],
    ["deep","NN","deep"],
    ["elements","NNS","el"],
    ["of","IN","of"],
    ["tradition","NN","tradit"],
    [".",".","."]
  ]
},
{
  "tag":"S",
  "content":
  [
    ["It","PRP","It"],
    ["is","VBZ","be"],
    ["only","RB","on"],
    ["possible","JJ","poss"],
    ["to","TO","to"],
    ["discover","VB","discov"],
    ["in","IN","in"],
    ["part","NN","part"],
    ["how","WRB","how"],
    ["he","PRP","he"],
    ["came","VBD","com"],
    ["by","IN","by"],
    ["it","PRP","it"],
    [",",",",","],
    ["by","IN","by"],
    ["following","VBG","follow"],
    ["his","PRP$","his"],
    ["reading","NN","read"],
    [",",",",","],
    ["his","PRP$","his"],
    ["friendships","NNS","friend"],
    [",",",",","],
    ["the","DT","the"],
    ["meager","NN","meag"],
    ["record","NN","record"],
    ["that","WDT","that"],
    ["we","PRP","we"],
    ["have","VBP","hav"],
    [".",".","."]
  ]
},
{
  "tag":"S",
  "content":
  [
    ["But","CC","But"],
    ["of","IN","of"],
    ["these","DT","these"],
    ["deep-seated","JJ","deep-seated"],
    ["elements","NNS","el"],
    ["of","IN","of"],
    ["tradition—I","NNP","tradition—i"],
    ["will","MD","will"],
    ["not","RB","not"],
    ["try","VB","try"],
    ["to","TO","to"],
    ["enumerate","VB","enum"],
    ["them","PRP","them"],
    ["all","DT","all"],
    [";",":",";"],
    ["I","PRP","I"],
    ["do","VBP","do"],
    ["not","RB","not"],
    ["know","VB","know"],
    ["them","PRP","them"],
    ["all—at","JJ","all—at"],
    ["least","JJS","least"],
    ["three","CD","three"],
    ["were","VBD","be"],
    ["indispensable","JJ","indispens"],
    ["and","CC","and"],
    ["stayed","VBD","stay"],
    ["with","IN","with"],
    ["him","PRP","him"],
    [".",".","."]
  ]
},
{
  "tag":"S",
  "content":
  [
    ["THE","DT","THE"],
    {
      "tag":"ORGANIZATION",
      "content":
      [
        ["FIRST","NNP","first"]
      ]
    },
    ["IS","NNP","is"],
    ["from","IN","from"],
    ["the","DT","the"],
    ["rather","RB","rath"],
    ["beautiful","JJ","beauty"],
    ["but","CC","but"],
    ["recondite","JJ","recondit"],
    ["part","NN","part"],
    ["of","IN","of"],
    ["physics","NNS","phys"],
    ["that","WDT","that"],
    ["is","VBZ","be"],
    ["the","DT","the"],
    ["explanation","NN","expl"],
    ["of","IN","of"],
    ["the","DT","the"],
    ["laws","NNS","law"],
    ["of","IN","of"],
    ["thermodynamics","NNS","thermodynam"],
    ["in","IN","in"],
    ["terms","NNS","term"],
    ["of","IN","of"],
    ["the","DT","the"],
    ["mechanics","NNS","mech"],
    ["of","IN","of"],
    ["large","JJ","larg"],
    ["numbers","NNS","numb"],
    ["of","IN","of"],
    ["particles","NNS","partic"],
    [",",",",","],
    ["statistical","JJ","stat"],
    ["mechanics","NNS","mech"],
    [".",".","."]
  ]
},
{
  "tag":"S",
  "content":
  [
    ["This","DT","This"],
    ["was","VBD","be"],
    ["with","IN","with"],
    {
      "tag":"PERSON",
      "content":
      [
        ["Einstein","NNP","einstein"]
      ]
    },
    ["all","DT","all"],
    ["the","DT","the"],
    ["time","NN","tim"],
    [".",".","."]
  ]
},
{
  "tag":"S",
  "content":
  [
    ["It","PRP","It"],
    ["was","VBD","be"],
    ["what","WP","what"],
    ["enabled","VBN","en"],
    ["him","PRP","him"],
    ["from","IN","from"],
    ["Planck’s","NNP","planck’s"],
    ["discovery","NN","discovery"],
    ["of","IN","of"],
    ["the","DT","the"],
    ["law","NN","law"],
    ["of","IN","of"],
    ["black","JJ","black"],
    ["body","NN","body"],
    ["radiation","NN","rady"],
    ["to","TO","to"],
    ["conclude","VB","conclud"],
    ["that","IN","that"],
    ["light","JJ","light"],
    ["was","VBD","be"],
    ["not","RB","not"],
    ["only","RB","on"],
    ["waves","VBZ","wav"],
    ["but","CC","but"],
    ["particles","NNS","partic"],
    [",",",",","],
    ["particles","NNS","partic"],
    ["with","IN","with"],
    ["an","DT","an"],
    ["energy","NN","energy"],
    ["proportional","JJ","proport"],
    ["to","TO","to"],
    ["their","PRP$","their"],
    ["frequency","NN","frequ"],
    ["and","CC","and"],
    ["momentum","NN","moment"],
    ["determined","VBD","determin"],
    ["by","IN","by"],
    ["their","PRP$","their"],
    ["wave-number","JJ","wave-number"],
    [",",",",","],
    ["the","DT","the"],
    ["famous","JJ","fam"],
    ["relations","NNS","rel"],
    ["that","WDT","that"],
    ["de","IN","de"],
    {
      "tag":"PERSON",
      "content":
      [
        ["Broglie","NNP","brog"]
      ]
    },
    ["was","VBD","be"],
    ["to","TO","to"],
    ["extend","VB","extend"],
    ["to","TO","to"],
    ["all","DT","all"],
    ["matter","NN","mat"],
    [",",",",","],
    ["to","TO","to"],
    ["electrons","NNS","electron"],
    ["first","RB","first"],
    ["and","CC","and"],
    ["then","RB","then"],
    ["clearly","RB","clear"],
    ["to","TO","to"],
    ["all","DT","all"],
    ["matter.It","JJ","matter.it"],
    ["was","VBD","be"],
    ["this","DT","this"],
    ["statistical","JJ","stat"],
    ["tradition","NN","tradit"],
    ["that","WDT","that"],
    ["led","VBN","lead"],
    {
      "tag":"PERSON",
      "content":
      [
        ["Einstein","NNP","einstein"]
      ]
    },
    ["to","TO","to"],
    ["the","DT","the"],
    ["laws","NNS","law"],
    ["governing","VBG","govern"],
    ["the","DT","the"],
    ["emission","NN","emit"],
    ["and","CC","and"],
    ["absorption","NN","absorb"],
    ["of","IN","of"],
    ["light","JJ","light"],
    ["by","IN","by"],
    ["atomic","JJ","atom"],
    ["systems","NNS","system"],
    [".",".","."]
  ]
},
{
  "tag":"S",
  "content":
  [
    ["It","PRP","It"],
    ["was","VBD","be"],
    ["this","DT","this"],
    ["that","IN","that"],
    ["enabled","VBD","en"],
    ["him","PRP","him"],
    ["to","TO","to"],
    ["see","VB","see"],
    ["the","DT","the"],
    ["connection","NN","connect"],
    ["between","IN","between"],
    ["de","NN","de"],
    ["Broglie’s","NNS","broglie’s"],
    ["waves","VBZ","wav"],
    ["and","CC","and"],
    ["the","DT","the"],
    ["statistics","NNS","stat"],
    ["of","IN","of"],
    ["light-quanta","NNP","light-quanta"],
    ["proposed","VBD","propos"],
    ["by","IN","by"],
    {
      "tag":"GPE",
      "content":
      [
        ["Bose","NNP","bos"]
      ]
    },
    [".",".","."]
  ]
},
{
  "tag":"S",
  "content":
  [
    ["It","PRP","It"],
    ["was","VBD","be"],
    ["this","DT","this"],
    ["that","IN","that"],
    ["kept","NN","kept"],
    ["him","PRP","him"],
    ["an","DT","an"],
    ["active","JJ","act"],
    ["proponent","NN","propon"],
    ["and","CC","and"],
    ["discoverer","NN","discov"],
    ["of","IN","of"],
    ["the","DT","the"],
    ["new","JJ","new"],
    ["phenomena","NN","phenomenon"],
    ["of","IN","of"],
    ["quantum","NN","quant"],
    ["physics","NNS","phys"],
    ["up","IN","up"],
    ["to","TO","to"],
    ["1925","CD","1925"],
    [".",".","."]
  ]
},
{
  "tag":"S",
  "content":
  [
    ["The","DT","The"],
    ["second","JJ","second"],
    ["and","CC","and"],
    ["equally","RB","eq"],
    ["deep","VB","deep"],
    ["strand—and","JJ","strand—and"],
    ["here","RB","her"],
    ["I","PRP","I"],
    ["think","VBP","think"],
    ["we","PRP","we"],
    ["do","VBP","do"],
    ["know","RB","know"],
    ["where","WRB","where"],
    ["it","PRP","it"],
    ["came","VBD","com"],
    ["from—was","JJ","from—was"],
    ["his","PRP$","his"],
    ["total","JJ","tot"],
    ["love","NN","lov"],
    ["of","IN","of"],
    ["the","DT","the"],
    ["idea","NN","ide"],
    ["of","IN","of"],
    ["a","DT","a"],
    ["field","NN","field"],
    [":",":",":"],
    ["the","DT","the"],
    ["following","VBG","follow"],
    ["of","IN","of"],
    ["physical","JJ","phys"],
    ["phenomena","NN","phenomenon"],
    ["in","IN","in"],
    ["minute","NN","minut"],
    ["and","CC","and"],
    ["infinitely","RB","infinit"],
    ["subdividable","JJ","subdivid"],
    ["detail","NN","detail"],
    ["in","IN","in"],
    ["space","NN","spac"],
    ["and","CC","and"],
    ["in","IN","in"],
    ["time","NN","tim"],
    [".",".","."]
  ]
},
{
  "tag":"S",
  "content":
  [
    ["This","DT","This"],
    ["gave","VBD","giv"],
    ["him","PRP","him"],
    ["his","PRP$","his"],
    ["first","JJ","first"],
    ["great","NN","gre"],
    ["drama","NN","dram"],
    ["of","IN","of"],
    ["trying","VBG","try"],
    ["to","TO","to"],
    ["see","VB","see"],
    ["how","WRB","how"],
    ["Maxwell’s","JJ","maxwell’s"],
    ["equations","NNS","equ"],
    ["could","MD","could"],
    ["be","VB","be"],
    ["true","JJ","tru"],
    [".",".","."]
  ]
},
{
  "tag":"S",
  "content":
  [
    ["They","PRP","They"],
    ["were","VBD","be"],
    ["the","DT","the"],
    ["first","JJ","first"],
    ["field","NN","field"],
    ["equations","NNS","equ"],
    ["of","IN","of"],
    ["physics","NNS","phys"],
    [";",":",";"],
    ["they","PRP","they"],
    ["are","VBP","be"],
    ["still","RB","stil"],
    ["true","JJ","tru"],
    ["today","NN","today"],
    ["with","IN","with"],
    ["only","RB","on"],
    ["very","RB","very"],
    ["minor","JJ","min"],
    ["and","CC","and"],
    ["well-understood","JJ","well-understood"],
    ["modifications","NNS","mod"],
    [".",".","."]
  ]
},
{
  "tag":"S",
  "content":
  [
    ["It","PRP","It"],
    ["is","VBZ","be"],
    ["this","DT","this"],
    ["tradition","NN","tradit"],
    ["which","WDT","which"],
    ["made","VBN","mak"],
    ["him","PRP","him"],
    ["know","VBP","know"],
    ["that","IN","that"],
    ["there","EX","there"],
    ["had","VBD","hav"],
    ["to","TO","to"],
    ["be","VB","be"],
    ["a","DT","a"],
    ["field","NN","field"],
    ["theory","NN","the"],
    ["of","IN","of"],
    ["gravitation","NN","gravit"],
    [",",",",","],
    ["long","RB","long"],
    ["before","IN","before"],
    ["the","DT","the"],
    ["clues","NNS","clu"],
    ["to","TO","to"],
    ["that","DT","that"],
    ["theory","NN","the"],
    ["were","VBD","be"],
    ["securely","RB","sec"],
    ["in","IN","in"],
    ["his","PRP$","his"],
    ["hand","NN","hand"],
    [".",".","."]
  ]
},
{
  "tag":"S",
  "content":
  [
    ["The","DT","The"],
    ["third","JJ","third"],
    ["tradition","NN","tradit"],
    ["was","VBD","be"],
    ["less","JJR","less"],
    ["one","CD","one"],
    ["of","IN","of"],
    ["physics","NNS","phys"],
    ["than","IN","than"],
    ["of","IN","of"],
    ["philosophy","NN","philosoph"],
    [".",".","."]
  ]
},
{
  "tag":"S",
  "content":
  [
    ["It","PRP","It"],
    ["is","VBZ","be"],
    ["a","DT","a"],
    ["form","NN","form"],
    ["of","IN","of"],
    ["the","DT","the"],
    ["principle","NN","principl"],
    ["of","IN","of"],
    ["sufficient","NN","sufficy"],
    ["reason","NN","reason"],
    [".",".","."]
  ]
},
{
  "tag":"S",
  "content":
  [
    ["It","PRP","It"],
    ["was","VBD","be"],
    {
      "tag":"PERSON",
      "content":
      [
        ["Einstein","NNP","einstein"]
      ]
    },
    ["who","WP","who"],
    ["asked","VBD","ask"],
    ["what","WP","what"],
    ["do","VBP","do"],
    ["we","PRP","we"],
    ["mean","VB","mean"],
    [",",",",","],
    ["what","WDT","what"],
    ["can","MD","can"],
    ["we","PRP","we"],
    ["measure","VB","meas"],
    [",",",",","],
    ["what","WDT","what"],
    ["elements","NNS","el"],
    ["in","IN","in"],
    ["physics","NN","phys"],
    ["are","VBP","be"],
    ["conventional","JJ","conv"],
    ["?",".","?"]
  ]
},
{
  "tag":"S",
  "content":
  [
    ["He","PRP","He"],
    ["insisted","VBD","insist"],
    ["that","IN","that"],
    ["those","DT","those"],
    ["elements","NNS","el"],
    ["that","IN","that"],
    ["were","VBD","be"],
    ["conventional","JJ","conv"],
    ["could","MD","could"],
    ["have","VB","hav"],
    ["no","DT","no"],
    ["part","NN","part"],
    ["in","IN","in"],
    ["the","DT","the"],
    ["real","JJ","real"],
    ["predictions","NNS","predict"],
    ["of","IN","of"],
    ["physics","NNS","phys"],
    [".",".","."]
  ]
},
{
  "tag":"S",
  "content":
  [
    ["This","DT","This"],
    ["also","RB","also"],
    ["had","VBD","hav"],
    ["roots","NNS","root"],
    [":",":",":"],
    ["for","IN","for"],
    ["one","CD","one"],
    ["the","DT","the"],
    ["mathematical","JJ","mathem"],
    ["invention","NN","inv"],
    ["of","IN","of"],
    {
      "tag":"GPE",
      "content":
      [
        ["Riemann","NNP","rieman"]
      ]
    },
    [",",",",","],
    ["who","WP","who"],
    ["saw","VBD","saw"],
    ["how","WRB","how"],
    ["very","RB","very"],
    ["limited","VBN","limit"],
    ["the","DT","the"],
    ["geometry","NN","geometry"],
    ["of","IN","of"],
    ["the","DT","the"],
    {
      "tag":"GPE",
      "content":
      [
        ["Greeks","NNP","greek"]
      ]
    },
    ["had","VBD","hav"],
    ["been","VBN","be"],
    [",",",",","],
    ["how","WRB","how"],
    ["unreasonably","RB","unreason"],
    ["limited","VBN","limit"],
    [".",".","."]
  ]
},
{
  "tag":"S",
  "content":
  [
    ["But","CC","But"],
    ["in","IN","in"],
    ["a","DT","a"],
    ["more","RBR","mor"],
    ["important","JJ","import"],
    ["sense","NN","sens"],
    [",",",",","],
    ["it","PRP","it"],
    ["followed","VBD","follow"],
    ["from","IN","from"],
    ["the","DT","the"],
    ["long","JJ","long"],
    ["tradition","NN","tradit"],
    ["of","IN","of"],
    {
      "tag":"GPE",
      "content":
      [
        ["European","JJ","europ"]
      ]
    },
    ["philosophy","NN","philosoph"],
    [",",",",","],
    ["you","PRP","you"],
    ["may","MD","may"],
    ["say","VB","say"],
    ["starting","VBG","start"],
    ["with","IN","with"],
    ["Descartes—if","JJ","descartes—if"],
    ["you","PRP","you"],
    ["wish","VBP","wish"],
    ["you","PRP","you"],
    ["can","MD","can"],
    ["start","VB","start"],
    ["it","PRP","it"],
    ["in","IN","in"],
    ["the","DT","the"],
    {
      "tag":"ORGANIZATION",
      "content":
      [
        ["Thirteenth","NNP","thirteen"],
        ["Century","NNP","century"]
      ]
    },
    [",",",",","],
    ["because","IN","because"],
    ["in","IN","in"],
    ["fact","NN","fact"],
    ["it","PRP","it"],
    ["did","VBD","do"],
    ["start","VB","start"],
    ["then—and","JJ","then—and"],
    ["leading","VBG","lead"],
    ["through","IN","through"],
    ["the","DT","the"],
    {
      "tag":"GPE",
      "content":
      [
        ["British","JJ","brit"]
      ]
    },
    ["empiricists","NNS","empir"],
    [",",",",","],
    ["and","CC","and"],
    ["very","RB","very"],
    ["clearly","RB","clear"],
    ["formulated","VBN","form"],
    [",",",",","],
    ["though","IN","though"],
    ["probably","RB","prob"],
    ["without","IN","without"],
    ["influence","NN","influ"],
    ["in","IN","in"],
    {
      "tag":"GPE",
      "content":
      [
        ["Europe","NNP","europ"]
      ]
    },
    [",",",",","],
    ["by","IN","by"],
    {
      "tag":"PERSON",
      "content":
      [
        ["Charles","NNP","charl"],
        ["Pierce","NNP","pierc"]
      ]
    },
    [":",":",":"],
    ["One","CD","One"],
    ["had","VBD","hav"],
    ["to","TO","to"],
    ["ask","VB","ask"],
    ["how","WRB","how"],
    ["do","VB","do"],
    ["we","PRP","we"],
    ["do","VB","do"],
    ["it","PRP","it"],
    [",",",",","],
    ["what","WDT","what"],
    ["do","VBP","do"],
    ["we","PRP","we"],
    ["mean","VB","mean"],
    [",",",",","],
    ["is","VBZ","be"],
    ["this","DT","this"],
    ["just","RB","just"],
    ["something","NN","someth"],
    ["that","WDT","that"],
    ["we","PRP","we"],
    ["can","MD","can"],
    ["use","VB","us"],
    ["to","TO","to"],
    ["help","VB","help"],
    ["ourselves","NNS","ourselv"],
    ["in","IN","in"],
    ["calculating","VBG","calc"],
    [",",",",","],
    ["or","CC","or"],
    ["is","VBZ","be"],
    ["it","PRP","it"],
    ["something","NN","someth"],
    ["that","WDT","that"],
    ["we","PRP","we"],
    ["can","MD","can"],
    ["actually","RB","act"],
    ["study","VB","study"],
    ["in","IN","in"],
    ["nature","NN","nat"],
    ["by","IN","by"],
    ["physical","JJ","phys"],
    ["means","NNS","mean"],
    ["?",".","?"]
  ]
},
{
  "tag":"S",
  "content":
  [
    ["For","IN","For"],
    ["the","DT","the"],
    ["point","NN","point"],
    ["here","RB","her"],
    ["is","VBZ","be"],
    ["that","IN","that"],
    ["the","DT","the"],
    ["laws","NNS","law"],
    ["of","IN","of"],
    ["nature","NN","nat"],
    ["not","RB","not"],
    ["only","RB","on"],
    ["describe","VBP","describ"],
    ["the","DT","the"],
    ["results","NNS","result"],
    ["of","IN","of"],
    ["observations","NNS","observ"],
    [",",",",","],
    ["but","CC","but"],
    ["the","DT","the"],
    ["laws","NNS","law"],
    ["of","IN","of"],
    ["nature","NN","nat"],
    ["delimit","NN","delimit"],
    ["the","DT","the"],
    ["scope","NN","scop"],
    ["of","IN","of"],
    ["observations","NNS","observ"],
    [".",".","."]
  ]
},
{
  "tag":"S",
  "content":
  [
    ["That","DT","That"],
    ["was","VBD","be"],
    ["the","DT","the"],
    ["point","NN","point"],
    ["of","IN","of"],
    ["Einstein’s","JJ","einstein’s"],
    ["understanding","NN","understand"],
    ["of","IN","of"],
    ["the","DT","the"],
    ["limiting","NN","limit"],
    ["character","NN","charact"],
    ["of","IN","of"],
    ["the","DT","the"],
    ["velocity","NN","veloc"],
    ["of","IN","of"],
    ["light","JJ","light"],
    [";",":",";"],
    ["it","PRP","it"],
    ["also","RB","also"],
    ["was","VBD","be"],
    ["the","DT","the"],
    ["nature","NN","nat"],
    ["of","IN","of"],
    ["the","DT","the"],
    ["resolution","NN","resolv"],
    ["in","IN","in"],
    ["quantum","NN","quant"],
    ["theory","NN","the"],
    [",",",",","],
    ["where","WRB","where"],
    ["the","DT","the"],
    ["quantum","NN","quant"],
    ["of","IN","of"],
    ["action","NN","act"],
    [",",",",","],
    ["Planck’s","NNP","planck’s"],
    ["constant","NN","const"],
    [",",",",","],
    ["was","VBD","be"],
    ["recognized","VBN","recogn"],
    ["as","IN","as"],
    ["limiting","NN","limit"],
    ["the","DT","the"],
    ["fineness","NN","fin"],
    ["of","IN","of"],
    ["the","DT","the"],
    ["transaction","NN","transact"],
    ["between","IN","between"],
    ["the","DT","the"],
    ["system","NN","system"],
    ["studied","VBD","study"],
    ["and","CC","and"],
    ["the","DT","the"],
    ["machinery","NN","machinery"],
    ["used","VBD","us"],
    ["to","TO","to"],
    ["study","NN","study"],
    ["it","PRP","it"],
    [",",",",","],
    ["limiting","VBG","limit"],
    ["this","DT","this"],
    ["fineness","NN","fin"],
    ["in","IN","in"],
    ["a","DT","a"],
    ["form","NN","form"],
    ["of","IN","of"],
    ["atomicity","NN","atom"],
    ["quite","RB","quit"],
    ["different","JJ","diff"],
    ["from","IN","from"],
    ["and","CC","and"],
    ["quite","RB","quit"],
    ["more","RBR","mor"],
    ["radical","JJ","rad"],
    ["than","IN","than"],
    ["any","DT","any"],
    ["that","WDT","that"],
    ["the","DT","the"],
    {
      "tag":"GPE",
      "content":
      [
        ["Greeks","NNP","greek"]
      ]
    },
    ["had","VBD","hav"],
    ["imagined","VBN","imagin"],
    ["or","CC","or"],
    ["than","IN","than"],
    ["was","VBD","be"],
    ["familiar","JJ","famili"],
    ["from","IN","from"],
    ["the","DT","the"],
    ["atomic","JJ","atom"],
    ["theory","NN","the"],
    ["of","IN","of"],
    ["chemistry","NN","chem"],
    [".",".","."]
  ]
},
{
  "tag":"S",
  "content":
  [
    ["IN","IN","IN"],
    {
      "tag":"ORGANIZATION",
      "content":
      [
        ["THE","DT","THE"]
      ]
    },
    {
      "tag":"ORGANIZATION",
      "content":
      [
        ["LAST","NNP","last"]
      ]
    },
    ["YEARS","NNP","year"],
    ["of","IN","of"],
    ["Einstein’s","NNP","einstein’s"],
    ["life","NN","lif"],
    [",",",",","],
    ["the","DT","the"],
    ["last","JJ","last"],
    ["twenty-five","JJ","twenty-five"],
    ["years","NNS","year"],
    [",",",",","],
    ["his","PRP$","his"],
    ["tradition","NN","tradit"],
    ["in","IN","in"],
    ["a","DT","a"],
    ["certain","JJ","certain"],
    ["sense","NN","sens"],
    ["failed","VBD","fail"],
    ["him","PRP","him"],
    [".",".","."]
  ]
},
{
  "tag":"S",
  "content":
  [
    ["They","PRP","They"],
    ["were","VBD","be"],
    ["the","DT","the"],
    ["years","NNS","year"],
    ["he","PRP","he"],
    ["spent","VBD","spend"],
    ["at","IN","at"],
    {
      "tag":"ORGANIZATION",
      "content":
      [
        ["Princeton","NNP","princeton"]
      ]
    },
    ["and","CC","and"],
    ["this","DT","this"],
    [",",",",","],
    ["though","IN","though"],
    ["a","DT","a"],
    ["source","NN","sourc"],
    ["of","IN","of"],
    ["sorrow","NN","sorrow"],
    [",",",",","],
    ["should","MD","should"],
    ["not","RB","not"],
    ["be","VB","be"],
    ["concealed","VBN","cont"],
    [".",".","."]
  ]
},
{
  "tag":"S",
  "content":
  [
    ["He","PRP","He"],
    ["had","VBD","hav"],
    ["a","DT","a"],
    ["right","NN","right"],
    ["to","TO","to"],
    ["that","DT","that"],
    ["failure","NN","fail"],
    [".",".","."]
  ]
},
{
  "tag":"S",
  "content":
  [
    ["He","PRP","He"],
    ["spent","VBD","spend"],
    ["those","DT","those"],
    ["years","NNS","year"],
    ["first","RB","first"],
    ["in","IN","in"],
    ["trying","VBG","try"],
    ["to","TO","to"],
    ["prove","VB","prov"],
    ["that","IN","that"],
    ["the","DT","the"],
    ["quantum","NN","quant"],
    ["theory","NN","the"],
    ["had","VBD","hav"],
    ["inconsistencies","NNS","inconsist"],
    ["in","IN","in"],
    ["it","PRP","it"],
    [".",".","."]
  ]
},
{
  "tag":"S",
  "content":
  [
    ["No","DT","No"],
    ["one","NN","on"],
    ["could","MD","could"],
    ["have","VB","hav"],
    ["been","VBN","be"],
    ["more","RBR","mor"],
    ["ingenious","JJ","ingeny"],
    ["in","IN","in"],
    ["thinking","NN","think"],
    ["up","IN","up"],
    ["unexpected","VBN","unexpect"],
    ["and","CC","and"],
    ["clever","RB","clev"],
    ["examples","NNS","exampl"],
    [";",":",";"],
    ["but","CC","but"],
    ["it","PRP","it"],
    ["turned","VBD","turn"],
    ["out","RP","out"],
    ["that","IN","that"],
    ["the","DT","the"],
    ["inconsistencies","NNS","inconsist"],
    ["were","VBD","be"],
    ["not","RB","not"],
    ["there","RB","ther"],
    [";",":",";"],
    ["and","CC","and"],
    ["often","RB","oft"],
    ["their","PRP$","their"],
    ["resolution","NN","resolv"],
    ["could","MD","could"],
    ["be","VB","be"],
    ["found","VBN","find"],
    ["in","IN","in"],
    ["earlier","JJR","ear"],
    ["work","NN","work"],
    ["of","IN","of"],
    {
      "tag":"PERSON",
      "content":
      [
        ["Einstein","NNP","einstein"]
      ]
    },
    ["himself","PRP","himself"],
    [".",".","."]
  ]
},
{
  "tag":"S",
  "content":
  [
    ["When","WRB","When"],
    ["that","DT","that"],
    ["did","VBD","do"],
    ["not","RB","not"],
    ["work","VB","work"],
    [",",",",","],
    ["after","IN","after"],
    ["repeated","VBN","rep"],
    ["efforts","NNS","effort"],
    [",",",",","],
    {
      "tag":"PERSON",
      "content":
      [
        ["Einstein","NNP","einstein"]
      ]
    },
    ["had","VBD","hav"],
    ["simply","RB","simply"],
    ["to","TO","to"],
    ["say","VB","say"],
    ["that","IN","that"],
    ["he","PRP","he"],
    ["did","VBD","do"],
    ["not","RB","not"],
    ["like","IN","like"],
    ["the","DT","the"],
    ["theory","NN","the"],
    [".",".","."]
  ]
},
{
  "tag":"S",
  "content":
  [
    ["He","PRP","He"],
    ["did","VBD","do"],
    ["not","RB","not"],
    ["like","IN","like"],
    ["the","DT","the"],
    ["elements","NNS","el"],
    ["of","IN","of"],
    ["indeterminacy","NN","indetermin"],
    [".",".","."]
  ]
},
{
  "tag":"S",
  "content":
  [
    ["He","PRP","He"],
    ["did","VBD","do"],
    ["not","RB","not"],
    ["like","IN","like"],
    ["the","DT","the"],
    ["abandonment","NN","abandon"],
    ["of","IN","of"],
    ["continuity","NN","continu"],
    ["or","CC","or"],
    ["of","IN","of"],
    ["causality","NN","caus"],
    [".",".","."]
  ]
},
{
  "tag":"S",
  "content":
  [
    ["These","DT","These"],
    ["were","VBD","be"],
    ["things","NNS","thing"],
    ["that","IN","that"],
    ["he","PRP","he"],
    ["had","VBD","hav"],
    ["grown","VBN","grow"],
    ["up","RP","up"],
    ["with","IN","with"],
    [",",",",","],
    ["saved","VBN","sav"],
    ["by","IN","by"],
    ["him","PRP","him"],
    [",",",",","],
    ["and","CC","and"],
    ["enormously","RB","enorm"],
    ["enlarged","VBD","enlarg"],
    [";",":",";"],
    ["and","CC","and"],
    ["to","TO","to"],
    ["see","VB","see"],
    ["them","PRP","them"],
    ["lost","VBD","los"],
    [",",",",","],
    ["even","RB","ev"],
    ["though","IN","though"],
    ["he","PRP","he"],
    ["had","VBD","hav"],
    ["put","VBN","put"],
    ["the","DT","the"],
    ["dagger","NN","dag"],
    ["in","IN","in"],
    ["the","DT","the"],
    ["hand","NN","hand"],
    ["of","IN","of"],
    ["their","PRP$","their"],
    ["assassin","NN","assassin"],
    ["by","IN","by"],
    ["his","PRP$","his"],
    ["own","JJ","own"],
    ["work","NN","work"],
    [",",",",","],
    ["was","VBD","be"],
    ["very","RB","very"],
    ["hard","RB","hard"],
    ["on","IN","on"],
    ["him","PRP","him"],
    [".",".","."]
  ]
},
{
  "tag":"S",
  "content":
  [
    ["He","PRP","He"],
    ["fought","VBD","fight"],
    ["with","IN","with"],
    {
      "tag":"PERSON",
      "content":
      [
        ["Bohr","NNP","bohr"]
      ]
    },
    ["in","IN","in"],
    ["a","DT","a"],
    ["noble","JJ","nobl"],
    ["and","CC","and"],
    ["furious","JJ","fury"],
    ["way","NN","way"],
    [",",",",","],
    ["and","CC","and"],
    ["he","PRP","he"],
    ["fought","VBD","fight"],
    ["with","IN","with"],
    ["the","DT","the"],
    ["theory","NN","the"],
    ["which","WDT","which"],
    ["he","PRP","he"],
    ["had","VBD","hav"],
    ["fathered","VBN","fath"],
    ["but","CC","but"],
    ["which","WDT","which"],
    ["he","PRP","he"],
    ["hated","VBD","hat"],
    [".",".","."]
  ]
},
{
  "tag":"S",
  "content":
  [
    ["It","PRP","It"],
    ["was","VBD","be"],
    ["not","RB","not"],
    ["the","DT","the"],
    ["first","JJ","first"],
    ["time","NN","tim"],
    ["that","WDT","that"],
    ["this","DT","this"],
    ["has","VBZ","hav"],
    ["happened","VBN","hap"],
    ["in","IN","in"],
    ["science.He","NNP","science.h"],
    ["also","RB","also"],
    ["worked","VBD","work"],
    ["with","IN","with"],
    ["a","DT","a"],
    ["very","RB","very"],
    ["ambitious","JJ","amb"],
    ["program","NN","program"],
    [",",",",","],
    ["to","TO","to"],
    ["combine","VB","combin"],
    ["the","DT","the"],
    ["understanding","NN","understand"],
    ["of","IN","of"],
    ["electricity","NN","elect"],
    ["and","CC","and"],
    ["gravitation","NN","gravit"],
    ["in","IN","in"],
    ["such","JJ","such"],
    ["a","DT","a"],
    ["way","NN","way"],
    ["as","IN","as"],
    ["to","TO","to"],
    ["explain","VB","explain"],
    ["what","WP","what"],
    ["he","PRP","he"],
    ["regarded","VBD","regard"],
    ["as","IN","as"],
    ["the","DT","the"],
    ["semblance—the","NNP","semblance—th"],
    ["illusion—of","NNP","illusion—of"],
    ["discreteness","NN","discret"],
    [",",",",","],
    ["of","IN","of"],
    ["particles","NNS","partic"],
    ["in","IN","in"],
    ["nature","NN","nat"],
    [".",".","."]
  ]
},
{
  "tag":"S",
  "content":
  [
    ["I","PRP","I"],
    ["think","VBP","think"],
    ["that","IN","that"],
    ["it","PRP","it"],
    ["was","VBD","be"],
    ["clear","JJ","clear"],
    ["then","RB","then"],
    [",",",",","],
    ["and","CC","and"],
    ["believe","VB","believ"],
    ["it","PRP","it"],
    ["to","TO","to"],
    ["be","VB","be"],
    ["obviously","RB","obvy"],
    ["clear","JJ","clear"],
    ["today","NN","today"],
    [",",",",","],
    ["that","IN","that"],
    ["the","DT","the"],
    ["things","NNS","thing"],
    ["that","IN","that"],
    ["this","DT","this"],
    ["theory","NN","the"],
    ["worked","VBD","work"],
    ["with","IN","with"],
    ["were","VBD","be"],
    ["too","RB","too"],
    ["meager","JJR","meag"],
    [",",",",","],
    ["left","VBN","leav"],
    ["out","RP","out"],
    ["too","RB","too"],
    ["much","RB","much"],
    ["that","IN","that"],
    ["was","VBD","be"],
    ["known","VBN","know"],
    ["to","TO","to"],
    ["physicists","NNS","phys"],
    ["but","CC","but"],
    ["had","VBD","hav"],
    ["not","RB","not"],
    ["been","VBN","be"],
    ["known","VBN","know"],
    ["much","RB","much"],
    ["in","IN","in"],
    ["Einstein’s","NNP","einstein’s"],
    ["student","NN","stud"],
    ["days","NNS","day"],
    [".",".","."]
  ]
},
{
  "tag":"S",
  "content":
  [
    ["Thus","RB","thu"],
    ["it","PRP","it"],
    ["looked","VBD","look"],
    ["like","IN","like"],
    ["a","DT","a"],
    ["hopelessly","RB","hopeless"],
    ["limited","VBN","limit"],
    ["and","CC","and"],
    ["historically","RB","hist"],
    ["rather","RB","rath"],
    ["accidentally","RB","accid"],
    ["conditioned","VBN","condit"],
    ["approach","NN","approach"],
    [".",".","."]
  ]
},
{
  "tag":"S",
  "content":
  [
    ["Although","IN","Although"],
    {
      "tag":"PERSON",
      "content":
      [
        ["Einstein","NNP","einstein"]
      ]
    },
    ["commanded","VBD","command"],
    ["the","DT","the"],
    ["affection","NN","affect"],
    [",",",",","],
    ["or","CC","or"],
    [",",",",","],
    ["more","RBR","mor"],
    ["rightly","RB","right"],
    [",",",",","],
    ["the","DT","the"],
    ["love","NN","lov"],
    ["of","IN","of"],
    ["everyone","NN","everyon"],
    ["for","IN","for"],
    ["his","PRP$","his"],
    ["determination","NN","determin"],
    ["to","TO","to"],
    ["see","VB","see"],
    ["through","IN","through"],
    ["his","PRP$","his"],
    ["program","NN","program"],
    [",",",",","],
    ["he","PRP","he"],
    ["lost","VBD","los"],
    ["most","JJS","most"],
    ["contact","NN","contact"],
    ["with","IN","with"],
    ["the","DT","the"],
    ["profession","NN","profess"],
    ["of","IN","of"],
    ["physics","NNS","phys"],
    [",",",",","],
    ["because","IN","because"],
    ["there","EX","there"],
    ["were","VBD","be"],
    ["things","NNS","thing"],
    ["that","IN","that"],
    ["had","VBD","hav"],
    ["been","VBN","be"],
    ["learned","VBN","learn"],
    ["which","WDT","which"],
    ["came","VBD","com"],
    ["too","RB","too"],
    ["late","JJ","lat"],
    ["in","IN","in"],
    ["life","NN","lif"],
    ["for","IN","for"],
    ["him","PRP","him"],
    ["to","TO","to"],
    ["concern","VB","concern"],
    ["himself","PRP","himself"],
    ["with","IN","with"],
    ["them","PRP","them"],
    [".",".","."]
  ]
},
{
  "tag":"S",
  "content":
  [
    {
      "tag":"ORGANIZATION",
      "content":
      [
        ["EINSTEIN","NNP","einstein"]
      ]
    },
    ["was","VBD","be"],
    ["indeed","VBN","indee"],
    ["one","CD","one"],
    ["of","IN","of"],
    ["the","DT","the"],
    ["friendliest","JJS","friend"],
    ["of","IN","of"],
    ["men","NNS","men"],
    [".",".","."]
  ]
},
{
  "tag":"S",
  "content":
  [
    ["I","PRP","I"],
    ["had","VBD","hav"],
    ["the","DT","the"],
    ["impression","NN","impress"],
    ["that","IN","that"],
    ["he","PRP","he"],
    ["was","VBD","be"],
    ["also","RB","also"],
    [",",",",","],
    ["in","IN","in"],
    ["an","DT","an"],
    ["important","JJ","import"],
    ["sense","NN","sens"],
    [",",",",","],
    ["alone","RB","alon"],
    [".",".","."]
  ]
},
{
  "tag":"S",
  "content":
  [
    ["Many","JJ","many"],
    ["very","RB","very"],
    ["great","JJ","gre"],
    ["men","NNS","men"],
    ["are","VBP","be"],
    ["lonely","RB","lon"],
    [";",":",";"],
    ["yet","RB","yet"],
    ["I","PRP","I"],
    ["had","VBD","hav"],
    ["the","DT","the"],
    ["impression","NN","impress"],
    ["that","IN","that"],
    ["although","IN","although"],
    ["he","PRP","he"],
    ["was","VBD","be"],
    ["a","DT","a"],
    ["deep","NN","deep"],
    ["and","CC","and"],
    ["loyal","JJ","loy"],
    ["friend","NN","friend"],
    [",",",",","],
    ["the","DT","the"],
    ["stronger","JJR","strong"],
    ["human","NN","hum"],
    ["affections","NNS","affect"],
    ["played","VBN","play"],
    ["a","DT","a"],
    ["not","RB","not"],
    ["very","RB","very"],
    ["deep","VB","deep"],
    ["or","CC","or"],
    ["very","RB","very"],
    ["central","JJ","cent"],
    ["part","NN","part"],
    ["in","IN","in"],
    ["his","PRP$","his"],
    ["life","NN","lif"],
    ["taken","VBN","tak"],
    ["as","RB","as"],
    ["a","DT","a"],
    ["whole","JJ","whol"],
    [".",".","."]
  ]
},
{
  "tag":"S",
  "content":
  [
    ["He","PRP","He"],
    ["had","VBD","hav"],
    ["of","IN","of"],
    ["course","NN","cours"],
    ["incredibly","RB","incred"],
    ["many","JJ","many"],
    ["disciples","NNS","discipl"],
    [",",",",","],
    ["in","IN","in"],
    ["the","DT","the"],
    ["sense","NN","sens"],
    ["of","IN","of"],
    ["people","NNS","peopl"],
    ["who","WP","who"],
    [",",",",","],
    ["reading","VBP","read"],
    ["his","PRP$","his"],
    ["work","NN","work"],
    ["or","CC","or"],
    ["hearing","VBG","hear"],
    ["it","PRP","it"],
    ["taught","VBD","teach"],
    ["by","IN","by"],
    ["him","PRP","him"],
    [",",",",","],
    ["learned","VBD","learn"],
    ["from","IN","from"],
    ["him","PRP","him"],
    ["and","CC","and"],
    ["had","VBD","hav"],
    ["a","DT","a"],
    ["new","JJ","new"],
    ["view","NN","view"],
    ["of","IN","of"],
    ["physics","NNS","phys"],
    [",",",",","],
    ["of","IN","of"],
    ["the","DT","the"],
    ["philosophy","NN","philosoph"],
    ["of","IN","of"],
    ["physics","NNS","phys"],
    [",",",",","],
    ["of","IN","of"],
    ["the","DT","the"],
    ["nature","NN","nat"],
    ["of","IN","of"],
    ["the","DT","the"],
    ["world","NN","world"],
    ["that","DT","that"],
    ["we","PRP","we"],
    ["live","VBP","liv"],
    ["in","IN","in"],
    [".",".","."]
  ]
},
{
  "tag":"S",
  "content":
  [
    ["But","CC","But"],
    ["he","PRP","he"],
    ["did","VBD","do"],
    ["not","RB","not"],
    ["have","VB","hav"],
    [",",",",","],
    ["in","IN","in"],
    ["the","DT","the"],
    ["technical","JJ","techn"],
    ["jargon","NN","jargon"],
    [",",",",","],
    ["a","DT","a"],
    ["school","NN","school"],
    [".",".","."]
  ]
},
{
  "tag":"S",
  "content":
  [
    ["He","PRP","He"],
    ["did","VBD","do"],
    ["not","RB","not"],
    ["have","VB","hav"],
    ["very","RB","very"],
    ["many","JJ","many"],
    ["students","NNS","stud"],
    ["who","WP","who"],
    ["were","VBD","be"],
    ["his","PRP$","his"],
    ["concern","NN","concern"],
    ["as","IN","as"],
    ["apprentices","NNS","appr"],
    ["and","CC","and"],
    ["disciples","NNS","discipl"],
    [".",".","."]
  ]
},
{
  "tag":"S",
  "content":
  [
    ["And","CC","And"],
    ["there","EX","there"],
    ["was","VBD","be"],
    ["an","DT","an"],
    ["element","NN","el"],
    ["of","IN","of"],
    ["the","DT","the"],
    ["lone","NN","lon"],
    ["worker","NN","work"],
    ["in","IN","in"],
    ["him","PRP","him"],
    [",",",",","],
    ["in","IN","in"],
    ["sharp","JJ","sharp"],
    ["contrast","NN","contrast"],
    ["to","TO","to"],
    ["the","DT","the"],
    ["teams","NNS","team"],
    ["we","PRP","we"],
    ["see","VBP","see"],
    ["today","NN","today"],
    [",",",",","],
    ["and","CC","and"],
    ["in","IN","in"],
    ["sharp","JJ","sharp"],
    ["contrast","NN","contrast"],
    ["to","TO","to"],
    ["the","DT","the"],
    ["highly","RB","high"],
    ["cooperative","JJ","coop"],
    ["way","NN","way"],
    ["in","IN","in"],
    ["which","WDT","which"],
    ["some","DT","some"],
    ["other","JJ","oth"],
    ["parts","NNS","part"],
    ["of","IN","of"],
    ["science","NN","sci"],
    ["have","VBP","hav"],
    ["developed","VBN","develop"],
    [".",".","."]
  ]
},
{
  "tag":"S",
  "content":
  [
    ["In","IN","In"],
    ["later","JJ","lat"],
    ["years","NNS","year"],
    [",",",",","],
    ["he","PRP","he"],
    ["had","VBD","hav"],
    ["people","NNS","peopl"],
    ["working","VBG","work"],
    ["with","IN","with"],
    ["him","PRP","him"],
    [".",".","."]
  ]
},
{
  "tag":"S",
  "content":
  [
    ["They","PRP","They"],
    ["were","VBD","be"],
    ["typically","RB","typ"],
    ["called","VBN","cal"],
    ["assistants","NNS","assist"],
    ["and","CC","and"],
    ["they","PRP","they"],
    ["had","VBD","hav"],
    ["a","DT","a"],
    ["wonderful","JJ","wond"],
    ["life","NN","lif"],
    [".",".","."]
  ]
},
{
  "tag":"S",
  "content":
  [
    ["Just","RB","just"],
    ["being","VBG","be"],
    ["with","IN","with"],
    ["him","PRP","him"],
    ["was","VBD","be"],
    ["wonderful","JJ","wond"],
    [".",".","."]
  ]
},
{
  "tag":"S",
  "content":
  [
    ["His","PRP$","His"],
    ["secretary","NN","secret"],
    ["had","VBD","hav"],
    ["a","DT","a"],
    ["wonderful","JJ","wond"],
    ["life","NN","lif"],
    [".",".","."]
  ]
},
{
  "tag":"S",
  "content":
  [
    ["The","DT","The"],
    ["sense","NN","sens"],
    ["of","IN","of"],
    ["grandeur","NN","grand"],
    ["never","RB","nev"],
    ["left","VBN","leav"],
    ["him","PRP","him"],
    ["for","IN","for"],
    ["a","DT","a"],
    ["minute","NN","minut"],
    [",",",",","],
    ["nor","CC","nor"],
    ["his","PRP$","his"],
    ["sense","NN","sens"],
    ["of","IN","of"],
    ["humor","NN","hum"],
    [".",".","."]
  ]
},
{
  "tag":"S",
  "content":
  [
    ["The","DT","The"],
    ["assistants","NNS","assist"],
    ["did","VBD","do"],
    ["one","CD","one"],
    ["thing","NN","thing"],
    ["which","WDT","which"],
    ["he","PRP","he"],
    ["lacked","VBD","lack"],
    ["in","IN","in"],
    ["his","PRP$","his"],
    ["young","JJ","young"],
    ["days","NNS","day"],
    [".",".","."]
  ]
},
{
  "tag":"S",
  "content":
  [
    ["His","PRP$","His"],
    ["early","JJ","ear"],
    ["papers","NNS","pap"],
    ["are","VBP","be"],
    ["paralyzingly","RB","paralys"],
    ["beautiful","JJ","beauty"],
    [",",",",","],
    ["but","CC","but"],
    ["there","EX","there"],
    ["are","VBP","be"],
    ["many","JJ","many"],
    ["errata","NNS","errat"],
    [".",".","."]
  ]
},
{
  "tag":"S",
  "content":
  [
    ["Later","JJ","lat"],
    ["there","EX","there"],
    ["were","VBD","be"],
    ["none","NN","non"],
    [".",".","."]
  ]
},
{
  "tag":"S",
  "content":
  [
    ["I","PRP","I"],
    ["had","VBD","hav"],
    ["the","DT","the"],
    ["impression","NN","impress"],
    ["that","IN","that"],
    [",",",",","],
    ["along","IN","along"],
    ["with","IN","with"],
    ["its","PRP$","its"],
    ["miseries","NNS","misery"],
    [",",",",","],
    ["his","PRP$","his"],
    ["fame","NN","fam"],
    ["gave","VBD","giv"],
    ["him","PRP","him"],
    ["some","DT","some"],
    ["pleasures","NNS","pleas"],
    [",",",",","],
    ["not","RB","not"],
    ["only","RB","on"],
    ["the","DT","the"],
    ["human","JJ","hum"],
    ["pleasure","NN","pleas"],
    ["of","IN","of"],
    ["meeting","NN","meet"],
    ["people","NNS","peopl"],
    ["but","CC","but"],
    ["the","DT","the"],
    ["extreme","NN","extrem"],
    ["pleasure","NN","pleas"],
    ["of","IN","of"],
    ["music","JJ","mus"],
    ["played","VBN","play"],
    ["not","RB","not"],
    ["only","RB","on"],
    ["with","IN","with"],
    {
      "tag":"PERSON",
      "content":
      [
        ["Elizabeth","NNP","elizabe"]
      ]
    },
    ["of","IN","of"],
    {
      "tag":"GPE",
      "content":
      [
        ["Belgium","NNP","belg"]
      ]
    },
    ["but","CC","but"],
    ["more","JJR","mor"],
    ["with","IN","with"],
    {
      "tag":"PERSON",
      "content":
      [
        ["Adolf","NNP","adolf"],
        ["Busch","NNP","busch"]
      ]
    },
    [",",",",","],
    ["for","IN","for"],
    ["he","PRP","he"],
    ["was","VBD","be"],
    ["not","RB","not"],
    ["that","IN","that"],
    ["good","JJ","good"],
    ["a","DT","a"],
    ["violinist","NN","violin"],
    [".",".","."]
  ]
},
{
  "tag":"S",
  "content":
  [
    ["He","PRP","He"],
    ["loved","VBD","lov"],
    ["the","DT","the"],
    ["sea","NN","sea"],
    ["and","CC","and"],
    ["he","PRP","he"],
    ["loved","VBD","lov"],
    ["sailing","VBG","sail"],
    ["and","CC","and"],
    ["was","VBD","be"],
    ["always","RB","alway"],
    ["grateful","JJ","grat"],
    ["for","IN","for"],
    ["a","DT","a"],
    ["ship","NN","ship"],
    [".",".","."]
  ]
},
{
  "tag":"S",
  "content":
  [
    ["I","PRP","I"],
    ["remember","VBP","rememb"],
    ["walking","VBG","walk"],
    ["home","NN","hom"],
    ["with","IN","with"],
    ["him","PRP","him"],
    ["on","IN","on"],
    ["his","PRP$","his"],
    ["seventy-first","JJ","seventy-first"],
    ["birthday","NN","birthday"],
    [".",".","."]
  ]
},
{
  "tag":"S",
  "content":
  [
    ["He","PRP","He"],
    ["said","VBD","say"],
    [",",",",","],
    ["“You","NNP","“you"],
    ["know","VB","know"],
    [",",",",","],
    ["when","WRB","when"],
    ["it’s","JJ","it’s"],
    ["once","NN","ont"],
    ["been","VBN","be"],
    ["given","VBN","giv"],
    ["to","TO","to"],
    ["a","DT","a"],
    ["man","NN","man"],
    ["to","TO","to"],
    ["do","VB","do"],
    ["something","NN","someth"],
    ["sensible","VB","sens"],
    [",",",",","],
    ["afterward","NN","afterward"],
    ["life","NN","lif"],
    ["is","VBZ","be"],
    ["a","DT","a"],
    ["little","RB","littl"],
    ["strange.”Einstein","JJ","strange.”einstein"],
    ["is","VBZ","be"],
    ["also","RB","also"],
    [",",",",","],
    ["and","CC","and"],
    ["I","PRP","I"],
    ["think","VBP","think"],
    ["rightly","RB","right"],
    [",",",",","],
    ["known","VBN","know"],
    ["as","IN","as"],
    ["a","DT","a"],
    ["man","NN","man"],
    ["of","IN","of"],
    ["very","RB","very"],
    ["great","JJ","gre"],
    ["good","JJ","good"],
    ["will","NN","wil"],
    ["and","CC","and"],
    ["humanity","NN","hum"],
    [".",".","."]
  ]
},
{
  "tag":"S",
  "content":
  [
    ["Indeed","RB","indee"],
    [",",",",","],
    ["if","IN","if"],
    ["I","PRP","I"],
    ["had","VBD","hav"],
    ["to","TO","to"],
    ["think","VB","think"],
    ["of","IN","of"],
    ["a","DT","a"],
    ["single","JJ","singl"],
    ["word","NN","word"],
    ["for","IN","for"],
    ["his","PRP$","his"],
    ["attitude","NN","attitud"],
    ["towards","NNS","toward"],
    ["human","JJ","hum"],
    ["problems","NNS","problem"],
    [",",",",","],
    ["I","PRP","I"],
    ["would","MD","would"],
    ["pick","VB","pick"],
    ["the","DT","the"],
    {
      "tag":"GPE",
      "content":
      [
        ["Sanscrit","NNP","sanscrit"]
      ]
    },
    ["word","NN","word"],
    {
      "tag":"PERSON",
      "content":
      [
        ["Ahinsa","NNP","ahins"]
      ]
    },
    [",",",",","],
    ["not","RB","not"],
    ["to","TO","to"],
    ["hurt","VB","hurt"],
    [",",",",","],
    ["harmlessness","NN","harmless"],
    [".",".","."]
  ]
},
{
  "tag":"S",
  "content":
  [
    ["He","PRP","He"],
    ["had","VBD","hav"],
    ["a","DT","a"],
    ["deep","NN","deep"],
    ["distrust","NN","distrust"],
    ["of","IN","of"],
    ["power","NN","pow"],
    [";",":",";"],
    ["he","PRP","he"],
    ["did","VBD","do"],
    ["not","RB","not"],
    ["have","VB","hav"],
    ["that","IN","that"],
    ["convenient","JJ","conveny"],
    ["and","CC","and"],
    ["natural","JJ","nat"],
    ["converse","NN","convers"],
    ["with","IN","with"],
    ["statesmen","NNS","statesm"],
    ["and","CC","and"],
    ["men","NNS","men"],
    ["of","IN","of"],
    ["power","NN","pow"],
    ["that","WDT","that"],
    ["was","VBD","be"],
    ["quite","RB","quit"],
    ["appropriate","JJ","appropry"],
    ["to","TO","to"],
    {
      "tag":"ORGANIZATION",
      "content":
      [
        ["Rutherford","NNP","rutherford"]
      ]
    },
    ["and","CC","and"],
    ["to","TO","to"],
    {
      "tag":"GPE",
      "content":
      [
        ["Bohr","NNP","bohr"]
      ]
    },
    [",",",",","],
    ["perhaps","RB","perhap"],
    ["the","DT","the"],
    ["two","CD","two"],
    ["physicists","NNS","phys"],
    ["of","IN","of"],
    ["this","DT","this"],
    ["century","NN","century"],
    ["who","WP","who"],
    ["most","JJS","most"],
    ["nearly","RB","near"],
    ["rivaled","VBD","riv"],
    ["him","PRP","him"],
    ["in","IN","in"],
    ["eminence","NN","emin"],
    [".",".","."]
  ]
},
{
  "tag":"S",
  "content":
  [
    ["In","IN","In"],
    ["1915","CD","1915"],
    [",",",",","],
    ["as","IN","as"],
    ["he","PRP","he"],
    ["made","VBD","mak"],
    ["the","DT","the"],
    ["general","JJ","gen"],
    ["theory","NN","the"],
    ["of","IN","of"],
    ["relativity","NN","rel"],
    [",",",",","],
    {
      "tag":"PERSON",
      "content":
      [
        ["Europe","NNP","europ"]
      ]
    },
    ["was","VBD","be"],
    ["tearing","VBG","tear"],
    ["itself","PRP","itself"],
    ["to","TO","to"],
    ["pieces","NNS","piec"],
    ["and","CC","and"],
    ["half","DT","half"],
    ["losing","VBG","los"],
    ["its","PRP$","its"],
    ["past","JJ","past"],
    [".",".","."]
  ]
},
{
  "tag":"S",
  "content":
  [
    ["He","PRP","He"],
    ["was","VBD","be"],
    ["always","RB","alway"],
    ["a","DT","a"],
    ["pacifist","NN","pac"],
    [".",".","."]
  ]
},
{
  "tag":"S",
  "content":
  [
    ["Only","RB","on"],
    ["as","IN","as"],
    ["the","DT","the"],
    {
      "tag":"ORGANIZATION",
      "content":
      [
        ["Nazis","NNP","naz"]
      ]
    },
    ["came","VBD","com"],
    ["into","IN","into"],
    ["power","NN","pow"],
    ["in","IN","in"],
    {
      "tag":"GPE",
      "content":
      [
        ["Germany","NNP","germany"]
      ]
    },
    ["did","VBD","do"],
    ["he","PRP","he"],
    ["have","VBP","hav"],
    ["some","DT","some"],
    ["doubts","NNS","doubt"],
    [",",",",","],
    ["as","IN","as"],
    ["his","PRP$","his"],
    ["famous","JJ","fam"],
    ["and","CC","and"],
    ["rather","RB","rath"],
    ["deep","VB","deep"],
    ["exchange","NN","exchang"],
    ["of","IN","of"],
    ["letters","NNS","let"],
    ["with","IN","with"],
    {
      "tag":"PERSON",
      "content":
      [
        ["Freud","NNP","freud"]
      ]
    },
    ["showed","VBD","show"],
    [",",",",","],
    ["and","CC","and"],
    ["began","VBD","begin"],
    ["to","TO","to"],
    ["understand","VB","understand"],
    ["with","IN","with"],
    ["melancholy","RB","melancho"],
    ["and","CC","and"],
    ["without","IN","without"],
    ["true","JJ","tru"],
    ["acceptance","NN","acceiv"],
    ["that","WDT","that"],
    [",",",",","],
    ["in","IN","in"],
    ["addition","NN","addit"],
    ["to","TO","to"],
    ["understanding","NN","understand"],
    [",",",",","],
    ["man","NN","man"],
    ["sometimes","RB","sometim"],
    ["has","VBZ","hav"],
    ["a","DT","a"],
    ["duty","NN","duty"],
    ["to","TO","to"],
    ["act","VB","act"],
    [".",".","."]
  ]
},
{
  "tag":"S",
  "content":
  [
    ["AFTER","IN","AFTER"],
    ["what","WP","what"],
    ["you","PRP","you"],
    ["have","VBP","hav"],
    ["heard","VBN","hear"],
    [",",",",","],
    ["I","PRP","I"],
    ["need","VBP","nee"],
    ["not","RB","not"],
    ["say","VB","say"],
    ["how","WRB","how"],
    ["luminous","JJ","lumin"],
    ["was","VBD","be"],
    ["his","PRP$","his"],
    ["intelligence","NN","intellig"],
    [".",".","."]
  ]
},
{
  "tag":"S",
  "content":
  [
    ["He","PRP","He"],
    ["was","VBD","be"],
    ["almost","RB","almost"],
    ["wholly","RB","whol"],
    ["without","IN","without"],
    ["sophistication","NN","soph"],
    ["and","CC","and"],
    ["wholly","RB","whol"],
    ["without","IN","without"],
    ["worldliness","NN","world"],
    [".",".","."]
  ]
},
{
  "tag":"S",
  "content":
  [
    ["I","PRP","I"],
    ["think","VBP","think"],
    ["that","IN","that"],
    ["in","IN","in"],
    {
      "tag":"GPE",
      "content":
      [
        ["England","NNP","england"]
      ]
    },
    ["people","NNS","peopl"],
    ["would","MD","would"],
    ["have","VB","hav"],
    ["said","VBN","say"],
    ["that","IN","that"],
    ["he","PRP","he"],
    ["did","VBD","do"],
    ["not","RB","not"],
    ["have","VB","hav"],
    ["much","JJ","much"],
    ["“background","NN","“background"],
    [",",",",","],
    ["”",":","”"],
    ["and","CC","and"],
    ["in","IN","in"],
    {
      "tag":"GPE",
      "content":
      [
        ["America","NNP","americ"]
      ]
    },
    ["that","IN","that"],
    ["he","PRP","he"],
    ["lacked","VBD","lack"],
    ["“education.”","-NONE-","“education.”"],
    ["This","DT","This"],
    ["may","MD","may"],
    ["throw","VB","throw"],
    ["some","DT","some"],
    ["light","JJ","light"],
    ["on","IN","on"],
    ["how","WRB","how"],
    ["these","DT","these"],
    ["words","NNS","word"],
    ["are","VBP","be"],
    ["used","VBN","us"],
    [".",".","."]
  ]
},
{
  "tag":"S",
  "content":
  [
    ["I","PRP","I"],
    ["think","VBP","think"],
    ["that","IN","that"],
    ["this","DT","this"],
    ["simplicity","NN","simpl"],
    [",",",",","],
    ["this","DT","this"],
    ["lack","NN","lack"],
    ["of","IN","of"],
    ["clutter","NN","clut"],
    ["and","CC","and"],
    ["this","DT","this"],
    ["lack","NN","lack"],
    ["of","IN","of"],
    ["cant","JJ","cant"],
    [",",",",","],
    ["had","VBD","hav"],
    ["a","DT","a"],
    ["lot","NN","lot"],
    ["to","TO","to"],
    ["do","VB","do"],
    ["with","IN","with"],
    ["his","PRP$","his"],
    ["preservation","NN","preserv"],
    ["throughout","IN","throughout"],
    ["of","IN","of"],
    ["a","DT","a"],
    ["certain","JJ","certain"],
    ["pure","NN","pur"],
    [",",",",","],
    ["rather","RB","rath"],
    ["Spinoza-like","JJ","spinoza-like"],
    [",",",",","],
    ["philosophical","JJ","philosoph"],
    ["monism","NN","mon"],
    [",",",",","],
    ["which","WDT","which"],
    ["of","IN","of"],
    ["course","NN","cours"],
    ["is","VBZ","be"],
    ["hard","JJ","hard"],
    ["to","TO","to"],
    ["maintain","VB","maintain"],
    ["if","IN","if"],
    ["you","PRP","you"],
    ["have","VBP","hav"],
    ["been","VBN","be"],
    ["“educated”","-NONE-","“educated”"],
    ["and","CC","and"],
    ["have","VBP","hav"],
    ["a","DT","a"],
    ["“background.”","JJ","“background.”"],
    ["There","EX","There"],
    ["was","VBD","be"],
    ["always","RB","alway"],
    ["with","IN","with"],
    ["him","PRP","him"],
    ["a","DT","a"],
    ["wonderful","JJ","wond"],
    ["purity","NN","pur"],
    ["at","IN","at"],
    ["once","RB","ont"],
    ["childlike","VB","childlik"],
    ["and","CC","and"],
    ["profoundly","RB","profound"],
    ["stubborn.Einstein","JJ","stubborn.einstein"],
    ["is","VBZ","be"],
    ["often","RB","oft"],
    ["blamed","VBN","blam"],
    ["or","CC","or"],
    ["praised","VBN","pra"],
    ["or","CC","or"],
    ["credited","VBN","credit"],
    ["with","IN","with"],
    ["these","DT","these"],
    ["miserable","JJ","mis"],
    ["bombs","NNS","bomb"],
    [".",".","."]
  ]
},
{
  "tag":"S",
  "content":
  [
    ["It","PRP","It"],
    ["is","VBZ","be"],
    ["not","RB","not"],
    ["in","IN","in"],
    ["my","PRP$","my"],
    ["opinion","NN","opin"],
    ["true","NN","tru"],
    [".",".","."]
  ]
},
{
  "tag":"S",
  "content":
  [
    ["The","DT","The"],
    ["special","JJ","spec"],
    ["theory","NN","the"],
    ["of","IN","of"],
    ["relativity","NN","rel"],
    ["might","MD","might"],
    ["not","RB","not"],
    ["have","VB","hav"],
    ["been","VBN","be"],
    ["beautiful","JJ","beauty"],
    ["without","IN","without"],
    {
      "tag":"GPE",
      "content":
      [
        ["Einstein","NNP","einstein"]
      ]
    },
    [";",":",";"],
    ["but","CC","but"],
    ["it","PRP","it"],
    ["would","MD","would"],
    ["have","VB","hav"],
    ["been","VBN","be"],
    ["a","DT","a"],
    ["tool","NN","tool"],
    ["for","IN","for"],
    ["physicists","NNS","phys"],
    [",",",",","],
    ["and","CC","and"],
    ["by","IN","by"],
    ["1932","CD","1932"],
    ["the","DT","the"],
    ["experimental","JJ","expery"],
    ["evidence","NN","evid"],
    ["for","IN","for"],
    ["the","DT","the"],
    ["inter-convertibility","NN","inter-convertibility"],
    ["of","IN","of"],
    ["matter","NN","mat"],
    ["and","CC","and"],
    ["energy","NN","energy"],
    ["which","WDT","which"],
    ["he","PRP","he"],
    ["had","VBD","hav"],
    ["predicted","VBN","predict"],
    ["was","VBD","be"],
    ["overwhelming","VBG","overwhelm"],
    [".",".","."]
  ]
},
{
  "tag":"S",
  "content":
  [
    ["The","DT","The"],
    ["feasibility","NN","feas"],
    ["of","IN","of"],
    ["doing","VBG","do"],
    ["anything","NN","anyth"],
    ["with","IN","with"],
    ["this","DT","this"],
    ["in","IN","in"],
    ["such","JJ","such"],
    ["a","DT","a"],
    ["massive","JJ","mass"],
    ["way","NN","way"],
    ["was","VBD","be"],
    ["not","RB","not"],
    ["clear","JJ","clear"],
    ["until","IN","until"],
    ["seven","CD","seven"],
    ["years","NNS","year"],
    ["later","RBR","lat"],
    [",",",",","],
    ["and","CC","and"],
    ["then","RB","then"],
    ["almost","RB","almost"],
    ["by","IN","by"],
    ["accident","NN","accid"],
    [".",".","."]
  ]
},
{
  "tag":"S",
  "content":
  [
    ["This","DT","This"],
    ["was","VBD","be"],
    ["not","RB","not"],
    ["what","WP","what"],
    {
      "tag":"PERSON",
      "content":
      [
        ["Einstein","NNP","einstein"]
      ]
    },
    ["really","RB","real"],
    ["was","VBD","be"],
    ["after","IN","after"],
    [".",".","."]
  ]
},
{
  "tag":"S",
  "content":
  [
    ["His","PRP$","His"],
    ["part","NN","part"],
    ["was","VBD","be"],
    ["that","IN","that"],
    ["of","IN","of"],
    ["creating","VBG","cre"],
    ["an","DT","an"],
    ["intellectual","JJ","intellect"],
    ["revolution","NN","revolv"],
    [",",",",","],
    ["and","CC","and"],
    ["discovering","VBG","discov"],
    ["more","JJR","mor"],
    ["than","IN","than"],
    ["any","DT","any"],
    ["scientist","NN","sci"],
    ["of","IN","of"],
    ["our","PRP$","our"],
    ["time","NN","tim"],
    ["how","WRB","how"],
    ["profound","NN","profound"],
    ["were","VBD","be"],
    ["the","DT","the"],
    ["errors","NNS","er"],
    ["made","VBN","mak"],
    ["by","IN","by"],
    ["men","NNS","men"],
    ["before","IN","before"],
    ["then","RB","then"],
    [".",".","."]
  ]
},
{
  "tag":"S",
  "content":
  [
    ["He","PRP","He"],
    ["did","VBD","do"],
    ["write","VB","writ"],
    ["a","DT","a"],
    ["letter","NN","let"],
    ["to","TO","to"],
    {
      "tag":"ORGANIZATION",
      "content":
      [
        ["Roosevelt","NNP","roosevelt"]
      ]
    },
    ["about","IN","about"],
    ["atomic","JJ","atom"],
    ["energy","NN","energy"],
    [".",".","."]
  ]
},
{
  "tag":"S",
  "content":
  [
    ["I","PRP","I"],
    ["think","VBP","think"],
    ["this","DT","this"],
    ["was","VBD","be"],
    ["in","IN","in"],
    ["part","NN","part"],
    ["his","PRP$","his"],
    ["agony","NN","agony"],
    ["at","IN","at"],
    ["the","DT","the"],
    ["evil","JJ","evil"],
    ["of","IN","of"],
    ["the","DT","the"],
    {
      "tag":"ORGANIZATION",
      "content":
      [
        ["Nazis","NNP","naz"]
      ]
    },
    [",",",",","],
    ["in","IN","in"],
    ["part","NN","part"],
    ["not","RB","not"],
    ["wanting","VBG","want"],
    ["to","TO","to"],
    ["harm","NN","harm"],
    ["any","DT","any"],
    ["one","CD","one"],
    ["in","IN","in"],
    ["any","DT","any"],
    ["way","NN","way"],
    [";",":",";"],
    ["but","CC","but"],
    ["I","PRP","I"],
    ["ought","MD","ought"],
    ["to","TO","to"],
    ["report","VB","report"],
    ["that","IN","that"],
    ["that","DT","that"],
    ["letter","NN","let"],
    ["had","VBD","hav"],
    ["very","RB","very"],
    ["little","JJ","littl"],
    ["effect","NN","effect"],
    [",",",",","],
    ["and","CC","and"],
    ["that","IN","that"],
    {
      "tag":"PERSON",
      "content":
      [
        ["Einstein","NNP","einstein"]
      ]
    },
    ["himself","PRP","himself"],
    ["is","VBZ","be"],
    ["really","RB","real"],
    ["not","RB","not"],
    ["answerable","JJ","answ"],
    ["for","IN","for"],
    ["all","DT","all"],
    ["that","DT","that"],
    ["came","VBD","com"],
    ["later","JJ","lat"],
    [".",".","."]
  ]
},
{
  "tag":"S",
  "content":
  [
    ["I","PRP","I"],
    ["believe","VBP","believ"],
    ["he","PRP","he"],
    ["so","RB","so"],
    ["understood","VBD","understand"],
    ["it","PRP","it"],
    ["himself","PRP","himself"],
    [".",".","."]
  ]
},
{
  "tag":"S",
  "content":
  [
    ["His","PRP$","His"],
    ["was","VBD","be"],
    ["a","DT","a"],
    ["voice","NN","voic"],
    ["raised","VBN","rais"],
    ["with","IN","with"],
    ["very","RB","very"],
    ["great","JJ","gre"],
    ["weight","NN","weight"],
    ["against","IN","against"],
    ["violence","NN","viol"],
    ["and","CC","and"],
    ["cruelty","NN","cruel"],
    ["wherever","NN","wherev"],
    ["he","PRP","he"],
    ["saw","VBD","saw"],
    ["them","PRP","them"],
    ["and","CC","and"],
    [",",",",","],
    ["after","IN","after"],
    ["the","DT","the"],
    ["war","NN","war"],
    [",",",",","],
    ["he","PRP","he"],
    ["spoke","VBD","speak"],
    ["with","IN","with"],
    ["deep","NN","deep"],
    ["emotion","NN","emot"],
    ["and","CC","and"],
    ["I","PRP","I"],
    ["believe","VBP","believ"],
    ["with","IN","with"],
    ["great","JJ","gre"],
    ["weight","NN","weight"],
    ["about","IN","about"],
    ["the","DT","the"],
    ["supreme","NN","suprem"],
    ["violence","NN","viol"],
    ["of","IN","of"],
    ["these","DT","these"],
    ["atomic","JJ","atom"],
    ["weapons","NNS","weapon"],
    [".",".","."]
  ]
},
{
  "tag":"S",
  "content":
  [
    ["He","PRP","He"],
    ["said","VBD","say"],
    ["at","IN","at"],
    ["once","RB","ont"],
    ["with","IN","with"],
    ["great","JJ","gre"],
    ["simplicity","NN","simpl"],
    [":",":",":"],
    ["Now","RB","now"],
    ["we","PRP","we"],
    ["must","MD","must"],
    ["make","VB","mak"],
    ["a","DT","a"],
    ["world","NN","world"],
    ["government","NN","govern"],
    [".",".","."]
  ]
},
{
  "tag":"S",
  "content":
  [
    ["It","PRP","It"],
    ["was","VBD","be"],
    ["very","RB","very"],
    ["forthright","VBN","forthright"],
    [",",",",","],
    ["it","PRP","it"],
    ["was","VBD","be"],
    ["very","RB","very"],
    ["abrupt","JJ","abrupt"],
    [",",",",","],
    ["it","PRP","it"],
    ["was","VBD","be"],
    ["no","DT","no"],
    ["doubt","NN","doubt"],
    ["“uneducated","JJ","“uneducated"],
    [",",",",","],
    ["”",":","”"],
    ["no","DT","no"],
    ["doubt","NN","doubt"],
    ["without","IN","without"],
    ["“background”","JJ","“background”"],
    [";",":",";"],
    ["still","RB","stil"],
    ["all","DT","all"],
    ["of","IN","of"],
    ["us","PRP","us"],
    ["in","IN","in"],
    ["some","DT","some"],
    ["thoughtful","JJ","thought"],
    ["measure","NN","meas"],
    ["must","MD","must"],
    ["recognize","VB","recogn"],
    ["that","IN","that"],
    ["he","PRP","he"],
    ["was","VBD","be"],
    ["right","RB","right"],
    [".",".","."]
  ]
},
{
  "tag":"S",
  "content":
  [
    ["Without","IN","Without"],
    ["power","NN","pow"],
    [",",",",","],
    ["without","IN","without"],
    ["calculation","NN","calc"],
    [",",",",","],
    ["with","IN","with"],
    ["none","NN","non"],
    ["of","IN","of"],
    ["the","DT","the"],
    ["profoundly","RB","profound"],
    ["political","JJ","polit"],
    ["humor","NN","hum"],
    ["that","WDT","that"],
    ["characterized","VBN","charact"],
    {
      "tag":"PERSON",
      "content":
      [
        ["Gandhi","NNP","gandh"]
      ]
    },
    [",",",",","],
    ["he","PRP","he"],
    ["nevertheless","VBZ","nevertheless"],
    ["did","VBD","do"],
    ["move","VB","mov"],
    ["the","DT","the"],
    ["political","JJ","polit"],
    ["world","NN","world"],
    [".",".","."]
  ]
},
{
  "tag":"S",
  "content":
  [
    ["In","IN","In"],
    ["almost","RB","almost"],
    ["the","DT","the"],
    ["last","JJ","last"],
    ["act","NN","act"],
    ["of","IN","of"],
    ["his","PRP$","his"],
    ["life","NN","lif"],
    [",",",",","],
    ["he","PRP","he"],
    ["joined","VBD","join"],
    ["with","IN","with"],
    {
      "tag":"PERSON",
      "content":
      [
        ["Lord","NNP","lord"],
        ["Russell","NNP","russel"]
      ]
    },
    ["in","IN","in"],
    ["suggesting","NN","suggest"],
    ["that","IN","that"],
    ["men","NNS","men"],
    ["of","IN","of"],
    ["science","NN","sci"],
    ["get","NN","get"],
    ["together","RB","togeth"],
    ["and","CC","and"],
    ["see","VB","see"],
    ["if","IN","if"],
    ["they","PRP","they"],
    ["could","MD","could"],
    ["not","RB","not"],
    ["understand","VB","understand"],
    ["one","CD","one"],
    ["another","DT","another"],
    ["and","CC","and"],
    ["avert","NN","avert"],
    ["the","DT","the"],
    ["disaster","NN","disast"],
    ["which","WDT","which"],
    ["he","PRP","he"],
    ["foresaw","VBD","fores"],
    ["from","IN","from"],
    ["the","DT","the"],
    ["arms","NNS","arm"],
    ["race","NN","rac"],
    [".",".","."]
  ]
},
{
  "tag":"S",
  "content":
  [
    ["The","DT","The"],
    ["so-called","JJ","so-called"],
    ["Pugwash","NNP","pugwash"],
    ["movement","NN","mov"],
    [",",",",","],
    ["which","WDT","which"],
    ["has","VBZ","hav"],
    ["a","DT","a"],
    ["longer","JJR","long"],
    ["name","NN","nam"],
    ["now","RB","now"],
    [",",",",","],
    ["was","VBD","be"],
    ["the","DT","the"],
    ["direct","JJ","direct"],
    ["result","NN","result"],
    ["of","IN","of"],
    ["this","DT","this"],
    ["appeal","NN","ap"],
    [".",".","."]
  ]
},
{
  "tag":"S",
  "content":
  [
    ["I","PRP","I"],
    ["know","VBP","know"],
    ["it","PRP","it"],
    ["to","TO","to"],
    ["be","VB","be"],
    ["true","JJ","tru"],
    ["that","IN","that"],
    ["it","PRP","it"],
    ["had","VBD","hav"],
    ["an","DT","an"],
    ["essential","JJ","ess"],
    ["part","NN","part"],
    ["to","TO","to"],
    ["play","VB","play"],
    ["in","IN","in"],
    ["the","DT","the"],
    {
      "tag":"ORGANIZATION",
      "content":
      [
        ["Treaty","NNP","treaty"]
      ]
    },
    ["of","IN","of"],
    {
      "tag":"GPE",
      "content":
      [
        ["Moscow","NNP","moscow"]
      ]
    },
    [",",",",","],
    ["the","DT","the"],
    ["limited","VBN","limit"],
    ["test-ban","JJ","test-ban"],
    ["treaty","NN","treaty"],
    [",",",",","],
    ["which","WDT","which"],
    ["is","VBZ","be"],
    ["a","DT","a"],
    ["tentative","JJ","tent"],
    [",",",",","],
    ["but","CC","but"],
    ["to","TO","to"],
    ["me","PRP","me"],
    ["very","RB","very"],
    ["precious","JJ","precy"],
    [",",",",","],
    ["declaration","NN","decl"],
    ["that","IN","that"],
    ["reason","NN","reason"],
    ["might","MD","might"],
    ["still","RB","stil"],
    ["prevail","VB","prevail"],
    [".",".","."]
  ]
},
{
  "tag":"S",
  "content":
  [
    ["In","IN","In"],
    ["his","PRP$","his"],
    ["last","JJ","last"],
    ["years","NNS","year"],
    [",",",",","],
    ["as","IN","as"],
    ["I","PRP","I"],
    ["knew","VBD","know"],
    ["him","PRP","him"],
    [",",",",","],
    {
      "tag":"PERSON",
      "content":
      [
        ["Einstein","NNP","einstein"]
      ]
    },
    ["was","VBD","be"],
    ["a","DT","a"],
    ["twentieth-century","JJ","twentieth-century"],
    ["Ecclesiastes","NNPS","ecclesiast"],
    [",",",",","],
    ["saying","VBG","say"],
    ["with","IN","with"],
    ["unrelenting","VBG","unrel"],
    ["and","CC","and"],
    ["indomitable","JJ","indomit"],
    ["cheerfulness","NN","che"],
    [",",",",","],
    ["“Vanity","NN","“vanity"],
    ["of","IN","of"],
    ["vanities","NNS","van"],
    [",",",",","],
    ["all","DT","all"],
    ["is","VBZ","be"],
    ["vanity.”","JJ","vanity.”"],
    ["This","DT","This"],
    ["was","VBD","be"],
    ["a","DT","a"],
    ["lecture","NN","lect"],
    ["delivered","VBN","del"],
    ["at","IN","at"],
    {
      "tag":"ORGANIZATION",
      "content":
      [
        ["UNESCO","NNP","unesco"],
        ["House","NNP","hous"]
      ]
    },
    ["in","IN","in"],
    {
      "tag":"GPE",
      "content":
      [
        ["Paris","NNP","par"]
      ]
    },
    ["on","IN","on"],
    ["December","NNP","decemb"],
    ["13,1965.","NNP","13,1965."],
    ["Letters","NNP","let"],
    {
      "tag":"PERSON",
      "content":
      [
        ["Einstein","NNP","einstein"]
      ]
    },
    ["May","NNP","may"],
    ["26","CD","26"],
    [",",",",","],
    ["1966","CD","1966"],
    ["Email","NNP","email"],
    ["Print","NNP","print"],
    ["Tweet","NNP","tweet"],
    ["From","NNP","from"],
    ["the","DT","the"],
    {
      "tag":"ORGANIZATION",
      "content":
      [
        ["Current","NNP","cur"],
        ["Issue","NNP","issu"]
      ]
    },
    ["——","NNP","——"],
    ["October","NNP","octob"],
    ["24","CD","24"],
    ["——","CD","——"],
    ["Terror","NNP","ter"],
    [":",":",":"],
    ["The","DT","The"],
    {
      "tag":"ORGANIZATION",
      "content":
      [
        ["Hidden","NNP","hid"],
        ["Source","NNP","sourc"],
        ["Malise","NNP","mal"]
      ]
    },
    ["Ruthven","NNP","ruthv"],
    ["A","NNP","a"],
    ["Different","NNP","diff"],
    ["Kafka","NNP","kafk"],
    {
      "tag":"PERSON",
      "content":
      [
        ["John","NNP","john"],
        ["Banville","NNP","banvil"],
        ["The","NNP","the"],
        ["Unknown","NNP","unknown"],
        ["Young","NNP","young"],
        ["Balanchine","NNP","balanchin"],
        ["Jennifer","NNP","jen"],
        ["Homans","NNP","hom"],
        ["Dante","NNP","dant"]
      ]
    },
    [":",":",":"],
    ["The","DT","The"],
    ["Most","RBS","most"],
    {
      "tag":"PERSON",
      "content":
      [
        ["Vivid","NNP","vivid"],
        ["Version","NNP","vert"]
      ]
    },
    {
      "tag":"PERSON",
      "content":
      [
        ["Robert","NNP","robert"],
        ["Pogue","NNP","pog"],
        ["Harrison","NNP","harrison"],
        ["The","NNP","the"],
        ["Shame","NNP","sham"]
      ]
    },
    ["of","IN","of"],
    {
      "tag":"ORGANIZATION",
      "content":
      [
        ["Our","NNP","our"],
        ["Prisons","NNPS","prison"]
      ]
    },
    [":",":",":"],
    ["New","NNP","new"],
    ["Evidence","NNP","evid"],
    {
      "tag":"PERSON",
      "content":
      [
        ["David","NNP","david"],
        ["Kaiser","NNP","kais"]
      ]
    },
    ["and","CC","and"],
    {
      "tag":"PERSON",
      "content":
      [
        ["Lovisa","NNP","lovis"],
        ["Stannow","NNP","stannow"],
        ["More","NNP","mor"],
        ["Bleak","NNP","bleak"],
        ["House","NNP","hous"],
        ["Charles","NNP","charl"],
        ["Simic","NNP","sim"],
        ["Drowning","NNP","drown"]
      ]
    },
    ["in","IN","in"],
    ["the","DT","the"],
    {
      "tag":"ORGANIZATION",
      "content":
      [
        ["Digital","NNP","digit"],
        ["Abyss","NNP","abyss"]
      ]
    },
    ["J.","NNP","j."],
    ["Hoberman","NNP","hoberm"],
    ["Back","NNP","back"],
    ["Door","NNP","door"],
    ["Secession","NNP","secess"],
    {
      "tag":"PERSON",
      "content":
      [
        ["Garry","NNP","garry"],
        ["Wills","NNP","wil"],
        ["More","NNP","mor"]
      ]
    },
    ["from","IN","from"],
    ["the","DT","the"],
    {
      "tag":"ORGANIZATION",
      "content":
      [
        ["NYRblog","NNP","nyrblog"],
        ["Newsletter","NNP","newslet"],
        ["Sign","NNP","sign"],
        ["Up","NNP","up"],
        ["News","NNP","new"]
      ]
    },
    ["of","IN","of"],
    ["upcoming","VBG","upcom"],
    ["issues","NNS","issu"],
    [",",",",","],
    ["contributors","NNS","contribut"],
    [",",",",","],
    ["special","JJ","spec"],
    ["events","NNS","ev"],
    [",",",",","],
    ["online","NN","onlin"],
    ["features","NNS","feat"],
    [",",",",","],
    ["and","CC","and"],
    ["more","JJR","mor"],
    [".",".","."]
  ]
},
{
  "tag":"S",
  "content":
  [
    {
      "tag":"GPE",
      "content":
      [
        ["Home","NN","hom"]
      ]
    },
    {
      "tag":"ORGANIZATION",
      "content":
      [
        ["Contact","NN","contact"],
        ["Us","NNP","us"],
        ["About","NNP","about"]
      ]
    },
    ["Subscribe","NNP","subscrib"],
    ["Advertise","NNP","advert"],
    {
      "tag":"ORGANIZATION",
      "content":
      [
        ["University","NNP","univers"]
      ]
    },
    ["Press","NNP","press"],
    ["Listing","NNP","list"],
    ["Independent","NNP","independ"],
    ["Press","NNP","press"],
    ["Listing","NNP","list"],
    ["Help/FAQ","NNP","help/faq"],
    {
      "tag":"PERSON",
      "content":
      [
        ["Books","NNP","book"],
        ["Terms","NNP","term"]
      ]
    },
    ["of","IN","of"],
    {
      "tag":"ORGANIZATION",
      "content":
      [
        ["Service","NNP","serv"],
        ["Feeds","NNP","fee"],
        ["Newsletters","NNP","newslet"]
      ]
    },
    ["©","NNP","©"],
    ["1963-2013","CD","1963-2013"],
    ["NYREV","NNP","nyrev"],
    [",",",",","],
    ["Inc.","NNP","inc."],
    ["All","NNP","al"],
    ["rights","NNS","right"],
    ["reserved","VBD","reserv"],
    [".",".","."]
  ]
}]