[
{
  "tag":"S",
  "content":
  [
    ["Member","NNP","memb"],
    ["Center","NNP","cent"],
    {
      "tag":"PERSON",
      "content":
      [
        ["Alerts","NNP","alert"]
      ]
    },
    ["&","CC","&"],
    {
      "tag":"ORGANIZATION",
      "content":
      [
        ["Newsletters","NNP","newslet"],
        ["Jobs","NNP","job"],
        ["Cars","NNP","car"],
        ["Real","NNP","real"],
        ["Estate","NNP","est"],
        ["Rentals","NNP","rent"],
        ["Weekly","NNP","week"],
        ["Circulars","NNP","circul"],
        ["Local","NNP","loc"]
      ]
    },
    ["Directory","NNP","direct"],
    ["Place","NNP","plac"],
    ["Ad","NNP","ad"],
    {
      "tag":"PERSON",
      "content":
      [
        ["Books","NNP","book"]
      ]
    },
    ["HOME","NNP","hom"],
    ["Breaking","NNP","break"],
    {
      "tag":"PERSON",
      "content":
      [
        ["Photos","NNP","photo"],
        ["Video","NNP","video"]
      ]
    },
    ["Crime","NNP","crim"],
    ["Obituaries","NNPS","obitu"],
    {
      "tag":"PERSON",
      "content":
      [
        ["Weather","NNP","weath"],
        ["Traffic","NNP","traff"],
        ["Crosswords","NNP","crossword"],
        ["Sudoku","NNP","sudoku"],
        ["Horoscopes","NNP","horoscop"],
        ["Apps","NNP","ap"],
        ["Local","NNP","loc"]
      ]
    },
    ["L.A.","NNP","l.a."],
    ["Now","NNP","now"],
    ["Politics","NNP","polit"],
    ["Crime","NNP","crim"],
    ["Education","NNP","educ"],
    ["O.C","NNP","o.c"],
    [".",".","."]
  ]
},
{
  "tag":"S",
  "content":
  [
    {
      "tag":"GPE",
      "content":
      [
        ["Westside","NNP","westsid"]
      ]
    },
    {
      "tag":"ORGANIZATION",
      "content":
      [
        ["Neighborhoods","NNP","neighb"],
        ["Environment","NNP","environ"],
        ["Data","NNP","dat"]
      ]
    },
    ["&","CC","&"],
    {
      "tag":"PERSON",
      "content":
      [
        ["Maps","NNP","map"],
        ["Local","NNP","loc"],
        ["Plus","NNP","plu"],
        ["U.S","NNP","u.s"]
      ]
    },
    [".",".","."]
  ]
},
{
  "tag":"S",
  "content":
  [
    ["Politics","NNS","polit"],
    {
      "tag":"PERSON",
      "content":
      [
        ["Nation","NNP","nat"],
        ["Now","NNP","now"],
        ["Politics","NNP","polit"],
        ["Now","NNP","now"],
        ["Top","NNP","top"]
      ]
    },
    ["of","IN","of"],
    ["the","DT","the"],
    {
      "tag":"ORGANIZATION",
      "content":
      [
        ["Ticket","NNP","ticket"],
        ["Science","NNP","sci"],
        ["Science","NNP","sci"],
        ["Now","NNP","now"],
        ["Obituaries","NNPS","obitu"],
        ["Religion","NNP","relig"]
      ]
    },
    ["World","NNP","world"],
    ["World","NNP","world"],
    ["Now","NNP","now"],
    ["Afghanistan","NNP","afgh"],
    ["war","NN","war"],
    {
      "tag":"PERSON",
      "content":
      [
        ["Africa","NNP","afric"],
        ["Americas","NNP","america"],
        ["Asia","NNP","as"],
        ["Europe","NNP","europ"],
        ["Middle","NNP","middl"],
        ["East","NNP","east"],
        ["Business","NNP","busy"],
        ["Money","NNP","money"]
      ]
    },
    ["&","CC","&"],
    ["Co.","NNP","co."],
    ["Technology","NNP","technolog"],
    ["Highway","NNP","highway"],
    ["1","CD","1"],
    {
      "tag":"ORGANIZATION",
      "content":
      [
        ["Company","NNP","company"],
        ["Town","NNP","town"],
        ["Personal","NNP","person"],
        ["Finance","NNP","fin"],
        ["Jobs","NNP","job"],
        ["Real","NNP","real"],
        ["Estate","NNP","est"],
        ["Cars","NNP","car"],
        ["Business","NNP","busy"],
        ["Plus","NNP","plu"],
        ["Sports","NNP","sport"]
      ]
    },
    ["Sports","NNP","sport"],
    ["now","RB","now"],
    {
      "tag":"ORGANIZATION",
      "content":
      [
        ["Lakers","NNP","lak"],
        ["Clippers","NNP","clip"],
        ["Dodgers","NNP","dodg"],
        ["Angels","NNP","angel"]
      ]
    },
    ["NFL","NNP","nfl"],
    ["Kings","NNP","king"],
    ["NHL/Ducks","NNP","nhl/ducks"],
    ["USC","NNP","usc"],
    ["UCLA","NNP","ucl"],
    ["Preps","NNP","prep"],
    {
      "tag":"PERSON",
      "content":
      [
        ["Scores","NNP","scor"],
        ["Entertainment","NNP","entertain"],
        ["Awards","NNP","award"]
      ]
    },
    [":",":",":"],
    ["The","DT","The"],
    {
      "tag":"ORGANIZATION",
      "content":
      [
        ["Envelope","NNP","envelop"],
        ["Movies","NNP","movy"]
      ]
    },
    ["TV","NNP","tv"],
    {
      "tag":"PERSON",
      "content":
      [
        ["Music","NNP","mus"],
        ["Celebrity","NNP","celebr"],
        ["Arts","NNP","art"]
      ]
    },
    ["&","CC","&"],
    {
      "tag":"PERSON",
      "content":
      [
        ["Culture","NNP","cult"],
        ["Industry","NNP","industry"],
        ["Critics","NNP","crit"]
      ]
    },
    ["'","POS","'"],
    {
      "tag":"PERSON",
      "content":
      [
        ["Picks","NNP","pick"],
        ["Ent","NNP","ent"],
        ["Plus","NNP","plu"],
        ["Health","NNP","heal"],
        ["Science","NNP","sci"],
        ["Now","NNP","now"],
        ["Medicine","NNP","medicin"],
        ["Fitness","NNP","fit"]
      ]
    },
    ["&","CC","&"],
    {
      "tag":"PERSON",
      "content":
      [
        ["Nutrition","NNP","nutrit"],
        ["Mental","NNP","ment"],
        ["Health","NNP","heal"],
        ["Healthcare","NNP","healthc"],
        ["Mind","NNP","mind"]
      ]
    },
    ["&","CC","&"],
    {
      "tag":"PERSON",
      "content":
      [
        ["Body","NNP","body"],
        ["Health","NNP","heal"],
        ["Plus","NNP","plu"],
        ["Style","NNP","styl"],
        ["Home","NNP","hom"],
        ["Food","NNP","food"],
        ["Fashion","NNP","fash"],
        ["Books","NNP","book"]
      ]
    },
    ["L.A.","NNP","l.a."],
    ["Affairs","NNP","affair"],
    ["Comics","NNP","com"],
    ["Reader","NNP","read"],
    {
      "tag":"PERSON",
      "content":
      [
        ["Photos","NNP","photo"],
        ["Living","NNP","liv"],
        ["Plus","NNP","plu"],
        ["Travel","NNP","travel"]
      ]
    },
    {
      "tag":"ORGANIZATION",
      "content":
      [
        ["SoCal","NNP","soc"],
        ["California","NNP","californ"],
        ["Mexico","NNP","mexico"],
        ["Hawaii","NNP","hawai"],
        ["Las","NNP","las"],
        ["Vegas","NNP","vega"],
        ["Europe","NNP","europ"],
        ["Asia","NNP","as"],
        ["Australia","NNP","austral"],
        ["Travel","NNP","travel"]
      ]
    },
    ["&","CC","&"],
    {
      "tag":"PERSON",
      "content":
      [
        ["Deal","NNP","deal"],
        ["Blog","NNP","blog"],
        ["Travel","NNP","travel"],
        ["Plus","NNP","plu"],
        ["Opinion","NNP","opin"],
        ["Editorials","NNP","edit"]
      ]
    },
    ["Op-Ed","NNP","op-ed"],
    ["Letters","NNP","let"],
    ["Opinion","NNP","opin"],
    ["L.A.","NNP","l.a."],
    ["Top","NNP","top"],
    ["of","IN","of"],
    ["the","DT","the"],
    {
      "tag":"ORGANIZATION",
      "content":
      [
        ["Ticket","NNP","ticket"],
        ["Readers","NNP","read"]
      ]
    },
    ["'","POS","'"],
    ["Rep","NNP","rep"],
    ["Shop","NNP","shop"],
    {
      "tag":"PERSON",
      "content":
      [
        ["Daily","NNP","dai"],
        ["Deals","NNP","deal"],
        ["Travel","NNP","travel"]
      ]
    },
    ["Offers","NNP","off"],
    ["Weekly","NNP","week"],
    {
      "tag":"PERSON",
      "content":
      [
        ["Circulars","NNP","circul"],
        ["Offers","NNP","off"]
      ]
    },
    ["&","CC","&"],
    {
      "tag":"PERSON",
      "content":
      [
        ["Deals","NNP","deal"],
        ["Sports","NNP","sport"],
        ["Gear","NNP","gear"],
        ["LA","NNP","la"],
        ["Times","NNP","tim"],
        ["Product","NNP","produc"],
        ["See","NNP","see"],
        ["More","NNP","mor"]
      ]
    },
    ["Member","NNP","memb"],
    ["Center","NNP","cent"],
    {
      "tag":"PERSON",
      "content":
      [
        ["Alerts","NNP","alert"]
      ]
    },
    ["&","CC","&"],
    {
      "tag":"ORGANIZATION",
      "content":
      [
        ["Newsletters","NNP","newslet"],
        ["Jobs","NNP","job"],
        ["Cars","NNP","car"],
        ["Real","NNP","real"],
        ["Estate","NNP","est"],
        ["Rentals","NNP","rent"],
        ["Weekly","NNP","week"],
        ["Circulars","NNP","circul"],
        ["Local","NNP","loc"]
      ]
    },
    ["Directory","NNP","direct"],
    ["Place","NNP","plac"],
    ["Ad","NNP","ad"],
    ["TRENDING","NNP","trend"],
    ["NOW","NNP","now"],
    ["Government","NNP","govern"],
    ["shutdown","NN","shutdown"],
    ["dodgers","NNS","dodg"],
    ["iran","VBP","ir"],
    ["dry","JJ","dry"],
    ["ice","NN","ic"],
    ["bombs","NNS","bomb"],
    ["Earthquakes","VBZ","earthquak"],
    ["maryville","JJ","maryvil"],
    ["rape","NN","rap"],
    ["/*OVERWRITES*/","NN","/*overwrites*/"],
    [".adv_search","NN",".adv_search"],
    ["{",":","{"],
    ["background-color","JJ","background-color"],
    [":",":",":"],
    ["#","#","#"],
    ["fff","NN","fff"],
    [";",":",";"],
    ["}",":","}"],
    ["#","#","#"],
    {
      "tag":"ORGANIZATION",
      "content":
      [
        ["adv_search","NNP","adv_search"]
      ]
    },
    ["{","NNP","{"],
    ["background-color","NNP","background-color"],
    [":",":",":"],
    ["#","#","#"],
    ["eee","NN","ee"],
    [";",":",";"],
    ["}",":","}"],
    ["#","#","#"],
    {
      "tag":"ORGANIZATION",
      "content":
      [
        ["adv_search","NNP","adv_search"]
      ]
    },
    [".adv_search_head","NNP",".adv_search_head"],
    [",",",",","],
    ["#","#","#"],
    {
      "tag":"ORGANIZATION",
      "content":
      [
        ["adv_help","NNP","adv_help"]
      ]
    },
    [".adv_search_head","NNP",".adv_search_head"],
    ["{","NNP","{"],
    ["background-color","NNP","background-color"],
    [":",":",":"],
    ["#","#","#"],
    ["000","CD","000"],
    [";",":",";"],
    ["}",":","}"],
    ["#","#","#"],
    {
      "tag":"ORGANIZATION",
      "content":
      [
        ["search_overlay","NNP","search_overlay"]
      ]
    },
    ["{","NNP","{"],
    ["background-color","NNP","background-color"],
    [":",":",":"],
    ["#","#","#"],
    ["eee","NN","ee"],
    [";",":",";"],
    ["}",":","}"],
    ["#","#","#"],
    ["search-results","NNS","search-results"],
    ["ul.advTabs","-NONE-","ul.advTabs"],
    ["{",":","{"],
    ["background-color","JJ","background-color"],
    [":",":",":"],
    ["#","#","#"],
    ["000","CD","000"],
    [";",":",";"],
    ["}",":","}"],
    ["#","#","#"],
    ["search-results","NNS","search-results"],
    ["ul.advTabs","-NONE-","ul.advTabs"],
    ["li","VBP","li"],
    ["a","DT","a"],
    ["{","NN","{"],
    ["background-color","NN","background-color"],
    [":",":",":"],
    ["#","#","#"],
    ["000","CD","000"],
    [";",":",";"],
    ["}",":","}"],
    ["#","#","#"],
    ["search-results","NNS","search-results"],
    ["ul.advTabs","-NONE-","ul.advTabs"],
    ["li.advCurrTab","JJ","li.advcurrtab"],
    ["a","DT","a"],
    ["{","NN","{"],
    ["background-color","NN","background-color"],
    [":",":",":"],
    ["#","#","#"],
    ["fff","NN","fff"],
    [";",":",";"],
    ["color","NN","col"],
    [":",":",":"],
    ["#","#","#"],
    ["000","CD","000"],
    [";",":",";"],
    ["}",":","}"],
    ["div.panelTab","JJ","div.paneltab"],
    ["{","NN","{"],
    ["background","NN","background"],
    [":",":",":"],
    ["url","NN","url"],
    ["(",":","("],
    ["``","``","``"],
    ["/images/adv_search/adv_panel_bg.png","JJ","/images/adv_search/adv_panel_bg.png"],
    ["''","''","''"],
    [")",":",")"],
    ["no-repeat","JJ","no-repeat"],
    [";",":",";"],
    ["}",":","}"],
    ["#","#","#"],
    {
      "tag":"ORGANIZATION",
      "content":
      [
        ["adv_keywords_head","NNP","adv_keywords_head"]
      ]
    },
    ["{","NNP","{"],
    ["background-color","NNP","background-color"],
    [":",":",":"],
    ["#","#","#"],
    ["000","CD","000"],
    [";",":",";"],
    ["}",":","}"],
    ["#","#","#"],
    ["adv_results","NNS","adv_results"],
    [".clearfix","-NONE-",".clearfix"],
    ["{",":","{"],
    ["display","NN","display"],
    [":",":",":"],
    ["block","NN","block"],
    [";",":",";"],
    ["}",":","}"],
    {
      "tag":"PERSON",
      "content":
      [
        ["Advanced","NNP","adv"],
        ["Search","NNP","search"],
        ["Advanced","NNP","adv"],
        ["Search","NNP","search"]
      ]
    },
    ["X","NNP","x"],
    ["include","VBP","includ"],
    ["all","DT","all"],
    ["of","IN","of"],
    ["these","DT","these"],
    ["words","NNS","word"],
    [":",":",":"],
    ["include","VBP","includ"],
    ["any","DT","any"],
    ["of","IN","of"],
    ["these","DT","these"],
    ["words","NNS","word"],
    [":",":",":"],
    ["include","VBP","includ"],
    ["this","DT","this"],
    ["exact","NN","exact"],
    ["phrase","NN","phrase"],
    [":",":",":"],
    ["exclude","NN","exclud"],
    [":",":",":"],
    ["Select","JJ","select"],
    ["a","DT","a"],
    ["date","NN","dat"],
    ["range","NN","rang"],
    ["this","DT","this"],
    ["week","NN","week"],
    ["past","NN","past"],
    ["30","CD","30"],
    ["days","NNS","day"],
    ["past","JJ","past"],
    ["3","CD","3"],
    ["months","NNS","mon"],
    ["past","JJ","past"],
    ["year","NN","year"],
    ["Create","NNP","cre"],
    ["a","DT","a"],
    ["custom","NN","custom"],
    ["date","NN","dat"],
    ["range","NN","rang"],
    ["From","IN","From"],
    [":",":",":"],
    ["To","TO","To"],
    [":",":",":"],
    ["The","DT","The"],
    {
      "tag":"ORGANIZATION",
      "content":
      [
        ["Reading","NNP","read"],
        ["Life","NNP","lif"],
        ["Why","NNP","why"],
        ["Kafka","NNP","kafk"],
        ["Matters","NNP","mat"]
      ]
    },
    ["Comments","NNP","com"],
    ["3","CD","3"],
    ["A","DT","A"],
    ["young","JJ","young"],
    {
      "tag":"PERSON",
      "content":
      [
        ["Franz","NNP","franz"],
        ["Kafka","NNP","kafk"]
      ]
    },
    [",",",",","],
    ["author","NN","auth"],
    ["of","IN","of"],
    ["``","``","``"],
    ["The","DT","The"],
    {
      "tag":"ORGANIZATION",
      "content":
      [
        ["Metamorphosis","NNP","metamorphos"]
      ]
    },
    [",",",",","],
    ["''","''","''"],
    ["``","``","``"],
    ["The","DT","The"],
    ["Trial","NNP","tri"],
    ["''","''","''"],
    ["and","CC","and"],
    ["other","JJ","oth"],
    ["works","NNS","work"],
    [".",".","."]
  ]
},
{
  "tag":"S",
  "content":
  [
    ["(","NN","("],
    {
      "tag":"ORGANIZATION",
      "content":
      [
        ["Los","NNP","los"],
        ["Angeles","NNP","angel"],
        ["Times","NNP","tim"]
      ]
    },
    ["/","NNP","/"],
    ["Handout","NNP","handout"],
    ["/","NNP","/"],
    ["June","NNP","jun"],
    ["23","CD","23"],
    [",",",",","],
    ["2013","CD","2013"],
    [")",":",")"],
    ["By","IN","By"],
    {
      "tag":"PERSON",
      "content":
      [
        ["David","NNP","david"],
        ["L.","NNP","l."],
        ["Ulin","NNP","ulin"]
      ]
    },
    [",",",",","],
    {
      "tag":"GPE",
      "content":
      [
        ["Los","NNP","los"],
        ["Angeles","NNP","angel"]
      ]
    },
    ["Times","NNP","tim"],
    ["Book","NNP","book"],
    ["Critic","NNP","crit"],
    ["June","NNP","jun"],
    ["24","CD","24"],
    [",",",",","],
    ["2013","CD","2013"],
    [",",",",","],
    ["2:18","CD","2:18"],
    ["p.m","RB","p.m"],
    [".",".","."]
  ]
},
{
  "tag":"S",
  "content":
  [
    ["In","IN","In"],
    ["the","DT","the"],
    ["July/August","JJ","july/august"],
    ["issue","NN","issu"],
    ["of","IN","of"],
    ["the","DT","the"],
    {
      "tag":"ORGANIZATION",
      "content":
      [
        ["Atlantic","NNP","atl"]
      ]
    },
    [",",",",","],
    {
      "tag":"PERSON",
      "content":
      [
        ["Joseph","NNP","joseph"],
        ["Epstein","NNP","epstein"]
      ]
    },
    ["uses","VBZ","us"],
    ["the","DT","the"],
    ["release","NN","releas"],
    ["of","IN","of"],
    {
      "tag":"PERSON",
      "content":
      [
        ["Saul","NNP","saul"]
      ]
    },
    ["Friedlander’s","NNP","friedlander’s"],
    ["book","NN","book"],
    ["“Franz","-NONE-","“Franz"],
    ["Kafka","NNP","kafk"],
    [":",":",":"],
    ["The","DT","The"],
    {
      "tag":"ORGANIZATION",
      "content":
      [
        ["Poet","NNP","poet"]
      ]
    },
    ["of","IN","of"],
    {
      "tag":"GPE",
      "content":
      [
        ["Shame","NNP","sham"]
      ]
    },
    ["and","CC","and"],
    {
      "tag":"PERSON",
      "content":
      [
        ["Guilt","NNP","guilt"]
      ]
    },
    ["''","''","''"],
    ["to","TO","to"],
    ["pose","VB","pos"],
    ["the","DT","the"],
    ["larger","JJR","larg"],
    ["question","NN","quest"],
    ["of","IN","of"],
    ["whether","IN","whether"],
    {
      "tag":"PERSON",
      "content":
      [
        ["Kafka","NNP","kafk"]
      ]
    },
    ["is","VBZ","be"],
    ["still","RB","stil"],
    ["relevant","JJ","relev"],
    [".",".","."]
  ]
},
{
  "tag":"S",
  "content":
  [
    ["“Great","JJ","“great"],
    ["writers","NNS","writ"],
    ["are","VBP","be"],
    ["impressed","VBN","impress"],
    ["by","IN","by"],
    ["the","DT","the"],
    ["mysteries","NNS","mystery"],
    ["of","IN","of"],
    ["life","NN","lif"],
    [";",":",";"],
    ["poor","JJ","poor"],
    {
      "tag":"PERSON",
      "content":
      [
        ["Franz","NNP","franz"],
        ["Kafka","NNP","kafk"]
      ]
    },
    ["was","VBD","be"],
    ["crushed","VBN","crush"],
    ["by","IN","by"],
    ["them","PRP","them"],
    [",",",",","],
    ["”","VBP","”"],
    ["he","PRP","he"],
    ["observes","VBZ","observ"],
    [",",",",","],
    ["noting","VBG","not"],
    ["that","IN","that"],
    ["“Kafka’s","JJ","“kafka’s"],
    ["small","JJ","smal"],
    ["body","NN","body"],
    ["of","IN","of"],
    ["work","NN","work"],
    [",",",",","],
    ["which","WDT","which"],
    ["includes","VBZ","includ"],
    ["three","CD","three"],
    ["uncompleted","VBN","uncomplet"],
    ["novels","NNS","novel"],
    [",",",",","],
    ["some","DT","some"],
    ["two","CD","two"],
    ["dozen","NNS","doz"],
    ["substantial","JJ","subst"],
    ["short","JJ","short"],
    ["stories","NNS","story"],
    [",",",",","],
    ["an","DT","an"],
    ["assemblage","NN","assembl"],
    ["of","IN","of"],
    ["parables","NNS","par"],
    ["and","CC","and"],
    ["fragment-like","JJ","fragment-like"],
    ["shorter","NN","short"],
    ["works","NNS","work"],
    [",",",",","],
    ["diaries","NNS","diary"],
    [",",",",","],
    ["collections","NNS","collect"],
    ["of","IN","of"],
    ["letters","NNS","let"],
    ["(",":","("],
    ["many","JJ","many"],
    ["to","TO","to"],
    ["lovers","NNS","lov"],
    ["whom","WP","whom"],
    ["he","PRP","he"],
    ["never","RB","nev"],
    ["married","VBD","marry"],
    [")",":",")"],
    [",",",",","],
    ["and","CC","and"],
    ["the","DT","the"],
    ["famous","JJ","fam"],
    ["‘Letter","NN","‘letter"],
    ["to","TO","to"],
    ["His","NNP","his"],
    ["Father","NNP","fath"],
    [",",",",","],
    ["’”","NNP","’”"],
    ["represents","VBZ","repres"],
    ["an","DT","an"],
    ["achievement","NN","achiev"],
    ["so","IN","so"],
    ["insular","JJ","insul"],
    ["that","IN","that"],
    ["it","PRP","it"],
    ["“","VBP","“"],
    ["can","MD","can"],
    ["not","RB","not"],
    ["be","VB","be"],
    ["either","RB","eith"],
    ["explained","VBN","explain"],
    ["or","CC","or"],
    ["judged","VBN","judg"],
    ["in","IN","in"],
    ["the","DT","the"],
    ["same","JJ","sam"],
    ["way","NN","way"],
    ["as","IN","as"],
    ["other","JJ","oth"],
    ["literary","JJ","lit"],
    ["artists.”","NN","artists.”"],
    ["What","WP","What"],
    ["this","DT","this"],
    ["means","VBZ","mean"],
    [",",",",","],
    {
      "tag":"PERSON",
      "content":
      [
        ["Epstein","NNP","epstein"]
      ]
    },
    ["goes","VBZ","go"],
    ["on","IN","on"],
    [",",",",","],
    ["is","VBZ","be"],
    ["that","IN","that"],
    [",",",",","],
    ["in","IN","in"],
    ["Kafka’s","NNP","kafka’s"],
    ["universe","NN","univers"],
    [",",",",","],
    ["“illogic","JJ","“illogic"],
    ["becomes","NNS","becom"],
    ["plausible","JJ","plaus"],
    [",",",",","],
    ["guilt","NN","guilt"],
    ["goes","VBZ","go"],
    ["unexplained","VBN","unexplain"],
    [",",",",","],
    ["and","CC","and"],
    ["brutal","JJ","brut"],
    ["punishment","NN","pun"],
    ["is","VBZ","be"],
    ["doled","VBN","dol"],
    ["out","RP","out"],
    ["for","IN","for"],
    ["no","DT","no"],
    ["known","NN","known"],
    ["offense.”","-NONE-","offense.”"],
    ["Let","NNP","let"],
    ["me","PRP","me"],
    ["offer","VBP","off"],
    ["a","DT","a"],
    ["dissenting","VBG","diss"],
    ["view","NN","view"],
    [":",":",":"],
    ["The","DT","The"],
    ["guilt","NN","guilt"],
    ["and","CC","and"],
    ["punishment","NN","pun"],
    ["in","IN","in"],
    ["Kafka’s","NNP","kafka’s"],
    ["writing","NN","writ"],
    ["are","VBP","be"],
    ["so","RB","so"],
    ["pervasive","JJ","pervas"],
    ["because","IN","because"],
    ["they","PRP","they"],
    ["are","VBP","be"],
    ["often","RB","oft"],
    ["that","IN","that"],
    ["way","NN","way"],
    ["in","IN","in"],
    ["contemporary","JJ","contemp"],
    ["life","NN","lif"],
    [".",".","."]
  ]
},
{
  "tag":"S",
  "content":
  [
    {
      "tag":"PERSON",
      "content":
      [
        ["Kafka","NNP","kafk"]
      ]
    },
    ["understood","VBD","understand"],
    ["this","DT","this"],
    [",",",",","],
    ["just","RB","just"],
    ["as","IN","as"],
    ["he","PRP","he"],
    ["understood","VBD","understand"],
    ["that","IN","that"],
    ["none","NN","non"],
    ["of","IN","of"],
    ["us","PRP","us"],
    [",",",",","],
    ["regardless","RB","regardless"],
    ["of","IN","of"],
    ["intentions","NNS","int"],
    [",",",",","],
    ["are","VBP","be"],
    ["ever","RB","ev"],
    ["wholly","RB","whol"],
    ["innocent","JJ","innoc"],
    [".",".","."]
  ]
},
{
  "tag":"S",
  "content":
  [
    ["Just","RB","just"],
    ["look","VBP","look"],
    ["at","IN","at"],
    {
      "tag":"ORGANIZATION",
      "content":
      [
        ["“The","NNP","“the"]
      ]
    },
    ["Trial”’s","NNP","trial”’s"],
    {
      "tag":"PERSON",
      "content":
      [
        ["Josef","NNP","josef"],
        ["K.","NNP","k."]
      ]
    },
    [",",",",","],
    ["both","DT","both"],
    ["victim","NN","victim"],
    ["and","CC","and"],
    ["collaborator","NN","collab"],
    [",",",",","],
    ["or","CC","or"],
    ["poor","JJ","poor"],
    {
      "tag":"PERSON",
      "content":
      [
        ["Gregor","NNP","greg"],
        ["Samsa","NNP","sams"]
      ]
    },
    [",",",",","],
    ["who","WP","who"],
    [",",",",","],
    ["as","IN","as"],
    ["“The","JJ","“the"],
    ["Metamorphosis”","NN","metamorphosis”"],
    ["begins","VBZ","begin"],
    [",",",",","],
    ["“awoke","JJ","“awoke"],
    ["one","CD","one"],
    ["morning","NN","morn"],
    ["from","IN","from"],
    ["uneasy","JJ","uneasy"],
    ["dreams”","NN","dreams”"],
    ["to","TO","to"],
    ["find","VB","find"],
    ["himself","PRP","himself"],
    ["“transformed","JJ","“transformed"],
    ["in","IN","in"],
    ["his","PRP$","his"],
    ["bed","VBN","bed"],
    ["into","IN","into"],
    ["a","DT","a"],
    ["gigantic","JJ","gig"],
    ["insect.”","NN","insect.”"],
    ["I","PRP","I"],
    ["love","VBP","lov"],
    ["“The","JJ","“the"],
    ["Metamorphosis”","NN","metamorphosis”"],
    [";",":",";"],
    ["it’s","JJ","it’s"],
    ["one","CD","one"],
    ["of","IN","of"],
    ["my","PRP$","my"],
    ["favorite","JJ","favorit"],
    ["works","NNS","work"],
    ["of","IN","of"],
    ["literature","NN","lit"],
    [",",",",","],
    ["because","IN","because"],
    ["of","IN","of"],
    ["the","DT","the"],
    ["way","NN","way"],
    {
      "tag":"PERSON",
      "content":
      [
        ["Kafka","NNP","kafk"]
      ]
    },
    ["personalizes","VBZ","person"],
    ["the","DT","the"],
    ["alienation","NN","aly"],
    [",",",",","],
    ["making","VBG","mak"],
    {
      "tag":"GPE",
      "content":
      [
        ["Gregor","NNP","greg"]
      ]
    },
    ["complicit","NN","complicit"],
    ["in","IN","in"],
    ["his","PRP$","his"],
    ["fate","NN","fat"],
    [".",".","."]
  ]
},
{
  "tag":"S",
  "content":
  [
    ["He","PRP","He"],
    ["becomes","VBZ","becom"],
    ["an","DT","an"],
    ["insect","NN","insect"],
    [",",",",","],
    ["after","IN","after"],
    ["all","DT","all"],
    [",",",",","],
    ["because","IN","because"],
    ["he","PRP","he"],
    ["is","VBZ","be"],
    ["already","RB","already"],
    ["an","DT","an"],
    ["insect","NN","insect"],
    [",",",",","],
    ["scurrying","VBG","scurry"],
    ["from","IN","from"],
    ["train","NN","train"],
    ["to","TO","to"],
    ["train","VB","train"],
    [",",",",","],
    ["town","NN","town"],
    ["to","TO","to"],
    ["town","VB","town"],
    [",",",",","],
    ["supporting","VBG","support"],
    ["a","DT","a"],
    ["family","NN","famy"],
    ["that","WDT","that"],
    ["takes","VBZ","tak"],
    ["advantage","NN","adv"],
    ["of","IN","of"],
    ["him","PRP","him"],
    [",",",",","],
    ["as","IN","as"],
    ["we","PRP","we"],
    ["see","VBP","see"],
    ["once","RB","ont"],
    ["he","PRP","he"],
    ["is","VBZ","be"],
    ["afflicted","VBN","afflict"],
    ["and","CC","and"],
    ["they","PRP","they"],
    ["must","MD","must"],
    ["care","VB","car"],
    ["for","IN","for"],
    ["themselves","PRP","themselves"],
    [".",".","."]
  ]
},
{
  "tag":"S",
  "content":
  [
    ["Gregor’s","NNS","gregor’s"],
    ["disaffection","NN","disaffect"],
    ["is","VBZ","be"],
    [",",",",","],
    ["in","IN","in"],
    ["some","DT","some"],
    ["sense","NN","sens"],
    [",",",",","],
    ["the","DT","the"],
    ["disaffection","NN","disaffect"],
    ["of","IN","of"],
    ["anyone","NN","anyon"],
    ["who","WP","who"],
    ["has","VBZ","hav"],
    ["ever","RB","ev"],
    ["been","VBN","be"],
    ["in","IN","in"],
    ["his","PRP$","his"],
    ["position","NN","posit"],
    ["—",":","—"],
    ["unthanked","VBD","unthank"],
    [",",",",","],
    ["taken","VBN","tak"],
    ["advantage","NN","adv"],
    ["of","IN","of"],
    [",",",",","],
    ["overworked","VBN","overwork"],
    ["—","-NONE-","—"],
    ["and","CC","and"],
    ["yet","RB","yet"],
    [",",",",","],
    ["it","PRP","it"],
    ["is","VBZ","be"],
    ["also","RB","also"],
    ["his","PRP$","his"],
    ["fault","NN","fault"],
    [".",".","."]
  ]
},
{
  "tag":"S",
  "content":
  [
    ["For","IN","For"],
    ["me","PRP","me"],
    [",",",",","],
    ["this","DT","this"],
    ["is","VBZ","be"],
    ["the","DT","the"],
    ["key","JJ","key"],
    ["lesson","NN","lesson"],
    ["of","IN","of"],
    ["Kafka’s","JJ","kafka’s"],
    ["writing","NN","writ"],
    [",",",",","],
    ["that","IN","that"],
    ["we","PRP","we"],
    ["are","VBP","be"],
    ["all","RB","al"],
    ["responsible","JJ","respons"],
    ["for","IN","for"],
    ["our","PRP$","our"],
    ["own","JJ","own"],
    ["fates","NNS","fat"],
    [".",".","."]
  ]
},
{
  "tag":"S",
  "content":
  [
    ["It’s","NNS","it’s"],
    ["a","DT","a"],
    ["starkly","RB","stark"],
    ["existential","JJ","ex"],
    ["position","NN","posit"],
    ["that","WDT","that"],
    ["is","VBZ","be"],
    ["also","RB","also"],
    ["a","DT","a"],
    ["quintessentially","RB","quintess"],
    ["modern","JJ","modern"],
    ["point-of-view","JJ","point-of-view"],
    [".",".","."]
  ]
},
{
  "tag":"S",
  "content":
  [
    {
      "tag":"PERSON",
      "content":
      [
        ["Epstein","NNP","epstein"]
      ]
    },
    ["makes","VBZ","mak"],
    ["a","DT","a"],
    ["lot","NN","lot"],
    ["out","IN","out"],
    ["of","IN","of"],
    ["the","DT","the"],
    ["narrowness","NN","narrow"],
    ["of","IN","of"],
    ["Kafka’s","JJ","kafka’s"],
    ["writing","NN","writ"],
    [",",",",","],
    ["suggesting","VBG","suggest"],
    ["that","IN","that"],
    ["his","PRP$","his"],
    ["work","NN","work"],
    ["adds","VBZ","ad"],
    ["up","RP","up"],
    ["to","TO","to"],
    ["little","JJ","littl"],
    ["more","JJR","mor"],
    ["than","IN","than"],
    ["“the","JJ","“the"],
    ["sad","NN","sad"],
    ["story","NN","story"],
    ["of","IN","of"],
    ["a","DT","a"],
    ["lost","NN","lost"],
    ["soul","NN","soul"],
    ["destroyed","VBD","destroy"],
    ["by","IN","by"],
    ["modern","JJ","modern"],
    ["life.”","NN","life.”"],
    ["I","PRP","I"],
    ["agree","VBP","agr"],
    ["that","IN","that"],
    ["his","PRP$","his"],
    ["books","NNS","book"],
    ["are","VBP","be"],
    ["highly","RB","high"],
    ["autobiographical","JJ","autobiograph"],
    ["(","NN","("],
    ["if","IN","if"],
    ["by","IN","by"],
    ["autobiographical","JJ","autobiograph"],
    [",",",",","],
    ["we","PRP","we"],
    ["mean","VBP","mean"],
    ["that","IN","that"],
    ["they","PRP","they"],
    ["trace","VBP","trac"],
    ["the","DT","the"],
    ["parameters","NNS","paramet"],
    ["of","IN","of"],
    ["the","DT","the"],
    ["writer’s","JJ","writer’s"],
    ["inner","NN","in"],
    ["life","NN","lif"],
    [")",":",")"],
    [",",",",","],
    ["but","CC","but"],
    ["the","DT","the"],
    ["miracle","NN","mirac"],
    ["of","IN","of"],
    ["them","PRP","them"],
    ["is","VBZ","be"],
    ["that","IN","that"],
    ["they","PRP","they"],
    ["manage","VBP","man"],
    ["to","TO","to"],
    ["reach","VB","reach"],
    ["out","RP","out"],
    [",",",",","],
    ["somehow","RB","somehow"],
    [",",",",","],
    ["to","TO","to"],
    ["connect","VB","connect"],
    ["to","TO","to"],
    ["our","PRP$","our"],
    ["isolation","NN","isol"],
    [",",",",","],
    ["to","TO","to"],
    ["reflect","VB","reflect"],
    ["emotions","NNS","emot"],
    ["that","WDT","that"],
    ["emerge","NN","emerg"],
    ["in","IN","in"],
    ["all","DT","all"],
    ["of","IN","of"],
    ["us","PRP","us"],
    [".",".","."]
  ]
},
{
  "tag":"S",
  "content":
  [
    ["“My","JJ","“my"],
    ["conception","NN","conceiv"],
    ["of","IN","of"],
    ["a","DT","a"],
    ["novel","NN","novel"],
    ["is","VBZ","be"],
    ["that","IN","that"],
    ["it","PRP","it"],
    ["ought","MD","ought"],
    ["to","TO","to"],
    ["be","VB","be"],
    ["a","DT","a"],
    ["personal","JJ","person"],
    ["struggle","NN","struggle"],
    [",",",",","],
    ["a","DT","a"],
    ["direct","JJ","direct"],
    ["and","CC","and"],
    ["total","JJ","tot"],
    ["engagement","NN","eng"],
    ["with","IN","with"],
    ["the","DT","the"],
    ["author’s","NNS","author’s"],
    ["story","NN","story"],
    ["of","IN","of"],
    ["his","PRP$","his"],
    ["or","CC","or"],
    ["her","PRP$","her"],
    ["own","JJ","own"],
    ["life","NN","lif"],
    [",",",",","],
    ["”",":","”"],
    {
      "tag":"PERSON",
      "content":
      [
        ["Jonathan","NNP","jonath"],
        ["Franzen","NNP","franz"]
      ]
    },
    ["notes","VBZ","not"],
    ["in","IN","in"],
    ["his","PRP$","his"],
    ["essay","NN","essay"],
    ["“On","NN","“on"],
    {
      "tag":"PERSON",
      "content":
      [
        ["Autobiographical","NNP","autobiograph"]
      ]
    },
    ["Fiction.”","NNP","fiction.”"],
    ["“This","NNP","“this"],
    ["conception","NN","conceiv"],
    ["I","PRP","I"],
    ["take","VBP","tak"],
    ["from","IN","from"],
    {
      "tag":"GPE",
      "content":
      [
        ["Kafka","NNP","kafk"]
      ]
    },
    [",",",",","],
    ["who","WP","who"],
    [",",",",","],
    ["although","IN","although"],
    ["he","PRP","he"],
    ["was","VBD","be"],
    ["never","RB","nev"],
    ["transformed","VBN","transform"],
    ["into","IN","into"],
    ["an","DT","an"],
    ["insect","JJ","insect"],
    [",",",",","],
    ["and","CC","and"],
    ["although","IN","although"],
    ["he","PRP","he"],
    ["never","RB","nev"],
    ["had","VBD","hav"],
    ["a","DT","a"],
    ["piece","NN","piec"],
    ["of","IN","of"],
    ["food","NN","food"],
    ["(",":","("],
    ["an","DT","an"],
    ["apple","NN","appl"],
    ["from","IN","from"],
    ["his","PRP$","his"],
    ["family’s","NNS","family’s"],
    ["table","JJ","tabl"],
    ["!",".","!"]
  ]
},
{
  "tag":"S",
  "content":
  [
    [")","NN",")"],
    ["lodged","VBD","lodg"],
    ["in","IN","in"],
    ["his","PRP$","his"],
    ["flesh","NN","flesh"],
    ["and","CC","and"],
    ["rotting","VBG","rot"],
    ["there","RB","ther"],
    [",",",",","],
    ["devoted","VBN","devot"],
    ["his","PRP$","his"],
    ["whole","JJ","whol"],
    ["life","NN","lif"],
    ["as","IN","as"],
    ["a","DT","a"],
    ["writer","NN","writ"],
    ["to","TO","to"],
    ["describing","VBG","describ"],
    ["his","PRP$","his"],
    ["personal","JJ","person"],
    ["struggle","NN","struggle"],
    ["with","IN","with"],
    ["his","PRP$","his"],
    ["family","NN","famy"],
    [",",",",","],
    ["with","IN","with"],
    ["women","NNS","wom"],
    [",",",",","],
    ["with","IN","with"],
    ["moral","JJ","mor"],
    ["law","NN","law"],
    [",",",",","],
    ["with","IN","with"],
    ["his","PRP$","his"],
    ["Jewish","JJ","jew"],
    ["heritage","NN","herit"],
    [",",",",","],
    ["with","IN","with"],
    ["his","PRP$","his"],
    ["Unconscious","JJ","unconscy"],
    [",",",",","],
    ["with","IN","with"],
    ["his","PRP$","his"],
    ["sense","NN","sens"],
    ["of","IN","of"],
    ["guilt","NN","guilt"],
    [",",",",","],
    ["and","CC","and"],
    ["with","IN","with"],
    ["the","DT","the"],
    ["modern","JJ","modern"],
    ["world.”","NN","world.”"],
    {
      "tag":"PERSON",
      "content":
      [
        ["Franzen","NNP","franz"]
      ]
    },
    ["gets","VBZ","get"],
    ["it","PRP","it"],
    ["just","RB","just"],
    ["right","RB","right"],
    [",",",",","],
    ["the","DT","the"],
    ["heart","NN","heart"],
    ["of","IN","of"],
    ["Kafka’s","JJ","kafka’s"],
    ["project","NN","project"],
    [",",",",","],
    ["which","WDT","which"],
    ["is","VBZ","be"],
    ["to","TO","to"],
    ["interpose","VB","interpos"],
    ["that","IN","that"],
    ["inner","NN","in"],
    ["landscape","NN","landscap"],
    ["on","IN","on"],
    ["the","DT","the"],
    ["outer","NN","out"],
    ["world","NN","world"],
    [".",".","."]
  ]
},
{
  "tag":"S",
  "content":
  [
    ["Much","RB","much"],
    ["has","VBZ","hav"],
    ["been","VBN","be"],
    ["made","VBN","mak"],
    ["of","IN","of"],
    ["the","DT","the"],
    ["opening","VBG","op"],
    ["of","IN","of"],
    ["his","PRP$","his"],
    ["novel","NN","novel"],
    ["``","``","``"],
    ["Amerika","NNP","amerik"],
    ["''","''","''"],
    ["(",":","("],
    ["or","CC","or"],
    ["“The","JJ","“the"],
    ["Missing","NNP","miss"],
    ["Person”","NNP","person”"],
    [")","NNP",")"],
    [",",",",","],
    ["in","IN","in"],
    ["which","WDT","which"],
    ["a","DT","a"],
    ["young","JJ","young"],
    ["man","NN","man"],
    ["named","VBD","nam"],
    {
      "tag":"PERSON",
      "content":
      [
        ["Karl","NNP","karl"],
        ["Rossmann","NNP","rossman"]
      ]
    },
    ["arrives","VBZ","ar"],
    ["in","IN","in"],
    {
      "tag":"GPE",
      "content":
      [
        ["New","NNP","new"],
        ["York","NNP","york"]
      ]
    },
    ["harbor","NN","harb"],
    ["and","CC","and"],
    ["sees","NNS","see"],
    ["the","DT","the"],
    ["Statue","NNP","statu"],
    ["of","IN","of"],
    {
      "tag":"GPE",
      "content":
      [
        ["Liberty","NNP","liberty"]
      ]
    },
    [",",",",","],
    ["its","PRP$","its"],
    ["“arm","JJ","“arm"],
    ["with","IN","with"],
    ["the","DT","the"],
    ["sword","NN","sword"],
    ["now","RB","now"],
    ["reached","VBN","reach"],
    ["aloft.”","-NONE-","aloft.”"],
    ["What","WP","What"],
    ["do","VBP","do"],
    ["we","PRP","we"],
    ["make","VB","mak"],
    ["of","IN","of"],
    ["such","JJ","such"],
    ["an","DT","an"],
    ["image","NN","im"],
    ["?",".","?"]
  ]
},
{
  "tag":"S",
  "content":
  [
    ["Over","IN","Over"],
    ["the","DT","the"],
    ["years","NNS","year"],
    [",",",",","],
    ["it’s","JJ","it’s"],
    ["been","VBN","be"],
    ["explained","VBN","explain"],
    ["as","IN","as"],
    ["a","DT","a"],
    ["mistake","NN","mistak"],
    ["(",":","("],
    {
      "tag":"PERSON",
      "content":
      [
        ["Kafka","NNP","kafk"]
      ]
    },
    ["wrote","VBD","writ"],
    ["about","IN","about"],
    {
      "tag":"GPE",
      "content":
      [
        ["America","NNP","americ"]
      ]
    },
    ["without","IN","without"],
    ["ever","RB","ev"],
    ["having","VBG","hav"],
    ["been","VBN","be"],
    ["here","RB","her"],
    [")",":",")"],
    ["or","CC","or"],
    ["a","DT","a"],
    ["clue","NN","clu"],
    ["that","WDT","that"],
    ["we","PRP","we"],
    ["have","VBP","hav"],
    ["entered","VBN","ent"],
    ["the","DT","the"],
    ["territory","NN","territ"],
    ["of","IN","of"],
    ["a","DT","a"],
    ["dream","NN","dream"],
    [".",".","."]
  ]
},
{
  "tag":"S",
  "content":
  [
    ["For","IN","For"],
    ["me","PRP","me"],
    [",",",",","],
    ["however","RB","howev"],
    [",",",",","],
    ["it’s","JJ","it’s"],
    ["more","RBR","mor"],
    ["concrete","JJ","concret"],
    ["and","CC","and"],
    ["universal","NN","univers"],
    ["—",":","—"],
    ["a","DT","a"],
    ["metaphor","NN","metaph"],
    ["for","IN","for"],
    ["Karl’s","NNS","karl’s"],
    ["disassociation","NN","disassocy"],
    [";",":",";"],
    ["in","IN","in"],
    ["Kafka’s","NNP","kafka’s"],
    ["universe","NN","univers"],
    [",",",",","],
    ["even","RB","ev"],
    ["the","DT","the"],
    ["land","NN","land"],
    ["of","IN","of"],
    ["opportunity","NN","opportun"],
    ["comes","VBZ","com"],
    ["armed","VBN","arm"],
    ["with","IN","with"],
    ["a","DT","a"],
    ["sword","NN","sword"],
    [".",".","."]
  ]
},
{
  "tag":"S",
  "content":
  [
    ["There’s","NNS","there’s"],
    ["no","DT","no"],
    ["doubt","NN","doubt"],
    ["this","DT","this"],
    ["can","MD","can"],
    ["make","VB","mak"],
    ["for","IN","for"],
    ["heavy","JJ","heavy"],
    ["sledding","NN","sled"],
    [";",":",";"],
    {
      "tag":"PERSON",
      "content":
      [
        ["Kafka","NNP","kafk"]
      ]
    },
    ["is","VBZ","be"],
    ["not","RB","not"],
    [",",",",","],
    ["as","IN","as"],
    {
      "tag":"PERSON",
      "content":
      [
        ["Epstein","NNP","epstein"]
      ]
    },
    ["argues","NNS","argu"],
    [",",",",","],
    ["always","RB","alway"],
    ["(",":","("],
    ["or","CC","or"],
    ["even","RB","ev"],
    ["often","RB","oft"],
    [")",":",")"],
    ["fun","NN","fun"],
    ["to","TO","to"],
    ["read","VB","read"],
    [".",".","."]
  ]
},
{
  "tag":"S",
  "content":
  [
    ["But","CC","But"],
    ["that","DT","that"],
    ["suggests","VBZ","suggest"],
    ["a","DT","a"],
    ["misapprehension","NN","misapprehend"],
    ["about","IN","about"],
    ["why","WRB","why"],
    ["we","PRP","we"],
    ["read","VBP","read"],
    [",",",",","],
    ["or","CC","or"],
    ["at","IN","at"],
    ["least","JJS","least"],
    ["why","WRB","why"],
    ["I","PRP","I"],
    ["do","VBP","do"],
    [";",":",";"],
    ["I’m","JJ","i’m"],
    ["not","RB","not"],
    ["looking","VBG","look"],
    ["to","TO","to"],
    ["be","VB","be"],
    ["entertained","VBN","entertain"],
    [".",".","."]
  ]
},
{
  "tag":"S",
  "content":
  [
    ["I","PRP","I"],
    ["think","VBP","think"],
    {
      "tag":"PERSON",
      "content":
      [
        ["Epstein","NNP","epstein"]
      ]
    },
    ["misses","NNS","miss"],
    ["the","DT","the"],
    ["boat","JJ","boat"],
    ["on","IN","on"],
    ["Kafka’s","JJ","kafka’s"],
    ["humor","NN","hum"],
    [",",",",","],
    ["which","WDT","which"],
    ["is","VBZ","be"],
    ["subtle","RB","subtl"],
    [",",",",","],
    ["pointed","VBN","point"],
    [":",":",":"],
    ["There’s","JJ","there’s"],
    ["something","NN","someth"],
    ["bitterly","RB","bit"],
    ["comic","JJ","com"],
    ["about","IN","about"],
    {
      "tag":"PERSON",
      "content":
      [
        ["Josef","NNP","josef"]
      ]
    },
    ["K.’s","NNP","k.’s"],
    ["never-ending","NNP","never-ending"],
    ["slog","NN","slog"],
    ["through","IN","through"],
    ["the","DT","the"],
    ["legal","JJ","leg"],
    ["bureaucracy","NN","bureaucr"],
    [",",",",","],
    ["as","IN","as"],
    ["there","EX","there"],
    ["is","VBZ","be"],
    ["about","IN","about"],
    ["a","DT","a"],
    ["man","NN","man"],
    ["who","WP","who"],
    ["wakes","VBZ","wak"],
    ["up","RP","up"],
    ["as","RB","as"],
    ["a","DT","a"],
    ["bug","NN","bug"],
    [".",".","."]
  ]
},
{
  "tag":"S",
  "content":
  [
    ["More","JJR","mor"],
    ["to","TO","to"],
    ["the","DT","the"],
    ["point","NN","point"],
    [",",",",","],
    {
      "tag":"PERSON",
      "content":
      [
        ["Epstein","NNP","epstein"]
      ]
    },
    ["seems","VBZ","seem"],
    ["to","TO","to"],
    ["expect","VB","expect"],
    ["some","DT","some"],
    ["sort","NN","sort"],
    ["of","IN","of"],
    ["logical","JJ","log"],
    ["explanation","NN","expl"],
    ["for","IN","for"],
    ["a","DT","a"],
    ["universe","NN","univers"],
    ["that","WDT","that"],
    ["is","VBZ","be"],
    ["by","IN","by"],
    ["its","PRP$","its"],
    ["nature","NN","nat"],
    ["devoid","VBD","devoid"],
    ["of","IN","of"],
    ["logic","NN","log"],
    [",",",",","],
    ["which","WDT","which"],
    ["is","VBZ","be"],
    ["how","WRB","how"],
    {
      "tag":"PERSON",
      "content":
      [
        ["Kafka","NNP","kafk"]
      ]
    },
    ["saw","VBD","saw"],
    ["the","DT","the"],
    ["world","NN","world"],
    [".",".","."]
  ]
},
{
  "tag":"S",
  "content":
  [
    ["“For","JJ","“for"],
    ["a","DT","a"],
    ["man","NN","man"],
    ["who","WP","who"],
    ["claimed","VBN","claim"],
    ["to","TO","to"],
    ["be","VB","be"],
    ["under","IN","under"],
    ["the","DT","the"],
    ["lash","NN","lash"],
    ["of","IN","of"],
    ["a","DT","a"],
    ["tyrannical","JJ","tyran"],
    ["father","NN","fath"],
    [",",",",","],
    ["”",":","”"],
    ["he","PRP","he"],
    ["writes","VBZ","writ"],
    [",",",",","],
    ["“Kafka","NNP","“kafka"],
    ["neverthe","DT","neverthe"]
  ]
}]