[
{
  "tag":"S",
  "content":
  [
    {
      "tag":"GPE",
      "content":
      [
        ["Home","NN","hom"]
      ]
    },
    {
      "tag":"ORGANIZATION",
      "content":
      [
        ["Blogs","NNS","blog"],
        ["News","NNP","new"],
        ["Radio","NNP","radio"],
        ["Forums","NNP","forum"]
      ]
    },
    ["Directory","NNP","direct"],
    {
      "tag":"PERSON",
      "content":
      [
        ["Travel","NNP","travel"],
        ["Sport","NNP","sport"],
        ["Video","NNP","video"]
      ]
    },
    ["Enter","NNP","ent"],
    ["your","PRP$","your"],
    ["search","NN","search"],
    ["terms","NNS","term"],
    {
      "tag":"PERSON",
      "content":
      [
        ["Submit","NNP","submit"]
      ]
    },
    ["search","NN","search"],
    ["form","NN","form"],
    ["Web","NNP","web"],
    ["nazret.com","NNP","nazret.com"],
    ["nazret.comSportAddisFerengiCommentaryUraelPiazzaMerkatoBulletinworld","NNP","nazret.comsportaddisferengicommentaryuraelpiazzamerkatobulletinworld"],
    ["nazret.comThe","NNP","nazret.comthe"],
    ["first","RB","first"],
    {
      "tag":"PERSON",
      "content":
      [
        ["Ethiopian","JJ","ethiop"],
        ["Blog","NNP","blog"]
      ]
    },
    [".",".","."]
  ]
},
{
  "tag":"S",
  "content":
  [
    ["Current","JJ","cur"],
    ["Affairs","NNS","affair"],
    [",",",",","],
    {
      "tag":"GPE",
      "content":
      [
        ["Business","NNP","busy"]
      ]
    },
    [",",",",","],
    {
      "tag":"PERSON",
      "content":
      [
        ["Sports","NNP","sport"]
      ]
    },
    ["and","CC","and"],
    {
      "tag":"PERSON",
      "content":
      [
        ["Style","NNP","styl"],
        ["HomeLog","NNP","homelog"]
      ]
    },
    ["in","IN","in"],
    ["«","NNP","«"],
    ["Ethiopian-American","JJ","ethiopian-americ"],
    ["Tefere","NNP","tef"],
    {
      "tag":"PERSON",
      "content":
      [
        ["Gebre","NNP","gebr"]
      ]
    },
    ["elected","VBD","elect"],
    ["executive","JJ","execut"],
    ["vice","NN","vic"],
    ["president","NN","presid"],
    ["of","IN","of"],
    ["A.F.L.-C.I.O.Man","JJ","a.f.l.-c.i.o.man"],
    ["killed","VBN","kil"],
    ["in","IN","in"],
    {
      "tag":"GPE",
      "content":
      [
        ["Shoreview","NNP","shoreview"]
      ]
    },
    ["had","VBD","hav"],
    ["been","VBN","be"],
    ["robbed","VBN","rob"],
    ["earlier","JJR","ear"],
    ["in","IN","in"],
    {
      "tag":"GPE",
      "content":
      [
        ["St.","NNP","st."]
      ]
    },
    {
      "tag":"PERSON",
      "content":
      [
        ["Paul","NNP","paul"]
      ]
    },
    ["»","NNP","»"],
    ["Ethiopia","NNP","ethiop"],
    ["'s","POS","'s"],
    {
      "tag":"PERSON",
      "content":
      [
        ["Kenenisa","NNP","kenenis"],
        ["Bekele","NNP","bekel"]
      ]
    },
    ["too","RB","too"],
    ["much","JJ","much"],
    ["for","IN","for"],
    {
      "tag":"PERSON",
      "content":
      [
        ["Mo","NNP","mo"],
        ["Farah","NNP","farah"]
      ]
    },
    ["advertisement","NN","advert"],
    ["09/15/13","CD","09/15/13"],
    ["08:17:39","CD","08:17:39"],
    ["pm","NN","pm"],
    [",",",",","],
    ["by","IN","by"],
    {
      "tag":"ORGANIZATION",
      "content":
      [
        ["nazret.com","NNP","nazret.com"]
      ]
    },
    [",",",",","],
    ["150","CD","150"],
    ["words","NNS","word"],
    ["Categories","NNPS","categ"],
    [":",":",":"],
    {
      "tag":"PERSON",
      "content":
      [
        ["Athletics","NNP","athlet"],
        ["Ethiopia","NNP","ethiop"]
      ]
    },
    ["'s","POS","'s"],
    {
      "tag":"PERSON",
      "content":
      [
        ["Kenenisa","NNP","kenenis"],
        ["Bekele","NNP","bekel"]
      ]
    },
    ["too","RB","too"],
    ["much","JJ","much"],
    ["for","IN","for"],
    {
      "tag":"PERSON",
      "content":
      [
        ["Mo","NNP","mo"],
        ["Farah","NNP","farah"],
        ["Kenenisa","NNP","kenenis"],
        ["Bekele","NNP","bekel"]
      ]
    },
    ["fulfils","VBZ","fulfil"],
    {
      "tag":"PERSON",
      "content":
      [
        ["Farah","NNP","farah"]
      ]
    },
    ["promise","NN","prom"],
    ["and","CC","and"],
    ["comes","VBZ","com"],
    ["back","RP","back"],
    ["to","TO","to"],
    ["beat","VB","beat"],
    ["Mo","NNP","mo"],
    ["by","IN","by"],
    ["a","DT","a"],
    ["stride","JJ","stride"],
    ["The","DT","The"],
    {
      "tag":"GPE",
      "content":
      [
        ["Ethiopian","NNP","ethiop"]
      ]
    },
    ["legend","NN","legend"],
    ["stunned","VBD","stun"],
    ["the","DT","the"],
    ["home","NN","hom"],
    ["crowd","NN","crowd"],
    ["as","IN","as"],
    ["he","PRP","he"],
    ["pipped","VBD","pip"],
    {
      "tag":"PERSON",
      "content":
      [
        ["Mo","NNP","mo"],
        ["Farah","NNP","farah"]
      ]
    },
    ["in","IN","in"],
    ["the","DT","the"],
    ["world","NN","world"],
    ["'s","POS","'s"],
    ["biggest","JJS","big"],
    ["half","NN","half"],
    ["marathon","NN","marathon"],
    ["He","PRP","He"],
    ["warned","VBD","warn"],
    {
      "tag":"PERSON",
      "content":
      [
        ["Mo","NNP","mo"],
        ["Farah","NNP","farah"]
      ]
    },
    ["he","PRP","he"],
    ["would","MD","would"],
    ["come","VB","com"],
    ["back","RB","back"],
    ["to","TO","to"],
    ["haunt","VB","haunt"],
    ["him","PRP","him"],
    [",",",",","],
    ["and","CC","and"],
    {
      "tag":"PERSON",
      "content":
      [
        ["Kenenisa","NNP","kenenis"],
        ["Bekele","NNP","bekel"]
      ]
    },
    ["made","VBD","mak"],
    ["good","JJ","good"],
    ["his","PRP$","his"],
    ["threat","NN","threat"],
    ["yesterday","NN","yesterday"],
    [".",".","."]
  ]
},
{
  "tag":"S",
  "content":
  [
    ["At","IN","At"],
    ["a","DT","a"],
    ["squall-hit","JJ","squall-hit"],
    {
      "tag":"PERSON",
      "content":
      [
        ["Bupa","NNP","bup"],
        ["Great","NNP","gre"],
        ["North","NNP","nor"],
        ["Run","NNP","run"]
      ]
    },
    [",",",",","],
    ["the","DT","the"],
    {
      "tag":"GPE",
      "content":
      [
        ["Ethiopian","NNP","ethiop"]
      ]
    },
    ["legend","NN","legend"],
    ["ambushed","VBD","ambush"],
    {
      "tag":"PERSON",
      "content":
      [
        ["Farah","NNP","farah"]
      ]
    },
    ["to","TO","to"],
    ["win","VB","win"],
    ["the","DT","the"],
    ["clash","NN","clash"],
    ["of","IN","of"],
    ["the","DT","the"],
    ["titans","NNS","tit"],
    ["with","IN","with"],
    ["a","DT","a"],
    ["blistering","NN","blist"],
    ["sprint","NN","sprint"],
    ["finish","NN","fin"],
    [".",".","."]
  ]
},
{
  "tag":"S",
  "content":
  [
    ["The","DT","The"],
    ["world’s","JJ","world’s"],
    ["biggest","NN","biggest"],
    ["half","NN","half"],
    ["marathon","NN","marathon"],
    ["had","VBD","hav"],
    ["never","RB","nev"],
    ["seen","VBN","see"],
    ["anything","NN","anyth"],
    ["like","IN","like"],
    ["it","PRP","it"],
    ["and","CC","and"],
    {
      "tag":"PERSON",
      "content":
      [
        ["Farah","NNP","farah"]
      ]
    },
    ["responded","VBD","respond"],
    ["by","IN","by"],
    ["challenging","NN","challeng"],
    ["his","PRP$","his"],
    {
      "tag":"GPE",
      "content":
      [
        ["African","NNP","afr"]
      ]
    },
    ["rival","NN","riv"],
    ["to","TO","to"],
    ["a","DT","a"],
    ["rematch","NN","rematch"],
    ["at","IN","at"],
    ["next","JJ","next"],
    ["April’s","NNS","april’s"],
    {
      "tag":"PERSON",
      "content":
      [
        ["London","NNP","london"],
        ["Marathon","NNP","marathon"]
      ]
    },
    [".",".","."]
  ]
},
{
  "tag":"S",
  "content":
  [
    ["“See","JJ","“see"],
    ["you","PRP","you"],
    ["in","IN","in"],
    {
      "tag":"GPE",
      "content":
      [
        ["London","NNP","london"]
      ]
    },
    ["?",".","?"],
    ["”",":","”"],
    ["asked","VBD","ask"],
    {
      "tag":"PERSON",
      "content":
      [
        ["Farah","NNP","farah"]
      ]
    },
    [",",",",","],
    ["Britain’s","NNP","britain’s"],
    ["greatest","JJS","gre"],
    ["athlete","JJ","athlet"],
    [".",".","."]
  ]
},
{
  "tag":"S",
  "content":
  [
    ["“If","JJ","“if"],
    ["I’m","NN","i’m"],
    ["invited","VBD","invit"],
    ["I’d","JJ","i’d"],
    ["like","IN","like"],
    ["to","TO","to"],
    ["run","VB","run"],
    [",",",",","],
    ["”",":","”"],
    ["replied","VBD","reply"],
    {
      "tag":"PERSON",
      "content":
      [
        ["Bekele","NNP","bekel"]
      ]
    },
    [".",".","."]
  ]
},
{
  "tag":"S",
  "content":
  [
    ["There","EX","There"],
    ["will","MD","will"],
    ["be","VB","be"],
    ["no","RB","no"],
    ["problem","NN","problem"],
    ["with","IN","with"],
    ["that","DT","that"],
    ["as","IN","as"],
    ["yesterday’s","JJ","yesterday’s"],
    ["showdown","NN","showdown"],
    ["heralded","VBD","herald"],
    ["the","DT","the"],
    ["birth","NN","bir"],
    ["of","IN","of"],
    ["a","DT","a"],
    ["road","NN","road"],
    ["rivalry","NN","rivalry"],
    ["with","IN","with"],
    ["the","DT","the"],
    ["potential","JJ","pot"],
    ["to","TO","to"],
    ["thrill","VB","thrill"],
    ["the","DT","the"],
    ["sport","NN","sport"],
    ["for","IN","for"],
    ["years","NNS","year"],
    ["to","TO","to"],
    ["come","VB","com"],
    [".",".","."]
  ]
},
{
  "tag":"S",
  "content":
  [
    {
      "tag":"PERSON",
      "content":
      [
        ["Read","NNP","read"]
      ]
    },
    {
      "tag":"GPE",
      "content":
      [
        ["More","NNP","mor"]
      ]
    },
    ["...",":","..."]
  ]
},
{
  "tag":"S",
  "content":
  [
    ["Tags","NNS","tag"],
    [":",":",":"],
    ["atheltetics","NNS","atheltet"],
    {
      "tag":"ORGANIZATION",
      "content":
      [
        ["Permalink34","NNP","permalink34"]
      ]
    },
    ["comments","NNS","com"],
    ["»",":","»"],
    ["Web","NNP","web"],
    ["www.nazret.com","NNP","www.nazret.com"],
    ["advertisement","NN","advert"],
    ["34","CD","34"],
    ["comments","NNS","com"]
  ]
}]