[
{
  "tag":"S",
  "content":
  [
    {
      "tag":"GPE",
      "content":
      [
        ["Indice","NNP","ind"]
      ]
    },
    ["de","IN","de"],
    ["personas","NNS","person"],
    {
      "tag":"PERSON",
      "content":
      [
        ["Agrega","NNP","agreg"]
      ]
    },
    ["un","NN","un"],
    ["enlace","NN","enlac"],
    ["Last","JJ","last"],
    ["answer","NN","answ"],
    ["was","VBD","be"],
    [":",":",":"],
    {
      "tag":"PERSON",
      "content":
      [
        ["Biografia","NNP","biograf"],
        ["Person","NNP","person"]
      ]
    },
    [":",":",":"],
    {
      "tag":"PERSON",
      "content":
      [
        ["Marie","NNP","mary"],
        ["Fredriksson","NNP","fredriksson"],
        ["Link","NNP","link"]
      ]
    },
    [":",":",":"],
    ["http","NN","http"],
    [":",":",":"],
    ["//marie-fredriksson.com/","JJ","//marie-fredriksson.com/"],
    ["Este","NNP","est"],
    ["articulo","NN","articulo"],
    ["no","DT","no"],
    ["ha","NN","ha"],
    ["sido","NN","sido"],
    ["clasificado","NN","clasificado"],
    ["Es","NNS","es"],
    ["una","VBP","un"],
    ["biografia","NN","biograf"],
    ["?",".","?"]
  ]
},
{
  "tag":"S",
  "content":
  [
    ["Si","NNP","si"],
    ["No","NNP","no"],
    ["No","NNP","no"],
    ["y","NN","y"],
    {
      "tag":"PERSON",
      "content":
      [
        ["Guardar","NNP","guard"],
        ["Previous","NNP","prevy"],
        ["Next","NNP","next"]
      ]
    }
  ]
}]