[
{
  "tag":"S",
  "content":
  [
    {
      "tag":"GPE",
      "content":
      [
        ["Skip","NNP","skip"]
      ]
    },
    ["to","TO","to"],
    {
      "tag":"PERSON",
      "content":
      [
        ["Main","NNP","main"],
        ["Content","NNP","cont"],
        ["Sign","NNP","sign"]
      ]
    },
    ["in","IN","in"],
    ["My","NNP","my"],
    ["Account","NNP","account"],
    ["Manage","NNP","man"],
    ["Account","NNP","account"],
    ["Account","NNP","account"],
    ["Settings","NNP","set"],
    ["Wish","NNP","wish"],
    ["List","NNP","list"],
    ["Order","NNP","ord"],
    ["Status","NNP","stat"],
    ["My","NNP","my"],
    {
      "tag":"ORGANIZATION",
      "content":
      [
        ["NOOK","NNP","nook"],
        ["Stores","NNPS","stor"]
      ]
    },
    ["&","CC","&"],
    {
      "tag":"PERSON",
      "content":
      [
        ["Events","NNP","ev"],
        ["Help","NNP","help"]
      ]
    },
    ["A","DT","A"],
    {
      "tag":"ORGANIZATION",
      "content":
      [
        ["Book","NNP","book"],
        ["Season","NNP","season"],
        ["Like","NNP","lik"],
        ["No","NNP","no"]
      ]
    },
    ["Other","NNP","oth"],
    [":",":",":"],
    ["See","NNP","see"],
    ["What","WP","What"],
    ["'s","POS","'s"],
    {
      "tag":"ORGANIZATION",
      "content":
      [
        ["Coming","NNP","com"],
        ["Next","NNP","next"]
      ]
    },
    ["FREE","NNP","fre"],
    ["Express","NNP","express"],
    ["Shipping","NNP","ship"],
    [",",",",","],
    {
      "tag":"GPE",
      "content":
      [
        ["Save","NNP","sav"]
      ]
    },
    ["in","IN","in"],
    {
      "tag":"GPE",
      "content":
      [
        ["Stores","NNPS","stor"]
      ]
    },
    ["with","IN","with"],
    {
      "tag":"PERSON",
      "content":
      [
        ["Membership","NNP","memb"],
        ["Cookbooks","NNP","cookbook"],
        ["Fall","NNP","fal"]
      ]
    },
    ["Preview","NNP","preview"],
    [":",":",":"],
    ["For","IN","For"],
    ["Every","DT","Every"],
    ["Taste","NNP","tast"],
    ["Wizard","NNP","wizard"],
    ["of","IN","of"],
    ["Oz","NNP","oz"],
    ["75th","CD","75th"],
    ["Anniversary","NNP","annivers"],
    [":",":",":"],
    ["Celebrate","NNP","celebr"],
    ["with","IN","with"],
    {
      "tag":"PERSON",
      "content":
      [
        ["Barnes","NNP","barn"]
      ]
    },
    ["&","CC","&"],
    {
      "tag":"PERSON",
      "content":
      [
        ["Noble","NNP","nobl"],
        ["Search","NNP","search"],
        ["All","NNP","al"]
      ]
    },
    ["Products","NNPS","produc"],
    {
      "tag":"PERSON",
      "content":
      [
        ["Books","NNP","book"],
        ["NOOK","NNP","nook"],
        ["Store","NNP","stor"]
      ]
    },
    ["NOOK","NNP","nook"],
    {
      "tag":"PERSON",
      "content":
      [
        ["Books","NNP","book"],
        ["Textbooks","NNP","textbook"],
        ["Movies","NNP","movy"]
      ]
    },
    ["&","CC","&"],
    ["TV","NNP","tv"],
    {
      "tag":"PERSON",
      "content":
      [
        ["Music","NNP","mus"],
        ["Kids","NNP","kid"]
      ]
    },
    ["'","POS","'"],
    {
      "tag":"PERSON",
      "content":
      [
        ["Books","NNP","book"],
        ["Marketplace","NNP","marketplac"],
        ["Rare","NNP","rar"],
        ["Books","NNP","book"],
        ["Newsstand","NNP","newsstand"]
      ]
    },
    ["NOOK","NNP","nook"],
    ["Catalogs","NNP","catalog"],
    {
      "tag":"PERSON",
      "content":
      [
        ["Calendars","NNP","calend"],
        ["Home","NNP","hom"]
      ]
    },
    ["&","CC","&"],
    {
      "tag":"PERSON",
      "content":
      [
        ["Gifts","NNP","gift"],
        ["Toys","NNP","toy"]
      ]
    },
    ["&","CC","&"],
    ["Games","NNP","gam"],
    ["Search","NNP","search"],
    ["Over","NNP","ov"],
    ["30","CD","30"],
    ["Million","CD","Million"],
    ["Products","NNS","produc"],
    ["Shopping","NNP","shop"],
    ["Bag","NNP","bag"],
    ["(","NNP","("],
    ["0","-NONE-","0"],
    ["items","VBZ","item"],
    [")",":",")"],
    ["Spend","NNP","spend"],
    ["$","$","$"],
    ["25","CD","25"],
    [",",",",","],
    {
      "tag":"PERSON",
      "content":
      [
        ["Get","NNP","get"],
        ["FREE","NNP","fre"]
      ]
    },
    ["SHIPPING","NNP","ship"],
    {
      "tag":"PERSON",
      "content":
      [
        ["Books","NNP","book"],
        ["NOOK","NNP","nook"],
        ["Books","NNP","book"]
      ]
    },
    ["NOOK","NNP","nook"],
    {
      "tag":"PERSON",
      "content":
      [
        ["Textbooks","NNP","textbook"],
        ["Newsstand","NNP","newsstand"],
        ["Teens","NNP","teen"],
        ["Kids","NNP","kid"],
        ["Toys","NNP","toy"]
      ]
    },
    ["&","CC","&"],
    ["Games","NNP","gam"],
    ["Home","NNP","hom"],
    ["&","CC","&"],
    {
      "tag":"PERSON",
      "content":
      [
        ["Gifts","NNP","gift"],
        ["Movies","NNP","movy"]
      ]
    },
    ["&","CC","&"],
    ["TV","NNP","tv"],
    {
      "tag":"PERSON",
      "content":
      [
        ["Music","NNP","mus"],
        ["Gift","NNP","gift"],
        ["Cards","NNP","card"],
        ["Bargain","NNP","bargain"],
        ["Books","NNP","book"]
      ]
    },
    ["1/","CD","1/"],
    ["Thirteen","NNP","thirteen"],
    ["Stories","NNP","story"],
    ["by","IN","by"],
    ["Fitz-James","NNP","fitz-james"],
    ["O'Brien","NNP","o'brien"],
    [":",":",":"],
    ["The","DT","The"],
    {
      "tag":"ORGANIZATION",
      "content":
      [
        ["Realm","NNP","realm"]
      ]
    },
    ["of","IN","of"],
    ["the","DT","the"],
    ["Mind","NNP","mind"],
    ["by","IN","by"],
    {
      "tag":"PERSON",
      "content":
      [
        ["Wayne","NNP","wayn"],
        ["R.","NNP","r."],
        ["Kime","NNP","kim"]
      ]
    },
    [",",",",","],
    {
      "tag":"PERSON",
      "content":
      [
        ["Wayne","NNP","wayn"],
        ["R.","NNP","r."],
        ["Kime","NNP","kim"]
      ]
    },
    ["(","NNP","("],
    ["Editor","NNP","edit"],
    [")","NNP",")"],
    ["Add","NNP","ad"],
    ["to","TO","to"],
    {
      "tag":"PERSON",
      "content":
      [
        ["List","NNP","list"]
      ]
    },
    ["+","NNP","+"],
    ["Add","NNP","ad"],
    ["to","TO","to"],
    {
      "tag":"PERSON",
      "content":
      [
        ["List","NNP","list"]
      ]
    },
    ["+","NNP","+"],
    ["My","NNP","my"],
    ["B","NNP","b"],
    ["&","CC","&"],
    ["N","NNP","n"],
    ["Library","NNP","libr"],
    ["My","NNP","my"],
    ["Favorites","NNP","favorit"],
    ["My","NNP","my"],
    ["Wish","NNP","wish"],
    ["List","NNP","list"],
    ["Reading","NNP","read"],
    ["Now","NNP","now"],
    ["New","NNP","new"],
    ["Essential","NNP","ess"],
    ["List","NNP","list"],
    ["Create","NNP","cre"],
    ["a","DT","a"],
    ["new","JJ","new"],
    ["Essential","JJ","ess"],
    {
      "tag":"ORGANIZATION",
      "content":
      [
        ["List","NNP","list"],
        ["Please","NNP","pleas"]
      ]
    },
    ["enter","NN","ent"],
    ["a","DT","a"],
    ["list","NN","list"],
    ["name","NN","nam"],
    ["You","PRP","You"],
    ["entered","VBD","ent"],
    ["an","DT","an"],
    ["invalid","JJ","invalid"],
    ["character","NN","charact"],
    ["[",":","["],
    ["!",".","!"],
    ["@",":","@"],
    ["#","#","#"],
    ["$","$","$"],
    ["%","NN","%"],
    ["^","CD","^"],
    ["&","CC","&"],
    ["*","-NONE-","*"],
    ["(",":","("],
    [")",":",")"],
    ["_+-","JJ","_+-"],
    ["{","NN","{"],
    ["}",":","}"],
    [";",":",";"],
    ["''","''","''"],
    ["]",":","]"],
    [".",".","."]
  ]
},
{
  "tag":"S",
  "content":
  [
    {
      "tag":"GPE",
      "content":
      [
        ["Please","NN","pleas"]
      ]
    },
    ["enter","NN","ent"],
    ["a","DT","a"],
    ["valid","JJ","valid"],
    ["alpha","NN","alph"],
    ["numeric","JJ","num"],
    ["character","NN","charact"],
    [".",".","."]
  ]
},
{
  "tag":"S",
  "content":
  [
    {
      "tag":"GPE",
      "content":
      [
        ["Please","NN","pleas"]
      ]
    },
    ["name","VBD","nam"],
    ["your","PRP$","your"],
    ["Essential","NNP","ess"],
    ["List","NNP","list"],
    [":",":",":"],
    ["New","NNP","new"],
    ["Essential","NNP","ess"],
    ["List","NNP","list"],
    ["You","NNP","you"],
    ["may","MD","may"],
    ["add","VB","ad"],
    ["a","DT","a"],
    ["description","NN","describ"],
    ["of","IN","of"],
    ["the","DT","the"],
    ["list","NN","list"],
    [":",":",":"],
    {
      "tag":"PERSON",
      "content":
      [
        ["Submit","NNP","submit"],
        ["Cancel","NNP","cancel"],
        ["New","NNP","new"],
        ["Wish","NNP","wish"],
        ["List","NNP","list"]
      ]
    },
    ["Create","NNP","cre"],
    ["a","DT","a"],
    ["new","JJ","new"],
    ["Wish","JJ","wish"],
    {
      "tag":"ORGANIZATION",
      "content":
      [
        ["List","NNP","list"],
        ["Please","NNP","pleas"]
      ]
    },
    ["enter","NN","ent"],
    ["a","DT","a"],
    ["list","NN","list"],
    ["name","NN","nam"],
    ["You","PRP","You"],
    ["entered","VBD","ent"],
    ["an","DT","an"],
    ["invalid","JJ","invalid"],
    ["character","NN","charact"],
    ["[",":","["],
    ["!",".","!"],
    ["@",":","@"],
    ["#","#","#"],
    ["$","$","$"],
    ["%","NN","%"],
    ["^","CD","^"],
    ["&","CC","&"],
    ["*","-NONE-","*"],
    ["(",":","("],
    [")",":",")"],
    ["_+-","JJ","_+-"],
    ["{","NN","{"],
    ["}",":","}"],
    [";",":",";"],
    ["''","''","''"],
    ["]",":","]"],
    [".",".","."]
  ]
},
{
  "tag":"S",
  "content":
  [
    {
      "tag":"GPE",
      "content":
      [
        ["Please","NN","pleas"]
      ]
    },
    ["enter","NN","ent"],
    ["a","DT","a"],
    ["valid","JJ","valid"],
    ["alpha","NN","alph"],
    ["numeric","JJ","num"],
    ["character","NN","charact"],
    [".",".","."]
  ]
},
{
  "tag":"S",
  "content":
  [
    {
      "tag":"GPE",
      "content":
      [
        ["Please","NN","pleas"]
      ]
    },
    ["name","VBD","nam"],
    ["your","PRP$","your"],
    ["Wish","NNP","wish"],
    ["List","NNP","list"],
    [":",":",":"],
    ["New","NNP","new"],
    ["Wish","NNP","wish"],
    ["List","NNP","list"],
    ["You","NNP","you"],
    ["may","MD","may"],
    ["add","VB","ad"],
    ["a","DT","a"],
    ["description","NN","describ"],
    ["of","IN","of"],
    ["the","DT","the"],
    ["list","NN","list"],
    [":",":",":"],
    {
      "tag":"PERSON",
      "content":
      [
        ["Submit","NNP","submit"],
        ["Cancel","NNP","cancel"],
        ["Be","NNP","be"]
      ]
    },
    ["the","DT","the"],
    ["first","JJ","first"],
    ["to","TO","to"],
    ["write","VB","writ"],
    ["a","DT","a"],
    ["review","NN","review"],
    ["Overview","NNP","overview"],
    ["his","PRP$","his"],
    ["volume","NN","volum"],
    ["forms","NNS","form"],
    ["part","NN","part"],
    ["of","IN","of"],
    ["a","DT","a"],
    ["continuing","VBG","continu"],
    ["initiative","JJ","in"],
    ["by","IN","by"],
    {
      "tag":"PERSON",
      "content":
      [
        ["Wayne","NNP","wayn"],
        ["R.","NNP","r."]
      ]
    },
    ["Kime","NNP","kim"],
    ["to","TO","to"],
    ["make","VB","mak"],
    ["available","JJ","avail"],
    ["the","DT","the"],
    ["writings","NNS","writ"],
    ["of","IN","of"],
    ["Fitz-James","NNP","fitz-james"],
    ["O’Brien","NNP","o’brien"],
    ["(","NNP","("],
    ["1828-1862","CD","1828-1862"],
    [")","CD",")"],
    [",",",",","],
    ["an","DT","an"],
    ["Irish-American","JJ","irish-american"],
    ["literary","NN","lit"],
    ["man","NN","man"],
    ["who","WP","who"],
    ["during","IN","during"],
    ["his","PRP$","his"],
    ["lifetime","NN","lifetim"],
    ["won","VBD","win"],
    ["reputation","NN","reput"],
    ["as","IN","as"],
    ["one","CD","one"],
    ["of","IN","of"],
    ["the","DT","the"],
    ["most","RBS","most"],
    ["talented","JJ","tal"],
    ["young","JJ","young"],
    ["authors","NNS","auth"],
    ["in","IN","in"],
    ["the","DT","the"],
    {
      "tag":"GPE",
      "content":
      [
        ["United","NNP","unit"],
        ["States","NNPS","stat"]
      ]
    },
    [",",",",","],
    ["but","CC","but"],
    ["who","WP","who"],
    ["has","VBZ","hav"],
    ["been","VBN","be"],
    ["all","DT","all"],
    ["but","CC","but"],
    ["forgotten","VBN","forget"],
    ["since","IN","since"],
    [".",".","."]
  ]
},
{
  "tag":"S",
  "content":
  [
    ["It","PRP","It"],
    ["follows","VBZ","follow"],
    ["Fitz-James","VBZ","fitz-james"],
    ["O’Brien","JJ","o’brien"],
    [":",":",":"],
    ["Selected","JJ","select"],
    ["Literary","NNP","lit"],
    ["Journalism","NNP","journ"],
    [",",",",","],
    ["1852-1860","CD","1852-1860"],
    ["(",":","("],
    {
      "tag":"ORGANIZATION",
      "content":
      [
        ["Susquehanna","NNP","susquehann"],
        ["University","NNP","univers"],
        ["Press","NNP","press"]
      ]
    },
    [",",",",","],
    ["2003","CD","2003"],
    [")",":",")"],
    ["and","CC","and"],
    ["Behind","NNP","behind"],
    ["the","DT","the"],
    {
      "tag":"GPE",
      "content":
      [
        ["Curtain","NNP","curtain"]
      ]
    },
    [":",":",":"],
    ["Selected","NNP","select"],
    ["Fiction","NNP","fict"],
    ["of","IN","of"],
    ["Fitz-James","NNP","fitz-james"],
    ["O’Brien","NNP","o’brien"],
    ["(","NNP","("],
    {
      "tag":"ORGANIZATION",
      "content":
      [
        ["University","NNP","univers"]
      ]
    },
    ["of","IN","of"],
    {
      "tag":"ORGANIZATION",
      "content":
      [
        ["Delaware","NNP","delaw"]
      ]
    },
    ["Press","NNP","press"],
    ["and","CC","and"],
    ["...",":","..."],
    ["See","NNP","see"],
    ["more","JJR","mor"],
    ["details","NNS","detail"],
    ["below","IN","below"],
    {
      "tag":"ORGANIZATION",
      "content":
      [
        ["Eligible","NNP","elig"]
      ]
    },
    ["for","IN","for"],
    {
      "tag":"ORGANIZATION",
      "content":
      [
        ["FREE","NNP","fre"]
      ]
    },
    ["SHIPPING","NNP","ship"],
    ["details","NNS","detail"],
    ["Usually","RB","us"],
    ["ships","VBZ","ship"],
    ["within","IN","within"],
    ["24","CD","24"],
    ["hours","NNS","hour"],
    ["details","NNS","detail"],
    {
      "tag":"PERSON",
      "content":
      [
        ["Same","NNP","sam"]
      ]
    },
    ["Day","NNP","day"],
    ["delivery","NN","delivery"],
    ["in","IN","in"],
    {
      "tag":"GPE",
      "content":
      [
        ["Manhattan","NNP","manhat"]
      ]
    },
    ["details","NNS","detail"],
    ["Hardcover","NNP","hardcov"],
    ["$","$","$"],
    ["53.47","CD","53.47"],
    ["BN.com","CD","BN.com"],
    ["price","NN","pric"],
    ["(",":","("],
    ["Save","NNP","sav"],
    ["17","CD","17"],
    ["%","NN","%"],
    [")",":",")"],
    ["$","$","$"],
    ["65.00","CD","65.00"],
    ["List","NNP","list"],
    ["Price","NNP","pric"],
    ["Add","NNP","ad"],
    ["to","TO","to"],
    {
      "tag":"PERSON",
      "content":
      [
        ["Bag","NNP","bag"],
        ["Other","NNP","oth"]
      ]
    },
    ["sellers","NNS","sel"],
    ["(",":","("],
    ["Hardcover","NNP","hardcov"],
    [")",":",")"],
    ["All","DT","All"],
    ["(","CD","("],
    ["5","CD","5"],
    [")","CD",")"],
    ["from","IN","from"],
    ["$","$","$"],
    ["54.92","CD","54.92"],
    {
      "tag":"GPE",
      "content":
      [
        ["New","NNP","new"]
      ]
    },
    ["(","NNP","("],
    ["5","CD","5"],
    [")","CD",")"],
    ["from","IN","from"],
    ["$","$","$"],
    ["54.92","CD","54.92"],
    ["Available","NNP","avail"],
    ["on","IN","on"],
    {
      "tag":"ORGANIZATION",
      "content":
      [
        ["NOOK","NNP","nook"]
      ]
    },
    ["devices","NNS","dev"],
    ["and","CC","and"],
    ["apps","NNS","ap"],
    {
      "tag":"PERSON",
      "content":
      [
        ["Nook","NNP","nook"],
        ["Devices","NNP","dev"]
      ]
    },
    ["NOOK","NNP","nook"],
    ["HD/HD+","NNP","hd/hd+"],
    ["Tablet","NNP","tablet"],
    ["NOOK","NNP","nook"],
    ["NOOK","NNP","nook"],
    ["Color","NNP","col"],
    ["NOOK","NNP","nook"],
    ["Tablet","NNP","tablet"],
    ["Tablet/Phone","NNP","tablet/phone"],
    ["NOOK","NNP","nook"],
    ["for","IN","for"],
    ["Windows","NNP","window"],
    ["8","CD","8"],
    ["Tablet","NNP","tablet"],
    ["NOOK","NNP","nook"],
    ["for","IN","for"],
    {
      "tag":"ORGANIZATION",
      "content":
      [
        ["iOS","NNP","io"]
      ]
    },
    ["NOOK","NNP","nook"],
    ["for","IN","for"],
    {
      "tag":"PERSON",
      "content":
      [
        ["Android","NNP","android"],
        ["NOOK","NNP","nook"],
        ["Kids","NNP","kid"]
      ]
    },
    ["for","IN","for"],
    {
      "tag":"ORGANIZATION",
      "content":
      [
        ["iPad","NNP","ipad"]
      ]
    },
    ["PC/Mac","NNP","pc/mac"],
    ["NOOK","NNP","nook"],
    ["for","IN","for"],
    ["Windows","NNP","window"],
    ["8","CD","8"],
    ["NOOK","NNP","nook"],
    ["for","IN","for"],
    {
      "tag":"ORGANIZATION",
      "content":
      [
        ["PC","NNP","pc"]
      ]
    },
    ["NOOK","NNP","nook"],
    ["for","IN","for"],
    {
      "tag":"ORGANIZATION",
      "content":
      [
        ["Mac","NNP","mac"]
      ]
    },
    ["NOOK","NNP","nook"],
    ["Study","NNP","study"],
    ["NOOK","NNP","nook"],
    ["for","IN","for"],
    {
      "tag":"PERSON",
      "content":
      [
        ["Web","NNP","web"],
        ["Want","NNP","want"]
      ]
    },
    ["a","DT","a"],
    {
      "tag":"ORGANIZATION",
      "content":
      [
        ["NOOK","NNP","nook"]
      ]
    },
    ["?",".","?"]
  ]
},
{
  "tag":"S",
  "content":
  [
    {
      "tag":"PERSON",
      "content":
      [
        ["Explore","NNP","expl"]
      ]
    },
    ["Now","NNP","now"],
    ["NOOK","NNP","nook"],
    ["Book","NNP","book"],
    ["(","NNP","("],
    {
      "tag":"ORGANIZATION",
      "content":
      [
        ["eBook","NNP","ebook"]
      ]
    },
    [")","NNP",")"],
    ["$","$","$"],
    ["37.49","CD","37.49"],
    ["BN.com","CD","BN.com"],
    ["price","NN","pric"],
    ["(",":","("],
    ["Save","NNP","sav"],
    ["42","CD","42"],
    ["%","NN","%"],
    [")",":",")"],
    ["$","$","$"],
    ["64.99","CD","64.99"],
    ["List","NNP","list"],
    ["Price","NNP","pric"],
    ["Buy","NNP","buy"],
    ["Now","NNP","now"],
    ["Get","NNP","get"],
    ["Free","NNP","fre"],
    {
      "tag":"PERSON",
      "content":
      [
        ["Sample","NNP","sampl"],
        ["Buy","NNP","buy"],
        ["As","NNP","as"],
        ["Gift","NNP","gift"],
        ["Marketplace","NNP","marketplac"]
      ]
    },
    ["BN.com","NNP","bn.com"],
    ["All","NNP","al"],
    ["Available","NNP","avail"],
    ["Formats","NNPS","form"],
    ["&","CC","&"],
    ["Editions","NNS","edit"],
    ["——","VBP","——"],
    ["$","$","$"],
    ["37.49","CD","37.49"],
    {
      "tag":"ORGANIZATION",
      "content":
      [
        ["NOOK","NNP","nook"],
        ["Book","NNP","book"]
      ]
    },
    ["(","NNP","("],
    ["1","CD","1"],
    [")","CD",")"],
    ["——","CD","——"],
    ["$","$","$"],
    ["37.49","CD","37.49"],
    ["Currently","NNP","cur"],
    ["Viewing","NNP","view"],
    ["...",":","..."],
    ["Thirteen","NNP","thirteen"],
    ["Stories","NNP","story"],
    ["by","IN","by"],
    ["Fitz-James","NNP","fitz-james"],
    ["O'Brien","NNP","o'brien"],
    [":",":",":"],
    ["The","DT","The"],
    {
      "tag":"ORGANIZATION",
      "content":
      [
        ["Realm","NNP","realm"]
      ]
    },
    ["of","IN","of"],
    ["the","DT","the"],
    {
      "tag":"ORGANIZATION",
      "content":
      [
        ["Mind","NNP","mind"]
      ]
    },
    ["(","NNP","("],
    {
      "tag":"ORGANIZATION",
      "content":
      [
        ["eBook","NNP","ebook"]
      ]
    },
    [")","NNP",")"],
    ["Pub","NNP","pub"],
    [".",".","."]
  ]
},
{
  "tag":"S",
  "content":
  [
    {
      "tag":"GPE",
      "content":
      [
        ["Date","NNP","dat"]
      ]
    },
    [":",":",":"],
    ["5/18/2012","CD","5/18/2012"],
    ["Publisher","NNP","publ"],
    [":",":",":"],
    {
      "tag":"ORGANIZATION",
      "content":
      [
        ["University","NNP","univers"]
      ]
    },
    ["of","IN","of"],
    {
      "tag":"GPE",
      "content":
      [
        ["Delaware","NNP","delaw"]
      ]
    },
    ["$","$","$"],
    ["54.92","CD","54.92"],
    ["$","$","$"],
    ["53.47","CD","53.47"],
    ["Hardcover","NNP","hardcov"],
    ["(","NNP","("],
    ["1","CD","1"],
    [")","CD",")"],
    ["$","$","$"],
    ["54.92","CD","54.92"],
    ["$","$","$"],
    ["53.47","CD","53.47"],
    ["Currently","NNP","cur"],
    ["Viewing","NNP","view"],
    ["...",":","..."],
    ["Thirteen","NNP","thirteen"],
    ["Stories","NNP","story"],
    ["by","IN","by"],
    ["Fitz-James","NNP","fitz-james"],
    ["O'Brien","NNP","o'brien"],
    [":",":",":"],
    ["The","DT","The"],
    {
      "tag":"ORGANIZATION",
      "content":
      [
        ["Realm","NNP","realm"]
      ]
    },
    ["of","IN","of"],
    ["the","DT","the"],
    {
      "tag":"ORGANIZATION",
      "content":
      [
        ["Mind","NNP","mind"],
        ["Pub","NNP","pub"]
      ]
    },
    [".",".","."]
  ]
},
{
  "tag":"S",
  "content":
  [
    {
      "tag":"GPE",
      "content":
      [
        ["Date","NNP","dat"]
      ]
    },
    [":",":",":"],
    ["5/18/2012","CD","5/18/2012"],
    ["Publisher","NNP","publ"],
    [":",":",":"],
    {
      "tag":"ORGANIZATION",
      "content":
      [
        ["University","NNP","univers"],
        ["Of","IN","Of"],
        ["Delaware","NNP","delaw"]
      ]
    }
  ]
}]