[
{
  "tag":"S",
  "content":
  [
    {
      "tag":"GPE",
      "content":
      [
        ["Welcome","NNP","welcom"]
      ]
    },
    [",",",",","],
    ["|","NNP","|"],
    ["Log","NNP","log"],
    ["Out","NNP","out"],
    ["|","NNP","|"],
    ["Log","NNP","log"],
    ["In","NNP","in"],
    ["|","NNP","|"],
    ["Register","NNP","reg"],
    ["|","NNP","|"],
    ["Log","NNP","log"],
    ["In","NNP","in"],
    ["You","NNP","you"],
    ["must","MD","must"],
    ["be","VB","be"],
    ["registered","VBN","reg"],
    ["to","TO","to"],
    ["comment","VB","com"],
    ["and","CC","and"],
    ["vote","VB","vot"],
    ["on","IN","on"],
    ["comments","NNS","com"],
    [".",".","."]
  ]
},
{
  "tag":"S",
  "content":
  [
    {
      "tag":"GPE",
      "content":
      [
        ["Email","NNP","email"]
      ]
    },
    ["or","CC","or"],
    ["username","VB","usernam"],
    [":",":",":"],
    ["Password","NNP","password"],
    [":",":",":"],
    ["Forgot","NNP","forgot"],
    ["your","PRP$","your"],
    ["password","NN","password"],
    ["?",".","?"]
  ]
},
{
  "tag":"S",
  "content":
  [
    ["|","NN","|"],
    ["Not","RB","not"],
    ["a","DT","a"],
    ["member","NN","memb"],
    ["?",".","?"]
  ]
},
{
  "tag":"S",
  "content":
  [
    {
      "tag":"GPE",
      "content":
      [
        ["Create","NNP","cre"]
      ]
    },
    ["a","DT","a"],
    ["login","NN","login"],
    {
      "tag":"PERSON",
      "content":
      [
        ["Change","NNP","chang"],
        ["Password","NNP","password"],
        ["Current","NNP","cur"]
      ]
    },
    [":",":",":"],
    ["New","NNP","new"],
    ["Password","NNP","password"],
    [":",":",":"],
    {
      "tag":"PERSON",
      "content":
      [
        ["Confirm","NNP","confirm"],
        ["New","NNP","new"],
        ["Password","NNP","password"]
      ]
    },
    [":",":",":"],
    ["My","NNP","my"],
    ["account","NN","account"],
    {
      "tag":"ORGANIZATION",
      "content":
      [
        ["Newspaper","NNP","newspap"]
      ]
    },
    ["subscriptions","NNS","subscrib"],
    ["Vacation","NNP","vac"],
    ["holds/billing","JJ","holds/billing"],
    ["Newsletters","NNS","newslet"],
    {
      "tag":"PERSON",
      "content":
      [
        ["Change","NNP","chang"]
      ]
    },
    ["email","NN","email"],
    ["address/password","NN","address/password"],
    ["Contact","NNP","contact"],
    ["us","PRP","us"],
    ["|Subscribe","VBP","|subscribe"],
    {
      "tag":"ORGANIZATION",
      "content":
      [
        ["Digital","NNP","digit"],
        ["Home","NNP","hom"]
      ]
    },
    ["delivery|Today’s","NNP","delivery|today’s"],
    {
      "tag":"PERSON",
      "content":
      [
        ["Paper","NNP","pap"],
        ["Global","NNP","glob"],
        ["Search","NNP","search"],
        ["Search","NNP","search"],
        ["All","NNP","al"]
      ]
    },
    ["content","NN","cont"],
    {
      "tag":"ORGANIZATION",
      "content":
      [
        ["Business","NNP","busy"]
      ]
    },
    ["listings","NNS","list"],
    {
      "tag":"FACILITY",
      "content":
      [
        ["Site","NNP","sit"],
        ["Index","NNP","index"]
      ]
    },
    ["books","NNS","book"],
    [".sponsorNav","-NONE-",".sponsorNav"],
    ["a","DT","a"],
    ["{","NN","{"],
    ["padding:0","-NONE-","padding:0"],
    ["5px","CD","5px"],
    ["0","-NONE-","0"],
    ["5px","CD","5px"],
    ["!",".","!"],
    ["important","JJ","import"],
    [";",":",";"],
    ["}",":","}"],
    ["News","NNP","new"],
    {
      "tag":"PERSON",
      "content":
      [
        ["Local","NNP","loc"],
        ["Nation","NNP","nat"]
      ]
    },
    ["World","NNP","world"],
    ["Investigators","NNP","investig"],
    ["Traffic","NNP","traff"],
    ["Weather","NNP","weath"],
    ["Obituaries","NNPS","obitu"],
    {
      "tag":"PERSON",
      "content":
      [
        ["Minnesota","NNP","minnesot"],
        ["Topics","NNP","top"],
        ["Local","NNP","loc"],
        ["North","NNP","nor"],
        ["Metro","NNP","metro"],
        ["West","NNP","west"],
        ["Metro","NNP","metro"],
        ["South","NNP","sou"],
        ["Metro","NNP","metro"],
        ["East","NNP","east"],
        ["Metro","NNP","metro"],
        ["Minneapolis","NNP","minneapol"],
        ["St.","NNP","st."]
      ]
    },
    {
      "tag":"PERSON",
      "content":
      [
        ["Paul","NNP","paul"],
        ["Your","NNP","yo"],
        ["Voices","NNP","voic"],
        ["Blogs","NNP","blog"]
      ]
    },
    ["+","NNP","+"],
    {
      "tag":"PERSON",
      "content":
      [
        ["Columns","NNP","column"],
        ["Minnesota","NNP","minnesot"],
        ["Topics","NNP","top"],
        ["Sports","NNP","sport"],
        ["Vikings","NNP","vik"]
      ]
    },
    ["/","NNP","/"],
    ["NFL","NNP","nfl"],
    {
      "tag":"PERSON",
      "content":
      [
        ["Twins","NNP","twin"]
      ]
    },
    ["/","NNP","/"],
    ["MLB","NNP","mlb"],
    {
      "tag":"PERSON",
      "content":
      [
        ["Wolves","NNP","wolv"]
      ]
    },
    ["/","NNP","/"],
    ["NBA","NNP","nba"],
    {
      "tag":"PERSON",
      "content":
      [
        ["Wild","NNP","wild"]
      ]
    },
    ["/","NNP","/"],
    ["NHL","NNP","nhl"],
    ["Lynx","NNP","lynx"],
    ["/","NNP","/"],
    ["WNBA","NNP","wnba"],
    ["Gophers","NNP","goph"],
    ["Preps","NNP","prep"],
    ["Outdoors","NNP","outdo"],
    ["Golf","NNP","golf"],
    ["Racing","NNP","rac"],
    ["Blogs","NNP","blog"],
    ["Video","NNP","video"],
    ["Business","NNP","busy"],
    ["Economy","NNP","econom"],
    ["Your","NNP","yo"],
    ["Money","NNP","money"],
    ["Top","NNP","top"],
    ["Workplaces","NNP","workplac"],
    ["Blogs","NNP","blog"],
    ["+","NNP","+"],
    {
      "tag":"PERSON",
      "content":
      [
        ["Columns","NNP","column"],
        ["Business","NNP","busy"],
        ["Finder","NNP","find"],
        ["Minnesota","NNP","minnesot"],
        ["Topics","NNP","top"],
        ["Politics","NNP","polit"]
      ]
    },
    ["State","NNP","stat"],
    ["+","NNP","+"],
    {
      "tag":"ORGANIZATION",
      "content":
      [
        ["Local","NNP","loc"],
        ["National","NNP","nat"],
        ["Hot","NNP","hot"],
        ["Dish","NNP","dish"],
        ["Blog","NNP","blog"]
      ]
    }
  ]
}]