[
{
  "tag":"S",
  "content":
  [
    ["You","PRP","You"],
    ["are","VBP","be"],
    ["here","RB","her"],
    [":",":",":"],
    ["Home","NN","hom"],
    [">",":",">"],
    ["Collections","NNS","collect"],
    [">","VBP",">"],
    {
      "tag":"ORGANIZATION",
      "content":
      [
        ["Classical","JJ","class"]
      ]
    },
    {
      "tag":"ORGANIZATION",
      "content":
      [
        ["DancePure","NN","dancep"],
        ["Indian","NNP","ind"]
      ]
    },
    ["dance","NN","dant"],
    ["forms","NNS","form"],
    ["being","VBG","be"],
    ["diluted","VBN","dilut"],
    [":",":",":"],
    {
      "tag":"PERSON",
      "content":
      [
        ["Alarmel","NNP","alarmel"],
        ["ValliTNN","NNP","vallitn"]
      ]
    },
    ["Feb","NNP","feb"],
    ["23","CD","23"],
    [",",",",","],
    ["2013","CD","2013"],
    [",",",",","],
    ["04.22AM","CD","04.22AM"],
    ["ISTTags","NNS","ist"],
    [":",":",":"],
    {
      "tag":"GPE",
      "content":
      [
        ["Indian","JJ","ind"]
      ]
    },
    {
      "tag":"ORGANIZATION",
      "content":
      [
        ["Rhythm","NNP","rhythm"]
      ]
    },
    ["&","CC","&"],
    {
      "tag":"PERSON",
      "content":
      [
        ["Arts","NNP","art"]
      ]
    },
    ["Association|BollywoodPUNE","NNP","association|bollywoodpune"],
    [":",":",":"],
    ["The","DT","The"],
    ["reigning","NN","reign"],
    ["popularity","NN","popul"],
    ["of","IN","of"],
    ["pop","NN","pop"],
    ["music","NN","mus"],
    ["and","CC","and"],
    {
      "tag":"PERSON",
      "content":
      [
        ["Bollywood","NNP","bollywood"]
      ]
    },
    ["song","IN","song"],
    ["and","CC","and"],
    ["dance","NN","dant"],
    ["is","VBZ","be"],
    ["diluting","VBG","dilut"],
    ["the","DT","the"],
    ["musical","JJ","mus"],
    ["taste","NN","tast"],
    ["of","IN","of"],
    ["the","DT","the"],
    {
      "tag":"GPE",
      "content":
      [
        ["Indian","NNP","ind"]
      ]
    },
    ["audiences","NNS","audy"],
    [",",",",","],
    ["said","VBD","say"],
    {
      "tag":"PERSON",
      "content":
      [
        ["Bharatnatyam","NNP","bharatnatyam"]
      ]
    },
    ["danseuse","NN","danseus"],
    {
      "tag":"ORGANIZATION",
      "content":
      [
        ["AlarmelValli","NNP","alarmelvall"]
      ]
    },
    [",",",",","],
    ["ahead","RB","ahead"],
    ["of","IN","of"],
    ["her","PRP$","her"],
    ["performance","NN","perform"],
    ["in","IN","in"],
    ["the","DT","the"],
    ["city","NN","city"],
    ["at","IN","at"],
    {
      "tag":"ORGANIZATION",
      "content":
      [
        ["Amanora","NNP","amanor"],
        ["Arena","NNP","aren"]
      ]
    },
    ["as","IN","as"],
    ["part","NN","part"],
    ["of","IN","of"],
    ["'Gulaal","JJ","'gulaal"],
    ["'","POS","'"],
    [".",".","."]
  ]
},
{
  "tag":"S",
  "content":
  [
    ["The","DT","The"],
    ["festival","NN","fest"],
    [",",",",","],
    ["a","DT","a"],
    ["three-day","JJ","three-day"],
    ["celebration","NN","celebr"],
    ["of","IN","of"],
    ["expression","NN","express"],
    [",",",",","],
    ["organized","VBN","org"],
    ["by","IN","by"],
    {
      "tag":"PERSON",
      "content":
      [
        ["Indian","NNP","ind"],
        ["Rhythm","NNP","rhythm"]
      ]
    },
    ["&","CC","&"],
    {
      "tag":"PERSON",
      "content":
      [
        ["Arts","NNP","art"],
        ["Association","NNP","assocy"]
      ]
    },
    ["(","NNP","("],
    {
      "tag":"ORGANIZATION",
      "content":
      [
        ["IRAA","NNP","ira"]
      ]
    },
    [")","NNP",")"],
    ["in","IN","in"],
    ["association","NN","assocy"],
    ["with","IN","with"],
    ["The","DT","The"],
    ["Times","NNP","tim"],
    ["of","IN","of"],
    {
      "tag":"GPE",
      "content":
      [
        ["India","NNP","ind"]
      ]
    },
    [",",",",","],
    ["started","VBD","start"],
    ["on","IN","on"],
    ["Friday","NNP","friday"],
    ["and","CC","and"],
    ["brings","VBZ","bring"],
    ["together","RP","together"],
    ["some","DT","some"],
    ["of","IN","of"],
    ["the","DT","the"],
    ["finest","JJS","fin"],
    ["names","NNS","nam"],
    ["in","IN","in"],
    ["dance","NN","dant"],
    ["and","CC","and"],
    ["theatre","NN","the"],
    [".",".","."]
  ]
},
{
  "tag":"S",
  "content":
  [
    {
      "tag":"PERSON",
      "content":
      [
        ["Valli","NNP","vall"]
      ]
    },
    ["called","VBD","cal"],
    ["for","IN","for"],
    ["a","DT","a"],
    ["need","NN","nee"],
    ["to","TO","to"],
    ["preserve","VB","preserv"],
    ["the","DT","the"],
    ["country","NN","country"],
    ["'s","POS","'s"],
    ["rich","JJ","rich"],
    ["artistic","JJ","art"],
    ["traditions","NNS","tradit"],
    ["through","IN","through"],
    ["more","JJR","mor"],
    ["interactions","NNS","interact"],
    ["between","IN","between"],
    ["artists","NNS","art"],
    ["and","CC","and"],
    ["audiences","NNS","audy"],
    [".",".","."]
  ]
},
{
  "tag":"S",
  "content":
  [
    ["``","``","``"],
    ["Many","JJ","many"],
    ["youngsters","NNS","youngst"],
    ["I","PRP","I"],
    ["have","VBP","hav"],
    ["met","VBN","meet"],
    ["say","NN","say"],
    ["they","PRP","they"],
    ["feel","VBP","feel"],
    ["a","DT","a"],
    ["total","NN","tot"],
    ["disconnect","NN","disconnect"],
    ["from","IN","from"],
    ["the","DT","the"],
    ["beauty","NN","beauty"],
    [",",",",","],
    ["colour","PRP$","colour"],
    [",",",",","],
    ["power","NN","pow"],
    ["and","CC","and"],
    ["even","RB","ev"],
    ["the","DT","the"],
    ["entertaining","NN","entertain"],
    ["aspects","VBZ","aspect"],
    ["of","IN","of"],
    ["classical","JJ","class"],
    {
      "tag":"GPE",
      "content":
      [
        ["Indian","JJ","ind"]
      ]
    },
    ["dance","NN","dant"],
    [".",".","."]
  ]
},
{
  "tag":"S",
  "content":
  [
    ["There","EX","There"],
    ["are","VBP","be"],
    ["far","RB","far"],
    ["too","RB","too"],
    ["many","JJ","many"],
    ["distractions","NNS","distract"],
    ["now","RB","now"],
    ["and","CC","and"],
    ["the","DT","the"],
    ["sensationalistic","JJ","sens"],
    [",",",",","],
    ["almost","RB","almost"],
    ["gymnastic","JJ","gymnast"],
    ["approach","NN","approach"],
    ["to","TO","to"],
    ["dance","NN","dant"],
    ["these","DT","these"],
    ["days","NNS","day"],
    ["only","RB","on"],
    ["brings","VBZ","bring"],
    ["instant","JJ","inst"],
    ["gratification","NN","grat"],
    [",",",",","],
    ["which","WDT","which"],
    ["I","PRP","I"],
    ["feel","VBP","feel"],
    ["is","VBZ","be"],
    ["increasingly","RB","increas"],
    ["devaluing","VBG","devalu"],
    ["the","DT","the"],
    ["pure","NN","pur"],
    ["art","NN","art"],
    ["forms","NNS","form"],
    ["of","IN","of"],
    ["the","DT","the"],
    ["country","NN","country"],
    [",",",",","],
    ["''","''","''"],
    ["she","PRP","she"],
    ["said","VBD","say"],
    [".",".","."]
  ]
},
{
  "tag":"S",
  "content":
  [
    ["Describing","VBG","describ"],
    ["dance","NN","dant"],
    ["as","IN","as"],
    ["a","DT","a"],
    ["medium","NN","med"],
    ["to","TO","to"],
    ["transcend","VB","transcend"],
    ["barriers","NNS","barry"],
    ["of","IN","of"],
    ["language","NN","langu"],
    ["and","CC","and"],
    ["culture","NN","cult"],
    [",",",",","],
    {
      "tag":"PERSON",
      "content":
      [
        ["Valli","NNP","vall"]
      ]
    },
    ["said","VBD","say"],
    ["it","PRP","it"],
    ["'s","VBZ","'s"],
    ["not","RB","not"],
    ["only","RB","on"],
    ["about","RB","about"],
    ["the","DT","the"],
    ["physical","JJ","phys"],
    ["movements","NNS","mov"],
    [",",",",","],
    ["but","CC","but"],
    ["an","DT","an"],
    ["emotional","JJ","emot"],
    [",",",",","],
    ["psychological","JJ","psycholog"],
    ["and","CC","and"],
    ["spiritual","JJ","spirit"],
    ["connect","NN","connect"],
    ["with","IN","with"],
    ["one","CD","one"],
    ["self","NN","self"],
    [".",".","."]
  ]
},
{
  "tag":"S",
  "content":
  [
    ["``","``","``"],
    ["Dance","NN","dant"],
    ["is","VBZ","be"],
    ["much","JJ","much"],
    ["more","RBR","mor"],
    ["than","IN","than"],
    ["simple","JJ","simpl"],
    ["leaps","NNS","leap"],
    ["and","CC","and"],
    ["stretches","NNS","stretch"],
    ["popularized","VBD","popul"],
    ["by","IN","by"],
    ["the","DT","the"],
    ["western","JJ","western"],
    ["approach","NN","approach"],
    [".",".","."]
  ]
},
{
  "tag":"S",
  "content":
  [
    ["There","EX","There"],
    ["needs","VBZ","nee"],
    ["to","TO","to"],
    ["also","RB","also"],
    ["be","VB","be"],
    ["poetry","JJ","poetry"],
    ["with","IN","with"],
    ["all","DT","all"],
    ["that","DT","that"],
    ["physical","JJ","phys"],
    ["power","NN","pow"],
    [",",",",","],
    ["a","DT","a"],
    ["grace","NN","grac"],
    ["with","IN","with"],
    ["the","DT","the"],
    ["precision","NN","precid"],
    ["and","CC","and"],
    ["fluidity","NN","fluid"],
    ["with","IN","with"],
    ["the","DT","the"],
    ["lines","NNS","lin"],
    [",",",",","],
    ["all","DT","all"],
    ["of","IN","of"],
    ["which","WDT","which"],
    ["come","VBN","com"],
    ["with","IN","with"],
    ["internalization","NN","intern"],
    ["of","IN","of"],
    ["the","DT","the"],
    ["dance","NN","dant"],
    ["form","NN","form"],
    [",",",",","],
    ["''","''","''"],
    ["she","PRP","she"],
    ["described","VBD","describ"],
    [".",".","."]
  ]
},
{
  "tag":"S",
  "content":
  [
    ["While","IN","While"],
    ["she","PRP","she"],
    ["agreed","VBD","agr"],
    ["that","IN","that"],
    ["there","EX","there"],
    ["was","VBD","be"],
    ["an","DT","an"],
    ["enormous","JJ","enorm"],
    ["interest","NN","interest"],
    ["among","IN","among"],
    ["youngsters","NNS","youngst"],
    ["to","TO","to"],
    ["learn","VB","learn"],
    ["classical","JJ","class"],
    ["dance","NN","dant"],
    [",",",",","],
    ["she","PRP","she"],
    ["expressed","VBD","express"],
    ["sadness","NN","sad"],
    ["at","IN","at"],
    ["many","JJ","many"],
    ["of","IN","of"],
    ["them","PRP","them"],
    ["doing","VBG","do"],
    ["it","PRP","it"],
    ["from","IN","from"],
    ["pre-recorded","JJ","pre-recorded"],
    ["DVDs","NNS","dvds"],
    [",",",",","],
    ["explaining","VBG","explain"],
    ["that","IN","that"],
    ["it","PRP","it"],
    ["'s","VBZ","'s"],
    ["impossible","JJ","imposs"],
    ["to","TO","to"],
    ["imbibe","VB","imbib"],
    ["the","DT","the"],
    ["poetry","NN","poetry"],
    ["and","CC","and"],
    ["the","DT","the"],
    ["finer","NN","fin"],
    ["nuances","NNS","nuant"],
    ["of","IN","of"],
    ["dance","NN","dant"],
    ["from","IN","from"],
    ["a","DT","a"],
    ["recording","NN","record"],
    [".",".","."]
  ]
},
{
  "tag":"S",
  "content":
  [
    {
      "tag":"GPE",
      "content":
      [
        ["Valli","NNP","vall"]
      ]
    },
    [",",",",","],
    ["whose","WP$","whose"],
    ["performance","NN","perform"],
    ["was","VBD","be"],
    ["an","DT","an"],
    ["invocation","NN","invoc"],
    ["to","TO","to"],
    ["celebrate","VB","celebr"],
    ["love","JJ","lov"],
    ["in","IN","in"],
    ["the","DT","the"],
    ["season","NN","season"],
    ["of","IN","of"],
    ["spring","NN","spring"],
    ["set","NN","set"],
    ["to","TO","to"],
    {
      "tag":"GPE",
      "content":
      [
        ["Kalidasa","NNP","kalidas"]
      ]
    },
    ["and","CC","and"],
    {
      "tag":"PERSON",
      "content":
      [
        ["Bhoja","NNP","bhoj"],
        ["Shringaara","NNP","shringaara"],
        ["Prahashanam","NNP","prahashanam"]
      ]
    },
    ["and","CC","and"],
    ["a","DT","a"],
    ["small","JJ","smal"],
    ["segment","NN","seg"],
    ["of","IN","of"],
    {
      "tag":"GPE",
      "content":
      [
        ["Varnam","NNP","varnam"]
      ]
    },
    ["on","IN","on"],
    {
      "tag":"GPE",
      "content":
      [
        ["Natraja","NNP","natraj"]
      ]
    },
    [",",",",","],
    ["also","RB","also"],
    ["heartily","RB","hearty"],
    ["appreciated","VBN","apprecy"],
    ["the","DT","the"],
    ["Pune","NNP","pun"],
    ["audience","NN","audy"],
    [".",".","."]
  ]
},
{
  "tag":"S",
  "content":
  [
    ["``","``","``"],
    ["Music","JJ","mus"],
    ["and","CC","and"],
    ["poetry","NN","poetry"],
    ["form","NN","form"],
    ["the","DT","the"],
    ["core","NN","cor"],
    ["of","IN","of"],
    ["my","PRP$","my"],
    ["dance","NN","dant"],
    [",",",",","],
    ["and","CC","and"],
    ["it","PRP","it"],
    ["is","VBZ","be"],
    ["very","RB","very"],
    ["satisfying","VBG","satisfy"],
    ["to","TO","to"],
    ["dance","NN","dant"],
    ["in","IN","in"],
    ["front","NN","front"],
    ["of","IN","of"],
    ["an","DT","an"],
    ["audience","NN","audy"],
    ["which","WDT","which"],
    ["is","VBZ","be"],
    ["able","JJ","abl"],
    ["to","TO","to"],
    ["see","VB","see"],
    ["the","DT","the"],
    ["music","NN","mus"],
    ["and","CC","and"],
    ["hear","JJ","hear"],
    ["the","DT","the"],
    ["dance","NN","dant"],
    [",",",",","],
    ["''","''","''"],
    ["she","PRP","she"],
    ["described","VBD","describ"],
    [".",".","."]
  ]
},
{
  "tag":"S",
  "content":
  [
    ["She","PRP","She"],
    ["also","RB","also"],
    ["complimented","VBD","comply"],
    ["the","DT","the"],
    ["people","NNS","peopl"],
    ["of","IN","of"],
    {
      "tag":"GPE",
      "content":
      [
        ["Pune","NNP","pun"]
      ]
    },
    ["for","IN","for"],
    ["retaining","VBG","retain"],
    ["the","DT","the"],
    ["city","NN","city"],
    ["'s","POS","'s"],
    ["ethos","NNS","etho"],
    ["and","CC","and"],
    ["rich","JJ","rich"],
    ["tradition","NN","tradit"],
    ["of","IN","of"],
    ["music","JJ","mus"],
    ["and","CC","and"],
    ["culture","NN","cult"],
    ["which","WDT","which"],
    [",",",",","],
    ["according","VBG","accord"],
    ["to","TO","to"],
    ["her","PRP$","her"],
    [",",",",","],
    ["help","NN","help"],
    ["impart","NN","impart"],
    ["depth","NN","dep"],
    ["and","CC","and"],
    ["meaningfulness","NN","mean"],
    ["to","TO","to"],
    ["an","DT","an"],
    ["artist","NN","art"],
    ["'s","POS","'s"],
    ["performance","NN","perform"],
    [".",".","."]
  ]
},
{
  "tag":"S",
  "content":
  [
    ["FEATURED","VBD","feat"],
    {
      "tag":"ORGANIZATION",
      "content":
      [
        ["ARTICLES5","NNP","articles5"],
        ["Natural","NNP","nat"]
      ]
    },
    ["tips","VBZ","tip"],
    ["to","TO","to"],
    ["prevent","VB","prev"],
    ["hair","NN","hair"],
    {
      "tag":"ORGANIZATION",
      "content":
      [
        ["loss7","NNP","loss7"]
      ]
    },
    ["Day","NNP","day"],
    ["flat","JJ","flat"],
    ["belly","RB","bel"],
    ["diet","JJ","diet"],
    {
      "tag":"ORGANIZATION",
      "content":
      [
        ["plan10","NNP","plan10"]
      ]
    },
    ["tips","NNS","tip"],
    ["to","TO","to"],
    ["get","VB","get"],
    ["rid","JJ","rid"],
    ["of","IN","of"],
    ["under","IN","under"],
    ["eye","NN","ey"],
    ["puffinessMore:10","-NONE-","puffinessMore:10"],
    ["tips","VBZ","tip"],
    ["to","TO","to"],
    ["get","VB","get"],
    ["rid","JJ","rid"],
    ["of","IN","of"],
    ["under","IN","under"],
    ["eye","NN","ey"],
    {
      "tag":"ORGANIZATION",
      "content":
      [
        ["puffiness20","NNP","puffiness20"]
      ]
    },
    ["ways","NNS","way"],
    ["to","TO","to"],
    ["gain","VB","gain"],
    ["weight","NN","weight"],
    {
      "tag":"ORGANIZATION",
      "content":
      [
        ["fast3","NNP","fast3"]
      ]
    },
    ["simple","NN","simpl"],
    ["exercises","NNS","exerc"],
    ["for","IN","for"],
    ["a","DT","a"],
    ["flat","JJ","flat"],
    {
      "tag":"ORGANIZATION",
      "content":
      [
        ["tummyGoogle","NNP","tummygoogl"]
      ]
    },
    ["Nexus","NNP","nex"],
    ["5","CD","5"],
    ["leaked","VBD","leak"],
    ["photos","NNS","photo"],
    ["show","VBP","show"],
    ["Android","NNP","android"],
    ["4.4","CD","4.4"],
    {
      "tag":"ORGANIZATION",
      "content":
      [
        ["features15","NNP","features15"]
      ]
    },
    ["dos","NNS","do"],
    ["and","CC","and"],
    ["don'ts","NNS","don'ts"],
    ["about","IN","about"],
    ["diet","JJ","diet"],
    ["for","IN","for"],
    ["high","JJ","high"],
    ["uric","JJ","ur"],
    ["acid","NN","acid"],
    {
      "tag":"ORGANIZATION",
      "content":
      [
        ["levels5","NNP","levels5"]
      ]
    },
    ["things","NNS","thing"],
    ["to","TO","to"],
    ["eat","VB","eat"],
    ["to","TO","to"],
    ["lose","VB","los"],
    ["weight","NN","weight"],
    ["RELATED","VBN","rel"],
    {
      "tag":"ORGANIZATION",
      "content":
      [
        ["ARTICLESBharatnatyam","NNP","articlesbharatnatyam"]
      ]
    },
    ["popular","JJ","popul"],
    ["among","IN","among"],
    {
      "tag":"GSP",
      "content":
      [
        ["Chinese","JJ","chines"]
      ]
    },
    ["youthAugust","NNP","youthaugust"],
    ["8","CD","8"],
    [",",",",","],
    ["2007Azmi","CD","2007Azmi"],
    [",",",",","],
    {
      "tag":"PERSON",
      "content":
      [
        ["Rawal","NNP","raw"]
      ]
    },
    ["to","TO","to"],
    ["perform","VB","perform"],
    ["at","IN","at"],
    ["'Gulaal","JJ","'gulaal"],
    ["'","''","'"],
    ["festFebruary","NNP","festfebru"],
    ["17","CD","17"],
    [",",",",","],
    ["2013Kids","CD","2013Kids"],
    ["create","NN","cre"],
    ["magic","NN","mag"],
    ["at","IN","at"],
    ["dance","NN","dant"],
    ["fiestaAugust","NNP","fiestaaugust"],
    ["10","CD","10"],
    [",",",",","],
    ["2010IN-DEPTH","JJ","2010in-depth"],
    {
      "tag":"ORGANIZATION",
      "content":
      [
        ["COVERAGEClassical","NNP","coverageclass"]
      ]
    },
    ["DanceSong","NNP","dancesong"],
    ["And","CC","And"],
    {
      "tag":"ORGANIZATION",
      "content":
      [
        ["DanceTHE","NNP","danceth"]
      ]
    },
    ["TIMES","NNP","tim"],
    ["OF","NNP","of"],
    ["INDIA©","NNP","india©"],
    ["2013","CD","2013"],
    {
      "tag":"PERSON",
      "content":
      [
        ["Bennett","NNP","bennet"]
      ]
    },
    [",",",",","],
    {
      "tag":"PERSON",
      "content":
      [
        ["Coleman","NNP","colem"]
      ]
    },
    ["&","CC","&"],
    ["Co.","NNP","co."],
    ["Ltd.","NNP","ltd."],
    ["All","NNP","al"],
    ["rights","NNS","right"],
    ["reservedIndex","NNP","reservedindex"],
    ["by","IN","by"],
    ["Keyword|Index","NN","keyword|index"],
    ["by","IN","by"],
    ["Datewww.timesofindia.comFeedback|Privacy","NN","datewww.timesofindia.comfeedback|privacy"],
    ["Policy|Terms","NNS","policy|terms"],
    ["of","IN","of"],
    ["Use|Advertise","JJ","use|advertis"],
    ["with","IN","with"],
    ["us","PRP","us"]
  ]
}]