[
{
  "tag":"S",
  "content":
  [
    ["Thursday","NNP","thursday"],
    ["17","CD","17"],
    ["October","NNP","octob"],
    ["2013","CD","2013"],
    ["ebooks","NNS","ebook"],
    ["i","PRP","i"],
    {
      "tag":"PERSON",
      "content":
      [
        ["Jobs","NNP","job"],
        ["Dating","NNP","dat"],
        ["Shop","NNP","shop"],
        ["Click","NNP","click"]
      ]
    },
    ["here","RB","her"],
    ["...",":","..."],
    {
      "tag":"ORGANIZATION",
      "content":
      [
        ["News","NNP","new"],
        ["Voices","NNPS","voic"],
        ["Sport","NNP","sport"],
        ["Tech","NNP","tech"],
        ["Life","NNP","lif"],
        ["Property","NNP","property"],
        ["Arts","NNP","art"]
      ]
    },
    ["&","CC","&"],
    {
      "tag":"PERSON",
      "content":
      [
        ["Ents","NNP","ent"],
        ["Travel","NNP","travel"],
        ["News","NNP","new"]
      ]
    },
    ["&","CC","&"],
    {
      "tag":"ORGANIZATION",
      "content":
      [
        ["Advice","NNP","adv"],
        ["Simon","NNP","simon"]
      ]
    },
    ["Calder","NNP","cald"],
    ["48","CD","48"],
    ["Hours","NNS","hour"],
    ["In","IN","In"],
    {
      "tag":"GPE",
      "content":
      [
        ["Africa","NNP","afric"]
      ]
    },
    ["Americas","NNP","america"],
    {
      "tag":"GPE",
      "content":
      [
        ["Asia","NNP","as"]
      ]
    },
    ["Australasia","NNP","australas"],
    ["&","CC","&"],
    {
      "tag":"PERSON",
      "content":
      [
        ["Pacific","NNP","pac"],
        ["Europe","NNP","europ"],
        ["Middle","NNP","middl"],
        ["East","NNP","east"],
        ["UK","NNP","uk"],
        ["Hotels","NNP","hotel"],
        ["Skiing","NNP","ski"],
        ["Skiing","NNP","ski"],
        ["Conditions","NNP","condit"],
        ["Video","NNP","video"],
        ["Secret","NNP","secret"],
        ["Escapes","NNP","escap"],
        ["Money","NNP","money"],
        ["IndyBest","NNP","indybest"],
        ["Blogs","NNP","blog"],
        ["Student","NNP","stud"]
      ]
    },
    ["Offers","NNP","off"],
    ["Technical","NNP","techn"],
    {
      "tag":"PERSON",
      "content":
      [
        ["Schools","NNP","schools"],
        ["Trade","NNP","trad"]
      ]
    },
    ["with","IN","with"],
    {
      "tag":"GPE",
      "content":
      [
        ["China","NNP","chin"]
      ]
    },
    {
      "tag":"PERSON",
      "content":
      [
        ["Clinton","NNP","clinton"]
      ]
    },
    ["gets","VBZ","get"],
    ["a","DT","a"],
    ["parking","NN","park"],
    ["ticket","NN","ticket"],
    {
      "tag":"PERSON",
      "content":
      [
        ["George","NNP","georg"],
        ["Osborne","NNP","osborn"],
        ["Greece","NNP","greec"],
        ["Michael","NNP","michael"],
        ["Gove","NNP","gov"],
        ["Click","NNP","click"]
      ]
    },
    ["here","RB","her"],
    ["...",":","..."],
    {
      "tag":"PERSON",
      "content":
      [
        ["Travel","NNP","travel"]
      ]
    },
    [">",":",">"],
    {
      "tag":"PERSON",
      "content":
      [
        ["Americas","NNP","america"],
        ["Click","NNP","click"]
      ]
    },
    ["here","RB","her"],
    ["...",":","..."]
  ]
},
{
  "tag":"S",
  "content":
  [
    ["The","DT","The"],
    ["railway","NN","railway"],
    ["line","NN","lin"],
    ["that","WDT","that"],
    ["keeps","VBZ","keep"],
    ["on","IN","on"],
    ["rolling","NN","rol"],
    ["On","IN","On"],
    ["the","DT","the"],
    ["road","NN","road"],
    [":",":",":"],
    ["In","IN","In"],
    {
      "tag":"GSP",
      "content":
      [
        ["Ecuador","NNP","ecuad"]
      ]
    },
    {
      "tag":"PERSON",
      "content":
      [
        ["Robert","NNP","robert"],
        ["Kunstaetter","NNP","kunstaet"]
      ]
    },
    ["Saturday","NNP","saturday"],
    ["07","CD","07"],
    ["September","NNP","septemb"],
    ["2013","CD","2013"],
    ["Print","NNP","print"],
    ["Your","NNP","yo"],
    ["friend","NN","friend"],
    ["'s","POS","'s"],
    ["email","NN","email"],
    ["address","NN","address"],
    ["Your","NNP","yo"],
    ["email","NN","email"],
    ["address","NN","address"],
    ["Note","NNP","not"],
    [":",":",":"],
    ["We","PRP","We"],
    ["do","VBP","do"],
    ["not","RB","not"],
    ["store","VB","stor"],
    ["your","PRP$","your"],
    ["email","NN","email"],
    ["address","NN","address"],
    ["(",":","("],
    ["es","NNS","e"],
    [")","VBP",")"],
    ["but","CC","but"],
    ["your","PRP$","your"],
    ["IP","NNP","ip"],
    ["address","NN","address"],
    ["will","MD","will"],
    ["be","VB","be"],
    ["logged","VBN","log"],
    ["to","TO","to"],
    ["prevent","VB","prev"],
    ["abuse","NN","abus"],
    ["of","IN","of"],
    ["this","DT","this"],
    ["feature","NN","feat"],
    [".",".","."]
  ]
},
{
  "tag":"S",
  "content":
  [
    {
      "tag":"GPE",
      "content":
      [
        ["Please","NN","pleas"]
      ]
    },
    ["read","VBD","read"],
    ["our","PRP$","our"],
    ["Legal","NNP","leg"],
    ["Terms","NNP","term"],
    ["&","CC","&"],
    ["Policies","NNP","policy"],
    ["A","DT","A"],
    ["A","DT","A"],
    ["A","DT","A"],
    ["Email","NNP","email"],
    ["div.slideshow","NNP","div.slideshow"],
    ["img","NN","img"],
    ["{",":","{"],
    ["display","NN","display"],
    [":",":",":"],
    ["none","NN","non"],
    [";",":",";"],
    ["}",":","}"],
    [".galleria-image-nav","NN",".galleria-image-nav"],
    ["{",":","{"],
    ["display","NN","display"],
    [":",":",":"],
    ["none","NN","non"],
    [";",":",";"],
    ["}",":","}"],
    ["div.slideshow","JJ","div.slideshow"],
    [".galleria-stage","NN",".galleria-stage"],
    ["{",":","{"],
    ["top","JJ","top"],
    [":",":",":"],
    ["0px","CD","0px"],
    [";",":",";"],
    ["}",":","}"],
    ["div.slideshow","JJ","div.slideshow"],
    [".galleria-info","NN",".galleria-info"],
    ["{",":","{"],
    ["top","JJ","top"],
    [":",":",":"],
    ["10px","CD","10px"],
    [";",":",";"],
    ["}",":","}"],
    ["div.slideshow","JJ","div.slideshow"],
    [".galleria-counter","NN",".galleria-counter"],
    ["{",":","{"],
    ["display","NN","display"],
    [":",":",":"],
    ["none","NN","non"],
    ["!",".","!"],
    ["important","JJ","import"],
    [";",":",";"],
    ["}",":","}"],
    ["div","NN","div"],
    ["#","#","#"],
    ["galleriaLoadId-7804719","-NONE-","galleriaLoadId-7804719"],
    ["{",":","{"],
    ["height:345px","JJ","height:345px"],
    ["!",".","!"],
    ["important","JJ","import"],
    [";",":",";"],
    ["background-color","JJ","background-color"],
    [":",":",":"],
    ["#","#","#"],
    ["fff","NN","fff"],
    [";",":",";"],
    ["}",":","}"],
    [".FirstImage","NN",".firstimage"],
    ["{",":","{"],
    ["margin-top:0","-NONE-","margin-top:0"],
    ["!",".","!"],
    ["important","JJ","import"],
    [";",":",";"],
    ["}",":","}"],
    ["div.slideshow","JJ","div.slideshow"],
    ["#","#","#"],
    ["slideshow-7804719","-NONE-","slideshow-7804719"],
    [".galleria-thumbnails-container","JJ",".galleria-thumbnails-container"],
    ["{","NN","{"],
    ["height","NN","height"],
    [":",":",":"],
    ["10px","CD","10px"],
    [";",":",";"],
    ["bottom","NN","bottom"],
    [":",":",":"],
    ["0","-NONE-","0"],
    [";",":",";"],
    ["position","NN","posit"],
    [":",":",":"],
    ["absolute","JJ","absolv"],
    [";",":",";"],
    ["left","NN","left"],
    [":",":",":"],
    ["10px","CD","10px"],
    [";",":",";"],
    ["right","RB","right"],
    [":",":",":"],
    ["10px","CD","10px"],
    [";",":",";"],
    ["z-index","NN","z-index"],
    [":",":",":"],
    ["2","CD","2"],
    [";",":",";"],
    ["}",":","}"],
    ["div.slideshow","JJ","div.slideshow"],
    ["#","#","#"],
    ["slideshow-7804719","-NONE-","slideshow-7804719"],
    [".galleria-container","JJ",".galleria-container"],
    [".galleria-stage","NN",".galleria-stage"],
    ["{",":","{"],
    ["height","NN","height"],
    [":",":",":"],
    ["385px","CD","385px"],
    [";",":",";"],
    ["}",":","}"],
    ["div.slideshow","JJ","div.slideshow"],
    ["#","#","#"],
    ["slideshow-7804719","-NONE-","slideshow-7804719"],
    [".galleria-thumbnails","VBZ",".galleria-thumbnails"],
    [".galleria-image","JJ",".galleria-image"],
    ["{","NN","{"],
    ["height","NN","height"],
    [":",":",":"],
    ["0px","CD","0px"],
    [";",":",";"],
    ["width","NN","wid"],
    [":",":",":"],
    ["0px","CD","0px"],
    [";",":",";"],
    ["background","NN","background"],
    [":",":",":"],
    ["#","#","#"],
    ["000","CD","000"],
    [";",":",";"],
    ["margin","NN","margin"],
    [":",":",":"],
    ["0","-NONE-","0"],
    ["5px","CD","5px"],
    ["0","-NONE-","0"],
    ["0","-NONE-","0"],
    [";",":",";"],
    ["border","NN","bord"],
    [":",":",":"],
    ["1px","CD","1px"],
    ["solid","JJ","solid"],
    ["#","#","#"],
    ["000","CD","000"],
    [";",":",";"],
    [";",":",";"],
    ["float","NN","flo"],
    [":",":",":"],
    ["left","VBN","leav"],
    [";",":",";"],
    ["cursor","NN","curs"],
    [":",":",":"],
    ["pointer","NN","point"],
    [";",":",";"],
    ["}",":","}"],
    ["div.slideshow","JJ","div.slideshow"],
    ["#","#","#"],
    ["slideshow-7804719","-NONE-","slideshow-7804719"],
    [".galleria-counter","JJ",".galleria-counter"],
    ["{","NN","{"],
    ["bottom","NN","bottom"],
    [":",":",":"],
    ["23px","CD","23px"],
    ["!",".","!"],
    ["important","JJ","import"],
    [";",":",";"],
    ["}",":","}"],
    [".galleria-lightbox-image","NN",".galleria-lightbox-image"],
    ["img","NN","img"],
    ["{",":","{"],
    ["border-width:0","-NONE-","border-width:0"],
    [";",":",";"],
    ["}",":","}"],
    ["div","NN","div"],
    ["#","#","#"],
    ["galleriaLoadId-7804719","-NONE-","galleriaLoadId-7804719"],
    ["{",":","{"],
    ["display","NN","display"],
    [":",":",":"],
    ["block","NN","block"],
    [";",":",";"],
    ["height:385px","JJ","height:385px"],
    [";",":",";"],
    ["width:460px","JJ","width:460px"],
    [";",":",";"],
    ["background-color","JJ","background-color"],
    [":",":",":"],
    ["#","#","#"],
    {
      "tag":"ORGANIZATION",
      "content":
      [
        ["DDDDDD","NNP","dddddd"]
      ]
    },
    [";",":",";"],
    ["z-index","NN","z-index"],
    [":",":",":"],
    ["10000","CD","10000"],
    [";",":",";"],
    ["overflow","JJ","overflow"],
    [":",":",":"],
    ["hidden","JJ","hid"],
    [";",":",";"],
    ["position","NN","posit"],
    [":",":",":"],
    ["relative","JJ","rel"],
    [";",":",";"],
    ["top","JJ","top"],
    [":",":",":"],
    ["0px","CD","0px"],
    [";",":",";"],
    ["left","VBN","leav"],
    [":",":",":"],
    ["0px","CD","0px"],
    [";",":",";"],
    ["}",":","}"],
    ["Suggested","NNP","suggest"],
    ["Topics","NNP","top"],
    ["Latin","NNP","latin"],
    {
      "tag":"ORGANIZATION",
      "content":
      [
        ["America","NNP","americ"],
        ["Ecuador","NNP","ecuad"],
        ["Sea","NNP","sea"],
        ["And","CC","And"],
        ["Ocean","NNP","oc"],
        ["South","NNP","sou"],
        ["America","NNP","americ"],
        ["Entrepreuneurship","NNP","entrepreun"]
      ]
    },
    ["As","NNP","as"],
    ["I","NNP","i"],
    ["boarded","VBD","board"],
    ["the","DT","the"],
    ["modern","JJ","modern"],
    [",",",",","],
    ["glass-encased","JJ","glass-encased"],
    ["railway","NN","railway"],
    ["carriage","NN","carry"],
    ["I","PRP","I"],
    ["could","MD","could"],
    ["n't","RB","n't"],
    ["help","VB","help"],
    ["but","CC","but"],
    ["think","VB","think"],
    ["that","IN","that"],
    ["this","DT","this"],
    ["had","VBD","hav"],
    ["not","RB","not"],
    ["always","RB","alway"],
    ["been","VBN","be"],
    ["a","DT","a"],
    ["tourist","NN","tour"],
    ["train","NN","train"],
    [".",".","."]
  ]
},
{
  "tag":"S",
  "content":
  [
    ["I","PRP","I"],
    ["first","VBP","first"],
    ["rode","JJ","rod"],
    ["these","DT","these"],
    ["rails","NNS","rail"],
    ["25","CD","25"],
    ["years","NNS","year"],
    ["ago","IN","ago"],
    ["on","IN","on"],
    ["the","DT","the"],
    ["roof","NN","roof"],
    ["of","IN","of"],
    ["some","DT","some"],
    ["1920s-vintage","JJ","1920s-vintage"],
    ["rolling","NN","rol"],
    ["stock","NN","stock"],
    [".",".","."]
  ]
},
{
  "tag":"S",
  "content":
  [
    ["At","IN","At"],
    ["the","DT","the"],
    ["time","NN","tim"],
    [",",",",","],
    ["wheels","NNS","wheel"],
    ["screeched","VBD","screech"],
    [",",",",","],
    {
      "tag":"GPE",
      "content":
      [
        ["Andean","NNP","and"]
      ]
    },
    ["scenery","NN","scenery"],
    ["lurched","VBD","lurch"],
    ["and","CC","and"],
    ["swayed","VBN","sway"],
    ["around","IN","around"],
    ["me","PRP","me"],
    [",",",",","],
    ["and","CC","and"],
    ["I","PRP","I"],
    ["hung","VBP","hang"],
    ["on","IN","on"],
    ["for","IN","for"],
    ["dear","JJ","dear"],
    ["life","NN","lif"],
    [".",".","."]
  ]
},
{
  "tag":"S",
  "content":
  [
    ["These","DT","These"],
    ["thrills","NNS","thrill"],
    ["came","VBD","com"],
    ["to","TO","to"],
    ["an","DT","an"],
    ["abrupt","JJ","abrupt"],
    ["end","NN","end"],
    ["in","IN","in"],
    ["2007","CD","2007"],
    [",",",",","],
    ["when","WRB","when"],
    ["two","CD","two"],
    ["tourists","NNS","tour"],
    ["were","VBD","be"],
    ["decapitated","VBN","decapit"],
    ["by","IN","by"],
    ["an","DT","an"],
    ["overhead","JJ","overhead"],
    ["wire","NN","wir"],
    ["and","CC","and"],
    ["riding","VBG","rid"],
    ["the","DT","the"],
    ["roof","NN","roof"],
    ["was","VBD","be"],
    ["prohibited","VBN","prohibit"],
    [".",".","."]
  ]
},
{
  "tag":"S",
  "content":
  [
    ["At","IN","At"],
    ["the","DT","the"],
    ["dawn","NN","dawn"],
    ["of","IN","of"],
    ["the","DT","the"],
    ["20th","JJ","20th"],
    ["century","NN","century"],
    ["this","DT","this"],
    ["was","VBD","be"],
    ["not","RB","not"],
    ["a","DT","a"],
    ["tourist","NN","tour"],
    ["train","NN","train"],
    ["at","IN","at"],
    ["all","DT","all"],
    [".",".","."]
  ]
},
{
  "tag":"S",
  "content":
  [
    ["Rather","RB","rath"],
    ["it","PRP","it"],
    ["was","VBD","be"],
    {
      "tag":"PERSON",
      "content":
      [
        ["Ecuador","NNP","ecuad"]
      ]
    },
    ["'s","POS","'s"],
    ["pride","NN","prid"],
    ["and","CC","and"],
    ["joy","NN","joy"],
    [",",",",","],
    ["the","DT","the"],
    ["result","NN","result"],
    ["of","IN","of"],
    ["an","DT","an"],
    ["internationally","RB","intern"],
    ["acclaimed","VBN","acclaim"],
    ["11-year","JJ","11-year"],
    ["effort","NN","effort"],
    ["by","IN","by"],
    ["president","NN","presid"],
    {
      "tag":"PERSON",
      "content":
      [
        ["Eloy","NNP","eloy"],
        ["Alfaro","NNP","alfaro"]
      ]
    },
    ["and","CC","and"],
    {
      "tag":"GSP",
      "content":
      [
        ["US","NNP","us"]
      ]
    },
    ["entrepreneur","NN","entrepr"],
    {
      "tag":"PERSON",
      "content":
      [
        ["Archer","NNP","arch"],
        ["Harman","NNP","harm"]
      ]
    },
    [".",".","."]
  ]
},
{
  "tag":"S",
  "content":
  [
    {
      "tag":"PERSON",
      "content":
      [
        ["Alongside","NNP","alongsid"]
      ]
    },
    {
      "tag":"PERSON",
      "content":
      [
        ["Alfaro","NNP","alfaro"]
      ]
    },
    ["'s","POS","'s"],
    ["sweeping","JJ","sweep"],
    ["liberal","NN","lib"],
    ["reforms","NNS","reform"],
    [",",",",","],
    ["these","DT","these"],
    ["rails","NNS","rail"],
    ["carried","VBD","carry"],
    ["the","DT","the"],
    ["country","NN","country"],
    ["into","IN","into"],
    ["the","DT","the"],
    ["new","JJ","new"],
    ["century.It","NN","century.it"],
    ["is","VBZ","be"],
    ["a","DT","a"],
    ["spectacular","JJ","spectacul"],
    ["464km","CD","464km"],
    ["line","NN","lin"],
    ["with","IN","with"],
    ["a","DT","a"],
    ["unique","JJ","un"],
    ["set","NN","set"],
    ["of","IN","of"],
    ["switchbacks","NNS","switchback"],
    ["to","TO","to"],
    ["climb","VB","climb"],
    ["the","DT","the"],
    ["daunting","NN","daunt"],
    ["slope","NN","slop"],
    ["known","VBN","know"],
    ["as","IN","as"],
    ["the","DT","the"],
    {
      "tag":"ORGANIZATION",
      "content":
      [
        ["Devil","NNP","devil"]
      ]
    },
    ["'s","POS","'s"],
    ["Nose","NNP","nos"],
    [".",".","."]
  ]
},
{
  "tag":"S",
  "content":
  [
    ["It","PRP","It"],
    ["runs","VBZ","run"],
    ["from","IN","from"],
    ["Durán","JJ","durán"],
    [",",",",","],
    ["outside","IN","outside"],
    ["the","DT","the"],
    ["port","NN","port"],
    ["city","NN","city"],
    ["of","IN","of"],
    {
      "tag":"GPE",
      "content":
      [
        ["Guayaquil","NNP","guayaquil"]
      ]
    },
    [",",",",","],
    ["up","RB","up"],
    ["to","TO","to"],
    {
      "tag":"PERSON",
      "content":
      [
        ["Ecuador","NNP","ecuad"]
      ]
    },
    ["'s","POS","'s"],
    ["capital","NN","capit"],
    [",",",",","],
    {
      "tag":"PERSON",
      "content":
      [
        ["Quito","NNP","quito"]
      ]
    },
    [",",",",","],
    ["at","IN","at"],
    ["2,850m","CD","2,850m"],
    ["above","IN","above"],
    ["sea","NN","sea"],
    ["level","NN","level"],
    [".",".","."]
  ]
},
{
  "tag":"S",
  "content":
  [
    ["The","DT","The"],
    ["line","NN","lin"],
    ["first","RB","first"],
    ["passes","VBZ","pass"],
    ["through","IN","through"],
    ["87km","CD","87km"],
    ["of","IN","of"],
    ["delta","NN","delt"],
    ["lands","NNS","land"],
    ["and","CC","and"],
    ["then","RB","then"],
    [",",",",","],
    ["in","IN","in"],
    ["another","DT","another"],
    ["80km","CD","80km"],
    [",",",",","],
    ["climbs","NNS","climb"],
    ["to","TO","to"],
    ["3,238m","CD","3,238m"],
    [",",",",","],
    ["before","IN","before"],
    ["reaching","NN","reach"],
    ["Riobamba","NNP","riobamb"],
    ["in","IN","in"],
    ["the","DT","the"],
    ["heart","NN","heart"],
    ["of","IN","of"],
    {
      "tag":"GPE",
      "content":
      [
        ["Ecuador","NNP","ecuad"]
      ]
    },
    ["'s","POS","'s"],
    ["``","``","``"],
    ["Avenue","NNP","avenu"],
    ["of","IN","of"],
    ["the","DT","the"],
    {
      "tag":"ORGANIZATION",
      "content":
      [
        ["Volcanoes","NNP","volcano"]
      ]
    },
    ["''","''","''"],
    [".",".","."]
  ]
},
{
  "tag":"S",
  "content":
  [
    ["The","DT","The"],
    ["highest","JJS","high"],
    ["point","NN","point"],
    ["is","VBZ","be"],
    ["3,619m","CD","3,619m"],
    [",",",",","],
    ["after","IN","after"],
    ["which","WDT","which"],
    ["the","DT","the"],
    ["line","NN","lin"],
    ["falls","VBZ","fal"],
    ["and","CC","and"],
    ["rises","NNS","ris"],
    ["on","IN","on"],
    ["its","PRP$","its"],
    ["way","NN","way"],
    ["to","TO","to"],
    ["Quito.The","NNP","quito.the"],
    ["G","NNP","g"],
    ["&","CC","&"],
    ["Q","NNP","q"],
    ["railway","NN","railway"],
    ["remained","VBD","remain"],
    ["the","DT","the"],
    ["backbone","NN","backbon"],
    ["of","IN","of"],
    ["transportation","NN","transport"],
    ["in","IN","in"],
    {
      "tag":"GPE",
      "content":
      [
        ["Ecuador","NNP","ecuad"]
      ]
    },
    ["for","IN","for"],
    ["more","JJR","mor"],
    ["than","IN","than"],
    ["60","CD","60"],
    ["years","NNS","year"],
    [",",",",","],
    ["but","CC","but"],
    ["time","NN","tim"],
    ["and","CC","and"],
    ["neglect","VB","neglect"],
    ["eventually","RB","ev"],
    ["took","VBD","tak"],
    ["their","PRP$","their"],
    ["toll","NN","tol"],
    ["and","CC","and"],
    ["by","IN","by"],
    ["the","DT","the"],
    ["turn","NN","turn"],
    ["of","IN","of"],
    ["the","DT","the"],
    ["millennium","NN","millenn"],
    ["only","RB","on"],
    ["a","DT","a"],
    ["few","JJ","few"],
    ["short","JJ","short"],
    ["segments","NNS","seg"],
    ["remained","VBD","remain"],
    ["in","IN","in"],
    ["service","NN","serv"],
    [".",".","."]
  ]
},
{
  "tag":"S",
  "content":
  [
    ["There","EX","There"],
    ["was","VBD","be"],
    ["often","RB","oft"],
    ["talk","VBP","talk"],
    ["of","IN","of"],
    ["reviving","VBG","rev"],
    ["the","DT","the"],
    ["railway","NN","railway"],
    ["but","CC","but"],
    ["only","RB","on"],
    ["in","IN","in"],
    ["2007","CD","2007"],
    ["did","VBD","do"],
    ["the","DT","the"],
    ["current","JJ","cur"],
    ["government","NN","govern"],
    [",",",",","],
    ["ideological","JJ","ideolog"],
    ["heir","NN","heir"],
    ["of","IN","of"],
    ["President","NNP","presid"],
    {
      "tag":"PERSON",
      "content":
      [
        ["Alfaro","NNP","alfaro"]
      ]
    },
    [",",",",","],
    ["undertake","VB","undertak"],
    ["this","DT","this"],
    ["task.The","JJ","task.the"],
    ["line","NN","lin"],
    ["from","IN","from"],
    ["Durán","JJ","durán"],
    ["to","TO","to"],
    {
      "tag":"PERSON",
      "content":
      [
        ["Quito","NNP","quito"]
      ]
    },
    ["reopened","VBD","reop"],
    ["earlier","JJR","ear"],
    ["this","DT","this"],
    ["year","NN","year"],
    [".",".","."]
  ]
},
{
  "tag":"S",
  "content":
  [
    ["From","IN","From"],
    ["new","JJ","new"],
    ["concrete","JJ","concret"],
    ["ties","NNS","tie"],
    ["to","TO","to"],
    ["the","DT","the"],
    ["modern","JJ","modern"],
    ["rolling","NN","rol"],
    ["stock","NN","stock"],
    [",",",",","],
    ["this","DT","this"],
    ["is","VBZ","be"],
    ["unquestionably","RB","unquest"],
    ["a","DT","a"],
    ["formidable","JJ","formid"],
    ["achievement","NN","achiev"],
    [",",",",","],
    ["but","CC","but"],
    ["what","WP","what"],
    ["remains","VBZ","remain"],
    ["unclear","JJ","unclear"],
    ["is","VBZ","be"],
    ["the","DT","the"],
    ["purpose","NN","purpos"],
    ["of","IN","of"],
    ["the","DT","the"],
    ["refurbished","JJ","refurb"],
    ["railway","NN","railway"],
    [".",".","."]
  ]
},
{
  "tag":"S",
  "content":
  [
    ["For","IN","For"],
    ["it","PRP","it"],
    ["still","RB","stil"],
    ["offers","VBZ","off"],
    ["only","RB","on"],
    ["a","DT","a"],
    ["series","NN","sery"],
    ["of","IN","of"],
    ["short","JJ","short"],
    ["–","NN","–"],
    ["still","RB","stil"],
    ["spectacular","JJ","spectacul"],
    ["but","CC","but"],
    ["no","DT","no"],
    ["longer","JJR","long"],
    ["cheap","NN","cheap"],
    ["–",":","–"],
    ["tourist","NN","tour"],
    ["rides","VBZ","rid"],
    [",",",",","],
    ["plus","CC","plus"],
    ["an","DT","an"],
    ["all-inclusive","JJ","all-inclusive"],
    ["four-day/three-night","JJ","four-day/three-night"],
    ["package","NN","pack"],
    ["priced","VBN","pric"],
    ["at","IN","at"],
    {
      "tag":"ORGANIZATION",
      "content":
      [
        ["US","NNP","us"]
      ]
    },
    ["$","$","$"],
    ["1,270","CD","1,270"],
    ["(","CD","("],
    ["£850","-NONE-","£850"],
    [")",":",")"],
    [".",".","."]
  ]
},
{
  "tag":"S",
  "content":
  [
    {
      "tag":"GPE",
      "content":
      [
        ["Was","NNP","was"]
      ]
    },
    ["this","DT","this"],
    ["the","DT","the"],
    ["dream","NN","dream"],
    ["of","IN","of"],
    {
      "tag":"PERSON",
      "content":
      [
        ["Eloy","NNP","eloy"],
        ["Alfaro","NNP","alfaro"]
      ]
    },
    ["and","CC","and"],
    {
      "tag":"PERSON",
      "content":
      [
        ["Archer","NNP","arch"],
        ["Harman","NNP","harm"]
      ]
    },
    ["?",".","?"],
    {
      "tag":"PERSON",
      "content":
      [
        ["Footprint","NNP","footprint"]
      ]
    },
    ["'s","POS","'s"],
    ["'Ecuador","JJ","'ecuador"],
    ["&","CC","&"],
    ["Galápagos","NNP","galápago"],
    ["Dream","NNP","dream"],
    ["Trip","NNP","trip"],
    ["'","POS","'"],
    ["is","VBZ","be"],
    ["out","RP","out"],
    ["now","RB","now"],
    [",",",",","],
    ["priced","VBN","pric"],
    ["£9.99","-NONE-","£9.99"],
    ["(",":","("],
    ["footprinttravelguides.com","JJ","footprinttravelguides.com"],
    [")","NN",")"]
  ]
}]