[
{
  "tag":"S",
  "content":
  [
    {
      "tag":"GPE",
      "content":
      [
        ["Skip","NNP","skip"]
      ]
    },
    ["to","TO","to"],
    [":",":",":"],
    {
      "tag":"PERSON",
      "content":
      [
        ["Main","NNP","main"],
        ["Content","NNP","cont"],
        ["Site","NNP","sit"]
      ]
    },
    ["Navigation","NNP","navig"],
    ["Site","NNP","sit"],
    ["Footer","NNP","foot"],
    ["Site","NNP","sit"],
    ["Search","NNP","search"],
    ["Site","NNP","sit"],
    ["Map","NNP","map"],
    {
      "tag":"PERSON",
      "content":
      [
        ["Network","NNP","network"],
        ["Navigation","NNP","navig"]
      ]
    },
    ["(","NNP","("],
    ["other","JJ","oth"],
    ["sites","NNS","sit"],
    [")",":",")"],
    {
      "tag":"PERSON",
      "content":
      [
        ["Login","NNP","login"],
        ["Sign","NNP","sign"],
        ["Up","NNP","up"],
        ["Login","NNP","login"]
      ]
    },
    ["using","VBG","us"],
    ["your","PRP$","your"],
    ["social","JJ","soc"],
    ["network","NN","network"],
    {
      "tag":"PERSON",
      "content":
      [
        ["Social","NNP","soc"],
        ["Login","NNP","login"],
        ["Social","NNP","soc"],
        ["Network","NNP","network"]
      ]
    },
    ["*","-NONE-","*"],
    ["Login","NNP","login"],
    ["with","IN","with"],
    {
      "tag":"PERSON",
      "content":
      [
        ["Facebook","NNP","facebook"],
        ["Login","NNP","login"]
      ]
    },
    ["with","IN","with"],
    {
      "tag":"PERSON",
      "content":
      [
        ["Twitter","NNP","twit"],
        ["Login","NNP","login"]
      ]
    },
    ["with","IN","with"],
    {
      "tag":"ORGANIZATION",
      "content":
      [
        ["LinkedIn","NNP","linkedin"],
        ["Login","NNP","login"]
      ]
    },
    ["with","IN","with"],
    {
      "tag":"PERSON",
      "content":
      [
        ["Google","NNP","googl"],
        ["Login","NNP","login"],
        ["Login","NNP","login"]
      ]
    },
    ["using","VBG","us"],
    ["your","PRP$","your"],
    {
      "tag":"ORGANIZATION",
      "content":
      [
        ["Newspass","NNP","newspass"]
      ]
    },
    ["account","NN","account"],
    {
      "tag":"PERSON",
      "content":
      [
        ["User","NNP","us"],
        ["Login","NNP","login"],
        ["Username","NNP","usernam"]
      ]
    },
    ["*","-NONE-","*"],
    ["Password","NNP","password"],
    ["*","-NONE-","*"],
    ["Remember","VB","rememb"],
    ["me","PRP","me"],
    {
      "tag":"PERSON",
      "content":
      [
        ["Login","NNP","login"],
        ["Forgot","NNP","forgot"]
      ]
    },
    ["your","PRP$","your"],
    ["password","NN","password"],
    ["?",".","?"]
  ]
},
{
  "tag":"S",
  "content":
  [
    {
      "tag":"GPE",
      "content":
      [
        ["Subscribe","NNP","subscrib"]
      ]
    },
    ["now","RB","now"],
    ["to","TO","to"],
    ["access","NN","access"],
    ["The","DT","The"],
    {
      "tag":"GPE",
      "content":
      [
        ["Australian","JJ","aust"]
      ]
    },
    {
      "tag":"ORGANIZATION",
      "content":
      [
        ["Subscribe","NNP","subscrib"],
        ["Signup","NNP","signup"]
      ]
    },
    ["News.com.au","NNP","news.com.au"],
    {
      "tag":"PERSON",
      "content":
      [
        ["Fox","NNP","fox"],
        ["Sports","NNP","sport"],
        ["Careerone","NNP","careeron"],
        ["Carsguide","NNP","carsguid"],
        ["Realestate","NNP","realest"],
        ["Network","NNP","network"],
        ["The","NNP","the"],
        ["Australian","NNP","aust"]
      ]
    },
    ["NEWS","NNP","new"],
    ["OPINION","NNP","opin"],
    {
      "tag":"ORGANIZATION",
      "content":
      [
        ["BUSINESS","NNP","busy"]
      ]
    },
    {
      "tag":"ORGANIZATION",
      "content":
      [
        ["NATIONAL","NNP","nat"]
      ]
    },
    ["AFFAIRS","NNP","affair"],
    ["SPORT","NNP","sport"],
    {
      "tag":"ORGANIZATION",
      "content":
      [
        ["TECHNOLOGY","NNP","technolog"]
      ]
    },
    ["ARTS","NNP","art"],
    ["EXECUTIVE","NNP","execut"],
    ["LIVING","NNP","liv"],
    ["TRAVEL","NNP","travel"],
    ["HIGHER","NNP","high"],
    ["ED","NNP","ed"],
    {
      "tag":"ORGANIZATION",
      "content":
      [
        ["MEDIA","NNP","med"],
        ["Arts","NNP","art"],
        ["News","NNP","new"],
        ["Opinion","NNP","opin"],
        ["Blog","NNP","blog"],
        ["Books","NNP","book"],
        ["Film","NNP","film"],
        ["Visual","NNP","vis"],
        ["Arts","NNP","art"]
      ]
    },
    ["Stage","NNP","stag"],
    {
      "tag":"PERSON",
      "content":
      [
        ["Music","NNP","mus"],
        ["Television","NNP","televid"],
        ["Review","NNP","review"],
        ["Magazine","NNP","magazin"],
        ["Weather","NNP","weath"]
      ]
    },
    [":",":",":"],
    ["Sydney","NNP","sydney"],
    ["18°C","CD","18°C"],
    ["-",":","-"],
    ["34°C","CD","34°C"],
    [".",".","."]
  ]
},
{
  "tag":"S",
  "content":
  [
    ["Becoming","VBG","becom"],
    ["windy","NN","windy"],
    [".",".","."]
  ]
},
{
  "tag":"S",
  "content":
  [
    ["Partly","RB","part"],
    ["cloudy","NN","cloudy"],
    [".",".","."]
  ]
},
{
  "tag":"S",
  "content":
  [
    {
      "tag":"PERSON",
      "content":
      [
        ["Review","NNP","review"]
      ]
    },
    {
      "tag":"ORGANIZATION",
      "content":
      [
        ["Lines","NNP","lin"]
      ]
    },
    ["of","IN","of"],
    ["a","DT","a"],
    ["liberal","NN","lib"],
    ["evident","NN","evid"],
    ["in","IN","in"],
    ["the","DT","the"],
    ["drawings","NNS","draw"],
    ["of","IN","of"],
    {
      "tag":"GPE",
      "content":
      [
        ["Spain","NNP","spain"]
      ]
    },
    ["'s","POS","'s"],
    {
      "tag":"ORGANIZATION",
      "content":
      [
        ["Francisco","NNP","francisco"]
      ]
    },
    ["de","IN","de"],
    ["Goya","NNP","goy"],
    ["by","IN","by"],
    [":",":",":"],
    {
      "tag":"PERSON",
      "content":
      [
        ["Miriam","NNP","miriam"],
        ["Cosic","NNP","cos"]
      ]
    },
    ["From","NNP","from"],
    [":",":",":"],
    ["The","DT","The"],
    {
      "tag":"GPE",
      "content":
      [
        ["Australian","JJ","aust"]
      ]
    },
    ["September","NNP","septemb"],
    ["14","CD","14"],
    [",",",",","],
    ["2013","CD","2013"],
    ["12:00AM","CD","12:00AM"],
    ["Increase","NNP","increas"],
    ["Text","NNP","text"],
    ["Size","NNP","siz"],
    ["Decrease","NNP","decreas"],
    ["Text","NNP","text"],
    ["Size","NNP","siz"],
    ["Print","NNP","print"],
    ["Email","NNP","email"],
    {
      "tag":"PERSON",
      "content":
      [
        ["Share","NNP","shar"],
        ["Add","NNP","ad"]
      ]
    },
    ["to","TO","to"],
    {
      "tag":"ORGANIZATION",
      "content":
      [
        ["Digg","NNP","dig"],
        ["Add","NNP","ad"]
      ]
    },
    ["to","TO","to"],
    ["del.icio.us","JJ","del.icio.us"],
    ["Add","NNP","ad"],
    ["to","TO","to"],
    {
      "tag":"PERSON",
      "content":
      [
        ["Facebook","NNP","facebook"],
        ["Add","NNP","ad"]
      ]
    },
    ["to","TO","to"],
    {
      "tag":"PERSON",
      "content":
      [
        ["Kwoff","NNP","kwoff"],
        ["Add","NNP","ad"]
      ]
    },
    ["to","TO","to"],
    {
      "tag":"PERSON",
      "content":
      [
        ["Myspace","NNP","myspac"],
        ["Add","NNP","ad"]
      ]
    },
    ["to","TO","to"],
    {
      "tag":"GPE",
      "content":
      [
        ["Newsvine","NNP","newsvin"]
      ]
    },
    ["What","NNP","what"],
    ["are","VBP","be"],
    ["these","DT","these"],
    ["?",".","?"]
  ]
},
{
  "tag":"S",
  "content":
  [
    {
      "tag":"GPE",
      "content":
      [
        ["Goya","NNP","goy"]
      ]
    },
    ["'s","POS","'s"],
    {
      "tag":"ORGANIZATION",
      "content":
      [
        ["For","NNP","for"],
        ["Being","NNP","being"]
      ]
    },
    ["of","IN","of"],
    {
      "tag":"PERSON",
      "content":
      [
        ["Jewish","NNP","jew"],
        ["Ancestry","NNP","ancestry"]
      ]
    },
    ["(","NNP","("],
    ["1808-14","CD","1808-14"],
    [")","CD",")"],
    [".",".","."]
  ]
},
{
  "tag":"S",
  "content":
  [
    ["From","IN","From"],
    ["the","DT","the"],
    ["exhibition","NN","exhibit"],
    ["Renaissance","NNP","renaiss"],
    ["to","TO","to"],
    {
      "tag":"GPE",
      "content":
      [
        ["Goya","NNP","goy"]
      ]
    },
    [":",":",":"],
    ["Prints","NNS","print"],
    ["and","CC","and"],
    {
      "tag":"ORGANIZATION",
      "content":
      [
        ["Drawings","NNP","draw"]
      ]
    },
    ["from","IN","from"],
    {
      "tag":"GPE",
      "content":
      [
        ["Spain","NNP","spain"]
      ]
    },
    [",",",",","],
    ["at","IN","at"],
    ["the","DT","the"],
    {
      "tag":"ORGANIZATION",
      "content":
      [
        ["Art","NNP","art"],
        ["Gallery","NNP","gallery"]
      ]
    },
    ["of","IN","of"],
    {
      "tag":"ORGANIZATION",
      "content":
      [
        ["NSW","NNP","nsw"]
      ]
    },
    [",",",",","],
    {
      "tag":"GPE",
      "content":
      [
        ["Sydney","NNP","sydney"]
      ]
    },
    [",",",",","],
    ["until","IN","until"],
    ["November","NNP","novemb"],
    ["24","CD","24"],
    [".",".","."]
  ]
},
{
  "tag":"S",
  "content":
  [
    {
      "tag":"GPE",
      "content":
      [
        ["Courtesy","NNP","courtesy"]
      ]
    },
    [":",":",":"],
    {
      "tag":"GPE",
      "content":
      [
        ["British","JJ","brit"],
        ["Museum","NNP","muse"]
      ]
    },
    [",",",",","],
    {
      "tag":"PERSON",
      "content":
      [
        ["London","NNP","london"],
        ["Source","NNP","sourc"]
      ]
    },
    [":",":",":"],
    ["Supplied","NNP","supply"],
    ["SPAIN","NNP","spain"],
    ["is","VBZ","be"],
    ["an","DT","an"],
    ["enigma","NN","enigm"],
    [".",".","."]
  ]
},
{
  "tag":"S",
  "content":
  [
    ["It","PRP","It"],
    ["was","VBD","be"],
    {
      "tag":"GPE",
      "content":
      [
        ["Spanish","JJ","span"]
      ]
    },
    ["explorers","NNS","expl"],
    ["who","WP","who"],
    ["opened","VBN","op"],
    ["up","RP","up"],
    ["the","DT","the"],
    {
      "tag":"ORGANIZATION",
      "content":
      [
        ["New","NNP","new"],
        ["World","NNP","world"]
      ]
    },
    [",",",",","],
    ["inventing","VBG","inv"],
    ["globalisation","NN","glob"],
    ["and","CC","and"],
    ["fast-forwarding","JJ","fast-forwarding"],
    {
      "tag":"GPE",
      "content":
      [
        ["Europe","NNP","europ"]
      ]
    },
    ["'s","POS","'s"],
    ["segue","NN","segu"],
    ["into","IN","into"],
    ["modernity","NN","modern"],
    [",",",",","],
    ["yet","CC","yet"],
    ["it","PRP","it"],
    ["was","VBD","be"],
    ["also","RB","also"],
    ["in","IN","in"],
    {
      "tag":"GPE",
      "content":
      [
        ["Spain","NNP","spain"]
      ]
    },
    ["that","IN","that"],
    ["the","DT","the"],
    {
      "tag":"ORGANIZATION",
      "content":
      [
        ["Catholic","NNP","cathol"],
        ["Church","NNP","church"]
      ]
    },
    ["'s","POS","'s"],
    ["vehicle","NN","vehic"],
    ["for","IN","for"],
    ["theological","JJ","theolog"],
    ["censorship","NN","cens"],
    [",",",",","],
    ["the","DT","the"],
    {
      "tag":"ORGANIZATION",
      "content":
      [
        ["Inquisition","NNP","inquisit"]
      ]
    },
    [",",",",","],
    ["operated","VBD","op"],
    ["at","IN","at"],
    ["its","PRP$","its"],
    ["most","RBS","most"],
    ["atavistic","JJ","atav"],
    ["and","CC","and"],
    ["vicious","JJ","vicy"],
    [".",".","."]
  ]
},
{
  "tag":"S",
  "content":
  [
    ["It","PRP","It"],
    ["was","VBD","be"],
    {
      "tag":"GPE",
      "content":
      [
        ["Spain","NNP","spain"]
      ]
    },
    ["that","IN","that"],
    ["made","VBD","mak"],
    ["a","DT","a"],
    ["startling","JJ","startl"],
    ["180-degree","CD","180-degree"],
    ["turn","NN","turn"],
    ["in","IN","in"],
    ["the","DT","the"],
    ["1970s","CD","1970s"],
    [",",",",","],
    ["ditching","VBG","ditch"],
    ["the","DT","the"],
    {
      "tag":"GPE",
      "content":
      [
        ["Franco","NNP","franco"]
      ]
    },
    ["dictatorship","NN","dict"],
    ["-",":","-"],
    ["which","WDT","which"],
    ["inexplicably","RB","inexpl"],
    ["endured","VBD","end"],
    ["for","IN","for"],
    ["30","CD","30"],
    ["years","NNS","year"],
    ["after","IN","after"],
    ["fellow-travelling","JJ","fellow-travelling"],
    ["fascists","NNS","fasc"],
    ["were","VBD","be"],
    ["defeated","VBN","def"],
    ["in","IN","in"],
    {
      "tag":"GPE",
      "content":
      [
        ["Germany","NNP","germany"]
      ]
    },
    ["and","CC","and"],
    {
      "tag":"GPE",
      "content":
      [
        ["Italy","NNP","ita"]
      ]
    },
    ["-",":","-"],
    ["and","CC","and"],
    ["becoming","VBG","becom"],
    [",",",",","],
    ["in","IN","in"],
    ["an","DT","an"],
    ["instant","JJ","inst"],
    [",",",",","],
    ["one","CD","one"],
    ["of","IN","of"],
    ["the","DT","the"],
    ["most","RBS","most"],
    ["socially","RB","soc"],
    ["progressive","JJ","progress"],
    ["countries","NNS","country"],
    ["in","IN","in"],
    ["the","DT","the"],
    ["world","NN","world"],
    [".",".","."]
  ]
},
{
  "tag":"S",
  "content":
  [
    ["The","DT","The"],
    ["new","JJ","new"],
    {
      "tag":"GPE",
      "content":
      [
        ["Spain","NNP","spain"]
      ]
    },
    ["became","VBD","becom"],
    ["strong","JJ","strong"],
    ["on","IN","on"],
    ["gay","NN","gay"],
    ["rights","NNS","right"],
    ["and","CC","and"],
    ["reproductive","JJ","reproduc"],
    ["rights","NNS","right"],
    ["and","CC","and"],
    ["every","DT","every"],
    ["other","JJ","oth"],
    ["kind","NN","kind"],
    ["of","IN","of"],
    ["right","NN","right"],
    [",",",",","],
    ["though","RB","though"],
    ["some","DT","some"],
    ["say","VBP","say"],
    ["the","DT","the"],
    ["lack","NN","lack"],
    ["of","IN","of"],
    ["hard","JJ","hard"],
    ["reckoning","NN","reckon"],
    [",",",",","],
    ["such","JJ","such"],
    ["as","IN","as"],
    {
      "tag":"GPE",
      "content":
      [
        ["Germany","NNP","germany"]
      ]
    },
    ["had","VBD","hav"],
    ["with","IN","with"],
    ["its","PRP$","its"],
    {
      "tag":"ORGANIZATION",
      "content":
      [
        ["Nazi","NNP","naz"]
      ]
    },
    ["past","NN","past"],
    [",",",",","],
    ["has","VBZ","hav"],
    ["left","VBN","leav"],
    ["the","DT","the"],
    ["spectres","NNS","spect"],
    ["of","IN","of"],
    ["murdered","VBN","murd"],
    ["multitudes","NNS","multitud"],
    ["haunting","VBG","haunt"],
    ["the","DT","the"],
    ["land","NN","land"],
    [".",".","."]
  ]
},
{
  "tag":"S",
  "content":
  [
    {
      "tag":"GPE",
      "content":
      [
        ["Francisco","NNP","francisco"]
      ]
    },
    ["de","IN","de"],
    {
      "tag":"PERSON",
      "content":
      [
        ["Goya","NNP","goy"]
      ]
    },
    ["is","VBZ","be"],
    ["an","DT","an"],
    ["avatar","NN","avat"],
    ["for","IN","for"],
    ["the","DT","the"],
    {
      "tag":"GPE",
      "content":
      [
        ["Spanish","NNP","span"]
      ]
    },
    ["enigma","NN","enigm"],
    [".",".","."]
  ]
},
{
  "tag":"S",
  "content":
  [
    ["He","PRP","He"],
    ["lived","VBD","liv"],
    ["on","IN","on"],
    ["commissions","NNS","commit"],
    ["from","IN","from"],
    ["the","DT","the"],
    ["church","NN","church"],
    ["and","CC","and"],
    ["the","DT","the"],
    ["nobility","NN","nobl"],
    [",",",",","],
    ["but","CC","but"],
    ["was","VBD","be"],
    ["an","DT","an"],
    ["Enlightenment","NNP","enlight"],
    ["figure","NN","fig"],
    ["who","WP","who"],
    ["sympathised","VBN","sympath"],
    ["deeply","RB","deeply"],
    ["with","IN","with"],
    ["the","DT","the"],
    ["miseries","NNS","misery"],
    ["of","IN","of"],
    ["the","DT","the"],
    ["poor","JJ","poor"],
    ["and","CC","and"],
    ["marginalised","VBD","margin"],
    [".",".","."]
  ]
},
{
  "tag":"S",
  "content":
  [
    ["His","PRP$","His"],
    ["drawings","NNS","draw"],
    [",",",",","],
    ["particularly","RB","particul"],
    ["his","PRP$","his"],
    ["The","DT","The"],
    {
      "tag":"ORGANIZATION",
      "content":
      [
        ["Disasters","NNP","disast"]
      ]
    },
    ["of","IN","of"],
    ["War","NNP","war"],
    ["series","NN","sery"],
    [",",",",","],
    ["can","MD","can"],
    ["be","VB","be"],
    ["seen","VBN","see"],
    ["as","IN","as"],
    ["a","DT","a"],
    ["kind","NN","kind"],
    ["of","IN","of"],
    ["universal","NN","univers"],
    {
      "tag":"GPE",
      "content":
      [
        ["Spanish","NNP","span"]
      ]
    },
    ["reckoning","NN","reckon"],
    ["three","CD","three"],
    ["centuries","NNS","century"],
    ["after","IN","after"],
    {
      "tag":"GPE",
      "content":
      [
        ["Spain","NNP","spain"]
      ]
    },
    ["'s","POS","'s"],
    ["genocidal","JJ","genocid"],
    ["conquest","NN","conquest"],
    ["of","IN","of"],
    ["the","DT","the"],
    {
      "tag":"ORGANIZATION",
      "content":
      [
        ["Americas","NNP","america"]
      ]
    },
    ["and","CC","and"],
    ["a","DT","a"],
    ["century","NN","century"],
    ["before","IN","before"],
    ["its","PRP$","its"],
    ["particular","JJ","particul"],
    ["variant","NN","vary"],
    ["of","IN","of"],
    ["fascism","NN","fasc"],
    [".",".","."]
  ]
},
{
  "tag":"S",
  "content":
  [
    ["His","PRP$","His"],
    ["brush","NN","brush"],
    ["drawing","VBG","draw"],
    {
      "tag":"PERSON",
      "content":
      [
        ["Because","NNP","becaus"]
      ]
    },
    ["They","NNP","they"],
    ["are","VBP","be"],
    {
      "tag":"PERSON",
      "content":
      [
        ["Jewish","NNP","jew"]
      ]
    },
    ["was","VBD","be"],
    ["a","DT","a"],
    ["critique","NN","crit"],
    ["of","IN","of"],
    ["the","DT","the"],
    ["Inquisition","NNP","inquisit"],
    ["but","CC","but"],
    ["its","PRP$","its"],
    ["intensity","NN","intens"],
    ["was","VBD","be"],
    ["ratcheted","VBN","ratchet"],
    ["up","RP","up"],
    ["in","IN","in"],
    ["the","DT","the"],
    ["20th","JJ","20th"],
    ["century","NN","century"],
    [".",".","."]
  ]
},
{
  "tag":"S",
  "content":
  [
    ["His","PRP$","His"],
    ["drawings","NNS","draw"],
    ["are","VBP","be"],
    ["also","RB","also"],
    ["a","DT","a"],
    ["humanist","NN","hum"],
    ["'s","POS","'s"],
    ["reckoning","NN","reckon"],
    ["with","IN","with"],
    ["every","DT","every"],
    ["human","JJ","hum"],
    ["cruelty","NN","cruel"],
    ["and","CC","and"],
    ["misery","NN","misery"],
    ["-",":","-"],
    ["war","NN","war"],
    [",",",",","],
    ["torture","NN","tort"],
    [",",",",","],
    ["rape","NN","rap"],
    [",",",",","],
    ["mutilation","NN","mutil"],
    [",",",",","],
    ["political","JJ","polit"],
    ["and","CC","and"],
    ["religious","JJ","religy"],
    ["persecution","NN","persecut"],
    [",",",",","],
    ["you","PRP","you"],
    ["name","VBD","nam"],
    ["it","PRP","it"],
    ["-",":","-"],
    ["and","CC","and"],
    ["proved","VBD","prov"],
    ["a","DT","a"],
    ["lasting","JJ","last"],
    ["inspiration","NN","inspir"],
    ["to","TO","to"],
    ["other","JJ","oth"],
    ["artists","NNS","art"],
    ["'","POS","'"],
    ["work","NN","work"],
    [".",".","."]
  ]
},
{
  "tag":"S",
  "content":
  [
    ["A","DT","A"],
    ["dozen","NN","doz"],
    ["works","VBZ","work"],
    ["on","IN","on"],
    ["paper","NN","pap"],
    ["by","IN","by"],
    {
      "tag":"PERSON",
      "content":
      [
        ["Goya","NNP","goy"]
      ]
    },
    [",",",",","],
    ["each","DT","each"],
    ["as","IN","as"],
    ["unsettling","JJ","unsettl"],
    ["and","CC","and"],
    ["thought-provoking","JJ","thought-provoking"],
    ["as","IN","as"],
    ["the","DT","the"],
    ["next","JJ","next"],
    [",",",",","],
    ["are","VBP","be"],
    ["at","IN","at"],
    ["the","DT","the"],
    ["heart","NN","heart"],
    ["of","IN","of"],
    ["an","DT","an"],
    ["exhibition","NN","exhibit"],
    ["of","IN","of"],
    {
      "tag":"GPE",
      "content":
      [
        ["Spanish","NNP","span"]
      ]
    },
    ["drawings","NNS","draw"],
    ["from","IN","from"],
    ["the","DT","the"],
    {
      "tag":"GPE",
      "content":
      [
        ["British","JJ","brit"]
      ]
    },
    ["Museum","NNP","muse"],
    ["now","RB","now"],
    ["on","IN","on"],
    ["show","NN","show"],
    ["at","IN","at"],
    ["the","DT","the"],
    {
      "tag":"ORGANIZATION",
      "content":
      [
        ["Art","NNP","art"],
        ["Gallery","NNP","gallery"]
      ]
    },
    ["of","IN","of"],
    {
      "tag":"ORGANIZATION",
      "content":
      [
        ["NSW","NNP","nsw"]
      ]
    },
    ["in","IN","in"],
    {
      "tag":"GPE",
      "content":
      [
        ["Sydney","NNP","sydney"]
      ]
    },
    ["after","IN","after"],
    ["outings","NNS","out"],
    ["in","IN","in"],
    {
      "tag":"GPE",
      "content":
      [
        ["London","NNP","london"]
      ]
    },
    ["and","CC","and"],
    {
      "tag":"GPE",
      "content":
      [
        ["Madrid","NNP","madrid"]
      ]
    },
    [".",".","."]
  ]
},
{
  "tag":"S",
  "content":
  [
    ["Earlier","JJR","ear"],
    ["generations","NNS","gen"],
    ["of","IN","of"],
    ["art","NN","art"],
    ["historians","NNS","hist"],
    ["have","VBP","hav"],
    ["presumed","VBN","presum"],
    ["that","IN","that"],
    ["drawing","NN","draw"],
    ["was","VBD","be"],
    ["n't","RB","n't"],
    ["important","JJ","import"],
    ["to","TO","to"],
    ["the","DT","the"],
    {
      "tag":"GPE",
      "content":
      [
        ["Spanish","NNP","span"]
      ]
    },
    [".",".","."]
  ]
},
{
  "tag":"S",
  "content":
  [
    ["Few","JJ","few"],
    ["examples","NNS","exampl"],
    ["are","VBP","be"],
    ["lionised","VBN","lion"],
    ["in","IN","in"],
    ["the","DT","the"],
    ["way","NN","way"],
    ["drawings","NNS","draw"],
    ["by","IN","by"],
    {
      "tag":"PERSON",
      "content":
      [
        ["Leonardo","NNP","leonardo"]
      ]
    },
    ["or","CC","or"],
    ["Michelangelo","NNP","michelangelo"],
    ["are","VBP","be"],
    [",",",",","],
    ["and","CC","and"],
    ["famous","JJ","fam"],
    ["drawings","NNS","draw"],
    ["by","IN","by"],
    {
      "tag":"GPE",
      "content":
      [
        ["Spanish","NNP","span"]
      ]
    },
    ["masters","NNS","mast"],
    ["such","JJ","such"],
    ["as","IN","as"],
    {
      "tag":"PERSON",
      "content":
      [
        ["Diego","NNP","diego"],
        ["Velasquez","NNP","velasquez"]
      ]
    },
    ["or","CC","or"],
    {
      "tag":"GPE",
      "content":
      [
        ["Francisco","NNP","francisco"]
      ]
    },
    ["de","IN","de"],
    {
      "tag":"PERSON",
      "content":
      [
        ["Zurbaran","NNP","zurb"]
      ]
    },
    ["or","CC","or"],
    ["El","NNP","el"],
    ["Greco","NNP","greco"],
    ["(","NNP","("],
    ["who","WP","who"],
    ["was","VBD","be"],
    [",",",",","],
    ["in","IN","in"],
    ["fact","NN","fact"],
    [",",",",","],
    {
      "tag":"GPE",
      "content":
      [
        ["Greek","NNP","greek"]
      ]
    },
    [")","NNP",")"],
    ["are","VBP","be"],
    ["curiously","RB","cury"],
    ["absent","JJ","abs"],
    ["from","IN","from"],
    ["museums","NNS","muse"],
    [".",".","."]
  ]
},
{
  "tag":"S",
  "content":
  [
    ["Early","RB","ear"],
    ["commentators","NNS","com"],
    [",",",",","],
    ["including","VBG","includ"],
    ["Spaniards","NNS","spaniard"],
    [",",",",","],
    ["explained","VBD","explain"],
    ["this","DT","this"],
    ["in","IN","in"],
    ["essentialist","NN","ess"],
    ["terms","NNS","term"],
    [",",",",","],
    ["by","IN","by"],
    ["contrasting","NN","contrast"],
    ["cool","NN","cool"],
    {
      "tag":"GPE",
      "content":
      [
        ["Italian","JJ","it"]
      ]
    },
    ["feeling","NN","feel"],
    ["for","IN","for"],
    ["form","NN","form"],
    ["with","IN","with"],
    ["the","DT","the"],
    ["emotionally","RB","emot"],
    ["and","CC","and"],
    ["spiritually","RB","spirit"],
    ["intense","JJ","intens"],
    {
      "tag":"GPE",
      "content":
      [
        ["Spanish","JJ","span"]
      ]
    },
    ["preoccupation","NN","preoccup"],
    ["with","IN","with"],
    ["theme","NN","them"],
    [":",":",":"],
    {
      "tag":"GPE",
      "content":
      [
        ["Spain","NNP","spain"]
      ]
    },
    ["is","VBZ","be"],
    ["``","``","``"],
    ["given","VBN","giv"],
    ["more","RBR","mor"],
    ["to","TO","to"],
    ["the","DT","the"],
    ["magic","JJ","mag"],
    ["of","IN","of"],
    ["colour","PRP$","colour"],
    ["than","IN","than"],
    ["to","TO","to"],
    ["the","DT","the"],
    ["discipline","NN","disciplin"],
    ["of","IN","of"],
    ["drawing","VBG","draw"],
    ["''","''","''"],
    [",",",",","],
    ["as","IN","as"],
    ["one","CD","one"],
    ["commentator","NN","com"],
    ["had","VBD","hav"],
    ["it","PRP","it"],
    [".",".","."]
  ]
},
{
  "tag":"S",
  "content":
  [
    ["It","PRP","It"],
    ["was","VBD","be"],
    ["n't","RB","n't"],
    ["until","IN","until"],
    ["the","DT","the"],
    ["1950s","CD","1950s"],
    ["that","WDT","that"],
    ["a","DT","a"],
    {
      "tag":"GPE",
      "content":
      [
        ["Spanish","NNP","span"]
      ]
    },
    ["scholar","NN","scholar"],
    [",",",",","],
    ["relying","VBG","rely"],
    ["on","IN","on"],
    ["material","NN","mat"],
    ["evidence","NN","evid"],
    ["rather","RB","rath"],
    ["than","IN","than"],
    ["national","JJ","nat"],
    ["stereotypes","NNS","stereotyp"],
    [",",",",","],
    ["wrote","VBD","writ"],
    ["an","DT","an"],
    ["essay","NN","essay"],
    ["titled","VBN","titl"],
    [",",",",","],
    ["``","``","``"],
    ["On","IN","On"],
    ["the","DT","the"],
    ["supposed","VBN","suppos"],
    ["non-existence","NN","non-existence"],
    ["of","IN","of"],
    {
      "tag":"GPE",
      "content":
      [
        ["Spanish","NNP","span"]
      ]
    },
    ["Old","NNP","old"],
    ["Masters","NNP","mast"],
    ["Drawings","NNP","draw"],
    ["''","''","''"],
    [".",".","."]
  ]
},
{
  "tag":"S",
  "content":
  [
    ["That","DT","That"],
    ["brief","NN","brief"],
    ["argument","NN","argu"],
    ["``","``","``"],
    ["immediately","RB","immedy"],
    ["transformed","VBD","transform"],
    ["the","DT","the"],
    ["debate","NN","deb"],
    ["''","''","''"],
    [",",",",","],
    {
      "tag":"PERSON",
      "content":
      [
        ["Mark","NNP","mark"],
        ["McDonald","NNP","mcdonald"]
      ]
    },
    [",",",",","],
    ["curator","NN","cur"],
    ["of","IN","of"],
    ["the","DT","the"],
    {
      "tag":"GPE",
      "content":
      [
        ["Sydney","NNP","sydney"]
      ]
    },
    ["exhibition","NN","exhibit"],
    [",",",",","],
    ["writes","VBZ","writ"],
    ["in","IN","in"],
    ["his","PRP$","his"],
    ["impressive","JJ","impress"],
    ["catalogue","NN","catalog"],
    [".",".","."]
  ]
},
{
  "tag":"S",
  "content":
  [
    {
      "tag":"GPE",
      "content":
      [
        ["McDonald","NNP","mcdonald"]
      ]
    },
    [",",",",","],
    ["the","DT","the"],
    {
      "tag":"GPE",
      "content":
      [
        ["British","JJ","brit"]
      ]
    },
    {
      "tag":"ORGANIZATION",
      "content":
      [
        ["Museum","NNP","muse"]
      ]
    },
    ["'s","POS","'s"],
    ["Australian-born","JJ","australian-born"],
    ["assistant","NN","assist"],
    ["keeper","NN","keep"],
    ["of","IN","of"],
    {
      "tag":"ORGANIZATION",
      "content":
      [
        ["Old","NNP","old"]
      ]
    },
    ["Master","NNP","mast"],
    ["prints","NNS","print"],
    [",",",",","],
    ["gives","VBZ","giv"],
    ["two","CD","two"],
    ["very","RB","very"],
    ["practical","JJ","pract"],
    ["reasons","NNS","reason"],
    ["why","WRB","why"],
    ["lithography","JJ","lithograph"],
    [",",",",","],
    ["for","IN","for"],
    ["example","NN","exampl"],
    [",",",",","],
    ["was","VBD","be"],
    ["slow","JJ","slow"],
    ["to","TO","to"],
    ["take","VB","tak"],
    ["off","RP","off"],
    ["in","IN","in"],
    {
      "tag":"GPE",
      "content":
      [
        ["Spain","NNP","spain"]
      ]
    },
    [".",".","."]
  ]
},
{
  "tag":"S",
  "content":
  [
    ["The","DT","The"],
    ["first","JJ","first"],
    ["comes","NNS","com"],
    ["straight","RB","straight"],
    ["out","IN","out"],
    ["of","IN","of"],
    ["economics","NNS","econom"],
    ["101","CD","101"],
    [":",":",":"],
    ["businesses","NNS","busy"],
    ["in","IN","in"],
    {
      "tag":"GPE",
      "content":
      [
        ["Paris","NNP","par"]
      ]
    },
    [",",",",","],
    {
      "tag":"GPE",
      "content":
      [
        ["Rome","NNP","rom"]
      ]
    },
    ["and","CC","and"],
    {
      "tag":"PERSON",
      "content":
      [
        ["Antwerp","NNP","antwerp"]
      ]
    },
    [",",",",","],
    ["expert","NN","expert"],
    ["in","IN","in"],
    ["production","NN","produc"],
    ["and","CC","and"],
    ["marketing","NN","market"],
    [",",",",","],
    ["quickly","RB","quick"],
    ["exploited","VBD","exploit"],
    ["the","DT","the"],
    ["technological","JJ","technolog"],
    ["innovation","NN","innov"],
    ["and","CC","and"],
    ["flooded","VBD","flood"],
    ["the","DT","the"],
    {
      "tag":"GPE",
      "content":
      [
        ["Spanish","NNP","span"]
      ]
    },
    ["market","NN","market"],
    ["before","IN","before"],
    ["local","JJ","loc"],
    ["workshops","NNS","workshop"],
    ["geared","VBD","gear"],
    ["up","RP","up"],
    [".",".","."]
  ]
},
{
  "tag":"S",
  "content":
  [
    ["The","DT","The"],
    ["second","JJ","second"],
    ["was","VBD","be"],
    ["peculiarly","RB","peculi"],
    ["local","JJ","loc"],
    [".",".","."]
  ]
},
{
  "tag":"S",
  "content":
  [
    {
      "tag":"GPE",
      "content":
      [
        ["Censorship","NN","cens"]
      ]
    },
    ["in","IN","in"],
    {
      "tag":"GPE",
      "content":
      [
        ["Spain","NNP","spain"]
      ]
    },
    ["was","VBD","be"],
    ["assiduous","JJ","assidu"],
    ["and","CC","and"],
    ["ubiquitous","JJ","ubiquit"],
    [":",":",":"],
    ["artists","NNS","art"],
    ["faced","VBD","fac"],
    ["the","DT","the"],
    ["Inquisition","NNP","inquisit"],
    ["if","IN","if"],
    ["it","PRP","it"],
    ["disliked","VBD","dislik"],
    ["the","DT","the"],
    ["way","NN","way"],
    ["they","PRP","they"],
    ["portrayed","VBD","portray"],
    ["the","DT","the"],
    ["face","NN","fac"],
    ["of","IN","of"],
    ["a","DT","a"],
    ["saint","NN","saint"],
    ["in","IN","in"],
    ["a","DT","a"],
    ["church","NN","church"],
    [",",",",","],
    ["which","WDT","which"],
    ["made","VBN","mak"],
    ["them","PRP","them"],
    ["cautious","JJ","cauty"],
    [".",".","."]
  ]
},
{
  "tag":"S",
  "content":
  [
    ["This","DT","This"],
    ["exhibition","NN","exhibit"],
    [",",",",","],
    {
      "tag":"GPE",
      "content":
      [
        ["Renaissance","NNP","renaiss"]
      ]
    },
    ["to","TO","to"],
    {
      "tag":"GPE",
      "content":
      [
        ["Goya","NNP","goy"]
      ]
    },
    [":",":",":"],
    ["Prints","NNS","print"],
    ["and","CC","and"],
    {
      "tag":"ORGANIZATION",
      "content":
      [
        ["Drawings","NNP","draw"]
      ]
    },
    ["from","IN","from"],
    {
      "tag":"GPE",
      "content":
      [
        ["Spain","NNP","spain"]
      ]
    },
    [",",",",","],
    ["spanning","VBG","span"],
    ["three","CD","three"],
    ["centuries","NNS","century"],
    ["and","CC","and"],
    ["several","JJ","sev"],
    ["urban","NN","urb"],
    ["centres","NNS","cent"],
    ["of","IN","of"],
    {
      "tag":"GPE",
      "content":
      [
        ["Spanish","NNP","span"]
      ]
    },
    ["art","NN","art"],
    [",",",",","],
    ["shows","VBZ","show"],
    {
      "tag":"PERSON",
      "content":
      [
        ["Goya","NNP","goy"]
      ]
    },
    ["'s","POS","'s"],
    ["expert","NN","expert"],
    ["works","NNS","work"],
    ["on","IN","on"],
    ["paper","NN","pap"],
    ["did","VBD","do"],
    ["n't","RB","n't"],
    ["spring","NN","spring"],
    ["from","IN","from"],
    ["nowhere","RB","nowh"],
    [".",".","."]
  ]
},
{
  "tag":"S",
  "content":
  [
    ["It","PRP","It"],
    ["was","VBD","be"],
    ["n't","RB","n't"],
    ["that","RB","that"],
    ["Spaniards","VBZ","spaniard"],
    ["did","VBD","do"],
    ["n't","RB","n't"],
    ["draw","VB","draw"],
    [",",",",","],
    ["or","CC","or"],
    ["that","IN","that"],
    ["drawing","NN","draw"],
    ["was","VBD","be"],
    ["n't","RB","n't"],
    ["a","DT","a"],
    ["critical","JJ","crit"],
    ["part","NN","part"],
    ["of","IN","of"],
    ["an","DT","an"],
    ["artist","NN","art"],
    ["'s","POS","'s"],
    ["education","NN","educ"],
    [",",",",","],
    ["says","VBZ","say"],
    {
      "tag":"ORGANIZATION",
      "content":
      [
        ["McDonald","NNP","mcdonald"]
      ]
    },
    [".",".","."]
  ]
},
{
  "tag":"S",
  "content":
  [
    ["Rather","RB","rath"],
    [",",",",","],
    ["the","DT","the"],
    {
      "tag":"GPE",
      "content":
      [
        ["Spanish","NNP","span"]
      ]
    },
    ["did","VBD","do"],
    ["n't","RB","n't"],
    ["value","VB","valu"],
    ["drawing","VBG","draw"],
    ["as","IN","as"],
    ["a","DT","a"],
    ["medium","NN","med"],
    ["in","IN","in"],
    ["its","PRP$","its"],
    ["own","JJ","own"],
    ["right","NN","right"],
    ["until","IN","until"],
    ["late","JJ","lat"],
    ["in","IN","in"],
    ["the","DT","the"],
    ["18th","JJ","18th"],
    ["century","NN","century"],
    [".",".","."]
  ]
},
{
  "tag":"S",
  "content":
  [
    ["Before","IN","Before"],
    ["that","DT","that"],
    [",",",",","],
    ["preparatory","NN","prep"],
    ["drawings","NNS","draw"],
    ["were","VBD","be"],
    ["considered","VBN","consid"],
    ["disposable","JJ","dispos"],
    ["work","NN","work"],
    ["sketches","NNS","sketch"],
    [".",".","."]
  ]
},
{
  "tag":"S",
  "content":
  [
    ["``","``","``"],
    ["I","PRP","I"],
    ["'ve","VBP","'ve"],
    ["seen","VBN","see"],
    ["so","RB","so"],
    ["many","JJ","many"],
    ["sheets","NNS","sheet"],
    ["torn","VBP","tear"],
    [",",",",","],
    ["stained","VBN","stain"],
    [".",".","."]
  ]
},
{
  "tag":"S",
  "content":
  [
    ["There","EX","There"],
    ["was","VBD","be"],
    ["n't","RB","n't"],
    ["the","DT","the"],
    ["same","JJ","sam"],
    ["impetus","NN","impet"],
    ["to","TO","to"],
    ["keep","VB","keep"],
    ["things","NNS","thing"],
    ["in","IN","in"],
    ["a","DT","a"],
    ["good","JJ","good"],
    ["state","NN","stat"],
    [",",",",","],
    ["''","''","''"],
    {
      "tag":"ORGANIZATION",
      "content":
      [
        ["McDonald","NNP","mcdonald"]
      ]
    },
    ["says","VBZ","say"],
    ["by","IN","by"],
    ["telephone","NN","telephon"],
    ["from","IN","from"],
    ["his","PRP$","his"],
    ["desk","NN","desk"],
    ["in","IN","in"],
    {
      "tag":"GPE",
      "content":
      [
        ["London","NNP","london"]
      ]
    },
    [".",".","."]
  ]
},
{
  "tag":"S",
  "content":
  [
    ["``","``","``"],
    ["So","RB","so"],
    ["much","RB","much"],
    ["seems","VBZ","seem"],
    ["to","TO","to"],
    ["have","VB","hav"],
    ["been","VBN","be"],
    ["chucked","VBN","chuck"],
    ["out","RP","out"],
    [".",".","."]
  ]
},
{
  "tag":"S",
  "content":
  [
    ["I","PRP","I"],
    ["'ve","VBP","'ve"],
    ["seen","VBN","see"],
    ["many","JJ","many"],
    ["archival","NN","arch"],
    ["references","NNS","ref"],
    ["to","TO","to"],
    ["sketches","NNS","sketch"],
    [",",",",","],
    ["but","CC","but"],
    ["none","NN","non"],
    ["of","IN","of"],
    ["those","DT","those"],
    ["sketches","NNS","sketch"],
    ["seems","VBZ","seem"],
    ["to","TO","to"],
    ["have","VB","hav"],
    ["survived","VBN","surv"],
    [".",".","."]
  ]
},
{
  "tag":"S",
  "content":
  [
    ["``","``","``"],
    ["By","IN","By"],
    {
      "tag":"PERSON",
      "content":
      [
        ["Goya","NNP","goy"]
      ]
    },
    ["'s","POS","'s"],
    ["time","NN","tim"],
    [",",",",","],
    ["works","VBZ","work"],
    ["on","IN","on"],
    ["paper","NN","pap"],
    ["had","VBD","hav"],
    ["become","VBN","becom"],
    ["more","RBR","mor"],
    ["interesting","JJ","interest"],
    ["to","TO","to"],
    ["collectors","NNS","collect"],
    ["in","IN","in"],
    {
      "tag":"GPE",
      "content":
      [
        ["Spain","NNP","spain"]
      ]
    },
    [",",",",","],
    ["and","CC","and"],
    ["his","PRP$","his"],
    ["drawings","NNS","draw"],
    [",",",",","],
    ["lithographs","NNS","lithograph"],
    ["and","CC","and"],
    ["aquatints","NNS","aquatint"],
    [",",",",","],
    ["some","DT","some"],
    ["of","IN","of"],
    ["them","PRP","them"],
    ["pages","VBZ","pag"],
    ["of","IN","of"],
    ["his","PRP$","his"],
    ["private","JJ","priv"],
    ["journals","NNS","journ"],
    [",",",",","],
    ["some","DT","some"],
    ["carefully","RB","car"],
    ["prepared","VBN","prep"],
    ["for","IN","for"],
    ["sale","NN","sal"],
    [",",",",","],
    ["have","VBP","hav"],
    ["not","RB","not"],
    ["only","RB","on"],
    ["survived","VBN","surv"],
    ["but","CC","but"],
    ["continue","VB","continu"],
    ["to","TO","to"],
    ["enthral","JJ","enthr"],
    ["us","PRP","us"],
    [".",".","."]
  ]
},
{
  "tag":"S",
  "content":
  [
    ["Each","DT","Each"],
    ["has","VBZ","hav"],
    ["a","DT","a"],
    ["powerful","JJ","pow"],
    ["intimacy","NN","intim"],
    [";",":",";"],
    ["cumulatively","RB","cum"],
    [",",",",","],
    ["they","PRP","they"],
    ["assemble","VBP","assembl"],
    ["even","RB","ev"],
    ["more","RBR","mor"],
    ["powerfully","RB","pow"],
    ["into","IN","into"],
    ["the","DT","the"],
    ["meta-narrative","JJ","meta-narrative"],
    ["of","IN","of"],
    {
      "tag":"GPE",
      "content":
      [
        ["Goya","NNP","goy"]
      ]
    },
    ["'s","POS","'s"],
    ["world","NN","world"],
    ["view","NN","view"],
    [".",".","."]
  ]
},
{
  "tag":"S",
  "content":
  [
    ["``","``","``"],
    ["He","PRP","He"],
    ["keeps","VBZ","keep"],
    ["on","IN","on"],
    ["saying","VBG","say"],
    ["to","TO","to"],
    ["us","PRP","us"],
    [",",",",","],
    ["'Stop","JJ","'stop"],
    ["!",".","!"]
  ]
},
{
  "tag":"S",
  "content":
  [
    ["'","POS","'"],
    ["and","CC","and"],
    ["'Pay","NNP","'pay"],
    ["attention","NN","at"],
    ["!",".","!"]
  ]
},
{
  "tag":"S",
  "content":
  [
    ["'","POS","'"],
    [",",",",","],
    ["''","''","''"],
    {
      "tag":"ORGANIZATION",
      "content":
      [
        ["McDonald","NNP","mcdonald"]
      ]
    },
    ["says","VBZ","say"],
    [".",".","."]
  ]
},
{
  "tag":"S",
  "content":
  [
    ["``","``","``"],
    ["He","PRP","He"],
    ["constantly","RB","const"],
    ["challenges","VBZ","challeng"],
    ["us","PRP","us"],
    [",",",",","],
    ["even","RB","ev"],
    ["now","RB","now"],
    [".",".","."]
  ]
},
{
  "tag":"S",
  "content":
  [
    ["And","CC","And"],
    ["I","PRP","I"],
    ["'m","VBP","'m"],
    ["constantly","RB","const"],
    ["shocked","VBN","shock"],
    ["by","IN","by"],
    ["him","PRP","him"],
    [".",".","."]
  ]
},
{
  "tag":"S",
  "content":
  [
    ["``","``","``"],
    {
      "tag":"PERSON",
      "content":
      [
        ["Francisco","NNP","francisco"],
        ["Jose","NNP","jos"]
      ]
    },
    ["de","IN","de"],
    {
      "tag":"GPE",
      "content":
      [
        ["Goya","NNP","goy"]
      ]
    },
    ["y","NN","y"],
    ["Lucientes","VBZ","lucy"],
    ["was","VBD","be"],
    ["born","VBN","bear"],
    ["in","IN","in"],
    ["1746","CD","1746"],
    ["in","IN","in"],
    {
      "tag":"GPE",
      "content":
      [
        ["Fuendetodos","NNP","fuendetodo"]
      ]
    },
    ["in","IN","in"],
    ["the","DT","the"],
    ["province","NN","provint"],
    ["of","IN","of"],
    {
      "tag":"PERSON",
      "content":
      [
        ["Aragon","NNP","aragon"]
      ]
    },
    [",",",",","],
    ["but","CC","but"],
    ["his","PRP$","his"],
    ["family","NN","famy"],
    ["soon","RB","soon"],
    ["moved","VBD","mov"],
    ["to","TO","to"],
    {
      "tag":"GPE",
      "content":
      [
        ["Zaragoza","NNP","zaragoz"]
      ]
    },
    [".",".","."]
  ]
},
{
  "tag":"S",
  "content":
  [
    ["He","PRP","He"],
    ["studied","VBD","study"],
    ["art","NN","art"],
    ["privately","RB","priv"],
    ["from","IN","from"],
    ["the","DT","the"],
    ["age","NN","ag"],
    ["of","IN","of"],
    ["14","CD","14"],
    ["and","CC","and"],
    ["twice","NN","twic"],
    ["failed","VBD","fail"],
    ["in","IN","in"],
    ["competitions","NNS","competit"],
    ["for","IN","for"],
    ["a","DT","a"],
    ["place","NN","plac"],
    ["at","IN","at"],
    ["the","DT","the"],
    {
      "tag":"ORGANIZATION",
      "content":
      [
        ["Royal","NNP","roy"],
        ["Academy","NNP","academy"]
      ]
    },
    ["in","IN","in"],
    {
      "tag":"GPE",
      "content":
      [
        ["Madrid","NNP","madrid"]
      ]
    },
    [".",".","."]
  ]
},
{
  "tag":"S",
  "content":
  [
    {
      "tag":"GPE",
      "content":
      [
        ["Frustrated","NNP","frust"]
      ]
    },
    [",",",",","],
    ["he","PRP","he"],
    ["travelled","VBD","travel"],
    ["to","TO","to"],
    {
      "tag":"GPE",
      "content":
      [
        ["Italy","NNP","ita"]
      ]
    },
    ["and","CC","and"],
    ["stayed","VBD","stay"],
    ["there","RB","ther"],
    ["for","IN","for"],
    ["two","CD","two"],
    ["years","NNS","year"],
    [",",",",","],
    ["absorbing","VBG","absorb"],
    ["everything","NN","everyth"],
    ["it","PRP","it"],
    ["had","VBD","hav"],
    ["to","TO","to"],
    ["offer","VB","off"],
    [".",".","."]
  ]
},
{
  "tag":"S",
  "content":
  [
    ["On","IN","On"],
    ["his","PRP$","his"],
    ["return","NN","return"],
    ["to","TO","to"],
    {
      "tag":"GPE",
      "content":
      [
        ["Zaragoza","NNP","zaragoz"]
      ]
    },
    [",",",",","],
    ["he","PRP","he"],
    ["joined","VBD","join"],
    ["the","DT","the"],
    ["recently","RB","rec"],
    ["established","VBD","est"],
    ["workshop","NN","workshop"],
    ["of","IN","of"],
    {
      "tag":"GPE",
      "content":
      [
        ["Francisco","NNP","francisco"]
      ]
    },
    ["and","CC","and"],
    {
      "tag":"PERSON",
      "content":
      [
        ["Ramon","NNP","ramon"],
        ["Bayeau","NNP","bayeau"]
      ]
    },
    [".",".","."]
  ]
},
{
  "tag":"S",
  "content":
  [
    ["He","PRP","He"],
    ["eventually","RB","ev"],
    ["married","VBD","marry"],
    ["their","PRP$","their"],
    ["sister","NN","sist"],
    [",",",",","],
    {
      "tag":"PERSON",
      "content":
      [
        ["Josefa","NNP","josef"]
      ]
    },
    [".",".","."]
  ]
},
{
  "tag":"S",
  "content":
  [
    ["It","PRP","It"],
    ["was","VBD","be"],
    ["n't","RB","n't"],
    ["long","RB","long"],
    ["before","IN","before"],
    {
      "tag":"PERSON",
      "content":
      [
        ["Goya","NNP","goy"]
      ]
    },
    ["scored","VBD","scor"],
    ["a","DT","a"],
    ["job","NN","job"],
    ["in","IN","in"],
    ["the","DT","the"],
    ["royal","JJ","roy"],
    ["tapestry","NN","tapestry"],
    ["workshop","NN","workshop"],
    ["under","IN","under"],
    {
      "tag":"PERSON",
      "content":
      [
        ["Francisco","NNP","francisco"],
        ["Bayeu","NNP","bayeu"]
      ]
    },
    [".",".","."]
  ]
},
{
  "tag":"S",
  "content":
  [
    ["His","PRP$","His"],
    ["rise","NN","ris"],
    ["was","VBD","be"],
    ["steady","JJ","steady"],
    [".",".","."]
  ]
},
{
  "tag":"S",
  "content":
  [
    ["By","IN","By"],
    ["1785","CD","1785"],
    [",",",",","],
    ["he","PRP","he"],
    ["was","VBD","be"],
    ["named","VBN","nam"],
    ["deputy","NN","deputy"],
    ["director","NN","direct"],
    ["of","IN","of"],
    ["painting","NN","paint"],
    ["at","IN","at"],
    ["the","DT","the"],
    {
      "tag":"ORGANIZATION",
      "content":
      [
        ["Royal","NNP","roy"],
        ["Academy","NNP","academy"]
      ]
    },
    [",",",",","],
    ["the","DT","the"],
    ["very","JJ","very"],
    ["place","NN","plac"],
    ["that","WDT","that"],
    ["had","VBD","hav"],
    ["rebuffed","VBN","rebuff"],
    ["his","PRP$","his"],
    ["early","JJ","ear"],
    ["applications","NNS","apply"],
    ["to","TO","to"],
    ["study","VB","study"],
    [".",".","."]
  ]
},
{
  "tag":"S",
  "content":
  [
    ["In","IN","In"],
    ["1786","CD","1786"],
    [",",",",","],
    ["he","PRP","he"],
    ["was","VBD","be"],
    ["appointed","VBN","appoint"],
    ["painter","NN","paint"],
    ["to","TO","to"],
    {
      "tag":"PERSON",
      "content":
      [
        ["Charles","NNP","charl"],
        ["III","NNP","ii"]
      ]
    },
    [",",",",","],
    ["with","IN","with"],
    ["an","DT","an"],
    ["appropriately","RB","appropry"],
    ["comfortable","JJ","comfort"],
    ["salary","NN","sal"],
    [",",",",","],
    ["and","CC","and"],
    ["was","VBD","be"],
    ["promoted","VBN","promot"],
    ["to","TO","to"],
    ["court","NN","court"],
    ["painter","NN","paint"],
    ["under","IN","under"],
    {
      "tag":"PERSON",
      "content":
      [
        ["Charles","NNP","charl"]
      ]
    },
    ["'s","POS","'s"],
    ["successor","NN","success"],
    [",",",",","],
    {
      "tag":"PERSON",
      "content":
      [
        ["Charles","NNP","charl"],
        ["IV","NNP","iv"]
      ]
    },
    [".",".","."]
  ]
},
{
  "tag":"S",
  "content":
  [
    {
      "tag":"PERSON",
      "content":
      [
        ["Life","NNP","lif"]
      ]
    },
    ["was","VBD","be"],
    ["looking","VBG","look"],
    ["good","JJ","good"],
    [",",",",","],
    ["but","CC","but"],
    ["two","CD","two"],
    ["catastrophes","NNS","catastroph"],
    ["intervened","VBD","interv"],
    [".",".","."]
  ]
},
{
  "tag":"S",
  "content":
  [
    {
      "tag":"GPE",
      "content":
      [
        ["First","NNP","first"]
      ]
    },
    [",",",",","],
    ["in","IN","in"],
    ["1792","CD","1792"],
    [",",",",","],
    {
      "tag":"PERSON",
      "content":
      [
        ["Goya","NNP","goy"]
      ]
    },
    ["suffered","VBD","suff"],
    ["a","DT","a"],
    ["terrible","JJ","terr"],
    ["illness","NN","il"],
    ["that","WDT","that"],
    ["obliterated","VBN","oblit"],
    ["his","PRP$","his"],
    ["hearing","NN","hear"],
    [".",".","."]
  ]
},
{
  "tag":"S",
  "content":
  [
    ["Some","DT","Some"],
    ["art","NN","art"],
    ["historians","NNS","hist"],
    ["say","VBP","say"],
    ["this","DT","this"],
    ["made","NN","mad"],
    ["him","PRP","him"],
    ["withdraw","VBD","withdraw"],
    ["into","IN","into"],
    ["himself","PRP","himself"],
    [",",",",","],
    ["inexorably","RB","inex"],
    ["shifting","VBG","shift"],
    ["his","PRP$","his"],
    ["work","NN","work"],
    ["into","IN","into"],
    ["dark","NN","dark"],
    ["places","NNS","plac"],
    [",",",",","],
    ["though","IN","though"],
    ["they","PRP","they"],
    ["may","MD","may"],
    ["underestimate","VB","underestim"],
    ["the","DT","the"],
    ["effect","NN","effect"],
    ["of","IN","of"],
    ["losing","VBG","los"],
    ["one","CD","one"],
    ["child","NN","child"],
    ["after","IN","after"],
    ["another","DT","another"],
    ["in","IN","in"],
    ["infancy","NN","inf"],
    [".",".","."]
  ]
},
{
  "tag":"S",
  "content":
  [
    ["In","IN","In"],
    ["1799","CD","1799"],
    ["he","PRP","he"],
    ["published","VBD","publ"],
    ["a","DT","a"],
    ["set","NN","set"],
    ["of","IN","of"],
    ["80","CD","80"],
    ["aquatints","NNS","aquatint"],
    ["that","WDT","that"],
    ["he","PRP","he"],
    ["had","VBD","hav"],
    ["made","VBN","mak"],
    ["in","IN","in"],
    ["the","DT","the"],
    ["previous","JJ","prevy"],
    ["two","CD","two"],
    ["years","NNS","year"],
    ["called","VBN","cal"],
    {
      "tag":"GPE",
      "content":
      [
        ["Los","NNP","los"],
        ["Caprichos","NNP","capricho"]
      ]
    },
    [",",",",","],
    ["or","CC","or"],
    ["caprices","NNS","capr"],
    [",",",",","],
    ["though","IN","though"],
    ["the","DT","the"],
    ["lightness","NN","light"],
    ["of","IN","of"],
    ["the","DT","the"],
    ["term","NN","term"],
    ["is","VBZ","be"],
    ["misleading","VBG","mislead"],
    [".",".","."]
  ]
},
{
  "tag":"S",
  "content":
  [
    ["In","IN","In"],
    ["this","DT","this"],
    ["series","NN","sery"],
    {
      "tag":"PERSON",
      "content":
      [
        ["Goya","NNP","goy"]
      ]
    },
    ["probed","VBD","prob"],
    ["every","DT","every"],
    ["human","NN","hum"],
    ["folly","RB","fol"],
    [":",":",":"],
    ["stupidity","NN","stupid"],
    [",",",",","],
    ["greed","NN","gree"],
    [",",",",","],
    ["vanity","NN","van"],
    ["and","CC","and"],
    ["superstition","NN","superstit"],
    ["among","IN","among"],
    ["them","PRP","them"],
    [".",".","."]
  ]
},
{
  "tag":"S",
  "content":
  [
    ["No","DT","No"],
    ["43","CD","43"],
    [",",",",","],
    ["The","DT","The"],
    ["Sleep","NNP","sleep"],
    ["of","IN","of"],
    {
      "tag":"ORGANIZATION",
      "content":
      [
        ["Reason","NNP","reason"],
        ["Produces","NNPS","produc"],
        ["Monsters","NNP","monst"]
      ]
    },
    [",",",",","],
    ["is","VBZ","be"],
    ["the","DT","the"],
    ["best","JJS","best"],
    ["known","VBN","know"],
    ["and","CC","and"],
    ["was","VBD","be"],
    ["intended","VBN","intend"],
    ["for","IN","for"],
    ["the","DT","the"],
    ["frontispiece","NN","frontispiec"],
    [",",",",","],
    ["before","IN","before"],
    {
      "tag":"PERSON",
      "content":
      [
        ["Goya","NNP","goy"]
      ]
    },
    ["exchanged","VBD","exchang"],
    ["it","PRP","it"],
    ["for","IN","for"],
    ["a","DT","a"],
    ["more","RBR","mor"],
    ["conventional","JJ","conv"],
    ["self-portrait","NN","self-portrait"],
    [".",".","."]
  ]
},
{
  "tag":"S",
  "content":
  [
    ["``","``","``"],
    ["In","IN","In"],
    ["the","DT","the"],
    {
      "tag":"ORGANIZATION",
      "content":
      [
        ["Caprichos","NNP","capricho"]
      ]
    },
    [",",",",","],
    ["''","''","''"],
    {
      "tag":"ORGANIZATION",
      "content":
      [
        ["McDonald","NNP","mcdonald"]
      ]
    },
    ["writes","VBZ","writ"],
    [",",",",","],
    ["``","``","``"],
    ["goblins","NNS","goblin"],
    [",",",",","],
    ["witches","NNS","witch"],
    [",",",",","],
    ["priests","NNS","priest"],
    [",",",",","],
    ["prostitutes","VBZ","prostitut"],
    ["and","CC","and"],
    ["nobility","NN","nobl"],
    ["occupy","NN","occupy"],
    ["the","DT","the"],
    ["same","JJ","sam"],
    ["world","NN","world"],
    [".",".","."]
  ]
},
{
  "tag":"S",
  "content":
  [
    ["``","``","``"],
    ["So","RB","so"],
    ["far","RB","far"],
    ["from","IN","from"],
    ["drawing","VBG","draw"],
    ["down","IN","down"],
    ["the","DT","the"],
    ["wrath","NN","wra"],
    ["of","IN","of"],
    ["church","NN","church"],
    ["and","CC","and"],
    ["state","NN","stat"],
    [",",",",","],
    ["the","DT","the"],
    ["work","NN","work"],
    ["was","VBD","be"],
    ["a","DT","a"],
    ["success","NN","success"],
    ["and","CC","and"],
    ["liberal-minded","JJ","liberal-minded"],
    ["aristocrats","NNS","aristocr"],
    ["in","IN","in"],
    {
      "tag":"GPE",
      "content":
      [
        ["Spain","NNP","spain"]
      ]
    },
    ["and","CC","and"],
    ["abroad","RB","abroad"],
    ["rushed","VBD","rush"],
    ["to","TO","to"],
    ["buy","VB","buy"],
    ["copies","NNS","cop"],
    [".",".","."]
  ]
},
{
  "tag":"S",
  "content":
  [
    {
      "tag":"GPE",
      "content":
      [
        ["Goya","NNP","goy"]
      ]
    },
    ["might","MD","might"],
    ["have","VB","hav"],
    ["been","VBN","be"],
    ["sinking","VBG","sink"],
    ["into","IN","into"],
    ["pessimism","NN","pessim"],
    [",",",",","],
    ["but","CC","but"],
    ["he","PRP","he"],
    ["had","VBD","hav"],
    ["the","DT","the"],
    ["measure","NN","meas"],
    ["of","IN","of"],
    ["his","PRP$","his"],
    ["times","NNS","tim"],
    ["and","CC","and"],
    ["seemed","VBD","seem"],
    ["unassailable","JJ","unassail"],
    [".",".","."]
  ]
},
{
  "tag":"S",
  "content":
  [
    {
      "tag":"GPE",
      "content":
      [
        ["Goya","NNP","goy"]
      ]
    },
    ["'s","POS","'s"],
    ["second","JJ","second"],
    ["catastrophe","NN","catastroph"],
    ["was","VBD","be"],
    ["political","JJ","polit"],
    [".",".","."]
  ]
},
{
  "tag":"S",
  "content":
  [
    ["The","DT","The"],
    {
      "tag":"ORGANIZATION",
      "content":
      [
        ["Bourbon","NNP","bourbon"]
      ]
    },
    ["king","NN","king"],
    {
      "tag":"PERSON",
      "content":
      [
        ["Charles","NNP","charl"],
        ["III","NNP","ii"]
      ]
    },
    [",",",",","],
    ["an","DT","an"],
    ["enlightened","VBN","enlight"],
    ["and","CC","and"],
    ["reforming","NN","reform"],
    ["monarch","NN","monarch"],
    [",",",",","],
    ["had","VBD","hav"],
    ["ruled","VBN","rul"],
    {
      "tag":"GPE",
      "content":
      [
        ["Spain","NNP","spain"]
      ]
    },
    ["since","IN","since"],
    {
      "tag":"PERSON",
      "content":
      [
        ["Goya","NNP","goy"]
      ]
    },
    ["was","VBD","be"],
    ["a","DT","a"],
    ["teenager","NN","teen"],
    [".",".","."]
  ]
},
{
  "tag":"S",
  "content":
  [
    ["That","DT","That"],
    ["was","VBD","be"],
    ["clearly","RB","clear"],
    ["formative","JJ","form"],
    ["and","CC","and"],
    ["planted","VBD","plant"],
    {
      "tag":"PERSON",
      "content":
      [
        ["Goya","NNP","goy"]
      ]
    },
    ["'s","POS","'s"],
    ["political","JJ","polit"],
    ["outlook","NN","outlook"],
    ["deep","NN","deep"],
    [".",".","."]
  ]
},
{
  "tag":"S",
  "content":
  [
    ["When","WRB","When"],
    {
      "tag":"PERSON",
      "content":
      [
        ["Charles","NNP","charl"],
        ["IV","NNP","iv"]
      ]
    },
    ["ascended","VBD","ascend"],
    ["the","DT","the"],
    ["throne","NN","throne"],
    ["30","CD","30"],
    ["years","NNS","year"],
    ["later","RBR","lat"],
    [",",",",","],
    ["he","PRP","he"],
    ["maintained","VBD","maintain"],
    ["his","PRP$","his"],
    ["father","NN","fath"],
    ["'s","POS","'s"],
    ["policies","NNS","policy"],
    [".",".","."]
  ]
},
{
  "tag":"S",
  "content":
  [
    ["In","IN","In"],
    ["1807","CD","1807"],
    [",",",",","],
    ["however","RB","howev"],
    [",",",",","],
    {
      "tag":"GPE",
      "content":
      [
        ["France","NNP","frant"]
      ]
    },
    ["invaded","VBD","invad"],
    {
      "tag":"GPE",
      "content":
      [
        ["Spain","NNP","spain"]
      ]
    },
    [",",",",","],
    ["part","NN","part"],
    ["of","IN","of"],
    {
      "tag":"GPE",
      "content":
      [
        ["Napoleon","NNP","napoleon"]
      ]
    },
    ["'s","POS","'s"],
    ["sweep","NN","sweep"],
    ["across","IN","across"],
    {
      "tag":"GPE",
      "content":
      [
        ["Europe","NNP","europ"]
      ]
    },
    [",",",",","],
    ["and","CC","and"],
    ["the","DT","the"],
    {
      "tag":"ORGANIZATION",
      "content":
      [
        ["Bourbons","NNPS","bourbon"]
      ]
    },
    ["were","VBD","be"],
    ["deposed","VBN","depos"],
    [".",".","."]
  ]
},
{
  "tag":"S",
  "content":
  [
    {
      "tag":"GPE",
      "content":
      [
        ["Goya","NNP","goy"]
      ]
    },
    ["'s","POS","'s"],
    ["childhood","NN","child"],
    ["home","NN","hom"],
    [",",",",","],
    {
      "tag":"GPE",
      "content":
      [
        ["Zaragoza","NNP","zaragoz"]
      ]
    },
    [",",",",","],
    ["was","VBD","be"],
    ["almost","RB","almost"],
    ["destroyed","VBN","destroy"],
    ["in","IN","in"],
    ["a","DT","a"],
    ["siege","NN","sieg"],
    [",",",",","],
    ["but","CC","but"],
    {
      "tag":"PERSON",
      "content":
      [
        ["Napoleon","NNP","napoleon"]
      ]
    },
    ["later","JJ","lat"],
    ["claimed","VBD","claim"],
    ["the","DT","the"],
    {
      "tag":"GPE",
      "content":
      [
        ["Spanish","NNP","span"]
      ]
    },
    ["war","NN","war"],
    ["had","VBD","hav"],
    ["been","VBN","be"],
    ["the","DT","the"],
    ["beginning","NN","begin"],
    ["of","IN","of"],
    ["the","DT","the"],
    ["end","NN","end"],
    ["for","IN","for"],
    ["him","PRP","him"],
    [".",".","."]
  ]
},
{
  "tag":"S",
  "content":
  [
    ["The","DT","The"],
    ["war","NN","war"],
    ["left","VBD","leav"],
    ["two","CD","two"],
    ["intriguing","JJ","intrigu"],
    ["legacies","NNS","leg"],
    [":",":",":"],
    {
      "tag":"GPE",
      "content":
      [
        ["Spanish","JJ","span"]
      ]
    },
    ["civilians","NNS","civil"],
    ["put","VBN","put"],
    ["up","RP","up"],
    ["a","DT","a"],
    ["stiff","NN","stiff"],
    ["resistance","NN","resist"],
    ["to","TO","to"],
    ["the","DT","the"],
    {
      "tag":"GPE",
      "content":
      [
        ["French","JJ","french"]
      ]
    },
    [",",",",","],
    ["and","CC","and"],
    ["the","DT","the"],
    ["term","NN","term"],
    ["guerilla","NN","guerill"],
    [",",",",","],
    ["a","DT","a"],
    ["diminutive","JJ","diminut"],
    ["of","IN","of"],
    ["the","DT","the"],
    {
      "tag":"GPE",
      "content":
      [
        ["Spanish","NNP","span"]
      ]
    },
    ["word","NN","word"],
    ["for","IN","for"],
    ["war","NN","war"],
    [",",",",","],
    ["guerra","NN","guerr"],
    [",",",",","],
    ["was","VBD","be"],
    ["coined","VBN","coin"],
    ["for","IN","for"],
    ["them","PRP","them"],
    [";",":",";"],
    ["and","CC","and"],
    ["it","PRP","it"],
    ["inspired","VBD","inspir"],
    {
      "tag":"PERSON",
      "content":
      [
        ["Goya","NNP","goy"]
      ]
    },
    ["'s","POS","'s"],
    ["enduring","NN","end"],
    ["pacifist","NN","pac"],
    ["manifesto","NN","manifesto"],
    [",",",",","],
    {
      "tag":"ORGANIZATION",
      "content":
      [
        ["The","NNP","the"],
        ["Disasters","NNP","disast"]
      ]
    },
    ["of","IN","of"],
    ["War","NNP","war"],
    [".",".","."]
  ]
},
{
  "tag":"S",
  "content":
  [
    ["After","IN","After"],
    {
      "tag":"PERSON",
      "content":
      [
        ["Napoleon","NNP","napoleon"]
      ]
    },
    ["was","VBD","be"],
    ["thrown","VBN","throw"],
    ["out","RP","out"],
    [",",",",","],
    {
      "tag":"PERSON",
      "content":
      [
        ["Ferdinand","NNP","ferdinand"],
        ["VII","NNP","vii"]
      ]
    },
    ["took","VBD","tak"],
    ["the","DT","the"],
    ["throne","NN","throne"],
    ["in","IN","in"],
    ["1814","CD","1814"],
    [".",".","."]
  ]
},
{
  "tag":"S",
  "content":
  [
    ["Another","DT","Another"],
    ["Bourbon","NNP","bourbon"],
    ["but","CC","but"],
    ["no","DT","no"],
    ["friend","NN","friend"],
    ["of","IN","of"],
    ["the","DT","the"],
    ["Enlightenment","NNP","enlight"],
    [",",",",","],
    ["he","PRP","he"],
    ["revoked","VBD","revok"],
    ["the","DT","the"],
    ["constitution","NN","constitut"],
    [",",",",","],
    ["declared","VBD","decl"],
    ["absolute","JJ","absolv"],
    ["rule","NN","rul"],
    ["and","CC","and"],
    ["reinstated","VBD","reinst"],
    ["the","DT","the"],
    ["Inquisition","NNP","inquisit"],
    [".",".","."]
  ]
},
{
  "tag":"S",
  "content":
  [
    {
      "tag":"GPE",
      "content":
      [
        ["Goya","NNP","goy"]
      ]
    },
    ["'s","POS","'s"],
    ["patriotism","NN","patriot"],
    ["was","VBD","be"],
    ["unquestionable","JJ","unquest"],
    [".",".","."]
  ]
},
{
  "tag":"S",
  "content":
  [
    ["One","CD","One"],
    ["of","IN","of"],
    ["his","PRP$","his"],
    ["most","RBS","most"],
    ["famous","JJ","fam"],
    ["paintings","NNS","paint"],
    [",",",",","],
    ["Third","NNP","third"],
    ["of","IN","of"],
    ["May","NNP","may"],
    ["1808","CD","1808"],
    [",",",",","],
    ["shows","VBZ","show"],
    ["defenders","NNS","defend"],
    ["of","IN","of"],
    {
      "tag":"GPE",
      "content":
      [
        ["Spain","NNP","spain"]
      ]
    },
    ["being","VBG","be"],
    ["mown","NN","mown"],
    ["down","IN","down"],
    ["by","IN","by"],
    {
      "tag":"GPE",
      "content":
      [
        ["French","JJ","french"]
      ]
    },
    ["firing","NN","fir"],
    ["squads","NNS","squad"],
    [".",".","."]
  ]
},
{
  "tag":"S",
  "content":
  [
    ["The","DT","The"],
    {
      "tag":"ORGANIZATION",
      "content":
      [
        ["Disasters","NNP","disast"]
      ]
    },
    ["of","IN","of"],
    ["War","NNP","war"],
    ["is","VBZ","be"],
    ["a","DT","a"],
    ["homage","NN","hom"],
    ["to","TO","to"],
    {
      "tag":"GPE",
      "content":
      [
        ["Spanish","NNP","span"]
      ]
    },
    ["resistance","NN","resist"],
    ["to","TO","to"],
    {
      "tag":"GPE",
      "content":
      [
        ["French","NNP","french"]
      ]
    },
    ["occupation","NN","occup"],
    [".",".","."]
  ]
},
{
  "tag":"S",
  "content":
  [
    ["And","CC","And"],
    ["yet","RB","yet"],
    ["his","PRP$","his"],
    ["Enlightenment","NNP","enlight"],
    ["views","NNS","view"],
    ["made","VBD","mak"],
    ["him","PRP","him"],
    ["suspect","VBP","suspect"],
    ["in","IN","in"],
    ["the","DT","the"],
    ["regime","NN","regim"],
    ["'s","POS","'s"],
    ["eyes","NNS","ey"],
    ["and","CC","and"],
    ["royal","JJ","roy"],
    ["commissions","NNS","commit"],
    ["stopped","VBD","stop"],
    [".",".","."]
  ]
},
{
  "tag":"S",
  "content":
  [
    ["Fed","NNP","fed"],
    ["up","IN","up"],
    ["with","IN","with"],
    ["the","DT","the"],
    ["mood","NN","mood"],
    ["in","IN","in"],
    {
      "tag":"GPE",
      "content":
      [
        ["Spain","NNP","spain"]
      ]
    },
    [",",",",","],
    ["in","IN","in"],
    ["1824","CD","1824"],
    ["he","PRP","he"],
    ["went","VBD","go"],
    ["to","TO","to"],
    {
      "tag":"GPE",
      "content":
      [
        ["Bordeaux","NNP","bordeaux"]
      ]
    },
    ["in","IN","in"],
    {
      "tag":"GPE",
      "content":
      [
        ["France","NNP","frant"]
      ]
    },
    ["and","CC","and"],
    ["spent","VBD","spend"],
    ["his","PRP$","his"],
    ["remaining","NN","remain"],
    ["years","NNS","year"],
    ["between","IN","between"],
    ["there","EX","there"],
    ["and","CC","and"],
    {
      "tag":"GPE",
      "content":
      [
        ["Paris","NNP","par"]
      ]
    },
    [".",".","."]
  ]
},
{
  "tag":"S",
  "content":
  [
    {
      "tag":"PERSON",
      "content":
      [
        ["Goya","NNP","goy"]
      ]
    },
    ["kept","VBD","keep"],
    ["working","VBG","work"],
    ["right","RB","right"],
    ["up","IN","up"],
    ["until","IN","until"],
    ["his","PRP$","his"],
    ["death","NN","dea"],
    ["four","CD","four"],
    ["years","NNS","year"],
    ["later","RBR","lat"],
    [".",".","."]
  ]
},
{
  "tag":"S",
  "content":
  [
    ["``","``","``"],
    ["He","PRP","He"],
    ["was","VBD","be"],
    ["always","RB","alway"],
    ["making","VBG","mak"],
    ["albums","NNS","alb"],
    ["and","CC","and"],
    ["drawings","NNS","draw"],
    [",",",",","],
    ["paintings","NNS","paint"],
    [",",",",","],
    ["small","JJ","smal"],
    ["studies","NNS","study"],
    [".",".","."]
  ]
},
{
  "tag":"S",
  "content":
  [
    ["There","EX","There"],
    ["was","VBD","be"],
    ["no","DT","no"],
    ["sense","NN","sens"],
    ["of","IN","of"],
    ["an","DT","an"],
    ["older","NN","old"],
    ["man","NN","man"],
    ["slowing","VBG","slow"],
    ["down","IN","down"],
    [",",",",","],
    ["''","''","''"],
    {
      "tag":"ORGANIZATION",
      "content":
      [
        ["McDonald","NNP","mcdonald"]
      ]
    },
    ["says","VBZ","say"],
    [".",".","."]
  ]
},
{
  "tag":"S",
  "content":
  [
    {
      "tag":"PERSON",
      "content":
      [
        ["Goya","NNP","goy"]
      ]
    },
    ["was","VBD","be"],
    ["shaped","VBN","shap"],
    ["through","IN","through"],
    ["and","CC","and"],
    ["by","IN","by"],
    ["social","JJ","soc"],
    ["forces","NNS","forc"],
    [",",",",","],
    ["he","PRP","he"],
    ["adds","VBZ","ad"],
    [",",",",","],
    ["and","CC","and"],
    ["he","PRP","he"],
    ["explored","VBD","expl"],
    ["them","PRP","them"],
    ["until","IN","until"],
    ["the","DT","the"],
    ["end.Renaissance","NN","end.renaissance"],
    ["to","TO","to"],
    {
      "tag":"GPE",
      "content":
      [
        ["Goya","NNP","goy"]
      ]
    },
    [":",":",":"],
    ["Prints","NNS","print"],
    ["and","CC","and"],
    {
      "tag":"ORGANIZATION",
      "content":
      [
        ["Drawings","NNP","draw"]
      ]
    },
    ["from","IN","from"],
    {
      "tag":"GPE",
      "content":
      [
        ["Spain","NNP","spain"]
      ]
    },
    [",",",",","],
    ["at","IN","at"],
    ["the","DT","the"],
    {
      "tag":"ORGANIZATION",
      "content":
      [
        ["Art","NNP","art"],
        ["Gallery","NNP","gallery"]
      ]
    },
    ["of","IN","of"],
    {
      "tag":"ORGANIZATION",
      "content":
      [
        ["NSW","NNP","nsw"]
      ]
    },
    [",",",",","],
    {
      "tag":"GPE",
      "content":
      [
        ["Sydney","NNP","sydney"]
      ]
    },
    [",",",",","],
    ["until","IN","until"],
    ["November","NNP","novemb"],
    ["24","CD","24"],
    [".",".","."]
  ]
},
{
  "tag":"S",
  "content":
  [
    {
      "tag":"PERSON",
      "content":
      [
        ["Increase","NN","increas"]
      ]
    },
    {
      "tag":"PERSON",
      "content":
      [
        ["Text","NNP","text"],
        ["Size","NNP","siz"],
        ["Decrease","NNP","decreas"],
        ["Text","NNP","text"],
        ["Size","NNP","siz"],
        ["Print","NNP","print"]
      ]
    },
    ["E","NNP","e"]
  ]
}]