[
{
  "tag":"S",
  "content":
  [
    {
      "tag":"PERSON",
      "content":
      [
        ["Zoom","NNP","zoom"]
      ]
    },
    ["Information","NNP","inform"],
    ["Find","NNP","find"],
    ["Contacts","NNP","contact"],
    ["Careers","NNP","car"],
    ["FAQ","NNP","faq"],
    ["Create","NNP","cre"],
    ["Profile","NNP","profil"],
    ["Sign","NNP","sign"],
    ["In","NNP","in"],
    ["Customers","NNP","custom"],
    ["Marketing","NNP","market"],
    {
      "tag":"PERSON",
      "content":
      [
        ["Sales","NNP","sal"],
        ["Recruiting","NNP","recruit"],
        ["Enterprise","NNP","enterpr"],
        ["Individuals","NNP","individ"]
      ]
    },
    {
      "tag":"ORGANIZATION",
      "content":
      [
        ["Partners","NNPS","partn"],
        ["Our","NNP","our"]
      ]
    },
    ["Customers","NNP","custom"],
    ["Case","NNP","cas"],
    ["Studies","NNP","study"],
    ["Products","NNPS","produc"],
    {
      "tag":"ORGANIZATION",
      "content":
      [
        ["ZoomInfo","NNP","zoominfo"]
      ]
    },
    ["Pro","NNP","pro"],
    ["ZoomInfo","NNP","zoominfo"],
    ["Data","NNP","dat"],
    ["Services","NNPS","serv"],
    {
      "tag":"ORGANIZATION",
      "content":
      [
        ["ZoomInfo","NNP","zoominfo"]
      ]
    },
    ["Community","NNP","commun"],
    ["Edition","NNP","edit"],
    ["ZoomInfo","NNP","zoominfo"],
    ["Connect","NNP","connect"],
    ["ZoomInfo","NNP","zoominfo"],
    ["API","NNP","ap"],
    ["Pricing","NNP","pric"],
    ["Resources","NNPS","resourc"],
    ["Lead","NNP","lead"],
    ["Generation","NNP","gen"],
    ["Email","NNP","email"],
    ["Marketing","NNP","market"],
    ["Email","NNP","email"],
    ["Deliverability","NNP","del"],
    ["Marketing","NNP","market"],
    ["ROI","NNP","roi"],
    ["Content","NNP","cont"],
    ["Marketing","NNP","market"],
    ["ZoomInfo","NNP","zoominfo"],
    ["Blog","NNP","blog"],
    ["Whitepapers","NNP","whitepap"],
    ["Webinars","NNP","webin"],
    ["About","NNP","about"],
    ["Our","NNP","our"],
    ["Company","NNP","company"],
    ["Data","NNP","dat"],
    ["Sources","NNP","sourc"],
    ["Leadership","NNP","lead"],
    ["News","NNP","new"],
    ["and","CC","and"],
    {
      "tag":"ORGANIZATION",
      "content":
      [
        ["Press","NNP","press"],
        ["Partners","NNPS","partn"],
        ["Careers","NNP","car"],
        ["Customer","NNP","custom"],
        ["Support","NNP","support"],
        ["Contact","NNP","contact"],
        ["Us","NNP","us"],
        ["Free","NNP","fre"]
      ]
    },
    ["Trial","NNP","tri"],
    ["People","NNP","peopl"],
    ["Companies","NNP","company"],
    ["Need","NNP","nee"],
    ["more","JJR","mor"],
    ["?",".","?"]
  ]
},
{
  "tag":"S",
  "content":
  [
    ["Try","NNP","try"],
    ["our","PRP$","our"],
    ["Advanced","NNP","adv"],
    ["Search","NNP","search"],
    ["(","NNP","("],
    ["20+","CD","20+"],
    ["criteria","NNS","crit"],
    [")",":",")"],
    ["»",":","»"],
    ["Share","NN","shar"],
    ["This","DT","This"],
    ["Profile","NNP","profil"],
    ["Share","NNP","shar"],
    ["this","DT","this"],
    ["profile","NN","profil"],
    ["on","IN","on"],
    {
      "tag":"GPE",
      "content":
      [
        ["Facebook","NNP","facebook"]
      ]
    },
    [".",".","."]
  ]
},
{
  "tag":"S",
  "content":
  [
    {
      "tag":"GPE",
      "content":
      [
        ["Link","NNP","link"]
      ]
    },
    ["to","TO","to"],
    ["this","DT","this"],
    ["profile","NN","profil"],
    ["on","IN","on"],
    {
      "tag":"ORGANIZATION",
      "content":
      [
        ["LinkedIn","NNP","linkedin"]
      ]
    },
    [".",".","."]
  ]
},
{
  "tag":"S",
  "content":
  [
    {
      "tag":"GPE",
      "content":
      [
        ["Tweet","NNP","tweet"]
      ]
    },
    ["this","DT","this"],
    ["profile","NN","profil"],
    ["on","IN","on"],
    ["Twitter","NNP","twit"],
    [".",".","."]
  ]
},
{
  "tag":"S",
  "content":
  [
    ["Email","NNP","email"],
    ["a","DT","a"],
    ["link","NN","link"],
    ["to","TO","to"],
    ["this","DT","this"],
    ["profile","NN","profil"],
    [".",".","."]
  ]
},
{
  "tag":"S",
  "content":
  [
    {
      "tag":"GPE",
      "content":
      [
        ["See","NNP","see"]
      ]
    },
    ["other","JJ","oth"],
    ["services","NNS","serv"],
    ["through","IN","through"],
    ["which","WDT","which"],
    ["you","PRP","you"],
    ["can","MD","can"],
    ["share","VB","shar"],
    ["this","DT","this"],
    ["profile","NN","profil"],
    [".",".","."]
  ]
},
{
  "tag":"S",
  "content":
  [
    ["This","DT","This"],
    ["profile","NN","profil"],
    ["was","VBD","be"],
    ["last","JJ","last"],
    ["updated","VBN","upd"],
    ["on","IN","on"],
    ["2/16/07","CD","2/16/07"],
    ["and","CC","and"],
    ["contains","NNS","contain"],
    ["information","NN","inform"],
    ["from","IN","from"],
    ["public","JJ","publ"],
    ["web","NN","web"],
    ["pages","NNS","pag"],
    [".",".","."]
  ]
},
{
  "tag":"S",
  "content":
  [
    ["Is","VBZ","is"],
    ["this","DT","this"],
    ["you","PRP","you"],
    ["?",".","?"]
  ]
},
{
  "tag":"S",
  "content":
  [
    ["Claim","NNP","claim"],
    ["your","PRP$","your"],
    ["profile","NN","profil"],
    [".",".","."]
  ]
},
{
  "tag":"S",
  "content":
  [
    {
      "tag":"PERSON",
      "content":
      [
        ["Felix","NNP","felix"]
      ]
    },
    {
      "tag":"PERSON",
      "content":
      [
        ["Delahaye","NNP","delahay"],
        ["Wrong","NNP","wrong"],
        ["Felix","NNP","felix"],
        ["Delahaye","NNP","delahay"]
      ]
    },
    ["?",".","?"]
  ]
},
{
  "tag":"S",
  "content":
  [
    {
      "tag":"PERSON",
      "content":
      [
        ["Head","NNP","head"]
      ]
    },
    {
      "tag":"PERSON",
      "content":
      [
        ["Gardener","NNP","gard"],
        ["Empress","NNP","empress"],
        ["Josephine","NNP","josephin"],
        ["Background","NNP","background"]
      ]
    },
    ["Employment","NNP","employ"],
    ["History","NNP","hist"],
    ["Empress","NNP","empress"],
    {
      "tag":"PERSON",
      "content":
      [
        ["Josephine","NNP","josephin"]
      ]
    },
    ["'s","POS","'s"],
    ["Head","NNP","head"],
    {
      "tag":"PERSON",
      "content":
      [
        ["Gardener","NNP","gard"],
        ["Malmaison","NNP","malmaison"],
        ["Head","NNP","head"],
        ["Gardener","NNP","gard"]
      ]
    },
    ["6","CD","6"],
    {
      "tag":"ORGANIZATION",
      "content":
      [
        ["Total","NNP","tot"],
        ["References","NNP","ref"],
        ["Web","NNP","web"],
        ["References","NNPS","ref"],
        ["Ahoy","NNP","ahoy"]
      ]
    },
    ["-",":","-"],
    {
      "tag":"PERSON",
      "content":
      [
        ["Mac","NNP","mac"]
      ]
    },
    ["'s","POS","'s"],
    ["Web","NNP","web"],
    ["Log","NNP","log"],
    ["-",":","-"],
    {
      "tag":"PERSON",
      "content":
      [
        ["Early","NNP","ear"],
        ["French","NNP","french"],
        ["Explorers","NNP","expl"]
      ]
    },
    ["of","IN","of"],
    ["Australiawww.ahoy.tk-jk.net","JJ","australiawww.ahoy.tk-jk.net"],
    [",",",",","],
    ["16","CD","16"],
    ["Feb","NNP","feb"],
    ["2007","CD","2007"],
    ["[","CD","["],
    ["cached","JJ","cach"],
    ["]","NN","]"],
    ["The","DT","The"],
    ["expedition","NN","expedit"],
    ["gardener","NN","gard"],
    [",",",",","],
    {
      "tag":"PERSON",
      "content":
      [
        ["Felix","NNP","felix"],
        ["Delahaye","NNP","delahay"]
      ]
    },
    ["laid","VBD","lay"],
    ["out","RP","out"],
    ["the","DT","the"],
    ["first","JJ","first"],
    {
      "tag":"GPE",
      "content":
      [
        ["European","JJ","europ"]
      ]
    },
    ["vegetable","JJ","veget"],
    ["garden","NN","gard"],
    ["in","IN","in"],
    {
      "tag":"GPE",
      "content":
      [
        ["Tasmania","NNP","tasman"]
      ]
    },
    [",",",",","],
    ["he","PRP","he"],
    ["later","JJ","lat"],
    ["went","NN","went"],
    ["on","IN","on"],
    ["to","TO","to"],
    ["become","VB","becom"],
    ["head","NN","head"],
    ["gardener","NN","gard"],
    ["for","IN","for"],
    {
      "tag":"ORGANIZATION",
      "content":
      [
        ["Empress","NNP","empress"],
        ["Josephine","NNP","josephin"]
      ]
    },
    ["at","IN","at"],
    ["Malmaison.In","NNP","malmaison.in"],
    ["the","DT","the"],
    ["ship","NN","ship"],
    ["'s","POS","'s"],
    ["company","NN","company"],
    ["was","VBD","be"],
    ["a","DT","a"],
    ["steward","NN","steward"],
    ["known","VBN","know"],
    ["as","IN","as"],
    {
      "tag":"PERSON",
      "content":
      [
        ["Louis","NNP","lou"],
        ["Girargin","NNP","girargin"]
      ]
    },
    [",",",",","],
    ["who","WP","who"],
    ["was","VBD","be"],
    ["a","DT","a"],
    ["38","CD","38"],
    ["year","NN","year"],
    ["old","JJ","old"],
    ["female","NN","fem"],
    ["pretending","NN","pretend"],
    ["to","TO","to"],
    ["be","VB","be"],
    ["a","DT","a"],
    ["male","JJ","mal"],
    [",",",",","],
    ["she","PRP","she"],
    ["was","VBD","be"],
    {
      "tag":"PERSON",
      "content":
      [
        ["Marie","NNP","mary"],
        ["Louise","NNP","lou"],
        ["Victoire","NNP","victoir"],
        ["Girgarin","NNP","girgarin"]
      ]
    },
    [",",",",","],
    ["it","PRP","it"],
    ["is","VBZ","be"],
    ["understood","VBN","understand"],
    ["that","IN","that"],
    ["both","DT","both"],
    ["D'Entrecasteaux","JJ","d'entrecasteaux"],
    ["and","CC","and"],
    ["his","PRP$","his"],
    ["second","JJ","second"],
    ["in","IN","in"],
    ["command","NN","command"],
    ["were","VBD","be"],
    ["well","RB","wel"],
    ["aware","JJ","aw"],
    ["of","IN","of"],
    ["her","PRP$","her"],
    ["disception","NN","disceiv"],
    [",",",",","],
    ["but","CC","but"],
    ["closed","VBD","clos"],
    ["a","DT","a"],
    ["blind","JJ","blind"],
    ["eye","NN","ey"],
    ["to","TO","to"],
    ["it.It","JJ","it.it"],
    ["was","NNS","wa"],
    ["thought","VBD","think"],
    ["she","PRP","she"],
    ["was","VBD","be"],
    ["actually","RB","act"],
    ["the","DT","the"],
    ["daughter","NN","daught"],
    ["of","IN","of"],
    ["the","DT","the"],
    ["head","NN","head"],
    ["gardener","NN","gard"],
    ["at","IN","at"],
    {
      "tag":"FACILITY",
      "content":
      [
        ["The","DT","The"],
        ["Royal","NNP","roy"],
        ["Court","NNP","court"]
      ]
    },
    ["of","IN","of"],
    {
      "tag":"GPE",
      "content":
      [
        ["Versailles","NNP","versail"]
      ]
    },
    [",",",",","],
    ["but","CC","but"],
    ["giving","VBG","giv"],
    ["birth","JJ","bir"],
    ["to","TO","to"],
    ["an","DT","an"],
    ["illegitimate","NN","illegitim"],
    ["child","NN","child"],
    ["had","VBD","hav"],
    ["forced","VBN","forc"],
    ["her","PRP$","her"],
    ["to","TO","to"],
    ["leave","VB","leav"],
    {
      "tag":"GPE",
      "content":
      [
        ["France","NNP","frant"]
      ]
    },
    [".",".","."]
  ]
},
{
  "tag":"S",
  "content":
  [
    {
      "tag":"GPE",
      "content":
      [
        ["Oceania","NNP","ocean"]
      ]
    },
    ["-",":","-"],
    ["The","DT","The"],
    {
      "tag":"ORGANIZATION",
      "content":
      [
        ["Voyages","NNP","voy"]
      ]
    },
    ["of","IN","of"],
    ["Joseph-Antoine","JJ","joseph-antoine"],
    ["Raymond","NNP","raymond"],
    ["de","IN","de"],
    {
      "tag":"PERSON",
      "content":
      [
        ["Bruny","NNP","bruny"],
        ["d'Entrecasteauxwww.janesoceania.com","NNP","d'entrecasteauxwww.janesoceania.com"]
      ]
    },
    [",",",",","],
    ["14","CD","14"],
    ["Mar","NNP","mar"],
    ["2006","CD","2006"],
    ["[","CD","["],
    ["cached","JJ","cach"],
    ["]","NN","]"],
    ["The","DT","The"],
    ["expedition","NN","expedit"],
    ["gardener","NN","gard"],
    {
      "tag":"PERSON",
      "content":
      [
        ["Felix","NNP","felix"],
        ["Delahaye","NNP","delahay"]
      ]
    },
    ["-",":","-"],
    ["later","JJ","lat"],
    ["to","TO","to"],
    ["become","VB","becom"],
    {
      "tag":"PERSON",
      "content":
      [
        ["Empress","NNP","empress"],
        ["Josephine","NNP","josephin"]
      ]
    },
    ["'s","POS","'s"],
    ["head","NN","head"],
    ["gardener","NN","gard"],
    ["at","IN","at"],
    {
      "tag":"ORGANIZATION",
      "content":
      [
        ["Malmaison","NNP","malmaison"]
      ]
    },
    ["-",":","-"],
    ["laid","VBD","lay"],
    ["out","IN","out"],
    ["the","DT","the"],
    ["first","JJ","first"],
    {
      "tag":"GPE",
      "content":
      [
        ["European","JJ","europ"]
      ]
    },
    ["vegetable","JJ","veget"],
    ["garden","NN","gard"],
    ["in","IN","in"],
    {
      "tag":"GPE",
      "content":
      [
        ["Tasmania","NNP","tasman"]
      ]
    },
    [".",".","."]
  ]
},
{
  "tag":"S",
  "content":
  [
    ["Library","NNP","libr"],
    ["of","IN","of"],
    ["Australianagutenberg.net.au","NNP","australianagutenberg.net.au"],
    ["[","NNP","["],
    ["cached","VBD","cach"],
    ["]","NNP","]"],
    ["D'Entrecasteaux","NNP","d'entrecasteaux"],
    ["failed","VBD","fail"],
    ["to","TO","to"],
    ["find","VB","find"],
    ["any","DT","any"],
    ["trace","NN","trac"],
    ["of","IN","of"],
    ["the","DT","the"],
    ["missing","NN","miss"],
    ["expedition","NN","expedit"],
    [",",",",","],
    ["but","CC","but"],
    ["his","PRP$","his"],
    ["ships","NNS","ship"],
    ["visited","VBD","visit"],
    ["southwest","JJS","southwest"],
    {
      "tag":"GPE",
      "content":
      [
        ["Australia","NNP","austral"]
      ]
    },
    [",",",",","],
    {
      "tag":"GPE",
      "content":
      [
        ["Tasmania","NNP","tasman"]
      ]
    },
    [",",",",","],
    ["the","DT","the"],
    {
      "tag":"LOCATION",
      "content":
      [
        ["North","NNP","nor"],
        ["Island","NNP","island"]
      ]
    },
    ["of","IN","of"],
    {
      "tag":"GPE",
      "content":
      [
        ["New","NNP","new"],
        ["Zealand","NNP","zealand"]
      ]
    },
    [",",",",","],
    ["and","CC","and"],
    ["the","DT","the"],
    {
      "tag":"ORGANIZATION",
      "content":
      [
        ["East","NNP","east"],
        ["Indies","NNPS","indy"]
      ]
    },
    [",",",",","],
    ["where","WRB","where"],
    ["Labillardière","JJ","labillardièr"],
    [",",",",","],
    {
      "tag":"PERSON",
      "content":
      [
        ["Claude","NNP","claud"],
        ["Riche","NNP","rich"]
      ]
    },
    [",",",",","],
    ["Étienne","NNP","étien"],
    {
      "tag":"PERSON",
      "content":
      [
        ["Pierre","NNP","pier"],
        ["Ventenat","NNP","vent"]
      ]
    },
    ["assisted","VBD","assist"],
    ["by","IN","by"],
    ["gardener","NN","gard"],
    ["Félix","CD","Félix"],
    {
      "tag":"PERSON",
      "content":
      [
        ["Delahaye","NNP","delahay"]
      ]
    },
    ["collected","VBD","collect"],
    ["zoological","JJ","zoolog"],
    [",",",",","],
    ["botanical","JJ","bot"],
    ["and","CC","and"],
    ["geological","JJ","geolog"],
    ["specimens","NNS","specim"],
    [",",",",","],
    ["and","CC","and"],
    ["described","VBD","describ"],
    ["the","DT","the"],
    ["customs","NNS","custom"],
    ["and","CC","and"],
    ["languages","NNS","langu"],
    ["of","IN","of"],
    ["the","DT","the"],
    ["local","JJ","loc"],
    {
      "tag":"ORGANIZATION",
      "content":
      [
        ["Indigenous","NNP","indig"],
        ["Australians","NNP","aust"]
      ]
    },
    [".",".","."]
  ]
},
{
  "tag":"S",
  "content":
  [
    ["*Ø*","-NONE-","*Ø*"],
    {
      "tag":"PERSON",
      "content":
      [
        ["Wilson","NNP","wilson"]
      ]
    },
    ["'s","POS","'s"],
    {
      "tag":"ORGANIZATION",
      "content":
      [
        ["Almanac","NNP","almanac"]
      ]
    },
    ["free","JJ","fre"],
    ["daily","JJ","dai"],
    ["ezine","NN","ezin"],
    ["|",":","|"],
    ["Book","NNP","book"],
    ["of","IN","of"],
    {
      "tag":"GPE",
      "content":
      [
        ["Days","NNPS","day"]
      ]
    },
    ["|",":","|"],
    ["April","NNP","april"],
    ["23","CD","23"],
    ["|","CD","|"],
    ["St","NNP","st"],
    {
      "tag":"PERSON",
      "content":
      [
        ["George","NNP","georg"]
      ]
    },
    ["and","CC","and"],
    ["the","DT","the"],
    {
      "tag":"GPE",
      "content":
      [
        ["Dragon","NNP","dragon"]
      ]
    },
    ["legend","NN","legend"],
    ["Shakespeare","NNP","shakespear"],
    ["birthday","NN","birthday"],
    ["Order","NNP","ord"],
    ["of","IN","of"],
    ["the","DT","the"],
    {
      "tag":"ORGANIZATION",
      "content":
      [
        ["Garter","NNP","gart"],
        ["Jurgi","NNP","jurg"]
      ]
    },
    ["Latviawww.wilsonsalmanac.com","NNP","latviawww.wilsonsalmanac.com"],
    [",",",",","],
    ["21","CD","21"],
    ["Feb","NNP","feb"],
    ["2003","CD","2003"],
    ["[","CD","["],
    ["cached","JJ","cach"],
    ["]","NN","]"],
    ["At","IN","At"],
    {
      "tag":"ORGANIZATION",
      "content":
      [
        ["Recherche","NNP","recherch"],
        ["Bay","NNP","bay"]
      ]
    },
    [",",",",","],
    ["the","DT","the"],
    ["expedition","NN","expedit"],
    ["gardener","NN","gard"],
    [",",",",","],
    {
      "tag":"PERSON",
      "content":
      [
        ["Felix","NNP","felix"],
        ["Delahaye","NNP","delahay"]
      ]
    },
    [",",",",","],
    ["built","VBD","build"],
    ["the","DT","the"],
    ["first","JJ","first"],
    {
      "tag":"GPE",
      "content":
      [
        ["European","JJ","europ"]
      ]
    },
    ["vegetable","JJ","veget"],
    ["garden","NN","gard"],
    ["in","IN","in"],
    {
      "tag":"GPE",
      "content":
      [
        ["Tasmania","NNP","tasman"]
      ]
    },
    [",",",",","],
    ["and","CC","and"],
    ["left","VBD","leav"],
    ["it","PRP","it"],
    ["in","IN","in"],
    ["the","DT","the"],
    ["hope","NN","hop"],
    ["that","IN","that"],
    ["it","PRP","it"],
    ["would","MD","would"],
    ["not","RB","not"],
    ["only","RB","on"],
    ["be","VB","be"],
    ["a","DT","a"],
    ["possible","JJ","poss"],
    ["food","NN","food"],
    ["source","NN","sourc"],
    ["for","IN","for"],
    ["future","JJ","fut"],
    {
      "tag":"GPE",
      "content":
      [
        ["French","JJ","french"]
      ]
    },
    ["expeditions","NNS","expedit"],
    [",",",",","],
    ["but","CC","but"],
    ["that","IN","that"],
    ["it","PRP","it"],
    ["would","MD","would"],
    ["also","RB","also"],
    ["introduce","VB","introduc"],
    {
      "tag":"GPE",
      "content":
      [
        ["European","JJ","europ"]
      ]
    },
    ["horticulture","NN","horticult"],
    ["to","TO","to"],
    ["the","DT","the"],
    ["indigenous","JJ","indig"],
    ["people.However","NN","people.however"],
    [",",",",","],
    ["on","IN","on"],
    ["the","DT","the"],
    ["expedition","NN","expedit"],
    ["'s","POS","'s"],
    ["return","NN","return"],
    ["the","DT","the"],
    ["following","VBG","follow"],
    ["January","NNP","janu"],
    [",",",",","],
    ["it","PRP","it"],
    ["was","VBD","be"],
    ["found","VBN","find"],
    ["that","IN","that"],
    ["the","DT","the"],
    ["garden","NN","gard"],
    ["of","IN","of"],
    ["chicory","NN","chic"],
    [",",",",","],
    ["cabbages","NNS","cab"],
    [",",",",","],
    ["sorrel","NN","sorrel"],
    [",",",",","],
    ["radishes","VBZ","rad"],
    [",",",",","],
    ["cress","NN","cress"],
    ["and","CC","and"],
    ["potatoes","VBZ","potato"],
    ["had","VBN","hav"],
    ["become","VBN","becom"],
    ["overgrown","RP","overgrown"],
    [".",".","."]
  ]
},
{
  "tag":"S",
  "content":
  [
    ["It","PRP","It"],
    ["is","VBZ","be"],
    ["said","VBN","say"],
    ["that","IN","that"],
    ["later","JJ","lat"],
    [",",",",","],
    ["back","RB","back"],
    ["in","IN","in"],
    {
      "tag":"GPE",
      "content":
      [
        ["France","NNP","frant"]
      ]
    },
    [",",",",","],
    {
      "tag":"PERSON",
      "content":
      [
        ["Delahaye","NNP","delahay"]
      ]
    },
    ["became","VBD","becom"],
    ["head","NN","head"],
    ["gardener","NN","gard"],
    ["at","IN","at"],
    ["the","DT","the"],
    ["palace","NN","palac"],
    ["of","IN","of"],
    {
      "tag":"GPE",
      "content":
      [
        ["Napoleon","NNP","napoleon"]
      ]
    },
    ["'s","POS","'s"],
    ["wife","NN","wif"],
    [",",",",","],
    ["th","NN","th"]
  ]
}]