[
{
  "tag":"S",
  "content":
  [
    ["×","NN","×"],
    {
      "tag":"PERSON",
      "content":
      [
        ["Close","NNP","clos"]
      ]
    },
    ["×","NNP","×"],
    ["Login","NNP","login"],
    ["Print","NNP","print"],
    ["or","CC","or"],
    ["digital","JJ","digit"],
    ["subscribers","NNS","subscrib"],
    ["please","VB","pleas"],
    ["login","NN","login"],
    ["to","TO","to"],
    ["bypass","NN","bypass"],
    ["the","DT","the"],
    ["surveys","NNS","survey"],
    [",",",",","],
    ["if","IN","if"],
    ["you","PRP","you"],
    ["do","VBP","do"],
    ["not","RB","not"],
    ["have","VB","hav"],
    ["a","DT","a"],
    ["gazette.com","JJ","gazette.com"],
    ["account","NN","account"],
    ["please","NN","pleas"],
    ["visit","NN","visit"],
    ["our","PRP$","our"],
    ["register","NN","reg"],
    ["page","NN","pag"],
    [".",".","."]
  ]
},
{
  "tag":"S",
  "content":
  [
    ["Sign","NNP","sign"],
    ["in","IN","in"],
    {
      "tag":"GPE",
      "content":
      [
        ["Forgot","NNP","forgot"]
      ]
    },
    ["Password","NNP","password"],
    ["?",".","?"]
  ]
},
{
  "tag":"S",
  "content":
  [
    ["No","DT","No"],
    ["website","NN","websit"],
    ["login","NN","login"],
    ["?",".","?"]
  ]
},
{
  "tag":"S",
  "content":
  [
    ["Register","NNP","reg"],
    ["here","RB","her"],
    [".",".","."]
  ]
},
{
  "tag":"S",
  "content":
  [
    {
      "tag":"GPE",
      "content":
      [
        ["Subscribe","NNP","subscrib"]
      ]
    },
    ["|",":","|"],
    {
      "tag":"PERSON",
      "content":
      [
        ["Login","NNP","login"],
        ["Local","NNP","loc"],
        ["Weather","NNP","weath"],
        ["Mostly","NNP","most"]
      ]
    },
    ["Sunny","NNP","sunny"],
    ["46°","CD","46°"],
    ["current","JJ","cur"],
    ["30°","CD","30°"],
    ["low","JJ","low"],
    ["7","CD","7"],
    ["day","NN","day"],
    ["forecast","NN","forecast"],
    ["The","DT","The"],
    {
      "tag":"ORGANIZATION",
      "content":
      [
        ["Colorado","NNP","colorado"],
        ["Springs","NNP","springs"],
        ["Gazette","NNP","gazet"],
        ["Serving","NNP","serv"],
        ["Colorado","NNP","colorado"],
        ["Springs","NNP","springs"]
      ]
    },
    ["&","CC","&"],
    ["the","DT","the"],
    {
      "tag":"ORGANIZATION",
      "content":
      [
        ["Pikes","NNP","pik"],
        ["Peak","NNP","peak"]
      ]
    },
    ["region","NN","reg"],
    ["since","IN","since"],
    ["1872","CD","1872"],
    ["|","CD","|"],
    ["Wednesday","NNP","wednesday"],
    [",",",",","],
    ["October","NNP","octob"],
    ["16","CD","16"],
    [",",",",","],
    ["2013","CD","2013"],
    ["Trending","NNP","trend"],
    ["Deal","NNP","deal"],
    ["reached","VBD","reach"],
    ["to","TO","to"],
    ["avoid","VB","avoid"],
    ["default","NN","default"],
    ["and","CC","and"],
    ["open","JJ","op"],
    ["government","NN","govern"],
    ["News","NN","new"],
    ["Sports","NNS","sport"],
    {
      "tag":"ORGANIZATION",
      "content":
      [
        ["Business","NNP","busy"],
        ["Life","NNP","lif"]
      ]
    },
    ["Military","NNP","milit"],
    ["A","NNP","a"],
    ["&","CC","&"],
    ["E","NNP","e"],
    ["Opinion","NNP","opin"],
    ["Blogs","NNP","blog"],
    ["Obits","NNP","obit"],
    ["Classifieds","NNP","class"],
    ["Jobs","NNP","job"],
    ["Auto","NNP","auto"],
    ["Homes","NNP","hom"],
    ["Home","NNP","hom"],
    ["e-Edition","NNP","e-edition"],
    ["Subscribe","NNP","subscrib"],
    ["Subscriber","NNP","subscrib"],
    ["Services","NNPS","serv"],
    {
      "tag":"ORGANIZATION",
      "content":
      [
        ["Archives","NNP","arch"]
      ]
    },
    ["Register","NNP","reg"],
    ["Login","NNP","login"],
    ["Local","NNP","loc"],
    {
      "tag":"GPE",
      "content":
      [
        ["U.S.","NNP","u.s."]
      ]
    },
    ["&","CC","&"],
    ["World","NNP","world"],
    ["Crime","NNP","crim"],
    ["&","CC","&"],
    {
      "tag":"ORGANIZATION",
      "content":
      [
        ["Justice","NNP","just"]
      ]
    },
    ["Government","NNP","govern"],
    {
      "tag":"PERSON",
      "content":
      [
        ["Photos","NNP","photo"],
        ["Video","NNP","video"],
        ["Education","NNP","educ"],
        ["Fire","NNP","fir"]
      ]
    },
    ["&","CC","&"],
    {
      "tag":"ORGANIZATION",
      "content":
      [
        ["Environment","NNP","environ"],
        ["Marijuana","NNP","marijuan"],
        ["Tips","NNP","tip"],
        ["Traffic","NNP","traff"],
        ["News","NNP","new"]
      ]
    },
    {
      "tag":"PERSON",
      "content":
      [
        ["David","NNP","david"],
        ["Ramsey","NNP","ramsey"]
      ]
    },
    {
      "tag":"PERSON",
      "content":
      [
        ["Paul","NNP","paul"],
        ["Klee","NNP","kle"],
        ["Air","NNP","air"],
        ["Force","NNP","forc"],
        ["Academy","NNP","academy"],
        ["CC","NNP","cc"],
        ["Hockey","NNP","hockey"],
        ["Gazette","NNP","gazet"]
      ]
    },
    ["Preps","NNP","prep"],
    {
      "tag":"PERSON",
      "content":
      [
        ["Broncos","NNP","bronco"]
      ]
    },
    ["Rockies/Sky","NNP","rockies/sky"],
    ["Sox","NNP","sox"],
    ["News","NNP","new"],
    ["Local","NNP","loc"],
    {
      "tag":"PERSON",
      "content":
      [
        ["Stocks","NNP","stock"],
        ["Local","NNP","loc"],
        ["Gas","NNP","gas"],
        ["Watch","NNP","watch"],
        ["Wall","NNP","wal"],
        ["Street","NNP","street"],
        ["Journal","NNP","journ"],
        ["Economic","NNP","econom"],
        ["Indicators","NNP","ind"],
        ["News","NNP","new"],
        ["Travel","NNP","travel"],
        ["Home","NNP","hom"]
      ]
    },
    ["&","CC","&"],
    {
      "tag":"PERSON",
      "content":
      [
        ["Garden","NNP","gard"],
        ["Food","NNP","food"],
        ["Health","NNP","heal"],
        ["Faith","NNP","fai"]
      ]
    },
    ["&","CC","&"],
    {
      "tag":"PERSON",
      "content":
      [
        ["Values","NNP","valu"],
        ["Parenting","NNP","par"],
        ["Out","NNP","out"]
      ]
    },
    ["There","NNP","ther"],
    ["Colorado","NNP","colorado"],
    ["CSFreshInk","NNP","csfreshink"],
    ["Around","NNP","around"],
    ["Town","NNP","town"],
    ["News","NNP","new"],
    {
      "tag":"PERSON",
      "content":
      [
        ["Springs","NNP","springs"],
        ["Military","NNP","milit"],
        ["Life","NNP","lif"]
      ]
    },
    ["Resources","NNPS","resourc"],
    ["News","NNP","new"],
    ["ColoradoSprings.com","NNP","coloradosprings.com"],
    {
      "tag":"PERSON",
      "content":
      [
        ["Celebs","NNP","celeb"],
        ["Best","NNP","best"]
      ]
    },
    ["of","IN","of"],
    ["the","DT","the"],
    {
      "tag":"ORGANIZATION",
      "content":
      [
        ["Springs","NNP","springs"]
      ]
    },
    ["Dining","NNP","din"],
    ["Cinema","NNP","cinem"],
    ["Guide","NNP","guid"],
    ["TV","NNP","tv"],
    ["Comics","NNP","com"],
    {
      "tag":"PERSON",
      "content":
      [
        ["Puzzles","NNP","puzzl"],
        ["Horoscopes","NNP","horoscop"],
        ["Views","NNP","view"]
      ]
    },
    ["&","CC","&"],
    {
      "tag":"ORGANIZATION",
      "content":
      [
        ["Letters","NNP","let"]
      ]
    },
    ["Submit","NNP","submit"],
    ["a","DT","a"],
    ["Letter","NNP","let"],
    ["Contact","NNP","contact"],
    ["Elected","NNP","elect"],
    ["Officials","NNP","off"],
    ["Side","NNP","sid"],
    ["Streets","NNPS","streets"],
    {
      "tag":"PERSON",
      "content":
      [
        ["Paul","NNP","paul"],
        ["Klee","NNP","kle"],
        ["Dave","NNP","dav"],
        ["Ramsey","NNP","ramsey"],
        ["Pikes","NNP","pik"],
        ["Pub","NNP","pub"],
        ["More","NNP","mor"],
        ["Obituaries","NNPS","obitu"]
      ]
    },
    [",",",",","],
    {
      "tag":"PERSON",
      "content":
      [
        ["Guest","NNP","guest"],
        ["Books","NNP","book"],
        ["Submit","NNP","submit"]
      ]
    },
    ["a","DT","a"],
    ["Death","NNP","dea"],
    ["Notice","NNP","not"],
    ["Death","NNP","dea"],
    ["Notices","NNPS","not"],
    ["Place","NNP","plac"],
    ["a","DT","a"],
    ["Paid","NNP","paid"],
    ["Obit","NNP","obit"],
    ["COLORADO","NNP","colorado"],
    {
      "tag":"ORGANIZATION",
      "content":
      [
        ["SPRINGS","NNP","springs"]
      ]
    },
    ["ROAD","NNP","road"],
    ["TRIP","NNP","trip"],
    [":",":",":"],
    ["'Francisco","JJ","'francisco"],
    ["Goya","NNP","goy"],
    [":",":",":"],
    {
      "tag":"PERSON",
      "content":
      [
        ["Los","NNP","los"]
      ]
    },
    ["Caprichos'","NNP","caprichos'"],
    ["×","NNP","×"],
    ["Close","NNP","clos"],
    ["By","NNP","by"],
    {
      "tag":"PERSON",
      "content":
      [
        ["Jen","NNP","jen"],
        ["Mulson","NNP","mulson"],
        ["Published","NNP","publ"]
      ]
    },
    [":",":",":"],
    ["September","NNP","septemb"],
    ["19","CD","19"],
    [",",",",","],
    ["2013","CD","2013"],
    ["|",":","|"],
    ["10:35","CD","10:35"],
    ["am","NN","am"],
    ["•",":","•"],
    ["0","-NONE-","0"],
    [".pg-wrapper","JJ",".pg-wrapper"],
    [".pw-button","NNP",".pw-button"],
    ["{","NNP","{"],
    ["padding:0","NNP","padding:0"],
    ["2px","CD","2px"],
    ["0","-NONE-","0"],
    ["24px","CD","24px"],
    ["!",".","!"],
    ["important","JJ","import"],
    [";",":",";"],
    ["}",":","}"],
    [".pw-button-facebook","JJ",".pw-button-facebook"],
    ["{","NN","{"],
    ["cursor","NN","curs"],
    [":",":",":"],
    ["pointer","NN","point"],
    [";",":",";"],
    ["width","NN","wid"],
    [":",":",":"],
    ["41px","CD","41px"],
    [";",":",";"],
    ["height","NN","height"],
    [":",":",":"],
    ["23px","CD","23px"],
    [";",":",";"],
    ["background","NN","background"],
    [":",":",":"],
    ["url","NN","url"],
    ["(",":","("],
    ["http","NN","http"],
    [":",":",":"],
    ["//assets.gazette.s3.amazonaws.com/img/social-sharing-with-print","JJ","//assets.gazette.s3.amazonaws.com/img/social-sharing-with-print"],
    ["@","NN","@"],
    ["2x.png","CD","2x.png"],
    [")","CD",")"],
    ["left","NN","left"],
    ["0","-NONE-","0"],
    ["!",".","!"],
    ["important","JJ","import"],
    [";",":",";"],
    ["background-size","JJ","background-size"],
    [":",":",":"],
    ["cover","NN","cov"],
    ["!",".","!"],
    ["important","JJ","import"],
    [";",":",";"],
    ["padding","VBG","pad"],
    [":",":",":"],
    ["0","-NONE-","0"],
    ["2px","CD","2px"],
    ["0","-NONE-","0"],
    ["24px","CD","24px"],
    [";",":",";"],
    ["}",":","}"],
    [".pw-button-twitter","JJ",".pw-button-twitter"],
    ["{","NN","{"],
    ["cursor","NN","curs"],
    [":",":",":"],
    ["pointer","NN","point"],
    [";",":",";"],
    ["width","NN","wid"],
    [":",":",":"],
    ["41px","CD","41px"],
    [";",":",";"],
    ["height","NN","height"],
    [":",":",":"],
    ["23px","CD","23px"],
    [";",":",";"],
    ["background","NN","background"],
    [":",":",":"],
    ["url","NN","url"],
    ["(",":","("],
    ["http","NN","http"],
    [":",":",":"],
    ["//assets.gazette.s3.amazonaws.com/img/social-sharing-with-print","JJ","//assets.gazette.s3.amazonaws.com/img/social-sharing-with-print"],
    ["@","NN","@"],
    ["2x.png","CD","2x.png"],
    [")","CD",")"],
    ["left","NN","left"],
    ["-24px","NN","-24px"],
    ["!",".","!"],
    ["important","JJ","import"],
    [";",":",";"],
    ["background-size","JJ","background-size"],
    [":",":",":"],
    ["cover","NN","cov"],
    ["!",".","!"],
    ["important","JJ","import"],
    [";",":",";"],
    ["padding","VBG","pad"],
    [":",":",":"],
    ["0","-NONE-","0"],
    ["2px","CD","2px"],
    ["0","-NONE-","0"],
    ["24px","CD","24px"],
    [";",":",";"],
    ["}",":","}"],
    [".pw-button-email","JJ",".pw-button-email"],
    ["{","NN","{"],
    ["cursor","NN","curs"],
    [":",":",":"],
    ["pointer","NN","point"],
    [";",":",";"],
    ["width","NN","wid"],
    [":",":",":"],
    ["41px","CD","41px"],
    [";",":",";"],
    ["height","NN","height"],
    [":",":",":"],
    ["23px","CD","23px"],
    [";",":",";"],
    ["background","NN","background"],
    [":",":",":"],
    ["url","NN","url"],
    ["(",":","("],
    ["http","NN","http"],
    [":",":",":"],
    ["//assets.gazette.s3.amazonaws.com/img/social-sharing-with-print","JJ","//assets.gazette.s3.amazonaws.com/img/social-sharing-with-print"],
    ["@","NN","@"],
    ["2x.png","CD","2x.png"],
    [")","CD",")"],
    ["left","NN","left"],
    ["-48px","NN","-48px"],
    ["!",".","!"],
    ["important","JJ","import"],
    [";",":",";"],
    ["background-size","JJ","background-size"],
    [":",":",":"],
    ["cover","NN","cov"],
    ["!",".","!"],
    ["important","JJ","import"],
    [";",":",";"],
    ["padding","VBG","pad"],
    [":",":",":"],
    ["0","-NONE-","0"],
    ["2px","CD","2px"],
    ["0","-NONE-","0"],
    ["24px","CD","24px"],
    [";",":",";"],
    ["}",":","}"],
    [".pw-button-post","JJ",".pw-button-post"],
    ["{","NN","{"],
    ["cursor","NN","curs"],
    [":",":",":"],
    ["pointer","NN","point"],
    [";",":",";"],
    ["width","NN","wid"],
    [":",":",":"],
    ["41px","CD","41px"],
    [";",":",";"],
    ["height","NN","height"],
    [":",":",":"],
    ["23px","CD","23px"],
    [";",":",";"],
    ["background","NN","background"],
    [":",":",":"],
    ["url","NN","url"],
    ["(",":","("],
    ["http","NN","http"],
    [":",":",":"],
    ["//assets.gazette.s3.amazonaws.com/img/social-sharing-with-print","JJ","//assets.gazette.s3.amazonaws.com/img/social-sharing-with-print"],
    ["@","NN","@"],
    ["2x.png","CD","2x.png"],
    [")","CD",")"],
    ["left","NN","left"],
    ["-72px","NN","-72px"],
    ["!",".","!"],
    ["important","JJ","import"],
    [";",":",";"],
    ["background-size","JJ","background-size"],
    [":",":",":"],
    ["cover","NN","cov"],
    ["!",".","!"],
    ["important","JJ","import"],
    [";",":",";"],
    ["padding","VBG","pad"],
    [":",":",":"],
    ["0","-NONE-","0"],
    ["2px","CD","2px"],
    ["0","-NONE-","0"],
    ["24px","CD","24px"],
    [";",":",";"],
    ["}",":","}"],
    [".pw-button-print","JJ",".pw-button-print"],
    ["{","NN","{"],
    ["cursor","NN","curs"],
    [":",":",":"],
    ["pointer","NN","point"],
    [";",":",";"],
    ["width","NN","wid"],
    [":",":",":"],
    ["41px","CD","41px"],
    [";",":",";"],
    ["height","NN","height"],
    [":",":",":"],
    ["23px","CD","23px"],
    [";",":",";"],
    ["background","NN","background"],
    [":",":",":"],
    ["url","NN","url"],
    ["(",":","("],
    ["http","NN","http"],
    [":",":",":"],
    ["//assets.gazette.s3.amazonaws.com/img/social-sharing-with-print","JJ","//assets.gazette.s3.amazonaws.com/img/social-sharing-with-print"],
    ["@","NN","@"],
    ["2x.png","CD","2x.png"],
    [")","CD",")"],
    ["left","NN","left"],
    ["-96px","NN","-96px"],
    ["!",".","!"],
    ["important","JJ","import"],
    [";",":",";"],
    ["background-size","JJ","background-size"],
    [":",":",":"],
    ["cover","NN","cov"],
    ["!",".","!"],
    ["important","JJ","import"],
    [";",":",";"],
    ["padding","VBG","pad"],
    [":",":",":"],
    ["0","-NONE-","0"],
    ["2px","CD","2px"],
    ["0","-NONE-","0"],
    ["24px","CD","24px"],
    [";",":",";"],
    ["}",":","}"],
    [".pw-button","JJ",".pw-button"],
    [".pw-icon","NN",".pw-icon"],
    ["{",":","{"],
    ["display","NN","display"],
    [":",":",":"],
    ["none","NN","non"],
    ["!",".","!"],
    ["important","JJ","import"],
    [";",":",";"],
    ["}",":","}"],
    [".pw-button","JJ",".pw-button"],
    [".socialbar__txt","JJ",".socialbar__txt"],
    ["{","NN","{"],
    ["display","NN","display"],
    [":",":",":"],
    ["block","NN","block"],
    [";",":",";"],
    ["padding","VBG","pad"],
    [":",":",":"],
    ["0px","CD","0px"],
    ["0px","CD","0px"],
    ["0px","CD","0px"],
    ["0px","CD","0px"],
    [";",":",";"],
    ["text-align","JJ","text-align"],
    [":",":",":"],
    ["center","NN","cent"],
    [";",":",";"],
    ["color","NN","col"],
    [":",":",":"],
    ["#","#","#"],
    ["676767","CD","676767"],
    [";",":",";"],
    ["font","NN","font"],
    [":",":",":"],
    ["bold","JJ","bold"],
    ["12px/23px","CD","12px/23px"],
    ["Arial","JJ","ar"],
    [",",",",","],
    {
      "tag":"PERSON",
      "content":
      [
        ["Helvetica","NNP","helvetic"]
      ]
    },
    [",",",",","],
    ["sans-serif","JJ","sans-serif"],
    ["!",".","!"],
    ["important","JJ","import"],
    [";",":",";"],
    ["}",":","}"],
    ["email","NN","email"],
    ["print","NN","print"],
    {
      "tag":"PERSON",
      "content":
      [
        ["Google","NNP","googl"],
        ["Survey","NNP","survey"]
      ]
    },
    ["FAQ","NNP","faq"],
    ["''","''","''"],
    ["The","NNP","the"],
    ["Sleep","NNP","sleep"],
    ["of","IN","of"],
    {
      "tag":"ORGANIZATION",
      "content":
      [
        ["Reason","NNP","reason"],
        ["Produces","NNPS","produc"],
        ["Monsters","NNP","monst"]
      ]
    },
    [",",",",","],
    ["''","''","''"],
    ["by","IN","by"],
    {
      "tag":"PERSON",
      "content":
      [
        ["Francisco","NNP","francisco"],
        ["Jos","NNP","jos"]
      ]
    },
    ["?",".","?"],
    ["de","IN","de"],
    {
      "tag":"GPE",
      "content":
      [
        ["Goya","NNP","goy"]
      ]
    },
    [",",",",","],
    ["1796-1797","CD","1796-1797"],
    [".",".","."]
  ]
},
{
  "tag":"S",
  "content":
  [
    {
      "tag":"PERSON",
      "content":
      [
        ["Courtesy","NNP","courtesy"]
      ]
    },
    {
      "tag":"ORGANIZATION",
      "content":
      [
        ["Loveland","NNP","loveland"]
      ]
    },
    ["Museum/Gallery","NNP","museum/gallery"],
    [".",".","."]
  ]
},
{
  "tag":"S",
  "content":
  [
    ["Through","IN","Through"],
    ["Sunday","NNP","sunday"],
    [",",",",","],
    {
      "tag":"GPE",
      "content":
      [
        ["Loveland","NNP","loveland"]
      ]
    },
    ["Museum/Gallery","NNP","museum/gallery"],
    [",",",",","],
    ["503","CD","503"],
    ["N.","NNP","n."],
    {
      "tag":"PERSON",
      "content":
      [
        ["Lincoln","NNP","lincoln"],
        ["Ave.","NNP","ave."]
      ]
    },
    [",",",",","],
    {
      "tag":"GPE",
      "content":
      [
        ["Loveland","NNP","loveland"]
      ]
    },
    [",",",",","],
    ["$","$","$"],
    ["5","CD","5"],
    [",",",",","],
    ["free","JJ","fre"],
    ["tours","NNS","tour"],
    ["at","IN","at"],
    ["noon","NN","noon"],
    ["Friday","NNP","friday"],
    [";",":",";"],
    ["1-970-962-2410","CD","1-970-962-2410"],
    [",",",",","],
    ["lovelandmuseumgallery.org","JJ","lovelandmuseumgallery.org"],
    [".",".","."]
  ]
},
{
  "tag":"S",
  "content":
  [
    ["Think","NNP","think"],
    ["of","IN","of"],
    ["it","PRP","it"],
    ["as","IN","as"],
    ["political","JJ","polit"],
    ["commentary","NN","com"],
    [".",".","."]
  ]
},
{
  "tag":"S",
  "content":
  [
    ["In","IN","In"],
    ["pictures","NNS","pict"],
    [".",".","."]
  ]
},
{
  "tag":"S",
  "content":
  [
    ["And","CC","And"],
    ["more","JJR","mor"],
    ["than","IN","than"],
    ["200","CD","200"],
    ["years","NNS","year"],
    ["old","JJ","old"],
    [".",".","."]
  ]
},
{
  "tag":"S",
  "content":
  [
    ["``","``","``"],
    {
      "tag":"PERSON",
      "content":
      [
        ["Francisco","NNP","francisco"],
        ["Goya","NNP","goy"]
      ]
    },
    [":",":",":"],
    {
      "tag":"PERSON",
      "content":
      [
        ["Los","NNP","los"],
        ["Caprichos","NNP","capricho"]
      ]
    },
    [",",",",","],
    ["''","''","''"],
    ["which","WDT","which"],
    ["closes","NNS","clos"],
    ["Sunday","NNP","sunday"],
    ["at","IN","at"],
    {
      "tag":"FACILITY",
      "content":
      [
        ["The","DT","The"],
        ["Loveland","NNP","loveland"]
      ]
    },
    ["Museum/Gallery","NNP","museum/gallery"],
    ["in","IN","in"],
    {
      "tag":"GPE",
      "content":
      [
        ["Loveland","NNP","loveland"]
      ]
    },
    [",",",",","],
    ["features","NNS","feat"],
    ["an","DT","an"],
    ["early","JJ","ear"],
    ["edition","NN","edit"],
    ["of","IN","of"],
    ["the","DT","the"],
    ["80","CD","80"],
    ["etchings","NNS","etch"],
    [",",",",","],
    ["first","JJ","first"],
    ["published","VBD","publ"],
    ["in","IN","in"],
    ["1799","CD","1799"],
    [".",".","."]
  ]
},
{
  "tag":"S",
  "content":
  [
    ["``","``","``"],
    ["With","IN","With"],
    ["etchings","NNS","etch"],
    ["and","CC","and"],
    ["print","VBP","print"],
    ["series","NNS","sery"],
    [",",",",","],
    ["plates","NNS","plat"],
    ["are","VBP","be"],
    ["created","VBN","cre"],
    ["and","CC","and"],
    ["many","JJ","many"],
    ["editions","NNS","edit"],
    ["of","IN","of"],
    ["the","DT","the"],
    ["series","NN","sery"],
    ["can","MD","can"],
    ["be","VB","be"],
    ["created","VBN","cre"],
    [",",",",","],
    ["''","''","''"],
    ["says","VBZ","say"],
    {
      "tag":"PERSON",
      "content":
      [
        ["Erika","NNP","erik"],
        ["Lehman","NNP","lehm"]
      ]
    },
    [",",",",","],
    ["marketing","NN","market"],
    ["coordinator","NN","coordin"],
    ["for","IN","for"],
    ["the","DT","the"],
    {
      "tag":"ORGANIZATION",
      "content":
      [
        ["City","NNP","city"]
      ]
    },
    ["of","IN","of"],
    {
      "tag":"GPE",
      "content":
      [
        ["Loveland","NNP","loveland"]
      ]
    },
    ["Cultural","NNP","cult"],
    ["Services","NNPS","serv"],
    ["Department","NNP","depart"],
    [".",".","."]
  ]
},
{
  "tag":"S",
  "content":
  [
    ["``","``","``"],
    ["But","CC","But"],
    ["this","DT","this"],
    ["was","VBD","be"],
    ["one","CD","one"],
    ["of","IN","of"],
    ["his","PRP$","his"],
    ["first","JJ","first"],
    [",",",",","],
    ["so","RB","so"],
    ["he","PRP","he"],
    ["probably","RB","prob"],
    ["handled","VBD","handl"],
    ["all","DT","all"],
    ["of","IN","of"],
    ["these","DT","these"],
    ["himself","PRP","himself"],
    ["and","CC","and"],
    ["checked","VBD","check"],
    ["for","IN","for"],
    ["quality","NN","qual"],
    [".",".","."]
  ]
},
{
  "tag":"S",
  "content":
  [
    ["The","DT","The"],
    ["works","NNS","work"],
    ["are","VBP","be"],
    ["n't","RB","n't"],
    ["that","IN","that"],
    ["big","JJ","big"],
    [",",",",","],
    ["but","CC","but"],
    ["they","PRP","they"],
    ["have","VBP","hav"],
    ["a","DT","a"],
    ["big","JJ","big"],
    ["impact","NN","impact"],
    [".",".","."]
  ]
},
{
  "tag":"S",
  "content":
  [
    ["``","``","``"],
    ["As","IN","As"],
    ["with","IN","with"],
    ["much","JJ","much"],
    ["of","IN","of"],
    ["his","PRP$","his"],
    ["painting","NN","paint"],
    [",",",",","],
    {
      "tag":"PERSON",
      "content":
      [
        ["Goya","NNP","goy"]
      ]
    },
    [",",",",","],
    ["who","WP","who"],
    ["lived","VBN","liv"],
    ["from","IN","from"],
    ["1746","CD","1746"],
    ["to","TO","to"],
    ["1828","CD","1828"],
    [",",",",","],
    ["critiqued","VBN","crit"],
    ["the","DT","the"],
    ["follies","NNS","fol"],
    ["and","CC","and"],
    ["conceits","NNS","conceit"],
    ["of","IN","of"],
    ["18th-century","JJ","18th-century"],
    {
      "tag":"GPE",
      "content":
      [
        ["Spain","NNP","spain"]
      ]
    },
    [".",".","."]
  ]
},
{
  "tag":"S",
  "content":
  [
    ["The","DT","The"],
    ["series","NN","sery"],
    ["and","CC","and"],
    {
      "tag":"PERSON",
      "content":
      [
        ["Goya","NNP","goy"]
      ]
    },
    ["himself","PRP","himself"],
    ["are","VBP","be"],
    ["considered","VBN","consid"],
    ["a","DT","a"],
    ["precursor","NN","precurs"],
    ["to","TO","to"],
    ["the","DT","the"],
    ["modernist","NN","modern"],
    ["movement","NN","mov"],
    ["almost","RB","almost"],
    ["a","DT","a"],
    ["century","NN","century"],
    ["later","JJ","lat"],
    [".",".","."]
  ]
},
{
  "tag":"S",
  "content":
  [
    ["The","DT","The"],
    ["work","NN","work"],
    ["in","IN","in"],
    ["``","``","``"],
    {
      "tag":"GPE",
      "content":
      [
        ["Los","NNP","los"]
      ]
    },
    ["Caprichos","NNP","capricho"],
    ["''","''","''"],
    ["was","VBD","be"],
    ["rife","NN","rif"],
    ["with","IN","with"],
    ["political","JJ","polit"],
    ["statements","NNS","stat"],
    [",",",",","],
    ["a","DT","a"],
    ["dangerous","JJ","dang"],
    ["undertaking","NN","undertak"],
    ["during","IN","during"],
    ["the","DT","the"],
    {
      "tag":"ORGANIZATION",
      "content":
      [
        ["Spanish","NNP","span"]
      ]
    },
    ["Inquisition","NNP","inquisit"],
    ["when","WRB","when"],
    ["they","PRP","they"],
    ["were","VBD","be"],
    ["created","VBN","cre"],
    [".",".","."]
  ]
},
{
  "tag":"S",
  "content":
  [
    ["However","RB","howev"],
    [",",",",","],
    {
      "tag":"PERSON",
      "content":
      [
        ["Goya","NNP","goy"]
      ]
    },
    ["knew","VBD","know"],
    ["the","DT","the"],
    ["right","NN","right"],
    ["people","NNS","peopl"],
    [",",",",","],
    {
      "tag":"PERSON",
      "content":
      [
        ["Lehman","NNP","lehm"]
      ]
    },
    ["says","VBZ","say"],
    [",",",",","],
    ["and","CC","and"],
    ["was","VBD","be"],
    ["able","JJ","abl"],
    ["to","TO","to"],
    ["escape","NN","escap"],
    ["repercussions","NNS","repercuss"],
    [".",".","."]
  ]
},
{
  "tag":"S",
  "content":
  [
    {
      "tag":"PERSON",
      "content":
      [
        ["Jennifer","NNP","jen"]
      ]
    },
    {
      "tag":"PERSON",
      "content":
      [
        ["Mulson","NNP","mulson"]
      ]
    },
    [",",",",","],
    ["Jen.mulson","NNP","jen.mulson"],
    ["@","NNP","@"],
    ["gazette.com","NNP","gazette.com"],
    [".pg-wrapper","NNP",".pg-wrapper"],
    [".pw-button","NNP",".pw-button"],
    ["{","NNP","{"],
    ["padding:0","NNP","padding:0"],
    ["2px","CD","2px"],
    ["0","-NONE-","0"],
    ["24px","CD","24px"],
    ["!",".","!"],
    ["important","JJ","import"],
    [";",":",";"],
    ["}",":","}"],
    [".pw-button-facebook","JJ",".pw-button-facebook"],
    ["{","NN","{"],
    ["cursor","NN","curs"],
    [":",":",":"],
    ["pointer","NN","point"],
    [";",":",";"],
    ["width","NN","wid"],
    [":",":",":"],
    ["41px","CD","41px"],
    [";",":",";"],
    ["height","NN","height"],
    [":",":",":"],
    ["23px","CD","23px"],
    [";",":",";"],
    ["background","NN","background"],
    [":",":",":"],
    ["url","NN","url"],
    ["(",":","("],
    ["http","NN","http"],
    [":",":",":"],
    ["//assets.gazette.s3.amazonaws.com/img/social-sharing-with-print","JJ","//assets.gazette.s3.amazonaws.com/img/social-sharing-with-print"],
    ["@","NN","@"],
    ["2x.png","CD","2x.png"],
    [")","CD",")"],
    ["left","NN","left"],
    ["0","-NONE-","0"],
    ["!",".","!"],
    ["important","JJ","import"],
    [";",":",";"],
    ["background-size","JJ","background-size"],
    [":",":",":"],
    ["cover","NN","cov"],
    ["!",".","!"],
    ["important","JJ","import"],
    [";",":",";"],
    ["padding","VBG","pad"],
    [":",":",":"],
    ["0","-NONE-","0"],
    ["2px","CD","2px"],
    ["0","-NONE-","0"],
    ["24px","CD","24px"],
    [";",":",";"],
    ["}",":","}"],
    [".pw-button-twitter","JJ",".pw-button-twitter"],
    ["{","NN","{"],
    ["cursor","NN","curs"],
    [":",":",":"],
    ["pointer","NN","point"],
    [";",":",";"],
    ["width","NN","wid"],
    [":",":",":"],
    ["41px","CD","41px"],
    [";",":",";"],
    ["height","NN","height"],
    [":",":",":"],
    ["23px","CD","23px"],
    [";",":",";"],
    ["background","NN","background"],
    [":",":",":"],
    ["url","NN","url"],
    ["(",":","("],
    ["http","NN","http"],
    [":",":",":"],
    ["//assets.gazette.s3.amazonaws.com/img/social-sharing-with-print","JJ","//assets.gazette.s3.amazonaws.com/img/social-sharing-with-print"],
    ["@","NN","@"],
    ["2x.png","CD","2x.png"],
    [")","CD",")"],
    ["left","NN","left"],
    ["-24px","NN","-24px"],
    ["!",".","!"],
    ["important","JJ","import"],
    [";",":",";"],
    ["background-size","JJ","background-size"],
    [":",":",":"],
    ["cover","NN","cov"],
    ["!",".","!"],
    ["important","JJ","import"],
    [";",":",";"],
    ["padding","VBG","pad"],
    [":",":",":"],
    ["0","-NONE-","0"],
    ["2px","CD","2px"],
    ["0","-NONE-","0"],
    ["24px","CD","24px"],
    [";",":",";"],
    ["}",":","}"],
    [".pw-button-email","JJ",".pw-button-email"],
    ["{","NN","{"],
    ["cursor","NN","curs"],
    [":",":",":"],
    ["pointer","NN","point"],
    [";",":",";"],
    ["width","NN","wid"],
    [":",":",":"],
    ["41px","CD","41px"],
    [";",":",";"],
    ["height","NN","height"],
    [":",":",":"],
    ["23px","CD","23px"],
    [";",":",";"],
    ["background","NN","background"],
    [":",":",":"],
    ["url","NN","url"],
    ["(",":","("],
    ["http","NN","http"],
    [":",":",":"],
    ["//assets.gazette.s3.amazonaws.com/img/social-sharing-with-print","JJ","//assets.gazette.s3.amazonaws.com/img/social-sharing-with-print"],
    ["@","NN","@"],
    ["2x.png","CD","2x.png"],
    [")","CD",")"],
    ["left","NN","left"],
    ["-48px","NN","-48px"],
    ["!",".","!"],
    ["important","JJ","import"],
    [";",":",";"],
    ["background-size","JJ","background-size"],
    [":",":",":"],
    ["cover","NN","cov"],
    ["!",".","!"],
    ["important","JJ","import"],
    [";",":",";"],
    ["padding","VBG","pad"],
    [":",":",":"],
    ["0","-NONE-","0"],
    ["2px","CD","2px"],
    ["0","-NONE-","0"],
    ["24px","CD","24px"],
    [";",":",";"],
    ["}",":","}"],
    [".pw-button-post","JJ",".pw-button-post"],
    ["{","NN","{"],
    ["cursor","NN","curs"],
    [":",":",":"],
    ["pointer","NN","point"],
    [";",":",";"],
    ["width","NN","wid"],
    [":",":",":"],
    ["41px","CD","41px"],
    [";",":",";"],
    ["height","NN","height"],
    [":",":",":"],
    ["23px","CD","23px"],
    [";",":",";"],
    ["background","NN","background"],
    [":",":",":"],
    ["url","NN","url"],
    ["(",":","("],
    ["http","NN","http"],
    [":",":",":"],
    ["//assets.gazette.s3.amazonaws.com/img/social-sharing-with-print","JJ","//assets.gazette.s3.amazonaws.com/img/social-sharing-with-print"],
    ["@","NN","@"],
    ["2x.png","CD","2x.png"],
    [")","CD",")"],
    ["left","NN","left"],
    ["-72px","NN","-72px"],
    ["!",".","!"],
    ["important","JJ","import"],
    [";",":",";"],
    ["background-size","JJ","background-size"],
    [":",":",":"],
    ["cover","NN","cov"],
    ["!",".","!"],
    ["important","JJ","import"],
    [";",":",";"],
    ["padding","VBG","pad"],
    [":",":",":"],
    ["0","-NONE-","0"],
    ["2px","CD","2px"],
    ["0","-NONE-","0"],
    ["24px","CD","24px"],
    [";",":",";"],
    ["}",":","}"],
    [".pw-button-print","JJ",".pw-button-print"],
    ["{","NN","{"],
    ["cursor","NN","curs"],
    [":",":",":"],
    ["pointer","NN","point"],
    [";",":",";"],
    ["width","NN","wid"],
    [":",":",":"],
    ["41px","CD","41px"],
    [";",":",";"],
    ["height","NN","height"],
    [":",":",":"],
    ["23px","CD","23px"],
    [";",":",";"],
    ["background","NN","background"],
    [":",":",":"],
    ["url","NN","url"],
    ["(",":","("],
    ["http","NN","http"],
    [":",":",":"],
    ["//assets.gazette.s3.amazonaws.com/img/social-sharing-with-print","JJ","//assets.gazette.s3.amazonaws.com/img/social-sharing-with-print"],
    ["@","NN","@"],
    ["2x.png","CD","2x.png"],
    [")","CD",")"],
    ["left","NN","left"],
    ["-96px","NN","-96px"],
    ["!",".","!"],
    ["important","JJ","import"],
    [";",":",";"],
    ["background-size","JJ","background-size"],
    [":",":",":"],
    ["cover","NN","cov"],
    ["!",".","!"],
    ["important","JJ","import"],
    [";",":",";"],
    ["padding","VBG","pad"],
    [":",":",":"],
    ["0","-NONE-","0"],
    ["2px","CD","2px"],
    ["0","-NONE-","0"],
    ["24px","CD","24px"],
    [";",":",";"],
    ["}",":","}"],
    [".pw-button","JJ",".pw-button"],
    [".pw-icon","NN",".pw-icon"],
    ["{",":","{"],
    ["display","NN","display"],
    [":",":",":"],
    ["none","NN","non"],
    ["!",".","!"],
    ["important","JJ","import"],
    [";",":",";"],
    ["}",":","}"],
    [".pw-button","JJ",".pw-button"],
    [".socialbar__txt","JJ",".socialbar__txt"],
    ["{","NN","{"],
    ["display","NN","display"],
    [":",":",":"],
    ["block","NN","block"],
    [";",":",";"],
    ["padding","VBG","pad"],
    [":",":",":"],
    ["0px","CD","0px"],
    ["0px","CD","0px"],
    ["0px","CD","0px"],
    ["0px","CD","0px"],
    [";",":",";"],
    ["text-align","JJ","text-align"],
    [":",":",":"],
    ["center","NN","cent"],
    [";",":",";"],
    ["color","NN","col"],
    [":",":",":"],
    ["#","#","#"],
    ["676767","CD","676767"],
    [";",":",";"],
    ["font","NN","font"],
    [":",":",":"],
    ["bold","JJ","bold"],
    ["12px/23px","CD","12px/23px"],
    ["Arial","JJ","ar"],
    [",",",",","],
    {
      "tag":"PERSON",
      "content":
      [
        ["Helvetica","NNP","helvetic"]
      ]
    },
    [",",",",","],
    ["sans-serif","JJ","sans-serif"],
    ["!",".","!"],
    ["important","JJ","import"],
    [";",":",";"],
    ["}",":","}"],
    ["email","NN","email"],
    ["print","NN","print"],
    {
      "tag":"PERSON",
      "content":
      [
        ["Google","NNP","googl"],
        ["Survey","NNP","survey"]
      ]
    },
    ["FAQ","NNP","faq"],
    ["Comment","NNP","com"],
    ["Policy","NNP","policy"],
    ["Advertisement","NNP","advert"],
    ["Advertisement","NNP","advert"],
    ["Most","NNP","most"],
    ["Read","NNP","read"],
    ["Garden","NNP","gard"],
    ["of","IN","of"],
    ["the","DT","the"],
    {
      "tag":"ORGANIZATION",
      "content":
      [
        ["Gods","NNPS","god"],
        ["Club","NNP","club"]
      ]
    },
    ["gets","VBZ","get"],
    ["new","JJ","new"],
    ["owners","NNS","own"],
    [";",":",";"],
    ["wellness","NN","wel"],
    ["center","NN","cent"],
    [",",",",","],
    ["improvements","NNS","improv"],
    ["planned","VBD","plan"],
    ["Rep.","NNP","rep."],
    {
      "tag":"PERSON",
      "content":
      [
        ["Doug","NNP","doug"],
        ["Lamborn","NNP","lamborn"]
      ]
    },
    ["urges","NNS","urg"],
    ["plan","VBP","plan"],
    ["to","TO","to"],
    ["limit","VB","limit"],
    {
      "tag":"PERSON",
      "content":
      [
        ["Obamacare","NNP","obamac"],
        ["Deal","NNP","deal"]
      ]
    },
    ["reached","VBD","reach"],
    ["to","TO","to"],
    ["avoid","VB","avoid"],
    ["default","NN","default"],
    ["and","CC","and"],
    ["open","JJ","op"],
    ["government","NN","govern"],
    ["High","NNP","high"],
    ["design","NN","design"],
    ["in","IN","in"],
    ["high","JJ","high"],
    ["chairs","NNS","chair"],
    {
      "tag":"PERSON",
      "content":
      [
        ["Crews","NNP","crew"]
      ]
    },
    ["called","VBD","cal"],
    ["to","TO","to"],
    ["house","VB","hous"],
    [",",",",","],
    ["former","JJ","form"],
    ["motel","NN","motel"],
    ["fires","NNS","fir"],
    ["overnight","VBD","overnight"],
    ["in","IN","in"],
    {
      "tag":"GPE",
      "content":
      [
        ["Colorado","NNP","colorado"]
      ]
    },
    ["Springs","NNP","springs"],
    ["Advertisement","NNP","advert"],
    ["Tweets","NNPS","tweet"],
    ["from","IN","from"],
    ["@","NNP","@"],
    ["csgazette/gazette-staff","NN","csgazette/gazette-staff"],
    ["Advertisement","NNP","advert"],
    ["This","NNP","thi"],
    ["Week","NNP","week"],
    ["'s","POS","'s"],
    ["Events","NNS","ev"],
    {
      "tag":"ORGANIZATION",
      "content":
      [
        ["CATEGORY","NNP","categ"],
        ["Events","NNP","ev"],
        ["Movies","NNPS","movy"],
        ["Restaurants","NNP","resta"],
        ["Venues","NNP","venu"]
      ]
    }
  ]
}]