[
{
  "tag":"S",
  "content":
  [
    {
      "tag":"PERSON",
      "content":
      [
        ["Real","NNP","real"]
      ]
    },
    {
      "tag":"ORGANIZATION",
      "content":
      [
        ["Estate","NNP","est"]
      ]
    },
    ["JOBS","NNP","job"],
    ["転職","NNP","転職"],
    ["STUDY","NNP","study"],
    ["IN","NNP","in"],
    ["JAPAN","NNP","jap"],
    ["Sign","NNP","sign"],
    ["Up","NNP","up"],
    ["|","NNP","|"],
    ["Login","NNP","login"],
    ["»","NNP","»"],
    ["Twitter","NNP","twit"],
    ["Facebook","NNP","facebook"],
    ["Newsletter","NNP","newslet"],
    ["RSS","NNP","rss"],
    ["18","CD","18"],
    ["M/CLOUDY","JJ","m/cloudy"],
    {
      "tag":"ORGANIZATION",
      "content":
      [
        ["TOKYO","NNP","tokyo"]
      ]
    },
    ["(","NNP","("],
    ["4","CD","4"],
    ["a.m.","NNP","a.m."],
    [")","NNP",")"],
    ["Markets","NNPS","market"],
    ["98.39","CD","98.39"],
    ["¥/","CD","¥/"],
    ["$","$","$"],
    ["(","CD","("],
    ["5","CD","5"],
    ["p.m.","NN","p.m."],
    [")",":",")"],
    {
      "tag":"PERSON",
      "content":
      [
        ["Culture","NNP","cult"],
        ["Sign","NNP","sign"],
        ["Up","NNP","up"]
      ]
    },
    ["|","NNP","|"],
    ["Login","NNP","login"],
    ["»","NNP","»"],
    ["Email","NNP","email"],
    {
      "tag":"PERSON",
      "content":
      [
        ["Updates","NNP","upd"],
        ["Home","NNP","hom"],
        ["Delivery","NNP","delivery"]
      ]
    },
    ["Today","NNP","today"],
    ["'s","POS","'s"],
    ["Stories","NNP","story"],
    ["MENU","NNP","menu"],
    ["Search","NNP","search"],
    ["News","NNP","new"],
    ["Opinion","NNP","opin"],
    ["Life","NNP","lif"],
    ["Community","NNP","commun"],
    ["Culture","NNP","cult"],
    ["Sports","NNP","sport"],
    ["Search","NNP","search"],
    ["Search","NNP","search"],
    ["Film","NNP","film"],
    {
      "tag":"PERSON",
      "content":
      [
        ["Music","NNP","mus"],
        ["Art","NNP","art"],
        ["Stage","NNP","stag"],
        ["Events","NNP","ev"],
        ["Festivals","NNP","fest"],
        ["Books","NNP","book"]
      ]
    },
    ["TV","NNP","tv"],
    ["Columns","NNP","column"],
    ["Multimedia","NNP","multimed"],
    ["News","NNP","new"],
    ["National","NNP","nat"],
    ["World","NNP","world"],
    ["Business","NNP","busy"],
    {
      "tag":"GPE",
      "content":
      [
        ["Asia","NNP","as"]
      ]
    },
    ["Pacific","NNP","pac"],
    ["Reference","NNP","ref"],
    ["Columns","NNP","column"],
    ["Multimedia","NNP","multimed"],
    ["Opinion","NNP","opin"],
    ["Editorials","NNP","edit"],
    ["Commentary","NNP","com"],
    ["Reader","NNP","read"],
    ["Mail","NNP","mail"],
    ["Cartoons","NNP","cartoon"],
    ["Life","NNP","lif"],
    {
      "tag":"PERSON",
      "content":
      [
        ["Travel","NNP","travel"],
        ["Digital","NNP","digit"],
        ["Food","NNP","food"]
      ]
    },
    ["&","CC","&"],
    {
      "tag":"PERSON",
      "content":
      [
        ["Drink","NNP","drink"],
        ["Environment","NNP","environ"],
        ["Style","NNP","styl"]
      ]
    },
    ["&","CC","&"],
    {
      "tag":"PERSON",
      "content":
      [
        ["Design","NNP","design"],
        ["Language","NNP","langu"],
        ["Lifestyle","NNP","lifestyl"],
        ["People","NNP","peopl"],
        ["Columns","NNP","column"],
        ["Multimedia","NNP","multimed"]
      ]
    },
    {
      "tag":"ORGANIZATION",
      "content":
      [
        ["Community","NNP","commun"],
        ["Voices","NNPS","voic"],
        ["Issues","NNPS","issu"]
      ]
    },
    ["Our","NNP","our"],
    {
      "tag":"PERSON",
      "content":
      [
        ["Lives","NNP","liv"],
        ["Events","NNP","ev"]
      ]
    },
    ["Event","NNP","ev"],
    ["Listings","NNP","list"],
    ["How-tos","NNP","how-tos"],
    ["Columns","NNP","column"],
    ["Culture","NNP","cult"],
    ["Film","NNP","film"],
    {
      "tag":"PERSON",
      "content":
      [
        ["Music","NNP","mus"],
        ["Art","NNP","art"],
        ["Stage","NNP","stag"],
        ["Events","NNP","ev"],
        ["Festivals","NNP","fest"],
        ["Books","NNP","book"]
      ]
    },
    ["TV","NNP","tv"],
    ["Columns","NNP","column"],
    ["Multimedia","NNP","multimed"],
    ["Sports","NNP","sport"],
    ["Baseball","NNP","basebal"],
    ["Soccer","NNP","socc"],
    ["Basketball","NNP","basketbal"],
    ["Sumo","NNP","sumo"],
    ["Figure","NNP","fig"],
    ["Skating","NNP","skat"],
    ["More","NNP","mor"],
    ["Sports","NNP","sport"],
    ["Columns","NNP","column"],
    ["Multimedia","NNP","multimed"],
    {
      "tag":"PERSON",
      "content":
      [
        ["Sorry","NNP","sorry"]
      ]
    },
    [",",",",","],
    ["but","CC","but"],
    ["your","PRP$","your"],
    ["browser","NN","brows"],
    ["needs","VBZ","nee"],
    {
      "tag":"PERSON",
      "content":
      [
        ["Javascript","NNP","javascrib"]
      ]
    },
    ["to","TO","to"],
    ["use","VB","us"],
    ["this","DT","this"],
    ["site","NN","sit"],
    [".",".","."]
  ]
},
{
  "tag":"S",
  "content":
  [
    ["If","IN","If"],
    ["you","PRP","you"],
    ["'re","VBP","'re"],
    ["not","RB","not"],
    ["sure","JJ","sur"],
    ["how","WRB","how"],
    ["to","TO","to"],
    ["activate","VB","act"],
    ["it","PRP","it"],
    [",",",",","],
    ["please","VB","pleas"],
    ["refer","NN","ref"],
    ["to","TO","to"],
    ["this","DT","this"],
    ["site","NN","sit"],
    [":",":",":"],
    ["http","NN","http"],
    [":",":",":"],
    ["//www.enable-javascript.com/","JJ","//www.enable-javascript.com/"],
    ["Art","NN","art"],
    ["The","DT","The"],
    ["lacquered","VBN","lacqu"],
    ["layers","NNS","lay"],
    ["of","IN","of"],
    ["master","NN","mast"],
    {
      "tag":"PERSON",
      "content":
      [
        ["Shibata","NNP","shibat"],
        ["Zeshin","NNP","zeshin"]
      ]
    },
    ["by","IN","by"],
    {
      "tag":"PERSON",
      "content":
      [
        ["Rhiannon","NNP","rhiannon"],
        ["Paget","NNP","paget"],
        ["Special","NNP","spec"],
        ["To","NNP","to"],
        ["The","NNP","the"],
        ["Japan","NNP","jap"],
        ["Times","NNP","tim"]
      ]
    },
    ["Nov","NNP","nov"],
    ["22","CD","22"],
    [",",",",","],
    ["2012","CD","2012"],
    ["Article","NNP","artic"],
    ["history","NN","hist"],
    {
      "tag":"PERSON",
      "content":
      [
        ["Online","NNP","onlin"]
      ]
    },
    [":",":",":"],
    ["Nov","NNP","nov"],
    ["22","CD","22"],
    [",",",",","],
    ["2012","CD","2012"],
    ["Print","NNP","print"],
    [":",":",":"],
    ["Nov","NNP","nov"],
    ["22","CD","22"],
    [",",",",","],
    ["2012","CD","2012"],
    ["Last","JJ","last"],
    ["Modified","NNP","mod"],
    [":",":",":"],
    ["Jan","NNP","jan"],
    ["17","CD","17"],
    [",",",",","],
    ["2013","CD","2013"],
    {
      "tag":"ORGANIZATION",
      "content":
      [
        ["PRINT","NNP","print"]
      ]
    },
    ["SHARE","NNP","shar"],
    ["With","NNP","with"],
    ["a","DT","a"],
    ["career","NN","car"],
    ["spanning","VBG","span"],
    ["Japan’s","NNS","japan’s"],
    ["transition","NN","transit"],
    ["from","IN","from"],
    ["disintegrating","VBG","disintegr"],
    ["feudal","JJ","feud"],
    ["regime","NN","regim"],
    ["to","TO","to"],
    ["modern","VB","modern"],
    ["nation","NN","nat"],
    [",",",",","],
    {
      "tag":"PERSON",
      "content":
      [
        ["Shibata","NNP","shibat"],
        ["Zeshin","NNP","zeshin"]
      ]
    },
    ["(","NNP","("],
    ["1807-1891","CD","1807-1891"],
    [")","CD",")"],
    ["was","VBD","be"],
    ["an","DT","an"],
    ["exceptional","JJ","exceiv"],
    ["artist","NN","art"],
    [",",",",","],
    ["reaching","VBG","reach"],
    ["the","DT","the"],
    ["zenith","NN","zeni"],
    ["of","IN","of"],
    ["both","DT","both"],
    ["painting","NN","paint"],
    ["and","CC","and"],
    ["lacquer","NN","lacqu"],
    [".",".","."]
  ]
},
{
  "tag":"S",
  "content":
  [
    {
      "tag":"PERSON",
      "content":
      [
        ["Nezu","NNP","nezu"]
      ]
    },
    ["Museum’s","NNP","museum’s"],
    ["exhibition","NN","exhibit"],
    ["“Shibata","NNP","“shibata"],
    ["Zeshin","NNP","zeshin"],
    [":",":",":"],
    ["From","IN","From"],
    {
      "tag":"ORGANIZATION",
      "content":
      [
        ["Lacquer","NNP","lacqu"],
        ["Arts","NNPS","art"]
      ]
    },
    ["to","TO","to"],
    ["Painting”","NNP","painting”"],
    ["presents","NNS","pres"],
    ["139","CD","139"],
    ["objects","NNS","object"],
    ["from","IN","from"],
    ["arguably","RB","argu"],
    ["the","DT","the"],
    ["most","RBS","most"],
    ["broadly","RB","broad"],
    ["gifted","VBN","gift"],
    ["artist","NN","art"],
    ["of","IN","of"],
    ["19th-century","JJ","19th-century"],
    {
      "tag":"GPE",
      "content":
      [
        ["Japan","NNP","jap"]
      ]
    },
    [".",".","."]
  ]
},
{
  "tag":"S",
  "content":
  [
    {
      "tag":"GPE",
      "content":
      [
        ["Born","NNP","born"]
      ]
    },
    ["in","IN","in"],
    {
      "tag":"GPE",
      "content":
      [
        ["Edo","NNP","edo"]
      ]
    },
    ["(","NNP","("],
    ["now","RB","now"],
    {
      "tag":"GPE",
      "content":
      [
        ["Tokyo","NNP","tokyo"]
      ]
    },
    [")","NNP",")"],
    [",",",",","],
    {
      "tag":"PERSON",
      "content":
      [
        ["Zeshin","NNP","zeshin"]
      ]
    },
    ["joined","VBD","join"],
    ["the","DT","the"],
    ["studio","NN","studio"],
    ["of","IN","of"],
    ["the","DT","the"],
    ["lacquer","NN","lacqu"],
    ["artist","NN","art"],
    {
      "tag":"PERSON",
      "content":
      [
        ["Koma","NNP","kom"],
        ["Kansai","NNP","kansa"],
        ["II","NNP","ii"]
      ]
    },
    ["(","NNP","("],
    ["1766-1835","CD","1766-1835"],
    [")","CD",")"],
    ["as","IN","as"],
    ["an","DT","an"],
    ["apprentice","NN","appr"],
    ["at","IN","at"],
    ["the","DT","the"],
    ["age","NN","ag"],
    ["of","IN","of"],
    ["11","CD","11"],
    [",",",",","],
    ["there","EX","there"],
    ["learning","VBG","learn"],
    ["the","DT","the"],
    ["painstaking","VBG","painstak"],
    ["methods","NNS","method"],
    ["of","IN","of"],
    ["using","VBG","us"],
    ["tree","NN","tre"],
    ["sap","NN","sap"],
    ["to","TO","to"],
    ["create","VB","cre"],
    ["resilient","NN","resy"],
    ["and","CC","and"],
    ["beautiful","JJ","beauty"],
    ["surface","NN","surfac"],
    ["decoration","NN","dec"],
    [".",".","."]
  ]
},
{
  "tag":"S",
  "content":
  [
    ["He","PRP","He"],
    ["subsequently","RB","subsequ"],
    ["moved","VBD","mov"],
    ["to","TO","to"],
    {
      "tag":"GPE",
      "content":
      [
        ["Kyoto","NNP","kyoto"]
      ]
    },
    ["to","TO","to"],
    ["study","VB","study"],
    ["the","DT","the"],
    ["Maruyama-Shijo","NNP","maruyama-shijo"],
    ["school","NN","school"],
    ["of","IN","of"],
    ["painting","VBG","paint"],
    [",",",",","],
    ["which","WDT","which"],
    ["combined","VBN","combin"],
    {
      "tag":"GPE",
      "content":
      [
        ["Western","NNP","western"]
      ]
    },
    ["naturalism","NN","nat"],
    ["with","IN","with"],
    {
      "tag":"GPE",
      "content":
      [
        ["East","JJ","east"]
      ]
    },
    {
      "tag":"GPE",
      "content":
      [
        ["Asian","JJ","as"]
      ]
    },
    ["brushwork","NN","brushwork"],
    [".",".","."]
  ]
},
{
  "tag":"S",
  "content":
  [
    ["This","DT","This"],
    ["training","NN","train"],
    ["provided","VBD","provid"],
    ["the","DT","the"],
    ["intellectual","JJ","intellect"],
    ["and","CC","and"],
    ["aesthetic","JJ","aesthet"],
    ["foundation","NN","found"],
    ["for","IN","for"],
    ["his","PRP$","his"],
    ["sophisticated","JJ","soph"],
    ["art","NN","art"],
    [".",".","."]
  ]
},
{
  "tag":"S",
  "content":
  [
    ["Returning","VBG","return"],
    ["to","TO","to"],
    {
      "tag":"GPE",
      "content":
      [
        ["Edo","NNP","edo"]
      ]
    },
    [",",",",","],
    {
      "tag":"PERSON",
      "content":
      [
        ["Zeshin","NNP","zeshin"]
      ]
    },
    ["established","VBD","est"],
    ["his","PRP$","his"],
    ["career","NN","car"],
    ["during","IN","during"],
    ["the","DT","the"],
    ["last","JJ","last"],
    ["decades","NNS","decad"],
    ["of","IN","of"],
    ["the","DT","the"],
    {
      "tag":"ORGANIZATION",
      "content":
      [
        ["Edo","NNP","edo"],
        ["Period","NNP","period"]
      ]
    },
    ["(","NNP","("],
    ["1603-1867","CD","1603-1867"],
    [")","CD",")"],
    [",",",",","],
    ["creating","VBG","cre"],
    ["paintings","NNS","paint"],
    ["and","CC","and"],
    ["luxury","NN","luxury"],
    ["goods","NNS","good"],
    ["such","JJ","such"],
    ["as","IN","as"],
    ["lacquered","VBN","lacqu"],
    ["writing","VBG","writ"],
    ["boxes","NNS","box"],
    [".",".","."]
  ]
},
{
  "tag":"S",
  "content":
  [
    ["From","IN","From"],
    ["1868","CD","1868"],
    [",",",",","],
    {
      "tag":"GPE",
      "content":
      [
        ["Japan","NNP","jap"]
      ]
    },
    ["sought","VBD","seek"],
    ["to","TO","to"],
    ["establish","VB","est"],
    ["itself","PRP","itself"],
    ["as","IN","as"],
    ["global","JJ","glob"],
    ["power","NN","pow"],
    ["and","CC","and"],
    ["player","NN","play"],
    ["in","IN","in"],
    ["the","DT","the"],
    ["international","JJ","intern"],
    ["art","NN","art"],
    ["market","NN","market"],
    [",",",",","],
    ["and","CC","and"],
    ["the","DT","the"],
    ["elegant","NN","eleg"],
    ["fusion","NN","fus"],
    ["of","IN","of"],
    ["tradition","NN","tradit"],
    ["and","CC","and"],
    ["modernity","NN","modern"],
    ["in","IN","in"],
    ["Zeshin’s","NNP","zeshin’s"],
    ["work","NN","work"],
    ["became","VBD","becom"],
    ["popular","JJ","popul"],
    ["with","IN","with"],
    {
      "tag":"GPE",
      "content":
      [
        ["Western","JJ","western"]
      ]
    },
    ["audiences","NNS","audy"],
    [".",".","."]
  ]
},
{
  "tag":"S",
  "content":
  [
    ["Consequently","RB","consequ"],
    [",",",",","],
    ["many","JJ","many"],
    ["of","IN","of"],
    ["the","DT","the"],
    ["best","JJS","best"],
    ["examples","NNS","exampl"],
    ["of","IN","of"],
    ["Zeshin’s","JJ","zeshin’s"],
    ["work","NN","work"],
    [",",",",","],
    ["particularly","RB","particul"],
    ["his","PRP$","his"],
    ["urushi-e","JJ","urushi-e"],
    ["(","NN","("],
    ["lacquer","NN","lacqu"],
    ["paintings","NNS","paint"],
    [")",":",")"],
    [",",",",","],
    ["are","VBP","be"],
    ["in","IN","in"],
    ["collections","NNS","collect"],
    ["abroad","RB","abroad"],
    [".",".","."]
  ]
},
{
  "tag":"S",
  "content":
  [
    ["Despite","IN","Despite"],
    ["substantial","JJ","subst"],
    ["commissions","NNS","commit"],
    ["from","IN","from"],
    ["the","DT","the"],
    {
      "tag":"ORGANIZATION",
      "content":
      [
        ["Imperial","NNP","imp"]
      ]
    },
    ["household","NN","household"],
    ["and","CC","and"],
    ["the","DT","the"],
    {
      "tag":"GPE",
      "content":
      [
        ["Meiji","NNP","meij"]
      ]
    },
    ["government","NN","govern"],
    [",",",",","],
    {
      "tag":"PERSON",
      "content":
      [
        ["Zeshin","NNP","zeshin"]
      ]
    },
    ["was","VBD","be"],
    ["largely","RB","larg"],
    ["forgotten","VBN","forget"],
    ["by","IN","by"],
    ["his","PRP$","his"],
    ["countrymen","NNS","countrym"],
    ["after","IN","after"],
    ["his","PRP$","his"],
    ["death","NN","dea"],
    [".",".","."]
  ]
},
{
  "tag":"S",
  "content":
  [
    ["It","PRP","It"],
    ["is","VBZ","be"],
    ["possible","JJ","poss"],
    ["that","IN","that"],
    ["Zeshin’s","JJ","zeshin’s"],
    ["ability","NN","abl"],
    ["to","TO","to"],
    ["move","VB","mov"],
    ["freely","RB","fre"],
    ["between","IN","between"],
    ["the","DT","the"],
    ["domains","NNS","domain"],
    ["of","IN","of"],
    ["art","NN","art"],
    ["and","CC","and"],
    ["craft","NN","craft"],
    ["meant","VBD","mean"],
    ["that","IN","that"],
    [",",",",","],
    ["until","IN","until"],
    ["recent","JJ","rec"],
    ["years","NNS","year"],
    [",",",",","],
    ["he","PRP","he"],
    ["was","VBD","be"],
    ["perceived","VBN","perceiv"],
    ["as","IN","as"],
    ["belonging","NN","belong"],
    ["to","TO","to"],
    ["neither","DT","neither"],
    [".",".","."]
  ]
},
{
  "tag":"S",
  "content":
  [
    ["The","DT","The"],
    ["exhibition","NN","exhibit"],
    ["opens","VBZ","op"],
    ["with","IN","with"],
    ["more","JJR","mor"],
    ["than","IN","than"],
    ["100","CD","100"],
    ["lacquered","VBN","lacqu"],
    ["objects","NNS","object"],
    [",",",",","],
    ["many","JJ","many"],
    ["of","IN","of"],
    ["which","WDT","which"],
    ["feature","NN","feat"],
    ["techniques","VBZ","techn"],
    ["perfected","VBN","perfect"],
    ["by","IN","by"],
    {
      "tag":"PERSON",
      "content":
      [
        ["Zeshin","NNP","zeshin"]
      ]
    },
    ["to","TO","to"],
    ["simulate","VB","sim"],
    ["the","DT","the"],
    ["appearance","NN","appear"],
    ["of","IN","of"],
    ["wood","NN","wood"],
    [",",",",","],
    ["ink-sticks","NNS","ink-sticks"],
    [",",",",","],
    ["or","CC","or"],
    ["bronze","VB","bronz"],
    [".",".","."]
  ]
},
{
  "tag":"S",
  "content":
  [
    ["“Tiered","JJ","“tiered"],
    {
      "tag":"ORGANIZATION",
      "content":
      [
        ["Sweets","NNS","sweet"],
        ["Box","NNP","box"]
      ]
    },
    ["with","IN","with"],
    {
      "tag":"PERSON",
      "content":
      [
        ["Crows","NNP","crow"]
      ]
    },
    ["and","CC","and"],
    ["Egrets”","NNP","egrets”"],
    ["is","VBZ","be"],
    ["representative","JJ","repres"],
    ["of","IN","of"],
    ["Zeshin’s","JJ","zeshin’s"],
    ["sensitivity","NN","sensit"],
    ["with","IN","with"],
    ["regard","NN","regard"],
    ["to","TO","to"],
    ["form","NN","form"],
    ["and","CC","and"],
    ["surface","NN","surfac"],
    ["decoration","NN","dec"],
    [".",".","."]
  ]
},
{
  "tag":"S",
  "content":
  [
    ["Flocks","NNS","flock"],
    ["of","IN","of"],
    ["crows","NNS","crow"],
    ["and","CC","and"],
    ["egrets","NNS","egret"],
    ["rendered","VBD","rend"],
    ["in","IN","in"],
    ["black","JJ","black"],
    ["and","CC","and"],
    ["silver","NN","silv"],
    ["lacquer","NN","lacqu"],
    ["explode","NN","explod"],
    ["from","IN","from"],
    ["the","DT","the"],
    ["gold","NN","gold"],
    ["background","NN","background"],
    ["of","IN","of"],
    ["a","DT","a"],
    ["rectilinear","JJ","rectilinear"],
    ["box","NN","box"],
    [".",".","."]
  ]
},
{
  "tag":"S",
  "content":
  [
    ["The","DT","The"],
    ["effect","NN","effect"],
    ["is","VBZ","be"],
    ["at","IN","at"],
    ["once","RB","ont"],
    ["sombre","RB","sombr"],
    [",",",",","],
    ["lively","RB","liv"],
    [",",",",","],
    ["and","CC","and"],
    ["devastatingly","RB","devast"],
    ["chic","JJ","chic"],
    [".",".","."]
  ]
},
{
  "tag":"S",
  "content":
  [
    ["The","DT","The"],
    ["following","VBG","follow"],
    ["section","NN","sect"],
    ["explores","NNS","expl"],
    ["Zeshin’s","-NONE-","Zeshin’s"],
    ["experiments","NNS","expery"],
    ["in","IN","in"],
    ["urushi-e","JJ","urushi-e"],
    ["executed","VBN","execut"],
    ["on","IN","on"],
    ["paper","NN","pap"],
    ["album","NN","alb"],
    ["leaves","VBZ","leav"],
    ["and","CC","and"],
    ["hanging","VBG","hang"],
    ["scrolls","NNS","scroll"],
    ["to","TO","to"],
    ["evoke","VB","evok"],
    ["the","DT","the"],
    ["luster","NN","lust"],
    ["of","IN","of"],
    {
      "tag":"GPE",
      "content":
      [
        ["Western","JJ","western"]
      ]
    },
    ["oil","NN","oil"],
    ["paints","NNS","paint"],
    [".",".","."]
  ]
},
{
  "tag":"S",
  "content":
  [
    ["Although","IN","Although"],
    ["urushi-e","JJ","urushi-e"],
    ["failed","VBN","fail"],
    ["to","TO","to"],
    ["thrive","VB","thrive"],
    ["after","IN","after"],
    ["Zeshin’s","JJ","zeshin’s"],
    ["death","NN","dea"],
    [",",",",","],
    ["these","DT","these"],
    ["unconventional","JJ","unconv"],
    ["paintings","NNS","paint"],
    ["are","VBP","be"],
    ["evidence","NN","evid"],
    ["of","IN","of"],
    ["a","DT","a"],
    ["restless","NN","restless"],
    ["mind","NN","mind"],
    ["attempting","VBG","attempt"],
    ["to","TO","to"],
    ["redefine","VB","redefin"],
    ["a","DT","a"],
    ["traditional","JJ","tradit"],
    ["medium","NN","med"],
    [".",".","."]
  ]
},
{
  "tag":"S",
  "content":
  [
    ["Before","IN","Before"],
    ["achieving","VBG","achiev"],
    ["fame","NN","fam"],
    ["as","IN","as"],
    ["a","DT","a"],
    ["lacquer","NN","lacqu"],
    ["artist","NN","art"],
    [",",",",","],
    {
      "tag":"PERSON",
      "content":
      [
        ["Zeshin","NNP","zeshin"]
      ]
    },
    ["was","VBD","be"],
    ["a","DT","a"],
    ["respected","VBN","respect"],
    ["painter","NN","paint"],
    ["of","IN","of"],
    ["hanging","VBG","hang"],
    ["scrolls","NNS","scroll"],
    ["and","CC","and"],
    ["folding","VBG","fold"],
    ["screens","NNS","screen"],
    [".",".","."]
  ]
},
{
  "tag":"S",
  "content":
  [
    ["Comprising","VBG","compr"],
    ["landscapes","NNS","landscap"],
    [",",",",","],
    ["literary","JJ","lit"],
    ["and","CC","and"],
    ["folkloric","JJ","folkl"],
    ["themes","NNS","them"],
    [",",",",","],
    ["and","CC","and"],
    ["auspicious","JJ","auspicy"],
    ["imagery","NN","imagery"],
    ["such","JJ","such"],
    ["as","IN","as"],
    ["cranes","NNS","cran"],
    [",",",",","],
    ["the","DT","the"],
    ["final","JJ","fin"],
    ["section","NN","sect"],
    ["of","IN","of"],
    ["the","DT","the"],
    ["exhibition","NN","exhibit"],
    ["shows","VBZ","show"],
    ["paintings","NNS","paint"],
    ["characterized","VBN","charact"],
    ["by","IN","by"],
    ["a","DT","a"],
    ["lightness","NN","light"],
    ["of","IN","of"],
    ["spirit","NN","spirit"],
    [".",".","."]
  ]
},
{
  "tag":"S",
  "content":
  [
    ["Many","JJ","many"],
    ["include","VBP","includ"],
    ["kakihyōsō","JJ","kakihyōsō"],
    ["(","NN","("],
    ["painted","VBD","paint"],
    ["mountings","NNS","mount"],
    [")",":",")"],
    [";",":",";"],
    ["the","DT","the"],
    ["border","NN","bord"],
    ["of","IN","of"],
    ["“Hina","NNP","“hina"],
    ["Dolls”","NNP","dolls”"],
    ["depicts","VBZ","depict"],
    ["a","DT","a"],
    ["space","NN","spac"],
    ["filled","VBN","fil"],
    ["with","IN","with"],
    ["miniature","NN","miny"],
    ["lacquered","VBN","lacqu"],
    ["accoutrements","NNS","accout"],
    ["for","IN","for"],
    ["the","DT","the"],
    ["Girls’","NN","girls’"],
    ["Day","NNP","day"],
    ["dolls","NNS","dol"],
    ["depicted","VBD","depict"],
    ["in","IN","in"],
    ["the","DT","the"],
    ["central","JJ","cent"],
    ["image","NN","im"],
    [".",".","."]
  ]
},
{
  "tag":"S",
  "content":
  [
    ["Ultimately","RB","ultim"],
    [",",",",","],
    ["however","RB","howev"],
    [",",",",","],
    {
      "tag":"PERSON",
      "content":
      [
        ["Zeshin","NNP","zeshin"]
      ]
    },
    ["is","VBZ","be"],
    ["remembered","VBN","rememb"],
    ["as","RB","as"],
    ["Japan’s","JJ","japan’s"],
    ["lacquer","NN","lacqu"],
    ["artist","NN","art"],
    ["par","NN","par"],
    ["excellence","NN","excel"],
    [",",",",","],
    ["and","CC","and"],
    ["this","DT","this"],
    ["exhibition","NN","exhibit"],
    ["is","VBZ","be"],
    ["timely","RB","tim"],
    ["reflection","NN","reflect"],
    ["of","IN","of"],
    ["his","PRP$","his"],
    ["original","JJ","origin"],
    ["vision","NN","vis"],
    ["and","CC","and"],
    ["superb","NN","superb"],
    ["skills","NNS","skil"],
    [".",".","."]
  ]
},
{
  "tag":"S",
  "content":
  [
    ["“Shibata","NN","“shibata"],
    {
      "tag":"PERSON",
      "content":
      [
        ["Zeshin","NNP","zeshin"]
      ]
    },
    [":",":",":"],
    ["From","IN","From"],
    {
      "tag":"ORGANIZATION",
      "content":
      [
        ["Lacquer","NNP","lacqu"],
        ["Arts","NNPS","art"]
      ]
    },
    ["to","TO","to"],
    ["Painting”","NNP","painting”"],
    ["at","IN","at"],
    {
      "tag":"FACILITY",
      "content":
      [
        ["Nezu","NNP","nezu"],
        ["Museum","NNP","muse"]
      ]
    },
    ["runs","VBZ","run"],
    ["till","NN","til"],
    ["Dec.","NNP","dec."],
    ["16","CD","16"],
    [";",":",";"],
    ["open","JJ","op"],
    ["10","CD","10"],
    ["a.m.-5","-NONE-","a.m.-5"],
    ["p.m.","NNP","p.m."],
    ["¥1,200","NNP","¥1,200"],
    [".",".","."]
  ]
},
{
  "tag":"S",
  "content":
  [
    ["Closed","VBN","clos"],
    {
      "tag":"PERSON",
      "content":
      [
        ["Mon","NNP","mon"]
      ]
    },
    [".",".","."]
  ]
},
{
  "tag":"S",
  "content":
  [
    ["www.nezu-muse.or.jp/jp/exhibition/index.html","JJ","www.nezu-muse.or.jp/jp/exhibition/index.html"],
    [".",".","."]
  ]
},
{
  "tag":"S",
  "content":
  [
    ["Mail","NNP","mail"],
    ["the","DT","the"],
    ["editor","NN","edit"],
    {
      "tag":"PERSON",
      "content":
      [
        ["Error","NNP","er"],
        ["Report","NNP","report"]
      ]
    },
    ["Republishing","NNP","republ"],
    ["Commenting","NNP","com"],
    ["Policy","NNP","policy"],
    {
      "tag":"PERSON",
      "content":
      [
        ["Photos","NNP","photo"],
        ["Click","NNP","click"]
      ]
    },
    ["to","TO","to"],
    ["enlarge","VB","enlarg"],
    {
      "tag":"PERSON",
      "content":
      [
        ["Art","NNP","art"],
        ["Missing","NNP","miss"]
      ]
    },
    ["the","DT","the"],
    ["light","NN","light"],
    ["at","IN","at"],
    {
      "tag":"ORGANIZATION",
      "content":
      [
        ["‘Roppongi","NNP","‘roppongi"]
      ]
    },
    ["Crossing’","NNP","crossing’"],
    ["Exploring","NNP","expl"],
    ["Japan’s","NNP","japan’s"],
    ["ancient","NN","ant"],
    ["capital","NN","capit"],
    ["inside","NN","insid"],
    ["and","CC","and"],
    ["out","IN","out"],
    ["‘Masterpieces","NNS","‘masterpieces"],
    ["from","IN","from"],
    {
      "tag":"PERSON",
      "content":
      [
        ["Yamadera","NNP","yamader"],
        ["Goto","NNP","goto"],
        ["Museum","NNP","muse"]
      ]
    },
    ["of","IN","of"],
    ["Art’","NNP","art’"],
    ["‘Alfons","NNS","‘alfons"],
    {
      "tag":"PERSON",
      "content":
      [
        ["Mucha","NNP","much"]
      ]
    },
    ["Unknown’","NNP","unknown’"]
  ]
}]