[
{
  "tag":"S",
  "content":
  [
    {
      "tag":"PERSON",
      "content":
      [
        ["Help","NNP","help"]
      ]
    },
    {
      "tag":"ORGANIZATION",
      "content":
      [
        ["School","NNP","school"]
      ]
    },
    ["&","CC","&"],
    {
      "tag":"PERSON",
      "content":
      [
        ["Library","NNP","libr"],
        ["Products","NNP","produc"]
      ]
    },
    ["SHOP","NNP","shop"],
    ["Join","NNP","join"],
    ["Login","NNP","login"],
    ["Subscribe","NNP","subscrib"],
    ["popular","JJ","popul"],
    ["topics","NNS","top"],
    ["quizzes","VBZ","quiz"],
    ["image","NN","im"],
    ["galleries","NNS","gallery"],
    ["lists","NNS","list"],
    ["browse","VBP","brows"],
    ["experts","NNS","expert"],
    {
      "tag":"PERSON",
      "content":
      [
        ["Login","NNP","login"],
        ["Print","NNP","print"],
        ["Email","NNP","email"],
        ["Print","NNP","print"],
        ["Email","NNP","email"],
        ["Jakob","NNP","jakob"],
        ["Bernoulli","NNP","bernoull"],
        ["Images","NNP","im"],
        ["Jakob","NNP","jakob"],
        ["Bernoulli","NNP","bernoull"]
      ]
    },
    [",",",",","],
    ["(","NNP","("],
    ["born","NN","born"],
    ["January","NNP","janu"],
    ["6","CD","6"],
    [",",",",","],
    ["1655","CD","1655"],
    ["[",":","["],
    ["December","NNP","decemb"],
    ["27","CD","27"],
    [",",",",","],
    ["1654","CD","1654"],
    [",",",",","],
    {
      "tag":"PERSON",
      "content":
      [
        ["Old","NNP","old"],
        ["Style","NNP","styl"]
      ]
    },
    ["]","NNP","]"],
    [",",",",","],
    {
      "tag":"PERSON",
      "content":
      [
        ["Basel","NNP","basel"]
      ]
    },
    [",",",",","],
    ["Switzerland—died","JJ","switzerland—dy"],
    ["August","NNP","august"],
    ["16","CD","16"],
    [",",",",","],
    ["1705","CD","1705"],
    [",",",",","],
    {
      "tag":"PERSON",
      "content":
      [
        ["Basel","NNP","basel"]
      ]
    },
    [")","NNP",")"],
    [",",",",","],
    ["first","JJ","first"],
    ["of","IN","of"],
    ["the","DT","the"],
    {
      "tag":"ORGANIZATION",
      "content":
      [
        ["Bernoulli","NNP","bernoull"]
      ]
    },
    ["family","NN","famy"],
    ["of","IN","of"],
    {
      "tag":"GPE",
      "content":
      [
        ["Swiss","NNP","swiss"]
      ]
    },
    ["mathematicians","NNS","mathem"],
    [".",".","."]
  ]
},
{
  "tag":"S",
  "content":
  [
    ["He","PRP","He"],
    ["introduced","VBD","introduc"],
    ["the","DT","the"],
    ["first","JJ","first"],
    ["principles","NNS","principl"],
    ["of","IN","of"],
    ["the","DT","the"],
    ["calculus","NN","calcul"],
    ["of","IN","of"],
    ["variation","NN","vary"],
    [".",".","."]
  ]
},
{
  "tag":"S",
  "content":
  [
    {
      "tag":"GPE",
      "content":
      [
        ["Bernoulli","NNP","bernoull"]
      ]
    },
    ["numbers","NNS","numb"],
    [",",",",","],
    ["a","DT","a"],
    ["concept","NN","conceiv"],
    ["that","WDT","that"],
    ["he","PRP","he"],
    ["developed","VBD","develop"],
    [",",",",","],
    ["were","VBD","be"],
    ["named","VBN","nam"],
    ["for","IN","for"],
    ["him.The","NNP","him.the"],
    ["scion","NN","scion"],
    ["of","IN","of"],
    ["a","DT","a"],
    ["family","NN","famy"],
    ["of","IN","of"],
    ["drug","NN","drug"],
    ["merchants","NNS","merch"],
    [",",",",","],
    {
      "tag":"PERSON",
      "content":
      [
        ["Jakob","NNP","jakob"],
        ["Bernoulli","NNP","bernoull"]
      ]
    },
    ["was","VBD","be"],
    ["compelled","VBN","compel"],
    ["to","TO","to"],
    ["study","NN","study"],
    ["theology","NN","theolog"],
    ["but","CC","but"],
    ["became","VBD","becom"],
    ["interested","JJ","interest"],
    ["in","IN","in"],
    ["mathematics","NN","mathem"],
    ["despite","IN","despite"],
    ["his","PRP$","his"],
    ["father’s","JJ","father’s"],
    ["opposition","NN","opposit"],
    [".",".","."]
  ]
},
{
  "tag":"S",
  "content":
  [
    ["His","PRP$","His"],
    ["travels","NNS","travel"],
    ["led","VBD","lead"],
    ["to","TO","to"],
    ["a","DT","a"],
    ["wide","JJ","wid"],
    ["correspondence","NN","correspond"],
    ["with","IN","with"],
    ["mathematicians","NNS","mathem"],
    [".",".","."]
  ]
},
{
  "tag":"S",
  "content":
  [
    ["Refusing","VBG","refus"],
    ["a","DT","a"],
    ["church","NN","church"],
    ["appointment","NN","appoint"],
    [",",",",","],
    ["he","PRP","he"],
    ["accepted","VBD","acceiv"],
    ["a","DT","a"],
    ["professorial","JJ","profess"],
    ["chair","NN","chair"],
    ["of","IN","of"],
    ["mathematics","NNS","mathem"],
    ["at","IN","at"],
    ["the","DT","the"],
    {
      "tag":"ORGANIZATION",
      "content":
      [
        ["University","NNP","univers"]
      ]
    },
    ["of","IN","of"],
    {
      "tag":"GPE",
      "content":
      [
        ["Basel","NNP","basel"]
      ]
    },
    ["in","IN","in"],
    ["1687","CD","1687"],
    [";",":",";"],
    ["and","CC","and"],
    [",",",",","],
    ["following","VBG","follow"],
    ["his","PRP$","his"],
    ["mastery","NN","mastery"],
    ["of","IN","of"],
    ["...",":","..."],
    ["(",":","("],
    ["100","CD","100"],
    ["of","IN","of"],
    ["297","CD","297"],
    ["words","NNS","word"],
    [")",":",")"],
    {
      "tag":"ORGANIZATION",
      "content":
      [
        ["RELATED","NNP","rel"]
      ]
    },
    ["TOPICS","NNP","top"],
    {
      "tag":"PERSON",
      "content":
      [
        ["Bernoulli","NNP","bernoull"]
      ]
    },
    ["family","NN","famy"],
    {
      "tag":"PERSON",
      "content":
      [
        ["Johann","NNP","johan"],
        ["Bernoulli","NNP","bernoull"],
        ["Our","NNP","our"],
        ["Sites","NNP","sit"],
        ["Britannica","NNP","britannic"],
        ["Kids","NNP","kid"]
      ]
    },
    ["Merriam-Webster","NNP","merriam-webster"],
    ["Britannica","NNP","britannic"],
    ["SmartMath","NNP","smartma"],
    ["School","NNP","school"],
    ["&","CC","&"],
    {
      "tag":"PERSON",
      "content":
      [
        ["Library","NNP","libr"],
        ["Britannica","NNP","britannic"],
        ["Store","NNP","stor"],
        ["Advocacy","NNP","advoc"]
      ]
    },
    ["for","IN","for"],
    {
      "tag":"ORGANIZATION",
      "content":
      [
        ["Animals","NNPS","anim"],
        ["Quizzes","NNPS","quizz"],
        ["Image","NNP","im"],
        ["Galleries","NNPS","gallery"],
        ["Escola","NNP","escol"]
      ]
    },
    ["Q","NNP","q"],
    ["&","CC","&"],
    ["As","NNP","as"],
    ["Mobile","NNP","mobl"],
    ["iPhone","NNP","iphon"],
    ["App","NNP","ap"],
    ["iPad","NNP","ipad"],
    ["App","NNP","ap"],
    ["Britannica","NNP","britannic"],
    ["Kids","NNP","kid"],
    ["Apps","NNP","ap"],
    ["International","NNP","intern"],
    {
      "tag":"PERSON",
      "content":
      [
        ["Australia","NNP","austral"],
        ["Brazil","NNP","brazil"],
        ["China","NNP","chin"],
        ["India","NNP","ind"],
        ["Japan","NNP","jap"],
        ["Korea","NNP","kore"],
        ["Latin","NNP","latin"],
        ["America","NNP","americ"],
        ["United","NNP","unit"],
        ["Kingdom","NNP","kingdom"]
      ]
    },
    ["Content","NNP","cont"],
    ["&","CC","&"],
    {
      "tag":"PERSON",
      "content":
      [
        ["Editorial","NNP","edit"],
        ["Publishing","NNP","publ"],
        ["Partner","NNP","partn"],
        ["Program","NNP","program"],
        ["Syndication","NNP","synd"],
        ["International","NNP","intern"],
        ["Publishing","NNP","publ"],
        ["Webmaster","NNP","webmast"],
        ["Blog","NNP","blog"],
        ["Archive","NNP","arch"],
        ["Site","NNP","sit"],
        ["Map","NNP","map"],
        ["New","NNP","new"],
        ["Articles","NNP","artic"],
        ["Corporate","NNP","corp"],
        ["About","NNP","about"],
        ["Us","NNP","us"],
        ["About","NNP","about"],
        ["Our","NNP","our"],
        ["Ads","NNP","ad"],
        ["Privacy","NNP","priv"],
        ["Policy","NNP","policy"],
        ["Terms","NNP","term"]
      ]
    },
    ["of","IN","of"],
    {
      "tag":"ORGANIZATION",
      "content":
      [
        ["Use","NNP","us"],
        ["Stay","NNP","stay"]
      ]
    },
    ["Connected","NNP","connect"],
    ["Contact","NNP","contact"],
    ["Us","NNP","us"],
    ["Newsletters","NNP","newslet"],
    {
      "tag":"ORGANIZATION",
      "content":
      [
        ["RSS","NNP","rss"],
        ["Widgets","NNPS","widget"]
      ]
    },
    ["©2013","-NONE-","©2013"],
    ["Encyclopædia","NNP","encyclopæd"],
    ["Britannica","NNP","britannic"],
    [",",",",","],
    ["Inc.","NNP","inc."],
    ["To","TO","To"],
    ["From","NNP","from"],
    ["Subject","NNP","subject"],
    ["Comments","NNP","com"],
    ["(","NNP","("],
    ["Please","NNP","pleas"],
    ["limit","NN","limit"],
    ["to","TO","to"],
    ["900","CD","900"],
    ["characters","NNS","charact"],
    [")",":",")"],
    ["Cancel","NNP","cancel"],
    ["Or","CC","Or"],
    ["click","VB","click"],
    {
      "tag":"ORGANIZATION",
      "content":
      [
        ["Continue","NNP","continu"]
      ]
    },
    ["to","TO","to"],
    ["submit","VB","submit"],
    ["anonymously","RB","anonym"],
    [":",":",":"],
    ["Continue","NNP","continu"]
  ]
}]