[
{
  "tag":"S",
  "content":
  [
    ["For","IN","For"],
    ["today","NN","today"],
    ["'s","POS","'s"],
    ["leading","VBG","lead"],
    ["articles","NNS","artic"],
    [",",",",","],
    ["commentators","NNS","com"],
    ["and","CC","and"],
    ["columnists","NNS","column"],
    [",",",",","],
    ["click","VBP","click"],
    ["here","RB","her"],
    {
      "tag":"PERSON",
      "content":
      [
        ["Blogs","NNP","blog"],
        ["Headlines","NNP","headlin"]
      ]
    },
    ["FACEBOOK","NNP","facebook"],
    ["Follow","NNP","follow"],
    ["The","NNP","the"],
    ["Independent","NNP","independ"],
    ["on","IN","on"],
    {
      "tag":"PERSON",
      "content":
      [
        ["Facebook","NNP","facebook"]
      ]
    },
    ["|","NNP","|"],
    {
      "tag":"PERSON",
      "content":
      [
        ["Click","NNP","click"]
      ]
    },
    ["here","RB","her"],
    ["...",":","..."],
    {
      "tag":"ORGANIZATION",
      "content":
      [
        ["Navigation","NNP","navig"],
        ["News","NNP","new"],
        ["Voices","NNPS","voic"],
        ["Environment","NNP","environ"]
      ]
    },
    ["Sport","NNP","sport"],
    ["Life","NNP","lif"],
    ["&","CC","&"],
    {
      "tag":"PERSON",
      "content":
      [
        ["Style","NNP","styl"],
        ["Arts","NNP","art"]
      ]
    },
    ["&","CC","&"],
    {
      "tag":"PERSON",
      "content":
      [
        ["Ents","NNP","ent"],
        ["Travel","NNP","travel"],
        ["Money","NNP","money"],
        ["IndyBest","NNP","indybest"],
        ["Blogs","NNP","blog"],
        ["McSmith","NNP","mcsmith"],
        ["Eagle","NNP","eagl"],
        ["Eye","NNP","ey"]
      ]
    },
    ["Foreign","NNP","foreign"],
    ["Desk","NNP","desk"],
    ["Sport","NNP","sport"],
    ["Arts","NNP","art"],
    ["Notebook","NNP","notebook"],
    ["Property","NNP","property"],
    ["Bytesize","NNP","bytes"],
    ["The","NNP","the"],
    {
      "tag":"PERSON",
      "content":
      [
        ["Money","NNP","money"],
        ["Blog","NNP","blog"],
        ["Dish","NNP","dish"]
      ]
    },
    ["of","IN","of"],
    ["the","DT","the"],
    ["Day","NNP","day"],
    ["Fame","NNP","fam"],
    ["Feed","NNP","fee"],
    ["Fashion","NNP","fash"],
    ["Sense","NNP","sens"],
    ["i","PRP","i"],
    ["Student","NNP","stud"],
    ["Shop","NNP","shop"],
    ["from","IN","from"],
    ["The","DT","The"],
    ["Independent","NNP","independ"],
    ["&","CC","&"],
    ["The","NNP","the"],
    ["Independent","NNP","independ"],
    ["on","IN","on"],
    ["Sunday","NNP","sunday"],
    ["Home","NNP","hom"],
    [">","NNP",">"],
    ["Independent","NNP","independ"],
    ["Blogs","NNP","blog"],
    [">","NNP",">"],
    ["Arts","NNP","art"],
    ["Friday","NNP","friday"],
    ["Book","NNP","book"],
    ["Design","NNP","design"],
    ["Blog","NNP","blog"],
    [":",":",":"],
    ["Thérèse","JJ","thérèse"],
    {
      "tag":"GPE",
      "content":
      [
        ["Raquin","NNP","raquin"]
      ]
    },
    [",",",",","],
    ["by","IN","by"],
    ["Émile","JJ","émil"],
    {
      "tag":"ORGANIZATION",
      "content":
      [
        ["Zola","NNP","zol"]
      ]
    },
    ["(","NNP","("],
    ["Vintage","NNP","vint"],
    ["Classics","NNP","class"],
    [")","NNP",")"],
    ["By","NNP","by"],
    {
      "tag":"PERSON",
      "content":
      [
        ["Jonathan","NNP","jonath"],
        ["Gibbs","NNP","gib"],
        ["Arts","NNP","art"],
        ["Last","NNP","last"]
      ]
    },
    ["updated","VBD","upd"],
    [":",":",":"],
    ["Friday","NNP","friday"],
    [",",",",","],
    ["11","CD","11"],
    ["October","NNP","octob"],
    ["2013","CD","2013"],
    ["at","IN","at"],
    ["4:38","CD","4:38"],
    ["pm","NN","pm"],
    {
      "tag":"PERSON",
      "content":
      [
        ["Tweet","NNP","tweet"],
        ["This","NNP","thi"]
      ]
    },
    ["lovely-looking","NNP","lovely-looking"],
    ["new","JJ","new"],
    ["edition","NN","edit"],
    ["of","IN","of"],
    ["Thérèse","JJ","thérèse"],
    {
      "tag":"GPE",
      "content":
      [
        ["Raquin","NNP","raquin"]
      ]
    },
    [",",",",","],
    ["from","IN","from"],
    {
      "tag":"PERSON",
      "content":
      [
        ["Vintage","NNP","vint"],
        ["Classics","NNP","class"]
      ]
    },
    [",",",",","],
    ["is","VBZ","be"],
    ["a","DT","a"],
    ["good","JJ","good"],
    ["window","NN","window"],
    ["into","IN","into"],
    ["how","WRB","how"],
    ["classics","NNS","class"],
    ["are","VBP","be"],
    ["being","VBG","be"],
    ["treated","VBN","tre"],
    ["in","IN","in"],
    ["this","DT","this"],
    ["–","NN","–"],
    ["let’s","VBZ","let’s"],
    ["say","VB","say"],
    ["–",":","–"],
    ["transitional","JJ","transit"],
    ["phase","NN","phas"],
    ["of","IN","of"],
    ["publishing","NN","publ"],
    [".",".","."]
  ]
},
{
  "tag":"S",
  "content":
  [
    ["As","IN","As"],
    {
      "tag":"ORGANIZATION",
      "content":
      [
        ["Clare","NNP","clar"],
        ["Skeats","NNPS","ske"]
      ]
    },
    ["said","VBD","say"],
    [",",",",","],
    ["during","IN","during"],
    ["her","PRP$","her"],
    ["talk","NN","talk"],
    ["about","IN","about"],
    ["redesigning","VBG","redesign"],
    {
      "tag":"PERSON",
      "content":
      [
        ["Pushkin","NNP","pushkin"],
        ["Press","NNP","press"]
      ]
    },
    ["(","NNP","("],
    ["see","VB","see"],
    ["here","RB","her"],
    ["for","IN","for"],
    ["previous","JJ","prevy"],
    ["blog","NN","blog"],
    ["post","NN","post"],
    [")",":",")"],
    [",",",",","],
    ["classics","NNS","class"],
    ["are","VBP","be"],
    ["the","DT","the"],
    ["workhorses","NNS","workhors"],
    ["of","IN","of"],
    ["publishing","VBG","publ"],
    [",",",",","],
    ["while","IN","while"],
    ["the","DT","the"],
    ["books","NNS","book"],
    ["on","IN","on"],
    ["the","DT","the"],
    ["front","NN","front"],
    ["list","NN","list"],
    ["are","VBP","be"],
    ["its","PRP$","its"],
    ["showponies","NNS","showpony"],
    [".",".","."]
  ]
},
{
  "tag":"S",
  "content":
  [
    ["That","DT","That"],
    ["said","VBD","say"],
    [",",",",","],
    ["sometimes","RB","sometim"],
    ["classics","NNS","class"],
    ["are","VBP","be"],
    ["treated","VBN","tre"],
    ["like","IN","like"],
    ["showponies","NNS","showpony"],
    [",",",",","],
    ["and","CC","and"],
    ["this","DT","this"],
    ["would","MD","would"],
    ["seem","VB","seem"],
    ["the","DT","the"],
    ["case","NN","cas"],
    ["here","RB","her"],
    [".",".","."]
  ]
},
{
  "tag":"S",
  "content":
  [
    ["Zola’s","NNS","zola’s"],
    ["novel","VBP","novel"],
    ["is","VBZ","be"],
    ["given","VBN","giv"],
    ["a","DT","a"],
    ["new","JJ","new"],
    ["translation","NN","transl"],
    ["by","IN","by"],
    {
      "tag":"GPE",
      "content":
      [
        ["British","NNP","brit"]
      ]
    },
    ["author","NN","auth"],
    {
      "tag":"PERSON",
      "content":
      [
        ["Adam","NNP","adam"],
        ["Thorpe","NNP","thorp"]
      ]
    },
    ["(","NNP","("],
    ["though","IN","though"],
    ["he’s","NNP","he’s"],
    ["Paris-born","NNP","paris-born"],
    ["and","CC","and"],
    ["France-living","JJ","france-living"],
    [")","NN",")"],
    [",",",",","],
    ["to","TO","to"],
    ["go","VB","go"],
    ["along","IN","along"],
    ["with","IN","with"],
    ["his","PRP$","his"],
    ["translation","NN","transl"],
    ["of","IN","of"],
    {
      "tag":"PERSON",
      "content":
      [
        ["Madame","NNP","madam"],
        ["Bovary","NNP","bov"]
      ]
    },
    ["–","NNP","–"],
    ["a","DT","a"],
    ["book","NN","book"],
    ["that","WDT","that"],
    ["has","VBZ","hav"],
    ["pranced","VBN","prant"],
    ["out","RP","out"],
    ["of","IN","of"],
    ["the","DT","the"],
    ["show","NN","show"],
    ["pony","NN","pony"],
    ["paddock","NN","paddock"],
    ["twice","NN","twic"],
    ["in","IN","in"],
    ["recent","JJ","rec"],
    ["years","NNS","year"],
    [",",",",","],
    ["with","IN","with"],
    {
      "tag":"PERSON",
      "content":
      [
        ["Penguin","NNP","penguin"]
      ]
    },
    ["bringing","VBG","bring"],
    ["out","RP","out"],
    ["a","DT","a"],
    ["translation","NN","transl"],
    ["from","IN","from"],
    {
      "tag":"GPE",
      "content":
      [
        ["Lydia","NNP","lyd"],
        ["Davis","NNP","dav"]
      ]
    },
    [".",".","."]
  ]
},
{
  "tag":"S",
  "content":
  [
    ["(","NN","("],
    ["Now","RB","now"],
    ["both","DT","both"],
    ["books","NNS","book"],
    ["live","VBP","liv"],
    ["in","IN","in"],
    ["the","DT","the"],
    {
      "tag":"FACILITY",
      "content":
      [
        ["Penguin","NNP","penguin"],
        ["Random","NNP","random"],
        ["House","NNP","hous"]
      ]
    },
    ["stable","NN","stabl"],
    [":",":",":"],
    ["do","VBP","do"],
    ["they","PRP","they"],
    ["bridle","VB","bridl"],
    ["when","WRB","when"],
    ["they","PRP","they"],
    ["see","VBP","see"],
    ["each","DT","each"],
    ["other","JJ","oth"],
    ["?",".","?"]
  ]
},
{
  "tag":"S",
  "content":
  [
    [")","NN",")"],
    ["You","PRP","You"],
    ["can’t","JJ","can’t"],
    ["imagine","NN","imagin"],
    ["this","DT","this"],
    ["kind","NN","kind"],
    ["of","IN","of"],
    ["attention","NN","at"],
    ["being","VBG","be"],
    ["given","VBN","giv"],
    ["to","TO","to"],
    ["this","DT","this"],
    ["much-published","JJ","much-published"],
    [",",",",","],
    ["near-150-year-old","JJ","near-150-year-old"],
    ["novel","NN","novel"],
    ["without","IN","without"],
    ["there","EX","there"],
    ["being","VBG","be"],
    ["a","DT","a"],
    ["new","JJ","new"],
    ["version","NN","vert"],
    ["to","TO","to"],
    ["push","VB","push"],
    [".",".","."]
  ]
},
{
  "tag":"S",
  "content":
  [
    ["Certainly","RB","certain"],
    [",",",",","],
    ["once","RB","ont"],
    ["the","DT","the"],
    ["Bovary","NNP","bov"],
    ["(","NNP","("],
    ["which","WDT","which"],
    ["was","VBD","be"],
    ["similar","JJ","simil"],
    [",",",",","],
    ["though","IN","though"],
    ["not","RB","not"],
    ["identical","JJ","id"],
    ["in","IN","in"],
    ["cover","NN","cov"],
    ["design","NN","design"],
    ["to","TO","to"],
    ["the","DT","the"],
    {
      "tag":"ORGANIZATION",
      "content":
      [
        ["Zola","NNP","zol"]
      ]
    },
    [")","NNP",")"],
    ["reached","VBD","reach"],
    {
      "tag":"PERSON",
      "content":
      [
        ["Vintage","NNP","vint"]
      ]
    },
    ["paperback","NN","paperback"],
    [",",",",","],
    ["it","PRP","it"],
    ["looked","VBD","look"],
    ["no","DT","no"],
    ["different","JJ","diff"],
    ["to","TO","to"],
    ["any","DT","any"],
    ["other","JJ","oth"],
    ["of","IN","of"],
    ["that","DT","that"],
    ["imprint","NN","imprint"],
    [".",".","."]
  ]
},
{
  "tag":"S",
  "content":
  [
    ["It’s","NNS","it’s"],
    ["only","RB","on"],
    ["in","IN","in"],
    ["hardback","NN","hardback"],
    ["that","IN","that"],
    ["it","PRP","it"],
    ["gets","VBZ","get"],
    ["special","JJ","spec"],
    ["treatment","NN","tre"],
    [".",".","."]
  ]
},
{
  "tag":"S",
  "content":
  [
    ["And","CC","And"],
    ["it","PRP","it"],
    ["needs","VBZ","nee"],
    ["it","PRP","it"],
    [",",",",","],
    ["you’d","JJ","you’d"],
    ["have","VBP","hav"],
    ["to","TO","to"],
    ["think","VB","think"],
    [".",".","."]
  ]
},
{
  "tag":"S",
  "content":
  [
    ["With","IN","With"],
    ["printing","VBG","print"],
    ["costs","NNS","cost"],
    ["as","RB","as"],
    ["they","PRP","they"],
    ["are","VBP","be"],
    [",",",",","],
    ["and","CC","and"],
    ["branding","VBG","brand"],
    ["what","WP","what"],
    ["it","PRP","it"],
    ["is","VBZ","be"],
    [",",",",","],
    ["there","EX","there"],
    ["is","VBZ","be"],
    ["nothing","NN","noth"],
    ["to","TO","to"],
    ["stop","VB","stop"],
    ["any","DT","any"],
    ["publisher","NN","publ"],
    ["bringing","VBG","bring"],
    ["out","RP","out"],
    ["series","NNS","sery"],
    ["of","IN","of"],
    ["‘classic’","JJ","‘classic’"],
    ["(","NN","("],
    ["aka","NN","ak"],
    ["out","IN","out"],
    ["of","IN","of"],
    ["copyright","NN","copyright"],
    [")",":",")"],
    ["books","NNS","book"],
    [".",".","."]
  ]
},
{
  "tag":"S",
  "content":
  [
    ["I","PRP","I"],
    ["don’t","VBP","don’t"],
    ["know","RB","know"],
    ["for","IN","for"],
    ["sure","RB","sur"],
    ["what","WP","what"],
    ["the","DT","the"],
    ["split","NN","split"],
    ["is","VBZ","be"],
    ["across","IN","across"],
    ["the","DT","the"],
    ["two","CD","two"],
    ["divides","NNS","divid"],
    ["of","IN","of"],
    ["print/ebook","JJ","print/ebook"],
    ["and","CC","and"],
    ["classic/frontlist","JJ","classic/frontlist"],
    [",",",",","],
    ["but","CC","but"],
    ["you’d","JJ","you’d"],
    ["assume","NN","assum"],
    ["people","NNS","peopl"],
    ["are","VBP","be"],
    ["more","RBR","mor"],
    ["likely","JJ","lik"],
    ["to","TO","to"],
    ["buy","VB","buy"],
    ["paper","NN","pap"],
    ["books","NNS","book"],
    ["of","IN","of"],
    ["classics","NNS","class"],
    ["than","IN","than"],
    ["ebooks","NNS","ebook"],
    ["–",":","–"],
    ["after","IN","after"],
    ["all","DT","all"],
    ["they’re","JJ","they’re"],
    ["usually","RB","us"],
    ["available","JJ","avail"],
    ["for","IN","for"],
    ["free","JJ","fre"],
    ["somewhere","NN","somewh"],
    [".",".","."]
  ]
},
{
  "tag":"S",
  "content":
  [
    ["As","IN","As"],
    ["a","DT","a"],
    ["book","NN","book"],
    [",",",",","],
    ["this","DT","this"],
    ["Zola","NNP","zol"],
    ["seems","VBZ","seem"],
    ["well-bound","JJ","well-bound"],
    ["and","CC","and"],
    ["type-set","JJ","type-set"],
    [",",",",","],
    ["compared","VBN","comp"],
    ["to","TO","to"],
    ["my","PRP$","my"],
    ["small","JJ","smal"],
    ["old","JJ","old"],
    {
      "tag":"PERSON",
      "content":
      [
        ["Penguin","NNP","penguin"],
        ["Classics","NNP","class"]
      ]
    },
    ["paperback","NN","paperback"],
    [",",",",","],
    ["the","DT","the"],
    {
      "tag":"GPE",
      "content":
      [
        ["Bodoni","NNP","bodon"]
      ]
    },
    ["type","NN","typ"],
    ["giving","VBG","giv"],
    ["lots","NNS","lot"],
    ["of","IN","of"],
    ["white","JJ","whit"],
    ["space","NN","spac"],
    ["on","IN","on"],
    ["the","DT","the"],
    ["page","NN","pag"],
    [".",".","."]
  ]
},
{
  "tag":"S",
  "content":
  [
    ["The","DT","The"],
    ["cover","NN","cov"],
    [",",",",","],
    ["with","IN","with"],
    ["its","PRP$","its"],
    ["lacework","NN","lacework"],
    ["pattern","NN","pattern"],
    [",",",",","],
    ["evokes","VBZ","evok"],
    ["not","RB","not"],
    ["just","RB","just"],
    ["the","DT","the"],
    ["fusty","NN","fusty"],
    ["world","NN","world"],
    ["of","IN","of"],
    {
      "tag":"GPE",
      "content":
      [
        ["Paris","NNP","par"]
      ]
    },
    [",",",",","],
    ["but","CC","but"],
    ["the","DT","the"],
    ["sinister","NN","sin"],
    ["plot","NN","plot"],
    [",",",",","],
    ["with","IN","with"],
    ["its","PRP$","its"],
    ["encroaching","NN","encroach"],
    ["sense","NN","sens"],
    ["of","IN","of"],
    ["hysteria","NN","hyster"],
    ["and","CC","and"],
    ["madness","NN","mad"],
    [".",".","."]
  ]
},
{
  "tag":"S",
  "content":
  [
    ["There","EX","There"],
    ["are","VBP","be"],
    ["tiny","JJ","tiny"],
    ["flecks","NNS","fleck"],
    ["of","IN","of"],
    ["red-brown","JJ","red-brown"],
    ["on","IN","on"],
    ["the","DT","the"],
    ["some","DT","some"],
    ["of","IN","of"],
    ["the","DT","the"],
    ["edges","NNS","edg"],
    [",",",",","],
    ["but","CC","but"],
    ["I’m","NNP","i’m"],
    ["not","RB","not"],
    ["entirely","RB","entir"],
    ["sure","JJ","sur"],
    ["if","IN","if"],
    ["this","DT","this"],
    ["is","VBZ","be"],
    ["supposed","VBN","suppos"],
    ["to","TO","to"],
    ["look","VB","look"],
    ["like","IN","like"],
    ["blood","NN","blood"],
    [",",",",","],
    ["or","CC","or"],
    ["is","VBZ","be"],
    ["just","RB","just"],
    ["part","NN","part"],
    ["of","IN","of"],
    ["the","DT","the"],
    ["lace","NN","lac"],
    [".",".","."]
  ]
},
{
  "tag":"S",
  "content":
  [
    {
      "tag":"GPE",
      "content":
      [
        ["Inside","NNP","insid"]
      ]
    },
    [",",",",","],
    ["there","EX","there"],
    ["are","VBP","be"],
    ["‘marbled","JJ","‘marbled"],
    ["endpapers’","NN","endpapers’"],
    ["–",":","–"],
    ["though","IN","though"],
    ["a","DT","a"],
    ["printed","VBN","print"],
    ["facsimile","NN","facsimil"],
    ["of","IN","of"],
    ["the","DT","the"],
    ["marbling","NN","marbl"],
    [",",",",","],
    ["rather","RB","rath"],
    ["than","IN","than"],
    ["truly","RB","tru"],
    ["marbled","VBN","marbl"],
    ["paper","NN","pap"],
    [".",".","."]
  ]
},
{
  "tag":"S",
  "content":
  [
    ["In","IN","In"],
    ["fact","NN","fact"],
    [",",",",","],
    ["I’m","JJ","i’m"],
    ["not","RB","not"],
    ["entirely","RB","entir"],
    ["sure","JJ","sur"],
    ["if","IN","if"],
    ["I","PRP","I"],
    ["even","RB","ev"],
    ["own","JJ","own"],
    ["any","DT","any"],
    ["single","JJ","singl"],
    ["book","NN","book"],
    ["with","IN","with"],
    ["genuine","NN","genuin"],
    ["marbled","VBD","marbl"],
    ["end","NN","end"],
    ["papers","NNS","pap"],
    [".",".","."]
  ]
},
{
  "tag":"S",
  "content":
  [
    {
      "tag":"GPE",
      "content":
      [
        ["Well","NNP","wel"]
      ]
    },
    [",",",",","],
    ["it","PRP","it"],
    ["turns","VBZ","turn"],
    ["out","RP","out"],
    ["I","PRP","I"],
    ["do","VBP","do"],
    [",",",",","],
    ["though","IN","though"],
    ["I’d","JJ","i’d"],
    ["thought","NN","thought"],
    ["it","PRP","it"],
    ["wasn’t","JJ","wasn’t"],
    [".",".","."]
  ]
},
{
  "tag":"S",
  "content":
  [
    ["The","DT","The"],
    ["beautiful","JJ","beauty"],
    ["marbled","VBN","marbl"],
    ["end","NN","end"],
    ["papers","NNS","pap"],
    ["of","IN","of"],
    ["The","DT","The"],
    {
      "tag":"FACILITY",
      "content":
      [
        ["White","NNP","whit"],
        ["Review","NNP","review"]
      ]
    },
    ["are","VBP","be"],
    ["proper","JJ","prop"],
    ["marbled","VBN","marbl"],
    ["paper","NN","pap"],
    [",",",",","],
    ["made","VBN","mak"],
    ["by","IN","by"],
    {
      "tag":"ORGANIZATION",
      "content":
      [
        ["Payhembury","NNP","payhembury"]
      ]
    },
    ["papers","NNS","pap"],
    [".",".","."]
  ]
},
{
  "tag":"S",
  "content":
  [
    ["Below","IN","Below"],
    ["is","VBZ","be"],
    ["the","DT","the"],
    {
      "tag":"ORGANIZATION",
      "content":
      [
        ["Zola","NNP","zol"]
      ]
    },
    ["(","NNP","("],
    ["top","JJ","top"],
    [")","NN",")"],
    ["and","CC","and"],
    ["Issue","NNP","issu"],
    ["8","CD","8"],
    ["of","IN","of"],
    ["The","DT","The"],
    {
      "tag":"FACILITY",
      "content":
      [
        ["White","NNP","whit"],
        ["Review","NNP","review"]
      ]
    },
    [",",",",","],
    ["bottom","NN","bottom"],
    [".",".","."]
  ]
},
{
  "tag":"S",
  "content":
  [
    ["Does","VBZ","doe"],
    ["it","PRP","it"],
    ["matter","JJR","mat"],
    ["?",".","?"]
  ]
},
{
  "tag":"S",
  "content":
  [
    ["Perhaps","RB","perhap"],
    [",",",",","],
    ["perhaps","RB","perhap"],
    ["not","RB","not"],
    [".",".","."]
  ]
},
{
  "tag":"S",
  "content":
  [
    {
      "tag":"GPE",
      "content":
      [
        ["Marbled","NNP","marbl"]
      ]
    },
    ["end","NN","end"],
    ["papers","NNS","pap"],
    ["are","VBP","be"],
    ["the","DT","the"],
    ["marker","NN","mark"],
    ["of","IN","of"],
    ["‘a","NNP","‘a"],
    ["classic’","NNP","classic’"],
    [",",",",","],
    ["and","CC","and"],
    ["to","TO","to"],
    ["that","DT","that"],
    ["they","PRP","they"],
    ["do","VBP","do"],
    ["their","PRP$","their"],
    ["job","NN","job"],
    [".",".","."]
  ]
},
{
  "tag":"S",
  "content":
  [
    ["Would","MD","Would"],
    ["genuine","VB","genuin"],
    ["marbled","VBN","marbl"],
    ["paper","NN","pap"],
    ["make","VBP","mak"],
    ["a","DT","a"],
    ["difference","NN","diff"],
    [",",",",","],
    ["make","VBP","mak"],
    ["it","PRP","it"],
    ["feel","VBP","feel"],
    ["like","IN","like"],
    ["more","JJR","mor"],
    ["of","IN","of"],
    ["a","DT","a"],
    ["classic","JJ","class"],
    ["?",".","?"]
  ]
},
{
  "tag":"S",
  "content":
  [
    ["For","IN","For"],
    ["me","PRP","me"],
    [",",",",","],
    ["that’s","NNP","that’s"],
    ["got","VBD","get"],
    ["to","TO","to"],
    ["come","VB","com"],
    ["lower","JJR","low"],
    ["down","IN","down"],
    ["the","DT","the"],
    ["list","NN","list"],
    ["than","IN","than"],
    ["quality","NN","qual"],
    ["of","IN","of"],
    ["paper","NN","pap"],
    ["and","CC","and"],
    ["binding","VBG","bind"],
    [".",".","."]
  ]
},
{
  "tag":"S",
  "content":
  [
    ["I","PRP","I"],
    ["suppose","VBP","suppos"],
    ["I","PRP","I"],
    ["will","MD","will"],
    ["only","RB","on"],
    ["know","VB","know"],
    ["in","IN","in"],
    ["50","CD","50"],
    ["or","CC","or"],
    ["so","RB","so"],
    ["years","NNS","year"],
    ["if","IN","if"],
    ["this","DT","this"],
    ["is","VBZ","be"],
    ["the","DT","the"],
    ["genuine","NN","genuin"],
    ["article","NN","artic"],
    [",",",",","],
    ["or","CC","or"],
    ["just","RB","just"],
    ["looks","VBZ","look"],
    ["like","IN","like"],
    ["it","PRP","it"],
    [".",".","."]
  ]
},
{
  "tag":"S",
  "content":
  [
    ["Recent","JJ","rec"],
    ["Posts","NNS","post"],
    ["on","IN","on"],
    ["Arts","NNS","art"],
    {
      "tag":"PERSON",
      "content":
      [
        ["Great","NNP","gre"],
        ["British","NNP","brit"],
        ["Bake","NNP","bak"],
        ["Off","NNP","off"]
      ]
    },
    ["semi","NN","sem"],
    ["final","JJ","fin"],
    ["-",":","-"],
    ["Episode","NNP","episod"],
    ["9","CD","9"],
    [",",",",","],
    ["Series","NNP","sery"],
    ["5","CD","5"],
    [":",":",":"],
    {
      "tag":"PERSON",
      "content":
      [
        ["French","JJ","french"],
        ["WeekDoc","NNP","weekdoc"],
        ["Martin","NNP","martin"]
      ]
    },
    [":",":",":"],
    ["'Listen","JJ","'listen"],
    ["with","IN","with"],
    {
      "tag":"PERSON",
      "content":
      [
        ["Mother","NNP","moth"]
      ]
    },
    ["'","POS","'"],
    ["-",":","-"],
    ["Series","NNP","sery"],
    ["6","CD","6"],
    [",",",",","],
    ["Episode","NNP","episod"],
    ["7Downton","CD","7Downton"],
    ["Abbey","NNP","abbey"],
    [":",":",":"],
    ["Series","NNPS","sery"],
    ["4","CD","4"],
    ["–","CD","–"],
    ["episode","NN","episod"],
    ["4Interview","CD","4Interview"],
    ["with","IN","with"],
    {
      "tag":"PERSON",
      "content":
      [
        ["Jason","NNP","jason"],
        ["Aalon","NNP","aalon"],
        ["Butler","NNP","butl"]
      ]
    },
    ["of","IN","of"],
    ["letlive","JJ","letl"],
    [".",".","."]
  ]
},
{
  "tag":"S",
  "content":
  [
    ["“I","NN","“i"],
    ["was","VBD","be"],
    ["taught","VBN","teach"],
    ["that","IN","that"],
    ["vulnerability","NN","vuln"],
    ["was","VBD","be"],
    ["not","RB","not"],
    ["allowed”Something","JJ","allowed”something"],
    ["For","IN","For"],
    ["The","DT","The"],
    ["Weekend","NNP","weekend"],
    ["in","IN","in"],
    {
      "tag":"GPE",
      "content":
      [
        ["London","NNP","london"]
      ]
    },
    [":",":",":"],
    ["October","NNP","octob"],
    ["11-13","CD","11-13"],
    ["Susi","NNP","sus"],
    ["Johnston","NNP","johnston"],
    ["the","DT","the"],
    ["old","JJ","old"],
    ["edition","NN","edit"],
    ["was","VBD","be"],
    ["better","RBR","wel"],
    [".",".","."]
  ]
},
{
  "tag":"S",
  "content":
  [
    ["what","WP","what"],
    ["a","DT","a"],
    ["signal","NN","sign"],
    ["of","IN","of"],
    ["decadence","NN","decad"],
    ["it","PRP","it"],
    ["is","VBZ","be"],
    ["to","TO","to"],
    ["celebrate","VB","celebr"],
    ["such","JJ","such"],
    ["a","DT","a"],
    ["trivial","JJ","triv"],
    ["thing","NN","thing"],
    ["as","IN","as"],
    ["this","DT","this"],
    ["redesign","NN","redesign"],
    [",",",",","],
    ["all","DT","all"],
    ["the","DT","the"],
    ["more","RBR","mor"],
    ["so","RB","so"],
    ["as","IN","as"],
    ["it","PRP","it"],
    ["is","VBZ","be"],
    ["a","DT","a"],
    ["shallow","JJ","shallow"],
    ["and","CC","and"],
    ["mercenary","JJ","merc"],
    ["redesign","NN","redesign"],
    [".",".","."]
  ]
},
{
  "tag":"S",
  "content":
  [
    ["get","NN","get"],
    ["off","IN","off"],
    ["drugs","NNS","drug"],
    ["you","PRP","you"],
    ["guys","VBZ","guy"],
    [".",".","."]
  ]
},
{
  "tag":"S",
  "content":
  [
    ["there’s","NNS","there’s"],
    ["so","IN","so"],
    ["much","RB","much"],
    ["better","JJR","good"],
    ["stuff","NN","stuff"],
    ["design-wise","NN","design-wise"],
    [",",",",","],
    ["art-wise","JJ","art-wise"],
    [",",",",","],
    ["and","CC","and"],
    ["literature-wise","JJ","literature-wis"],
    ["to","TO","to"],
    ["report","VB","report"],
    ["on","IN","on"],
    [".",".","."]
  ]
},
{
  "tag":"S",
  "content":
  [
    ["feh","NN","feh"],
    ["!","``","!"]
  ]
},
{
  "tag":"S",
  "content":
  [
    ["try","NN","try"],
    ["coffee","NN","coff"],
    ["instead","RB","instead"],
    ["of","IN","of"],
    ["molly","RB","mol"],
    [",",",",","],
    ["kids","NNS","kid"],
    [".",".","."]
  ]
},
{
  "tag":"S",
  "content":
  [
    ["Most","JJS","most"],
    ["viewed","VBN","view"],
    {
      "tag":"PERSON",
      "content":
      [
        ["Read","NNP","read"],
        ["Commented","NNP","com"]
      ]
    },
    ["Read","NNP","read"],
    ["1Great","CD","1Great"],
    {
      "tag":"GPE",
      "content":
      [
        ["British","NNP","brit"]
      ]
    },
    ["Bake","NNP","bak"],
    ["Off","NNP","off"],
    ["semi","NN","sem"],
    ["final","JJ","fin"],
    ["–","NN","–"],
    ["Episode","NNP","episod"],
    ["9","CD","9"],
    [",",",",","],
    ["Series","NNP","sery"],
    ["5","CD","5"],
    [":",":",":"],
    {
      "tag":"PERSON",
      "content":
      [
        ["French","JJ","french"],
        ["Week2The","NNP","week2the"]
      ]
    },
    ["slang","NN","slang"],
    ["ban","NN","ban"],
    ["at","IN","at"],
    ["llow","JJ","llow"],
    {
      "tag":"PERSON",
      "content":
      [
        ["Harris","NNP","har"],
        ["Academy","NNP","academy"],
        ["innit3Landlords","NNP","innit3landlords"]
      ]
    },
    [",",",",","],
    ["are","VBP","be"],
    ["you","PRP","you"],
    ["sure","RB","sur"],
    ["you","PRP","you"],
    ["know","VBP","know"],
    ["what","WP","what"],
    ["you’re","-NONE-","you’re"],
    ["doing","VBG","do"],
    ["?",".","?"],
    ["4The","CD","4The"],
    {
      "tag":"ORGANIZATION",
      "content":
      [
        ["Football","NNP","footbal"]
      ]
    },
    ["Lawyer","NNP","lawy"],
    [":",":",":"],
    ["Qatar","NNP","qat"],
    ["2022","CD","2022"],
    ["compensation","NN","compens"],
    ["claims","VBZ","claim"],
    ["and","CC","and"],
    ["the","DT","the"],
    ["problem","NN","problem"],
    ["with","IN","with"],
    {
      "tag":"ORGANIZATION",
      "content":
      [
        ["quotas5World","NNP","quotas5world"]
      ]
    },
    ["food","NN","food"],
    ["day","NN","day"],
    ["2013","CD","2013"],
    [":",":",":"],
    ["We","PRP","We"],
    ["must","MD","must"],
    ["stop","VB","stop"],
    {
      "tag":"PERSON",
      "content":
      [
        ["Angola","NNP","angol"]
      ]
    },
    ["and","CC","and"],
    {
      "tag":"GPE",
      "content":
      [
        ["Namibia","NNP","namib"]
      ]
    },
    ["becoming","NN","becom"],
    ["the","DT","the"],
    ["next","JJ","next"],
    {
      "tag":"PERSON",
      "content":
      [
        ["Sahel","NNP","sahel"],
        ["Commented","NNP","com"]
      ]
    },
    ["1The","CD","1The"],
    ["slang","NN","slang"],
    ["ban","NN","ban"],
    ["at","IN","at"],
    ["llow","JJ","llow"],
    {
      "tag":"PERSON",
      "content":
      [
        ["Harris","NNP","har"],
        ["Academy","NNP","academy"]
      ]
    },
    ["innit2Labour","NNP","innit2labour"],
    ["at","IN","at"],
    {
      "tag":"ORGANIZATION",
      "content":
      [
        ["War","NNP","war"]
      ]
    },
    ["with","IN","with"],
    ["the","DT","the"],
    {
      "tag":"ORGANIZATION",
      "content":
      [
        ["Mail3No","NNP","mail3no"],
        ["One","CD","One"]
      ]
    },
    ["Expects","NNS","expect"],
    ["the","DT","the"],
    {
      "tag":"ORGANIZATION",
      "content":
      [
        ["Political","NNP","polit"]
      ]
    },
    ["Inquisition4Rising","NNP","inquisition4rising"],
    ["Disposable","NNP","dispos"],
    ["Income","NNP","incom"],
    [":",":",":"],
    {
      "tag":"PERSON",
      "content":
      [
        ["Fact","NNP","fact"],
        ["Check","NNP","check"]
      ]
    },
    ["5World","CD","5World"],
    ["food","NN","food"],
    ["day","NN","day"],
    ["2013","CD","2013"],
    [":",":",":"],
    ["We","PRP","We"],
    ["must","MD","must"],
    ["stop","VB","stop"],
    {
      "tag":"PERSON",
      "content":
      [
        ["Angola","NNP","angol"]
      ]
    },
    ["and","CC","and"],
    {
      "tag":"GPE",
      "content":
      [
        ["Namibia","NNP","namib"]
      ]
    },
    ["becoming","NN","becom"],
    ["the","DT","the"],
    ["next","JJ","next"],
    {
      "tag":"PERSON",
      "content":
      [
        ["Sahel","NNP","sahel"],
        ["Click","NNP","click"]
      ]
    },
    ["here","RB","her"],
    ["...",":","..."],
    {
      "tag":"PERSON",
      "content":
      [
        ["Click","NNP","click"]
      ]
    },
    ["here","RB","her"],
    ["...",":","..."],
    ["Property","NNP","property"],
    ["search","NN","search"],
    {
      "tag":"PERSON",
      "content":
      [
        ["Buy","NNP","buy"],
        ["Rent","NNP","rent"]
      ]
    },
    ["NEW","NNP","new"],
    ["HOMES","NNP","hom"],
    ["FOR","NNP","for"],
    {
      "tag":"ORGANIZATION",
      "content":
      [
        ["SALE","NNP","sal"]
      ]
    },
    ["Price","NNP","pric"],
    ["range","NN","rang"],
    ["Min","NNP","min"],
    ["price","NN","pric"],
    ["£50,000","-NONE-","£50,000"],
    ["£70,000","-NONE-","£70,000"],
    ["£100,000","-NONE-","£100,000"],
    ["£120,000","-NONE-","£120,000"],
    ["£150,000","-NONE-","£150,000"],
    ["£170,000","-NONE-","£170,000"],
    ["£200,000","-NONE-","£200,000"],
    ["£220,000","-NONE-","£220,000"],
    ["£250,000","-NONE-","£250,000"],
    ["£275,000","-NONE-","£275,000"],
    ["£300,000","-NONE-","£300,000"],
    ["£325,000","-NONE-","£325,000"],
    ["£350,000","-NONE-","£350,000"],
    ["£375,000","-NONE-","£375,000"],
    ["£400,000","-NONE-","£400,000"],
    ["£425,000","-NONE-","£425,000"],
    ["£450,000","-NONE-","£450,000"],
    ["£475,000","-NONE-","£475,000"],
    ["£500,000","-NONE-","£500,000"],
    ["£550,000","-NONE-","£550,000"],
    ["£600,000","-NONE-","£600,000"],
    ["£650,000","-NONE-","£650,000"],
    ["£700,000","-NONE-","£700,000"],
    ["£750,000","-NONE-","£750,000"],
    ["£800,000","-NONE-","£800,000"],
    ["£900,000","-NONE-","£900,000"],
    ["£1,000,000","-NONE-","£1,000,000"],
    ["£1,100,000","-NONE-","£1,100,000"],
    ["£1,200,000","-NONE-","£1,200,000"],
    ["£1,300,000","-NONE-","£1,300,000"],
    ["£1,400,000","-NONE-","£1,400,000"],
    ["£1,500,000","-NONE-","£1,500,000"],
    ["£2,000,000","-NONE-","£2,000,000"],
    ["£3,000,000","-NONE-","£3,000,000"],
    ["£4,000,000","-NONE-","£4,000,000"],
    ["£5,000,000","-NONE-","£5,000,000"],
    ["£10,000,000","-NONE-","£10,000,000"],
    ["to","TO","to"],
    {
      "tag":"GPE",
      "content":
      [
        ["Max","NNP","max"]
      ]
    },
    ["price","NN","pric"],
    ["£50,000","-NONE-","£50,000"],
    ["£70,000","-NONE-","£70,000"],
    ["£100,000","-NONE-","£100,000"],
    ["£120,000","-NONE-","£120,000"],
    ["£150,000","-NONE-","£150,000"],
    ["£170,000","-NONE-","£170,000"],
    ["£200,000","-NONE-","£200,000"],
    ["£220,000","-NONE-","£220,000"],
    ["£250,000","-NONE-","£250,000"],
    ["£275,000","-NONE-","£275,000"],
    ["£300,000","-NONE-","£300,000"],
    ["£325,000","-NONE-","£325,000"],
    ["£350,000","-NONE-","£350,000"],
    ["£375,000","-NONE-","£375,000"],
    ["£400,000","-NONE-","£400,000"],
    ["£425,000","-NONE-","£425,000"],
    ["£450,000","-NONE-","£450,000"],
    ["£475,000","-NONE-","£475,000"],
    ["£500,000","-NONE-","£500,000"]
  ]
}]