[
{
  "tag":"S",
  "content":
  [
    {
      "tag":"GPE",
      "content":
      [
        ["Call","NNP","cal"]
      ]
    },
    ["for","IN","for"],
    {
      "tag":"ORGANIZATION",
      "content":
      [
        ["Feature","NNP","feat"],
        ["Essays","NNPS","essay"],
        ["About","NNP","about"]
      ]
    },
    ["Any","NNP","any"],
    ["Aspect","NNP","aspect"],
    ["of","IN","of"],
    {
      "tag":"PERSON",
      "content":
      [
        ["Popular","NNP","popul"],
        ["Culture","NNP","cult"]
      ]
    },
    [",",",",","],
    ["Present","NNP","pres"],
    ["or","CC","or"],
    {
      "tag":"PERSON",
      "content":
      [
        ["Past","NNP","past"]
      ]
    },
    ["About|Submissions|Advertising|Staff||||","NNP","about|submissions|advertising|staff||||"],
    {
      "tag":"PERSON",
      "content":
      [
        ["Features","NNP","feat"]
      ]
    },
    ["HomeSpecial","NNP","homespec"],
    ["SectionsMusicFilmTelevisionDVDsBooksComicsMultimediaEventsCultureColumns","NNP","sectionsmusicfilmtelevisiondvdsbookscomicsmultimediaeventsculturecolumn"],
    ["HomeMusicFilmTelevisionDVDsBooksComicsMultimediaEventsCultureBlogs","NNP","homemusicfilmtelevisiondvdsbookscomicsmultimediaeventscultureblog"],
    ["HomeMixed","NNP","homemix"],
    ["MediaMoving","NNP","mediamov"],
    ["PixelsSound","NNP","pixelssound"],
    {
      "tag":"ORGANIZATION",
      "content":
      [
        ["AffectsShort","NNP","affectsshort"],
        ["Ends","NNPS","end"]
      ]
    },
    ["and","CC","and"],
    {
      "tag":"ORGANIZATION",
      "content":
      [
        ["LeaderStatuesqueNotes","NNP","leaderstatuesquenot"]
      ]
    },
    ["from","IN","from"],
    ["the","DT","the"],
    {
      "tag":"ORGANIZATION",
      "content":
      [
        ["RoadChannel","NNP","roadchannel"]
      ]
    },
    ["SurfingGraphic","NNP","surfinggraph"],
    ["NoveltiesRe","NNP","noveltiesr"],
    [":",":",":"],
    ["PrintAnnouncementsCurious","JJ","printannouncementscury"],
    {
      "tag":"ORGANIZATION",
      "content":
      [
        ["OmnivoreGlobal","NNP","omnivoreglob"]
      ]
    },
    ["GraffitiMusic","NNP","graffitimus"],
    ["HomeFeaturesColumnsReviewsCapsule","NNP","homefeaturescolumnsreviewscaps"],
    ["ReviewsFilm","NNP","reviewsfilm"],
    ["HomeFeaturesColumnsReviewsTelevision","NNP","homefeaturescolumnsreviewstelevid"],
    ["HomeFeaturesColumnsReviewsDVDs","NNP","homefeaturescolumnsreviewsdvd"],
    ["HomeFeaturesColumnsReviewsBooks","NNP","homefeaturescolumnsreviewsbook"],
    ["HomeFeaturesColumnsReviewsComics","NNP","homefeaturescolumnsreviewscom"],
    ["HomeFeaturesColumnsReviewsMultimedia","NNP","homefeaturescolumnsreviewsmultimed"],
    ["HomeFeaturesColumnsReviewsEvents","NNP","homefeaturescolumnsreviewsev"],
    ["HomeFeaturesColumnsReviews","NNP","homefeaturescolumnsreview"],
    {
      "tag":"PERSON",
      "content":
      [
        ["Music","NNP","mus"],
        ["Home","NNP","hom"]
      ]
    },
    [">","NNP",">"],
    {
      "tag":"PERSON",
      "content":
      [
        ["Music","NNP","mus"]
      ]
    },
    [">","NNP",">"],
    {
      "tag":"PERSON",
      "content":
      [
        ["Jasmine","NNP","jasmin"],
        ["Ash","NNP","ash"],
        ["Jasmine","NNP","jasmin"]
      ]
    },
    ["AshBeneath","NNP","ashbenea"],
    ["the","DT","the"],
    {
      "tag":"ORGANIZATION",
      "content":
      [
        ["Noise","NNP","nois"]
      ]
    },
    ["(","NNP","("],
    {
      "tag":"ORGANIZATION",
      "content":
      [
        ["Lip","NNP","lip"],
        ["Sync","NNP","synt"]
      ]
    },
    [";",":",";"],
    {
      "tag":"GPE",
      "content":
      [
        ["US","NNP","us"]
      ]
    },
    [":",":",":"],
    ["14","CD","14"],
    ["Feb","NNP","feb"],
    ["2012","CD","2012"],
    [";",":",";"],
    ["UK","NNP","uk"],
    [":",":",":"],
    {
      "tag":"GPE",
      "content":
      [
        ["Import","NNP","import"]
      ]
    },
    [")",":",")"],
    {
      "tag":"PERSON",
      "content":
      [
        ["Amazon","NNP","amazon"],
        ["iTunes","NNP","itun"],
        ["Tweet","NNP","tweet"],
        ["Discuss","NNP","discuss"],
        ["Text","NNP","text"]
      ]
    },
    [":",":",":"],
    {
      "tag":"ORGANIZATION",
      "content":
      [
        ["AAA","NNP","aa"],
        ["Jasmine","NNP","jasmin"]
      ]
    },
    ["Ash","NNP","ash"],
    [":",":",":"],
    ["Beneath","NNP","benea"],
    ["the","DT","the"],
    {
      "tag":"ORGANIZATION",
      "content":
      [
        ["Noise","NNP","nois"]
      ]
    },
    ["By","NNP","by"],
    {
      "tag":"PERSON",
      "content":
      [
        ["David","NNP","david"],
        ["Maine","NNP","main"]
      ]
    },
    ["14","CD","14"],
    ["March","NNP","march"],
    ["2012","CD","2012"],
    ["Would-be","JJ","would-be"],
    ["pop","NN","pop"],
    ["superstar","NN","superst"],
    ["cobbles","NNS","cobbl"],
    ["together","RB","togeth"],
    ["her","PRP","her"],
    ["influences","NNS","influ"],
    ["Sometimes","RB","sometim"],
    [",",",",","],
    ["all","DT","all"],
    ["we","PRP","we"],
    ["ask","VBP","ask"],
    ["of","IN","of"],
    ["our","PRP$","our"],
    ["pop","NN","pop"],
    ["chanteuses","NNS","chanteus"],
    ["is","VBZ","be"],
    ["a","DT","a"],
    ["bit","NN","bit"],
    ["of","IN","of"],
    ["competence—a","NNP","competence—a"],
    ["pretty","RB","pretty"],
    ["voice","NN","voic"],
    [",",",",","],
    ["a","DT","a"],
    ["clear","JJ","clear"],
    ["melody","NN","melody"],
    [",",",",","],
    ["some","DT","some"],
    ["decent","NN","dec"],
    ["production","NN","produc"],
    [".",".","."]
  ]
},
{
  "tag":"S",
  "content":
  [
    ["In","IN","In"],
    ["all","DT","all"],
    ["of","IN","of"],
    ["these","DT","these"],
    ["ways","NNS","way"],
    [",",",",","],
    {
      "tag":"PERSON",
      "content":
      [
        ["Jasmine","NNP","jasmin"],
        ["Ash","NNP","ash"]
      ]
    },
    ["delivers","NNS","del"],
    ["the","DT","the"],
    ["goods","NNS","good"],
    [".",".","."]
  ]
},
{
  "tag":"S",
  "content":
  [
    ["The","DT","The"],
    ["opening","VBG","op"],
    ["burble","JJ","burbl"],
    ["of","IN","of"],
    ["lead","NN","lead"],
    ["track","NN","track"],
    ["“Cut","NN","“cut"],
    ["Up”","NN","up”"],
    ["segues","NNS","segu"],
    ["nicely","RB","nic"],
    ["into","IN","into"],
    ["an","DT","an"],
    ["uptempo","NN","uptempo"],
    [",",",",","],
    {
      "tag":"PERSON",
      "content":
      [
        ["Alanis","NNP","al"]
      ]
    },
    ["Morissette-ish","JJ","morissette-ish"],
    ["almost","RB","almost"],
    ["rocker","NN","rock"],
    [",",",",","],
    ["not","RB","not"],
    ["too","RB","too"],
    ["far","RB","far"],
    ["removed","VBN","remov"],
    ["from","IN","from"],
    ["“You","NNP","“you"],
    {
      "tag":"PERSON",
      "content":
      [
        ["Oughta","NNP","ought"]
      ]
    },
    ["Know”","NNP","know”"],
    ["in","IN","in"],
    ["every","DT","every"],
    ["regard","NN","regard"],
    ["apart","NN","apart"],
    ["from","IN","from"],
    [",",",",","],
    ["y’know","JJ","y’know"],
    [",",",",","],
    ["rage","NN","rag"],
    [".",".","."]
  ]
},
{
  "tag":"S",
  "content":
  [
    ["Subsequent","NNP","subsequ"],
    ["tunes","NNS","tun"],
    ["channel","VBP","channel"],
    ["everything","VBG","everyth"],
    ["from","IN","from"],
    {
      "tag":"PERSON",
      "content":
      [
        ["Tori","NNP","tor"],
        ["Amos","NNP","amo"]
      ]
    },
    ["warblings","NNS","warbl"],
    ["to","TO","to"],
    ["‘80s","CD","‘80s"],
    ["synthpop","NN","synthpop"],
    ["to","TO","to"],
    ["The","DT","The"],
    {
      "tag":"ORGANIZATION",
      "content":
      [
        ["Innocence","NNP","innoc"],
        ["Mission","NNP","miss"]
      ]
    },
    ["to","TO","to"],
    ["Motown-era","NNP","motown-era"],
    ["Jackson","NNP","jackson"],
    ["5","CD","5"],
    [",",",",","],
    ["with","IN","with"],
    ["the","DT","the"],
    ["standout","NN","standout"],
    ["track","NN","track"],
    ["probably","RB","prob"],
    ["being","VBG","be"],
    ["the","DT","the"],
    ["take-no-prisoners","NNS","take-no-prisoners"],
    ["dancefloor","NN","danceflo"],
    ["stomp","NN","stomp"],
    ["of","IN","of"],
    ["“Move","JJ","“move"],
    ["On.”","NN","on.”"],
    ["Ash’s","NNS","ash’s"],
    ["little-girl","JJ","little-girl"],
    ["voice","NN","voic"],
    ["isn’t","NN","isn’t"],
    ["particularly","RB","particul"],
    ["powerful","JJ","pow"],
    [",",",",","],
    ["but","CC","but"],
    ["she","PRP","she"],
    ["can","MD","can"],
    ["carry","VB","carry"],
    ["a","DT","a"],
    ["tune","NN","tun"],
    [",",",",","],
    ["while","IN","while"],
    ["the","DT","the"],
    ["production","NN","produc"],
    ["(",":","("],
    ["by","IN","by"],
    {
      "tag":"PERSON",
      "content":
      [
        ["Jacques","NNPS","jacqu"],
        ["Brautbar","NNP","brautb"]
      ]
    },
    ["and","CC","and"],
    {
      "tag":"PERSON",
      "content":
      [
        ["Sam","NNP","sam"],
        ["Farrar","NNP","farr"]
      ]
    },
    [")","NNP",")"],
    ["is","VBZ","be"],
    ["slick","NN","slick"],
    ["and","CC","and"],
    ["lively","RB","liv"],
    [".",".","."]
  ]
},
{
  "tag":"S",
  "content":
  [
    ["Depending","VBG","depend"],
    ["on","IN","on"],
    ["the","DT","the"],
    ["listener","NN","list"],
    [",",",",","],
    ["a","DT","a"],
    ["record","NN","record"],
    ["like","IN","like"],
    ["this","DT","this"],
    ["is","VBZ","be"],
    ["either","DT","either"],
    ["derivative","JJ","der"],
    ["and","CC","and"],
    ["dull","JJ","dul"],
    [",",",",","],
    ["or","CC","or"],
    ["else","RB","els"],
    ["a","DT","a"],
    ["clever","NN","clev"],
    ["synthesis","NN","synthes"],
    ["of","IN","of"],
    ["myriad","JJ","myriad"],
    ["influences","NNS","influ"],
    [".",".","."]
  ]
},
{
  "tag":"S",
  "content":
  [
    {
      "tag":"GPE",
      "content":
      [
        ["Myself","PRP","Myself"]
      ]
    },
    [",",",",","],
    ["I’m","JJ","i’m"],
    ["leaning","NN","lean"],
    ["toward","IN","toward"],
    ["derivative","JJ","der"],
    [".",".","."]
  ]
},
{
  "tag":"S",
  "content":
  [
    ["It’s","NNS","it’s"],
    ["pretty","RB","pretty"],
    ["enough","RB","enough"],
    [",",",",","],
    ["sure","JJ","sur"],
    [",",",",","],
    ["but","CC","but"],
    ["it","PRP","it"],
    ["all","DT","all"],
    ["sounds","NNS","sound"],
    ["eerily","RB","eery"],
    ["familiar","JJ","famili"],
    [".",".","."]
  ]
},
{
  "tag":"S",
  "content":
  [
    ["Rating","VBG","rat"],
    [":",":",":"],
    {
      "tag":"PERSON",
      "content":
      [
        ["Album","NNP","alb"]
      ]
    },
    ["preview","NN","preview"],
    {
      "tag":"PERSON",
      "content":
      [
        ["Artist","NNP","art"]
      ]
    },
    ["site","NN","sit"],
    {
      "tag":"PERSON",
      "content":
      [
        ["DAVID","NNP","david"],
        ["MAINE","NNP","main"]
      ]
    },
    ["is","VBZ","be"],
    ["a","DT","a"],
    ["novelist","NN","novel"],
    ["and","CC","and"],
    ["essayist","NN","essay"],
    [".",".","."]
  ]
},
{
  "tag":"S",
  "content":
  [
    ["His","PRP$","His"],
    ["books","NNS","book"],
    ["include","VBP","includ"],
    ["The","DT","The"],
    ["Preservationist","NNP","preserv"],
    ["(","NNP","("],
    ["2004","CD","2004"],
    [")","CD",")"],
    [",",",",","],
    {
      "tag":"GPE",
      "content":
      [
        ["Fallen","NNP","fal"]
      ]
    },
    ["(","NNP","("],
    ["2005","CD","2005"],
    [")","CD",")"],
    [",",",",","],
    ["The","DT","The"],
    {
      "tag":"ORGANIZATION",
      "content":
      [
        ["Book","NNP","book"]
      ]
    },
    ["of","IN","of"],
    {
      "tag":"GPE",
      "content":
      [
        ["Samson","NNP","samson"]
      ]
    },
    ["(","NNP","("],
    ["2006","CD","2006"],
    [")","CD",")"],
    [",",",",","],
    {
      "tag":"PERSON",
      "content":
      [
        ["Monster","NNP","monst"]
      ]
    },
    [",",",",","],
    ["1959","CD","1959"],
    ["(",":","("],
    ["2008","CD","2008"],
    [")","CD",")"],
    ["and","CC","and"],
    ["An","DT","An"],
    ["Age","NNP","ag"],
    ["of","IN","of"],
    {
      "tag":"GPE",
      "content":
      [
        ["Madness","NNP","mad"]
      ]
    },
    ["(","NNP","("],
    ["2012","CD","2012"],
    [")","CD",")"],
    [".",".","."]
  ]
},
{
  "tag":"S",
  "content":
  [
    ["He","PRP","He"],
    ["has","VBZ","hav"],
    ["contributed","VBN","contribut"],
    ["to","TO","to"],
    ["The","DT","The"],
    {
      "tag":"ORGANIZATION",
      "content":
      [
        ["Washington","NNP","washington"],
        ["Post","NNP","post"]
      ]
    },
    [",",",",","],
    {
      "tag":"ORGANIZATION",
      "content":
      [
        ["Publishers","NNP","publ"],
        ["Weekly","NNP","week"]
      ]
    },
    [",",",",","],
    ["Esquire.com","NNP","esquire.com"],
    ["and","CC","and"],
    ["NPR.com","NNP","npr.com"],
    [",",",",","],
    ["among","IN","among"],
    ["other","JJ","oth"],
    ["outlets","NNS","outlet"],
    [".",".","."]
  ]
},
{
  "tag":"S",
  "content":
  [
    ["He","PRP","He"],
    ["is","VBZ","be"],
    ["a","DT","a"],
    ["lifelong","JJ","lifelong"],
    ["music","NN","mus"],
    ["obsessive","JJ","obsess"],
    ["whose","WP$","whose"],
    ["interests","NNS","interest"],
    ["range","VBP","rang"],
    ["from","IN","from"],
    ["rock","NN","rock"],
    ["to","TO","to"],
    ["folk","VB","folk"],
    ["to","TO","to"],
    ["hip-hop","VB","hip-hop"],
    ["to","TO","to"],
    ["international","JJ","intern"],
    ["to","TO","to"],
    ["blues","NNS","blu"],
    [".",".","."]
  ]
},
{
  "tag":"S",
  "content":
  [
    ["He","PRP","He"],
    ["currently","RB","cur"],
    ["lives","VBZ","liv"],
    ["in","IN","in"],
    ["western","JJ","western"],
    ["Massachusetts","NNS","massachuset"],
    [",",",",","],
    ["where","WRB","where"],
    ["he","PRP","he"],
    ["works","VBZ","work"],
    ["in","IN","in"],
    ["human","JJ","hum"],
    ["services","NNS","serv"],
    [".",".","."]
  ]
},
{
  "tag":"S",
  "content":
  [
    {
      "tag":"GPE",
      "content":
      [
        ["Catch","NN","catch"]
      ]
    },
    ["up","IN","up"],
    ["with","IN","with"],
    ["his","PRP$","his"],
    ["blog","NN","blog"],
    [",",",",","],
    {
      "tag":"ORGANIZATION",
      "content":
      [
        ["The","NNP","the"],
        ["Party","NNP","party"]
      ]
    },
    ["Never","NNP","nev"],
    ["Stops","NNP","stop"],
    [",",",",","],
    ["at","IN","at"],
    {
      "tag":"ORGANIZATION",
      "content":
      [
        ["davidmaine.blogspot.com","NNP","davidmaine.blogspot.com"]
      ]
    },
    [",",",",","],
    ["or","CC","or"],
    ["become","VB","becom"],
    ["his","PRP$","his"],
    ["buddy","NN","buddy"],
    ["on","IN","on"],
    {
      "tag":"GPE",
      "content":
      [
        ["Facebook","NNP","facebook"]
      ]
    },
    ["(","NNP","("],
    ["or","CC","or"],
    ["Twitter","NNP","twit"],
    ["or","CC","or"],
    ["Google+","NNP","google+"],
    ["or","CC","or"],
    ["whatever","JJR","whatev"],
    ["you","PRP","you"],
    ["prefer","VBP","pref"],
    [")",":",")"],
    ["to","TO","to"],
    ["keep","VB","keep"],
    ["up","RP","up"],
    ["with","IN","with"],
    ["reviews","NNS","review"],
    ["and","CC","and"],
    ["other","JJ","oth"],
    ["developments","NNS","develop"],
    [".",".","."]
  ]
},
{
  "tag":"S",
  "content":
  [
    {
      "tag":"PERSON",
      "content":
      [
        ["Tweet","NNP","tweet"]
      ]
    },
    {
      "tag":"ORGANIZATION",
      "content":
      [
        ["Media","NNP","med"],
        ["Comments","NNP","com"]
      ]
    },
    ["Please","NNP","pleas"],
    ["enable","JJ","en"],
    {
      "tag":"ORGANIZATION",
      "content":
      [
        ["JavaScript","NNP","javascrib"]
      ]
    },
    ["to","TO","to"],
    ["view","VB","view"],
    ["the","DT","the"],
    ["comments","NNS","com"],
    ["powered","VBD","pow"],
    ["by","IN","by"],
    {
      "tag":"PERSON",
      "content":
      [
        ["Disqus","NNP","disq"]
      ]
    },
    [".",".","."]
  ]
},
{
  "tag":"S",
  "content":
  [
    ["Now","RB","now"],
    ["on","IN","on"],
    {
      "tag":"ORGANIZATION",
      "content":
      [
        ["PopMatters","NNS","popmat"]
      ]
    },
    {
      "tag":"ORGANIZATION",
      "content":
      [
        ["FeaturesJames","NNP","featuresjam"],
        ["Bond","NNP","bond"]
      ]
    },
    ["and","CC","and"],
    {
      "tag":"PERSON",
      "content":
      [
        ["Batman","NNP","batm"],
        ["Walk","NNP","walk"]
      ]
    },
    ["Into","NNP","into"],
    ["a","DT","a"],
    ["Dimly","NNP","dim"],
    ["Lit","NNP","lit"],
    ["Bar","NNP","bar"],
    [":",":",":"],
    ["The","DT","The"],
    {
      "tag":"ORGANIZATION",
      "content":
      [
        ["Camera","NNP","camer"],
        ["Rolls","NNP","rol"]
      ]
    },
    ["ColumnsMoving","NNP","columnsmov"],
    ["Pixels","NNP","pixel"],
    [":",":",":"],
    ["'Grand","JJ","'grand"],
    ["Theft","NNP","theft"],
    ["Auto","NNP","auto"],
    ["'","POS","'"],
    [":",":",":"],
    ["The","DT","The"],
    ["Game","NNP","gam"],
    ["with","IN","with"],
    {
      "tag":"PERSON",
      "content":
      [
        ["Plenty","NNP","plenty"]
      ]
    },
    ["to","TO","to"],
    {
      "tag":"PERSON",
      "content":
      [
        ["Say","NNP","say"],
        ["BlogsNotes","NNP","blogsnot"]
      ]
    },
    ["from","IN","from"],
    ["the","DT","the"],
    ["Road","NNP","road"],
    [":",":",":"],
    ["CMJ","NNP","cmj"],
    ["2013","CD","2013"],
    ["Night","NNP","night"],
    ["1","CD","1"],
    [":",":",":"],
    ["New","NNP","new"],
    ["Zealand","NNP","zealand"],
    ["+","NNP","+"],
    {
      "tag":"PERSON",
      "content":
      [
        ["Iceland","NNP","iceland"],
        ["Airwaves","NNP","airwav"],
        ["Showcases","NNP","showcas"],
        ["Short","NNP","short"]
      ]
    },
    ["Ends","NNPS","end"],
    ["and","CC","and"],
    {
      "tag":"PERSON",
      "content":
      [
        ["Leader","NNP","lead"]
      ]
    },
    [":",":",":"],
    ["Selling","NNP","sel"],
    ["the","DT","the"],
    ["(","NNP","("],
    ["Nightmare","NNP","nightm"],
    [")","NNP",")"],
    ["Dream","NNP","dream"],
    [":",":",":"],
    ["'Escape","JJ","'escape"],
    ["from","IN","from"],
    ["Tomorrow'","NNP","tomorrow'"],
    ["Graphic","NNP","graph"],
    ["Novelties","NNPS","novel"],
    [":",":",":"],
    ["The","DT","The"],
    {
      "tag":"FACILITY",
      "content":
      [
        ["Captain","NNP","captain"],
        ["America","NNP","americ"]
      ]
    },
    ["That","NNP","that"],
    ["Wasn't…","NNP","wasn't…"],
    ["Sound","NNP","sound"],
    ["Affects","NNP","affect"],
    [":",":",":"],
    ["The","DT","The"],
    ["Top","NNP","top"],
    ["8","CD","8"],
    ["``","``","``"],
    ["Next","JJ","next"],
    ["Nirvanas","NNP","nirvana"],
    ["''","''","''"],
    ["Moving","NNP","mov"],
    ["Pixels","NNP","pixel"],
    [":",":",":"],
    {
      "tag":"PERSON",
      "content":
      [
        ["Sodomy","NNP","sodom"]
      ]
    },
    ["and","CC","and"],
    ["the","DT","the"],
    {
      "tag":"ORGANIZATION",
      "content":
      [
        ["Prison","NNP","prison"]
      ]
    },
    ["of","IN","of"],
    {
      "tag":"ORGANIZATION",
      "content":
      [
        ["Multiplayer","NNP","multiplay"]
      ]
    },
    ["Gaming","NNP","gam"],
    ["More","NNP","mor"],
    ["Music","NNP","mus"],
    ["The","NNP","the"],
    ["Dismemberment","NNP","dismemb"],
    ["Plan","NNP","plan"],
    [":",":",":"],
    {
      "tag":"PERSON",
      "content":
      [
        ["Uncanney","NNP","uncanney"],
        ["Valley","NNP","valley"],
        ["Glasser","NNP","glass"]
      ]
    },
    [":",":",":"],
    ["Interiors","NNS","intery"],
    ["The","DT","The"],
    ["Body","NNP","body"],
    [":",":",":"],
    ["Christs","NNS","christs"],
    [",",",",","],
    {
      "tag":"ORGANIZATION",
      "content":
      [
        ["Redeemers","NNP","redeem"],
        ["Trombone","NNP","trombon"]
      ]
    },
    ["Shorty","NNP","shorty"],
    [":",":",":"],
    ["Say","NNP","say"],
    ["This","DT","This"],
    ["to","TO","to"],
    {
      "tag":"PERSON",
      "content":
      [
        ["Say","NNP","say"],
        ["That","NNP","that"],
        ["Krewella","NNP","krewell"]
      ]
    },
    [":",":",":"],
    {
      "tag":"PERSON",
      "content":
      [
        ["Get","NNP","get"],
        ["Wet","NNP","wet"],
        ["Demon","NNP","demon"],
        ["Queen","NNP","queen"]
      ]
    },
    [":",":",":"],
    {
      "tag":"PERSON",
      "content":
      [
        ["Exorcise","NNP","exorc"],
        ["Tape","NNP","tap"],
        ["Midnight","NNP","midnight"],
        ["Juggernauts","NNP","juggernaut"]
      ]
    },
    [":",":",":"],
    {
      "tag":"PERSON",
      "content":
      [
        ["Uncanny","NNP","uncanny"],
        ["Valley","NNP","valley"]
      ]
    },
    ["DVDs","NNP","dvds"],
    ["Latino","NNP","latino"],
    ["Americans","NNPS","am"],
    ["'The","NNP","'the"],
    ["Secret","NNP","secret"],
    ["of","IN","of"],
    {
      "tag":"PERSON",
      "content":
      [
        ["Crickley","NNP","crickley"],
        ["Hall","NNP","hal"]
      ]
    },
    ["'","POS","'"],
    ["Is","NNP","is"],
    ["Strong","NNP","strong"],
    ["in","IN","in"],
    {
      "tag":"GPE",
      "content":
      [
        ["Atmospherics","NNP","atmosph"]
      ]
    },
    [",",",",","],
    {
      "tag":"PERSON",
      "content":
      [
        ["Not","NNP","not"],
        ["So","NNP","so"],
        ["Much","NNP","much"]
      ]
    },
    ["in","IN","in"],
    {
      "tag":"GPE",
      "content":
      [
        ["Narrative","NNP","nar"]
      ]
    },
    ["Books","NNP","book"],
    ["Rounding","NNP","round"],
    ["Up","NNP","up"],
    ["the","DT","the"],
    ["Gang","NNP","gang"],
    [":",":",":"],
    ["'The","DT","'The"],
    ["Left","NNP","left"],
    ["Hemisphere","NNP","hemisph"],
    [":",":",":"],
    ["Mapping","NNP","map"],
    ["Critical","NNP","crit"],
    ["Theory","NNP","the"],
    ["Today'","NNP","today'"],
    ["'Seeing","NNP","'seeing"],
    ["the","DT","the"],
    {
      "tag":"ORGANIZATION",
      "content":
      [
        ["Bigger","NNP","big"],
        ["Picture","NNP","pict"]
      ]
    },
    ["'","POS","'"],
    {
      "tag":"PERSON",
      "content":
      [
        ["Beautifully","NNP","beauty"],
        ["Illuminates","NNP","illumin"]
      ]
    },
    [",",",",","],
    ["but","CC","but"],
    {
      "tag":"PERSON",
      "content":
      [
        ["Fails","NNP","fail"]
      ]
    },
    ["to","TO","to"],
    {
      "tag":"PERSON",
      "content":
      [
        ["Make","NNP","mak"],
        ["Connections","NNP","connect"]
      ]
    }
  ]
}]