[
{
  "tag":"S",
  "content":
  [
    ["My","PRP$","My"],
    ["account","NN","account"],
    {
      "tag":"PERSON",
      "content":
      [
        ["Change","NNP","chang"],
        ["My","NNP","my"],
        ["Password","NNP","password"],
        ["Logout","NNP","logout"],
        ["Search","NNP","search"],
        ["Autos","NNP","auto"],
        ["Homes","NNP","hom"],
        ["Careers","NNP","car"],
        ["Classified","NNP","class"]
      ]
    },
    ["Obituaries","NNPS","obitu"],
    {
      "tag":"ORGANIZATION",
      "content":
      [
        ["Sun","NNP","sun"],
        ["Media","NNP","med"]
      ]
    },
    ["Wednesday","NNP","wednesday"],
    [",",",",","],
    ["October","NNP","octob"],
    ["16","CD","16"],
    [",",",",","],
    ["2013","CD","2013"],
    ["High","NNP","high"],
    ["River","NNP","riv"],
    [",",",",","],
    ["AB","NNP","ab"],
    ["7°","CD","7°"],
    {
      "tag":"GPE",
      "content":
      [
        ["Partly","NNP","part"]
      ]
    },
    ["cloudy","NN","cloudy"],
    ["Sponsored","NNP","spons"],
    ["by","IN","by"],
    [":",":",":"],
    ["GM","NNP","gm"],
    ["Mechanical","NNP","mech"],
    ["Home","NNP","hom"],
    ["News","NNP","new"],
    ["Sports","NNP","sport"],
    ["Entertainment","NNP","entertain"],
    ["Life","NNP","lif"],
    ["Money","NNP","money"],
    ["Opinion","NNP","opin"],
    ["UR","NNP","ur"],
    ["Marketplace","NNP","marketplac"],
    {
      "tag":"PERSON",
      "content":
      [
        ["Photos","NNP","photo"],
        ["Videos","NNP","video"],
        ["Polls","NNP","pol"],
        ["Weather","NNP","weath"],
        ["Events","NNP","ev"],
        ["More","NNP","mor"],
        ["Local","NNP","loc"],
        ["Provincial","NNP","provint"],
        ["Canada","NNP","canad"]
      ]
    },
    ["World","NNP","world"],
    ["News","NNP","new"],
    ["Local","NNP","loc"],
    {
      "tag":"PERSON",
      "content":
      [
        ["Wales","NNP","wal"],
        ["Theatre","NNP","the"]
      ]
    },
    ["showcasing","NN","showcas"],
    ["local","JJ","loc"],
    ["talent","NN","tal"],
    ["0","-NONE-","0"],
    {
      "tag":"PERSON",
      "content":
      [
        ["Craig","NNP","craig"],
        ["Baird","NNP","baird"]
      ]
    },
    [",",",",","],
    {
      "tag":"ORGANIZATION",
      "content":
      [
        ["EDITOR","NNP","edit"]
      ]
    },
    ["Tuesday","NNP","tuesday"],
    [",",",",","],
    ["March","NNP","march"],
    ["27","CD","27"],
    [",",",",","],
    ["2012","CD","2012"],
    ["11:57:15","CD","11:57:15"],
    {
      "tag":"ORGANIZATION",
      "content":
      [
        ["MDT","NNP","mdt"]
      ]
    },
    ["AM","NNP","am"],
    ["Tweet","NNP","tweet"],
    ["Change","NNP","chang"],
    ["text","NN","text"],
    ["size","NN","siz"],
    ["for","IN","for"],
    ["the","DT","the"],
    ["story","NN","story"],
    ["Print","NNP","print"],
    ["Report","NNP","report"],
    ["an","DT","an"],
    ["error","NN","er"],
    ["While","IN","While"],
    ["we","PRP","we"],
    ["all","DT","all"],
    ["enjoy","NN","enjoy"],
    ["going","VBG","go"],
    ["to","TO","to"],
    ["the","DT","the"],
    {
      "tag":"FACILITY",
      "content":
      [
        ["Wales","NNP","wal"],
        ["Theatre","NNP","the"]
      ]
    },
    ["to","TO","to"],
    ["see","VB","see"],
    ["big","JJ","big"],
    ["budget","NN","budget"],
    ["movies","NNS","movy"],
    ["with","IN","with"],
    ["famous","JJ","fam"],
    ["actors","NNS","act"],
    ["and","CC","and"],
    ["actresses","NNS","actress"],
    ["portraying","VBG","portray"],
    ["characters","NNS","charact"],
    ["we","PRP","we"],
    ["love","VBP","lov"],
    [",",",",","],
    ["there","EX","there"],
    ["is","VBZ","be"],
    ["something","NN","someth"],
    ["about","IN","about"],
    ["seeing","VBG","see"],
    ["homegrown","NN","homegrown"],
    ["talent","NN","tal"],
    ["on","IN","on"],
    ["the","DT","the"],
    ["big","JJ","big"],
    ["screen","NN","screen"],
    [".",".","."]
  ]
},
{
  "tag":"S",
  "content":
  [
    ["Thankfully","RB","thank"],
    [",",",",","],
    {
      "tag":"PERSON",
      "content":
      [
        ["High","NNP","high"],
        ["River","NNP","riv"]
      ]
    },
    ["and","CC","and"],
    ["the","DT","the"],
    ["surrounding","NN","surround"],
    ["area","NN","are"],
    ["is","VBZ","be"],
    ["blessed","VBN","bless"],
    ["with","IN","with"],
    ["two","CD","two"],
    ["up-and-coming","JJ","up-and-coming"],
    ["filmmakers","NNS","filmmak"],
    ["who","WP","who"],
    ["are","VBP","be"],
    ["quickly","RB","quick"],
    ["making","VBG","mak"],
    ["a","DT","a"],
    ["name","NN","nam"],
    ["for","IN","for"],
    ["themselves","PRP","themselves"],
    ["in","IN","in"],
    ["the","DT","the"],
    ["local","JJ","loc"],
    ["film","NN","film"],
    ["industry","NN","industry"],
    [".",".","."]
  ]
},
{
  "tag":"S",
  "content":
  [
    {
      "tag":"PERSON",
      "content":
      [
        ["Zoe","NNP","zoe"]
      ]
    },
    {
      "tag":"ORGANIZATION",
      "content":
      [
        ["Slusar","NNP","slus"]
      ]
    },
    ["and","CC","and"],
    {
      "tag":"PERSON",
      "content":
      [
        ["Bailey","NNP","bailey"],
        ["Kerluke","NNP","kerluk"]
      ]
    },
    [",",",",","],
    ["founders","NNS","found"],
    ["of","IN","of"],
    {
      "tag":"ORGANIZATION",
      "content":
      [
        ["Untitled","NNP","untitl"],
        ["Productions","NNPS","produc"]
      ]
    },
    [",",",",","],
    ["will","MD","will"],
    ["be","VB","be"],
    ["showcasing","VBG","showcas"],
    ["several","JJ","sev"],
    ["of","IN","of"],
    ["their","PRP$","their"],
    ["award-winning","JJ","award-winning"],
    ["short","NN","short"],
    ["films","NNS","film"],
    ["at","IN","at"],
    ["the","DT","the"],
    {
      "tag":"FACILITY",
      "content":
      [
        ["Wales","NNP","wal"],
        ["Theatre","NNP","the"]
      ]
    },
    ["prior","RB","pri"],
    ["to","TO","to"],
    ["the","DT","the"],
    {
      "tag":"ORGANIZATION",
      "content":
      [
        ["Foothills","NNP","foothil"],
        ["Films","NNP","film"]
      ]
    },
    ["presentation","NN","pres"],
    ["of","IN","of"],
    {
      "tag":"GPE",
      "content":
      [
        ["Carnage","NNP","carn"]
      ]
    },
    ["on","IN","on"],
    ["Thursday","NNP","thursday"],
    ["beginning","NN","begin"],
    ["at","IN","at"],
    ["5:20","CD","5:20"],
    ["p.m.The","NNP","p.m.the"],
    ["road","NN","road"],
    ["to","TO","to"],
    ["the","DT","the"],
    {
      "tag":"FACILITY",
      "content":
      [
        ["Wales","NNP","wal"],
        ["Theatre","NNP","the"]
      ]
    },
    ["began","VBD","begin"],
    ["six","CD","six"],
    ["years","NNS","year"],
    ["ago","RB","ago"],
    ["for","IN","for"],
    {
      "tag":"PERSON",
      "content":
      [
        ["Slusar","NNP","slus"]
      ]
    },
    ["and","CC","and"],
    {
      "tag":"PERSON",
      "content":
      [
        ["Kerluke","NNP","kerluk"]
      ]
    },
    ["when","WRB","when"],
    ["they","PRP","they"],
    ["created","VBD","cre"],
    {
      "tag":"ORGANIZATION",
      "content":
      [
        ["Untitled","NNP","untitl"],
        ["Productions","NNPS","produc"]
      ]
    },
    ["and","CC","and"],
    ["began","VBD","begin"],
    ["to","TO","to"],
    ["make","VB","mak"],
    ["films","NNS","film"],
    ["together","RB","togeth"],
    [".",".","."]
  ]
},
{
  "tag":"S",
  "content":
  [
    ["``","``","``"],
    ["In","IN","In"],
    ["high","JJ","high"],
    ["school","NN","school"],
    ["we","PRP","we"],
    ["did","VBD","do"],
    ["a","DT","a"],
    ["music","NN","mus"],
    ["video","NN","video"],
    ["together","RB","togeth"],
    [".",".","."]
  ]
},
{
  "tag":"S",
  "content":
  [
    ["I","PRP","I"],
    ["was","VBD","be"],
    ["really","RB","real"],
    ["involved","VBN","involv"],
    ["in","IN","in"],
    ["directing","NN","direct"],
    ["and","CC","and"],
    ["acting","VBG","act"],
    ["and","CC","and"],
    {
      "tag":"PERSON",
      "content":
      [
        ["Bailey","NNP","bailey"]
      ]
    },
    ["is","VBZ","be"],
    ["brilliant","JJ","bril"],
    ["cinematography-wise","NN","cinematography-wise"],
    [".",".","."]
  ]
},
{
  "tag":"S",
  "content":
  [
    ["We","PRP","We"],
    ["realized","VBD","real"],
    ["that","IN","that"],
    ["it","PRP","it"],
    ["was","VBD","be"],
    ["fun","VBN","fun"],
    ["and","CC","and"],
    ["we","PRP","we"],
    ["work","VBP","work"],
    ["well","RB","wel"],
    ["together","RB","togeth"],
    ["and","CC","and"],
    ["we","PRP","we"],
    ["just","RB","just"],
    ["kept","VBD","keep"],
    ["doing","VBG","do"],
    ["it","PRP","it"],
    [",",",",","],
    ["''","''","''"],
    {
      "tag":"PERSON",
      "content":
      [
        ["Slusar","NNP","slus"]
      ]
    },
    ["said","VBD","say"],
    [".",".","."]
  ]
},
{
  "tag":"S",
  "content":
  [
    ["``","``","``"],
    ["It","PRP","It"],
    ["spiraled","VBD","spir"],
    ["and","CC","and"],
    ["we","PRP","we"],
    ["kept","VBD","keep"],
    ["the","DT","the"],
    ["two","CD","two"],
    ["of","IN","of"],
    ["us","PRP","us"],
    ["going","VBG","go"],
    ["because","IN","because"],
    ["we","PRP","we"],
    ["were","VBD","be"],
    ["the","DT","the"],
    ["committed","VBN","commit"],
    ["ones","NNS","on"],
    ["who","WP","who"],
    ["would","MD","would"],
    ["put","VB","put"],
    ["the","DT","the"],
    ["weekends","NNS","weekend"],
    ["in","IN","in"],
    ["and","CC","and"],
    ["keep","VB","keep"],
    ["going","VBG","go"],
    ["once","RB","ont"],
    ["we","PRP","we"],
    ["graduated","VBD","gradu"],
    [".",".","."]
  ]
},
{
  "tag":"S",
  "content":
  [
    ["``","``","``"],
    ["As","IN","As"],
    ["with","IN","with"],
    ["any","DT","any"],
    ["venture","NN","vent"],
    [",",",",","],
    ["one","CD","one"],
    ["of","IN","of"],
    ["the","DT","the"],
    ["most","RBS","most"],
    ["difficult","JJ","difficult"],
    ["and","CC","and"],
    ["important","JJ","import"],
    ["aspects","NNS","aspect"],
    ["of","IN","of"],
    ["starting","VBG","start"],
    ["out","IN","out"],
    ["is","VBZ","be"],
    ["choosing","VBG","choos"],
    ["a","DT","a"],
    ["good","JJ","good"],
    ["name","NN","nam"],
    [".",".","."]
  ]
},
{
  "tag":"S",
  "content":
  [
    ["Something","NN","someth"],
    ["that","IN","that"],
    ["was","VBD","be"],
    ["no","DT","no"],
    ["easy","JJ","easy"],
    ["task","NN","task"],
    ["for","IN","for"],
    ["the","DT","the"],
    ["two","CD","two"],
    ["filmmakers","NNS","filmmak"],
    [".",".","."]
  ]
},
{
  "tag":"S",
  "content":
  [
    ["``","``","``"],
    ["We","PRP","We"],
    ["were","VBD","be"],
    ["throwing","VBG","throw"],
    ["different","JJ","diff"],
    ["names","NNS","nam"],
    ["around","IN","around"],
    [".",".","."]
  ]
},
{
  "tag":"S",
  "content":
  [
    ["It","PRP","It"],
    ["is","VBZ","be"],
    ["hard","RB","hard"],
    ["to","TO","to"],
    ["pick","VB","pick"],
    ["a","DT","a"],
    ["name","NN","nam"],
    ["for","IN","for"],
    ["something","NN","someth"],
    ["especially","RB","espec"],
    ["associated","VBN","assocy"],
    ["with","IN","with"],
    ["films","NNS","film"],
    ["because","IN","because"],
    ["a","DT","a"],
    ["film","NN","film"],
    ["title","NN","titl"],
    ["is","VBZ","be"],
    ["very","RB","very"],
    ["important","JJ","import"],
    [".",".","."]
  ]
},
{
  "tag":"S",
  "content":
  [
    ["We","PRP","We"],
    ["kind","VBP","kind"],
    ["of","IN","of"],
    ["went","NN","went"],
    ["with","IN","with"],
    {
      "tag":"PERSON",
      "content":
      [
        ["Untitled","NNP","untitl"]
      ]
    },
    ["because","IN","because"],
    ["we","PRP","we"],
    ["wanted","VBD","want"],
    ["to","TO","to"],
    ["be","VB","be"],
    ["'untitle-able","JJ","'untitle-able"],
    ["'","''","'"],
    [".",".","."]
  ]
},
{
  "tag":"S",
  "content":
  [
    ["We","PRP","We"],
    ["do","VBP","do"],
    ["not","RB","not"],
    ["want","VB","want"],
    ["to","TO","to"],
    ["be","VB","be"],
    ["defined","VBN","defin"],
    ["by","IN","by"],
    ["the","DT","the"],
    ["company","NN","company"],
    ["name","NN","nam"],
    [",",",",","],
    ["''","''","''"],
    {
      "tag":"PERSON",
      "content":
      [
        ["Slusar","NNP","slus"]
      ]
    },
    ["said","VBD","say"],
    [".",".","."]
  ]
},
{
  "tag":"S",
  "content":
  [
    ["``","``","``"],
    ["Anything","NN","anyth"],
    ["can","MD","can"],
    ["fit","VB","fit"],
    ["in","IN","in"],
    ["that","DT","that"],
    ["box","NN","box"],
    [".",".","."]
  ]
},
{
  "tag":"S",
  "content":
  [
    ["A","DT","A"],
    ["lot","NN","lot"],
    ["of","IN","of"],
    ["the","DT","the"],
    ["stuff","NN","stuff"],
    ["we","PRP","we"],
    ["do","VBP","do"],
    ["is","VBZ","be"],
    ["different","JJ","diff"],
    ["from","IN","from"],
    ["the","DT","the"],
    ["mainstream","NN","mainstream"],
    [",",",",","],
    ["so","RB","so"],
    ["it","PRP","it"],
    ["opens","VBZ","op"],
    ["it","PRP","it"],
    ["up","IN","up"],
    [".",".","."]
  ]
},
{
  "tag":"S",
  "content":
  [
    ["Once","RB","ont"],
    ["we","PRP","we"],
    ["founded","VBD","found"],
    ["the","DT","the"],
    ["company","NN","company"],
    ["with","IN","with"],
    ["that","DT","that"],
    ["name","NN","nam"],
    ["we","PRP","we"],
    ["stuck","VBP","stick"],
    ["with","IN","with"],
    ["it","PRP","it"],
    ["and","CC","and"],
    ["liked","VBD","lik"],
    ["it","PRP","it"],
    [".",".","."]
  ]
},
{
  "tag":"S",
  "content":
  [
    ["``","``","``"],
    ["Over","IN","Over"],
    ["the","DT","the"],
    ["course","NN","cours"],
    ["of","IN","of"],
    ["their","PRP$","their"],
    ["filmmaking","NN","filmmak"],
    ["partnership","NN","partn"],
    [",",",",","],
    {
      "tag":"PERSON",
      "content":
      [
        ["Slusar","NNP","slus"]
      ]
    },
    ["and","CC","and"],
    {
      "tag":"GPE",
      "content":
      [
        ["Kerluke","NNP","kerluk"]
      ]
    },
    ["have","VBP","hav"],
    ["made","VBN","mak"],
    ["about","IN","about"],
    ["40","CD","40"],
    ["films","NNS","film"],
    [",",",",","],
    ["ranging","VBG","rang"],
    ["in","IN","in"],
    ["length","NN","leng"],
    ["from","IN","from"],
    ["one-minute","JJ","one-minut"],
    ["shorts","NNS","short"],
    ["to","TO","to"],
    ["90-minute","JJ","90-minute"],
    ["feature","NN","feat"],
    ["films","NNS","film"],
    [".",".","."]
  ]
},
{
  "tag":"S",
  "content":
  [
    ["Their","PRP$","Their"],
    ["presentation","NN","pres"],
    ["on","IN","on"],
    ["Thursday","NNP","thursday"],
    ["will","MD","will"],
    ["feature","VB","feat"],
    ["several","JJ","sev"],
    ["of","IN","of"],
    ["those","DT","those"],
    ["short","JJ","short"],
    ["films","NNS","film"],
    ["that","WDT","that"],
    ["have","VBP","hav"],
    ["won","VBN","win"],
    ["awards","NNS","award"],
    ["internationally","RB","intern"],
    [".",".","."]
  ]
},
{
  "tag":"S",
  "content":
  [
    ["``","``","``"],
    ["There","EX","There"],
    ["is","VBZ","be"],
    ["a","DT","a"],
    ["lot","NN","lot"],
    ["of","IN","of"],
    ["comedy","NN","comedy"],
    ["because","IN","because"],
    ["we","PRP","we"],
    ["love","VBP","lov"],
    ["that","IN","that"],
    [".",".","."]
  ]
},
{
  "tag":"S",
  "content":
  [
    ["There","EX","There"],
    ["is","VBZ","be"],
    ["some","DT","some"],
    ["animation","NN","anim"],
    [".",".","."]
  ]
},
{
  "tag":"S",
  "content":
  [
    ["There","EX","There"],
    ["is","VBZ","be"],
    ["some","DT","some"],
    ["documentary","JJ","docu"],
    [",",",",","],
    ["drama","NN","dram"],
    ["and","CC","and"],
    ["fantasy","JJ","fantasy"],
    [",",",",","],
    ["''","''","''"],
    {
      "tag":"PERSON",
      "content":
      [
        ["Slusar","NNP","slus"]
      ]
    },
    ["said","VBD","say"],
    [".",".","."]
  ]
},
{
  "tag":"S",
  "content":
  [
    ["``","``","``"],
    ["There","EX","There"],
    ["is","VBZ","be"],
    ["a","DT","a"],
    ["wide","JJ","wid"],
    ["variety","NN","vary"],
    [".",".","."]
  ]
},
{
  "tag":"S",
  "content":
  [
    ["``","``","``"],
    ["As","IN","As"],
    ["for","IN","for"],
    ["why","WRB","why"],
    ["the","DT","the"],
    ["two","CD","two"],
    ["are","VBP","be"],
    ["so","RB","so"],
    ["focused","VBN","foc"],
    ["on","IN","on"],
    ["filmmaking","NN","filmmak"],
    [",",",",","],
    ["it","PRP","it"],
    ["comes","VBZ","com"],
    ["down","IN","down"],
    ["to","TO","to"],
    ["the","DT","the"],
    ["magic","JJ","mag"],
    ["of","IN","of"],
    ["film","NN","film"],
    [".",".","."]
  ]
},
{
  "tag":"S",
  "content":
  [
    ["``","``","``"],
    ["With","IN","With"],
    ["film","NN","film"],
    [",",",",","],
    ["we","PRP","we"],
    ["both","DT","both"],
    ["love","NN","lov"],
    ["and","CC","and"],
    ["appreciate","VB","apprecy"],
    ["movies","NNS","movy"],
    [".",".","."]
  ]
},
{
  "tag":"S",
  "content":
  [
    ["It","PRP","It"],
    ["is","VBZ","be"],
    ["a","DT","a"],
    ["powerful","JJ","pow"],
    ["medium","NN","med"],
    [",",",",","],
    ["''","''","''"],
    {
      "tag":"PERSON",
      "content":
      [
        ["Slusar","NNP","slus"]
      ]
    },
    ["said","VBD","say"],
    [".",".","."]
  ]
},
{
  "tag":"S",
  "content":
  [
    ["``","``","``"],
    ["It","PRP","It"],
    ["brings","VBZ","bring"],
    ["emotion","NN","emot"],
    ["and","CC","and"],
    ["story","NN","story"],
    [".",".","."]
  ]
},
{
  "tag":"S",
  "content":
  [
    ["It","PRP","It"],
    ["is","VBZ","be"],
    ["a","DT","a"],
    ["real","JJ","real"],
    ["way","NN","way"],
    ["to","TO","to"],
    ["draw","VB","draw"],
    ["people","NNS","peopl"],
    ["'s","POS","'s"],
    ["attention","NN","at"],
    ["to","TO","to"],
    ["things","NNS","thing"],
    [".",".","."]
  ]
},
{
  "tag":"S",
  "content":
  [
    ["We","PRP","We"],
    ["love","VBP","lov"],
    ["to","TO","to"],
    ["make","VB","mak"],
    ["people","NNS","peopl"],
    ["laugh","IN","laugh"],
    [".",".","."]
  ]
},
{
  "tag":"S",
  "content":
  [
    ["A","DT","A"],
    ["film","NN","film"],
    ["allows","VBZ","allow"],
    ["you","PRP","you"],
    ["to","TO","to"],
    ["do","VB","do"],
    ["that","DT","that"],
    [".",".","."]
  ]
},
{
  "tag":"S",
  "content":
  [
    ["``","``","``"],
    ["While","IN","While"],
    ["both","DT","both"],
    {
      "tag":"PERSON",
      "content":
      [
        ["Slusar","NNP","slus"]
      ]
    },
    ["and","CC","and"],
    {
      "tag":"GPE",
      "content":
      [
        ["Kerluke","NNP","kerluk"]
      ]
    },
    ["work","NN","work"],
    ["together","RB","togeth"],
    ["on","IN","on"],
    ["films","NNS","film"],
    [",",",",","],
    ["they","PRP","they"],
    ["have","VBP","hav"],
    ["different","JJ","diff"],
    ["areas","NNS","are"],
    ["of","IN","of"],
    ["expertise","NN","expert"],
    ["and","CC","and"],
    ["influences","NNS","influ"],
    ["that","WDT","that"],
    ["have","VBP","hav"],
    ["brought","VBN","bring"],
    ["them","PRP","them"],
    ["to","TO","to"],
    ["the","DT","the"],
    ["point","NN","point"],
    ["they","PRP","they"],
    ["are","VBP","be"],
    ["at","IN","at"],
    ["now","RB","now"],
    [".",".","."]
  ]
},
{
  "tag":"S",
  "content":
  [
    ["``","``","``"],
    ["I","PRP","I"],
    ["have","VBP","hav"],
    ["directors","NNS","direct"],
    ["who","WP","who"],
    ["have","VBP","hav"],
    ["inspired","VBN","inspir"],
    ["me","PRP","me"],
    ["and","CC","and"],
    ["such","JJ","such"],
    [",",",",","],
    ["but","CC","but"],
    ["there","EX","there"],
    ["is","VBZ","be"],
    ["no","DT","no"],
    ["single","JJ","singl"],
    ["person","NN","person"],
    ["I","PRP","I"],
    ["look","VBP","look"],
    ["up","RP","up"],
    ["to","TO","to"],
    [".",".","."]
  ]
},
{
  "tag":"S",
  "content":
  [
    ["Usually","RB","us"],
    ["the","DT","the"],
    ["style","NN","styl"],
    ["of","IN","of"],
    ["the","DT","the"],
    ["film","NN","film"],
    [",",",",","],
    ["if","IN","if"],
    ["I","PRP","I"],
    ["think","VBP","think"],
    ["it","PRP","it"],
    ["is","VBZ","be"],
    ["great","JJ","gre"],
    ["I","PRP","I"],
    ["want","VBP","want"],
    ["to","TO","to"],
    ["try","NN","try"],
    ["it","PRP","it"],
    [".",".","."]
  ]
},
{
  "tag":"S",
  "content":
  [
    ["I","PRP","I"],
    ["love","VBP","lov"],
    {
      "tag":"PERSON",
      "content":
      [
        ["Darren","NNP","dar"],
        ["Aronofsky","NNP","aronofsky"]
      ]
    },
    [".",".","."]
  ]
},
{
  "tag":"S",
  "content":
  [
    ["He","PRP","He"],
    ["is","VBZ","be"],
    ["really","RB","real"],
    ["depressing","VBG","depress"],
    ["but","CC","but"],
    ["it","PRP","it"],
    ["is","VBZ","be"],
    ["shot","VBN","shoot"],
    ["really","RB","real"],
    ["well","RB","wel"],
    [",",",",","],
    ["''","''","''"],
    {
      "tag":"PERSON",
      "content":
      [
        ["Kerluke","NNP","kerluk"]
      ]
    },
    ["said","VBD","say"],
    [".",".","."]
  ]
},
{
  "tag":"S",
  "content":
  [
    ["``","``","``"],
    ["Christopher","DT","Christopher"],
    ["Nolan","NNP","nol"],
    ["is","VBZ","be"],
    ["a","DT","a"],
    ["genius","NN","geni"],
    [",",",",","],
    ["especially","RB","espec"],
    ["his","PRP$","his"],
    ["early","JJ","ear"],
    ["films","NNS","film"],
    [".",".","."]
  ]
},
{
  "tag":"S",
  "content":
  [
    {
      "tag":"PERSON",
      "content":
      [
        ["Spike","NNP","spik"]
      ]
    },
    {
      "tag":"PERSON",
      "content":
      [
        ["Jonze","NNP","jonz"]
      ]
    },
    ["is","VBZ","be"],
    ["just","RB","just"],
    ["great","JJ","gre"],
    ["style-wise","JJ","style-wis"],
    ["but","CC","but"],
    ["the","DT","the"],
    ["story","NN","story"],
    ["is","VBZ","be"],
    ["n't","RB","n't"],
    ["always","RB","alway"],
    ["there","EX","there"],
    [".",".","."]
  ]
},
{
  "tag":"S",
  "content":
  [
    ["``","``","``"],
    ["``","``","``"],
    ["I","PRP","I"],
    ["like","VBP","lik"],
    ["the","DT","the"],
    ["general","JJ","gen"],
    ["feel","NN","feel"],
    ["of","IN","of"],
    ["the","DT","the"],
    ["movie","NN","movy"],
    [".",".","."]
  ]
},
{
  "tag":"S",
  "content":
  [
    ["I","PRP","I"],
    ["like","VBP","lik"],
    ["stuff","NN","stuff"],
    ["like","IN","like"],
    ["500","CD","500"],
    ["Days","NNS","day"],
    ["of","IN","of"],
    {
      "tag":"GPE",
      "content":
      [
        ["Summer","NNP","sum"]
      ]
    },
    [",",",",","],
    {
      "tag":"PERSON",
      "content":
      [
        ["Garden","NNP","gard"],
        ["State","NNP","stat"]
      ]
    },
    [",",",",","],
    {
      "tag":"PERSON",
      "content":
      [
        ["Juno","NNP","juno"]
      ]
    },
    ["and","CC","and"],
    {
      "tag":"PERSON",
      "content":
      [
        ["Away","NNP","away"],
        ["We","NNP","we"],
        ["Go","NNP","go"]
      ]
    },
    [",",",",","],
    ["''","''","''"],
    {
      "tag":"PERSON",
      "content":
      [
        ["Slusar","NNP","slus"]
      ]
    },
    ["said","VBD","say"],
    [".",".","."]
  ]
},
{
  "tag":"S",
  "content":
  [
    ["``","``","``"],
    ["Simpler","NNP","simpl"],
    ["stories","NNS","story"],
    ["that","WDT","that"],
    ["really","RB","real"],
    ["draw","VBP","draw"],
    ["you","PRP","you"],
    ["into","IN","into"],
    ["the","DT","the"],
    ["characters","NNS","charact"],
    ["and","CC","and"],
    ["make","VB","mak"],
    ["you","PRP","you"],
    ["think","VBP","think"],
    ["about","IN","about"],
    ["the","DT","the"],
    ["world","NN","world"],
    ["a","DT","a"],
    ["bit","NN","bit"],
    ["differently","RB","diff"],
    [".",".","."]
  ]
},
{
  "tag":"S",
  "content":
  [
    ["``","``","``"],
    ["Going","VBG","going"],
    ["into","IN","into"],
    ["the","DT","the"],
    ["future","JJ","fut"],
    [",",",",","],
    ["both","DT","both"],
    {
      "tag":"PERSON",
      "content":
      [
        ["Slusar","NNP","slus"]
      ]
    },
    ["and","CC","and"],
    {
      "tag":"PERSON",
      "content":
      [
        ["Kerluke","NNP","kerluk"]
      ]
    },
    ["plan","NN","plan"],
    ["to","TO","to"],
    ["do","VB","do"],
    ["what","WP","what"],
    ["they","PRP","they"],
    ["love","VBP","lov"],
    [";",":",";"],
    ["make","VB","mak"],
    ["films","NNS","film"],
    [".",".","."]
  ]
},
{
  "tag":"S",
  "content":
  [
    ["``","``","``"],
    ["We","PRP","We"],
    ["just","RB","just"],
    ["want","VBP","want"],
    ["to","TO","to"],
    ["keep","VB","keep"],
    ["doing","VBG","do"],
    ["this","DT","this"],
    [".",".","."]
  ]
},
{
  "tag":"S",
  "content":
  [
    ["We","PRP","We"],
    ["have","VBP","hav"],
    ["grown","VBN","grow"],
    ["a","DT","a"],
    ["lot","NN","lot"],
    ["in","IN","in"],
    ["the","DT","the"],
    ["past","JJ","past"],
    ["two","CD","two"],
    ["years","NNS","year"],
    ["with","IN","with"],
    ["people","NNS","peopl"],
    ["knowing","VBG","know"],
    ["us","PRP","us"],
    [".",".","."]
  ]
},
{
  "tag":"S",
  "content":
  [
    ["We","PRP","We"],
    ["have","VBP","hav"],
    ["a","DT","a"],
    ["bit","NN","bit"],
    ["of","IN","of"],
    ["a","DT","a"],
    ["cult","NN","cult"],
    ["following","VBG","follow"],
    ["and","CC","and"],
    ["we","PRP","we"],
    ["would","MD","would"],
    ["like","VB","lik"],
    ["to","TO","to"],
    ["get","VB","get"],
    ["paid","VBN","pay"],
    ["to","TO","to"],
    ["do","VB","do"],
    ["a","DT","a"],
    ["documentary","JJ","docu"],
    [",",",",","],
    ["or","CC","or"],
    ["have","VBP","hav"],
    ["someone","NN","someon"],
    ["say","VB","say"],
    ["they","PRP","they"],
    ["love","VBP","lov"],
    ["our","PRP$","our"],
    ["characters","NNS","charact"],
    ["and","CC","and"],
    ["ask","VB","ask"],
    ["us","PRP","us"],
    ["to","TO","to"],
    ["do","VB","do"],
    ["a","DT","a"],
    ["series","NN","sery"],
    [",",",",","],
    ["''","''","''"],
    {
      "tag":"PERSON",
      "content":
      [
        ["Slusar","NNP","slus"]
      ]
    },
    ["said","VBD","say"],
    [".",".","."]
  ]
},
{
  "tag":"S",
  "content":
  [
    ["``","``","``"],
    ["Every","DT","Every"],
    ["year","NN","year"],
    ["our","PRP$","our"],
    ["screenings","NNS","screening"],
    ["have","VBP","hav"],
    ["gotten","VBN","get"],
    ["bigger","JJR","big"],
    ["and","CC","and"],
    ["bigger","JJR","big"],
    [",",",",","],
    ["''","''","''"],
    {
      "tag":"PERSON",
      "content":
      [
        ["Kerluke","NNP","kerluk"]
      ]
    },
    ["added","VBD","ad"],
    [".",".","."]
  ]
},
{
  "tag":"S",
  "content":
  [
    ["``","``","``"],
    ["We","PRP","We"],
    ["watched","VBD","watch"],
    ["some","DT","some"],
    ["of","IN","of"],
    ["our","PRP$","our"],
    ["old","JJ","old"],
    ["stuff","NN","stuff"],
    ["and","CC","and"],
    ["compared","VBN","comp"],
    ["it","PRP","it"],
    ["to","TO","to"],
    ["our","PRP$","our"],
    ["newer","NN","new"],
    ["stuff","NN","stuff"],
    [".",".","."]
  ]
},
{
  "tag":"S",
  "content":
  [
    ["It","PRP","It"],
    ["is","VBZ","be"],
    ["nice","JJ","nic"],
    ["to","TO","to"],
    ["see","VB","see"],
    ["the","DT","the"],
    ["progress","NN","progress"],
    ["on","IN","on"],
    ["every","DT","every"],
    ["level","NN","level"],
    [".",".","."]
  ]
},
{
  "tag":"S",
  "content":
  [
    ["That","DT","That"],
    ["is","VBZ","be"],
    ["great","JJ","gre"],
    ["to","TO","to"],
    ["see","VB","see"],
    [".",".","."]
  ]
},
{
  "tag":"S",
  "content":
  [
    ["``","``","``"],
    ["Recently","RB","rec"],
    [",",",",","],
    ["the","DT","the"],
    ["pair","NN","pair"],
    ["were","VBD","be"],
    ["commissioned","VBN","commit"],
    ["by","IN","by"],
    {
      "tag":"PERSON",
      "content":
      [
        ["Black","NNP","black"],
        ["Diamond","NNP","diamond"]
      ]
    },
    ["to","TO","to"],
    ["do","VB","do"],
    ["their","PRP$","their"],
    ["Small","NNP","smal"],
    ["Town","NNP","town"],
    ["Saturday","NNP","saturday"],
    ["Night","NNP","night"],
    ["video","NN","video"],
    [",",",",","],
    ["a","DT","a"],
    ["video","NN","video"],
    ["that","WDT","that"],
    ["placed","VBN","plac"],
    {
      "tag":"PERSON",
      "content":
      [
        ["Black","NNP","black"],
        ["Diamond","NNP","diamond"]
      ]
    },
    ["in","IN","in"],
    ["the","DT","the"],
    ["top","JJ","top"],
    ["10","CD","10"],
    [".",".","."]
  ]
},
{
  "tag":"S",
  "content":
  [
    ["``","``","``"],
    ["We","PRP","We"],
    ["have","VBP","hav"],
    ["some","DT","some"],
    ["ideas","NNS","ide"],
    ["for","IN","for"],
    ["some","DT","some"],
    ["thing","NN","thing"],
    ["we","PRP","we"],
    ["want","VBP","want"],
    ["to","TO","to"],
    ["do","VB","do"],
    [",",",",","],
    ["''","''","''"],
    {
      "tag":"PERSON",
      "content":
      [
        ["Slusar","NNP","slus"]
      ]
    },
    ["said","VBD","say"],
    [".",".","."]
  ]
},
{
  "tag":"S",
  "content":
  [
    ["``","``","``"],
    ["Fun","NNP","fun"],
    ["stuff","NN","stuff"],
    ["and","CC","and"],
    ["short","JJ","short"],
    ["film","NN","film"],
    ["stuff","NN","stuff"],
    [".",".","."]
  ]
},
{
  "tag":"S",
  "content":
  [
    ["``","``","``"],
    ["``","``","``"],
    ["We","PRP","We"],
    ["just","RB","just"],
    ["finished","VBD","fin"],
    ["one","CD","one"],
    ["film","NN","film"],
    ["a","DT","a"],
    ["month","NN","mon"],
    ["ago","RB","ago"],
    ["that","WDT","that"],
    ["we","PRP","we"],
    ["are","VBP","be"],
    ["going","VBG","go"],
    ["to","TO","to"],
    ["enter","VB","ent"],
    ["into","IN","into"],
    ["some","DT","some"],
    ["festivals","NNS","fest"],
    [",",",",","],
    ["''","''","''"],
    {
      "tag":"PERSON",
      "content":
      [
        ["Kerluke","NNP","kerluk"]
      ]
    },
    ["added.The","NNP","added.the"],
    ["pair","NN","pair"],
    ["will","MD","will"],
    ["be","VB","be"],
    ["selling","VBG","sel"],
    {
      "tag":"ORGANIZATION",
      "content":
      [
        ["DVDs","NNS","dvds"]
      ]
    },
    ["of","IN","of"],
    ["their","PRP$","their"],
    ["films","NNS","film"],
    ["at","IN","at"],
    ["the","DT","the"],
    ["event","NN","ev"],
    [".",".","."]
  ]
},
{
  "tag":"S",
  "content":
  [
    ["To","TO","To"],
    ["see","VB","see"],
    ["some","DT","some"],
    ["of","IN","of"],
    ["their","PRP$","their"],
    ["other","JJ","oth"],
    ["work","NN","work"],
    [",",",",","],
    ["you","PRP","you"],
    ["can","MD","can"],
    ["visit","VB","visit"],
    ["www.untitledonline.ca","NNP","www.untitledonline.ca"],
    ["Featured","NNP","feat"],
    ["Businesses","NNP","busy"],
    ["Contact","NNP","contact"],
    ["us","PRP","us"],
    ["to","TO","to"],
    {
      "tag":"PERSON",
      "content":
      [
        ["Advertise","NNP","advert"]
      ]
    },
    ["»","NNP","»"],
    ["Services","NNPS","serv"],
    ["Buy","NNP","buy"],
    ["Right","NNP","right"],
    ["Water","NNP","wat"],
    ["Services","NNPS","serv"],
    {
      "tag":"ORGANIZATION",
      "content":
      [
        ["Business","NNP","busy"],
        ["Services","NNPS","serv"],
        ["Lorac","NNP","lorac"],
        ["Management","NNP","man"],
        ["Contractors","NNP","contract"],
        ["Roofmasters","NNP","roofmast"]
      ]
    },
    ["&","CC","&"],
    {
      "tag":"PERSON",
      "content":
      [
        ["Exteriors","NNP","extery"],
        ["Go","NNP","go"]
      ]
    },
    ["to","TO","to"],
    ["the","DT","the"],
    {
      "tag":"ORGANIZATION",
      "content":
      [
        ["Marketplace","NNP","marketplac"]
      ]
    },
    ["»","NNP","»"],
    ["Local","NNP","loc"],
    ["Businesses","NNP","busy"],
    ["Advertise","NNP","advert"],
    ["with","IN","with"],
    ["us","PRP","us"],
    {
      "tag":"ORGANIZATION",
      "content":
      [
        ["Contribute","NNP","contribut"],
        ["Send","NNP","send"]
      ]
    },
    ["Your","NNP","yo"],
    ["Scoop","NNP","scoop"],
    ["!",".","!"]
  ]
},
{
  "tag":"S",
  "content":
  [
    {
      "tag":"GPE",
      "content":
      [
        ["Share","NN","shar"]
      ]
    },
    ["your","PRP$","your"],
    ["story","NN","story"],
    [",",",",","],
    ["photo","IN","photo"],
    ["or","CC","or"],
    ["video","NN","video"],
    ["about","IN","about"],
    ["something","NN","someth"],
    ["you","PRP","you"],
    ["'ve","VBP","'ve"],
    ["seen","VBN","see"],
    [".",".","."]
  ]
},
{
  "tag":"S",
  "content":
  [
    ["Send","NN","send"],
    ["your","PRP$","your"],
    ["story","NN","story"],
    {
      "tag":"PERSON",
      "content":
      [
        ["Social","NNP","soc"],
        ["Activity","NNP","act"]
      ]
    },
    ["Subscription","NNP","subscrib"],
    ["Start","NNP","start"],
    ["your","PRP$","your"],
    ["day","NN","day"],
    ["with","IN","with"],
    {
      "tag":"PERSON",
      "content":
      [
        ["High","NNP","high"],
        ["River","NNP","riv"],
        ["Times","NNP","tim"],
        ["Choose","NNP","choos"]
      ]
    },
    ["among","IN","among"],
    ["a","DT","a"],
    ["variety","NN","vary"],
    ["of","IN","of"],
    ["subscription","NN","subscrib"],
    ["packages","NNS","pack"],
    ["and","CC","and"],
    ["stay","NN","stay"],
    ["up","RP","up"],
    ["to","TO","to"],
    ["date","NN","dat"],
    ["with","IN","with"],
    ["convenient","JJ","conveny"],
    ["home","NN","hom"],
    ["delivery","NN","delivery"],
    ["and","CC","and"],
    ["our","PRP$","our"],
    ["on","IN","on"],
    ["the","DT","the"],
    ["go","NN","go"],
    ["digital","NN","digit"],
    ["e-edition","NN","e-edition"],
    [".",".","."]
  ]
},
{
  "tag":"S",
  "content":
  [
    ["View","NNP","view"],
    ["my","PRP$","my"],
    ["options","NNS","opt"],
    ["E-Editions","NNS","e-editions"],
    {
      "tag":"ORGANIZATION",
      "content":
      [
        ["High","JJ","high"],
        ["River","NNP","riv"],
        ["View","NNP","view"]
      ]
    },
    [",",",",","],
    ["submit","NN","submit"],
    [",",",",","],
    ["participate","JJ","particip"],
    ["!",".","!"]
  ]
},
{
  "tag":"S",
  "content":
  [
    {
      "tag":"PERSON",
      "content":
      [
        ["Advertise","NNP","advert"]
      ]
    },
    ["Advertise","NNP","advert"],
    ["online","NN","onlin"],
    ["Announce","NNP","annount"],
    ["your","PRP$","your"],
    ["business","NN","busy"],
    ["Reach","NNP","reach"],
    ["potential","NN","pot"],
    ["customers","NNS","custom"],
    {
      "tag":"ORGANIZATION",
      "content":
      [
        ["Contribute","NNP","contribut"]
      ]
    },
    ["Send","NNP","send"],
    ["us","PRP","us"],
    ["news","VBZ","new"],
    [",",",",","],
    ["photos","NNS","photo"],
    ["or","CC","or"],
    ["videos","NNS","video"],
    ["Add","NNP","ad"],
    ["an","DT","an"],
    ["event","NN","ev"],
    ["to","TO","to"],
    ["the","DT","the"],
    ["calendar","NN","calend"],
    {
      "tag":"PERSON",
      "content":
      [
        ["Follow","NNP","follow"],
        ["High","NNP","high"],
        ["River","NNP","riv"],
        ["Times","NNP","tim"],
        ["Search","NNP","search"],
        ["News","NNP","new"],
        ["Local","NNP","loc"],
        ["Provincial","NNP","provint"],
        ["Canada","NNP","canad"]
      ]
    },
    ["World","NNP","world"],
    ["Sports","NNP","sport"],
    ["High","NNP","high"],
    {
      "tag":"PERSON",
      "content":
      [
        ["School","NNP","school"],
        ["Sports","NNP","sport"],
        ["Hockey","NNP","hockey"]
      ]
    },
    ["Other","NNP","oth"],
    ["Sports","NNP","sport"],
    ["Entertainment","NNP","entertain"],
    {
      "tag":"ORGANIZATION",
      "content":
      [
        ["Local","NNP","loc"],
        ["Movies","NNPS","movy"],
        ["Celebrities","NNP","celebr"],
        ["Life","NNP","lif"],
        ["Health","NNP","heal"],
        ["Food","NNP","food"],
        ["Travel","NNP","travel"],
        ["Opinion","NNP","opin"]
      ]
    },
    ["Editorial","NNP","edit"],
    ["Letters","NNP","let"],
    ["Column","NNP","column"],
    ["UR","NNP","ur"],
    ["Entertainment","NNP","entertain"],
    ["Life","NNP","lif"],
    ["Money","NNP","money"],
    ["News","NNP","new"],
    ["Opinion","NNP","opin"],
    ["Sports","NNP","sport"],
    ["Money","NNP","money"],
    ["Marketplace","NNP","marketplac"],
    {
      "tag":"PERSON",
      "content":
      [
        ["Photos","NNP","photo"],
        ["Videos","NNP","video"],
        ["Polls","NNP","pol"],
        ["Weather","NNP","weath"],
        ["Events","NNP","ev"],
        ["Subscribe","NNP","subscrib"],
        ["Print","NNP","print"]
      ]
    },
    ["E-Edition","NNP","e-edition"],
    ["Advertise","NNP","advert"],
    {
      "tag":"PERSON",
      "content":
      [
        ["Online","NNP","onlin"],
        ["Print","NNP","print"],
        ["High","NNP","high"],
        ["River","NNP","riv"],
        ["Times","NNP","tim"],
        ["Feedback","NNP","feedback"],
        ["Letters","NNP","let"]
      ]
    },
    ["to","TO","to"],
    ["the","DT","the"],
    ["editor","NN","edit"],
    {
      "tag":"ORGANIZATION",
      "content":
      [
        ["Sun","NNP","sun"],
        ["Media","NNP","med"],
        ["Publications","NNP","publ"]
      ]
    },
    ["Where","NNP","wher"],
    ["to","TO","to"],
    ["buy","VB","buy"],
    {
      "tag":"ORGANIZATION",
      "content":
      [
        ["Services","NNS","serv"],
        ["Autos","NNP","auto"],
        ["Homes","NNP","hom"],
        ["Classifieds","NNP","class"],
        ["Careers","NNP","car"],
        ["Obituaries","NNPS","obitu"],
        ["Sitemap","NNP","sitemap"],
        ["Privacy","NNP","priv"],
        ["Terms","NNP","term"],
        ["Netiquette","NNP","netiquet"]
      ]
    },
    ["Research","NNP","research"],
    ["Contact-us","NNP","contact-us"],
    ["©","NNP","©"],
    ["2013","CD","2013"],
    ["High","NNP","high"],
    ["River","NNP","riv"],
    ["Times","NNP","tim"],
    [".",".","."]
  ]
},
{
  "tag":"S",
  "content":
  [
    ["All","DT","All"],
    ["rights","NNS","right"],
    ["reserved","VBN","reserv"],
    [".",".","."]
  ]
},
{
  "tag":"S",
  "content":
  [
    ["The","DT","The"],
    {
      "tag":"ORGANIZATION",
      "content":
      [
        ["High","JJ","high"],
        ["River","NNP","riv"]
      ]
    },
    ["Times","NNP","tim"],
    ["are","VBP","be"],
    ["members","NNS","memb"],
    ["of","IN","of"],
    {
      "tag":"PERSON",
      "content":
      [
        ["Canoe","NNP","cano"],
        ["Sun","NNP","sun"],
        ["Media","NNP","med"],
        ["Community","NNP","commun"],
        ["Newspapers","NNP","newspap"]
      ]
    },
    [".",".","."]
  ]
},
{
  "tag":"S",
  "content":
  [
    {
      "tag":"GPE",
      "content":
      [
        ["Powered","NNP","pow"]
      ]
    },
    ["by","IN","by"],
    {
      "tag":"ORGANIZATION",
      "content":
      [
        ["Fatwire","NNP","fatwir"]
      ]
    }
  ]
}]