[
{
  "tag":"S",
  "content":
  [
    {
      "tag":"PERSON",
      "content":
      [
        ["Home","NN","hom"]
      ]
    },
    ["PageToday","NNP","pagetoday"],
    ["'s","POS","'s"],
    {
      "tag":"ORGANIZATION",
      "content":
      [
        ["PaperVideoMost","NNP","papervideomost"]
      ]
    },
    ["PopularTimes","NNP","populartim"],
    {
      "tag":"ORGANIZATION",
      "content":
      [
        ["TopicsMost","NNP","topicsmost"]
      ]
    },
    ["RecentHelpRegister","NNP","recenthelpreg"],
    ["NowLogin","NNP","nowlogin"],
    ["Search","NNP","search"],
    ["All","NNP","al"],
    ["NYTimes.com","NNP","nytimes.com"],
    ["Archives","NNP","arch"],
    ["COLLECTIONS","NNP","collect"],
    [">","NNP",">"],
    ["DINOSAURSLuis","NNP","dinosaurslu"],
    ["W.","NNP","w."],
    ["Alvarez","NNP","alvarez"],
    [",",",",","],
    {
      "tag":"PERSON",
      "content":
      [
        ["Nobel","NNP","nobel"],
        ["Physicist","NNP","phys"],
        ["Who","NNP","who"],
        ["Explored","NNP","expl"],
        ["Atom","NNP","atom"]
      ]
    },
    [",",",",","],
    {
      "tag":"PERSON",
      "content":
      [
        ["Dies","NNP","die"]
      ]
    },
    ["at","IN","at"],
    ["77By","CD","77By"],
    {
      "tag":"ORGANIZATION",
      "content":
      [
        ["WALTER","NNP","walt"]
      ]
    },
    ["SULLIVANPublished","NNP","sullivanpubl"],
    [":",":",":"],
    ["September","NNP","septemb"],
    ["02","CD","02"],
    [",",",",","],
    ["1988Correction","CD","1988Correction"],
    ["Appended","NNP","append"],
    ["Sign","NNP","sign"],
    ["In","NNP","in"],
    ["to","TO","to"],
    ["E-Mail","JJ","e-mail"],
    ["Print","NNP","print"],
    ["Single-Page","NN","single-pag"],
    {
      "tag":"PERSON",
      "content":
      [
        ["Luis","NNP","lui"],
        ["W.","NNP","w."],
        ["Alvarez","NNP","alvarez"]
      ]
    },
    [",",",",","],
    ["winner","NN","win"],
    ["of","IN","of"],
    ["the","DT","the"],
    ["1968","CD","1968"],
    ["Nobel","NNP","nobel"],
    ["Prize","NNP","priz"],
    ["in","IN","in"],
    ["Physics","NNP","phys"],
    ["who","WP","who"],
    ["was","VBD","be"],
    ["a","DT","a"],
    ["member","NN","memb"],
    ["of","IN","of"],
    ["the","DT","the"],
    ["team","NN","team"],
    ["that","WDT","that"],
    ["developed","VBD","develop"],
    ["the","DT","the"],
    ["atomic","JJ","atom"],
    ["bomb","NN","bomb"],
    [",",",",","],
    ["died","VBD","die"],
    ["yesterday","NN","yesterday"],
    ["in","IN","in"],
    {
      "tag":"GPE",
      "content":
      [
        ["Berkeley","NNP","berkeley"]
      ]
    },
    [",",",",","],
    {
      "tag":"GPE",
      "content":
      [
        ["Calif.","NNP","calif."]
      ]
    },
    [",",",",","],
    ["after","IN","after"],
    ["a","DT","a"],
    ["long","JJ","long"],
    ["bout","NN","bout"],
    ["with","IN","with"],
    ["cancer","NN","cant"],
    [".",".","."]
  ]
},
{
  "tag":"S",
  "content":
  [
    ["He","PRP","He"],
    ["was","VBD","be"],
    ["77","CD","77"],
    ["years","NNS","year"],
    ["old.From","-NONE-","old.From"],
    ["splitting","VBG","split"],
    ["atoms","NNS","atom"],
    ["to","TO","to"],
    ["theories","NNS","the"],
    ["about","IN","about"],
    ["the","DT","the"],
    ["extinction","NN","extinct"],
    ["of","IN","of"],
    ["dinosaurs","NNS","dinosa"],
    [",",",",","],
    ["Dr.","NNP","dr."],
    {
      "tag":"PERSON",
      "content":
      [
        ["Alvarez","NNP","alvarez"]
      ]
    },
    ["contributed","VBD","contribut"],
    ["to","TO","to"],
    ["extraordinarily","RB","extraordin"],
    ["diverse","JJ","divers"],
    ["enterprises","NNS","enterpr"],
    ["in","IN","in"],
    ["his","PRP$","his"],
    ["career","NN","car"],
    [".",".","."]
  ]
},
{
  "tag":"S",
  "content":
  [
    ["He","PRP","He"],
    ["won","VBD","win"],
    ["the","DT","the"],
    {
      "tag":"ORGANIZATION",
      "content":
      [
        ["Nobel","NNP","nobel"],
        ["Prize","NNP","priz"]
      ]
    },
    ["for","IN","for"],
    ["his","PRP$","his"],
    ["use","NN","us"],
    ["of","IN","of"],
    ["bubble","JJ","bubbl"],
    ["chambers","NNS","chamb"],
    ["to","TO","to"],
    ["detect","VB","detect"],
    ["new","JJ","new"],
    ["subatomic","JJ","subatom"],
    ["particles","NNS","partic"],
    [".",".","."]
  ]
},
{
  "tag":"S",
  "content":
  [
    ["He","PRP","He"],
    ["also","RB","also"],
    ["developed","VBD","develop"],
    ["a","DT","a"],
    ["type","NN","typ"],
    ["of","IN","of"],
    ["radar","NN","rad"],
    ["to","TO","to"],
    ["aid","NN","aid"],
    ["aircraft","NN","aircraft"],
    ["landings","NNS","land"],
    ["and","CC","and"],
    ["proved","VBD","prov"],
    ["that","IN","that"],
    ["there","EX","there"],
    ["were","VBD","be"],
    ["no","DT","no"],
    ["hidden","VBN","hid"],
    ["chambers","NNS","chamb"],
    ["in","IN","in"],
    ["the","DT","the"],
    {
      "tag":"ORGANIZATION",
      "content":
      [
        ["Chephren","NNP","chephr"]
      ]
    },
    ["pyramid","VBD","pyramid"],
    ["in","IN","in"],
    {
      "tag":"GPE",
      "content":
      [
        ["Egypt","NNP","egypt"]
      ]
    },
    ["by","IN","by"],
    ["using","VBG","us"],
    ["radiation","NN","rady"],
    ["from","IN","from"],
    ["space","NN","spac"],
    ["to","TO","to"],
    ["scan","VB","scan"],
    ["its","PRP$","its"],
    ["interior.Most","JJ","interior.most"],
    ["recently","RB","rec"],
    ["he","PRP","he"],
    ["joined","VBD","join"],
    ["his","PRP$","his"],
    ["son","NN","son"],
    [",",",",","],
    {
      "tag":"PERSON",
      "content":
      [
        ["Walter","NNP","walt"]
      ]
    },
    [",",",",","],
    ["in","IN","in"],
    ["vehement","NN","veh"],
    ["support","NN","support"],
    ["of","IN","of"],
    ["their","PRP$","their"],
    ["controversial","JJ","controvers"],
    ["theory","NN","the"],
    ["that","WDT","that"],
    ["one","CD","one"],
    ["or","CC","or"],
    ["more","JJR","mor"],
    ["extraterrestrial","JJ","extraterrest"],
    ["impacts","NNS","impact"],
    ["killed","VBD","kil"],
    ["off","RP","off"],
    ["the","DT","the"],
    ["dinosaurs","NNS","dinosa"],
    ["and","CC","and"],
    ["hundreds","NNS","hundr"],
    ["of","IN","of"],
    ["other","JJ","oth"],
    ["species","NNS","specy"],
    ["65","CD","65"],
    ["million","CD","million"],
    ["years","NNS","year"],
    ["ago","IN","ago"],
    [".",".","."]
  ]
},
{
  "tag":"S",
  "content":
  [
    ["'Creative","JJ","'creative"],
    ["and","CC","and"],
    ["Inventive","NNP","inv"],
    ["'","''","'"],
    {
      "tag":"ORGANIZATION",
      "content":
      [
        ["MindDr","NNP","minddr"]
      ]
    },
    [".",".","."]
  ]
},
{
  "tag":"S",
  "content":
  [
    {
      "tag":"PERSON",
      "content":
      [
        ["Marvin","NNP","marvin"]
      ]
    },
    ["L.","NNP","l."],
    ["Goldberger","NNP","goldberg"],
    [",",",",","],
    ["director","NN","direct"],
    ["of","IN","of"],
    ["the","DT","the"],
    {
      "tag":"ORGANIZATION",
      "content":
      [
        ["Institute","NNP","institut"]
      ]
    },
    ["for","IN","for"],
    {
      "tag":"PERSON",
      "content":
      [
        ["Advanced","NNP","adv"],
        ["Study","NNP","study"]
      ]
    },
    ["in","IN","in"],
    {
      "tag":"GPE",
      "content":
      [
        ["Princeton","NNP","princeton"]
      ]
    },
    [",",",",","],
    {
      "tag":"GPE",
      "content":
      [
        ["N.J.","NNP","n.j."]
      ]
    },
    [",",",",","],
    ["a","DT","a"],
    ["former","JJ","form"],
    ["president","NN","presid"],
    ["of","IN","of"],
    ["the","DT","the"],
    {
      "tag":"ORGANIZATION",
      "content":
      [
        ["California","NNP","californ"],
        ["Institute","NNP","institut"]
      ]
    },
    ["of","IN","of"],
    {
      "tag":"GPE",
      "content":
      [
        ["Technology","NNP","technolog"]
      ]
    },
    [",",",",","],
    ["characterized","VBD","charact"],
    ["Dr.","NNP","dr."],
    ["Alvarez","NNP","alvarez"],
    ["as","IN","as"],
    ["''one","JJ","''one"],
    ["of","IN","of"],
    ["the","DT","the"],
    ["most","RBS","most"],
    ["imaginative","JJ","imagin"],
    [",",",",","],
    ["creative","JJ","cre"],
    ["and","CC","and"],
    ["inventive","JJ","inv"],
    ["scientists","NNS","sci"],
    ["I","PRP","I"],
    ["ever","RB","ev"],
    ["encountered","VBD","encount"],
    [".",".","."]
  ]
},
{
  "tag":"S",
  "content":
  [
    ["''","''","''"],
    ["''He","PRP","''He"],
    ["thought","VBD","think"],
    ["all","DT","all"],
    ["the","DT","the"],
    ["time","NN","tim"],
    ["about","IN","about"],
    ["real","JJ","real"],
    ["problems","NNS","problem"],
    ["and","CC","and"],
    ["then","RB","then"],
    ["ways","NNS","way"],
    ["to","TO","to"],
    ["deal","VB","deal"],
    ["with","IN","with"],
    ["them","PRP","them"],
    [",",",",","],
    ["''","''","''"],
    ["Dr.","NNP","dr."],
    ["Goldberger","NNP","goldberg"],
    ["said.Dr","NNP","said.dr"],
    [".",".","."]
  ]
},
{
  "tag":"S",
  "content":
  [
    {
      "tag":"PERSON",
      "content":
      [
        ["Alvarez","NNP","alvarez"]
      ]
    },
    ["died","VBD","die"],
    ["of","IN","of"],
    ["complications","NNS","comply"],
    ["from","IN","from"],
    ["a","DT","a"],
    ["succession","NN","success"],
    ["of","IN","of"],
    ["recent","JJ","rec"],
    ["operations","NNS","op"],
    ["for","IN","for"],
    ["cancer","NN","cant"],
    ["of","IN","of"],
    ["the","DT","the"],
    ["esophagus","NN","esophag"],
    [",",",",","],
    ["according","VBG","accord"],
    ["to","TO","to"],
    ["a","DT","a"],
    ["statement","NN","stat"],
    ["issued","VBN","issu"],
    ["by","IN","by"],
    ["the","DT","the"],
    {
      "tag":"ORGANIZATION",
      "content":
      [
        ["University","NNP","univers"]
      ]
    },
    ["of","IN","of"],
    {
      "tag":"GPE",
      "content":
      [
        ["California","NNP","californ"]
      ]
    },
    ["at","IN","at"],
    {
      "tag":"ORGANIZATION",
      "content":
      [
        ["Berkeley","NNP","berkeley"]
      ]
    },
    [",",",",","],
    ["where","WRB","where"],
    ["Dr.","NNP","dr."],
    {
      "tag":"PERSON",
      "content":
      [
        ["Alvarez","NNP","alvarez"]
      ]
    },
    ["worked","VBD","work"],
    ["most","RBS","most"],
    ["of","IN","of"],
    ["his","PRP$","his"],
    ["life","NN","lif"],
    [".",".","."]
  ]
},
{
  "tag":"S",
  "content":
  [
    {
      "tag":"PERSON",
      "content":
      [
        ["Colleagues","NNS","colleagu"]
      ]
    },
    ["said","VBD","say"],
    ["he","PRP","he"],
    ["had","VBD","hav"],
    ["also","RB","also"],
    ["had","VBD","hav"],
    ["a","DT","a"],
    ["benign","NN","benign"],
    ["brain","NN","brain"],
    ["tumor","NN","tum"],
    ["removed","VBD","remov"],
    ["last","JJ","last"],
    ["year","NN","year"],
    [".",".","."]
  ]
},
{
  "tag":"S",
  "content":
  [
    {
      "tag":"GPE",
      "content":
      [
        ["Ridicule","NNP","ridic"]
      ]
    },
    ["for","IN","for"],
    {
      "tag":"ORGANIZATION",
      "content":
      [
        ["CriticsLuis","NNP","criticslu"]
      ]
    },
    ["Walter","NNP","walt"],
    ["Alvarez","NNP","alvarez"],
    [",",",",","],
    ["a","DT","a"],
    ["tall","JJ","tal"],
    ["man","NN","man"],
    ["with","IN","with"],
    ["commanding","VBG","command"],
    ["mien","NNS","mien"],
    [",",",",","],
    ["was","VBD","be"],
    ["sometimes","RB","sometim"],
    ["outspokenly","RB","outspok"],
    ["critical","JJ","crit"],
    ["of","IN","of"],
    ["those","DT","those"],
    ["opposing","VBG","oppos"],
    ["his","PRP$","his"],
    ["views","NNS","view"],
    [".",".","."]
  ]
},
{
  "tag":"S",
  "content":
  [
    ["In","IN","In"],
    ["recent","JJ","rec"],
    ["interviews","NNS","interview"],
    [",",",",","],
    ["for","IN","for"],
    ["example","NN","exampl"],
    [",",",",","],
    ["he","PRP","he"],
    ["had","VBD","hav"],
    ["ridiculed","VBN","ridic"],
    ["skeptics","NNS","skept"],
    ["of","IN","of"],
    ["his","PRP$","his"],
    ["theory","NN","the"],
    ["about","IN","about"],
    ["the","DT","the"],
    ["extinction","NN","extinct"],
    ["of","IN","of"],
    ["dinosaurs","NNS","dinosa"],
    [".",".","."]
  ]
},
{
  "tag":"S",
  "content":
  [
    ["''I","NN","''i"],
    ["do","VBP","do"],
    ["n't","RB","n't"],
    ["like","VB","lik"],
    ["to","TO","to"],
    ["say","VB","say"],
    ["bad","JJ","bad"],
    ["things","NNS","thing"],
    ["about","IN","about"],
    ["paleontologists","NNS","paleontolog"],
    [",",",",","],
    ["but","CC","but"],
    ["they","PRP","they"],
    ["'re","VBP","'re"],
    ["not","RB","not"],
    ["very","RB","very"],
    ["good","JJ","good"],
    ["scientists","NNS","sci"],
    [",",",",","],
    ["''","''","''"],
    ["Dr.","NNP","dr."],
    {
      "tag":"PERSON",
      "content":
      [
        ["Alvarez","NNP","alvarez"]
      ]
    },
    ["said","VBD","say"],
    ["earlier","JJR","ear"],
    ["this","DT","this"],
    ["year","NN","year"],
    [".",".","."]
  ]
},
{
  "tag":"S",
  "content":
  [
    ["''They","PRP","''They"],
    ["'re","VBP","'re"],
    ["more","JJR","mor"],
    ["like","IN","like"],
    ["stamp","NN","stamp"],
    ["collectors","NNS","collect"],
    [".",".","."]
  ]
},
{
  "tag":"S",
  "content":
  [
    ["''In","JJ","''in"],
    ["the","DT","the"],
    ["early","JJ","ear"],
    ["1940","CD","1940"],
    ["'s","POS","'s"],
    ["Dr.","NNP","dr."],
    ["Alvarez","NNP","alvarez"],
    ["and","CC","and"],
    {
      "tag":"PERSON",
      "content":
      [
        ["Lawrence","NNP","lawr"],
        ["H.","NNP","h."],
        ["Johnson","NNP","johnson"]
      ]
    },
    [",",",",","],
    ["an","DT","an"],
    ["associate","NN","assocy"],
    ["at","IN","at"],
    ["the","DT","the"],
    {
      "tag":"ORGANIZATION",
      "content":
      [
        ["Massachusetts","NNP","massachuset"],
        ["Institute","NNP","institut"]
      ]
    },
    ["of","IN","of"],
    {
      "tag":"GPE",
      "content":
      [
        ["Technology","NNP","technolog"]
      ]
    },
    [",",",",","],
    ["created","VBD","cre"],
    ["a","DT","a"],
    ["radar","NN","rad"],
    ["beam","NN","beam"],
    ["narrow","NN","narrow"],
    ["enough","RB","enough"],
    ["for","IN","for"],
    ["someone","NN","someon"],
    ["on","IN","on"],
    ["the","DT","the"],
    ["ground","NN","ground"],
    ["to","TO","to"],
    ["help","VB","help"],
    ["an","DT","an"],
    ["aircraft","NN","aircraft"],
    ["blinded","VBD","blind"],
    ["by","IN","by"],
    ["fog","NN","fog"],
    ["to","TO","to"],
    ["land","VB","land"],
    [".",".","."]
  ]
},
{
  "tag":"S",
  "content":
  [
    ["A","DT","A"],
    ["result","NN","result"],
    ["was","VBD","be"],
    ["the","DT","the"],
    ["ground-controlled","JJ","ground-controll"],
    ["approach","NN","approach"],
    ["system","NN","system"],
    [",",",",","],
    ["which","WDT","which"],
    ["is","VBZ","be"],
    ["still","RB","stil"],
    ["in","IN","in"],
    ["wide","JJ","wid"],
    ["use","NN","us"],
    ["at","IN","at"],
    ["military","JJ","milit"],
    ["airfields.In","JJ","airfields.in"],
    ["the","DT","the"],
    ["war","NN","war"],
    ["years","NNS","year"],
    [",",",",","],
    ["he","PRP","he"],
    ["was","VBD","be"],
    ["a","DT","a"],
    ["group","NN","group"],
    ["leader","NN","lead"],
    ["at","IN","at"],
    {
      "tag":"ORGANIZATION",
      "content":
      [
        ["Los","NNP","los"],
        ["Alamos","NNP","alamo"]
      ]
    },
    [",",",",","],
    ["N.M.","NNP","n.m."],
    [",",",",","],
    ["working","VBG","work"],
    ["on","IN","on"],
    ["the","DT","the"],
    ["atomic","JJ","atom"],
    ["bomb","NN","bomb"],
    [".",".","."]
  ]
},
{
  "tag":"S",
  "content":
  [
    ["When","WRB","When"],
    ["the","DT","the"],
    ["first","JJ","first"],
    ["bomb","NN","bomb"],
    ["was","VBD","be"],
    ["dropped","VBN","drop"],
    ["on","IN","on"],
    {
      "tag":"GPE",
      "content":
      [
        ["Hiroshima","NNP","hiroshim"]
      ]
    },
    [",",",",","],
    ["he","PRP","he"],
    ["rode","VBP","rid"],
    ["in","IN","in"],
    ["an","DT","an"],
    ["aircraft","NN","aircraft"],
    ["accompanying","VBG","accompany"],
    ["the","DT","the"],
    {
      "tag":"ORGANIZATION",
      "content":
      [
        ["Enola","NNP","enol"],
        ["Gay","NNP","gay"]
      ]
    },
    [",",",",","],
    ["which","WDT","which"],
    ["dropped","VBD","drop"],
    ["that","IN","that"],
    ["weapon","NN","weapon"],
    [".",".","."]
  ]
},
{
  "tag":"S",
  "content":
  [
    ["After","IN","After"],
    ["the","DT","the"],
    ["war","NN","war"],
    [",",",",","],
    ["he","PRP","he"],
    ["returned","VBD","return"],
    ["to","TO","to"],
    ["the","DT","the"],
    {
      "tag":"ORGANIZATION",
      "content":
      [
        ["University","NNP","univers"]
      ]
    },
    ["of","IN","of"],
    {
      "tag":"GPE",
      "content":
      [
        ["California","NNP","californ"]
      ]
    },
    ["at","IN","at"],
    {
      "tag":"ORGANIZATION",
      "content":
      [
        ["Berkeley","NNP","berkeley"]
      ]
    },
    [",",",",","],
    ["where","WRB","where"],
    ["he","PRP","he"],
    ["began","VBD","begin"],
    ["the","DT","the"],
    ["work","NN","work"],
    ["that","IN","that"],
    ["won","NN","won"],
    ["him","PRP","him"],
    ["a","DT","a"],
    ["Nobel","NNP","nobel"],
    ["Prize","NNP","priz"],
    [".",".","."]
  ]
},
{
  "tag":"S",
  "content":
  [
    ["Nobel-Winning","JJ","nobel-winning"],
    ["ResearchThis","NNP","researchth"],
    ["involved","VBD","involv"],
    ["the","DT","the"],
    ["use","NN","us"],
    ["of","IN","of"],
    ["chambers","NNS","chamb"],
    ["cooled","VBN","cool"],
    ["sufficiently","RB","sufficy"],
    ["so","RB","so"],
    ["that","IN","that"],
    ["hydrogen","NN","hydrog"],
    ["within","IN","within"],
    ["them","PRP","them"],
    ["became","VBD","becom"],
    ["a","DT","a"],
    ["liquid","NN","liquid"],
    [".",".","."]
  ]
},
{
  "tag":"S",
  "content":
  [
    ["If","IN","If"],
    ["the","DT","the"],
    ["hydrogen","NN","hydrog"],
    ["was","VBD","be"],
    ["on","IN","on"],
    ["the","DT","the"],
    ["verge","NN","verg"],
    ["of","IN","of"],
    ["boiling","VBG","boil"],
    [",",",",","],
    ["a","DT","a"],
    ["fragment","NN","frag"],
    ["passing","VBG","pass"],
    ["through","IN","through"],
    ["the","DT","the"],
    ["chamber","NN","chamb"],
    ["from","IN","from"],
    ["an","DT","an"],
    ["atom","NN","atom"],
    ["smasher","NN","smash"],
    ["would","MD","would"],
    ["leave","VB","leav"],
    ["a","DT","a"],
    ["trail","NN","trail"],
    ["of","IN","of"],
    ["bubbles","NNS","bubbl"],
    [".",".","."]
  ]
},
{
  "tag":"S",
  "content":
  [
    ["The","DT","The"],
    ["nature","NN","nat"],
    ["of","IN","of"],
    ["the","DT","the"],
    ["particle","NN","partic"],
    ["could","MD","could"],
    ["be","VB","be"],
    ["deduced","VBN","deduc"],
    ["from","IN","from"],
    ["such","JJ","such"],
    ["characteristics","NNS","charact"],
    ["of","IN","of"],
    ["the","DT","the"],
    ["trail","NN","trail"],
    ["as","IN","as"],
    ["its","PRP$","its"],
    ["response","NN","respons"],
    ["to","TO","to"],
    ["a","DT","a"],
    ["magnetic","JJ","magnet"],
    ["field.While","JJ","field.while"],
    ["in","IN","in"],
    {
      "tag":"GPE",
      "content":
      [
        ["Stockholm","NNP","stockholm"]
      ]
    },
    ["to","TO","to"],
    ["receive","VB","receiv"],
    ["the","DT","the"],
    ["1968","CD","1968"],
    ["Nobel","NNP","nobel"],
    ["Prize","NNP","priz"],
    ["in","IN","in"],
    {
      "tag":"GPE",
      "content":
      [
        ["Physics","NNP","phys"]
      ]
    },
    ["for","IN","for"],
    ["his","PRP$","his"],
    ["bubble","JJ","bubbl"],
    ["chamber","NN","chamb"],
    ["development","NN","develop"],
    [",",",",","],
    ["he","PRP","he"],
    ["entertained","VBD","entertain"],
    ["the","DT","the"],
    ["local","JJ","loc"],
    ["press","NN","press"],
    ["with","IN","with"],
    ["an","DT","an"],
    ["account","NN","account"],
    ["of","IN","of"],
    ["his","PRP$","his"],
    ["efforts","NNS","effort"],
    ["to","TO","to"],
    ["learn","VB","learn"],
    ["if","IN","if"],
    ["there","EX","there"],
    ["was","VBD","be"],
    ["a","DT","a"],
    ["chamber","NN","chamb"],
    ["hidden","VBN","hid"],
    ["within","IN","within"],
    ["the","DT","the"],
    {
      "tag":"ORGANIZATION",
      "content":
      [
        ["Chephren","NNP","chephr"]
      ]
    },
    ["pyramid","VBD","pyramid"],
    ["at","IN","at"],
    {
      "tag":"ORGANIZATION",
      "content":
      [
        ["Giza","NNP","giz"]
      ]
    },
    ["in","IN","in"],
    {
      "tag":"GPE",
      "content":
      [
        ["Egypt","NNP","egypt"]
      ]
    },
    [".",".","."]
  ]
},
{
  "tag":"S",
  "content":
  [
    ["Chambers","NNS","chamb"],
    ["once","RB","ont"],
    ["laden","VBN","lad"],
    ["with","IN","with"],
    ["treasure","NN","treas"],
    ["had","VBD","hav"],
    ["been","VBN","be"],
    ["found","VBN","find"],
    ["in","IN","in"],
    ["other","JJ","oth"],
    ["pyramids","NNS","pyramid"],
    [",",",",","],
    ["but","CC","but"],
    ["not","RB","not"],
    ["this","DT","this"],
    ["one.While","JJ","one.whil"],
    ["the","DT","the"],
    ["rock","NN","rock"],
    ["of","IN","of"],
    ["the","DT","the"],
    ["pyramid","JJ","pyramid"],
    ["absorbed","VBN","absorb"],
    ["some","DT","some"],
    ["cosmic","JJ","cosm"],
    ["rays","NNS","ray"],
    [",",",",","],
    ["radiation","NN","rady"],
    ["from","IN","from"],
    ["space","NN","spac"],
    [",",",",","],
    ["detectors","NNS","detect"],
    ["placed","VBD","plac"],
    ["under","IN","under"],
    ["the","DT","the"],
    ["pyramid","NN","pyramid"],
    [",",",",","],
    ["in","IN","in"],
    ["cooperation","NN","coop"],
    ["with","IN","with"],
    {
      "tag":"GPE",
      "content":
      [
        ["Egyptian","JJ","egypt"]
      ]
    },
    ["authorities","NNS","auth"],
    [",",",",","],
    ["would","MD","would"],
    ["show","VB","show"],
    ["a","DT","a"],
    ["''bright","JJ","''bright"],
    ["spot","NN","spot"],
    ["''","''","''"],
    ["where","WRB","where"],
    ["there","EX","there"],
    ["was","VBD","be"],
    ["a","DT","a"],
    ["chamber","NN","chamb"],
    ["and","CC","and"],
    ["therefore","RB","theref"],
    ["less","RBR","less"],
    ["stone","NN","ston"],
    [".",".","."]
  ]
},
{
  "tag":"S",
  "content":
  [
    ["None","NN","non"],
    ["were","VBD","be"],
    ["found.div","JJ","found.div"],
    ["#","#","#"],
    ["mod-ctr-lt-in-top","JJ","mod-ctr-lt-in-top"],
    ["{","NN","{"],
    ["padding-top","JJ","padding-top"],
    [":",":",":"],
    ["20px","CD","20px"],
    ["}","CD","}"],
    ["12NEXT","CD","12NEXT"],
    {
      "tag":"ORGANIZATION",
      "content":
      [
        ["PAGE","NNP","pag"]
      ]
    },
    [">","NNP",">"],
    ["Correction","NNP","correct"],
    [":",":",":"],
    ["September","NNP","septemb"],
    ["3","CD","3"],
    [",",",",","],
    ["1988","CD","1988"],
    [",",",",","],
    ["Saturday","NNP","saturday"],
    [",",",",","],
    {
      "tag":"ORGANIZATION",
      "content":
      [
        ["Late","NNP","lat"],
        ["City","NNP","city"],
        ["Final","NNP","fin"],
        ["Edition","NNP","edit"]
      ]
    },
    ["In","NNP","in"],
    ["addition","NN","addit"],
    [",",",",","],
    ["the","DT","the"],
    ["obituary","JJ","obitu"],
    ["omitted","VBN","omit"],
    ["some","DT","some"],
    ["biographical","JJ","biograph"],
    ["material","NN","mat"],
    [",",",",","],
    ["which","WDT","which"],
    ["follows","VBZ","follow"],
    [":",":",":"],
    ["Dr.","NNP","dr."],
    {
      "tag":"PERSON",
      "content":
      [
        ["Alvarez","NNP","alvarez"]
      ]
    },
    ["was","VBD","be"],
    ["born","VBN","bear"],
    ["in","IN","in"],
    {
      "tag":"GPE",
      "content":
      [
        ["San","NNP","san"],
        ["Francisco","NNP","francisco"]
      ]
    },
    [",",",",","],
    ["where","WRB","where"],
    ["his","PRP$","his"],
    ["father","NN","fath"],
    [",",",",","],
    {
      "tag":"PERSON",
      "content":
      [
        ["Walter","NNP","walt"]
      ]
    },
    [",",",",","],
    ["was","VBD","be"],
    ["a","DT","a"],
    ["physician","JJ","phys"],
    [".",".","."]
  ]
},
{
  "tag":"S",
  "content":
  [
    ["The","DT","The"],
    ["senior","NN","seny"],
    ["Dr.","NNP","dr."],
    {
      "tag":"PERSON",
      "content":
      [
        ["Alvarez","NNP","alvarez"]
      ]
    },
    ["became","VBD","becom"],
    ["a","DT","a"],
    ["researcher","NN","research"],
    ["at","IN","at"],
    ["the","DT","the"],
    {
      "tag":"ORGANIZATION",
      "content":
      [
        ["Mayo","NNP","mayo"],
        ["Clinic","NNP","clin"]
      ]
    },
    ["in","IN","in"],
    {
      "tag":"GPE",
      "content":
      [
        ["Minnesota","NNP","minnesot"]
      ]
    },
    ["and","CC","and"],
    [",",",",","],
    ["after","IN","after"],
    ["retiring","VBG","retir"],
    ["from","IN","from"],
    ["the","DT","the"],
    ["clinic","JJ","clin"],
    [",",",",","],
    ["wrote","VBD","writ"],
    ["a","DT","a"],
    ["syndicated","VBN","synd"],
    ["newspaper","NN","newspap"],
    ["column","NN","column"],
    ["offering","NN","off"],
    ["medical","JJ","med"],
    ["advice","NN","adv"],
    [".",".","."]
  ]
},
{
  "tag":"S",
  "content":
  [
    {
      "tag":"PERSON",
      "content":
      [
        ["Luis","NNP","lui"]
      ]
    },
    {
      "tag":"PERSON",
      "content":
      [
        ["Alvarez","NNP","alvarez"]
      ]
    },
    ["majored","VBD","maj"],
    ["in","IN","in"],
    ["physics","NN","phys"],
    ["as","IN","as"],
    ["an","DT","an"],
    ["undergraduate","NN","undergradu"],
    ["at","IN","at"],
    ["the","DT","the"],
    {
      "tag":"ORGANIZATION",
      "content":
      [
        ["University","NNP","univers"]
      ]
    },
    ["of","IN","of"],
    {
      "tag":"GPE",
      "content":
      [
        ["Chicago","NNP","chicago"]
      ]
    },
    [",",",",","],
    ["where","WRB","where"],
    ["he","PRP","he"],
    ["also","RB","also"],
    ["obtained","VBD","obtain"],
    ["his","PRP$","his"],
    ["doctorate","NN","doct"],
    ["in","IN","in"],
    ["1936","CD","1936"],
    [".",".","."]
  ]
},
{
  "tag":"S",
  "content":
  [
    ["He","PRP","He"],
    ["then","RB","then"],
    ["joined","VBD","join"],
    ["the","DT","the"],
    ["faculty","NN","facul"],
    ["at","IN","at"],
    ["the","DT","the"],
    {
      "tag":"ORGANIZATION",
      "content":
      [
        ["University","NNP","univers"]
      ]
    },
    ["of","IN","of"],
    {
      "tag":"GPE",
      "content":
      [
        ["California","NNP","californ"]
      ]
    },
    ["in","IN","in"],
    {
      "tag":"GPE",
      "content":
      [
        ["Berkeley","NNP","berkeley"]
      ]
    },
    [",",",",","],
    ["where","WRB","where"],
    ["he","PRP","he"],
    ["remained","VBD","remain"],
    ["almost","RB","almost"],
    ["continuously","RB","continu"],
    ["except","IN","except"],
    ["during","IN","during"],
    ["the","DT","the"],
    ["war","NN","war"],
    ["years","NNS","year"],
    [".",".","."]
  ]
},
{
  "tag":"S",
  "content":
  [
    ["More","JJR","mor"],
    ["Like","IN","Like"],
    ["This","DT","This"],
    ["div.mod-relatedarticlessimplelist","JJ","div.mod-relatedarticlessimplelist"],
    ["li","NN","li"],
    ["a","DT","a"],
    ["span","NN","span"],
    [":",":",":"],
    ["hover","NN","hov"],
    ["{",":","{"],
    ["*text-decoration","NN","*text-decoration"],
    [":",":",":"],
    ["underline","NN","underlin"],
    ["}",":","}"],
    ["Researchers","NNS","research"],
    {
      "tag":"PERSON",
      "content":
      [
        ["Study","NNP","study"],
        ["Ancient","NNP","ant"],
        ["Rocks","NNP","rock"],
        ["To","NNP","to"],
        ["Test","NNP","test"],
        ["Theory","NNP","the"]
      ]
    },
    ["on","IN","on"],
    ["End","NNP","end"],
    ["of","IN","of"],
    ["...",":","..."],
    ["div.mod-relatedarticlessimplelist","JJ","div.mod-relatedarticlessimplelist"],
    ["li","NN","li"],
    ["a","DT","a"],
    ["span","NN","span"],
    [":",":",":"],
    ["hover","NN","hov"],
    ["{",":","{"],
    ["*text-decoration","NN","*text-decoration"],
    [":",":",":"],
    ["underline","NN","underlin"],
    ["}",":","}"],
    ["MEMOIRS","NNP","memoir"],
    ["OF","IN","OF"],
    ["A","DT","A"],
    {
      "tag":"ORGANIZATION",
      "content":
      [
        ["MASTER","NNP","mast"]
      ]
    },
    ["TINKERER","NNP","tink"],
    ["div.mod-relatedarticlessimplelist","NNP","div.mod-relatedarticlessimplelist"],
    ["li","NN","li"],
    ["a","DT","a"],
    ["span","NN","span"],
    [":",":",":"],
    ["hover","NN","hov"],
    ["{",":","{"],
    ["*text-decoration","NN","*text-decoration"],
    [":",":",":"],
    ["underline","NN","underlin"],
    ["}",":","}"],
    ["The","DT","The"],
    {
      "tag":"ORGANIZATION",
      "content":
      [
        ["Debate","NNP","deb"],
        ["Over","NNP","ov"],
        ["Dinosaur","NNP","dinosa"],
        ["Extinctions","NNPS","extinct"],
        ["Takes","NNP","tak"]
      ]
    },
    ["an","DT","an"],
    ["Unusually","NNP","unus"],
    ["...",":","..."],
    {
      "tag":"PERSON",
      "content":
      [
        ["Find","NNP","find"],
        ["More","NNP","mor"]
      ]
    },
    ["StoriesDinosaursAtom","NNP","storiesdinosaursatom"],
    ["SmasherNobel","NNP","smashernobel"],
    ["PrizeHomeTimes","NNP","prizehometim"],
    ["topicsMember","NNP","topicsmemb"],
    ["CenterCopyright","NNP","centercopyright"],
    ["2013","CD","2013"],
    ["The","NNP","the"],
    {
      "tag":"GPE",
      "content":
      [
        ["New","NNP","new"],
        ["York","NNP","york"]
      ]
    },
    {
      "tag":"PERSON",
      "content":
      [
        ["Times","NNP","tim"]
      ]
    },
    {
      "tag":"ORGANIZATION",
      "content":
      [
        ["CompanyPrivacy","NNP","companypr"]
      ]
    },
    ["PolicyHelpContact","NNP","policyhelpcontact"],
    ["UsWork","NNP","uswork"],
    ["for","IN","for"],
    {
      "tag":"ORGANIZATION",
      "content":
      [
        ["UsSite","NNP","ussit"]
      ]
    },
    ["MapIndex","NNP","mapindex"],
    ["by","IN","by"],
    {
      "tag":"PERSON",
      "content":
      [
        ["Keyword","NNP","keyword"]
      ]
    }
  ]
}]