[
{
  "tag":"S",
  "content":
  [
    ["Family","RB","famy"],
    {
      "tag":"PERSON",
      "content":
      [
        ["Squabbles","NNP","squabbl"]
      ]
    },
    [":",":",":"],
    ["The","DT","The"],
    {
      "tag":"ORGANIZATION",
      "content":
      [
        ["Bernoulli","NNP","bernoull"],
        ["Family","NNP","famy"],
        ["Jacob","NNP","jacob"],
        ["Bernouli","NNP","bernoul"]
      ]
    },
    ["(","NNP","("],
    ["1654","CD","1654"],
    ["-",":","-"],
    ["1705","CD","1705"],
    [")","CD",")"],
    {
      "tag":"PERSON",
      "content":
      [
        ["Johann","NNP","johan"],
        ["Bernouli","NNP","bernoul"]
      ]
    },
    ["(","NNP","("],
    ["1667","CD","1667"],
    ["-",":","-"],
    ["1748","CD","1748"],
    [")","CD",")"],
    {
      "tag":"PERSON",
      "content":
      [
        ["Daniel","NNP","daniel"],
        ["Bernoulli","NNP","bernoull"]
      ]
    },
    ["(","NNP","("],
    ["1700","CD","1700"],
    ["-",":","-"],
    ["1787","CD","1787"],
    [")","CD",")"],
    ["The","DT","The"],
    {
      "tag":"ORGANIZATION",
      "content":
      [
        ["Bernoulli","NNP","bernoull"]
      ]
    },
    ["family","NN","famy"],
    ["may","MD","may"],
    ["sound","VB","sound"],
    ["like","IN","like"],
    ["a","DT","a"],
    ["Mafia","NNP","maf"],
    ["family","NN","famy"],
    ["from","IN","from"],
    ["a","DT","a"],
    ["television","NN","televid"],
    ["show","NN","show"],
    [",",",",","],
    ["but","CC","but"],
    ["they","PRP","they"],
    ["were","VBD","be"],
    ["the","DT","the"],
    ["most","JJS","most"],
    ["predominant","JJ","predomin"],
    ["math","NN","math"],
    ["family","NN","famy"],
    ["of","IN","of"],
    {
      "tag":"GPE",
      "content":
      [
        ["Europe","NNP","europ"]
      ]
    },
    [".",".","."]
  ]
},
{
  "tag":"S",
  "content":
  [
    ["Their","PRP$","Their"],
    ["fame","NN","fam"],
    ["was","VBD","be"],
    ["in","IN","in"],
    ["the","DT","the"],
    ["late","JJ","lat"],
    ["17th","CD","17th"],
    ["and","CC","and"],
    ["early","RB","ear"],
    ["18th","JJ","18th"],
    ["century","NN","century"],
    ["in","IN","in"],
    {
      "tag":"GPE",
      "content":
      [
        ["Bale","NNP","bal"]
      ]
    },
    [",",",",","],
    {
      "tag":"GPE",
      "content":
      [
        ["Switzerland","NNP","switzerland"]
      ]
    },
    [".",".","."]
  ]
},
{
  "tag":"S",
  "content":
  [
    ["The","DT","The"],
    ["uniqueness","NN","un"],
    ["of","IN","of"],
    ["this","DT","this"],
    ["particular","JJ","particul"],
    ["family","NN","famy"],
    ["is","VBZ","be"],
    ["a","DT","a"],
    ["stubborn","NN","stubborn"],
    ["streak","NN","streak"],
    ["which","WDT","which"],
    ["brought","VBN","bring"],
    ["devastation","NN","devast"],
    ["to","TO","to"],
    ["the","DT","the"],
    ["family","NN","famy"],
    ["life","NN","lif"],
    [".",".","."]
  ]
},
{
  "tag":"S",
  "content":
  [
    ["The","DT","The"],
    {
      "tag":"ORGANIZATION",
      "content":
      [
        ["Bernoulli","NNP","bernoull"]
      ]
    },
    ["family","NN","famy"],
    ["was","VBD","be"],
    ["originally","RB","origin"],
    ["from","IN","from"],
    {
      "tag":"GPE",
      "content":
      [
        ["Holland","NNP","holland"]
      ]
    },
    ["with","IN","with"],
    ["strong","JJ","strong"],
    ["Calvinism","NNP","calvin"],
    ["religion","NN","relig"],
    [".",".","."]
  ]
},
{
  "tag":"S",
  "content":
  [
    ["They","PRP","They"],
    ["needed","VBD","nee"],
    ["to","TO","to"],
    ["avoid","VB","avoid"],
    {
      "tag":"GPE",
      "content":
      [
        ["Spanish","JJ","span"]
      ]
    },
    ["religious","JJ","religy"],
    ["persecution","NN","persecut"],
    [",",",",","],
    ["so","RB","so"],
    ["they","PRP","they"],
    ["fled","VBD","fle"],
    ["to","TO","to"],
    {
      "tag":"GPE",
      "content":
      [
        ["Switzerland","NNP","switzerland"]
      ]
    },
    [".",".","."]
  ]
},
{
  "tag":"S",
  "content":
  [
    {
      "tag":"PERSON",
      "content":
      [
        ["Nicholas","NNP","nichola"]
      ]
    },
    {
      "tag":"PERSON",
      "content":
      [
        ["Bernoulli","NNP","bernoull"]
      ]
    },
    ["brought","VBD","bring"],
    ["the","DT","the"],
    ["family","NN","famy"],
    ["to","TO","to"],
    {
      "tag":"GPE",
      "content":
      [
        ["Switzerland","NNP","switzerland"]
      ]
    },
    [".",".","."]
  ]
},
{
  "tag":"S",
  "content":
  [
    ["This","DT","This"],
    ["family","NN","famy"],
    ["was","VBD","be"],
    ["not","RB","not"],
    ["math","JJ","math"],
    ["oriented","VBN","ory"],
    [",",",",","],
    ["they","PRP","they"],
    ["had","VBD","hav"],
    ["a","DT","a"],
    ["spice","NN","spic"],
    ["business","NN","busy"],
    ["in","IN","in"],
    {
      "tag":"GPE",
      "content":
      [
        ["Bale","NNP","bal"]
      ]
    },
    [".",".","."]
  ]
},
{
  "tag":"S",
  "content":
  [
    ["He","PRP","He"],
    ["had","VBD","hav"],
    ["three","CD","three"],
    ["sons","NNS","son"],
    ["which","WDT","which"],
    ["two","CD","two"],
    ["of","IN","of"],
    ["them","PRP","them"],
    ["became","VBD","becom"],
    ["the","DT","the"],
    ["most","JJS","most"],
    ["influential","JJ","influ"],
    ["math","NN","math"],
    ["experts","NNS","expert"],
    ["in","IN","in"],
    ["the","DT","the"],
    ["academic","JJ","academ"],
    ["community","NN","commun"],
    ["yet","RB","yet"],
    ["hostile","JJ","hostil"],
    ["to","TO","to"],
    ["each","DT","each"],
    ["other","JJ","oth"],
    [".",".","."]
  ]
},
{
  "tag":"S",
  "content":
  [
    ["The","DT","The"],
    ["eldest","JJS","eldest"],
    ["son","NN","son"],
    [",",",",","],
    {
      "tag":"PERSON",
      "content":
      [
        ["Jacob","NNP","jacob"]
      ]
    },
    ["(","NNP","("],
    ["James","NNP","jam"],
    ["or","CC","or"],
    {
      "tag":"GPE",
      "content":
      [
        ["Jacques","NNP","jacqu"]
      ]
    },
    [")",":",")"],
    [",",",",","],
    ["was","VBD","be"],
    ["born","VBN","bear"],
    ["1654","CD","1654"],
    ["and","CC","and"],
    ["died","VBD","die"],
    ["1705","CD","1705"],
    ["in","IN","in"],
    {
      "tag":"GPE",
      "content":
      [
        ["Bale","NNP","bal"]
      ]
    },
    [",",",",","],
    {
      "tag":"GPE",
      "content":
      [
        ["Switzerland","NNP","switzerland"]
      ]
    },
    [".",".","."]
  ]
},
{
  "tag":"S",
  "content":
  [
    ["His","PRP$","His"],
    ["parents","NNS","par"],
    ["compelled","VBD","compel"],
    ["him","PRP","him"],
    ["to","TO","to"],
    ["study","VB","study"],
    ["philosophy","NN","philosoph"],
    ["and","CC","and"],
    ["theology","NN","theolog"],
    [".",".","."]
  ]
},
{
  "tag":"S",
  "content":
  [
    ["Like","IN","Like"],
    ["a","DT","a"],
    {
      "tag":"ORGANIZATION",
      "content":
      [
        ["Bernoulli","NNP","bernoull"]
      ]
    },
    [",",",",","],
    ["he","PRP","he"],
    ["resented","VBD","res"],
    ["the","DT","the"],
    ["studies","NNS","study"],
    ["but","CC","but"],
    ["he","PRP","he"],
    ["did","VBD","do"],
    ["acquire","VB","acquir"],
    ["a","DT","a"],
    ["masters","NNS","mast"],
    ["in","IN","in"],
    ["philosophy","NN","philosoph"],
    [".",".","."]
  ]
},
{
  "tag":"S",
  "content":
  [
    ["He","PRP","He"],
    ["was","VBD","be"],
    ["intrigued","VBN","intrigu"],
    ["with","IN","with"],
    ["mathematics","NNS","mathem"],
    ["and","CC","and"],
    ["astronomy","NN","astronom"],
    ["so","IN","so"],
    ["much","RB","much"],
    ["he","PRP","he"],
    ["included","VBD","includ"],
    ["them","PRP","them"],
    ["with","IN","with"],
    ["his","PRP$","his"],
    ["studies","NNS","study"],
    [",",",",","],
    ["regardless","RB","regardless"],
    ["his","PRP$","his"],
    ["parents","NNS","par"],
    ["wishes","VBZ","wish"],
    [".",".","."]
  ]
},
{
  "tag":"S",
  "content":
  [
    ["He","PRP","He"],
    ["made","VBD","mak"],
    ["more","JJR","mor"],
    ["of","IN","of"],
    ["a","DT","a"],
    ["career","NN","car"],
    ["in","IN","in"],
    ["mathematics","NN","mathem"],
    ["than","IN","than"],
    ["philosophy","NN","philosoph"],
    [".",".","."]
  ]
},
{
  "tag":"S",
  "content":
  [
    ["He","PRP","He"],
    ["became","VBD","becom"],
    ["the","DT","the"],
    ["first","JJ","first"],
    {
      "tag":"PERSON",
      "content":
      [
        ["Bernoulli","NNP","bernoull"]
      ]
    },
    ["to","TO","to"],
    ["be","VB","be"],
    ["recognized","VBN","recogn"],
    ["as","IN","as"],
    ["a","DT","a"],
    ["strong","JJ","strong"],
    ["influential","JJ","influ"],
    ["mathematician","NN","mathem"],
    [".",".","."]
  ]
},
{
  "tag":"S",
  "content":
  [
    ["He","PRP","He"],
    ["contributed","VBD","contribut"],
    ["highly","RB","high"],
    ["to","TO","to"],
    ["probability","NN","prob"],
    [":",":",":"],
    ["if","IN","if"],
    ["something","NN","someth"],
    ["is","VBZ","be"],
    ["going","VBG","go"],
    ["to","TO","to"],
    ["happen","VB","hap"],
    ["again","RB","again"],
    ["and","CC","and"],
    ["again","RB","again"],
    ["is","VBZ","be"],
    ["large","JJ","larg"],
    ["amounts","NNS","amount"],
    [",",",",","],
    ["it","PRP","it"],
    ["is","VBZ","be"],
    ["likely","JJ","lik"],
    ["it","PRP","it"],
    ["will","MD","will"],
    ["happen","VB","hap"],
    ["most","RBS","most"],
    ["of","IN","of"],
    ["the","DT","the"],
    ["time","NN","tim"],
    [".",".","."]
  ]
},
{
  "tag":"S",
  "content":
  [
    ["He","PRP","He"],
    ["may","MD","may"],
    ["be","VB","be"],
    ["a","DT","a"],
    ["brilliant","JJ","bril"],
    ["mathematician","NN","mathem"],
    [",",",",","],
    ["but","CC","but"],
    ["he","PRP","he"],
    ["did","VBD","do"],
    ["have","VB","hav"],
    ["a","DT","a"],
    ["mean","JJ","mean"],
    ["streak","NN","streak"],
    [".",".","."]
  ]
},
{
  "tag":"S",
  "content":
  [
    ["His","PRP$","His"],
    ["younger","JJR","young"],
    ["brother","NN","broth"],
    [",",",",","],
    {
      "tag":"PERSON",
      "content":
      [
        ["Johann","NNP","johan"]
      ]
    },
    ["or","CC","or"],
    {
      "tag":"PERSON",
      "content":
      [
        ["John","NNP","john"]
      ]
    },
    [",",",",","],
    ["was","VBD","be"],
    ["born","VBN","bear"],
    ["in","IN","in"],
    ["1667","CD","1667"],
    ["and","CC","and"],
    ["died","VBD","die"],
    ["1748","CD","1748"],
    ["in","IN","in"],
    {
      "tag":"GPE",
      "content":
      [
        ["Bale","NNP","bal"],
        ["Switzerland","NNP","switzerland"]
      ]
    },
    [".",".","."]
  ]
},
{
  "tag":"S",
  "content":
  [
    ["He","PRP","He"],
    ["did","VBD","do"],
    ["not","RB","not"],
    ["do","VB","do"],
    ["very","RB","very"],
    ["well","RB","wel"],
    ["in","IN","in"],
    ["the","DT","the"],
    ["spice","NN","spic"],
    ["business","NN","busy"],
    [".",".","."]
  ]
},
{
  "tag":"S",
  "content":
  [
    ["At","IN","At"],
    ["16","CD","16"],
    [",",",",","],
    ["he","PRP","he"],
    ["entered","VBD","ent"],
    ["the","DT","the"],
    {
      "tag":"ORGANIZATION",
      "content":
      [
        ["University","NNP","univers"]
      ]
    },
    ["of","IN","of"],
    {
      "tag":"GPE",
      "content":
      [
        ["Bale","NNP","bal"]
      ]
    },
    ["and","CC","and"],
    ["studied","VBD","study"],
    ["medicine","NN","medicin"],
    [".",".","."]
  ]
},
{
  "tag":"S",
  "content":
  [
    ["He","PRP","He"],
    ["asked","VBD","ask"],
    ["his","PRP$","his"],
    ["brother","NN","broth"],
    [",",",",","],
    {
      "tag":"PERSON",
      "content":
      [
        ["Jacob","NNP","jacob"]
      ]
    },
    [",",",",","],
    ["to","TO","to"],
    ["teach","VB","teach"],
    ["him","PRP","him"],
    ["mathematics","NNS","mathem"],
    [".",".","."]
  ]
},
{
  "tag":"S",
  "content":
  [
    ["By","IN","By"],
    ["this","DT","this"],
    ["time","NN","tim"],
    [",",",",","],
    {
      "tag":"PERSON",
      "content":
      [
        ["Jacob","NNP","jacob"]
      ]
    },
    ["was","VBD","be"],
    ["a","DT","a"],
    ["professor","NN","profess"],
    ["of","IN","of"],
    ["mathematics","NNS","mathem"],
    [".",".","."]
  ]
},
{
  "tag":"S",
  "content":
  [
    ["After","IN","After"],
    ["two","CD","two"],
    ["years","NNS","year"],
    ["under","IN","under"],
    {
      "tag":"PERSON",
      "content":
      [
        ["Jacob","NNP","jacob"]
      ]
    },
    ["'s","POS","'s"],
    ["tutelage","NN","tutel"],
    [",",",",","],
    {
      "tag":"PERSON",
      "content":
      [
        ["Johann","NNP","johan"]
      ]
    },
    ["was","VBD","be"],
    ["his","PRP$","his"],
    ["equal","JJ","eq"],
    [".",".","."]
  ]
},
{
  "tag":"S",
  "content":
  [
    ["At","IN","At"],
    ["first","JJ","first"],
    [",",",",","],
    {
      "tag":"PERSON",
      "content":
      [
        ["Jacob","NNP","jacob"]
      ]
    },
    ["had","VBD","hav"],
    ["no","DT","no"],
    ["problem","NN","problem"],
    ["teaching","NN","teach"],
    ["his","PRP$","his"],
    ["little","JJ","littl"],
    ["brother","NN","broth"],
    [".",".","."]
  ]
},
{
  "tag":"S",
  "content":
  [
    ["He","PRP","He"],
    ["realized","VBD","real"],
    ["his","PRP$","his"],
    ["brother","NN","broth"],
    ["'s","POS","'s"],
    ["talents","NNS","tal"],
    ["and","CC","and"],
    ["quick-study","JJ","quick-study"],
    ["of","IN","of"],
    ["mathematics","NNS","mathem"],
    ["that","WDT","that"],
    ["he","PRP","he"],
    ["offered","VBD","off"],
    ["to","TO","to"],
    ["work","VB","work"],
    ["with","IN","with"],
    {
      "tag":"PERSON",
      "content":
      [
        ["Johann","NNP","johan"]
      ]
    },
    [".",".","."]
  ]
},
{
  "tag":"S",
  "content":
  [
    ["As","IN","As"],
    ["time","NN","tim"],
    ["went","VBD","go"],
    ["on","IN","on"],
    [",",",",","],
    ["the","DT","the"],
    {
      "tag":"ORGANIZATION",
      "content":
      [
        ["Bernoulli","NNP","bernoull"]
      ]
    },
    ["blood","NN","blood"],
    ["began","VBD","begin"],
    ["to","TO","to"],
    ["boil","NN","boil"],
    [".",".","."]
  ]
},
{
  "tag":"S",
  "content":
  [
    {
      "tag":"PERSON",
      "content":
      [
        ["Johann","NNP","johan"]
      ]
    },
    ["'s","POS","'s"],
    ["ego","NN","ego"],
    ["was","VBD","be"],
    ["getting","VBG","get"],
    ["larger","JJR","larg"],
    ["which","WDT","which"],
    ["he","PRP","he"],
    ["began","VBD","begin"],
    ["to","TO","to"],
    ["brag","VB","brag"],
    ["about","IN","about"],
    ["his","PRP$","his"],
    ["work","NN","work"],
    ["and","CC","and"],
    ["at","IN","at"],
    ["the","DT","the"],
    ["same","JJ","sam"],
    ["time","NN","tim"],
    ["he","PRP","he"],
    ["belittled","VBD","belittl"],
    ["his","PRP$","his"],
    ["brother","NN","broth"],
    [".",".","."]
  ]
},
{
  "tag":"S",
  "content":
  [
    {
      "tag":"PERSON",
      "content":
      [
        ["Jacob","NNP","jacob"]
      ]
    },
    ["was","VBD","be"],
    ["so","RB","so"],
    ["angry","JJ","angry"],
    ["he","PRP","he"],
    ["made","VBD","mak"],
    ["crude","JJ","crud"],
    ["comments","NNS","com"],
    ["about","IN","about"],
    {
      "tag":"PERSON",
      "content":
      [
        ["Johann","NNP","johan"]
      ]
    },
    ["'s","POS","'s"],
    ["abilities","NNS","abl"],
    [".",".","."]
  ]
},
{
  "tag":"S",
  "content":
  [
    {
      "tag":"GPE",
      "content":
      [
        ["Jacob","NNP","jacob"]
      ]
    },
    ["refer","VBP","ref"],
    ["to","TO","to"],
    ["him","PRP","him"],
    ["as","IN","as"],
    ["a","DT","a"],
    ["student","NN","stud"],
    ["repeating","VBG","rep"],
    ["what","WP","what"],
    ["the","DT","the"],
    ["teacher","NN","teach"],
    ["taught","VBD","teach"],
    ["him","PRP","him"],
    [",",",",","],
    ["in","IN","in"],
    ["other","JJ","oth"],
    ["words","NNS","word"],
    ["a","DT","a"],
    ["parrot","NN","parrot"],
    [".",".","."]
  ]
},
{
  "tag":"S",
  "content":
  [
    {
      "tag":"PERSON",
      "content":
      [
        ["Jacob","NNP","jacob"]
      ]
    },
    ["and","CC","and"],
    {
      "tag":"PERSON",
      "content":
      [
        ["Johann","NNP","johan"]
      ]
    },
    ["went","VBD","go"],
    ["back","RB","back"],
    ["and","CC","and"],
    ["forth","JJ","for"],
    ["with","IN","with"],
    ["comments","NNS","com"],
    ["in","IN","in"],
    ["the","DT","the"],
    ["academic","JJ","academ"],
    ["community","NN","commun"],
    ["which","WDT","which"],
    ["developed","VBD","develop"],
    ["a","DT","a"],
    ["notorious","JJ","not"],
    ["reputation","NN","reput"],
    ["of","IN","of"],
    ["their","PRP$","their"],
    ["family","NN","famy"],
    ["togetherness","NN","togeth"],
    [".",".","."]
  ]
},
{
  "tag":"S",
  "content":
  [
    ["Despite","IN","Despite"],
    ["family","NN","famy"],
    ["problems","NNS","problem"],
    [",",",",","],
    {
      "tag":"PERSON",
      "content":
      [
        ["Johann","NNP","johan"]
      ]
    },
    ["was","VBD","be"],
    ["a","DT","a"],
    ["excellent","NN","excel"],
    ["mathematician","NN","mathem"],
    [".",".","."]
  ]
},
{
  "tag":"S",
  "content":
  [
    ["He","PRP","He"],
    ["used","VBD","us"],
    ["calculus","RB","calcul"],
    ["to","TO","to"],
    ["solve","VB","solv"],
    ["problems","NNS","problem"],
    ["which","WDT","which"],
    {
      "tag":"GPE",
      "content":
      [
        ["Newton","NNP","newton"]
      ]
    },
    ["failed","VBD","fail"],
    ["to","TO","to"],
    ["solve","VB","solv"],
    ["in","IN","in"],
    ["the","DT","the"],
    ["laws","NNS","law"],
    ["of","IN","of"],
    ["gravitaiton","NN","gravitaiton"],
    [".",".","."]
  ]
},
{
  "tag":"S",
  "content":
  [
    ["By","IN","By"],
    ["using","VBG","us"],
    ["y=x2","-NONE-","y=x2"],
    [",",",",","],
    ["he","PRP","he"],
    ["made","VBD","mak"],
    ["all","DT","all"],
    ["sorts","NNS","sort"],
    ["of","IN","of"],
    ["discoveries","NNS","discovery"],
    ["of","IN","of"],
    ["calculus","NN","calcul"],
    [".",".","."]
  ]
},
{
  "tag":"S",
  "content":
  [
    ["In","IN","In"],
    ["1695","CD","1695"],
    [",",",",","],
    {
      "tag":"PERSON",
      "content":
      [
        ["Jacob","NNP","jacob"]
      ]
    },
    ["was","VBD","be"],
    ["the","DT","the"],
    ["chair","NN","chair"],
    ["of","IN","of"],
    ["mathematics","NNS","mathem"],
    ["in","IN","in"],
    {
      "tag":"GPE",
      "content":
      [
        ["Bale","NNP","bal"]
      ]
    },
    [".",".","."]
  ]
},
{
  "tag":"S",
  "content":
  [
    {
      "tag":"PERSON",
      "content":
      [
        ["Johann","NNP","johan"]
      ]
    },
    ["wanted","VBD","want"],
    ["that","IN","that"],
    ["chair","NN","chair"],
    [",",",",","],
    ["but","CC","but"],
    ["he","PRP","he"],
    ["was","VBD","be"],
    ["offered","VBN","off"],
    ["a","DT","a"],
    ["chair","JJ","chair"],
    ["in","IN","in"],
    {
      "tag":"GPE",
      "content":
      [
        ["Holland","NNP","holland"]
      ]
    },
    [".",".","."]
  ]
},
{
  "tag":"S",
  "content":
  [
    ["He","PRP","He"],
    ["vowed","VBD","vow"],
    ["not","RB","not"],
    ["to","TO","to"],
    ["come","VB","com"],
    ["back","RB","back"],
    ["to","TO","to"],
    {
      "tag":"GPE",
      "content":
      [
        ["Bale","NNP","bal"]
      ]
    },
    [".",".","."]
  ]
},
{
  "tag":"S",
  "content":
  [
    ["About","IN","About"],
    ["1705","CD","1705"],
    [",",",",","],
    {
      "tag":"PERSON",
      "content":
      [
        ["Johann","NNP","johan"]
      ]
    },
    ["'s","POS","'s"],
    ["father-in-law","NN","father-in-law"],
    ["was","VBD","be"],
    ["dying","VBG","die"],
    ["and","CC","and"],
    ["asking","VBG","ask"],
    ["for","IN","for"],
    ["his","PRP$","his"],
    ["daughter","NN","daught"],
    ["and","CC","and"],
    ["grandchildren","NNS","grandchild"],
    [",",",",","],
    ["so","RB","so"],
    {
      "tag":"PERSON",
      "content":
      [
        ["Johann","NNP","johan"]
      ]
    },
    ["came","VBD","com"],
    ["back","RP","back"],
    ["to","TO","to"],
    {
      "tag":"GPE",
      "content":
      [
        ["Bale","NNP","bal"]
      ]
    },
    [".",".","."]
  ]
},
{
  "tag":"S",
  "content":
  [
    ["While","IN","While"],
    ["traveling","VBG","travel"],
    [",",",",","],
    ["he","PRP","he"],
    ["did","VBD","do"],
    ["not","RB","not"],
    ["know","VB","know"],
    ["his","PRP$","his"],
    ["brother","NN","broth"],
    [",",",",","],
    {
      "tag":"PERSON",
      "content":
      [
        ["Jacob","NNP","jacob"]
      ]
    },
    [",",",",","],
    ["died","VBD","die"],
    ["of","IN","of"],
    ["tuberculosis","NN","tuberculos"],
    [".",".","."]
  ]
},
{
  "tag":"S",
  "content":
  [
    ["Once","RB","ont"],
    ["he","PRP","he"],
    ["realized","VBD","real"],
    ["of","IN","of"],
    ["his","PRP$","his"],
    ["brother","NN","broth"],
    ["'s","POS","'s"],
    ["death","NN","dea"],
    [",",",",","],
    {
      "tag":"PERSON",
      "content":
      [
        ["Johann","NNP","johan"]
      ]
    },
    ["took","VBD","tak"],
    ["his","PRP$","his"],
    ["chair","NN","chair"],
    [".",".","."]
  ]
},
{
  "tag":"S",
  "content":
  [
    {
      "tag":"PERSON",
      "content":
      [
        ["Johann","NNP","johan"]
      ]
    },
    ["had","VBD","hav"],
    ["three","CD","three"],
    ["sons","NNS","son"],
    ["and","CC","and"],
    ["one","CD","one"],
    ["of","IN","of"],
    ["his","PRP$","his"],
    ["sons","NNS","son"],
    ["became","VBD","becom"],
    ["a","DT","a"],
    ["profound","NN","profound"],
    ["mathematician","NN","mathem"],
    [".",".","."]
  ]
},
{
  "tag":"S",
  "content":
  [
    {
      "tag":"PERSON",
      "content":
      [
        ["Daniel","NNP","daniel"],
        ["Bernoulli","NNP","bernoull"]
      ]
    },
    [",",",",","],
    ["born","NN","born"],
    ["1700","CD","1700"],
    ["and","CC","and"],
    ["died","VBD","die"],
    ["1787","CD","1787"],
    ["in","IN","in"],
    {
      "tag":"GPE",
      "content":
      [
        ["Bale","NNP","bal"]
      ]
    },
    [".",".","."]
  ]
},
{
  "tag":"S",
  "content":
  [
    {
      "tag":"PERSON",
      "content":
      [
        ["Johann","NNP","johan"]
      ]
    },
    ["was","VBD","be"],
    ["determined","VBN","determin"],
    ["to","TO","to"],
    ["make","VB","mak"],
    {
      "tag":"PERSON",
      "content":
      [
        ["Daniel","NNP","daniel"]
      ]
    },
    ["a","DT","a"],
    ["merchant","NN","merch"],
    [".",".","."]
  ]
},
{
  "tag":"S",
  "content":
  [
    ["Like","IN","Like"],
    ["a","DT","a"],
    {
      "tag":"ORGANIZATION",
      "content":
      [
        ["Bernoulli","NNP","bernoull"]
      ]
    },
    [",",",",","],
    {
      "tag":"PERSON",
      "content":
      [
        ["Daniel","NNP","daniel"]
      ]
    },
    ["did","VBD","do"],
    ["not","RB","not"],
    ["want","VB","want"],
    ["to","TO","to"],
    ["learn","VB","learn"],
    ["the","DT","the"],
    ["business","NN","busy"],
    [".",".","."]
  ]
},
{
  "tag":"S",
  "content":
  [
    ["He","PRP","He"],
    ["wanted","VBD","want"],
    ["to","TO","to"],
    ["study","NN","study"],
    ["mathematics","NNS","mathem"],
    [".",".","."]
  ]
},
{
  "tag":"S",
  "content":
  [
    ["Of","IN","Of"],
    ["course","NN","cours"],
    [",",",",","],
    {
      "tag":"PERSON",
      "content":
      [
        ["Johann","NNP","johan"]
      ]
    },
    ["'s","POS","'s"],
    ["stubborness","NN","stub"],
    ["made","VBD","mak"],
    {
      "tag":"PERSON",
      "content":
      [
        ["Daniel","NNP","daniel"]
      ]
    },
    ["to","TO","to"],
    ["study","VB","study"],
    ["medicine","NN","medicin"],
    [".",".","."]
  ]
},
{
  "tag":"S",
  "content":
  [
    ["He","PRP","He"],
    ["tried","VBD","try"],
    ["to","TO","to"],
    ["convince","NN","convint"],
    {
      "tag":"PERSON",
      "content":
      [
        ["Daniel","NNP","daniel"]
      ]
    },
    ["that","IN","that"],
    ["there","EX","there"],
    ["is","VBZ","be"],
    ["no","DT","no"],
    ["money","NN","money"],
    ["in","IN","in"],
    ["mathematics","NN","mathem"],
    [".",".","."]
  ]
},
{
  "tag":"S",
  "content":
  [
    {
      "tag":"PERSON",
      "content":
      [
        ["Daniel","NNP","daniel"]
      ]
    },
    ["did","VBD","do"],
    ["study","NN","study"],
    ["medicine","NN","medicin"],
    ["and","CC","and"],
    ["applied","VBD","apply"],
    ["mathematical","JJ","mathem"],
    ["physics","NN","phys"],
    ["to","TO","to"],
    ["it","PRP","it"],
    [",",",",","],
    ["which","WDT","which"],
    ["he","PRP","he"],
    ["received","VBD","receiv"],
    ["a","DT","a"],
    ["medical","JJ","med"],
    ["doctorate","NN","doct"],
    [".",".","."]
  ]
},
{
  "tag":"S",
  "content":
  [
    {
      "tag":"PERSON",
      "content":
      [
        ["Daniel","NNP","daniel"]
      ]
    },
    {
      "tag":"PERSON",
      "content":
      [
        ["Bernoulli","NNP","bernoull"]
      ]
    },
    ["was","VBD","be"],
    ["natural","JJ","nat"],
    ["philosopher","NN","philosoph"],
    ["who","WP","who"],
    ["applied","VBD","apply"],
    ["mathematics","NNS","mathem"],
    ["in","IN","in"],
    ["his","PRP$","his"],
    ["work","NN","work"],
    [".",".","."]
  ]
},
{
  "tag":"S",
  "content":
  [
    ["He","PRP","He"],
    ["developed","VBD","develop"],
    ["Hydrodynamics","NNP","hydrodynam"],
    [".",".","."]
  ]
},
{
  "tag":"S",
  "content":
  [
    ["He","PRP","He"],
    ["analyzed","VBD","analys"],
    ["the","DT","the"],
    ["flow","NN","flow"],
    ["of","IN","of"],
    ["water","NN","wat"],
    ["from","IN","from"],
    ["a","DT","a"],
    ["hole","NN","hol"],
    ["in","IN","in"],
    ["a","DT","a"],
    ["container","NN","contain"],
    [".",".","."]
  ]
},
{
  "tag":"S",
  "content":
  [
    ["This","DT","This"],
    ["was","VBD","be"],
    ["for","IN","for"],
    ["conservation","NN","conserv"],
    ["of","IN","of"],
    ["energy","NN","energy"],
    ["which","WDT","which"],
    ["he","PRP","he"],
    ["developed","VBD","develop"],
    ["pumps","NNS","pump"],
    ["and","CC","and"],
    ["machines","NNS","machin"],
    ["to","TO","to"],
    ["raise","VB","rais"],
    ["water","NN","wat"],
    [".",".","."]
  ]
},
{
  "tag":"S",
  "content":
  [
    {
      "tag":"PERSON",
      "content":
      [
        ["Daniel","NNP","daniel"]
      ]
    },
    ["was","VBD","be"],
    ["a","DT","a"],
    ["home-body","JJ","home-body"],
    ["person","NN","person"],
    [".",".","."]
  ]
},
{
  "tag":"S",
  "content":
  [
    ["He","PRP","He"],
    ["did","VBD","do"],
    ["not","RB","not"],
    ["like","IN","like"],
    ["to","TO","to"],
    ["travel","NN","travel"],
    ["much","RB","much"],
    [".",".","."]
  ]
},
{
  "tag":"S",
  "content":
  [
    ["He","PRP","He"],
    ["would","MD","would"],
    ["get","VB","get"],
    ["sick","NN","sick"],
    [",",",",","],
    ["complain","NN","complain"],
    ["about","IN","about"],
    ["the","DT","the"],
    ["weather","NN","weath"],
    [",",",",","],
    ["and","CC","and"],
    ["be","VB","be"],
    ["miserable","JJ","mis"],
    [".",".","."]
  ]
},
{
  "tag":"S",
  "content":
  [
    {
      "tag":"GPE",
      "content":
      [
        ["Daniel","NNP","daniel"]
      ]
    },
    ["travel","NN","travel"],
    ["to","TO","to"],
    {
      "tag":"GPE",
      "content":
      [
        ["Danzig","NNP","danzig"]
      ]
    },
    [",",",",","],
    {
      "tag":"GPE",
      "content":
      [
        ["Hamburg","NNP","hamburg"]
      ]
    },
    [",",",",","],
    {
      "tag":"GPE",
      "content":
      [
        ["Holland","NNP","holland"]
      ]
    },
    [",",",",","],
    ["and","CC","and"],
    {
      "tag":"GPE",
      "content":
      [
        ["Paris","NNP","par"]
      ]
    },
    [".",".","."]
  ]
},
{
  "tag":"S",
  "content":
  [
    ["He","PRP","He"],
    ["worked","VBD","work"],
    ["in","IN","in"],
    {
      "tag":"GPE",
      "content":
      [
        ["Venice","NNP","ven"]
      ]
    },
    ["and","CC","and"],
    {
      "tag":"GPE",
      "content":
      [
        ["St.","NNP","st."],
        ["Petersburg","NNP","petersburg"]
      ]
    },
    ["mostly","RB","most"],
    [".",".","."]
  ]
},
{
  "tag":"S",
  "content":
  [
    ["He","PRP","He"],
    ["would","MD","would"],
    ["ask","VB","ask"],
    ["his","PRP$","his"],
    ["father","NN","fath"],
    ["to","TO","to"],
    ["come","VB","com"],
    ["home","NN","hom"],
    [",",",",","],
    ["but","CC","but"],
    ["his","PRP$","his"],
    ["father","NN","fath"],
    ["said","VBD","say"],
    ["no","DT","no"],
    [".",".","."]
  ]
},
{
  "tag":"S",
  "content":
  [
    ["His","PRP$","His"],
    ["father","NN","fath"],
    ["sent","NN","sent"],
    ["his","PRP$","his"],
    ["best","JJS","best"],
    ["student","NN","stud"],
    [",",",",","],
    {
      "tag":"PERSON",
      "content":
      [
        ["Leonard","NNP","leonard"],
        ["Euler","NNP","eul"]
      ]
    },
    [",",",",","],
    ["to","TO","to"],
    ["work","VB","work"],
    ["with","IN","with"],
    ["him","PRP","him"],
    [".",".","."]
  ]
},
{
  "tag":"S",
  "content":
  [
    {
      "tag":"PERSON",
      "content":
      [
        ["Daniel","NNP","daniel"]
      ]
    },
    ["and","CC","and"],
    {
      "tag":"PERSON",
      "content":
      [
        ["Euler","NNP","eul"]
      ]
    },
    ["worked","VBD","work"],
    ["in","IN","in"],
    {
      "tag":"GPE",
      "content":
      [
        ["St.","NNP","st."],
        ["Petersburg","NNP","petersburg"]
      ]
    },
    ["on","IN","on"],
    ["the","DT","the"],
    ["vibration","NN","vibr"],
    ["and","CC","and"],
    ["frequency","NN","frequ"],
    ["of","IN","of"],
    ["sounds","NNS","sound"],
    ["by","IN","by"],
    ["using","VBG","us"],
    ["musical","JJ","mus"],
    ["instruments","NNS","instru"],
    [".",".","."]
  ]
},
{
  "tag":"S",
  "content":
  [
    ["In","IN","In"],
    ["1734","CD","1734"],
    [",",",",","],
    ["he","PRP","he"],
    ["returned","VBD","return"],
    ["to","TO","to"],
    {
      "tag":"GPE",
      "content":
      [
        ["Bale","NNP","bal"]
      ]
    },
    ["and","CC","and"],
    ["entered","VBD","ent"],
    ["a","DT","a"],
    ["contest","NN","contest"],
    ["in","IN","in"],
    {
      "tag":"GPE",
      "content":
      [
        ["Paris","NNP","par"]
      ]
    },
    ["Academy","NNP","academy"],
    ["for","IN","for"],
    ["his","PRP$","his"],
    ["ideas","NNS","ide"],
    ["of","IN","of"],
    ["astronomy","NN","astronom"],
    [".",".","."]
  ]
},
{
  "tag":"S",
  "content":
  [
    ["His","PRP$","His"],
    ["father","NN","fath"],
    ["entered","VBD","ent"],
    ["at","IN","at"],
    ["the","DT","the"],
    ["same","JJ","sam"],
    ["time","NN","tim"],
    ["which","WDT","which"],
    ["they","PRP","they"],
    ["jointly","RB","joint"],
    ["won","VBD","win"],
    ["the","DT","the"],
    {
      "tag":"FACILITY",
      "content":
      [
        ["Grand","NNP","grand"],
        ["Prize","NNP","priz"]
      ]
    },
    [".",".","."]
  ]
},
{
  "tag":"S",
  "content":
  [
    {
      "tag":"PERSON",
      "content":
      [
        ["Johann","NNP","johan"]
      ]
    },
    ["'s","POS","'s"],
    ["ego","NN","ego"],
    ["could","MD","could"],
    ["not","RB","not"],
    ["stand","VB","stand"],
    ["being","VBG","be"],
    ["pronounced","VBN","pronount"],
    ["as","IN","as"],
    ["an","DT","an"],
    ["equal","JJ","eq"],
    ["to","TO","to"],
    ["his","PRP$","his"],
    ["son","NN","son"],
    [",",",",","],
    ["so","RB","so"],
    ["he","PRP","he"],
    ["banned","VBD","ban"],
    {
      "tag":"PERSON",
      "content":
      [
        ["Daniel","NNP","daniel"]
      ]
    },
    ["from","IN","from"],
    ["his","PRP$","his"],
    ["house","NN","hous"],
    [".",".","."]
  ]
},
{
  "tag":"S",
  "content":
  [
    {
      "tag":"PERSON",
      "content":
      [
        ["Johann","NNP","johan"]
      ]
    },
    ["went","VBD","go"],
    ["so","RB","so"],
    ["far","RB","far"],
    ["as","IN","as"],
    ["stole","JJ","stol"],
    ["one","CD","one"],
    ["of","IN","of"],
    {
      "tag":"PERSON",
      "content":
      [
        ["Daniel","NNP","daniel"]
      ]
    },
    ["'s","POS","'s"],
    ["papers","NNS","pap"],
    ["and","CC","and"],
    ["submit","VB","submit"],
    ["his","PRP$","his"],
    ["name","NN","nam"],
    ["to","TO","to"],
    ["it","PRP","it"],
    [".",".","."]
  ]
},
{
  "tag":"S",
  "content":
  [
    ["The","DT","The"],
    {
      "tag":"ORGANIZATION",
      "content":
      [
        ["Bernoulli","NNP","bernoull"]
      ]
    },
    ["blood","NN","blood"],
    ["may","MD","may"],
    ["be","VB","be"],
    ["filled","VBN","fil"],
    ["with","IN","with"],
    ["fire","NN","fir"],
    [",",",",","],
    ["but","CC","but"],
    ["they","PRP","they"],
    ["did","VBD","do"],
    ["have","VB","hav"],
    ["a","DT","a"],
    ["passion","NN","pass"],
    ["for","IN","for"],
    ["mathematics","NNS","mathem"],
    [".",".","."]
  ]
},
{
  "tag":"S",
  "content":
  [
    {
      "tag":"GSP",
      "content":
      [
        ["Contributed","NNP","contribut"]
      ]
    },
    ["by","IN","by"],
    {
      "tag":"PERSON",
      "content":
      [
        ["Tina","NNP","tin"],
        ["Gonzales","NNP","gonz"]
      ]
    },
    ["References","NNPS","ref"],
    [":",":",":"],
    {
      "tag":"PERSON",
      "content":
      [
        ["Golba","NNP","golb"]
      ]
    },
    [",",",",","],
    ["P.","NNP","p."],
    ["(","NNP","("],
    ["1994","CD","1994"],
    [")","CD",")"],
    [".",".","."]
  ]
},
{
  "tag":"S",
  "content":
  [
    {
      "tag":"PERSON",
      "content":
      [
        ["Johan","NNP","joh"]
      ]
    },
    {
      "tag":"ORGANIZATION",
      "content":
      [
        ["Bernoulli","NNP","bernoull"]
      ]
    },
    [".",".","."]
  ]
},
{
  "tag":"S",
  "content":
  [
    ["[","NN","["],
    {
      "tag":"PERSON",
      "content":
      [
        ["Online","NNP","onlin"]
      ]
    },
    ["]","NNP","]"],
    [".",".","."]
  ]
},
{
  "tag":"S",
  "content":
  [
    ["Available","JJ","avail"],
    [":",":",":"],
    ["http","NN","http"],
    [":",":",":"],
    ["//www.shu.edu/projects/reals/history/bernoull.html","JJ","//www.shu.edu/projects/reals/history/bernoull.html"],
    [".",".","."]
  ]
},
{
  "tag":"S",
  "content":
  [
    {
      "tag":"GPE",
      "content":
      [
        ["Kline","NNP","klin"]
      ]
    },
    [",",",",","],
    ["M.","NNP","m."],
    ["(","NNP","("],
    ["1959","CD","1959"],
    [")","CD",")"],
    [".",".","."]
  ]
},
{
  "tag":"S",
  "content":
  [
    ["Mathematics","NNS","mathem"],
    ["and","CC","and"],
    ["physical","JJ","phys"],
    ["world","NN","world"],
    [".",".","."]
  ]
},
{
  "tag":"S",
  "content":
  [
    {
      "tag":"GPE",
      "content":
      [
        ["New","NNP","new"],
        ["York","NNP","york"]
      ]
    },
    [":",":",":"],
    ["Dover","NNP","dov"],
    [".",".","."]
  ]
},
{
  "tag":"S",
  "content":
  [
    {
      "tag":"GPE",
      "content":
      [
        ["Sighn","NNP","sighn"]
      ]
    },
    [",",",",","],
    ["S.","NNP","s."],
    ["(","NNP","("],
    ["1997","CD","1997"],
    [")","CD",")"],
    [".",".","."]
  ]
},
{
  "tag":"S",
  "content":
  [
    {
      "tag":"GPE",
      "content":
      [
        ["Fermat","NNP","ferm"]
      ]
    },
    ["'s","POS","'s"],
    ["enigma","NN","enigm"],
    [".",".","."]
  ]
},
{
  "tag":"S",
  "content":
  [
    {
      "tag":"GPE",
      "content":
      [
        ["New","NNP","new"],
        ["York","NNP","york"]
      ]
    },
    [":",":",":"],
    ["Doubleday","NNP","doubleday"],
    [".",".","."]
  ]
},
{
  "tag":"S",
  "content":
  [
    {
      "tag":"ORGANIZATION",
      "content":
      [
        ["University","NNP","univers"]
      ]
    },
    ["of","IN","of"],
    {
      "tag":"GPE",
      "content":
      [
        ["St.","NNP","st."]
      ]
    },
    ["Andrews","NNP","andrew"],
    [".",".","."]
  ]
},
{
  "tag":"S",
  "content":
  [
    {
      "tag":"GPE",
      "content":
      [
        ["School","NNP","school"]
      ]
    },
    ["of","IN","of"],
    {
      "tag":"GPE",
      "content":
      [
        ["Mathematics","NNP","mathem"]
      ]
    },
    ["and","CC","and"],
    {
      "tag":"ORGANIZATION",
      "content":
      [
        ["Statistics","NNP","stat"]
      ]
    },
    ["(","NNP","("],
    ["September","NNP","septemb"],
    ["1998","CD","1998"],
    [")","CD",")"],
    [".",".","."]
  ]
},
{
  "tag":"S",
  "content":
  [
    {
      "tag":"PERSON",
      "content":
      [
        ["Daniel","NNP","daniel"]
      ]
    },
    {
      "tag":"ORGANIZATION",
      "content":
      [
        ["Bernoulli","NNP","bernoull"]
      ]
    },
    [".",".","."]
  ]
},
{
  "tag":"S",
  "content":
  [
    ["[","NN","["],
    {
      "tag":"PERSON",
      "content":
      [
        ["Online","NNP","onlin"]
      ]
    },
    ["]","NNP","]"],
    [".",".","."]
  ]
},
{
  "tag":"S",
  "content":
  [
    ["Available","JJ","avail"],
    [":",":",":"],
    ["http","NN","http"],
    [":",":",":"],
    ["//www.-history.mcs.st-andrews.ac.uk/history/Mathematicians/Bernoulli_Daniel.html","JJ","//www.-history.mcs.st-andrews.ac.uk/history/mathematicians/bernoulli_daniel.html"],
    [".",".","."]
  ]
},
{
  "tag":"S",
  "content":
  [
    {
      "tag":"ORGANIZATION",
      "content":
      [
        ["University","NNP","univers"]
      ]
    },
    ["of","IN","of"],
    {
      "tag":"GPE",
      "content":
      [
        ["St.","NNP","st."]
      ]
    },
    ["Andrews","NNP","andrew"],
    [".",".","."]
  ]
},
{
  "tag":"S",
  "content":
  [
    {
      "tag":"GPE",
      "content":
      [
        ["School","NNP","school"]
      ]
    },
    ["of","IN","of"],
    {
      "tag":"GPE",
      "content":
      [
        ["Mathematics","NNP","mathem"]
      ]
    },
    ["and","CC","and"],
    {
      "tag":"ORGANIZATION",
      "content":
      [
        ["Statistics","NNP","stat"]
      ]
    },
    ["(","NNP","("],
    ["September","NNP","septemb"],
    ["1998","CD","1998"],
    [")","CD",")"],
    [".",".","."]
  ]
},
{
  "tag":"S",
  "content":
  [
    {
      "tag":"PERSON",
      "content":
      [
        ["Jacob","NNP","jacob"]
      ]
    },
    {
      "tag":"ORGANIZATION",
      "content":
      [
        ["Bernoulli","NNP","bernoull"]
      ]
    },
    [".",".","."]
  ]
},
{
  "tag":"S",
  "content":
  [
    ["[","NN","["],
    {
      "tag":"PERSON",
      "content":
      [
        ["Online","NNP","onlin"]
      ]
    },
    ["]","NNP","]"],
    [".",".","."]
  ]
},
{
  "tag":"S",
  "content":
  [
    ["Available","JJ","avail"],
    [":",":",":"],
    ["http","NN","http"],
    [":",":",":"],
    ["//www.-history.mcs.st-andrews.ac.uk/history/Mathematicians/Bernoulli_Jacob.html","JJ","//www.-history.mcs.st-andrews.ac.uk/history/mathematicians/bernoulli_jacob.html"],
    [".",".","."]
  ]
},
{
  "tag":"S",
  "content":
  [
    {
      "tag":"ORGANIZATION",
      "content":
      [
        ["University","NNP","univers"]
      ]
    },
    ["of","IN","of"],
    {
      "tag":"GPE",
      "content":
      [
        ["St.","NNP","st."]
      ]
    },
    ["Andrews","NNP","andrew"],
    [".",".","."]
  ]
},
{
  "tag":"S",
  "content":
  [
    {
      "tag":"GPE",
      "content":
      [
        ["School","NNP","school"]
      ]
    },
    ["of","IN","of"],
    {
      "tag":"GPE",
      "content":
      [
        ["Mathematics","NNP","mathem"]
      ]
    },
    ["and","CC","and"],
    {
      "tag":"ORGANIZATION",
      "content":
      [
        ["Statistics","NNP","stat"]
      ]
    },
    ["(","NNP","("],
    ["September","NNP","septemb"],
    ["1998","CD","1998"],
    [")","CD",")"],
    [".",".","."]
  ]
},
{
  "tag":"S",
  "content":
  [
    {
      "tag":"PERSON",
      "content":
      [
        ["Johann","NNP","johan"]
      ]
    },
    {
      "tag":"ORGANIZATION",
      "content":
      [
        ["Bernoulli","NNP","bernoull"]
      ]
    },
    [".",".","."]
  ]
},
{
  "tag":"S",
  "content":
  [
    ["[","NN","["],
    {
      "tag":"PERSON",
      "content":
      [
        ["Online","NNP","onlin"]
      ]
    },
    ["]","NNP","]"],
    [".",".","."]
  ]
},
{
  "tag":"S",
  "content":
  [
    ["Available","JJ","avail"],
    [":",":",":"],
    ["http","NN","http"],
    [":",":",":"],
    ["//www.-history.mcs.st-andrews.ac.uk/history/Mathematicians/Bernoulli_Johann.html","JJ","//www.-history.mcs.st-andrews.ac.uk/history/mathematicians/bernoulli_johann.html"],
    [".",".","."]
  ]
},
{
  "tag":"S",
  "content":
  [
    {
      "tag":"GPE",
      "content":
      [
        ["Weissten","NNP","weisst"]
      ]
    },
    [",",",",","],
    ["E.","NNP","e."],
    ["(","NNP","("],
    ["1996","CD","1996"],
    [")","CD",")"],
    [".",".","."]
  ]
},
{
  "tag":"S",
  "content":
  [
    {
      "tag":"PERSON",
      "content":
      [
        ["Bernoulli","NNP","bernoull"]
      ]
    },
    [",",",",","],
    {
      "tag":"GPE",
      "content":
      [
        ["Jakob","NNP","jakob"]
      ]
    },
    ["(","NNP","("],
    ["1654-1705","CD","1654-1705"],
    [")","CD",")"],
    [".",".","."]
  ]
},
{
  "tag":"S",
  "content":
  [
    ["[","NN","["],
    {
      "tag":"PERSON",
      "content":
      [
        ["Online","NNP","onlin"]
      ]
    },
    ["]","NNP","]"],
    ["Available","NNP","avail"],
    [":",":",":"],
    ["http","NN","http"],
    [":",":",":"],
    ["//www.treasure-troves.com/bios/BernoullliJakob.html","JJ","//www.treasure-troves.com/bios/bernoulllijakob.html"],
    [".",".","."]
  ]
},
{
  "tag":"S",
  "content":
  [
    {
      "tag":"GPE",
      "content":
      [
        ["Home","NN","hom"]
      ]
    },
    ["|","``","|"],
    ["Men","NNS","men"],
    ["|","VBP","|"],
    ["Women","NNS","wom"],
    ["|",":","|"],
    {
      "tag":"PERSON",
      "content":
      [
        ["Topics","NNP","top"]
      ]
    },
    ["|",":","|"],
    ["Activities","NNPS","act"]
  ]
}]