[
{
  "tag":"S",
  "content":
  [
    {
      "tag":"ORGANIZATION",
      "content":
      [
        ["HuffPost","NNP","huffpost"]
      ]
    },
    ["'s","POS","'s"],
    {
      "tag":"ORGANIZATION",
      "content":
      [
        ["QuickRead","NNP","quickread"]
      ]
    },
    ["...",":","..."],
    ["Loading","NNP","load"],
    ["...",":","..."],
    {
      "tag":"ORGANIZATION",
      "content":
      [
        ["HuffPost","NNP","huffpost"]
      ]
    },
    ["'s","POS","'s"],
    {
      "tag":"ORGANIZATION",
      "content":
      [
        ["QuickRead","NNP","quickread"]
      ]
    },
    ["...",":","..."],
    ["Loading","NNP","load"],
    ["...",":","..."],
    {
      "tag":"GPE",
      "content":
      [
        ["Iran","NNP","ir"]
      ]
    },
    ["iOS","NNP","io"],
    ["app","NN","ap"],
    {
      "tag":"PERSON",
      "content":
      [
        ["Android","NNP","android"]
      ]
    },
    ["app","NN","ap"],
    {
      "tag":"PERSON",
      "content":
      [
        ["More","NNP","mor"],
        ["Log","NNP","log"]
      ]
    },
    ["in","IN","in"],
    {
      "tag":"ORGANIZATION",
      "content":
      [
        ["Create","NNP","cre"],
        ["Account","NNP","account"],
        ["Notifications","NNP","not"]
      ]
    },
    ["Profile","NNP","profil"],
    ["Settings","NNP","set"],
    ["Logout","NNP","logout"],
    ["#","#","#"],
    {
      "tag":"ORGANIZATION",
      "content":
      [
        ["topnav_margin_btm","NNP","topnav_margin_btm"]
      ]
    },
    ["{","NNP","{"],
    ["margin:0","NNP","margin:0"],
    ["!",".","!"],
    ["important","JJ","import"],
    ["}","NN","}"],
    [".back-to-aol","NN",".back-to-aol"],
    ["{",":","{"],
    ["display","NN","display"],
    [":",":",":"],
    ["inline-block","JJ","inline-block"],
    ["!",".","!"],
    ["important","JJ","import"],
    [";",":",";"],
    ["float","JJ","flo"],
    [":",":",":"],
    ["left","VBN","leav"],
    [";",":",";"],
    ["padding-top","JJ","padding-top"],
    [":",":",":"],
    ["25px","CD","25px"],
    [";",":",";"],
    ["position","NN","posit"],
    [":",":",":"],
    ["absolute","JJ","absolv"],
    [";",":",";"],
    ["}",":","}"],
    ["October","NNP","octob"],
    ["16","CD","16"],
    [",",",",","],
    ["2013","CD","2013"],
    ["Edition","NNP","edit"],
    [":",":",":"],
    {
      "tag":"GPE",
      "content":
      [
        ["U.S.","NNP","u.s."]
      ]
    },
    ["CA","NNP","ca"],
    {
      "tag":"PERSON",
      "content":
      [
        ["Canada","NNP","canad"],
        ["DE","NNP","de"],
        ["Deutschland","NNP","deutschland"],
        ["ES","NNP","es"]
      ]
    },
    ["España","NNP","españ"],
    ["FR","NNP","fr"],
    ["France","NNP","frant"],
    ["IT","NNP","it"],
    {
      "tag":"PERSON",
      "content":
      [
        ["Italia","NNP","ital"],
        ["JP","NNP","jp"]
      ]
    },
    ["日本","NNP","日本"],
    ["(","NNP","("],
    {
      "tag":"GPE",
      "content":
      [
        ["Japan","NNP","jap"]
      ]
    },
    [")","NNP",")"],
    ["MG","NNP","mg"],
    {
      "tag":"PERSON",
      "content":
      [
        ["Maghreb","NNP","maghreb"],
        ["UK","NNP","uk"],
        ["United","NNP","unit"],
        ["Kingdom","NNP","kingdom"],
        ["US","NNP","us"],
        ["United","NNP","unit"]
      ]
    },
    {
      "tag":"PERSON",
      "content":
      [
        ["States","NNPS","stat"],
        ["Follow","NNP","follow"]
      ]
    },
    ["FRONT","NNP","front"],
    ["PAGE","NNP","pag"],
    ["Politics","NNP","polit"],
    ["Details","NNP","detail"],
    ["Of","NNP","of"],
    ["Deal","NNP","deal"],
    ["Released12k","NNP","released12k"],
    {
      "tag":"ORGANIZATION",
      "content":
      [
        ["Senate","NNP","sen"],
        ["Budget","NNP","budget"],
        ["Deal","NNP","deal"]
      ]
    },
    ["'Imminent","NNP","'imminent"],
    ["'","POS","'"],
    ["After","NNP","aft"],
    ["After","NNP","aft"],
    {
      "tag":"ORGANIZATION",
      "content":
      [
        ["House","NNP","hous"]
      ]
    },
    ["Fails15k","NNP","fails15k"],
    ["Why","NNP","why"],
    ["I","NNP","i"],
    {
      "tag":"PERSON",
      "content":
      [
        ["Will","NNP","wil"],
        ["Never","NNP","nev"]
      ]
    },
    [",",",",","],
    ["Ever","NNP","ev"],
    [",",",",","],
    {
      "tag":"PERSON",
      "content":
      [
        ["Go","NNP","go"],
        ["Back","NNP","back"]
      ]
    },
    ["to","TO","to"],
    ["the","DT","the"],
    {
      "tag":"ORGANIZATION",
      "content":
      [
        ["United","NNP","unit"]
      ]
    },
    ["States2.9k","NNP","states2.9k"],
    ["GOP","NNP","gop"],
    ["Lawmaker","NNP","lawmak"],
    {
      "tag":"PERSON",
      "content":
      [
        ["Breaks","NNP","break"],
        ["Ranks","NNP","rank"]
      ]
    },
    [",",",",","],
    {
      "tag":"PERSON",
      "content":
      [
        ["Calling","NNP","cal"],
        ["On","NNP","on"],
        ["Party","NNP","party"],
        ["To","NNP","to"]
      ]
    },
    ["'Face","NNP","'face"],
    ["Reality","NNP","real"],
    ["'","POS","'"],
    ["And","CC","And"],
    {
      "tag":"PERSON",
      "content":
      [
        ["End","NNP","end"]
      ]
    },
    ["Shutdown5.3k","NNP","shutdown5.3k"],
    {
      "tag":"ORGANIZATION",
      "content":
      [
        ["House","NNP","hous"]
      ]
    },
    ["GOP","NNP","gop"],
    {
      "tag":"PERSON",
      "content":
      [
        ["Unsure","NNP","uns"],
        ["House","NNP","hous"]
      ]
    },
    ["GOP","NNP","gop"],
    {
      "tag":"PERSON",
      "content":
      [
        ["Plan","NNP","plan"],
        ["Will","NNP","wil"]
      ]
    },
    ["Pass20k","NNP","pass20k"],
    ["Go","NNP","go"],
    ["to","TO","to"],
    {
      "tag":"PERSON",
      "content":
      [
        ["Politics","NNP","polit"],
        ["More","NNP","mor"]
      ]
    },
    ["in","IN","in"],
    {
      "tag":"GPE",
      "content":
      [
        ["Politics","NNP","polit"]
      ]
    },
    ["Pollster","NNP","pollst"],
    ["Politics","NNP","polit"],
    ["Blog","NNP","blog"],
    ["Off","NNP","off"],
    ["The","NNP","the"],
    {
      "tag":"ORGANIZATION",
      "content":
      [
        ["Bus","NNP","bus"],
        ["Election","NNP","elect"],
        ["Maps","NNP","map"]
      ]
    },
    ["You","NNP","you"],
    ["might","MD","might"],
    ["also","RB","also"],
    ["like","VB","lik"],
    {
      "tag":"PERSON",
      "content":
      [
        ["World","NNP","world"],
        ["Green","NNP","green"],
        ["Black","NNP","black"]
      ]
    },
    ["Voices","NNPS","voic"],
    {
      "tag":"ORGANIZATION",
      "content":
      [
        ["Latino","NNP","latino"],
        ["Voices","NNPS","voic"],
        ["Gay","NNP","gay"],
        ["Voices","NNPS","voic"],
        ["Business","NNP","busy"]
      ]
    },
    ["This","NNP","thi"],
    ["Is","VBZ","is"],
    ["Either","NNP","eith"],
    ["The","DT","The"],
    {
      "tag":"ORGANIZATION",
      "content":
      [
        ["World","NNP","world"]
      ]
    },
    ["'s","POS","'s"],
    {
      "tag":"PERSON",
      "content":
      [
        ["Laziest","NNP","laziest"],
        ["Customer","NNP","custom"],
        ["Or","NNP","or"]
      ]
    },
    ["Its","NNPS","it"],
    ["Most","NNP","most"],
    ["Genius995","NNP","genius995"],
    ["Ex-Heart","NNP","ex-heart"],
    ["Attack","NNP","attack"],
    {
      "tag":"PERSON",
      "content":
      [
        ["Grill","NNP","gril"],
        ["Hostess","NNP","hostess"],
        ["Rips","NNP","rip"]
      ]
    },
    ["Restaurant493","NNP","restaurant493"],
    {
      "tag":"PERSON",
      "content":
      [
        ["Fitch","NNP","fitch"],
        ["Considering","NNP","consid"],
        ["Downgrading","NNP","downgrad"],
        ["U.S.","NNP","u.s."],
        ["Credit","NNP","credit"]
      ]
    },
    ["Rating3.3k","NNP","rating3.3k"],
    {
      "tag":"PERSON",
      "content":
      [
        ["Rumor","NNP","rum"],
        ["Causes","NNP","caus"]
      ]
    },
    ["J.C.","NNP","j.c."],
    {
      "tag":"PERSON",
      "content":
      [
        ["Penney","NNP","penney"]
      ]
    },
    ["'s","POS","'s"],
    {
      "tag":"PERSON",
      "content":
      [
        ["Stock","NNP","stock"],
        ["To","NNP","to"],
        ["Tank129","NNP","tank129"],
        ["Study","NNP","study"]
      ]
    },
    [":",":",":"],
    {
      "tag":"ORGANIZATION",
      "content":
      [
        ["McDonald","NNP","mcdonald"]
      ]
    },
    ["'s","POS","'s"],
    {
      "tag":"PERSON",
      "content":
      [
        ["Low","NNP","low"],
        ["Wages","NNP","wag"],
        ["Cost","NNP","cost"]
      ]
    },
    ["Taxpayers","NNP","taxpay"],
    ["$","$","$"],
    ["1.2","CD","1.2"],
    ["Billion","CD","Billion"],
    ["Per","NNP","per"],
    ["Year2.1k","NNP","year2.1k"],
    ["Go","NNP","go"],
    ["to","TO","to"],
    {
      "tag":"ORGANIZATION",
      "content":
      [
        ["Business","NNP","busy"],
        ["More","NNP","mor"]
      ]
    },
    ["in","IN","in"],
    {
      "tag":"ORGANIZATION",
      "content":
      [
        ["Business","NNP","busy"],
        ["Small","NNP","smal"],
        ["Business","NNP","busy"],
        ["Money","NNP","money"]
      ]
    },
    ["You","NNP","you"],
    ["might","MD","might"],
    ["also","RB","also"],
    ["like","VB","lik"],
    {
      "tag":"PERSON",
      "content":
      [
        ["World","NNP","world"],
        ["Tech","NNP","tech"],
        ["Media","NNP","med"],
        ["Arts","NNP","art"],
        ["Sports","NNP","sport"],
        ["Weird","NNP","weird"]
      ]
    },
    ["Crime","NNP","crim"],
    ["Smarter","NNP","smart"],
    ["Ideas","NNP","idea"],
    ["Entertainment","NNP","entertain"],
    {
      "tag":"PERSON",
      "content":
      [
        ["Paul","NNP","paul"],
        ["McCartney","NNP","mccartney"],
        ["Defends","NNP","defend"],
        ["Miley","NNP","miley"]
      ]
    },
    ["Cyrus312","NNP","cyrus312"],
    {
      "tag":"PERSON",
      "content":
      [
        ["Joseph","NNP","joseph"]
      ]
    },
    ["Gordon-Levitt","NNP","gordon-levitt"],
    ["Denies","NNPS","deny"],
    ["He","NNP","he"],
    ["'s","POS","'s"],
    ["Playing","NNP","play"],
    ["'Ant-Man'72","NNP","'ant-man'72"],
    ["If","NNP","if"],
    ["The","NNP","the"],
    ["Plastics","NNP","plast"],
    ["Had","NNP","had"],
    ["iPhones","NNP","iphon"],
    [",",",",","],
    ["This","DT","This"],
    ["Is","VBZ","is"],
    ["What","WP","What"],
    ["They","PRP","They"],
    ["Would","MD","Would"],
    ["Look","VB","look"],
    {
      "tag":"PERSON",
      "content":
      [
        ["Like","NNP","lik"],
        ["Motown","NNP","motown"]
      ]
    },
    ["'s","POS","'s"],
    ["Chief","NNP","chief"],
    {
      "tag":"PERSON",
      "content":
      [
        ["Of","NNP","of"],
        ["Charm","NNP","charm"]
      ]
    },
    ["Dies52","NNP","dies52"],
    ["Rock","NNP","rock"],
    ["Hall","NNP","hal"],
    ["Of","NNP","of"],
    ["Fame","NNP","fam"],
    ["Nominees","NNP","nomin"],
    ["Announced855","NNP","announced855"],
    ["Go","NNP","go"],
    ["to","TO","to"],
    ["Entertainment","NNP","entertain"],
    ["More","NNP","mor"],
    ["in","IN","in"],
    ["Entertainment","NNP","entertain"],
    ["Celebrity","NNP","celebr"],
    ["TV","NNP","tv"],
    ["You","NNP","you"],
    ["might","MD","might"],
    ["also","RB","also"],
    ["like","VB","lik"],
    {
      "tag":"ORGANIZATION",
      "content":
      [
        ["Comedy","NNP","comedy"],
        ["Arts","NNP","art"],
        ["Books","NNP","book"],
        ["Food","NNP","food"],
        ["Style","NNP","styl"],
        ["Weird","NNP","weird"],
        ["Moviefone","NNP","moviefon"],
        ["Media","NNP","med"],
        ["Boehner","NNP","boehn"],
        ["Savaged","NNP","sav"]
      ]
    },
    ["In","NNP","in"],
    ["Press","NNP","press"],
    [":",":",":"],
    ["'Humiliating","JJ","'humiliating"],
    ["Failure'2k","NN","failure'2k"],
    {
      "tag":"PERSON",
      "content":
      [
        ["Chuck","NNP","chuck"],
        ["Todd","NNP","tod"]
      ]
    },
    ["BLOWS","NNP","blow"],
    ["UP","NNP","up"],
    ["At","NNP","at"],
    ["Ted","NNP","ted"],
    ["Cruz2.1k","NNP","cruz2.1k"],
    ["SORRY","NNP","sorry"],
    [",",",",","],
    ["MSNBC1.3k","NNP","msnbc1.3k"],
    {
      "tag":"PERSON",
      "content":
      [
        ["Glenn","NNP","glen"],
        ["Greenwald","NNP","greenwald"]
      ]
    },
    ["Leaving","NNP","leav"],
    ["The","NNP","the"],
    {
      "tag":"PERSON",
      "content":
      [
        ["Guardian","NNP","guard"],
        ["For","NNP","for"],
        ["New","NNP","new"]
      ]
    },
    ["Venture1.1k","NNP","venture1.1k"],
    ["'The","NNP","'the"],
    ["View","NNP","view"],
    ["'","POS","'"],
    {
      "tag":"PERSON",
      "content":
      [
        ["Denies","NNPS","deny"],
        ["Major","NNP","maj"],
        ["Jenny","NNP","jenny"],
        ["McCarthy","NNP","mccarthy"]
      ]
    },
    {
      "tag":"ORGANIZATION",
      "content":
      [
        ["Rumor60","NNP","rumor60"],
        ["Go","NNP","go"]
      ]
    },
    ["to","TO","to"],
    {
      "tag":"ORGANIZATION",
      "content":
      [
        ["Media","NNP","med"],
        ["More","NNP","mor"]
      ]
    },
    ["in","IN","in"],
    {
      "tag":"GPE",
      "content":
      [
        ["Media","NNP","med"]
      ]
    },
    ["Eat","NNP","eat"],
    ["The","NNP","the"],
    ["Press","NNP","press"],
    ["Calderone","NNP","calderon"],
    [":",":",":"],
    ["The","DT","The"],
    {
      "tag":"ORGANIZATION",
      "content":
      [
        ["Backstory","NNP","backst"]
      ]
    },
    ["You","NNP","you"],
    ["might","MD","might"],
    ["also","RB","also"],
    ["like","VB","lik"],
    {
      "tag":"ORGANIZATION",
      "content":
      [
        ["Entertainment","NNP","entertain"]
      ]
    },
    ["TV","NNP","tv"],
    ["Comedy","NNP","comedy"],
    ["Arts","NNP","art"],
    {
      "tag":"PERSON",
      "content":
      [
        ["Books","NNP","book"],
        ["Religion","NNP","relig"],
        ["Moviefone","NNP","moviefon"],
        ["Green","NNP","green"]
      ]
    }
  ]
}]