[
{
  "tag":"S",
  "content":
  [
    {
      "tag":"GPE",
      "content":
      [
        ["Skip","NNP","skip"]
      ]
    },
    ["to","TO","to"],
    ["main","VB","main"],
    ["content","NN","cont"],
    ["A","DT","A"],
    ["&","CC","&"],
    {
      "tag":"ORGANIZATION",
      "content":
      [
        ["ENewsLifeLeisureSportsTechVideo","NNP","enewslifeleisuresportstechvideo"],
        ["Facebook","NNP","facebook"]
      ]
    },
    ["Twitter","NNP","twit"],
    ["Google+","NNP","google+"],
    ["Search","NNP","search"],
    ["Login/logout","NNP","login/logout"],
    ["Arts","NNP","art"],
    ["&","CC","&"],
    {
      "tag":"ORGANIZATION",
      "content":
      [
        ["Entertainment","NNP","entertain"],
        ["Arts","NNP","art"]
      ]
    },
    ["&","CC","&"],
    {
      "tag":"PERSON",
      "content":
      [
        ["Exhibits","NNP","exhibit"],
        ["Maria","NNP","mar"]
      ]
    },
    ["Pagés","NNP","pagé"],
    ["'","POS","'"],
    ["``","``","``"],
    {
      "tag":"ORGANIZATION",
      "content":
      [
        ["AUTORRETRATO","NNP","autorretrato"]
      ]
    },
    ["''","''","''"],
    ["(",":","("],
    {
      "tag":"GPE",
      "content":
      [
        ["Photos","NNP","photo"]
      ]
    },
    [")",":",")"],
    {
      "tag":"ORGANIZATION",
      "content":
      [
        ["Comment","NNP","com"],
        ["Share","NNP","shar"],
        ["Facebook","NNP","facebook"]
      ]
    },
    ["Twitter","NNP","twit"],
    ["Google+","NNP","google+"],
    ["Email","NNP","email"],
    ["Print","NNP","print"],
    ["See","NNP","see"],
    ["alsoDance","NNP","alsod"],
    ["Flamenco","NNP","flamenco"],
    ["Theater","NNP","the"],
    ["Arts","NNP","art"],
    ["Dance","NNP","dant"],
    ["Companies","NNPS","company"],
    ["View","NNP","view"],
    ["5","CD","5"],
    {
      "tag":"ORGANIZATION",
      "content":
      [
        ["photosCamera","NNP","photoscamer"],
        ["Maria","NNP","mar"]
      ]
    },
    ["Pagés","NNP","pagé"],
    ["-",":","-"],
    {
      "tag":"GPE",
      "content":
      [
        ["AUTORRETRATO","NNP","autorretrato"]
      ]
    },
    ["(",":","("],
    {
      "tag":"ORGANIZATION",
      "content":
      [
        ["RIK","NNP","rik"]
      ]
    },
    ["ROE","NNP","roe"],
    [")","NNP",")"],
    ["Rik","NNP","rik"],
    ["RoeMontreal","NNP","roemont"],
    ["Event","NNP","ev"],
    ["Photography","NNP","photograph"],
    ["Examiner","NNP","examin"],
    ["Subscribe","NNP","subscrib"],
    ["Follow","NNP","follow"],
    [":",":",":"],
    {
      "tag":"PERSON",
      "content":
      [
        ["Related","NNP","rel"],
        ["Photo","NNP","photo"]
      ]
    },
    [":",":",":"],
    {
      "tag":"PERSON",
      "content":
      [
        ["Rik","NNP","rik"],
        ["Roe","NNP","roe"],
        ["Maria","NNP","mar"]
      ]
    },
    ["Pagés","NNP","pagé"],
    [".",".","."]
  ]
},
{
  "tag":"S",
  "content":
  [
    {
      "tag":"PERSON",
      "content":
      [
        ["Rik","NNP","rik"]
      ]
    },
    {
      "tag":"PERSON",
      "content":
      [
        ["Roe","NNP","roe"],
        ["Advertisement","NNP","advert"]
      ]
    },
    ["AUTORRETRATO","NNP","autorretrato"],
    ["Rating","NNP","rat"],
    [":",":",":"],
    {
      "tag":"ORGANIZATION",
      "content":
      [
        ["Star5StarStarStarStar","NNP","star5starstarstarst"]
      ]
    },
    ["April","NNP","april"],
    ["8","CD","8"],
    [",",",",","],
    ["2013","CD","2013"],
    ["Taking","NNP","tak"],
    ["place","NN","plac"],
    ["at","IN","at"],
    ["our","PRP$","our"],
    ["very","RB","very"],
    ["own","JJ","own"],
    ["Place","NNP","plac"],
    ["des","VBZ","des"],
    ["Arts","NNS","art"],
    [",",",",","],
    ["we","PRP","we"],
    ["took","VBD","tak"],
    ["a","DT","a"],
    ["90-minute","JJ","90-minute"],
    ["long","JJ","long"],
    ["visual","JJ","vis"],
    ["and","CC","and"],
    ["auditory","NN","audit"],
    ["voyage","NN","voy"],
    ["with","IN","with"],
    ["the","DT","the"],
    ["talents","NNS","tal"],
    ["of","IN","of"],
    ["the","DT","the"],
    {
      "tag":"FACILITY",
      "content":
      [
        ["Maria","NNP","mar"]
      ]
    },
    ["Pagés","NNP","pagé"],
    ["Compañía","NNP","compañí"],
    ["presentation","NN","pres"],
    [",",",",","],
    ["“Autorretrato”","NNP","“autorretrato”"],
    [";",":",";"],
    ["a","DT","a"],
    ["self-portait","JJ","self-portait"],
    ["by","IN","by"],
    {
      "tag":"PERSON",
      "content":
      [
        ["Maria","NNP","mar"],
        ["Pages","NNP","pag"]
      ]
    },
    [",",",",","],
    ["inspired","VBD","inspir"],
    ["by","IN","by"],
    ["a","DT","a"],
    ["suggestion","NN","suggest"],
    ["from","IN","from"],
    {
      "tag":"PERSON",
      "content":
      [
        ["Mikhail","NNP","mikhail"],
        ["Baryshnikov","NNP","baryshnikov"]
      ]
    },
    [",",",",","],
    ["to","TO","to"],
    ["create","VB","cre"],
    ["her","PRP$","her"],
    ["very","JJ","very"],
    ["own","JJ","own"],
    ["personal","JJ","person"],
    ["study","NN","study"],
    [".",".","."]
  ]
},
{
  "tag":"S",
  "content":
  [
    ["Using","VBG","us"],
    ["dance","NN","dant"],
    [",",",",","],
    ["song","JJ","song"],
    [",",",",","],
    ["and","CC","and"],
    ["guitar","NN","guit"],
    [";",":",";"],
    ["reflecting","VBG","reflect"],
    ["a","DT","a"],
    ["blend","NN","blend"],
    ["of","IN","of"],
    {
      "tag":"PERSON",
      "content":
      [
        ["Arab","NNP","arab"]
      ]
    },
    [",",",",","],
    {
      "tag":"GPE",
      "content":
      [
        ["Jewish","NNP","jew"]
      ]
    },
    [",",",",","],
    {
      "tag":"GPE",
      "content":
      [
        ["Persian","NNP","pers"]
      ]
    },
    ["and","CC","and"],
    {
      "tag":"GPE",
      "content":
      [
        ["Indian","NNP","ind"]
      ]
    },
    ["influences","NNS","influ"],
    [",",",",","],
    {
      "tag":"PERSON",
      "content":
      [
        ["Flamenco","NNP","flamenco"]
      ]
    },
    ["was","VBD","be"],
    ["presented","VBN","pres"],
    ["in","IN","in"],
    ["a","DT","a"],
    ["very","RB","very"],
    ["true","JJ","tru"],
    ["and","CC","and"],
    ["pure","NN","pur"],
    ["art","NN","art"],
    ["form","NN","form"],
    [".",".","."]
  ]
},
{
  "tag":"S",
  "content":
  [
    ["The","DT","The"],
    ["combination","NN","combin"],
    ["of","IN","of"],
    ["traditional","JJ","tradit"],
    ["poetry","NN","poetry"],
    ["and","CC","and"],
    ["lyrics","NNS","lyr"],
    ["along","IN","along"],
    ["with","IN","with"],
    ["inspired","VBN","inspir"],
    ["music","JJ","mus"],
    ["and","CC","and"],
    ["voice","NN","voic"],
    [",",",",","],
    ["consummate","JJ","consum"],
    ["the","DT","the"],
    ["passion","NN","pass"],
    ["of","IN","of"],
    ["“Autorretato”","NNP","“autorretato”"],
    [",",",",","],
    ["with","IN","with"],
    ["the","DT","the"],
    ["power","NN","pow"],
    ["of","IN","of"],
    ["flamenco","NN","flamenco"],
    [".",".","."]
  ]
},
{
  "tag":"S",
  "content":
  [
    {
      "tag":"GPE",
      "content":
      [
        ["Passion","NN","pass"]
      ]
    },
    ["is","VBZ","be"],
    ["the","DT","the"],
    ["simplest","JJS","simpl"],
    ["word","NN","word"],
    ["to","TO","to"],
    ["describe","VB","describ"],
    ["flamenco","NN","flamenco"],
    [".",".","."]
  ]
},
{
  "tag":"S",
  "content":
  [
    {
      "tag":"GPE",
      "content":
      [
        ["Felt","NNP","felt"]
      ]
    },
    ["through","IN","through"],
    ["ascension","NN","ascend"],
    [",",",",","],
    ["crescendos","NNS","crescendo"],
    [",",",",","],
    ["and","CC","and"],
    ["lulls","NNS","lul"],
    [";",":",";"],
    ["all","DT","all"],
    ["expressions","NNS","express"],
    ["in","IN","in"],
    ["dance","NN","dant"],
    ["and","CC","and"],
    ["music","JJ","mus"],
    [",",",",","],
    ["as","IN","as"],
    ["in","IN","in"],
    ["life","NN","lif"],
    [".",".","."]
  ]
},
{
  "tag":"S",
  "content":
  [
    {
      "tag":"GPE",
      "content":
      [
        ["Ninety","NN","nin"]
      ]
    },
    ["minutes","NNS","minut"],
    ["of","IN","of"],
    ["being","VBG","be"],
    ["transfixed","VBN","transfix"],
    ["and","CC","and"],
    ["enthralled.Expressed","JJ","enthralled.express"],
    ["through","IN","through"],
    ["dance","NN","dant"],
    [",",",",","],
    ["masterfully","RB","mast"],
    ["and","CC","and"],
    ["aesthetically","RB","aesthet"],
    ["presented","VBN","pres"],
    [",",",",","],
    ["“Autorretrato”","NNP","“autorretrato”"],
    ["was","VBD","be"],
    ["rhythmically","RB","rhythm"],
    ["entrancing","VBG","ent"],
    [".",".","."]
  ]
},
{
  "tag":"S",
  "content":
  [
    ["Be","VB","be"],
    ["it","PRP","it"],
    ["from","IN","from"],
    ["the","DT","the"],
    ["simplest","JJS","simpl"],
    ["of","IN","of"],
    ["light","JJ","light"],
    ["and","CC","and"],
    ["movement","NN","mov"],
    ["of","IN","of"],
    ["a","DT","a"],
    ["single","JJ","singl"],
    ["dancer","NN","dant"],
    ["under","IN","under"],
    ["a","DT","a"],
    ["spotlight","NN","spotlight"],
    ["in","IN","in"],
    ["silence","NN","sil"],
    [",",",",","],
    ["to","TO","to"],
    ["the","DT","the"],
    ["transition","NN","transit"],
    ["to","TO","to"],
    ["troupe","VB","troup"],
    ["and","CC","and"],
    ["full","JJ","ful"],
    ["stage","NN","stag"],
    [",",",",","],
    ["there","EX","there"],
    ["was","VBD","be"],
    ["naught","VBN","naught"],
    ["but","CC","but"],
    ["a","DT","a"],
    ["mere","JJ","mer"],
    ["moment","NN","mom"],
    ["to","TO","to"],
    ["breathe","DT","breathe"],
    ["and","CC","and"],
    ["have","VBP","hav"],
    ["a","DT","a"],
    ["respite","JJ","respit"],
    [".",".","."]
  ]
},
{
  "tag":"S",
  "content":
  [
    {
      "tag":"GPE",
      "content":
      [
        ["Flamboyant","NNP","flamboy"]
      ]
    },
    ["is","VBZ","be"],
    ["one","CD","one"],
    ["word","NN","word"],
    ["used","VBN","us"],
    ["to","TO","to"],
    ["describe","VB","describ"],
    ["the","DT","the"],
    ["overall","JJ","overal"],
    ["impression","NN","impress"],
    ["of","IN","of"],
    ["the","DT","the"],
    ["show","NN","show"],
    [",",",",","],
    ["but","CC","but"],
    ["I","PRP","I"],
    ["prefer","VBP","pref"],
    ["to","TO","to"],
    ["simply","RB","simply"],
    ["“not”","JJ","“not”"],
    ["categorize","NN","categ"],
    ["it","PRP","it"],
    ["under","IN","under"],
    {
      "tag":"GPE",
      "content":
      [
        ["Flamenco","NNP","flamenco"]
      ]
    },
    [".",".","."]
  ]
},
{
  "tag":"S",
  "content":
  [
    ["Everyone","NN","everyon"],
    ["on","IN","on"],
    ["stage","NN","stag"],
    [",",",",","],
    ["as","IN","as"],
    ["in","IN","in"],
    ["the","DT","the"],
    ["crowded","VBN","crowd"],
    {
      "tag":"ORGANIZATION",
      "content":
      [
        ["PDA","NNP","pda"]
      ]
    },
    [",",",",","],
    ["drank","NN","drank"],
    ["in","IN","in"],
    ["the","DT","the"],
    ["spirit","NN","spirit"],
    ["of","IN","of"],
    ["passion","NN","pass"],
    ["that","WDT","that"],
    ["was","VBD","be"],
    ["exuded","VBN","exud"],
    ["from","IN","from"],
    ["simplest","JJS","simpl"],
    ["of","IN","of"],
    ["notes","NNS","not"],
    [",",",",","],
    ["to","TO","to"],
    ["the","DT","the"],
    ["most","JJS","most"],
    ["ardent","NN","ard"],
    ["of","IN","of"],
    ["heel","NN","heel"],
    ["clicks","NNS","click"],
    [".",".","."]
  ]
},
{
  "tag":"S",
  "content":
  [
    ["From","IN","From"],
    ["the","DT","the"],
    ["swing","NN","swing"],
    ["of","IN","of"],
    ["a","DT","a"],
    ["shawl","NN","shawl"],
    [",",",",","],
    ["to","TO","to"],
    ["the","DT","the"],
    ["chatter","NN","chat"],
    ["of","IN","of"],
    ["castanets","NNS","castanet"],
    [",",",",","],
    ["to","TO","to"],
    ["the","DT","the"],
    ["on","IN","on"],
    ["stage","NN","stag"],
    ["smiles","NNS","smil"],
    ["between","IN","between"],
    ["company","NN","company"],
    ["members","NNS","memb"],
    [",",",",","],
    ["all","DT","all"],
    ["are","VBP","be"],
    ["major","JJ","maj"],
    ["and","CC","and"],
    ["minute","NN","minut"],
    ["parts","NNS","part"],
    ["of","IN","of"],
    ["the","DT","the"],
    ["whole","JJ","whol"],
    ["that","IN","that"],
    ["make","NN","mak"],
    ["it","PRP","it"],
    ["a","DT","a"],
    ["much","RB","much"],
    ["reveled","VBN","revel"],
    ["show","NN","show"],
    [".",".","."]
  ]
},
{
  "tag":"S",
  "content":
  [
    {
      "tag":"GPE",
      "content":
      [
        ["Real","NNP","real"]
      ]
    },
    ["and","CC","and"],
    ["believable","JJ","believ"],
    [",",",",","],
    ["and","CC","and"],
    ["fantastical","JJ","fantast"],
    [",",",",","],
    ["all","DT","all"],
    ["at","IN","at"],
    ["the","DT","the"],
    ["same","JJ","sam"],
    ["time","NN","tim"],
    [",",",",","],
    ["blending","VBG","blend"],
    ["in","IN","in"],
    ["a","DT","a"],
    ["90","CD","90"],
    ["minute","NN","minut"],
    ["gift","NN","gift"],
    [",",",",","],
    ["that","IN","that"],
    ["just","RB","just"],
    ["has","VBZ","hav"],
    ["you","PRP","you"],
    ["awed","VBD","aw"],
    ["and","CC","and"],
    ["entranced","VBN","ent"],
    [",",",",","],
    ["and","CC","and"],
    ["wantonly","RB","wanton"],
    ["wanting","VBG","want"],
    ["more","JJR","mor"],
    [".",".","."]
  ]
},
{
  "tag":"S",
  "content":
  [
    ["The","DT","The"],
    ["passion","NN","pass"],
    ["of","IN","of"],
    ["the","DT","the"],
    ["evening","NN","ev"],
    ["was","VBD","be"],
    ["received","VBN","receiv"],
    ["beyond","NN","beyond"],
    ["a","DT","a"],
    ["shadow","NN","shadow"],
    ["of","IN","of"],
    ["a","DT","a"],
    ["doubt","NN","doubt"],
    [".",".","."]
  ]
},
{
  "tag":"S",
  "content":
  [
    ["The","DT","The"],
    ["standing","NN","stand"],
    ["ovation","NN","ov"],
    ["was","VBD","be"],
    ["long","JJ","long"],
    [",",",",","],
    ["and","CC","and"],
    ["the","DT","the"],
    ["bows","NNS","bow"],
    ["were","VBD","be"],
    ["many","JJ","many"],
    [".",".","."]
  ]
},
{
  "tag":"S",
  "content":
  [
    {
      "tag":"GPE",
      "content":
      [
        ["Impressive","JJ","impress"]
      ]
    },
    [",",",",","],
    ["to","TO","to"],
    ["say","VB","say"],
    ["the","DT","the"],
    ["very","JJ","very"],
    ["least","JJS","least"],
    [".",".","."]
  ]
},
{
  "tag":"S",
  "content":
  [
    ["A","DT","A"],
    ["gift","NN","gift"],
    ["well","RB","wel"],
    ["received","VBD","receiv"],
    ["and","CC","and"],
    ["much","JJ","much"],
    ["appreciated","VBN","apprecy"],
    [".",".","."]
  ]
},
{
  "tag":"S",
  "content":
  [
    ["A","DT","A"],
    ["passion","NN","pass"],
    ["rediscovered","VBN","rediscov"],
    [",",",",","],
    ["the","DT","the"],
    ["love","NN","lov"],
    ["of","IN","of"],
    ["flamenco","NN","flamenco"],
    [".",".","."]
  ]
},
{
  "tag":"S",
  "content":
  [
    ["Gracias.¡Olé","NN","gracias.¡olé"],
    ["!","``","!"]
  ]
},
{
  "tag":"S",
  "content":
  [
    ["Next","JJ","next"],
    ["View","NNP","view"],
    ["the","DT","the"],
    ["slideshow","NN","slideshow"],
    ["Report","NNP","report"],
    ["this","DT","this"],
    ["content","NN","cont"],
    ["Comments","VBZ","com"],
    ["Advertisement","NNP","advert"],
    ["Next","NNP","next"],
    ["article","NN","artic"],
    ["‘Dancing","NN","‘dancing"],
    ["With","IN","With"],
    ["the","DT","the"],
    ["Stars’","JJ","stars’"],
    ["announces","NNS","annount"],
    ["new","JJ","new"],
    ["format","NN","form"],
    ["Related","NNP","rel"],
    ["slideshow","NN","slideshow"],
    ["2013","CD","2013"],
    ["Bessies","NNS","bessy"],
    ["18","CD","18"],
    {
      "tag":"PERSON",
      "content":
      [
        ["Photos","NNP","photo"],
        ["Advertisement","NNP","advert"],
        ["Popular","NNP","popul"]
      ]
    },
    ["in","IN","in"],
    {
      "tag":"GPE",
      "content":
      [
        ["Arts","NNP","art"]
      ]
    },
    ["&","CC","&"],
    {
      "tag":"PERSON",
      "content":
      [
        ["Exhibits","NNP","exhibit"],
        ["U.S.","NNP","u.s."],
        ["Army","NNP","army"]
      ]
    },
    ["plans","VBZ","plan"],
    ["to","TO","to"],
    ["shrink","VB","shrink"],
    ["human","JJ","hum"],
    ["ink","NN","ink"],
    ["canvases","NNS","canva"],
    {
      "tag":"PERSON",
      "content":
      [
        ["Kim","NNP","kim"],
        ["Kardashian","NNP","kardash"]
      ]
    },
    ["through","IN","through"],
    ["the","DT","the"],
    ["years","NNS","year"],
    ["'X","-NONE-","'X"],
    ["Factor","NNP","fact"],
    ["'","''","'"],
    ["2013","CD","2013"],
    [":",":",":"],
    ["Top","NNP","top"],
    ["16","CD","16"],
    ["set","NN","set"],
    ["for","IN","for"],
    ["live","JJ","liv"],
    ["shows","NNS","show"],
    [",",",",","],
    ["but","CC","but"],
    ["which","WDT","which"],
    ["act","NN","act"],
    ["looks","VBZ","look"],
    ["like","IN","like"],
    ["a","DT","a"],
    ["winner","NN","win"],
    ["?",".","?"]
  ]
},
{
  "tag":"S",
  "content":
  [
    ["Hugh","IN","Hugh"],
    {
      "tag":"PERSON",
      "content":
      [
        ["Laurie","NNP","laury"]
      ]
    },
    [":",":",":"],
    ["Doctor","NNP","doct"],
    ["in","IN","in"],
    ["the","DT","the"],
    ["house","NN","hous"],
    ["at","IN","at"],
    {
      "tag":"FACILITY",
      "content":
      [
        ["Schermerhorn","NNP","schermerhorn"],
        ["Symphony","NNP","symphony"],
        ["Center","NNP","cent"],
        ["How","NNP","how"]
      ]
    },
    ["tall","NN","tal"],
    ["are","VBP","be"],
    {
      "tag":"PERSON",
      "content":
      [
        ["Hollywood","NNP","hollywood"]
      ]
    },
    ["'s","POS","'s"],
    ["shortest","JJS","short"],
    ["stars","NNS","star"],
    ["?",".","?"]
  ]
},
{
  "tag":"S",
  "content":
  [
    {
      "tag":"GPE",
      "content":
      [
        ["Load","NNP","load"]
      ]
    },
    ["more","JJR","mor"],
    ["Latest","NNP","latest"],
    ["in","IN","in"],
    {
      "tag":"GPE",
      "content":
      [
        ["Arts","NNP","art"]
      ]
    },
    ["&","CC","&"],
    {
      "tag":"PERSON",
      "content":
      [
        ["Exhibits","NNP","exhibit"]
      ]
    },
    ["October","NNP","octob"],
    ["16","CD","16"],
    [",",",",","],
    ["2013","CD","2013"],
    ["God","NNP","god"],
    ["'s","POS","'s"],
    {
      "tag":"PERSON",
      "content":
      [
        ["Gypsy","NNP","gypsy"]
      ]
    },
    ["October","NNP","octob"],
    ["16","CD","16"],
    [",",",",","],
    ["2013","CD","2013"],
    ["Lia","NNP","lia"],
    {
      "tag":"PERSON",
      "content":
      [
        ["Martino","NNP","martino"]
      ]
    },
    ["'s","POS","'s"],
    ["fashion-forward","JJ","fashion-forward"],
    ["art","NN","art"],
    ["to","TO","to"],
    ["be","VB","be"],
    ["featured","VBN","feat"],
    ["at","IN","at"],
    {
      "tag":"ORGANIZATION",
      "content":
      [
        ["Miami","NNP","miam"],
        ["Fashion","NNP","fash"]
      ]
    },
    ["Launch","NNP","launch"],
    ["2013","CD","2013"],
    ["October","NNP","octob"],
    ["16","CD","16"],
    [",",",",","],
    ["2013","CD","2013"],
    ["Art’s","NNS","art’s"],
    ["unintended","VBD","unintend"],
    ["consequences","NNS","consequ"],
    ["are","VBP","be"],
    ["a","DT","a"],
    ["must","MD","must"],
    ["October","NNP","octob"],
    ["16","CD","16"],
    [",",",",","],
    ["2013","CD","2013"],
    {
      "tag":"PERSON",
      "content":
      [
        ["Blake","NNP","blak"],
        ["Shelton","NNP","shelton"]
      ]
    },
    ["has","VBZ","hav"],
    ["a","DT","a"],
    ["new","JJ","new"],
    ["commandment","NN","command"],
    ["for","IN","for"],
    {
      "tag":"ORGANIZATION",
      "content":
      [
        ["Westboro","NNP","westboro"],
        ["Baptist","NNP","bapt"],
        ["Church","NNP","church"]
      ]
    },
    ["October","NNP","octob"],
    ["16","CD","16"],
    [",",",",","],
    ["2013","CD","2013"],
    {
      "tag":"ORGANIZATION",
      "content":
      [
        ["Nashville","NNP","nashvil"],
        ["Area","NNP","are"],
        ["Hispanic","NNP","hisp"]
      ]
    },
    ["Chamber","NNP","chamb"],
    ["of","IN","of"],
    {
      "tag":"ORGANIZATION",
      "content":
      [
        ["Commerce","NNP","commerc"]
      ]
    },
    ["Presents","NNP","pres"],
    ["9th","CD","9th"],
    {
      "tag":"PERSON",
      "content":
      [
        ["Annual","NNP","an"],
        ["Awards","NNP","award"],
        ["Load","NNP","load"]
      ]
    },
    ["more","JJR","mor"]
  ]
}]