[
{
  "tag":"S",
  "content":
  [
    {
      "tag":"GPE",
      "content":
      [
        ["Chicago","NNP","chicago"]
      ]
    },
    ["magazine","NN","magazin"],
    ["Dining","NNP","din"],
    ["&","CC","&"],
    ["Drinking","NNP","drink"],
    ["Dining","NNP","din"],
    ["Guide","NNP","guid"],
    ["Arts","NNP","art"],
    ["&","CC","&"],
    {
      "tag":"PERSON",
      "content":
      [
        ["Culture","NNP","cult"],
        ["Politics","NNP","polit"]
      ]
    },
    ["&","CC","&"],
    {
      "tag":"ORGANIZATION",
      "content":
      [
        ["City","NNP","city"],
        ["Life","NNP","lif"],
        ["Real","NNP","real"],
        ["Estate","NNP","est"],
        ["Style","NNP","styl"]
      ]
    },
    ["&","CC","&"],
    {
      "tag":"ORGANIZATION",
      "content":
      [
        ["Shopping","NNP","shop"],
        ["Home","NNP","hom"]
      ]
    },
    ["&","CC","&"],
    {
      "tag":"PERSON",
      "content":
      [
        ["Garden","NNP","gard"],
        ["Travel","NNP","travel"],
        ["Best","NNP","best"]
      ]
    },
    ["of","IN","of"],
    {
      "tag":"GPE",
      "content":
      [
        ["Chicago","NNP","chicago"]
      ]
    },
    ["Marketplace","NNP","marketplac"],
    ["&","CC","&"],
    {
      "tag":"PERSON",
      "content":
      [
        ["Classifieds","NNP","class"],
        ["Chicago","NNP","chicago"],
        ["Log","NNP","log"]
      ]
    },
    ["in","IN","in"],
    ["/","NNP","/"],
    ["Customer","NNP","custom"],
    ["Service","NNP","serv"],
    ["Newsletters","NNP","newslet"],
    ["/","NNP","/"],
    ["Subscribe","NNP","subscrib"],
    ["Home","NNP","hom"],
    ["Dining","NNP","din"],
    ["&","CC","&"],
    ["Drinking","NNP","drink"],
    ["Arts","NNP","art"],
    ["&","CC","&"],
    {
      "tag":"PERSON",
      "content":
      [
        ["Culture","NNP","cult"],
        ["Politics","NNP","polit"]
      ]
    },
    ["&","CC","&"],
    {
      "tag":"ORGANIZATION",
      "content":
      [
        ["City","NNP","city"],
        ["Life","NNP","lif"],
        ["Real","NNP","real"],
        ["Estate","NNP","est"]
      ]
    },
    ["&","CC","&"],
    {
      "tag":"PERSON",
      "content":
      [
        ["Neighborhoods","NNP","neighb"],
        ["Style","NNP","styl"]
      ]
    },
    ["&","CC","&"],
    {
      "tag":"ORGANIZATION",
      "content":
      [
        ["Shopping","NNP","shop"],
        ["Home","NNP","hom"]
      ]
    },
    ["&","CC","&"],
    {
      "tag":"PERSON",
      "content":
      [
        ["Garden","NNP","gard"],
        ["Travel","NNP","travel"]
      ]
    },
    ["&","CC","&"],
    {
      "tag":"PERSON",
      "content":
      [
        ["Visitor","NNP","visit"]
      ]
    },
    ["'s","POS","'s"],
    {
      "tag":"PERSON",
      "content":
      [
        ["Guide","NNP","guid"],
        ["Best","NNP","best"]
      ]
    },
    ["of","IN","of"],
    {
      "tag":"GPE",
      "content":
      [
        ["Chicago","NNP","chicago"]
      ]
    },
    ["Marketplace","NNP","marketplac"],
    ["&","CC","&"],
    {
      "tag":"PERSON",
      "content":
      [
        ["Classifieds","NNP","class"],
        ["Subscribe","NNP","subscrib"],
        ["Newsletters","NNP","newslet"],
        ["Politics","NNP","polit"]
      ]
    },
    ["&","CC","&"],
    {
      "tag":"ORGANIZATION",
      "content":
      [
        ["City","NNP","city"],
        ["Life","NNP","lif"],
        ["Best","NNP","best"],
        ["Schools","NNP","schools"],
        ["Top","NNP","top"],
        ["Docs","NNP","doc"],
        ["Business","NNP","busy"]
      ]
    },
    ["Crime","NNP","crim"],
    ["&","CC","&"],
    {
      "tag":"PERSON",
      "content":
      [
        ["Law","NNP","law"],
        ["Education","NNP","educ"],
        ["Politics","NNP","polit"],
        ["Sports","NNP","sport"],
        ["Articles","NNP","artic"]
      ]
    },
    ["by","IN","by"],
    {
      "tag":"PERSON",
      "content":
      [
        ["Carol","NNP","carol"],
        ["Felsenthal","NNP","felsenth"],
        ["Articles","NNP","artic"]
      ]
    },
    ["by","IN","by"],
    {
      "tag":"PERSON",
      "content":
      [
        ["Whet","NNP","whet"],
        ["Moser","NNP","mos"]
      ]
    },
    ["Dining","NNP","din"],
    ["&","CC","&"],
    ["Drinking","NNP","drink"],
    ["Restaurant","NNP","resta"],
    ["Reviews","NNP","review"],
    ["The","NNP","the"],
    ["Hot","NNP","hot"],
    ["List","NNP","list"],
    ["Bars","NNP","bar"],
    ["&","CC","&"],
    ["Drinking","NNP","drink"],
    ["Best","NNP","best"],
    ["New","NNP","new"],
    ["Restaurants","NNP","resta"],
    ["Best","NNP","best"],
    ["Pizzas","NNP","pizza"],
    ["Best","NNP","best"],
    {
      "tag":"PERSON",
      "content":
      [
        ["Steakhouses","NNP","steakh"],
        ["Dining","NNP","din"],
        ["Guide","NNP","guid"]
      ]
    },
    ["Search","NNP","search"],
    ["the","DT","the"],
    ["Dining","NNP","din"],
    ["Guide","NNP","guid"],
    [":",":",":"],
    ["Go","NNP","go"],
    ["Arts","NNPS","art"],
    ["&","CC","&"],
    {
      "tag":"PERSON",
      "content":
      [
        ["Culture","NNP","cult"],
        ["Architecture","NNP","architect"],
        ["Art","NNP","art"],
        ["Books","NNP","book"]
      ]
    },
    ["&","CC","&"],
    {
      "tag":"ORGANIZATION",
      "content":
      [
        ["Readings","NNP","read"],
        ["Comedy","NNP","comedy"],
        ["Dance","NNP","dant"],
        ["Museums","NNP","museum"],
        ["Music","NNP","mus"]
      ]
    },
    ["Theatre","NNP","the"],
    ["Real","NNP","real"],
    ["Estate","NNP","est"],
    ["&","CC","&"],
    {
      "tag":"PERSON",
      "content":
      [
        ["Neighborhoods","NNP","neighb"],
        ["Neighborhood","NNP","neighb"],
        ["Guides","NNP","guid"],
        ["Real","NNP","real"],
        ["Estate","NNP","est"],
        ["News","NNP","new"],
        ["Articles","NNP","artic"]
      ]
    },
    ["by","IN","by"],
    {
      "tag":"PERSON",
      "content":
      [
        ["Dennis","NNP","den"],
        ["Rodkin","NNP","rodkin"],
        ["Style","NNP","styl"]
      ]
    },
    ["&","CC","&"],
    ["Shopping","NNP","shop"],
    ["Fashion","NNP","fash"],
    ["Sales","NNP","sal"],
    ["&","CC","&"],
    {
      "tag":"ORGANIZATION",
      "content":
      [
        ["Shopping","NNP","shop"],
        ["News","NNP","new"],
        ["Tastemakers","NNP","tastemak"],
        ["Home","NNP","hom"]
      ]
    },
    ["&","CC","&"],
    {
      "tag":"PERSON",
      "content":
      [
        ["Garden","NNP","gard"],
        ["Interior","NNP","intery"]
      ]
    },
    ["Design","NNP","design"],
    ["Sales","NNP","sal"],
    ["&","CC","&"],
    {
      "tag":"ORGANIZATION",
      "content":
      [
        ["Shopping","NNP","shop"],
        ["News","NNP","new"],
        ["Travel","NNP","travel"]
      ]
    },
    ["&","CC","&"],
    {
      "tag":"PERSON",
      "content":
      [
        ["Visitor","NNP","visit"]
      ]
    },
    ["'s","POS","'s"],
    {
      "tag":"PERSON",
      "content":
      [
        ["Guide","NNP","guid"],
        ["Travel","NNP","travel"],
        ["News","NNP","new"]
      ]
    },
    ["&","CC","&"],
    {
      "tag":"PERSON",
      "content":
      [
        ["Features","NNP","feat"]
      ]
    },
    ["Visitor’s","NNP","visitor’s"],
    ["Guide","NNP","guid"],
    ["Best","NNP","best"],
    ["of","IN","of"],
    {
      "tag":"GPE",
      "content":
      [
        ["Chicago","NNP","chicago"]
      ]
    },
    ["@","NNP","@"],
    ["media","NNS","med"],
    ["(",":","("],
    ["max-width:735px","JJ","max-width:735px"],
    [")","NN",")"],
    ["{",":","{"],
    ["#","#","#"],
    ["div-gpt-ad-leaderboard-1","-NONE-","div-gpt-ad-leaderboard-1"],
    ["{",":","{"],
    ["display","NN","display"],
    [":",":",":"],
    ["none","NN","non"],
    ["!",".","!"],
    ["important","JJ","import"],
    [";",":",";"],
    ["}",":","}"],
    ["}",":","}"],
    ["@","IN","@"],
    ["media","NNS","med"],
    ["(",":","("],
    ["min-width:736px","JJ","min-width:736px"],
    [")","NN",")"],
    ["{",":","{"],
    ["#","#","#"],
    ["div-gpt-ad-mobile-leaderboard-1","-NONE-","div-gpt-ad-mobile-leaderboard-1"],
    ["{",":","{"],
    ["display","NN","display"],
    [":",":",":"],
    ["none","NN","non"],
    ["!",".","!"],
    ["important","JJ","import"],
    [";",":",";"],
    ["}",":","}"],
    ["}",":","}"],
    ["@","IN","@"],
    ["media","NNS","med"],
    ["(",":","("],
    ["min-width:736px","JJ","min-width:736px"],
    [")","NN",")"],
    ["{",":","{"],
    ["#","#","#"],
    ["div-gpt-ad-mobile-leaderboard-2","-NONE-","div-gpt-ad-mobile-leaderboard-2"],
    ["{",":","{"],
    ["display","NN","display"],
    [":",":",":"],
    ["none","NN","non"],
    ["!",".","!"],
    ["important","JJ","import"],
    [";",":",";"],
    ["}",":","}"],
    ["}",":","}"],
    ["Guinnessometrics","NNP","guinnessomet"],
    [":",":",":"],
    ["Saving","NNP","sav"],
    ["Science","NNP","sci"],
    ["and","CC","and"],
    {
      "tag":"PERSON",
      "content":
      [
        ["Statistics","NNP","stat"],
        ["With","NNP","with"],
        ["Beer","NNP","beer"]
      ]
    },
    ["A","NNP","a"],
    {
      "tag":"ORGANIZATION",
      "content":
      [
        ["Roosevelt","NNP","roosevelt"],
        ["University","NNP","univers"]
      ]
    },
    ["economist","NN","econom"],
    ["looks","VBZ","look"],
    ["into","IN","into"],
    ["the","DT","the"],
    ["scientific","JJ","sci"],
    ["and","CC","and"],
    ["statistical","JJ","stat"],
    ["legacy","NN","leg"],
    ["of","IN","of"],
    ["W.S","NNS","w.s"],
    [".",".","."]
  ]
},
{
  "tag":"S",
  "content":
  [
    {
      "tag":"GPE",
      "content":
      [
        ["Gosset","NNP","gosset"]
      ]
    },
    [",",",",","],
    ["aka","NN","ak"],
    ["“Student","NN","“student"],
    [",",",",","],
    ["”",":","”"],
    ["Guinness’s","JJ","guinness’"],
    ["legendary","NN","legend"],
    ["Oxford-educated","JJ","oxford-educat"],
    ["brewmaster","NN","brewmast"],
    ["and","CC","and"],
    ["scientific-paradigm-shifter","JJ","scientific-paradigm-shifter"],
    [".",".","."]
  ]
},
{
  "tag":"S",
  "content":
  [
    ["By","IN","By"],
    {
      "tag":"PERSON",
      "content":
      [
        ["Whet","NNP","whet"],
        ["Moser","NNP","mos"],
        ["Published","NNP","publ"]
      ]
    },
    ["Feb.","NNP","feb."],
    ["9","CD","9"],
    [",",",",","],
    ["2012","CD","2012"],
    [",",",",","],
    ["at","IN","at"],
    ["1:19","CD","1:19"],
    ["p.m.","NNP","p.m."],
    {
      "tag":"PERSON",
      "content":
      [
        ["Share","NNP","shar"]
      ]
    },
    ["/","NNP","/"],
    ["Comment","NNP","com"],
    ["(","NNP","("],
    ["2","CD","2"],
    [")","CD",")"],
    ["On","NNP","on"],
    ["his","PRP$","his"],
    ["academic","JJ","academ"],
    ["website","NN","websit"],
    [",",",",","],
    {
      "tag":"PERSON",
      "content":
      [
        ["Steve","NNP","stev"],
        ["Ziliak","NNP","ziliak"]
      ]
    },
    ["of","IN","of"],
    {
      "tag":"ORGANIZATION",
      "content":
      [
        ["Roosevelt","NNP","roosevelt"],
        ["University","NNP","univers"]
      ]
    },
    [",",",",","],
    ["co-author","NN","co-author"],
    ["(",":","("],
    ["with","IN","with"],
    {
      "tag":"ORGANIZATION",
      "content":
      [
        ["UIUC","NNP","uiuc"]
      ]
    },
    ["UIC’s","NNP","uic’s"],
    {
      "tag":"PERSON",
      "content":
      [
        ["Deirdre","NNP","deirdr"],
        ["McCloskey","NNP","mccloskey"]
      ]
    },
    [")","NNP",")"],
    ["of","IN","of"],
    ["The","DT","The"],
    ["Cult","NNP","cult"],
    ["of","IN","of"],
    {
      "tag":"ORGANIZATION",
      "content":
      [
        ["Statistical","NNP","stat"]
      ]
    },
    ["Significance","NNP","sign"],
    [":",":",":"],
    ["How","WRB","How"],
    ["the","DT","the"],
    {
      "tag":"ORGANIZATION",
      "content":
      [
        ["Standard","NNP","standard"],
        ["Error","NNP","er"],
        ["Costs","NNP","cost"],
        ["Us","NNP","us"],
        ["Jobs","NNP","job"]
      ]
    },
    [",",",",","],
    {
      "tag":"ORGANIZATION",
      "content":
      [
        ["Justice","NNP","just"]
      ]
    },
    [",",",",","],
    ["and","CC","and"],
    {
      "tag":"PERSON",
      "content":
      [
        ["Lives","NNP","liv"]
      ]
    },
    [",",",",","],
    ["lists","VBZ","list"],
    ["many","JJ","many"],
    ["areas","NNS","are"],
    ["of","IN","of"],
    ["research","NN","research"],
    [":",":",":"],
    ["“statistical","JJ","“statistical"],
    ["significance","NN","sign"],
    ["vs.","NNP","vs."],
    ["practical","JJ","pract"],
    ["importance","NN","import"],
    [";",":",";"],
    ["random","NN","random"],
    ["vs.","CC","vs."],
    ["balanced","VBN","bal"],
    ["designs","NNS","design"],
    ["of","IN","of"],
    ["experiments","NNS","expery"],
    [";",":",";"],
    {
      "tag":"PERSON",
      "content":
      [
        ["Ronald","NNP","ronald"],
        ["A.","NNP","a."],
        ["Fisher","NNP","fish"]
      ]
    },
    [";",":",";"],
    {
      "tag":"PERSON",
      "content":
      [
        ["William","NNP","william"],
        ["S.","NNP","s."],
        ["Gosset","NNP","gosset"]
      ]
    },
    ["(","NNP","("],
    ["aka","NN","ak"],
    ["‘Student’","-NONE-","‘Student’"],
    [")",".",")"],
    [";",":",";"],
    {
      "tag":"ORGANIZATION",
      "content":
      [
        ["Guinness","NNP","guin"]
      ]
    },
    ["beer","NN","beer"],
    ["and","CC","and"],
    {
      "tag":"GPE",
      "content":
      [
        ["Guinnessometrics","NNP","guinnessomet"]
      ]
    },
    [";",":",";"],
    ["welfare","NN","welf"],
    [",",",",","],
    ["charity","NN","char"],
    [",",",",","],
    ["and","CC","and"],
    ["poverty","NN","poverty"],
    [";",":",";"],
    ["dialogue","NN","dialog"],
    ["and","CC","and"],
    ["pluralism","NN","plur"],
    ["in","IN","in"],
    ["economics","NNS","econom"],
    ["education","NN","educ"],
    [";",":",";"],
    ["the","DT","the"],
    ["rhetoric","NN","rhet"],
    ["of","IN","of"],
    ["economics","NNS","econom"],
    [";",":",";"],
    ["haiku","NN","haiku"],
    ["economics","NNS","econom"],
    [";",":",";"],
    ["and","CC","and"],
    ["the","DT","the"],
    ["history","NN","hist"],
    ["and","CC","and"],
    ["philosophy","NN","philosoph"],
    ["of","IN","of"],
    ["science","NN","sci"],
    ["and","CC","and"],
    ["statistics.”","NNP","statistics.”"],
    ["Hang","NNP","hang"],
    ["on","IN","on"],
    [":",":",":"],
    ["“Guinness","JJ","“guinness"],
    ["beer","NN","beer"],
    ["and","CC","and"],
    ["Guinnessometrics.”","NNP","guinnessometrics.”"],
    ["Yes","NNP","ye"],
    [".",".","."]
  ]
},
{
  "tag":"S",
  "content":
  [
    ["The","DT","The"],
    ["econ","NN","econ"],
    ["prof","IN","prof"],
    ["returned","VBN","return"],
    ["from","IN","from"],
    ["the","DT","the"],
    {
      "tag":"ORGANIZATION",
      "content":
      [
        ["Beeronomics","NNP","beeronom"],
        ["Conference","NNP","conf"]
      ]
    },
    ["(","NNP","("],
    ["a","DT","a"],
    ["real","JJ","real"],
    ["thing","NN","thing"],
    [")",":",")"],
    ["with","IN","with"],
    ["a","DT","a"],
    ["paper","NN","pap"],
    ["in","IN","in"],
    ["the","DT","the"],
    {
      "tag":"ORGANIZATION",
      "content":
      [
        ["Journal","NNP","journ"]
      ]
    },
    ["of","IN","of"],
    {
      "tag":"PERSON",
      "content":
      [
        ["Wine","NNP","win"],
        ["Economics","NNP","econom"]
      ]
    },
    ["(","NNP","("],
    ["also","RB","also"],
    ["real","JJ","real"],
    [")","NN",")"],
    [":",":",":"],
    ["“W.S","NNS","“w.s"],
    [".",".","."]
  ]
},
{
  "tag":"S",
  "content":
  [
    {
      "tag":"GPE",
      "content":
      [
        ["Gosset","NNP","gosset"]
      ]
    },
    ["and","CC","and"],
    {
      "tag":"PERSON",
      "content":
      [
        ["Some","NNP","som"],
        ["Neglected","NNP","neglect"],
        ["Concepts","NNP","conceiv"]
      ]
    },
    ["in","IN","in"],
    {
      "tag":"ORGANIZATION",
      "content":
      [
        ["Experimental","NNP","expery"]
      ]
    },
    ["Statistics","NNP","stat"],
    [":",":",":"],
    ["Guinnessometrics","NNP","guinnessomet"],
    ["II”","NNP","ii”"],
    ["(","NNP","("],
    {
      "tag":"ORGANIZATION",
      "content":
      [
        ["PDF","NNP","pdf"]
      ]
    },
    [";",":",";"],
    ["via","IN","via"],
    [")","CD",")"],
    [":",":",":"],
    ["Quantitative","JJ","quantit"],
    ["studies","NNS","study"],
    ["of","IN","of"],
    ["fermentation","NN","fer"],
    ["have","VBP","hav"],
    ["solved","VBN","solv"],
    ["some","DT","some"],
    ["big","JJ","big"],
    ["scientific","JJ","sci"],
    ["problems","NNS","problem"],
    ["–",":","–"],
    ["such","JJ","such"],
    ["as","IN","as"],
    ["the","DT","the"],
    ["errors","NNS","er"],
    ["of","IN","of"],
    ["observations","NNS","observ"],
    ["committed","VBN","commit"],
    ["daily","JJ","dai"],
    ["in","IN","in"],
    ["science","NN","sci"],
    [".",".","."]
  ]
},
{
  "tag":"S",
  "content":
  [
    ["Few","JJ","few"],
    ["realize","NN","real"],
    ["that","WDT","that"],
    ["over","IN","over"],
    ["the","DT","the"],
    ["past","JJ","past"],
    ["three","CD","three"],
    ["centuries","NNS","century"],
    ["there","RB","ther"],
    ["are","VBP","be"],
    ["studies","NNS","study"],
    ["of","IN","of"],
    ["beer","NN","beer"],
    ["and","CC","and"],
    ["wine","NN","win"],
    ["standing","NN","stand"],
    ["not","RB","not"],
    ["at","IN","at"],
    ["the","DT","the"],
    ["arid","JJ","arid"],
    ["valleys","NNS","valley"],
    ["but","CC","but"],
    ["at","IN","at"],
    ["the","DT","the"],
    ["glorious","JJ","glory"],
    ["peaks","NNS","peak"],
    ["of","IN","of"],
    ["quantitative","JJ","quantit"],
    ["method","NN","method"],
    [".",".","."]
  ]
},
{
  "tag":"S",
  "content":
  [
    ["To","TO","To"],
    ["see","VB","see"],
    ["the","DT","the"],
    ["connection","NN","connect"],
    [",",",",","],
    ["just","RB","just"],
    ["think","VBP","think"],
    ["of","IN","of"],
    ["some","DT","some"],
    ["story-book","JJ","story-book"],
    ["figures","NNS","fig"],
    ["in","IN","in"],
    ["the","DT","the"],
    ["history","NN","hist"],
    ["of","IN","of"],
    ["science","NN","sci"],
    ["–",":","–"],
    ["great","JJ","gre"],
    ["experimentalists","NNS","expery"],
    [",",",",","],
    ["such","JJ","such"],
    ["as","IN","as"],
    {
      "tag":"GPE",
      "content":
      [
        ["Priestley","NNP","priestley"]
      ]
    },
    [",",",",","],
    {
      "tag":"PERSON",
      "content":
      [
        ["Laplace","NNP","laplac"]
      ]
    },
    [",",",",","],
    {
      "tag":"PERSON",
      "content":
      [
        ["Lavoisier","NNP","lavoisy"]
      ]
    },
    [",",",",","],
    {
      "tag":"PERSON",
      "content":
      [
        ["Pasteur","NNP","past"]
      ]
    },
    [",",",",","],
    {
      "tag":"PERSON",
      "content":
      [
        ["Johannsen","NNP","johanns"]
      ]
    },
    [",",",",","],
    ["and","CC","and"],
    {
      "tag":"GPE",
      "content":
      [
        ["Gosset","NNP","gosset"]
      ]
    },
    ["aka","NN","ak"],
    ["“Student”","-NONE-","“Student”"],
    [".",".","."]
  ]
},
{
  "tag":"S",
  "content":
  [
    {
      "tag":"GPE",
      "content":
      [
        ["Fermentation","NN","fer"]
      ]
    },
    ["was","VBD","be"],
    ["for","IN","for"],
    ["each","DT","each"],
    ["of","IN","of"],
    ["these","DT","these"],
    ["scientists","NNS","sci"],
    ["the","DT","the"],
    ["raw","NN","raw"],
    ["material","NN","mat"],
    [",",",",","],
    ["the","DT","the"],
    ["pathway","NN","pathway"],
    ["to","TO","to"],
    ["scientific","JJ","sci"],
    ["discovery","NN","discovery"],
    ["and","CC","and"],
    ["commercial","JJ","commerc"],
    ["innovation","NN","innov"],
    [".",".","."]
  ]
},
{
  "tag":"S",
  "content":
  [
    ["It’s","NNS","it’s"],
    {
      "tag":"PERSON",
      "content":
      [
        ["William","NNP","william"],
        ["Sealy","NNP","sea"],
        ["Gosset","NNP","gosset"]
      ]
    },
    ["(","NNP","("],
    ["pen","NN","pen"],
    ["name","NN","nam"],
    ["“Student","NN","“student"],
    ["''","''","''"],
    [")",":",")"],
    [",",",",","],
    ["who","WP","who"],
    ["was","VBD","be"],
    ["educated","VBN","educ"],
    ["in","IN","in"],
    ["chemistry","NN","chem"],
    ["at","IN","at"],
    {
      "tag":"ORGANIZATION",
      "content":
      [
        ["Oxford","NNP","oxford"]
      ]
    },
    ["and","CC","and"],
    ["worked","VBD","work"],
    ["as","IN","as"],
    ["a","DT","a"],
    ["brewer","NN","brew"],
    ["at","IN","at"],
    {
      "tag":"ORGANIZATION",
      "content":
      [
        ["Guinness","NNP","guin"]
      ]
    },
    [",",",",","],
    ["whose","WP$","whose"],
    ["work","NN","work"],
    {
      "tag":"PERSON",
      "content":
      [
        ["Ziliak","NNP","ziliak"]
      ]
    },
    ["takes","VBZ","tak"],
    ["up","RP","up"],
    [":",":",":"],
    ["A","DT","A"],
    ["general","JJ","gen"],
    ["solution","NN","solv"],
    ["to","TO","to"],
    ["the","DT","the"],
    ["problem","NN","problem"],
    ["of","IN","of"],
    ["random","NN","random"],
    ["error","NN","er"],
    ["in","IN","in"],
    ["small","JJ","smal"],
    ["sample","NN","sampl"],
    ["analysis","NN","analys"],
    ["was","VBD","be"],
    ["given","VBN","giv"],
    ["in","IN","in"],
    ["1908","CD","1908"],
    [",",",",","],
    ["by","IN","by"],
    {
      "tag":"ORGANIZATION",
      "content":
      [
        ["Student","NNP","stud"]
      ]
    },
    [".",".","."]
  ]
},
{
  "tag":"S",
  "content":
  [
    ["“Student”","NN","“student”"],
    ["is","VBZ","be"],
    ["the","DT","the"],
    ["pen","JJ","pen"],
    ["name","NN","nam"],
    ["of","IN","of"],
    {
      "tag":"PERSON",
      "content":
      [
        ["William","NNP","william"],
        ["Sealy","NNP","sea"],
        ["Gosset","NNP","gosset"]
      ]
    },
    ["(","NNP","("],
    ["1876–1937","CD","1876–1937"],
    [")","CD",")"],
    [",",",",","],
    ["an","DT","an"],
    ["Oxford-trained","JJ","oxford-train"],
    ["chemist","NN","chem"],
    ["and","CC","and"],
    ["experimental","JJ","expery"],
    ["scientist","NN","sci"],
    ["who","WP","who"],
    ["worked","VBD","work"],
    ["his","PRP$","his"],
    ["entire","JJ","entir"],
    ["adult","NN","adult"],
    ["life","NN","lif"],
    ["as","IN","as"],
    ["a","DT","a"],
    ["brewer","NN","brew"],
    ["and","CC","and"],
    ["business","NN","busy"],
    ["man","NN","man"],
    ["for","IN","for"],
    ["the","DT","the"],
    {
      "tag":"ORGANIZATION",
      "content":
      [
        ["Guinness","NNP","guin"],
        ["Brewery","NNP","brewery"]
      ]
    },
    [",",",",","],
    {
      "tag":"GPE",
      "content":
      [
        ["Dublin","NNP","dublin"]
      ]
    },
    ["(","NNP","("],
    ["1899","CD","1899"],
    ["to","TO","to"],
    ["1937","CD","1937"],
    [")","CD",")"],
    ["and","CC","and"],
    {
      "tag":"PERSON",
      "content":
      [
        ["Park","NNP","park"],
        ["Royal","NNP","roy"]
      ]
    },
    ["(","NNP","("],
    ["1935","CD","1935"],
    ["to","TO","to"],
    ["1937","CD","1937"],
    [")","CD",")"],
    [".14","CD",".14"],
    ["Student","NNP","stud"],
    ["was","VBD","be"],
    ["experimenting","VBG","expery"],
    ["on","IN","on"],
    ["three","CD","three"],
    ["of","IN","of"],
    ["the","DT","the"],
    ["chief","NN","chief"],
    ["inputs","NNS","input"],
    ["to","TO","to"],
    {
      "tag":"ORGANIZATION",
      "content":
      [
        ["Guinness","NNP","guin"]
      ]
    },
    ["stout","IN","stout"],
    ["–","NNP","–"],
    ["barley","NN","barley"],
    [",",",",","],
    ["malt","NN","malt"],
    [",",",",","],
    ["and","CC","and"],
    ["hops","NNS","hop"],
    ["–",":","–"],
    ["when","WRB","when"],
    ["he","PRP","he"],
    ["made","VBD","mak"],
    ["the","DT","the"],
    ["discovery","NN","discovery"],
    ["leading","VBG","lead"],
    ["to","TO","to"],
    ["what","WP","what"],
    ["scientists","NNS","sci"],
    ["now","RB","now"],
    ["call","VBP","cal"],
    ["Student’s","NNS","student’s"],
    ["t-distribution","NN","t-distribution"],
    [",",",",","],
    ["table","JJ","tabl"],
    [",",",",","],
    ["and","CC","and"],
    ["test","NN","test"],
    ["of","IN","of"],
    ["significance","NN","sign"],
    [".",".","."]
  ]
},
{
  "tag":"S",
  "content":
  [
    ["But","CC","But"],
    ["Student’s","JJ","student’s"],
    ["contribution","NN","contribut"],
    ["to","TO","to"],
    ["experimental","JJ","expery"],
    ["science","NN","sci"],
    ["and","CC","and"],
    ["the","DT","the"],
    ["theory","NN","the"],
    ["of","IN","of"],
    ["errors","NNS","er"],
    ["extends","NNS","extend"],
    ["far","RB","far"],
    ["beyond","IN","beyond"],
    ["Student’s","NNS","student’s"],
    ["t","VBP","t"],
    ["–",":","–"],
    ["however","RB","howev"],
    ["permanent","JJ","perm"],
    ["and","CC","and"],
    ["fundamental","JJ","funda"],
    ["t","NN","t"],
    ["is","VBZ","be"],
    [".",".","."]
  ]
},
{
  "tag":"S",
  "content":
  [
    ["Between","IN","Between"],
    ["1904","CD","1904"],
    ["and","CC","and"],
    ["1937","CD","1937"],
    [",",",",","],
    {
      "tag":"PERSON",
      "content":
      [
        ["Student","NNP","stud"]
      ]
    },
    ["innovated","VBD","innov"],
    ["–","NNP","–"],
    ["more","RBR","mor"],
    ["than","IN","than"],
    ["two","CD","two"],
    ["decades","NNS","decad"],
    ["before","IN","before"],
    {
      "tag":"ORGANIZATION",
      "content":
      [
        ["R.A.","NNP","r.a."],
        ["Fisher","NNP","fish"]
      ]
    },
    ["–","NNP","–"],
    ["a","DT","a"],
    ["useful","JJ","us"],
    ["collection","NN","collect"],
    ["of","IN","of"],
    ["experimental","JJ","expery"],
    ["concepts","NNS","conceiv"],
    [",",",",","],
    ["methods","NNS","method"],
    [",",",",","],
    ["and","CC","and"],
    ["attitudes","VBZ","attitud"],
    [",",",",","],
    ["which","WDT","which"],
    ["were","VBD","be"],
    ["used","VBN","us"],
    ["for","IN","for"],
    ["doing","NN","doing"],
    ["routine","NN","routin"],
    ["work","NN","work"],
    ["at","IN","at"],
    ["cooperating","VBG","coop"],
    ["farms","NNS","farm"],
    ["and","CC","and"],
    ["at","IN","at"],
    ["the","DT","the"],
    {
      "tag":"ORGANIZATION",
      "content":
      [
        ["Guinness","NNP","guin"]
      ]
    },
    ["brewery","NN","brewery"],
    [".",".","."]
  ]
},
{
  "tag":"S",
  "content":
  [
    ["Such","JJ","such"],
    ["as","IN","as"],
    [":",":",":"],
    ["The","DT","The"],
    ["experimental","JJ","expery"],
    ["concepts","NNS","conceiv"],
    ["which","WDT","which"],
    {
      "tag":"PERSON",
      "content":
      [
        ["Student","NNP","stud"]
      ]
    },
    ["used","VBD","us"],
    ["at","IN","at"],
    ["the","DT","the"],
    ["brewery","NN","brewery"],
    ["to","TO","to"],
    ["revolutionize","VB","revolv"],
    ["science","NN","sci"],
    ["and","CC","and"],
    ["brewing","VBG","brew"],
    ["are","VBP","be"],
    ["outlined","VBN","outlin"],
    ["here","RB","her"],
    [",",",",","],
    ["basically","RB","bas"],
    ["in","IN","in"],
    ["order","NN","ord"],
    ["of","IN","of"],
    ["their","PRP$","their"],
    ["development","NN","develop"],
    ["by","IN","by"],
    {
      "tag":"ORGANIZATION",
      "content":
      [
        ["Student","NNP","stud"]
      ]
    },
    ["in","IN","in"],
    ["his","PRP$","his"],
    ["job","NN","job"],
    ["as","IN","as"],
    ["apprentice","NN","appr"],
    ["brewer","NN","brew"],
    ["(",":","("],
    ["1899–1906","CD","1899–1906"],
    [")","CD",")"],
    [",",",",","],
    {
      "tag":"PERSON",
      "content":
      [
        ["Head","NNP","head"],
        ["Experimental","NNP","expery"],
        ["Brewer","NNP","brew"]
      ]
    },
    ["(","NNP","("],
    ["1907–1935","CD","1907–1935"],
    [")","CD",")"],
    [",",",",","],
    ["and","CC","and"],
    ["finally","RB","fin"],
    {
      "tag":"PERSON",
      "content":
      [
        ["Head","NNP","head"],
        ["Brewer","NNP","brew"]
      ]
    },
    ["of","IN","of"],
    {
      "tag":"ORGANIZATION",
      "content":
      [
        ["Guinness","NNP","guin"]
      ]
    },
    ["(","NNP","("],
    ["1935–1937","CD","1935–1937"],
    [")","CD",")"],
    [":",":",":"],
    ["(",":","("],
    ["1","CD","1"],
    [")","CD",")"],
    ["net","JJ","net"],
    ["pecuniary","NN","pecuny"],
    ["advantage","NN","adv"],
    ["and","CC","and"],
    ["the","DT","the"],
    ["purpose","NN","purpos"],
    ["of","IN","of"],
    ["the","DT","the"],
    ["experiment","NN","expery"],
    [";",":",";"],
    ["(",":","("],
    ["2","CD","2"],
    [")","CD",")"],
    ["profitable","JJ","profit"],
    ["odds","NNS","od"],
    ["versus","CC","versus"],
    ["a","DT","a"],
    ["fixed","VBN","fix"],
    ["rule","NN","rul"],
    ["for","IN","for"],
    ["the","DT","the"],
    ["level","NN","level"],
    ["of","IN","of"],
    ["statistical","JJ","stat"],
    ["significance","NN","sign"],
    [";",":",";"],
    ["(",":","("],
    ["3","CD","3"],
    [")","CD",")"],
    ["small","JJ","smal"],
    ["samples","NNS","sampl"],
    ["of","IN","of"],
    ["repeated","VBN","rep"],
    ["and","CC","and"],
    ["independent","JJ","independ"],
    ["experiments","NNS","expery"],
    [";",":",";"],
    ["(",":","("],
    ["4","CD","4"],
    [")","CD",")"],
    ["random","NN","random"],
    ["error","NN","er"],
    ["versus","VBZ","vers"],
    ["“real”","JJ","“real”"],
    ["error","NN","er"],
    [";",":",";"],
    ["and","CC","and"],
    ["(",":","("],
    ["5","CD","5"],
    [")","CD",")"],
    ["the","DT","the"],
    ["power","NN","pow"],
    ["and","CC","and"],
    ["efficiency","NN","efficy"],
    ["of","IN","of"],
    ["“balanced”","NNP","“balanced”"],
    ["over","IN","over"],
    ["“randomized”","NNP","“randomized”"],
    ["field","NN","field"],
    ["experiments","NNS","expery"],
    ["in","IN","in"],
    ["economics","NNS","econom"],
    [".",".","."]
  ]
},
{
  "tag":"S",
  "content":
  [
    ["The","DT","The"],
    ["balance","NN","bal"],
    ["of","IN","of"],
    ["this","DT","this"],
    ["article","NN","artic"],
    ["illustrates","VBZ","illust"],
    ["these","DT","these"],
    ["concepts","NNS","conceiv"],
    ["with","IN","with"],
    ["experiments","NNS","expery"],
    ["designed","VBN","design"],
    ["and/or","JJ","and/or"],
    ["evaluated","VBN","evalu"],
    ["by","IN","by"],
    {
      "tag":"PERSON",
      "content":
      [
        ["Student","NNP","stud"]
      ]
    },
    ["at","IN","at"],
    ["Guinness’s","NNP","guinness’"],
    ["brewery","NN","brewery"],
    [".",".","."]
  ]
},
{
  "tag":"S",
  "content":
  [
    ["Which","WDT","Which"],
    ["raises","VBZ","rais"],
    ["some","DT","some"],
    ["questions","NNS","quest"],
    ["for","IN","for"],
    {
      "tag":"PERSON",
      "content":
      [
        ["Ziliak","NNP","ziliak"]
      ]
    },
    [":",":",":"],
    ["The","DT","The"],
    ["most","RBS","most"],
    ["famous","JJ","fam"],
    ["result","NN","result"],
    ["of","IN","of"],
    ["Student’s","JJ","student’s"],
    ["experimental","JJ","expery"],
    ["method","NN","method"],
    ["is","VBZ","be"],
    ["Student’s","JJ","student’s"],
    ["t-table","JJ","t-table"],
    [".",".","."]
  ]
},
{
  "tag":"S",
  "content":
  [
    ["But","CC","But"],
    ["the","DT","the"],
    ["real","JJ","real"],
    ["end","NN","end"],
    ["of","IN","of"],
    ["Student’s","NNP","student’s"],
    ["inquiry","NN","inquiry"],
    ["was","VBD","be"],
    ["taste","JJ","tast"],
    [",",",",","],
    ["quality","NN","qual"],
    ["control","NN","control"],
    [",",",",","],
    ["and","CC","and"],
    ["minimally","RB","minim"],
    ["efficient","JJ","efficy"],
    ["sample","NN","sampl"],
    ["sizes","VBZ","siz"],
    ["for","IN","for"],
    ["experimental","JJ","expery"],
    {
      "tag":"ORGANIZATION",
      "content":
      [
        ["Guinness","NNP","guin"]
      ]
    },
    ["–","NNP","–"],
    ["not","RB","not"],
    ["to","TO","to"],
    ["achieve","VB","achiev"],
    ["statistical","JJ","stat"],
    ["significance","NN","sign"],
    ["at","IN","at"],
    ["the","DT","the"],
    [".05","CD",".05"],
    ["level","NN","level"],
    ["or","CC","or"],
    [",",",",","],
    ["worse","JJ","bad"],
    ["yet","RB","yet"],
    [",",",",","],
    ["boast","JJ","boast"],
    ["about","IN","about"],
    ["an","DT","an"],
    ["artificially","RB","art"],
    ["randomized","VBN","random"],
    ["experiment","NN","expery"],
    [".",".","."]
  ]
},
{
  "tag":"S",
  "content":
  [
    ["Student’s","NNS","student’s"],
    ["world","VBD","world"],
    ["class","NN","class"],
    ["achievement","NN","achiev"],
    ["raises","VBZ","rais"],
    ["a","DT","a"],
    ["basic","JJ","bas"],
    ["question","NN","quest"],
    ["about","IN","about"],
    ["statistical","JJ","stat"],
    ["science","NN","sci"],
    ["after","IN","after"],
    {
      "tag":"PERSON",
      "content":
      [
        ["Fisher","NNP","fish"]
      ]
    },
    [":",":",":"],
    ["to","TO","to"],
    ["what","WP","what"],
    ["extent","NN","ext"],
    ["should","MD","should"],
    ["scientists","NNS","sci"],
    ["start","VB","start"],
    ["with","IN","with"],
    ["mechanical","JJ","mech"],
    ["methods","NNS","method"],
    ["rather","RB","rath"],
    ["than","IN","than"],
    ["with","IN","with"],
    ["the","DT","the"],
    ["nature","NN","nat"],
    ["of","IN","of"],
    ["the","DT","the"],
    ["economic","JJ","econom"],
    ["or","CC","or"],
    ["biometric","JJ","biomet"],
    ["problem","NN","problem"],
    ["to","TO","to"],
    ["be","VB","be"],
    ["solved","VBN","solv"],
    ["?",".","?"]
  ]
},
{
  "tag":"S",
  "content":
  [
    {
      "tag":"GPE",
      "content":
      [
        ["Guinness","NN","guin"]
      ]
    },
    ["has","VBZ","hav"],
    ["long","RB","long"],
    ["since","IN","since"],
    ["been","VBN","be"],
    ["surpassed","VBN","surpass"],
    ["as","IN","as"],
    ["a","DT","a"],
    ["stout","NN","stout"],
    [",",",",","],
    {
      "tag":"ORGANIZATION",
      "content":
      [
        ["IMHO","NNP","imho"]
      ]
    },
    [".",".","."]
  ]
},
{
  "tag":"S",
  "content":
  [
    ["Our","PRP$","Our"],
    ["Drinker’s","JJ","drinker’s"],
    ["Guide","NNP","guid"],
    ["recommends","NNS","recommend"],
    ["Bell’s","-NONE-","Bell’s"],
    ["Expedition","NNP","expedit"],
    [",",",",","],
    ["Founder’s","NNP","founder’s"],
    ["Breakfast","NNP","breakfast"],
    [",",",",","],
    ["and","CC","and"],
    ["others","NNS","oth"],
    ["for","IN","for"],
    ["good","JJ","good"],
    ["winter","NN","wint"],
    ["drinking","VBG","drink"],
    [";",":",";"],
    ["I’m","JJ","i’m"],
    ["partial","JJ","part"],
    ["to","TO","to"],
    {
      "tag":"PERSON",
      "content":
      [
        ["Half","NNP","half"]
      ]
    },
    ["Acre’s","NNP","acre’s"],
    ["Big","NNP","big"],
    ["Hugs","NNP","hug"],
    ["and","CC","and"],
    {
      "tag":"PERSON",
      "content":
      [
        ["Left","NNP","left"],
        ["Hand","NNP","hand"],
        ["Milk","NNP","milk"],
        ["Stout","NNP","stout"]
      ]
    },
    [".",".","."]
  ]
},
{
  "tag":"S",
  "content":
  [
    ["But","CC","But"],
    ["all","DT","all"],
    [",",",",","],
    ["to","TO","to"],
    ["my","PRP$","my"],
    ["knowledge","NN","knowledg"],
    [",",",",","],
    ["are","VBP","be"],
    ["mere","RB","mer"],
    ["stouts","NNS","stout"],
    [",",",",","],
    ["not","RB","not"],
    ["a","DT","a"],
    ["scientific","JJ","sci"],
    ["revolution","NN","revolv"],
    [".",".","."]
  ]
},
{
  "tag":"S",
  "content":
  [
    {
      "tag":"GPE",
      "content":
      [
        ["Photograph","NN","photograph"]
      ]
    },
    [":",":",":"],
    {
      "tag":"ORGANIZATION",
      "content":
      [
        ["KellBailey","NNP","kellbailey"]
      ]
    },
    ["(",":","("],
    ["CC","NNP","cc"],
    ["by","IN","by"],
    ["2.0","CD","2.0"],
    [")","CD",")"],
    {
      "tag":"PERSON",
      "content":
      [
        ["Share","NNP","shar"],
        ["Comments","NNP","com"]
      ]
    },
    ["to","TO","to"],
    ["this","DT","this"],
    ["blog","NN","blog"],
    ["are","VBP","be"],
    ["moderated","VBN","mod"],
    [".",".","."]
  ]
},
{
  "tag":"S",
  "content":
  [
    ["We","PRP","We"],
    ["review","VBD","review"],
    ["them","PRP","them"],
    ["in","IN","in"],
    ["an","DT","an"],
    ["effort","NN","effort"],
    ["to","TO","to"],
    ["remove","VB","remov"],
    ["foul","JJ","foul"],
    ["language","NN","langu"],
    [",",",",","],
    ["commercial","JJ","commerc"],
    ["messages","NNS","mess"],
    [",",",",","],
    ["and","CC","and"],
    ["irrelevancies","NNS","irrelev"],
    [".",".","."]
  ]
},
{
  "tag":"S",
  "content":
  [
    ["comments","NNS","com"],
    ["Old","NNP","old"],
    ["to","TO","to"],
    {
      "tag":"GPE",
      "content":
      [
        ["newNew","NNP","newnew"]
      ]
    },
    ["to","TO","to"],
    ["old","JJ","old"],
    ["2","CD","2"],
    ["years","NNS","year"],
    ["ago","RB","ago"],
    ["Posted","JJ","post"],
    ["by","IN","by"],
    ["uic","JJ","uic"],
    {
      "tag":"ORGANIZATION",
      "content":
      [
        ["McCloskey","NNP","mccloskey"]
      ]
    },
    ["is","VBZ","be"],
    ["at","IN","at"],
    {
      "tag":"ORGANIZATION",
      "content":
      [
        ["UIC","NNP","uic"]
      ]
    },
    ["not","RB","not"],
    {
      "tag":"ORGANIZATION",
      "content":
      [
        ["UIUC","NNP","uiuc"]
      ]
    },
    [".",".","."]
  ]
},
{
  "tag":"S",
  "content":
  [
    ["2","LS","2"],
    ["years","NNS","year"],
    ["ago","RB","ago"],
    ["Posted","JJ","post"],
    ["by","IN","by"],
    {
      "tag":"PERSON",
      "content":
      [
        ["Elizabeth","NNP","elizabe"],
        ["Riley","NNP","riley"]
      ]
    },
    ["(","NNP","("],
    {
      "tag":"GPE",
      "content":
      [
        ["Chicago","NNP","chicago"]
      ]
    },
    ["magazine","NN","magazin"],
    [")",":",")"],
    ["Thanks","NNS","thank"],
    [",",",",","],
    {
      "tag":"ORGANIZATION",
      "content":
      [
        ["UIC","NNP","uic"]
      ]
    },
    ["!",".","!"]
  ]
},
{
  "tag":"S",
  "content":
  [
    ["We","PRP","We"],
    ["'ve","VBP","'ve"],
    ["amended","VBN","amend"],
    ["the","DT","the"],
    ["post","NN","post"],
    [".",".","."]
  ]
},
{
  "tag":"S",
  "content":
  [
    ["This","DT","This"],
    ["page","NN","pag"],
    ["requires","VBZ","requir"],
    ["javascript","NN","javascrib"],
    [".",".","."]
  ]
},
{
  "tag":"S",
  "content":
  [
    ["It","PRP","It"],
    ["seems","VBZ","seem"],
    ["that","IN","that"],
    ["your","PRP$","your"],
    ["browser","NN","brows"],
    ["does","VBZ","do"],
    ["not","RB","not"],
    ["have","VB","hav"],
    {
      "tag":"PERSON",
      "content":
      [
        ["Javascript","NNP","javascrib"]
      ]
    },
    ["enabled","VBN","en"],
    [".",".","."]
  ]
},
{
  "tag":"S",
  "content":
  [
    {
      "tag":"GPE",
      "content":
      [
        ["Please","NN","pleas"]
      ]
    },
    ["enable","JJ","en"],
    {
      "tag":"ORGANIZATION",
      "content":
      [
        ["Javascript","NNP","javascrib"]
      ]
    },
    ["and","CC","and"],
    ["press","NN","press"],
    ["the","DT","the"],
    ["Reload/Refresh","JJ","reload/refresh"],
    ["button","NN","button"],
    ["on","IN","on"],
    ["your","PRP$","your"],
    ["browser","NN","brows"],
    [".",".","."]
  ]
},
{
  "tag":"S",
  "content":
  [
    {
      "tag":"GPE",
      "content":
      [
        ["Submit","NN","submit"]
      ]
    },
    ["your","PRP$","your"],
    ["comment","NN","com"],
    {
      "tag":"PERSON",
      "content":
      [
        ["Log","NNP","log"],
        ["In","NNP","in"],
        ["Sign","NNP","sign"],
        ["Up","NNP","up"],
        ["Log","NNP","log"]
      ]
    },
    ["in","IN","in"],
    {
      "tag":"GPE",
      "content":
      [
        ["Create","NNP","cre"]
      ]
    },
    ["an","DT","an"],
    ["instant","JJ","inst"],
    ["account","NN","account"],
    [",",",",","],
    ["or","CC","or"],
    ["please","VB","pleas"],
    ["log","JJ","log"],
    ["in","IN","in"],
    ["if","IN","if"],
    ["you","PRP","you"],
    ["have","VBP","hav"],
    ["an","DT","an"],
    ["account","NN","account"],
    [".",".","."]
  ]
},
{
  "tag":"S",
  "content":
  [
    {
      "tag":"GPE",
      "content":
      [
        ["Email","NNP","email"]
      ]
    },
    ["address","NN","address"],
    ["(",":","("],
    ["not","RB","not"],
    ["displayed","VBN","display"],
    ["publicly","RB","publ"],
    [")",":",")"],
    {
      "tag":"PERSON",
      "content":
      [
        ["Password","NNP","password"],
        ["Forgot","NNP","forgot"]
      ]
    },
    ["your","PRP$","your"],
    ["password","NN","password"],
    ["?",".","?"]
  ]
},
{
  "tag":"S",
  "content":
  [
    {
      "tag":"GPE",
      "content":
      [
        ["Create","NNP","cre"]
      ]
    },
    ["an","DT","an"],
    ["account","NN","account"],
    ["Create","NNP","cre"],
    ["an","DT","an"],
    ["instant","JJ","inst"],
    ["account","NN","account"],
    [",",",",","],
    ["or","CC","or"],
    ["please","VB","pleas"],
    ["log","JJ","log"],
    ["in","IN","in"],
    ["if","IN","if"],
    ["you","PRP","you"],
    ["have","VBP","hav"],
    ["an","DT","an"],
    ["account","NN","account"],
    [".",".","."]
  ]
},
{
  "tag":"S",
  "content":
  [
    {
      "tag":"GPE",
      "content":
      [
        ["Email","NNP","email"]
      ]
    },
    ["address","NN","address"],
    ["(",":","("],
    ["not","RB","not"],
    ["displayed","VBN","display"],
    ["publicly","RB","publ"],
    [")",":",")"],
    {
      "tag":"GPE",
      "content":
      [
        ["Check","NNP","check"]
      ]
    },
    ["email","NN","email"],
    ["availability","NN","avail"],
    {
      "tag":"PERSON",
      "content":
      [
        ["Screen","NNP","screen"]
      ]
    },
    ["name","NN","nam"],
    {
      "tag":"PERSON",
      "content":
      [
        ["Check","NNP","check"]
      ]
    },
    ["screen","NN","screen"],
    ["name","NN","nam"],
    ["availability","NN","avail"],
    ["Marketplace","NNP","marketplac"],
    ["&","CC","&"],
    {
      "tag":"PERSON",
      "content":
      [
        ["Classifieds","NNP","class"],
        ["Advertisement","NNP","advert"],
        ["Most","NNP","most"],
        ["Popular","NNP","popul"]
      ]
    },
    ["This","NNP","thi"],
    ["Is","VBZ","is"],
    ["What","WP","What"],
    ["$","$","$"],
    ["17.5","CD","17.5"],
    ["Million","CD","Million"],
    ["Buys","NNS","buy"],
    ["You","PRP","You"],
    ["in","IN","in"],
    {
      "tag":"GPE",
      "content":
      [
        ["Highland","NNP","highland"]
      ]
    },
    {
      "tag":"PERSON",
      "content":
      [
        ["Park","NNP","park"],
        ["Michael","NNP","michael"],
        ["Ferro","NNP","ferro"],
        ["Is","NNP","is"]
      ]
    },
    ["n't","RB","n't"],
    {
      "tag":"PERSON",
      "content":
      [
        ["Worried","NNP","worry"],
        ["Chicago","NNP","chicago"]
      ]
    },
    ["Has","NNP","has"],
    ["the","DT","the"],
    {
      "tag":"ORGANIZATION",
      "content":
      [
        ["Perfect","NNP","perfect"],
        ["Infrastructure","NNP","infrastruct"]
      ]
    },
    ["for","IN","for"],
    ["a","DT","a"],
    ["Massive","JJ","mass"],
    {
      "tag":"ORGANIZATION",
      "content":
      [
        ["Drug","NN","drug"],
        ["Trade","NNP","trad"],
        ["Chop","NNP","chop"],
        ["Shop","NNP","shop"]
      ]
    },
    [",",",",","],
    ["a","DT","a"],
    {
      "tag":"ORGANIZATION",
      "content":
      [
        ["Crazy","NNP","crazy"]
      ]
    },
    ["Butcher","NNP","butch"],
    ["Shop","NNP","shop"],
    {
      "tag":"PERSON",
      "content":
      [
        ["Bar","NNP","bar"],
        ["Hybrid","NNP","hybrid"]
      ]
    },
    [",",",",","],
    {
      "tag":"PERSON",
      "content":
      [
        ["Actually","NNP","act"],
        ["Works","NNP","work"],
        ["Somebody","NNP","somebody"]
      ]
    },
    ["Paid","NNP","paid"],
    ["$","$","$"],
    ["1","CD","1"],
    ["Million","CD","Million"],
    ["for","IN","for"],
    ["a","DT","a"],
    ["One-Bedroom","JJ","one-bedroom"],
    {
      "tag":"PERSON",
      "content":
      [
        ["Trump","NNP","trump"],
        ["Condo","NNP","condo"]
      ]
    },
    ["Advertisement","NNP","advert"],
    ["Subscribe+-","NNP","subscribe+-"],
    ["Subscribe","NNP","subscrib"],
    ["/","NNP","/"],
    ["Archive","NNP","arch"],
    ["Subscribe","NNP","subscrib"],
    ["to","TO","to"],
    ["the","DT","the"],
    {
      "tag":"ORGANIZATION",
      "content":
      [
        ["Print","NNP","print"]
      ]
    },
    ["&","CC","&"],
    {
      "tag":"PERSON",
      "content":
      [
        ["Tablet","NNP","tablet"],
        ["Edition","NNP","edit"],
        ["Subscribe","NNP","subscrib"]
      ]
    },
    ["to","TO","to"],
    ["the","DT","the"],
    {
      "tag":"ORGANIZATION",
      "content":
      [
        ["Digital","NNP","digit"],
        ["Edition","NNP","edit"],
        ["Purchase","NNP","purchas"]
      ]
    },
    ["copies","NNS","cop"],
    ["of","IN","of"],
    {
      "tag":"ORGANIZATION",
      "content":
      [
        ["Single","NNP","singl"],
        ["Issues","NNPS","issu"]
      ]
    },
    ["Give","NNP","giv"],
    ["a","DT","a"],
    ["gift","NN","gift"],
    ["subscription","NN","subscrib"],
    ["@",":","@"],
    ["media","NNS","med"],
    ["(","VBP","("],
    ["max-width:735px","JJ","max-width:735px"],
    [")","NN",")"],
    ["{",":","{"],
    ["#","#","#"],
    ["div-gpt-ad-leaderboard-2","-NONE-","div-gpt-ad-leaderboard-2"],
    ["{",":","{"],
    ["display","NN","display"],
    [":",":",":"],
    ["none","NN","non"],
    ["!",".","!"],
    ["important","JJ","import"],
    [";",":",";"],
    ["}",":","}"],
    ["}",":","}"],
    {
      "tag":"GPE",
      "content":
      [
        ["Chicago","NNP","chicago"]
      ]
    },
    ["magazine","NN","magazin"],
    {
      "tag":"PERSON",
      "content":
      [
        ["Advertise","NNP","advert"],
        ["Contact","NNP","contact"],
        ["Us","NNP","us"],
        ["Marketplace","NNP","marketplac"],
        ["Privacy","NNP","priv"]
      ]
    },
    ["&","CC","&"],
    {
      "tag":"PERSON",
      "content":
      [
        ["Terms","NNP","term"],
        ["Archive","NNP","arch"],
        ["Customer","NNP","custom"],
        ["Service","NNP","serv"],
        ["Newsletters","NNP","newslet"],
        ["Subscribe","NNP","subscrib"],
        ["Advertise","NNP","advert"],
        ["Contact","NNP","contact"],
        ["Us","NNP","us"],
        ["Marketplace","NNP","marketplac"],
        ["Privacy","NNP","priv"]
      ]
    },
    ["&","CC","&"],
    {
      "tag":"PERSON",
      "content":
      [
        ["Terms","NNP","term"],
        ["Archive","NNP","arch"],
        ["Customer","NNP","custom"],
        ["Service","NNP","serv"],
        ["Newsletters","NNP","newslet"],
        ["Subscribe","NNP","subscrib"]
      ]
    },
    ["©","NNP","©"],
    ["2013","CD","2013"],
    {
      "tag":"ORGANIZATION",
      "content":
      [
        ["Chicago","NNP","chicago"],
        ["Magazine","NNP","magazin"]
      ]
    },
    ["A","NNP","a"],
    {
      "tag":"ORGANIZATION",
      "content":
      [
        ["Chicago","NNP","chicago"],
        ["Tribune","NNP","tribun"],
        ["Media","NNP","med"],
        ["Group","NNP","group"]
      ]
    },
    ["website","NN","websit"]
  ]
}]