[
{
  "tag":"S",
  "content":
  [
    {
      "tag":"GPE",
      "content":
      [
        ["Login","NNP","login"]
      ]
    },
    ["|",":","|"],
    {
      "tag":"PERSON",
      "content":
      [
        ["Manage","NNP","man"],
        ["Account","NNP","account"]
      ]
    },
    ["|","NNP","|"],
    ["Mobile","NNP","mobl"],
    ["|","NNP","|"],
    ["E-Edition","NNP","e-edition"],
    ["|","NNP","|"],
    ["Contact","NNP","contact"],
    ["Us","NNP","us"],
    ["|","NNP","|"],
    ["Site","NNP","sit"],
    ["Map","NNP","map"],
    ["|","NNP","|"],
    ["Subscription","NNP","subscrib"],
    ["|","NNP","|"],
    ["Reader","NNP","read"],
    ["Rewards","NNP","reward"],
    ["User","NNP","us"],
    ["Name","NNP","nam"],
    [":",":",":"],
    ["Password","NNP","password"],
    [":",":",":"],
    ["Forgotten","NNP","forgot"],
    ["your","PRP$","your"],
    ["password","NN","password"],
    ["?",".","?"]
  ]
},
{
  "tag":"S",
  "content":
  [
    ["|","NN","|"],
    ["Create","NNP","cre"],
    ["an","DT","an"],
    ["account","NN","account"],
    ["Register","NNP","reg"],
    ["or","CC","or"],
    ["log","NN","log"],
    ["in","IN","in"],
    ["using","VBG","us"],
    ["your","PRP$","your"],
    ["account","NN","account"],
    ["on","IN","on"],
    ["these","DT","these"],
    ["websites","NNS","websit"],
    [".",".","."]
  ]
},
{
  "tag":"S",
  "content":
  [
    ["site","IN","site"],
    ["web","NN","web"],
    ["Web","NNP","web"],
    ["Search","NNP","search"],
    ["powered","VBD","pow"],
    ["by","IN","by"],
    {
      "tag":"PERSON",
      "content":
      [
        ["Yahoo","NNP","yahoo"]
      ]
    },
    ["!",".","!"]
  ]
},
{
  "tag":"S",
  "content":
  [
    {
      "tag":"ORGANIZATION",
      "content":
      [
        ["SEARCH","NN","search"]
      ]
    },
    {
      "tag":"ORGANIZATION",
      "content":
      [
        ["Knoxville","NNP","knoxvil"],
        ["News","NNP","new"]
      ]
    },
    {
      "tag":"ORGANIZATION",
      "content":
      [
        ["Sentinel","NNP","sentinel"],
        ["News","NNP","new"]
      ]
    },
    ["Today","NNP","today"],
    {
      "tag":"PERSON",
      "content":
      [
        ["Local","NNP","loc"],
        ["YourNews","NNP","yournew"],
        ["Academic","NNP","academ"],
        ["Achievers","NNP","achiev"]
      ]
    },
    ["Courts/Crime","NNP","courts/crime"],
    ["State","NNP","stat"],
    ["Education","NNP","educ"],
    ["Weather","NNP","weath"],
    ["Obituaries","NNP","obitu"],
    ["Databases","NNP","databas"],
    ["Politics","NNP","polit"],
    ["Election","NNP","elect"],
    ["Columnists","NNP","column"],
    {
      "tag":"PERSON",
      "content":
      [
        ["Sam","NNP","sam"],
        ["Venable","NNP","ven"],
        ["Georgiana","NNP","georgian"],
        ["Vines","NNP","vin"],
        ["Frank","NNP","frank"],
        ["Munger","NNP","mung"],
        ["Greg","NNP","greg"]
      ]
    },
    {
      "tag":"PERSON",
      "content":
      [
        ["Johnson","NNP","johnson"],
        ["Smoky","NNP","smoky"],
        ["Mountains","NNP","mountain"],
        ["Archives","NNP","arch"],
        ["Sports","NNP","sport"]
      ]
    },
    ["GoVolsXtra","NNP","govolsxtr"],
    ["PrepXtra","NNP","prepxtr"],
    ["Game","NNP","gam"],
    ["of","IN","of"],
    ["the","DT","the"],
    {
      "tag":"ORGANIZATION",
      "content":
      [
        ["Week","NNP","week"],
        ["Player","NNP","play"]
      ]
    },
    ["of","IN","of"],
    ["the","DT","the"],
    {
      "tag":"ORGANIZATION",
      "content":
      [
        ["Week","NNP","week"],
        ["Stats","NNP","stat"]
      ]
    },
    ["&","CC","&"],
    {
      "tag":"PERSON",
      "content":
      [
        ["Schedules","NNP","schedules"],
        ["Stadium","NNP","stad"],
        ["Map","NNP","map"],
        ["Baseball","NNP","basebal"]
      ]
    },
    ["Smokies","NNPS","smoky"],
    ["Baseball","NNP","basebal"],
    ["Basketball","NNP","basketbal"],
    ["Bulletin","NNP","bulletin"],
    ["board","NN","board"],
    {
      "tag":"ORGANIZATION",
      "content":
      [
        ["Football","NNP","footbal"],
        ["Tennessee","NNP","ten"],
        ["Titans","NNP","tit"],
        ["Golf","NNP","golf"],
        ["Hockey","NNP","hockey"],
        ["Knoxville","NNP","knoxvil"]
      ]
    },
    ["Ice","NNP","ic"],
    {
      "tag":"PERSON",
      "content":
      [
        ["Bears","NNP","bear"],
        ["NASCAR","NNP","nasc"]
      ]
    },
    ["Other","NNP","oth"],
    ["Sports","NNP","sport"],
    ["Outdoors","NNP","outdo"],
    ["Columnists","NNP","column"],
    ["Business","NNP","busy"],
    ["Local","NNP","loc"],
    ["business","NN","busy"],
    {
      "tag":"ORGANIZATION",
      "content":
      [
        ["Business","NNP","busy"],
        ["Journal","NNP","journ"],
        ["Columnists","NNP","column"],
        ["Josh","NNP","josh"],
        ["Flory","NNP","flory"],
        ["Carly","NNP","car"],
        ["Harrington","NNP","harrington"]
      ]
    },
    {
      "tag":"PERSON",
      "content":
      [
        ["David","NNP","david"],
        ["Moon","NNP","moon"],
        ["Toni","NNP","ton"],
        ["Duval","NNP","duv"],
        ["Pam","NNP","pam"],
        ["Reeves","NNP","reev"],
        ["Roger","NNP","rog"],
        ["Harris","NNP","har"],
        ["Book","NNP","book"]
      ]
    },
    ["of","IN","of"],
    {
      "tag":"ORGANIZATION",
      "content":
      [
        ["Lists","NNPS","list"],
        ["Technology","NNP","technolog"],
        ["Personal","NNP","person"],
        ["Finance","NNP","fin"],
        ["Commercial","NNP","commerc"],
        ["Property","NNP","property"],
        ["Newsletters","NNP","newslet"],
        ["Opinion","NNP","opin"],
        ["Blogs","NNP","blog"]
      ]
    },
    ["Today","NNP","today"],
    ["'s","POS","'s"],
    {
      "tag":"ORGANIZATION",
      "content":
      [
        ["Editorial","NNP","edit"],
        ["Letters","NNP","let"]
      ]
    },
    ["to","TO","to"],
    ["the","DT","the"],
    {
      "tag":"ORGANIZATION",
      "content":
      [
        ["Editor","NNP","edit"],
        ["Perspectives","NNP","perspect"],
        ["Cartoons","NNP","cartoon"]
      ]
    },
    ["Charlie","NNP","char"],
    {
      "tag":"PERSON",
      "content":
      [
        ["Daniel","NNP","daniel"],
        ["Cartoons","NNP","cartoon"],
        ["Polls","NNP","pol"],
        ["Columnists","NNP","column"],
        ["Jack","NNP","jack"]
      ]
    },
    {
      "tag":"ORGANIZATION",
      "content":
      [
        ["McElroy","NNP","mcelroy"],
        ["Don","NNP","don"],
        ["Ferguson","NNP","ferguson"],
        ["Mark","NNP","mark"],
        ["Harmon","NNP","harmon"],
        ["Ina","NNP","in"],
        ["Hughs","NNP","hugh"],
        ["Tom","NNP","tom"],
        ["Humphrey","NNP","humphrey"]
      ]
    },
    {
      "tag":"PERSON",
      "content":
      [
        ["David","NNP","david"],
        ["Hunter","NNP","hunt"],
        ["Greg","NNP","greg"]
      ]
    },
    {
      "tag":"PERSON",
      "content":
      [
        ["Johnson","NNP","johnson"],
        ["Robert","NNP","robert"],
        ["Booker","NNP","book"],
        ["George","NNP","georg"],
        ["Korda","NNP","kord"],
        ["Scott","NNP","scot"]
      ]
    },
    {
      "tag":"ORGANIZATION",
      "content":
      [
        ["McNutt","NNP","mcnutt"],
        ["Frank","NNP","frank"],
        ["Munger","NNP","mung"],
        ["Pam","NNP","pam"],
        ["Strickland","NNP","strickland"],
        ["Scott","NNP","scot"],
        ["Barker","NNP","bark"]
      ]
    },
    ["Entertainment","NNP","entertain"],
    ["Events","NNP","ev"],
    ["Submit","NNP","submit"],
    ["Event","NNP","ev"],
    ["TV","NNP","tv"],
    ["listings","NNS","list"],
    ["Dining","NNP","din"],
    ["news","NN","new"],
    ["Restaurants","NNS","resta"],
    {
      "tag":"PERSON",
      "content":
      [
        ["Movies","NNPS","movy"],
        ["Movie","NNP","movy"]
      ]
    },
    ["trailers","NNS","trail"],
    {
      "tag":"PERSON",
      "content":
      [
        ["Music","NNP","mus"],
        ["Knoxville","NNP","knoxvil"]
      ]
    },
    ["Bands","NNPS","band"],
    {
      "tag":"ORGANIZATION",
      "content":
      [
        ["mp3s","NNP","mp3s"],
        ["Nightlife","NNP","nightl"],
        ["Celebrities","NNPS","celebr"],
        ["Puzzles","NNP","puzzl"],
        ["Crossword","NNP","crossword"],
        ["Sudoku","NNP","sudoku"],
        ["Lifestyles","NNP","lifestyl"],
        ["Celebrations","NNP","celebr"],
        ["Faith","NNP","fai"]
      ]
    },
    ["&","CC","&"],
    {
      "tag":"PERSON",
      "content":
      [
        ["Values","NNP","valu"],
        ["Food","NNP","food"],
        ["KNS","NNP","kns"]
      ]
    },
    ["on","IN","on"],
    {
      "tag":"ORGANIZATION",
      "content":
      [
        ["Pinterest","NNP","pinterest"],
        ["Home","NNP","hom"]
      ]
    },
    ["&","CC","&"],
    {
      "tag":"PERSON",
      "content":
      [
        ["Garden","NNP","gard"],
        ["Family","NNP","famy"]
      ]
    },
    ["YourNews","NNP","yournew"],
    ["KnoxMoms","NNP","knoxmom"],
    {
      "tag":"PERSON",
      "content":
      [
        ["Travel","NNP","travel"],
        ["Smoky","NNP","smoky"],
        ["Mountains","NNP","mountain"],
        ["Tenn","NNP","ten"],
        ["Outdoors","NNP","outdo"],
        ["Learning","NNP","learn"]
      ]
    },
    ["Columnists","NNPS","column"],
    {
      "tag":"PERSON",
      "content":
      [
        ["Susan","NNP","sus"],
        ["Alexander","NNP","alexand"],
        ["Sherri","NNP","sherr"]
      ]
    },
    ["Gardner-Howell","NNP","gardner-howell"],
    ["Mary","NNP","mary"],
    ["Constantine","NNP","constantin"],
    {
      "tag":"PERSON",
      "content":
      [
        ["Marcia","NNP","marc"],
        ["Davis","NNP","dav"],
        ["Ina","NNP","in"],
        ["Hughs","NNP","hugh"],
        ["Joe","NNP","joe"],
        ["Rosson","NNP","rosson"],
        ["Gay","NNP","gay"],
        ["Lyons","NNP","lyon"],
        ["Media","NNP","med"],
        ["Photo","NNP","photo"]
      ]
    },
    ["Galleries","NNPS","gallery"],
    {
      "tag":"PERSON",
      "content":
      [
        ["Videos","NNP","video"],
        ["Submit","NNP","submit"]
      ]
    },
    ["a","DT","a"],
    ["Photo","NNP","photo"],
    ["Today","NNP","today"],
    ["'s","POS","'s"],
    ["Frontpage","NNP","frontp"],
    {
      "tag":"PERSON",
      "content":
      [
        ["Market","NNP","market"],
        ["Square","NNP","squ"],
        ["Webcam","NNP","webcam"]
      ]
    },
    ["Audio/Podcasts","NNP","audio/podcasts"],
    ["Jobs","NNP","job"],
    ["Homes","NNP","hom"],
    {
      "tag":"PERSON",
      "content":
      [
        ["Cars","NNP","car"],
        ["New","NNP","new"],
        ["Cars","NNP","car"],
        ["Used","NNP","us"],
        ["Cars","NNP","car"],
        ["Find","NNP","find"],
        ["Dealers","NNP","deal"],
        ["Research","NNP","research"],
        ["Sell","NNP","sel"],
        ["My","NNP","my"],
        ["Car","NNP","car"]
      ]
    },
    ["Cycle/Boat/RV","NNP","cycle/boat/rv"],
    ["Classified","NNP","class"],
    ["Breaking","NNP","break"],
    ["News","NNP","new"],
    {
      "tag":"PERSON",
      "content":
      [
        ["James","NNP","jam"]
      ]
    },
    {
      "tag":"FACILITY",
      "content":
      [
        ["White","NNP","whit"],
        ["Parkway","NNP","parkway"]
      ]
    },
    ["extension","NN","extend"],
    ["dead","NN","dead"],
    ["|",":","|"],
    {
      "tag":"ORGANIZATION",
      "content":
      [
        ["Senate","NNP","sen"]
      ]
    },
    ["reaches","VBZ","reach"],
    ["agreement","NN","agr"],
    ["to","TO","to"],
    ["reopen","VB","reop"],
    ["government","NN","govern"],
    [",",",",","],
    ["avoid","VBD","avoid"],
    ["default","NN","default"],
    ["Vols","NNS","vol"],
    {
      "tag":"ORGANIZATION",
      "content":
      [
        ["iPad","NNP","ipad"]
      ]
    },
    ["book","NN","book"],
    ["“Tennessee","NN","“tennessee"],
    ["Football","NNP","footbal"],
    ["2013”","CD","2013”"],
    ["is","VBZ","be"],
    ["the","DT","the"],
    ["ultimate","JJ","ultim"],
    ["program","NN","program"],
    ["to","TO","to"],
    ["help","VB","help"],
    ["fans","NNS","fan"],
    ["follow","VB","follow"],
    ["this","DT","this"],
    ["year’s","JJ","year’s"],
    ["Vols","NNS","vol"],
    ["squad","VBP","squad"],
    ["through","IN","through"],
    ["the","DT","the"],
    ["season","NN","season"],
    [">",":",">"],
    [">",":",">"],
    ["WEB","NNP","web"],
    ["CAM","NNP","cam"],
    ["Knoxville","NNP","knoxvil"],
    ["Zoo","NNP","zoo"],
    ["Red","NNP","red"],
    ["Panda","NNP","pand"],
    ["Cubs","NNP","cub"],
    ["Cam","NNP","cam"],
    [">","NNP",">"],
    [">","NNP",">"],
    ["ORNL","NNP","ornl"],
    ["pulls","VBZ","pul"],
    ["contract","NN","contract"],
    ["of","IN","of"],
    ["top","JJ","top"],
    ["scientist","NN","sci"],
    [",",",",","],
    ["outspoken","VBN","outspok"],
    ["critic","JJ","crit"],
    ["By","IN","By"],
    {
      "tag":"PERSON",
      "content":
      [
        ["Frank","NNP","frank"],
        ["Munger","NNP","mung"],
        ["Knoxville","NNP","knoxvil"],
        ["News","NNP","new"],
        ["Sentinel","NNP","sentinel"],
        ["Posted","NNP","post"]
      ]
    },
    ["June","NNP","jun"],
    ["5","CD","5"],
    [",",",",","],
    ["2008","CD","2008"],
    ["at","IN","at"],
    ["4:16","CD","4:16"],
    ["p.m.","NNP","p.m."],
    [",",",",","],
    ["updated","VBD","upd"],
    ["June","NNP","jun"],
    ["5","CD","5"],
    [",",",",","],
    ["2008","CD","2008"],
    ["at","IN","at"],
    ["4:43","CD","4:43"],
    ["p.m","RB","p.m"],
    [".",".","."]
  ]
},
{
  "tag":"S",
  "content":
  [
    {
      "tag":"PERSON",
      "content":
      [
        ["Discuss","NNP","discuss"]
      ]
    },
    ["Print","NNP","print"],
    ["A","NNP","a"],
    ["A","NNP","a"],
    ["A","NNP","a"],
    ["Photo","NNP","photo"],
    ["by","IN","by"],
    {
      "tag":"ORGANIZATION",
      "content":
      [
        ["University","NNP","univers"]
      ]
    },
    ["of","IN","of"],
    ["Tennessee/AP","NNP","tennessee/ap"],
    ["file","NN","fil"],
    {
      "tag":"ORGANIZATION",
      "content":
      [
        ["University","NNP","univers"]
      ]
    },
    ["of","IN","of"],
    {
      "tag":"GPE",
      "content":
      [
        ["Tennessee","NNP","ten"]
      ]
    },
    ["physics","NN","phys"],
    ["professor","NN","profess"],
    {
      "tag":"PERSON",
      "content":
      [
        ["Ward","NNP","ward"],
        ["Plummer","NNP","plum"]
      ]
    },
    [",",",",","],
    ["shown","IN","shown"],
    ["in","IN","in"],
    ["an","DT","an"],
    ["undated","JJ","und"],
    ["photo","NN","photo"],
    ["provided","VBN","provid"],
    ["by","IN","by"],
    ["the","DT","the"],
    ["university","NN","univers"],
    [",",",",","],
    ["was","VBD","be"],
    ["elected","VBN","elect"],
    ["Tuesday","NNP","tuesday"],
    [",",",",","],
    ["April","NNP","april"],
    ["25","CD","25"],
    [",",",",","],
    ["2006","CD","2006"],
    [",",",",","],
    ["to","TO","to"],
    ["the","DT","the"],
    ["prestigious","JJ","prestigy"],
    {
      "tag":"ORGANIZATION",
      "content":
      [
        ["National","NNP","nat"],
        ["Academy","NNP","academy"]
      ]
    },
    ["of","IN","of"],
    {
      "tag":"ORGANIZATION",
      "content":
      [
        ["Sciences","NNPS","sci"]
      ]
    },
    [".",".","."]
  ]
},
{
  "tag":"S",
  "content":
  [
    {
      "tag":"GPE",
      "content":
      [
        ["Photo","NNP","photo"]
      ]
    },
    ["by","IN","by"],
    {
      "tag":"ORGANIZATION",
      "content":
      [
        ["University","NNP","univers"]
      ]
    },
    ["of","IN","of"],
    ["Tennessee/AP","NNP","tennessee/ap"],
    ["file","NN","fil"],
    {
      "tag":"ORGANIZATION",
      "content":
      [
        ["University","NNP","univers"]
      ]
    },
    ["of","IN","of"],
    {
      "tag":"GPE",
      "content":
      [
        ["Tennessee","NNP","ten"]
      ]
    },
    ["physics","NN","phys"],
    ["professor","NN","profess"],
    {
      "tag":"PERSON",
      "content":
      [
        ["Ward","NNP","ward"],
        ["Plummer","NNP","plum"]
      ]
    },
    [",",",",","],
    ["shown","IN","shown"],
    ["in","IN","in"],
    ["an","DT","an"],
    ["undated","JJ","und"],
    ["photo","NN","photo"],
    ["provided","VBN","provid"],
    ["by","IN","by"],
    ["the","DT","the"],
    ["university","NN","univers"],
    [",",",",","],
    ["was","VBD","be"],
    ["elected","VBN","elect"],
    ["Tuesday","NNP","tuesday"],
    [",",",",","],
    ["April","NNP","april"],
    ["25","CD","25"],
    [",",",",","],
    ["2006","CD","2006"],
    [",",",",","],
    ["to","TO","to"],
    ["the","DT","the"],
    ["prestigious","JJ","prestigy"],
    {
      "tag":"ORGANIZATION",
      "content":
      [
        ["National","NNP","nat"],
        ["Academy","NNP","academy"]
      ]
    },
    ["of","IN","of"],
    {
      "tag":"ORGANIZATION",
      "content":
      [
        ["Sciences","NNPS","sci"]
      ]
    },
    [".",".","."]
  ]
},
{
  "tag":"S",
  "content":
  [
    {
      "tag":"PERSON",
      "content":
      [
        ["Ward","NNP","ward"],
        ["Plummer","NNP","plum"]
      ]
    },
    [",",",",","],
    ["a","DT","a"],
    ["distinguished","JJ","distinct"],
    ["scientist","NN","sci"],
    ["with","IN","with"],
    ["joint","JJ","joint"],
    ["appointments","NNS","appoint"],
    ["at","IN","at"],
    {
      "tag":"ORGANIZATION",
      "content":
      [
        ["Oak","NNP","oak"],
        ["Ridge","NNP","ridg"],
        ["National","NNP","nat"],
        ["Laboratory","NNP","lab"]
      ]
    },
    ["and","CC","and"],
    ["the","DT","the"],
    {
      "tag":"ORGANIZATION",
      "content":
      [
        ["University","NNP","univers"]
      ]
    },
    ["of","IN","of"],
    {
      "tag":"GPE",
      "content":
      [
        ["Tennessee","NNP","ten"]
      ]
    },
    [",",",",","],
    ["said","VBD","say"],
    ["today","NN","today"],
    ["that","IN","that"],
    {
      "tag":"ORGANIZATION",
      "content":
      [
        ["ORNL","NNP","ornl"]
      ]
    },
    ["had","VBD","hav"],
    ["eliminated","VBN","elimin"],
    ["his","PRP$","his"],
    ["lab","NN","lab"],
    ["position","NN","posit"],
    ["—",":","—"],
    ["effective","JJ","effect"],
    ["June","NNP","jun"],
    ["30","CD","30"],
    [".",".","."]
  ]
},
{
  "tag":"S",
  "content":
  [
    ["“ORNL","JJ","“ornl"],
    ["terminated","VBN","termin"],
    ["me","PRP","me"],
    [",",",",","],
    ["”",":","”"],
    {
      "tag":"PERSON",
      "content":
      [
        ["Plummer","NNP","plum"]
      ]
    },
    ["said","VBD","say"],
    [".",".","."]
  ]
},
{
  "tag":"S",
  "content":
  [
    ["“I","NN","“i"],
    ["got","VBD","get"],
    ["terminated","VBN","termin"],
    ["without","IN","without"],
    ["a","DT","a"],
    ["review.”","JJ","review.”"],
    ["The","DT","The"],
    ["experimental","JJ","expery"],
    ["physicist","NN","phys"],
    ["said","VBD","say"],
    ["he","PRP","he"],
    ["was","VBD","be"],
    ["informed","VBN","inform"],
    ["of","IN","of"],
    ["the","DT","the"],
    ["situation","NN","situ"],
    ["by","IN","by"],
    {
      "tag":"PERSON",
      "content":
      [
        ["Jim","NNP","jim"],
        ["Roberto","NNP","roberto"]
      ]
    },
    [",",",",","],
    ["ORNL’s","NNP","ornl’s"],
    ["deputy","NN","deputy"],
    ["lab","NN","lab"],
    ["director","NN","direct"],
    ["for","IN","for"],
    ["science","NN","sci"],
    ["and","CC","and"],
    ["technology","NN","technolog"],
    [",",",",","],
    ["but","CC","but"],
    ["was","VBD","be"],
    ["not","RB","not"],
    ["given","VBN","giv"],
    ["a","DT","a"],
    ["specific","JJ","spec"],
    ["reason","NN","reason"],
    [".",".","."]
  ]
},
{
  "tag":"S",
  "content":
  [
    {
      "tag":"PERSON",
      "content":
      [
        ["Plummer","NNP","plum"]
      ]
    },
    ["said","VBD","say"],
    {
      "tag":"PERSON",
      "content":
      [
        ["he’s","NNP","he’s"]
      ]
    },
    ["convinced","VBD","convint"],
    ["that","IN","that"],
    ["the","DT","the"],
    ["action","NN","act"],
    ["was","VBD","be"],
    ["taken","VBN","tak"],
    ["because","IN","because"],
    ["of","IN","of"],
    ["his","PRP$","his"],
    ["outspoken","NN","outspok"],
    ["criticism","NN","crit"],
    ["of","IN","of"],
    ["the","DT","the"],
    ["lab’s","JJ","lab’s"],
    ["leadership","NN","lead"],
    ["—",":","—"],
    ["or","CC","or"],
    [",",",",","],
    ["as","IN","as"],
    ["he","PRP","he"],
    ["stated","VBD","stat"],
    [",",",",","],
    ["“the","NNP","“the"],
    ["lack","NN","lack"],
    ["of","IN","of"],
    ["it.”","JJ","it.”"],
    {
      "tag":"PERSON",
      "content":
      [
        ["Michelle","NNP","michel"],
        ["Buchanan","NNP","buch"]
      ]
    },
    [",",",",","],
    ["the","DT","the"],
    ["associate","NN","assocy"],
    ["lab","NN","lab"],
    ["director","NN","direct"],
    ["for","IN","for"],
    ["physical","JJ","phys"],
    ["sciences","NNS","sci"],
    [",",",",","],
    ["confirmed","VBD","confirm"],
    ["that","IN","that"],
    {
      "tag":"ORGANIZATION",
      "content":
      [
        ["ORNL","NNP","ornl"]
      ]
    },
    ["had","VBD","hav"],
    ["decided","VBN","decid"],
    ["not","RB","not"],
    ["to","TO","to"],
    ["renew","VB","renew"],
    ["the","DT","the"],
    ["scientist’s","NNP","scientist’s"],
    ["contract","NN","contract"],
    [",",",",","],
    ["but","CC","but"],
    ["she","PRP","she"],
    ["said","VBD","say"],
    ["the","DT","the"],
    ["decision","NN","decid"],
    ["was","VBD","be"],
    ["not","RB","not"],
    ["driven","VBN","driv"],
    ["by","IN","by"],
    ["Plummer’s","NNP","plummer’s"],
    ["criticism","NN","crit"],
    ["of","IN","of"],
    ["lab","NN","lab"],
    ["management","NN","man"],
    [".",".","."]
  ]
},
{
  "tag":"S",
  "content":
  [
    ["“I","NN","“i"],
    ["think","VBP","think"],
    ["it","PRP","it"],
    ["was","VBD","be"],
    ["just","RB","just"],
    ["primarily","RB","prim"],
    ["because","IN","because"],
    ["his","PRP$","his"],
    ["interest","NN","interest"],
    ["in","IN","in"],
    ["the","DT","the"],
    ["science","NN","sci"],
    ["was","VBD","be"],
    ["going","VBG","go"],
    ["in","IN","in"],
    ["a","DT","a"],
    ["different","JJ","diff"],
    ["direction","NN","direct"],
    ["than","IN","than"],
    ["ours","NNS","our"],
    ["and","CC","and"],
    ["our","PRP$","our"],
    ["sponsor","NN","spons"],
    [",",",",","],
    ["”",":","”"],
    {
      "tag":"PERSON",
      "content":
      [
        ["Buchanan","NNP","buch"]
      ]
    },
    ["said","VBD","say"],
    [".",".","."]
  ]
},
{
  "tag":"S",
  "content":
  [
    ["She","PRP","She"],
    ["said","VBD","say"],
    ["the","DT","the"],
    {
      "tag":"ORGANIZATION",
      "content":
      [
        ["Department","NNP","depart"]
      ]
    },
    ["of","IN","of"],
    ["Energy’s","NNP","energy’s"],
    ["Office","NNP","off"],
    ["of","IN","of"],
    {
      "tag":"PERSON",
      "content":
      [
        ["Basic","NNP","bas"],
        ["Energy","NNP","energy"],
        ["Sciences","NNPS","sci"]
      ]
    },
    ["is","VBZ","be"],
    ["increasingly","RB","increas"],
    ["interested","JJ","interest"],
    ["in","IN","in"],
    ["“use-inspired”","JJ","“use-inspired”"],
    ["research","NN","research"],
    ["that","WDT","that"],
    ["supports","VBZ","support"],
    ["energy","NN","energy"],
    ["missions","NNS","miss"],
    [",",",",","],
    ["whereas","IN","whereas"],
    {
      "tag":"PERSON",
      "content":
      [
        ["Plummer","NNP","plum"]
      ]
    },
    ["wanted","VBD","want"],
    ["to","TO","to"],
    ["do","VB","do"],
    ["“discovery-based”","JJ","“discovery-based”"],
    ["research","NN","research"],
    ["with","IN","with"],
    ["broader","JJR","broad"],
    ["potential","JJ","pot"],
    [".",".","."]
  ]
},
{
  "tag":"S",
  "content":
  [
    {
      "tag":"GPE",
      "content":
      [
        ["Plummer","NNP","plum"]
      ]
    },
    ["will","MD","will"],
    ["become","VB","becom"],
    ["a","DT","a"],
    ["full-time","JJ","full-time"],
    ["faculty","NN","facul"],
    ["member","NN","memb"],
    ["in","IN","in"],
    ["UT’s","NNP","ut’s"],
    {
      "tag":"PERSON",
      "content":
      [
        ["Physics","NNP","phys"],
        ["Department","NNP","depart"]
      ]
    },
    [",",",",","],
    ["where","WRB","where"],
    ["he","PRP","he"],
    ["holds","VBZ","hold"],
    ["tenure","NN","ten"],
    ["as","IN","as"],
    ["a","DT","a"],
    ["professor","NN","profess"],
    [".",".","."]
  ]
},
{
  "tag":"S",
  "content":
  [
    ["UT","NN","ut"],
    ["and","CC","and"],
    {
      "tag":"ORGANIZATION",
      "content":
      [
        ["ORNL","NNP","ornl"]
      ]
    },
    ["previously","RB","prevy"],
    ["shared","VBD","shar"],
    ["the","DT","the"],
    ["costs","NNS","cost"],
    ["of","IN","of"],
    ["the","DT","the"],
    ["Plummer’s","JJ","plummer’s"],
    ["salary","NN","sal"],
    ["—",":","—"],
    ["listed","VBN","list"],
    ["at","IN","at"],
    ["$","$","$"],
    ["289,090","CD","289,090"],
    ["—","CD","—"],
    ["and","CC","and"],
    ["a","DT","a"],
    ["discretionary","JJ","discret"],
    ["fund","NN","fund"],
    ["roughly","RB","rough"],
    ["equal","JJ","eq"],
    ["to","TO","to"],
    ["that","DT","that"],
    ["amount","NN","amount"],
    [".",".","."]
  ]
},
{
  "tag":"S",
  "content":
  [
    ["He","PRP","He"],
    ["split","VBD","split"],
    ["time","NN","tim"],
    ["between","IN","between"],
    ["the","DT","the"],
    ["institutions","NNS","institut"],
    [".",".","."]
  ]
},
{
  "tag":"S",
  "content":
  [
    {
      "tag":"PERSON",
      "content":
      [
        ["Tom","NNP","tom"],
        ["Milligan","NNP","millig"]
      ]
    },
    [",",",",","],
    ["UT’s","NNP","ut’s"],
    ["vice","NN","vic"],
    ["chancellor","NN","chancel"],
    ["for","IN","for"],
    ["communications","NNS","commun"],
    [",",",",","],
    ["confirmed","VBD","confirm"],
    ["that","IN","that"],
    ["the","DT","the"],
    ["university","NN","univers"],
    ["would","MD","would"],
    ["pick","VB","pick"],
    ["up","RP","up"],
    ["the","DT","the"],
    ["full","JJ","ful"],
    ["costs","NNS","cost"],
    ["for","IN","for"],
    {
      "tag":"ORGANIZATION",
      "content":
      [
        ["Plummer","NNP","plum"]
      ]
    },
    [".",".","."]
  ]
},
{
  "tag":"S",
  "content":
  [
    ["“He","JJ","“he"],
    ["is","VBZ","be"],
    ["a","DT","a"],
    ["leading","VBG","lead"],
    ["scientist","NN","sci"],
    [",",",",","],
    ["a","DT","a"],
    ["member","NN","memb"],
    ["of","IN","of"],
    ["the","DT","the"],
    {
      "tag":"ORGANIZATION",
      "content":
      [
        ["National","NNP","nat"],
        ["Academy","NNP","academy"]
      ]
    },
    ["of","IN","of"],
    {
      "tag":"GPE",
      "content":
      [
        ["Sciences","NNPS","sci"]
      ]
    },
    [",",",",","],
    ["and","CC","and"],
    ["we","PRP","we"],
    ["are","VBP","be"],
    ["going","VBG","go"],
    ["to","TO","to"],
    ["continue","VB","continu"],
    ["to","TO","to"],
    ["support","VB","support"],
    ["him","PRP","him"],
    [",",",",","],
    ["”",":","”"],
    {
      "tag":"PERSON",
      "content":
      [
        ["Milligan","NNP","millig"]
      ]
    },
    ["said","VBD","say"],
    [".",".","."]
  ]
},
{
  "tag":"S",
  "content":
  [
    ["“We’re","JJ","“we’re"],
    ["proud","NN","proud"],
    ["to","TO","to"],
    ["have","VB","hav"],
    ["him","PRP","him"],
    ["on","IN","on"],
    ["our","PRP$","our"],
    ["faculty.”","JJ","faculty.”"],
    {
      "tag":"PERSON",
      "content":
      [
        ["Roberto","NNP","roberto"]
      ]
    },
    ["initially","RB","init"],
    ["declined","VBD","declin"],
    ["comment","NN","com"],
    [",",",",","],
    ["but","CC","but"],
    ["later","JJ","lat"],
    ["said","VBD","say"],
    [",",",",","],
    ["“I","NNP","“i"],
    ["think","VBP","think"],
    ["this","DT","this"],
    ["is","VBZ","be"],
    ["the","DT","the"],
    ["right","NN","right"],
    ["evolution","NN","evolv"],
    ["...",":","..."]
  ]
},
{
  "tag":"S",
  "content":
  [
    ["I","PRP","I"],
    ["actually","RB","act"],
    ["think","VBP","think"],
    ["this","DT","this"],
    ["is","VBZ","be"],
    ["a","DT","a"],
    ["good","JJ","good"],
    ["outcome","NN","outcom"],
    ["for","IN","for"],
    ["him.”","NN","him.”"],
    ["The","DT","The"],
    {
      "tag":"ORGANIZATION",
      "content":
      [
        ["Distinguished","NNP","distinct"],
        ["Scientists","NNP","sci"],
        ["Program","NNP","program"]
      ]
    },
    ["was","VBD","be"],
    ["started","VBN","start"],
    ["in","IN","in"],
    ["1984","CD","1984"],
    ["as","IN","as"],
    ["a","DT","a"],
    ["way","NN","way"],
    ["to","TO","to"],
    ["recruit","VB","recruit"],
    ["top-level","JJ","top-level"],
    ["scientists","NNS","sci"],
    ["to","TO","to"],
    {
      "tag":"GPE",
      "content":
      [
        ["East","NNP","east"],
        ["Tennessee","NNP","ten"]
      ]
    },
    [",",",",","],
    ["and","CC","and"],
    ["it’s","NNP","it’s"],
    ["considered","VBD","consid"],
    ["the","DT","the"],
    ["anchor","NN","anch"],
    ["program","NN","program"],
    ["of","IN","of"],
    ["the","DT","the"],
    ["UT-ORNL","JJ","ut-ornl"],
    ["Science","NN","sci"],
    ["Alliance","NNP","al"],
    [".",".","."]
  ]
},
{
  "tag":"S",
  "content":
  [
    ["There","EX","There"],
    ["currently","RB","cur"],
    ["are","VBP","be"],
    ["11","CD","11"],
    ["people","NNS","peopl"],
    ["in","IN","in"],
    ["the","DT","the"],
    ["program","NN","program"],
    [",",",",","],
    ["although","IN","although"],
    ["not","RB","not"],
    ["all","DT","all"],
    ["of","IN","of"],
    ["them","PRP","them"],
    ["have","VBP","hav"],
    ["dual","JJ","dual"],
    ["appointments","NNS","appoint"],
    [".",".","."]
  ]
},
{
  "tag":"S",
  "content":
  [
    {
      "tag":"GPE",
      "content":
      [
        ["Plummer","NNP","plum"]
      ]
    },
    [",",",",","],
    ["67","CD","67"],
    [",",",",","],
    ["is","VBZ","be"],
    ["a","DT","a"],
    ["star","NN","star"],
    ["researcher","NN","research"],
    ["in","IN","in"],
    ["surface","NN","surfac"],
    ["physics","NNS","phys"],
    [",",",",","],
    ["using","VBG","us"],
    ["advanced","JJ","adv"],
    ["microscopes","NNS","microscop"],
    ["and","CC","and"],
    ["other","JJ","oth"],
    ["techniques","NNS","techn"],
    ["to","TO","to"],
    ["study","NN","study"],
    ["the","DT","the"],
    ["chemical","JJ","chem"],
    ["and","CC","and"],
    ["physical","JJ","phys"],
    ["characteristics","NNS","charact"],
    ["of","IN","of"],
    ["materials","NNS","mat"],
    ["at","IN","at"],
    ["the","DT","the"],
    ["atomic","JJ","atom"],
    ["scale","NN","scal"],
    [".",".","."]
  ]
},
{
  "tag":"S",
  "content":
  [
    ["He","PRP","He"],
    ["was","VBD","be"],
    ["elected","VBN","elect"],
    ["to","TO","to"],
    ["the","DT","the"],
    {
      "tag":"ORGANIZATION",
      "content":
      [
        ["National","NNP","nat"],
        ["Academy","NNP","academy"]
      ]
    },
    ["of","IN","of"],
    ["Sciences","NNPS","sci"],
    ["in","IN","in"],
    ["2006","CD","2006"],
    [",",",",","],
    ["a","DT","a"],
    ["strong","JJ","strong"],
    ["validation","NN","valid"],
    ["of","IN","of"],
    ["his","PRP$","his"],
    ["career","NN","car"],
    ["achievements","NNS","achiev"],
    [".",".","."]
  ]
},
{
  "tag":"S",
  "content":
  [
    ["The","DT","The"],
    ["physicist","NN","phys"],
    ["accepted","VBD","acceiv"],
    ["the","DT","the"],
    ["joint","JJ","joint"],
    ["position","NN","posit"],
    ["at","IN","at"],
    ["UT-ORNL","JJ","ut-ornl"],
    ["in","IN","in"],
    ["1993","CD","1993"],
    ["after","IN","after"],
    ["spending","NN","spend"],
    ["20","CD","20"],
    ["years","NNS","year"],
    ["at","IN","at"],
    ["the","DT","the"],
    {
      "tag":"ORGANIZATION",
      "content":
      [
        ["University","NNP","univers"]
      ]
    },
    ["of","IN","of"],
    {
      "tag":"GPE",
      "content":
      [
        ["Pennsylvania","NNP","pennsylvan"]
      ]
    },
    [",",",",","],
    ["where","WRB","where"],
    ["he","PRP","he"],
    ["was","VBD","be"],
    ["a","DT","a"],
    ["physics","NN","phys"],
    ["professor","NN","profess"],
    ["and","CC","and"],
    ["director","NN","direct"],
    ["of","IN","of"],
    ["the","DT","the"],
    {
      "tag":"ORGANIZATION",
      "content":
      [
        ["Materials","NNPS","mat"],
        ["Research","NNP","research"],
        ["Laboratory","NNP","lab"]
      ]
    },
    [".",".","."]
  ]
},
{
  "tag":"S",
  "content":
  [
    {
      "tag":"PERSON",
      "content":
      [
        ["Plummer","NNP","plum"]
      ]
    },
    ["said","VBD","say"],
    ["the","DT","the"],
    {
      "tag":"ORGANIZATION",
      "content":
      [
        ["Distinguished","NNP","distinct"],
        ["Scientists","NNP","sci"]
      ]
    },
    ["are","VBP","be"],
    ["supposed","VBN","suppos"],
    ["to","TO","to"],
    ["come","VB","com"],
    ["up","RP","up"],
    ["for","IN","for"],
    ["review","NN","review"],
    ["every","DT","every"],
    ["five","CD","five"],
    ["years","NNS","year"],
    [",",",",","],
    ["and","CC","and"],
    ["his","PRP$","his"],
    ["review","NN","review"],
    ["came","VBD","com"],
    ["due","JJ","due"],
    ["last","JJ","last"],
    ["fall","NN","fal"],
    [".",".","."]
  ]
},
{
  "tag":"S",
  "content":
  [
    ["However","RB","howev"],
    [",",",",","],
    ["he","PRP","he"],
    ["said","VBD","say"],
    {
      "tag":"ORGANIZATION",
      "content":
      [
        ["ORNL","NNP","ornl"]
      ]
    },
    ["managers","NNS","man"],
    ["did","VBD","do"],
    ["not","RB","not"],
    ["submit","VB","submit"],
    ["their","PRP$","their"],
    ["part","NN","part"],
    [".",".","."]
  ]
},
{
  "tag":"S",
  "content":
  [
    ["He","PRP","He"],
    ["said","VBD","say"],
    ["he","PRP","he"],
    ["believes","VBZ","believ"],
    ["lab","NN","lab"],
    ["managers","NNS","man"],
    ["did","VBD","do"],
    ["want","JJ","want"],
    ["not","RB","not"],
    ["to","TO","to"],
    ["spell","VB","spel"],
    ["out","RP","out"],
    ["reasons","NNS","reason"],
    ["for","IN","for"],
    ["his","PRP$","his"],
    ["termination","NN","termin"],
    ["in","IN","in"],
    ["writing","NN","writ"],
    ["because","IN","because"],
    ["they","PRP","they"],
    ["couldn’t","VBP","couldn’t"],
    ["defend","VBP","defend"],
    ["it","PRP","it"],
    [".",".","."]
  ]
},
{
  "tag":"S",
  "content":
  [
    ["“I’ve","JJ","“i’ve"],
    ["been","VBN","be"],
    ["openly","RB","op"],
    ["critical","JJ","crit"],
    ["of","IN","of"],
    ["the","DT","the"],
    ["leadership","NN","lead"],
    ["out","IN","out"],
    ["there","EX","there"],
    [",",",",","],
    ["and","CC","and"],
    ["you","PRP","you"],
    ["can’t","JJ","can’t"],
    ["write","NN","writ"],
    ["that","WDT","that"],
    ["down","IN","down"],
    ["(","CD","("],
    ["in","IN","in"],
    ["a","DT","a"],
    ["review","NN","review"],
    [")",":",")"],
    [",",",",","],
    ["”",":","”"],
    ["he","PRP","he"],
    ["said","VBD","say"],
    [".",".","."]
  ]
},
{
  "tag":"S",
  "content":
  [
    {
      "tag":"PERSON",
      "content":
      [
        ["Plummer","NNP","plum"]
      ]
    },
    ["said","VBD","say"],
    ["he","PRP","he"],
    ["was","VBD","be"],
    ["particularly","RB","particul"],
    ["critical","JJ","crit"],
    ["of","IN","of"],
    {
      "tag":"GPE",
      "content":
      [
        ["Buchanan","NNP","buch"]
      ]
    },
    ["and","CC","and"],
    ["the","DT","the"],
    ["decision","NN","decid"],
    ["to","TO","to"],
    ["dissolve","VB","dissolv"],
    ["ORNL’s","JJ","ornl’s"],
    {
      "tag":"PERSON",
      "content":
      [
        ["Solid","NNP","solid"],
        ["State","NNP","stat"],
        ["Division","NNP","divid"]
      ]
    },
    [".",".","."]
  ]
},
{
  "tag":"S",
  "content":
  [
    ["“I","NN","“i"],
    ["view","VBD","view"],
    ["what","WP","what"],
    ["they","PRP","they"],
    ["have","VBP","hav"],
    ["done","VBN","do"],
    ["and","CC","and"],
    ["what","WP","what"],
    ["(","-NONE-","("],
    {
      "tag":"ORGANIZATION",
      "content":
      [
        ["UT","NNP","ut"]
      ]
    },
    ["President","NNP","presid"],
    {
      "tag":"PERSON",
      "content":
      [
        ["John","NNP","john"]
      ]
    },
    [")","NNP",")"],
    ["Petersen","NNP","peters"],
    ["has","VBZ","hav"],
    ["done","VBN","do"],
    ["as","IN","as"],
    ["sort","NN","sort"],
    ["of","IN","of"],
    ["a","DT","a"],
    ["reign","NN","reign"],
    ["of","IN","of"],
    ["intimidation","NN","intimid"],
    [",",",",","],
    ["”",":","”"],
    ["he","PRP","he"],
    ["said","VBD","say"],
    [".",".","."]
  ]
},
{
  "tag":"S",
  "content":
  [
    {
      "tag":"PERSON",
      "content":
      [
        ["Plummer","NNP","plum"]
      ]
    },
    ["said","VBD","say"],
    ["the","DT","the"],
    ["message","NN","mess"],
    ["is","VBZ","be"],
    ["clear","JJ","clear"],
    [":",":",":"],
    ["“If","JJ","“if"],
    ["you","PRP","you"],
    ["disagree","VBP","disagr"],
    [",",",",","],
    ["you’re","JJ","you’re"],
    ["gone.”","NN","gone.”"],
    {
      "tag":"PERSON",
      "content":
      [
        ["Buchanan","NNP","buch"]
      ]
    },
    ["praised","VBD","pra"],
    {
      "tag":"PERSON",
      "content":
      [
        ["Plummer","NNP","plum"]
      ]
    },
    ["as","IN","as"],
    ["an","DT","an"],
    ["“incredible","JJ","“incredible"],
    ["scientist","NN","sci"],
    [",",",",","],
    ["”",":","”"],
    ["but","CC","but"],
    ["she","PRP","she"],
    ["said","VBD","say"],
    ["there","RB","ther"],
    ["were","VBD","be"],
    ["clear","JJ","clear"],
    ["differences","NNS","diff"],
    ["on","IN","on"],
    ["future","JJ","fut"],
    ["research","NN","research"],
    ["paths","NNS","path"],
    [".",".","."]
  ]
},
{
  "tag":"S",
  "content":
  [
    ["“He","JJ","“he"],
    ["would","MD","would"],
    ["really","RB","real"],
    ["like","VB","lik"],
    ["to","TO","to"],
    ["do","VB","do"],
    ["things","NNS","thing"],
    ["where","WRB","where"],
    ["he","PRP","he"],
    ["breaks","VBZ","break"],
    ["the","DT","the"],
    ["cutting","NN","cut"],
    ["edge","NN","edg"],
    ["of","IN","of"]
  ]
}]