[
{
  "tag":"S",
  "content":
  [
    {
      "tag":"ORGANIZATION",
      "content":
      [
        ["SOL","NN","sol"]
      ]
    },
    {
      "tag":"ORGANIZATION",
      "content":
      [
        ["BERKOWITZ","NNP","berkowitz"]
      ]
    },
    [",",",",","],
    ["M.A","NNP","m.a"],
    [".",".","."]
  ]
},
{
  "tag":"S",
  "content":
  [
    ["(","NN","("],
    {
      "tag":"ORGANIZATION",
      "content":
      [
        ["Columbia","NNP","columb"],
        ["University","NNP","univers"]
      ]
    },
    [")","NNP",")"],
    [",",",",","],
    ["composition","NN","composit"],
    [".",".","."]
  ]
},
{
  "tag":"S",
  "content":
  [
    {
      "tag":"ORGANIZATION",
      "content":
      [
        ["Composer","NN","compos"]
      ]
    },
    ["of","IN","of"],
    ["symphonic","JJ","symphon"],
    [",",",",","],
    ["chamber","NN","chamb"],
    ["and","CC","and"],
    ["choral","JJ","chor"],
    ["works","NNS","work"],
    [";",":",";"],
    ["composer","NN","compos"],
    ["and","CC","and"],
    ["arranger","NN","arrang"],
    ["for","IN","for"],
    {
      "tag":"GPE",
      "content":
      [
        ["Broadway","NNP","broadway"]
      ]
    },
    [",",",",","],
    ["television","NN","televid"],
    ["and","CC","and"],
    ["ballet","VB","ballet"],
    [";",":",";"],
    ["author","NN","auth"],
    [",",",",","],
    {
      "tag":"PERSON",
      "content":
      [
        ["Improvisation","NNP","improv"],
        ["Through","NNP","through"],
        ["Keyboard","NNP","keyboard"],
        ["Harmony","NNP","harmony"]
      ]
    },
    [";",":",";"],
    ["co-author","NN","co-author"],
    [",",",",","],
    ["A","DT","A"],
    {
      "tag":"GPE",
      "content":
      [
        ["New","NNP","new"]
      ]
    },
    ["Approach","NNP","approach"],
    ["to","TO","to"],
    {
      "tag":"PERSON",
      "content":
      [
        ["Sight","NNP","sight"],
        ["Singing","NNP","sing"]
      ]
    },
    [";",":",";"],
    ["recordings","NNS","record"],
    ["on","IN","on"],
    {
      "tag":"ORGANIZATION",
      "content":
      [
        ["RCA","NNP","rca"]
      ]
    },
    [",",",",","],
    {
      "tag":"ORGANIZATION",
      "content":
      [
        ["CRI","NNP","cri"]
      ]
    },
    [",",",",","],
    {
      "tag":"GPE",
      "content":
      [
        ["Columbia","NNP","columb"]
      ]
    },
    [";",":",";"],
    {
      "tag":"ORGANIZATION",
      "content":
      [
        ["Ford","NNP","ford"],
        ["Foundation","NNP","found"]
      ]
    },
    ["and","CC","and"],
    {
      "tag":"ORGANIZATION",
      "content":
      [
        ["ASCAP","NNP","ascap"]
      ]
    },
    ["grants","NNS","grant"],
    [";",":",";"],
    ["more","JJR","mor"],
    ["than","IN","than"],
    ["100","CD","100"],
    ["published","VBN","publ"],
    ["compositions","NNS","composit"],
    [".",".","."]
  ]
},
{
  "tag":"S",
  "content":
  [
    {
      "tag":"ORGANIZATION",
      "content":
      [
        ["ALLEN","NNP","al"]
      ]
    },
    {
      "tag":"GPE",
      "content":
      [
        ["BRINGS","NNP","bring"]
      ]
    },
    [",",",",","],
    ["Mus.A.D","JJ","mus.a.d"],
    [".",".","."]
  ]
},
{
  "tag":"S",
  "content":
  [
    ["(","NN","("],
    {
      "tag":"ORGANIZATION",
      "content":
      [
        ["Boston","NNP","boston"],
        ["University","NNP","univers"]
      ]
    },
    [")","NNP",")"],
    [",",",",","],
    ["composition","NN","composit"],
    [",",",",","],
    ["piano","RB","piano"],
    [".",".","."]
  ]
},
{
  "tag":"S",
  "content":
  [
    ["Compositions","NNS","composit"],
    ["include","VBP","includ"],
    ["a","DT","a"],
    ["symphony","NN","symphony"],
    [",",",",","],
    ["three","CD","three"],
    ["chamber","NN","chamb"],
    ["concertos","NNS","concerto"],
    [",",",",","],
    ["five","CD","five"],
    ["sonatas","NNS","sonat"],
    [",",",",","],
    ["two","CD","two"],
    ["quintets","NNS","quintet"],
    [";",":",";"],
    ["co-author","NN","co-author"],
    [",",",",","],
    ["A","DT","A"],
    {
      "tag":"GPE",
      "content":
      [
        ["New","NNP","new"]
      ]
    },
    ["Approach","NNP","approach"],
    ["to","TO","to"],
    {
      "tag":"PERSON",
      "content":
      [
        ["Keyboard","NNP","keyboard"],
        ["Harmony","NNP","harmony"]
      ]
    },
    [";",":",";"],
    ["recordings","NNS","record"],
    ["on","IN","on"],
    {
      "tag":"ORGANIZATION",
      "content":
      [
        ["CRI","NNP","cri"]
      ]
    },
    [",",",",","],
    {
      "tag":"PERSON",
      "content":
      [
        ["Orion","NNP","or"]
      ]
    },
    [",",",",","],
    {
      "tag":"GPE",
      "content":
      [
        ["Grenadilla","NNP","grenadill"]
      ]
    },
    [",",",",","],
    {
      "tag":"PERSON",
      "content":
      [
        ["Centaur","NNP","centa"]
      ]
    },
    [",",",",","],
    ["Contemporary","NNP","contemp"],
    ["Recording","NNP","record"],
    ["Studios","NNP","studio"],
    [";",":",";"],
    {
      "tag":"ORGANIZATION",
      "content":
      [
        ["ASCAP","NNP","ascap"]
      ]
    },
    ["awards","NNS","award"],
    [".",".","."]
  ]
},
{
  "tag":"S",
  "content":
  [
    {
      "tag":"ORGANIZATION",
      "content":
      [
        ["CHARLES","NNP","charl"]
      ]
    },
    {
      "tag":"GPE",
      "content":
      [
        ["BURKHART","NNP","burkhart"]
      ]
    },
    [",",",",","],
    ["M.Mus","JJ","m.mus"],
    [".",".","."]
  ]
},
{
  "tag":"S",
  "content":
  [
    ["(","NN","("],
    {
      "tag":"ORGANIZATION",
      "content":
      [
        ["Yale","NNP","yal"],
        ["University","NNP","univers"]
      ]
    },
    [")","NNP",")"],
    [",",",",","],
    ["music","JJ","mus"],
    ["theory","NN","the"],
    [".",".","."]
  ]
},
{
  "tag":"S",
  "content":
  [
    {
      "tag":"GPE",
      "content":
      [
        ["Schenkerian","JJ","schenkerian"]
      ]
    },
    ["analysis","NN","analys"],
    [";",":",";"],
    ["pianist","NN","pian"],
    [";",":",";"],
    ["author","NN","auth"],
    [",",",",","],
    {
      "tag":"PERSON",
      "content":
      [
        ["Anthology","NNP","antholog"]
      ]
    },
    ["for","IN","for"],
    {
      "tag":"PERSON",
      "content":
      [
        ["Musical","NNP","mus"],
        ["Analysis","NNP","analys"]
      ]
    },
    [";",":",";"],
    ["co-author","NN","co-author"],
    [",",",",","],
    ["A","DT","A"],
    {
      "tag":"GPE",
      "content":
      [
        ["New","NNP","new"]
      ]
    },
    ["Approach","NNP","approach"],
    ["to","TO","to"],
    {
      "tag":"PERSON",
      "content":
      [
        ["Keyboard","NNP","keyboard"],
        ["Harmony","NNP","harmony"]
      ]
    },
    [";",":",";"],
    ["articles","NNS","artic"],
    ["and","CC","and"],
    ["reviews","NNS","review"],
    ["in","IN","in"],
    ["The","DT","The"],
    {
      "tag":"ORGANIZATION",
      "content":
      [
        ["Music","NNP","mus"],
        ["Review","NNP","review"]
      ]
    },
    [",",",",","],
    {
      "tag":"ORGANIZATION",
      "content":
      [
        ["Perspectives","NNP","perspect"]
      ]
    },
    ["of","IN","of"],
    {
      "tag":"GPE",
      "content":
      [
        ["New","NNP","new"],
        ["Music","NNP","mus"]
      ]
    },
    [",",",",","],
    {
      "tag":"ORGANIZATION",
      "content":
      [
        ["Journal","NNP","journ"]
      ]
    },
    ["of","IN","of"],
    {
      "tag":"PERSON",
      "content":
      [
        ["Music","NNP","mus"],
        ["Theory","NNP","the"]
      ]
    },
    [",",",",","],
    {
      "tag":"ORGANIZATION",
      "content":
      [
        ["The","NNP","the"],
        ["Music","NNP","mus"],
        ["Forum","NNP","for"]
      ]
    },
    [".",".","."]
  ]
},
{
  "tag":"S",
  "content":
  [
    {
      "tag":"ORGANIZATION",
      "content":
      [
        ["HENRY","NNP","henry"]
      ]
    },
    {
      "tag":"GPE",
      "content":
      [
        ["BURNETT","NNP","burnet"]
      ]
    },
    [",",",",","],
    ["Ph.D.","NNP","ph.d."],
    ["(","NNP","("],
    {
      "tag":"ORGANIZATION",
      "content":
      [
        ["CUNY","NNP","cuny"]
      ]
    },
    [")","NNP",")"],
    [",",",",","],
    ["musicology","NN","musicolog"],
    [".",".","."]
  ]
},
{
  "tag":"S",
  "content":
  [
    ["17th-","CD","17th-"],
    ["and","CC","and"],
    ["18th-century","JJ","18th-century"],
    ["music","NN","mus"],
    [",",",",","],
    ["traditional","JJ","tradit"],
    {
      "tag":"GPE",
      "content":
      [
        ["Japanese","JJ","japanes"]
      ]
    },
    ["music","NN","mus"],
    [";",":",";"],
    ["licensed","VBD","licens"],
    ["master","NN","mast"],
    ["(",":","("],
    {
      "tag":"GPE",
      "content":
      [
        ["Natori","NNP","nator"]
      ]
    },
    [")",":",")"],
    ["of","IN","of"],
    ["shamisen","NN","sham"],
    ["and","CC","and"],
    ["koto","NN","koto"],
    [";",":",";"],
    ["articles","NNS","artic"],
    ["in","IN","in"],
    {
      "tag":"GPE",
      "content":
      [
        ["Asian","JJ","as"],
        ["Music","NNP","mus"]
      ]
    },
    [",",",",","],
    {
      "tag":"GPE",
      "content":
      [
        ["Hogaku","NNP","hogaku"]
      ]
    },
    [",",",",","],
    {
      "tag":"GPE",
      "content":
      [
        ["New","NNP","new"]
      ]
    },
    ["Grove","NNP","grov"],
    ["Dictionary","NNP","dict"],
    [",",",",","],
    {
      "tag":"GPE",
      "content":
      [
        ["American","NNP","am"]
      ]
    },
    ["Gamba","NNP","gamb"],
    ["Society","NNP","socy"],
    ["Journal","NNP","journ"],
    [",",",",","],
    {
      "tag":"GPE",
      "content":
      [
        ["American","NNP","am"],
        ["Organist","NNP","org"]
      ]
    },
    [",",",",","],
    {
      "tag":"GPE",
      "content":
      [
        ["American","NNP","am"]
      ]
    },
    ["Choral","NNP","chor"],
    ["Review","NNP","review"],
    [";",":",";"],
    ["founder","NN","found"],
    ["and","CC","and"],
    ["editor","NN","edit"],
    [",",",",","],
    {
      "tag":"PERSON",
      "content":
      [
        ["Hogaku","NNP","hogaku"]
      ]
    },
    [":",":",":"],
    ["Journal","NNP","journ"],
    ["of","IN","of"],
    {
      "tag":"ORGANIZATION",
      "content":
      [
        ["Traditional","NNP","tradit"]
      ]
    },
    ["Japanese","JJ","japanes"],
    {
      "tag":"GPE",
      "content":
      [
        ["Music","NNP","mus"]
      ]
    },
    [";",":",";"],
    ["coordinator","NN","coordin"],
    [",",",",","],
    {
      "tag":"ORGANIZATION",
      "content":
      [
        ["ACSM","NNP","acsm"],
        ["Japanese","NNP","japanes"]
      ]
    },
    ["music","NN","mus"],
    ["program","NN","program"],
    [".",".","."]
  ]
},
{
  "tag":"S",
  "content":
  [
    {
      "tag":"GPE",
      "content":
      [
        ["LAWRENCE","NN","lawr"]
      ]
    },
    {
      "tag":"ORGANIZATION",
      "content":
      [
        ["EISMAN","NN","eism"]
      ]
    },
    [",",",",","],
    ["Ed.D","JJ","ed.d"],
    [".",".","."]
  ]
},
{
  "tag":"S",
  "content":
  [
    ["(","NN","("],
    {
      "tag":"ORGANIZATION",
      "content":
      [
        ["New","NNP","new"],
        ["York","NNP","york"],
        ["University","NNP","univers"]
      ]
    },
    [")","NNP",")"],
    [",",",",","],
    ["music","JJ","mus"],
    ["education","NN","educ"],
    [",",",",","],
    ["conducting","VBG","conduc"],
    [".",".","."]
  ]
},
{
  "tag":"S",
  "content":
  [
    {
      "tag":"GPE",
      "content":
      [
        ["Author","NNP","auth"]
      ]
    },
    [",",",",","],
    ["The","NNP","the"],
    ["World","NNP","world"],
    ["of","IN","of"],
    {
      "tag":"GPE",
      "content":
      [
        ["Music","NNP","mus"]
      ]
    },
    [",",",",","],
    {
      "tag":"PERSON",
      "content":
      [
        ["Vols","NNP","vol"]
      ]
    },
    [".",".","."]
  ]
},
{
  "tag":"S",
  "content":
  [
    ["VI","NNP","vi"],
    [",",",",","],
    {
      "tag":"ORGANIZATION",
      "content":
      [
        ["VII","NNP","vii"]
      ]
    },
    [",",",",","],
    {
      "tag":"ORGANIZATION",
      "content":
      [
        ["VIII","NNP","vii"]
      ]
    },
    [";",":",";"],
    ["articles","NNS","artic"],
    ["and","CC","and"],
    ["reviews","NNS","review"],
    ["in","IN","in"],
    {
      "tag":"GPE",
      "content":
      [
        ["Music","NNP","mus"]
      ]
    },
    ["Educators","NNP","educ"],
    ["Journal","NNP","journ"],
    [";",":",";"],
    ["director","NN","direct"],
    [",",",",","],
    {
      "tag":"PERSON",
      "content":
      [
        ["Queens","NNP","queen"],
        ["College","NNP","colleg"],
        ["Choral","NNP","chor"],
        ["Society","NNP","socy"]
      ]
    },
    [";",":",";"],
    ["founding","VBG","found"],
    ["director","NN","direct"],
    [",",",",","],
    {
      "tag":"ORGANIZATION",
      "content":
      [
        ["Center","NNP","cent"]
      ]
    },
    ["for","IN","for"],
    ["Preparatory","NNP","prep"],
    ["Studies","NNPS","study"],
    ["in","IN","in"],
    {
      "tag":"GPE",
      "content":
      [
        ["Music","NNP","mus"]
      ]
    },
    [".",".","."]
  ]
},
{
  "tag":"S",
  "content":
  [
    {
      "tag":"ORGANIZATION",
      "content":
      [
        ["RAYMOND","NN","raymond"]
      ]
    },
    {
      "tag":"ORGANIZATION",
      "content":
      [
        ["ERICKSON","NNP","erickson"]
      ]
    },
    [",",",",","],
    ["Ph.D.","NNP","ph.d."],
    ["(","NNP","("],
    {
      "tag":"ORGANIZATION",
      "content":
      [
        ["Yale","NNP","yal"],
        ["University","NNP","univers"]
      ]
    },
    [")","NNP",")"],
    [",",",",","],
    ["musicology","NN","musicolog"],
    [",",",",","],
    ["harpsichord","NN","harpsichord"],
    [".",".","."]
  ]
},
{
  "tag":"S",
  "content":
  [
    {
      "tag":"GPE",
      "content":
      [
        ["Medieval","NNP","mediev"]
      ]
    },
    ["and","CC","and"],
    {
      "tag":"PERSON",
      "content":
      [
        ["Baroque","NNP","baroqu"]
      ]
    },
    ["music","NN","mus"],
    [",",",",","],
    ["computer","NN","comput"],
    ["applications","NNS","apply"],
    ["in","IN","in"],
    ["musicology","NN","musicolog"],
    [";",":",";"],
    ["author","NN","auth"],
    [",",",",","],
    {
      "tag":"ORGANIZATION",
      "content":
      [
        ["DARMS","NNP","darm"]
      ]
    },
    [":",":",":"],
    ["A","DT","A"],
    ["Reference","NNP","ref"],
    ["Manual","NNP","man"],
    [";",":",";"],
    ["articles","NNS","artic"],
    ["and","CC","and"],
    ["reviews","NNS","review"],
    ["in","IN","in"],
    {
      "tag":"GPE",
      "content":
      [
        ["Journal","NNP","journ"]
      ]
    },
    ["of","IN","of"],
    {
      "tag":"PERSON",
      "content":
      [
        ["Music","NNP","mus"],
        ["Theory","NNP","the"]
      ]
    },
    [",",",",","],
    {
      "tag":"ORGANIZATION",
      "content":
      [
        ["Computers","NNP","comput"]
      ]
    },
    ["and","CC","and"],
    ["the","DT","the"],
    {
      "tag":"ORGANIZATION",
      "content":
      [
        ["Humanities","NNPS","hum"]
      ]
    },
    [",",",",","],
    {
      "tag":"PERSON",
      "content":
      [
        ["College","NNP","colleg"],
        ["Music","NNP","mus"],
        ["Symposium","NNP","sympos"]
      ]
    },
    [";",":",";"],
    ["recordings","NNS","record"],
    ["--",":","--"],
    ["The","NNP","the"],
    {
      "tag":"PERSON",
      "content":
      [
        ["Erickson","NNP","erickson"],
        ["Tapes","NNP","tap"]
      ]
    },
    ["(","NNP","("],
    ["Syntonic","NNP","synton"],
    [")","NNP",")"],
    [",",",",","],
    {
      "tag":"GPE",
      "content":
      [
        ["Smithsonian","NNP","smithson"]
      ]
    },
    [";",":",";"],
    {
      "tag":"ORGANIZATION",
      "content":
      [
        ["IBM","NNP","ibm"],
        ["Systems","NNPS","system"],
        ["Research","NNP","research"]
      ]
    },
    [",",",",","],
    {
      "tag":"ORGANIZATION",
      "content":
      [
        ["NEH","NNP","neh"]
      ]
    },
    ["and","CC","and"],
    {
      "tag":"ORGANIZATION",
      "content":
      [
        ["Humboldt","NNP","humboldt"],
        ["Stiftung","NNP","stiftung"],
        ["Fellowship","NNP","fellow"]
      ]
    },
    ["grants","NNS","grant"],
    [";",":",";"],
    ["director","NN","direct"],
    [",",",",","],
    {
      "tag":"PERSON",
      "content":
      [
        ["Aston","NNP","aston"],
        ["Magna","NNP","magn"],
        ["Academies","NNPS","academy"]
      ]
    },
    ["on","IN","on"],
    ["17th-","CD","17th-"],
    ["and","CC","and"],
    ["18th-century","JJ","18th-century"],
    ["culture","NN","cult"],
    [".",".","."]
  ]
},
{
  "tag":"S",
  "content":
  [
    {
      "tag":"PERSON",
      "content":
      [
        ["DAVID","NNP","david"]
      ]
    },
    {
      "tag":"GPE",
      "content":
      [
        ["GAGNE","NNP","gagn"]
      ]
    },
    [",",",",","],
    ["Ph.D.","NNP","ph.d."],
    ["(","NNP","("],
    {
      "tag":"ORGANIZATION",
      "content":
      [
        ["CUNY","NNP","cuny"]
      ]
    },
    [")","NNP",")"],
    [",",",",","],
    ["music","JJ","mus"],
    ["theory","NN","the"],
    [".",".","."]
  ]
},
{
  "tag":"S",
  "content":
  [
    {
      "tag":"GPE",
      "content":
      [
        ["Schenkerian","JJ","schenkerian"]
      ]
    },
    ["analysis","NN","analys"],
    [";",":",";"],
    ["article","NN","artic"],
    ["in","IN","in"],
    ["The","DT","The"],
    {
      "tag":"ORGANIZATION",
      "content":
      [
        ["Music","NNP","mus"],
        ["Forum","NNP","for"]
      ]
    },
    [";",":",";"],
    ["articles","NNS","artic"],
    ["editor","NN","edit"],
    [",",",",","],
    ["Theory","NNP","the"],
    ["and","CC","and"],
    {
      "tag":"GPE",
      "content":
      [
        ["Practice","NNP","pract"]
      ]
    },
    [";",":",";"],
    ["former","JJ","form"],
    ["associate","NN","assocy"],
    ["music","NN","mus"],
    ["director","NN","direct"],
    ["and","CC","and"],
    ["conductor","NN","conduc"],
    [",",",",","],
    {
      "tag":"PERSON",
      "content":
      [
        ["Dance","NNP","dant"],
        ["Theatre","NNP","the"]
      ]
    },
    ["of","IN","of"],
    {
      "tag":"GPE",
      "content":
      [
        ["Harlem","NNP","harlem"]
      ]
    },
    [";",":",";"],
    ["Presser","NNP","press"],
    ["Scholar","NNP","scholar"],
    ["(","NNP","("],
    {
      "tag":"ORGANIZATION",
      "content":
      [
        ["Columbia","NNP","columb"],
        ["University","NNP","univers"]
      ]
    },
    [")","NNP",")"],
    [".",".","."]
  ]
},
{
  "tag":"S",
  "content":
  [
    {
      "tag":"ORGANIZATION",
      "content":
      [
        ["MARJORIE","NNP","mars"]
      ]
    },
    {
      "tag":"GPE",
      "content":
      [
        ["HAHN","NNP","hahn"]
      ]
    },
    [",",",",","],
    ["M.A","NNP","m.a"],
    [".",".","."]
  ]
},
{
  "tag":"S",
  "content":
  [
    ["(","NN","("],
    {
      "tag":"ORGANIZATION",
      "content":
      [
        ["Columbia","NNP","columb"],
        ["University","NNP","univers"]
      ]
    },
    [")","NNP",")"],
    [",",",",","],
    ["music","JJ","mus"],
    ["education","NN","educ"],
    [".",".","."]
  ]
},
{
  "tag":"S",
  "content":
  [
    ["articles","NNS","artic"],
    ["in","IN","in"],
    {
      "tag":"GPE",
      "content":
      [
        ["Music","NNP","mus"]
      ]
    },
    ["Educators","NNP","educ"],
    ["Journal","NNP","journ"],
    [",",",",","],
    {
      "tag":"PERSON",
      "content":
      [
        ["School","NNP","school"],
        ["Music","NNP","mus"],
        ["News","NNP","new"]
      ]
    },
    [";",":",";"],
    ["music","JJ","mus"],
    ["consultant","NN","consult"],
    ["to","TO","to"],
    ["many","JJ","many"],
    ["school","NN","school"],
    ["districts","NNS","district"],
    [".",".","."]
  ]
},
{
  "tag":"S",
  "content":
  [
    {
      "tag":"ORGANIZATION",
      "content":
      [
        ["RUFUS","NNP","ruf"]
      ]
    },
    {
      "tag":"GPE",
      "content":
      [
        ["HALLMARK","NNP","hallmark"]
      ]
    },
    [",",",",","],
    ["Ph.D.","NNP","ph.d."],
    ["(","NNP","("],
    {
      "tag":"ORGANIZATION",
      "content":
      [
        ["Princeton","NNP","princeton"],
        ["University","NNP","univers"]
      ]
    },
    [")","NNP",")"],
    [",",",",","],
    ["musicology","NN","musicolog"],
    [",",",",","],
    ["tenor","CC","tenor"],
    [".",".","."]
  ]
},
{
  "tag":"S",
  "content":
  [
    {
      "tag":"GPE",
      "content":
      [
        ["Schumann","NNP","schumann"]
      ]
    },
    [",",",",","],
    {
      "tag":"PERSON",
      "content":
      [
        ["Schubert","NNP","schubert"]
      ]
    },
    [",",",",","],
    ["the","DT","the"],
    {
      "tag":"GPE",
      "content":
      [
        ["German","NNP","germ"]
      ]
    },
    ["lied","VBD","lie"],
    [";",":",";"],
    ["author","NN","auth"],
    [",",",",","],
    {
      "tag":"ORGANIZATION",
      "content":
      [
        ["The","NNP","the"],
        ["Genesis","NNP","genes"]
      ]
    },
    ["of","IN","of"],
    {
      "tag":"GPE",
      "content":
      [
        ["Schumann","NNP","schumann"]
      ]
    },
    ["'s","POS","'s"],
    {
      "tag":"GPE",
      "content":
      [
        ["Dichterliebe","NNP","dichterlieb"]
      ]
    },
    [";",":",";"],
    ["articles","NNS","artic"],
    ["and","CC","and"],
    ["reviews","NNS","review"],
    ["in","IN","in"],
    {
      "tag":"GPE",
      "content":
      [
        ["Journal","NNP","journ"],
        ["AMS","NNP","am"]
      ]
    },
    [",",",",","],
    ["19th-Century","JJ","19th-century"],
    {
      "tag":"PERSON",
      "content":
      [
        ["Music","NNP","mus"]
      ]
    },
    [",",",",","],
    {
      "tag":"ORGANIZATION",
      "content":
      [
        ["MLA","NNP","mla"],
        ["Notes","NNPS","not"]
      ]
    },
    [",",",",","],
    {
      "tag":"PERSON",
      "content":
      [
        ["Music","NNP","mus"]
      ]
    },
    ["&","CC","&"],
    {
      "tag":"ORGANIZATION",
      "content":
      [
        ["Letters","NNP","let"]
      ]
    },
    [",",",",","],
    {
      "tag":"ORGANIZATION",
      "content":
      [
        ["Schubert","NNP","schubert"],
        ["Studies","NNPS","study"]
      ]
    },
    [",",",",","],
    {
      "tag":"PERSON",
      "content":
      [
        ["Text","NNP","text"]
      ]
    },
    ["and","CC","and"],
    {
      "tag":"GPE",
      "content":
      [
        ["Music","NNP","mus"]
      ]
    },
    [";",":",";"],
    ["1st","CD","1st"],
    [",",",",","],
    ["2nd","CD","2nd"],
    [",",",",","],
    ["3rd","JJ","3rd"],
    {
      "tag":"PERSON",
      "content":
      [
        ["Schumann","NNP","schumann"],
        ["Symposia","NNP","sympos"]
      ]
    },
    [";",":",";"],
    ["editor","NN","edit"],
    [",",",",","],
    ["new","JJ","new"],
    ["Bach","NNP","bach"],
    ["and","CC","and"],
    {
      "tag":"ORGANIZATION",
      "content":
      [
        ["Schumann","NNP","schumann"]
      ]
    },
    ["editions","NNS","edit"],
    [";",":",";"],
    {
      "tag":"ORGANIZATION",
      "content":
      [
        ["NEH","NNP","neh"]
      ]
    },
    ["and","CC","and"],
    {
      "tag":"PERSON",
      "content":
      [
        ["Mellon","NNP","mellon"],
        ["Fellowships","NNP","fellow"]
      ]
    },
    [".",".","."]
  ]
},
{
  "tag":"S",
  "content":
  [
    {
      "tag":"ORGANIZATION",
      "content":
      [
        ["SIR","NNP","sir"]
      ]
    },
    {
      "tag":"ORGANIZATION",
      "content":
      [
        ["ROLAND","NNP","roland"]
      ]
    },
    ["HANNA","NNP","hann"],
    [",",",",","],
    ["jazz","NN","jazz"],
    [",",",",","],
    ["piano","RB","piano"],
    [".",".","."]
  ]
},
{
  "tag":"S",
  "content":
  [
    ["Internationally","RB","intern"],
    ["recognized","VBN","recogn"],
    ["jazz","NN","jazz"],
    ["pianist","NN","pian"],
    ["and","CC","and"],
    ["composer","NN","compos"],
    [".",".","."]
  ]
},
{
  "tag":"S",
  "content":
  [
    {
      "tag":"GPE",
      "content":
      [
        ["Featured","NNP","feat"]
      ]
    },
    ["soloist","VBP","solo"],
    ["on","IN","on"],
    ["six","CD","six"],
    ["continents","NNS","contin"],
    ["from","IN","from"],
    ["1949","CD","1949"],
    ["to","TO","to"],
    ["the","DT","the"],
    ["present","NN","pres"],
    [";",":",";"],
    ["recordings","NNS","record"],
    ["with","IN","with"],
    ["small","JJ","smal"],
    ["groups","NNS","group"],
    ["and","CC","and"],
    ["orchestras","NNS","orchestr"],
    ["in","IN","in"],
    {
      "tag":"GPE",
      "content":
      [
        ["Europe","NNP","europ"]
      ]
    },
    [",",",",","],
    {
      "tag":"GPE",
      "content":
      [
        ["Japan","NNP","jap"]
      ]
    },
    [",",",",","],
    ["and","CC","and"],
    ["the","DT","the"],
    {
      "tag":"GPE",
      "content":
      [
        ["United","NNP","unit"],
        ["States","NNPS","stat"]
      ]
    },
    [";",":",";"],
    ["recent","JJ","rec"],
    ["CDS","NNS","cds"],
    ["with","IN","with"],
    {
      "tag":"PERSON",
      "content":
      [
        ["Angel","NNP","angel"]
      ]
    },
    [",",",",","],
    ["Progressive","NNP","progress"],
    ["Records","NNP","record"],
    ["and","CC","and"],
    {
      "tag":"ORGANIZATION",
      "content":
      [
        ["Concord","NNP","concord"],
        ["Jazz","NNP","jazz"]
      ]
    },
    [".",".","."]
  ]
},
{
  "tag":"S",
  "content":
  [
    {
      "tag":"PERSON",
      "content":
      [
        ["JAMES","NNP","jam"]
      ]
    },
    {
      "tag":"GPE",
      "content":
      [
        ["HEATH","NNP","hea"]
      ]
    },
    [",",",",","],
    ["jazz","NN","jazz"],
    [",",",",","],
    ["saxophone","NN","saxophon"],
    [".",".","."]
  ]
},
{
  "tag":"S",
  "content":
  [
    {
      "tag":"ORGANIZATION",
      "content":
      [
        ["International","NNP","intern"]
      ]
    },
    ["saxophonist","VBD","saxophon"],
    [",",",",","],
    ["leader","NN","lead"],
    [",",",",","],
    ["composer","NN","compos"],
    [",",",",","],
    ["arranger","NN","arrang"],
    [";",":",";"],
    ["commissions","NNS","commit"],
    ["from","IN","from"],
    {
      "tag":"PERSON",
      "content":
      [
        ["Kronos","NNP","krono"],
        ["String","NNP","string"],
        ["Quartet","NNP","quartet"]
      ]
    },
    [",",",",","],
    {
      "tag":"PERSON",
      "content":
      [
        ["Dizzy","NNP","dizzy"],
        ["Gillespie","NNP","gillespy"]
      ]
    },
    ["Big","NNP","big"],
    ["Band","NNP","band"],
    [",",",",","],
    {
      "tag":"ORGANIZATION",
      "content":
      [
        ["ACSM","NNP","acsm"]
      ]
    },
    [";",":",";"],
    ["recordings","NNS","record"],
    ["on","IN","on"],
    {
      "tag":"GPE",
      "content":
      [
        ["Columbia","NNP","columb"]
      ]
    },
    [",",",",","],
    {
      "tag":"GPE",
      "content":
      [
        ["Riverside","NNP","riversid"]
      ]
    },
    [",",",",","],
    {
      "tag":"PERSON",
      "content":
      [
        ["Landmark","NNP","landmark"]
      ]
    },
    [".",".","."]
  ]
},
{
  "tag":"S",
  "content":
  [
    {
      "tag":"ORGANIZATION",
      "content":
      [
        ["HUBERT","NNP","hubert"]
      ]
    },
    ["S.","NNP","s."],
    ["HOWE","NNP","how"],
    [",",",",","],
    ["JR.","NNP","jr."],
    [",",",",","],
    ["composition","NN","composit"],
    [",",",",","],
    ["electronic","JJ","electron"],
    ["and","CC","and"],
    ["computer","NN","comput"],
    ["music","NN","mus"],
    [".",".","."]
  ]
},
{
  "tag":"S",
  "content":
  [
    {
      "tag":"GPE",
      "content":
      [
        ["Author","NNP","auth"]
      ]
    },
    [",",",",","],
    {
      "tag":"PERSON",
      "content":
      [
        ["Electronic","NNP","electron"],
        ["Music","NNP","mus"],
        ["Synthesis","NNP","synthes"]
      ]
    },
    [",",",",","],
    ["TRS-80","-NONE-","TRS-80"],
    ["Assembly","RB","assembl"],
    {
      "tag":"GPE",
      "content":
      [
        ["Language","NNP","langu"]
      ]
    },
    [";",":",";"],
    ["articles","NNS","artic"],
    ["and","CC","and"],
    ["reviews","NNS","review"],
    ["in","IN","in"],
    {
      "tag":"GPE",
      "content":
      [
        ["Perspectives","NNP","perspect"]
      ]
    },
    ["of","IN","of"],
    {
      "tag":"GPE",
      "content":
      [
        ["New","NNP","new"],
        ["Music","NNP","mus"]
      ]
    },
    [",",",",","],
    {
      "tag":"ORGANIZATION",
      "content":
      [
        ["ASUC","NNP","asuc"],
        ["Proceedings","NNP","process"]
      ]
    },
    [";",":",";"],
    ["recordings","NNS","record"],
    ["--",":","--"],
    ["Opus","NNP","op"],
    ["One","CD","One"],
    ["No","NNP","no"],
    [".",".","."]
  ]
},
{
  "tag":"S",
  "content":
  [
    ["47B","CD","47B"],
    ["and","CC","and"],
    ["53","CD","53"],
    [";",":",";"],
    ["Director","NNP","direct"],
    [",",",",","],
    {
      "tag":"PERSON",
      "content":
      [
        ["Aaron","NNP","aaron"],
        ["Copland","NNP","copland"],
        ["School","NNP","school"]
      ]
    },
    ["of","IN","of"],
    {
      "tag":"GPE",
      "content":
      [
        ["Music","NNP","mus"]
      ]
    },
    [".",".","."]
  ]
},
{
  "tag":"S",
  "content":
  [
    {
      "tag":"ORGANIZATION",
      "content":
      [
        ["JOEL","NNP","joel"]
      ]
    },
    {
      "tag":"GPE",
      "content":
      [
        ["MANDELBAUM","NNP","mandelba"]
      ]
    },
    [",",",",","],
    ["Ph.D.","NNP","ph.d."],
    ["(","NNP","("],
    {
      "tag":"ORGANIZATION",
      "content":
      [
        ["Indiana","NNP","indian"],
        ["University","NNP","univers"]
      ]
    },
    [")","NNP",")"],
    [",",",",","],
    ["composition","NN","composit"],
    [".",".","."]
  ]
},
{
  "tag":"S",
  "content":
  [
    {
      "tag":"ORGANIZATION",
      "content":
      [
        ["Composer","NN","compos"]
      ]
    },
    ["of","IN","of"],
    ["symphonic","JJ","symphon"],
    [",",",",","],
    ["choral","JJ","chor"],
    [",",",",","],
    ["chamber","NN","chamb"],
    [",",",",","],
    ["operatic","JJ","op"],
    ["and","CC","and"],
    ["microtonal","JJ","microton"],
    ["music","NN","mus"],
    [";",":",";"],
    ["articles","NNS","artic"],
    ["and","CC","and"],
    ["reviews","NNS","review"],
    [",",",",","],
    {
      "tag":"ORGANIZATION",
      "content":
      [
        ["Journal","NNP","journ"]
      ]
    },
    ["of","IN","of"],
    {
      "tag":"PERSON",
      "content":
      [
        ["Music","NNP","mus"],
        ["Theory","NNP","the"]
      ]
    },
    [",",",",","],
    {
      "tag":"ORGANIZATION",
      "content":
      [
        ["Perspectives","NNP","perspect"]
      ]
    },
    ["of","IN","of"],
    {
      "tag":"GPE",
      "content":
      [
        ["New","NNP","new"],
        ["Music","NNP","mus"]
      ]
    },
    [",",",",","],
    {
      "tag":"GPE",
      "content":
      [
        ["Zenharmonikon","NNP","zenharmonikon"]
      ]
    },
    [".",".","."]
  ]
},
{
  "tag":"S",
  "content":
  [
    ["THEA","NNP","the"],
    ["MUSGRAVE","NNP","musgrav"],
    [",",",",","],
    ["B.Mus","JJ","b.mus"],
    [".",".","."]
  ]
},
{
  "tag":"S",
  "content":
  [
    ["(","NN","("],
    {
      "tag":"ORGANIZATION",
      "content":
      [
        ["Edinburgh","NNP","edinburgh"],
        ["University","NNP","univers"]
      ]
    },
    [")","NNP",")"],
    [",",",",","],
    ["composition","NN","composit"],
    [".",".","."]
  ]
},
{
  "tag":"S",
  "content":
  [
    ["Distinguished","JJ","distinct"],
    ["Professor","NNP","profess"],
    [",",",",","],
    {
      "tag":"ORGANIZATION",
      "content":
      [
        ["ACSM","NNP","acsm"]
      ]
    },
    [";",":",";"],
    ["composer","NN","compos"],
    ["of","IN","of"],
    ["symphonic","JJ","symphon"],
    [",",",",","],
    ["chamber","NN","chamb"],
    ["and","CC","and"],
    ["choral","JJ","chor"],
    ["works","NNS","work"],
    [",",",",","],
    ["opera","NN","oper"],
    [";",":",";"],
    ["works","NNS","work"],
    ["performed","VBD","perform"],
    ["by","IN","by"],
    {
      "tag":"GPE",
      "content":
      [
        ["London","NNP","london"]
      ]
    },
    [",",",",","],
    {
      "tag":"ORGANIZATION",
      "content":
      [
        ["BBC","NNP","bbc"]
      ]
    },
    [",",",",","],
    {
      "tag":"GPE",
      "content":
      [
        ["Pittsburgh","NNP","pittsburgh"]
      ]
    },
    [",",",",","],
    {
      "tag":"PERSON",
      "content":
      [
        ["Houston","NNP","houston"]
      ]
    },
    [",",",",","],
    {
      "tag":"PERSON",
      "content":
      [
        ["San","NNP","san"],
        ["Francisco","NNP","francisco"]
      ]
    },
    [",",",",","],
    {
      "tag":"GPE",
      "content":
      [
        ["Dallas","NNP","dalla"]
      ]
    },
    [",",",",","],
    {
      "tag":"GPE",
      "content":
      [
        ["Baltimore","NNP","baltim"]
      ]
    },
    [",",",",","],
    ["and","CC","and"],
    {
      "tag":"ORGANIZATION",
      "content":
      [
        ["Minneapolis","NNP","minneapol"],
        ["Symphonies","NNPS","symphony"]
      ]
    },
    [",",",",","],
    ["the","DT","the"],
    {
      "tag":"GPE",
      "content":
      [
        ["New","NNP","new"],
        ["York","NNP","york"]
      ]
    },
    ["and","CC","and"],
    {
      "tag":"GPE",
      "content":
      [
        ["Los","NNP","los"],
        ["Angeles","NNP","angel"],
        ["Philharmonics","NNP","philharmon"]
      ]
    },
    [",",",",","],
    ["the","DT","the"],
    {
      "tag":"GPE",
      "content":
      [
        ["Los","NNP","los"],
        ["Angeles","NNP","angel"]
      ]
    },
    ["and","CC","and"],
    {
      "tag":"GPE",
      "content":
      [
        ["St.","NNP","st."]
      ]
    },
    {
      "tag":"PERSON",
      "content":
      [
        ["Paul","NNP","paul"],
        ["Chamber","NNP","chamb"],
        ["Orchestras","NNP","orchestra"]
      ]
    },
    [",",",",","],
    {
      "tag":"PERSON",
      "content":
      [
        ["Juilliard","NNP","juilliard"],
        ["Quartet","NNP","quartet"]
      ]
    },
    [",",",",","],
    ["etc","NN","etc"],
    [".",".","."]
  ]
},
{
  "tag":"S",
  "content":
  [
    [";",":",";"],
    ["operas","VBD","opera"],
    ["produced","VBN","produc"],
    ["by","IN","by"],
    {
      "tag":"GPE",
      "content":
      [
        ["New","NNP","new"],
        ["York","NNP","york"],
        ["City","NNP","city"]
      ]
    },
    [",",",",","],
    {
      "tag":"PERSON",
      "content":
      [
        ["San","NNP","san"],
        ["Francisco","NNP","francisco"]
      ]
    },
    [",",",",","],
    {
      "tag":"GPE",
      "content":
      [
        ["Virginia","NNP","virgin"]
      ]
    },
    [",",",",","],
    {
      "tag":"GPE",
      "content":
      [
        ["Scottish","NNP","scot"]
      ]
    },
    ["and","CC","and"],
    {
      "tag":"PERSON",
      "content":
      [
        ["Royal","NNP","roy"],
        ["Opera","NNP","oper"]
      ]
    },
    ["Companies","NNPS","company"],
    [";",":",";"],
    ["recordings","NNS","record"],
    ["on","IN","on"],
    {
      "tag":"GPE",
      "content":
      [
        ["Decca","NNP","decc"]
      ]
    },
    [",",",",","],
    {
      "tag":"ORGANIZATION",
      "content":
      [
        ["EMI","NNP","em"]
      ]
    },
    [",",",",","],
    {
      "tag":"PERSON",
      "content":
      [
        ["Moss","NNP","moss"],
        ["Music","NNP","mus"],
        ["Group","NNP","group"]
      ]
    },
    [";",":",";"],
    ["works","NNS","work"],
    ["published","VBD","publ"],
    ["by","IN","by"],
    {
      "tag":"ORGANIZATION",
      "content":
      [
        ["J","NNP","j"]
      ]
    },
    ["&","CC","&"],
    ["W","NNP","w"],
    ["Chester","NNP","chest"],
    [",",",",","],
    {
      "tag":"PERSON",
      "content":
      [
        ["Novello","NNP","novello"]
      ]
    },
    [".",".","."]
  ]
},
{
  "tag":"S",
  "content":
  [
    {
      "tag":"ORGANIZATION",
      "content":
      [
        ["ARBIE","NNP","arby"]
      ]
    },
    {
      "tag":"GPE",
      "content":
      [
        ["ORENSTEIN","NNP","orenstein"]
      ]
    },
    [",",",",","],
    ["Ph.D.","NNP","ph.d."],
    ["(","NNP","("],
    {
      "tag":"ORGANIZATION",
      "content":
      [
        ["Columbia","NNP","columb"],
        ["University","NNP","univers"]
      ]
    },
    [")","NNP",")"],
    [",",",",","],
    ["musicology","NN","musicolog"],
    [",",",",","],
    ["piano","RB","piano"],
    [".",".","."]
  ]
},
{
  "tag":"S",
  "content":
  [
    {
      "tag":"GPE",
      "content":
      [
        ["Author","NNP","auth"]
      ]
    },
    [",",",",","],
    {
      "tag":"PERSON",
      "content":
      [
        ["Ravel","NNP","ravel"]
      ]
    },
    [":",":",":"],
    ["Man","NNP","man"],
    ["and","CC","and"],
    {
      "tag":"GPE",
      "content":
      [
        ["Musician","NNP","mus"]
      ]
    },
    [";",":",";"],
    ["articles","NNS","artic"],
    ["and","CC","and"],
    ["reviews","NNS","review"],
    ["in","IN","in"],
    {
      "tag":"ORGANIZATION",
      "content":
      [
        ["Musical","NNP","mus"],
        ["Quarterly","NNP","quart"]
      ]
    },
    [",",",",","],
    {
      "tag":"ORGANIZATION",
      "content":
      [
        ["The","NNP","the"],
        ["Music","NNP","mus"],
        ["Forum","NNP","for"]
      ]
    },
    [",",",",","],
    {
      "tag":"PERSON",
      "content":
      [
        ["Revue","NNP","revu"]
      ]
    },
    ["de","IN","de"],
    {
      "tag":"GPE",
      "content":
      [
        ["Musicologie","NNP","musicolog"]
      ]
    },
    [";",":",";"],
    ["recordings","NNS","record"],
    ["on","IN","on"],
    {
      "tag":"ORGANIZATION",
      "content":
      [
        ["Musical","NNP","mus"],
        ["Heritage","NNP","herit"]
      ]
    },
    [";",":",";"],
    {
      "tag":"PERSON",
      "content":
      [
        ["Fulbright","NNP","fulbright"]
      ]
    },
    [",",",",","],
    {
      "tag":"ORGANIZATION",
      "content":
      [
        ["NEH","NNP","neh"]
      ]
    },
    ["and","CC","and"],
    ["Singer-Polignac","NNP","singer-polignac"],
    ["grants","NNS","grant"],
    [".",".","."]
  ]
},
{
  "tag":"S",
  "content":
  [
    {
      "tag":"ORGANIZATION",
      "content":
      [
        ["MAURICE","NN","maur"]
      ]
    },
    {
      "tag":"ORGANIZATION",
      "content":
      [
        ["PERESS","NN","peress"]
      ]
    },
    [",",",",","],
    ["B.A","NNP","b.a"],
    [".",".","."]
  ]
},
{
  "tag":"S",
  "content":
  [
    ["(","NN","("],
    {
      "tag":"ORGANIZATION",
      "content":
      [
        ["New","NNP","new"],
        ["York","NNP","york"],
        ["University","NNP","univers"]
      ]
    },
    [")","NNP",")"],
    [",",",",","],
    ["conducting","VBG","conduc"],
    [",",",",","],
    ["orchestra","NN","orchestr"],
    [".",".","."]
  ]
},
{
  "tag":"S",
  "content":
  [
    {
      "tag":"GPE",
      "content":
      [
        ["Author","NNP","auth"]
      ]
    },
    [",",",",","],
    {
      "tag":"PERSON",
      "content":
      [
        ["Some","NNP","som"],
        ["Music","NNP","mus"],
        ["Lessons","NNP","lesson"]
      ]
    },
    ["for","IN","for"],
    {
      "tag":"ORGANIZATION",
      "content":
      [
        ["American","NNP","am"],
        ["Indian","NNP","ind"],
        ["Youngsters","NNP","youngst"]
      ]
    },
    [";",":",";"],
    ["former","JJ","form"],
    ["music","NN","mus"],
    ["director","NN","direct"],
    [",",",",","],
    {
      "tag":"PERSON",
      "content":
      [
        ["Kansas","NNP","kansa"],
        ["City","NNP","city"],
        ["Philharmonic","NNP","philharmon"]
      ]
    },
    [",",",",","],
    {
      "tag":"PERSON",
      "content":
      [
        ["Corpus","NNP","corp"],
        ["Christi","NNP","christi"],
        ["Symphony","NNP","symphony"]
      ]
    },
    [",",",",","],
    {
      "tag":"PERSON",
      "content":
      [
        ["Austin","NNP","austin"],
        ["Symphony","NNP","symphony"]
      ]
    },
    [";",":",";"],
    ["former","JJ","form"],
    ["assistant","NN","assist"],
    ["conductor","NN","conduc"],
    [",",",",","],
    {
      "tag":"GPE",
      "content":
      [
        ["New","NNP","new"],
        ["York","NNP","york"],
        ["Philharmonic","NNP","philharmon"]
      ]
    },
    [";",":",";"],
    ["guest","JJS","guest"],
    ["conductor","NN","conduc"],
    [",",",",","],
    {
      "tag":"PERSON",
      "content":
      [
        ["San","NNP","san"],
        ["Francisco","NNP","francisco"]
      ]
    },
    [",",",",","],
    {
      "tag":"GPE",
      "content":
      [
        ["Washington","NNP","washington"]
      ]
    },
    ["and","CC","and"],
    {
      "tag":"PERSON",
      "content":
      [
        ["Vienna","NNP","vienn"],
        ["State","NNP","stat"],
        ["Opera","NNP","oper"],
        ["Orchestras","NNP","orchestra"]
      ]
    },
    [";",":",";"],
    ["recordings","NNS","record"],
    ["on","IN","on"],
    {
      "tag":"GPE",
      "content":
      [
        ["Columbia","NNP","columb"]
      ]
    },
    [",",",",","],
    {
      "tag":"PERSON",
      "content":
      [
        ["Musical","NNP","mus"],
        ["Heritage","NNP","herit"]
      ]
    },
    [",",",",","],
    {
      "tag":"ORGANIZATION",
      "content":
      [
        ["RCA","NNP","rca"]
      ]
    },
    [",",",",","],
    {
      "tag":"GPE",
      "content":
      [
        ["Warner","NNP","warn"]
      ]
    },
    [";",":",";"],
    ["director","NN","direct"],
    [",",",",","],
    {
      "tag":"PERSON",
      "content":
      [
        ["Queens","NNP","queen"],
        ["College","NNP","colleg"],
        ["Orchestra","NNP","orchestr"]
      ]
    },
    [".",".","."]
  ]
},
{
  "tag":"S",
  "content":
  [
    {
      "tag":"ORGANIZATION",
      "content":
      [
        ["DRORA","NNP","dror"]
      ]
    },
    ["PERSHING","NNP","persh"],
    [",",",",","],
    ["M.Phil","JJ","m.phil"],
    [".",".","."]
  ]
},
{
  "tag":"S",
  "content":
  [
    ["(","NN","("],
    {
      "tag":"ORGANIZATION",
      "content":
      [
        ["CUNY","NNP","cuny"]
      ]
    },
    [")","NNP",")"],
    [",",",",","],
    ["music","JJ","mus"],
    ["theory","NN","the"],
    [",",",",","],
    ["piano","RB","piano"],
    [".",".","."]
  ]
},
{
  "tag":"S",
  "content":
  [
    ["Co-author","NN","co-author"],
    [",",",",","],
    ["A","DT","A"],
    {
      "tag":"GPE",
      "content":
      [
        ["New","NNP","new"]
      ]
    },
    ["Approach","NNP","approach"],
    ["to","TO","to"],
    {
      "tag":"PERSON",
      "content":
      [
        ["Keyboard","NNP","keyboard"],
        ["Music","NNP","mus"]
      ]
    },
    [";",":",";"],
    ["article","NN","artic"],
    [",",",",","],
    {
      "tag":"ORGANIZATION",
      "content":
      [
        ["Journal","NNP","journ"]
      ]
    },
    ["of","IN","of"],
    ["the","DT","the"],
    {
      "tag":"ORGANIZATION",
      "content":
      [
        ["Violin","NNP","violin"],
        ["Society","NNP","socy"]
      ]
    },
    ["of","IN","of"],
    {
      "tag":"GPE",
      "content":
      [
        ["America","NNP","americ"]
      ]
    },
    [";",":",";"],
    {
      "tag":"PERSON",
      "content":
      [
        ["Danforth","NNP","danfor"],
        ["Kent","NNP","kent"],
        ["Fellowship","NNP","fellow"]
      ]
    },
    [",",",",","],
    {
      "tag":"PERSON",
      "content":
      [
        ["Sharps","NNP","sharp"],
        ["Prize","NNP","priz"]
      ]
    },
    [";",":",";"],
    ["associate","NN","assocy"],
    ["director","NN","direct"],
    [",",",",","],
    {
      "tag":"ORGANIZATION",
      "content":
      [
        ["ACSM","NNP","acsm"]
      ]
    },
    [".",".","."]
  ]
},
{
  "tag":"S",
  "content":
  [
    {
      "tag":"PERSON",
      "content":
      [
        ["DANIEL","NNP","daniel"]
      ]
    },
    {
      "tag":"GPE",
      "content":
      [
        ["PHILLIPS","NNP","phillip"]
      ]
    },
    [",",",",","],
    ["B.Mus","JJ","b.mus"],
    [".",".","."]
  ]
},
{
  "tag":"S",
  "content":
  [
    ["(","NN","("],
    ["The","DT","The"],
    {
      "tag":"ORGANIZATION",
      "content":
      [
        ["Juilliard","NNP","juilliard"],
        ["School","NNP","school"]
      ]
    },
    [")","NNP",")"],
    [",",",",","],
    ["violin","NN","violin"],
    [".",".","."]
  ]
},
{
  "tag":"S",
  "content":
  [
    ["Nationally","RB","nat"],
    ["renowned","VBN","renown"],
    ["soloist","NN","solo"],
    ["and","CC","and"],
    ["ensemble","JJ","ensembl"],
    ["performer","NN","perform"],
    [";",":",";"],
    ["participant","NN","particip"],
    ["in","IN","in"],
    {
      "tag":"GPE",
      "content":
      [
        ["U.S.","NNP","u.s."]
      ]
    },
    ["and","CC","and"],
    ["international","JJ","intern"],
    ["music","NN","mus"],
    ["festivals","NNS","fest"],
    [";",":",";"],
    ["member","NN","memb"],
    [",",",",","],
    {
      "tag":"PERSON",
      "content":
      [
        ["Orion","NNP","or"],
        ["Quartet","NNP","quartet"]
      ]
    },
    [".",".","."]
  ]
},
{
  "tag":"S",
  "content":
  [
    ["MOREY","NNP","morey"],
    ["RITT","NNP","rit"],
    [",",",",","],
    ["M.A","NNP","m.a"],
    [".",".","."]
  ]
},
{
  "tag":"S",
  "content":
  [
    ["(","NN","("],
    {
      "tag":"ORGANIZATION",
      "content":
      [
        ["Queens","NNS","queen"],
        ["College","NNP","colleg"]
      ]
    },
    [")","NNP",")"],
    [",",",",","],
    ["piano","DT","piano"],
    [".",".","."]
  ]
},
{
  "tag":"S",
  "content":
  [
    {
      "tag":"GPE",
      "content":
      [
        ["Editor","NNP","edit"]
      ]
    },
    [",",",",","],
    ["Nineteenth-","NNP","nineteenth-"],
    {
      "tag":"PERSON",
      "content":
      [
        ["Century","NNP","century"],
        ["Piano","NNP","piano"],
        ["Duets","NNPS","duet"]
      ]
    },
    [";",":",";"],
    ["recordings","NNS","record"],
    ["on","IN","on"],
    {
      "tag":"ORGANIZATION",
      "content":
      [
        ["CRI","NNP","cri"]
      ]
    },
    [";",":",";"],
    {
      "tag":"PERSON",
      "content":
      [
        ["Fulbright","NNP","fulbright"]
      ]
    },
    ["and","CC","and"],
    {
      "tag":"GPE",
      "content":
      [
        ["Kosciusko","NNP","kosciusko"]
      ]
    },
    ["grants","NNS","grant"],
    [",",",",","],
    {
      "tag":"ORGANIZATION",
      "content":
      [
        ["Spalding","NNP","spald"],
        ["Prize","NNP","priz"]
      ]
    },
    [",",",",","],
    {
      "tag":"ORGANIZATION",
      "content":
      [
        ["Concert","NNP","concert"],
        ["Artists","NNPS","art"],
        ["Guild","NNP","guild"]
      ]
    },
    [";",":",";"],
    ["solo","NN","solo"],
    [",",",",","],
    ["chamber","NN","chamb"],
    ["and","CC","and"],
    ["orchestral","JJ","orchest"],
    ["performances","NNS","perform"],
    ["in","IN","in"],
    {
      "tag":"GPE",
      "content":
      [
        ["U.S.","NNP","u.s."]
      ]
    },
    ["and","CC","and"],
    ["abroad","VB","abroad"],
    [".",".","."]
  ]
},
{
  "tag":"S",
  "content":
  [
    {
      "tag":"ORGANIZATION",
      "content":
      [
        ["RONALD","NNP","ronald"]
      ]
    },
    {
      "tag":"ORGANIZATION",
      "content":
      [
        ["ROSEMAN","NNP","rosem"]
      ]
    },
    [",",",",","],
    ["B.A","NNP","b.a"],
    [".",".","."]
  ]
},
{
  "tag":"S",
  "content":
  [
    ["(","NN","("],
    {
      "tag":"ORGANIZATION",
      "content":
      [
        ["Queens","NNS","queen"],
        ["College","NNP","colleg"]
      ]
    },
    [")","NNP",")"],
    [",",",",","],
    ["oboe","NN","obo"],
    [",",",",","],
    ["composition","NN","composit"],
    [".",".","."]
  ]
},
{
  "tag":"S",
  "content":
  [
    {
      "tag":"ORGANIZATION",
      "content":
      [
        ["International","NNP","intern"]
      ]
    },
    ["soloist","VBD","solo"],
    ["and","CC","and"],
    ["ensemble","JJ","ensembl"],
    ["performer","NN","perform"],
    [";",":",";"],
    ["member","NN","memb"],
    [",",",",","],
    {
      "tag":"GPE",
      "content":
      [
        ["New","NNP","new"],
        ["York","NNP","york"]
      ]
    },
    {
      "tag":"PERSON",
      "content":
      [
        ["Woodwind","NNP","woodwind"],
        ["Quintet","NNP","quintet"]
      ]
    },
    ["and","CC","and"],
    {
      "tag":"PERSON",
      "content":
      [
        ["Bach","NNP","bach"],
        ["Aria","NNP","ar"],
        ["Group","NNP","group"]
      ]
    },
    [";",":",";"],
    ["former","JJ","form"],
    ["co-principal","JJ","co-principal"],
    ["oboe","NN","obo"],
    [",",",",","],
    {
      "tag":"GPE",
      "content":
      [
        ["New","NNP","new"],
        ["York","NNP","york"],
        ["Philharmonic","NNP","philharmon"]
      ]
    },
    [";",":",";"],
    ["former","JJ","form"],
    ["member","NN","memb"],
    [",",",",","],
    {
      "tag":"GPE",
      "content":
      [
        ["New","NNP","new"],
        ["York","NNP","york"]
      ]
    },
    ["Pro","NNP","pro"],
    {
      "tag":"GPE",
      "content":
      [
        ["Musica","NNP","music"]
      ]
    },
    [";",":",";"],
    ["oboe","NN","obo"],
    ["faculty","NN","facul"],
    [",",",",","],
    {
      "tag":"PERSON",
      "content":
      [
        ["Yale","NNP","yal"],
        ["School","NNP","school"]
      ]
    },
    ["of","IN","of"],
    {
      "tag":"GPE",
      "content":
      [
        ["Music","NNP","mus"]
      ]
    },
    [",",",",","],
    {
      "tag":"ORGANIZATION",
      "content":
      [
        ["The","NNP","the"],
        ["Juilliard","NNP","juilliard"],
        ["School","NNP","school"]
      ]
    },
    [";",":",";"],
    ["director","NN","direct"],
    [",",",",","],
    ["the","DT","the"],
    {
      "tag":"ORGANIZATION",
      "content":
      [
        ["Nota","NNP","not"],
        ["Bene","NNP","ben"]
      ]
    },
    ["Contemporary","NNP","contemp"],
    ["Ensemble","NNP","ensembl"],
    [",",",",","],
    {
      "tag":"ORGANIZATION",
      "content":
      [
        ["ACSM","NNP","acsm"]
      ]
    },
    [".",".","."]
  ]
},
{
  "tag":"S",
  "content":
  [
    {
      "tag":"PERSON",
      "content":
      [
        ["RICHARD","NNP","richard"]
      ]
    },
    {
      "tag":"GPE",
      "content":
      [
        ["SANG","NNP","sang"]
      ]
    },
    [",",",",","],
    ["Ph.D.","NNP","ph.d."],
    ["(","NNP","("],
    {
      "tag":"ORGANIZATION",
      "content":
      [
        ["University","NNP","univers"]
      ]
    },
    ["of","IN","of"],
    {
      "tag":"ORGANIZATION",
      "content":
      [
        ["Michigan","NNP","michig"]
      ]
    },
    [")","NNP",")"],
    [",",",",","],
    ["music","JJ","mus"],
    ["education","NN","educ"],
    [".",".","."]
  ]
},
{
  "tag":"S",
  "content":
  [
    ["Articles","NNS","artic"],
    ["in","IN","in"],
    {
      "tag":"GPE",
      "content":
      [
        ["Council","NNP","council"]
      ]
    },
    ["for","IN","for"],
    ["Research","NNP","research"],
    ["in","IN","in"],
    {
      "tag":"GPE",
      "content":
      [
        ["Music","NNP","mus"],
        ["Education","NNP","educ"]
      ]
    },
    [",",",",","],
    {
      "tag":"PERSON",
      "content":
      [
        ["Music","NNP","mus"],
        ["Educators","NNP","educ"],
        ["Journal","NNP","journ"]
      ]
    },
    [",",",",","],
    {
      "tag":"ORGANIZATION",
      "content":
      [
        ["International","NNP","intern"],
        ["Society","NNP","socy"]
      ]
    },
    ["for","IN","for"],
    {
      "tag":"PERSON",
      "content":
      [
        ["Music","NNP","mus"],
        ["Education","NNP","educ"]
      ]
    },
    [";",":",";"],
    ["guest","JJS","guest"],
    ["conductor","NN","conduc"],
    [",",",",","],
    ["clinician","JJ","clin"],
    [",",",",","],
    ["adjudicator","NN","adjud"],
    [";",":",";"],
    {
      "tag":"PERSON",
      "content":
      [
        ["Rackham","NNP","rackham"],
        ["Fellow","NNP","fellow"]
      ]
    },
    [";",":",";"],
    ["director","NN","direct"],
    [",",",",","],
    {
      "tag":"PERSON",
      "content":
      [
        ["Queens","NNP","queen"],
        ["College","NNP","colleg"],
        ["Wind","NNP","wind"],
        ["Ensemble","NNP","ensembl"]
      ]
    },
    [".",".","."]
  ]
},
{
  "tag":"S",
  "content":
  [
    {
      "tag":"ORGANIZATION",
      "content":
      [
        ["BRUCE","NN","bruc"]
      ]
    },
    {
      "tag":"ORGANIZATION",
      "content":
      [
        ["SAYLOR","NNP","sayl"]
      ]
    },
    [",",",",","],
    ["Ph.D.","NNP","ph.d."],
    ["(","NNP","("],
    {
      "tag":"ORGANIZATION",
      "content":
      [
        ["CUNY","NNP","cuny"]
      ]
    },
    [")","NNP",")"],
    [",",",",","],
    ["composition","NN","composit"],
    [".",".","."]
  ]
},
{
  "tag":"S",
  "content":
  [
    {
      "tag":"GPE",
      "content":
      [
        ["Author","NNP","auth"]
      ]
    },
    [",",",",","],
    {
      "tag":"ORGANIZATION",
      "content":
      [
        ["The","NNP","the"],
        ["Musical","NNP","mus"],
        ["Thought","NNP","thought"]
      ]
    },
    ["of","IN","of"],
    {
      "tag":"PERSON",
      "content":
      [
        ["Henry","NNP","henry"],
        ["Cowell","NNP","cowel"]
      ]
    },
    [";",":",";"],
    ["articles","NNS","artic"],
    ["and","CC","and"],
    ["reviews","NNS","review"],
    ["in","IN","in"],
    {
      "tag":"ORGANIZATION",
      "content":
      [
        ["Musical","NNP","mus"],
        ["Quarterly","NNP","quart"]
      ]
    },
    [",",",",","],
    {
      "tag":"PERSON",
      "content":
      [
        ["Musical","NNP","mus"],
        ["America","NNP","americ"]
      ]
    },
    [",",",",","],
    {
      "tag":"ORGANIZATION",
      "content":
      [
        ["CMS","NNP","cms"],
        ["Symposium","NNP","sympos"]
      ]
    },
    [",",",",","],
    ["Contemporary","NNP","contemp"],
    {
      "tag":"PERSON",
      "content":
      [
        ["Music","NNP","mus"],
        ["Newsletter","NNP","newslet"]
      ]
    },
    [",",",",","],
    {
      "tag":"PERSON",
      "content":
      [
        ["Musica","NNP","music"],
        ["Judaica","NNP","judaic"]
      ]
    },
    [",",",",","],
    {
      "tag":"GPE",
      "content":
      [
        ["New","NNP","new"]
      ]
    },
    ["Grove","NNP","grov"],
    ["Dictionary","NNP","dict"],
    [";",":",";"],
    ["commissions","NNS","commit"],
    ["and-performances","NNS","and-performances"],
    ["--",":","--"],
    {
      "tag":"GPE",
      "content":
      [
        ["American","JJ","am"]
      ]
    },
    {
      "tag":"ORGANIZATION",
      "content":
      [
        ["Composers","NNS","compos"],
        ["Orchestra","NNP","orchestr"]
      ]
    },
    [",",",",","],
    {
      "tag":"GPE",
      "content":
      [
        ["Pennsylvania","NNP","pennsylvan"]
      ]
    },
    ["Opera","NNP","oper"],
    ["Festival","NNP","fest"],
    [",",",",","],
    {
      "tag":"PERSON",
      "content":
      [
        ["Houston","NNP","houston"]
      ]
    },
    ["and","CC","and"],
    {
      "tag":"ORGANIZATION",
      "content":
      [
        ["Yale","NNP","yal"],
        ["Symphonies","NNPS","symphony"]
      ]
    },
    [",",",",","],
    {
      "tag":"ORGANIZATION",
      "content":
      [
        ["NEA","NNP","nea"]
      ]
    },
    [",",",",","],
    ["Library","NNP","libr"],
    ["of","IN","of"],
    {
      "tag":"ORGANIZATION",
      "content":
      [
        ["Congress","NNP","congress"]
      ]
    },
    [",",",",","],
    {
      "tag":"PERSON",
      "content":
      [
        ["Radio","NNP","radio"],
        ["France","NNP","frant"]
      ]
    },
    [",",",",","],
    {
      "tag":"GPE",
      "content":
      [
        ["Tanglewood","NNP","tanglewood"]
      ]
    },
    [";",":",";"],
    ["recordings","NNS","record"],
    ["on","IN","on"],
    {
      "tag":"GPE",
      "content":
      [
        ["Orion","NNP","or"]
      ]
    },
    [",",",",","],
    {
      "tag":"ORGANIZATION",
      "content":
      [
        ["CRI","NNP","cri"]
      ]
    },
    [";",":",";"],
    {
      "tag":"PERSON",
      "content":
      [
        ["Fulbright","NNP","fulbright"]
      ]
    },
    [",",",",","],
    {
      "tag":"GPE",
      "content":
      [
        ["Guggenheim","NNP","guggenheim"]
      ]
    },
    [",",",",","],
    {
      "tag":"GPE",
      "content":
      [
        ["Ives","NNP","iv"]
      ]
    },
    [",",",",","],
    {
      "tag":"ORGANIZATION",
      "content":
      [
        ["Rodgers","NNP","rodg"]
      ]
    },
    ["and","CC","and"],
    {
      "tag":"GPE",
      "content":
      [
        ["Hammerstein","NNP","hammerstein"]
      ]
    },
    [",",",",","],
    {
      "tag":"ORGANIZATION",
      "content":
      [
        ["National","NNP","nat"],
        ["Society","NNP","socy"]
      ]
    },
    ["of","IN","of"],
    {
      "tag":"ORGANIZATION",
      "content":
      [
        ["Arts","NNPS","art"]
      ]
    },
    ["and","CC","and"],
    {
      "tag":"ORGANIZATION",
      "content":
      [
        ["Letters","NNP","let"]
      ]
    },
    ["awards","NNS","award"],
    [".",".","."]
  ]
},
{
  "tag":"S",
  "content":
  [
    {
      "tag":"ORGANIZATION",
      "content":
      [
        ["CARL","NNP","carl"]
      ]
    },
    {
      "tag":"GPE",
      "content":
      [
        ["SCHACHTER","NNP","schachter"]
      ]
    },
    [",",",",","],
    ["M.A","NNP","m.a"],
    [".",".","."]
  ]
},
{
  "tag":"S",
  "content":
  [
    ["(","NN","("],
    {
      "tag":"ORGANIZATION",
      "content":
      [
        ["New","NNP","new"],
        ["York","NNP","york"],
        ["University","NNP","univers"]
      ]
    },
    [")","NNP",")"],
    [",",",",","],
    ["music","JJ","mus"],
    ["theory","NN","the"],
    [".",".","."]
  ]
},
{
  "tag":"S",
  "content":
  [
    ["Distinguished","JJ","distinct"],
    ["Professor","NNP","profess"],
    [",",",",","],
    {
      "tag":"ORGANIZATION",
      "content":
      [
        ["ACSM","NNP","acsm"]
      ]
    },
    [";",":",";"],
    ["co-author","NN","co-author"],
    [",",",",","],
    {
      "tag":"GPE",
      "content":
      [
        ["Counterpoint","NNP","counterpoint"]
      ]
    },
    ["in","IN","in"],
    {
      "tag":"GPE",
      "content":
      [
        ["Composition","NNP","composit"]
      ]
    },
    [",",",",","],
    {
      "tag":"PERSON",
      "content":
      [
        ["Harmony","NNP","harmony"]
      ]
    },
    ["and","CC","and"],
    {
      "tag":"ORGANIZATION",
      "content":
      [
        ["Voice","NNP","voic"]
      ]
    },
    ["Leading","NNP","lead"],
    [";",":",";"],
    ["articles","NNS","artic"],
    ["and","CC","and"],
    ["reviews","NNS","review"],
    ["in","IN","in"],
    {
      "tag":"GPE",
      "content":
      [
        ["Journal","NNP","journ"]
      ]
    },
    ["of","IN","of"],
    {
      "tag":"PERSON",
      "content":
      [
        ["Music","NNP","mus"],
        ["Theory","NNP","the"]
      ]
    },
    [",",",",","],
    {
      "tag":"ORGANIZATION",
      "content":
      [
        ["The","NNP","the"],
        ["Music","NNP","mus"],
        ["Forum","NNP","for"]
      ]
    },
    [",",",",","],
    {
      "tag":"PERSON",
      "content":
      [
        ["Music","NNP","mus"],
        ["Analysis","NNP","analys"]
      ]
    },
    [",",",",","],
    {
      "tag":"ORGANIZATION",
      "content":
      [
        ["CMS","NNP","cms"],
        ["Symposium","NNP","sympos"]
      ]
    },
    [";",":",";"],
    ["associate","NN","assocy"],
    ["editor","NN","edit"],
    [",",",",","],
    {
      "tag":"ORGANIZATION",
      "content":
      [
        ["The","NNP","the"],
        ["Music","NNP","mus"],
        ["Forum","NNP","for"]
      ]
    },
    [".",".","."]
  ]
},
{
  "tag":"S",
  "content":
  [
    {
      "tag":"ORGANIZATION",
      "content":
      [
        ["EDWARD","NNP","edward"]
      ]
    },
    {
      "tag":"GPE",
      "content":
      [
        ["SMALDONE","NNP","smaldon"]
      ]
    },
    [",",",",","],
    ["Ph.D.","NNP","ph.d."],
    ["(","NNP","("],
    {
      "tag":"ORGANIZATION",
      "content":
      [
        ["CUNY","NNP","cuny"]
      ]
    },
    [")","NNP",")"],
    [",",",",","],
    ["composition","NN","composit"],
    [".",".","."]
  ]
},
{
  "tag":"S",
  "content":
  [
    {
      "tag":"GPE",
      "content":
      [
        ["Composer","NN","compos"]
      ]
    },
    [",",",",","],
    {
      "tag":"ORGANIZATION",
      "content":
      [
        ["Transformational","NNP","transform"],
        ["Etudes","NNP","etud"]
      ]
    },
    ["and","CC","and"],
    {
      "tag":"PERSON",
      "content":
      [
        ["Three","NNP","three"],
        ["Scenes","NNP","scen"]
      ]
    },
    ["from","IN","from"],
    ["the","DT","the"],
    {
      "tag":"GPE",
      "content":
      [
        ["Heartland","NNP","heartland"]
      ]
    },
    ["for","IN","for"],
    ["solo","NN","solo"],
    ["piano","NN","piano"],
    [",",",",","],
    {
      "tag":"GPE",
      "content":
      [
        ["Rhapsody","NNP","rhapsody"]
      ]
    },
    ["for","IN","for"],
    {
      "tag":"PERSON",
      "content":
      [
        ["Piano","NNP","piano"]
      ]
    },
    ["and","CC","and"],
    {
      "tag":"PERSON",
      "content":
      [
        ["Orchestra","NNP","orchestr"]
      ]
    },
    [",",",",","],
    {
      "tag":"PERSON",
      "content":
      [
        ["Three","NNP","three"],
        ["Episodes","NNP","episod"]
      ]
    },
    ["for","IN","for"],
    {
      "tag":"ORGANIZATION",
      "content":
      [
        ["Percussion","NNP","percuss"],
        ["Quartet","NNP","quartet"]
      ]
    },
    [".",".","."]
  ]
},
{
  "tag":"S",
  "content":
  [
    ["Recordings","NNS","record"],
    ["on","IN","on"],
    {
      "tag":"GPE",
      "content":
      [
        ["New","NNP","new"]
      ]
    },
    ["World","NNP","world"],
    ["Records","NNP","record"],
    [",",",",","],
    ["others","NNS","oth"],
    [".",".","."]
  ]
},
{
  "tag":"S",
  "content":
  [
    {
      "tag":"ORGANIZATION",
      "content":
      [
        ["JOSEPH","NNP","joseph"]
      ]
    },
    {
      "tag":"GPE",
      "content":
      [
        ["STRAUS","NNP","straus"]
      ]
    },
    [",",",",","],
    ["Ph.D.","NNP","ph.d."],
    ["(","NNP","("],
    {
      "tag":"ORGANIZATION",
      "content":
      [
        ["Yale","NNP","yal"],
        ["University","NNP","univers"]
      ]
    },
    [")","NNP",")"],
    [",",",",","],
    ["music","JJ","mus"],
    ["theory","NN","the"],
    [".",".","."]
  ]
},
{
  "tag":"S",
  "content":
  [
    {
      "tag":"GPE",
      "content":
      [
        ["Author","NNP","auth"]
      ]
    },
    [",",",",","],
    ["Remaking","NNP","remak"],
    ["the","DT","the"],
    {
      "tag":"GPE",
      "content":
      [
        ["Past","NNP","past"]
      ]
    },
    [";",":",";"],
    ["articles","NNS","artic"],
    ["in","IN","in"],
    {
      "tag":"GPE",
      "content":
      [
        ["Music","NNP","mus"]
      ]
    },
    ["Theory","NNP","the"],
    ["Spectrum","NNP","spectr"],
    [",",",",","],
    {
      "tag":"ORGANIZATION",
      "content":
      [
        ["Journal","NNP","journ"]
      ]
    },
    ["of","IN","of"],
    {
      "tag":"PERSON",
      "content":
      [
        ["Music","NNP","mus"],
        ["Theory","NNP","the"]
      ]
    },
    [",",",",","],
    {
      "tag":"PERSON",
      "content":
      [
        ["Musical","NNP","mus"],
        ["Quarterly","NNP","quart"]
      ]
    },
    [",",",",","],
    {
      "tag":"ORGANIZATION",
      "content":
      [
        ["Perspectives","NNP","perspect"]
      ]
    },
    ["of","IN","of"],
    {
      "tag":"GPE",
      "content":
      [
        ["New","NNP","new"],
        ["Music","NNP","mus"]
      ]
    },
    [";",":",";"],
    ["editor","NN","edit"],
    [",",",",","],
    {
      "tag":"PERSON",
      "content":
      [
        ["Milton","NNP","milton"],
        ["Babbitt","NNP","babbit"]
      ]
    },
    [":",":",":"],
    ["Words","NNS","word"],
    ["about","IN","about"],
    {
      "tag":"PERSON",
      "content":
      [
        ["Music","NNP","mus"]
      ]
    },
    [".",".","."]
  ]
},
{
  "tag":"S",
  "content":
  [
    {
      "tag":"ORGANIZATION",
      "content":
      [
        ["HENRY","NNP","henry"]
      ]
    },
    {
      "tag":"GPE",
      "content":
      [
        ["WEINBERG","NNP","weinberg"]
      ]
    },
    [",",",",","],
    ["Ph.D.","NNP","ph.d."],
    ["(","NNP","("],
    {
      "tag":"ORGANIZATION",
      "content":
      [
        ["Princeton","NNP","princeton"],
        ["University","NNP","univers"]
      ]
    },
    [")","NNP",")"],
    [",",",",","],
    ["composition","NN","composit"],
    [".",".","."]
  ]
},
{
  "tag":"S",
  "content":
  [
    ["Articles","NNS","artic"],
    ["and","CC","and"],
    ["reviews","NNS","review"],
    ["in","IN","in"],
    {
      "tag":"GPE",
      "content":
      [
        ["Notes","NNP","not"]
      ]
    },
    [",",",",","],
    {
      "tag":"ORGANIZATION",
      "content":
      [
        ["Perspectives","NNP","perspect"]
      ]
    },
    ["of","IN","of"],
    {
      "tag":"GPE",
      "content":
      [
        ["New","NNP","new"],
        ["Music","NNP","mus"]
      ]
    },
    [",",",",","],
    {
      "tag":"ORGANIZATION",
      "content":
      [
        ["ACA","NNP","ac"],
        ["Bulletin","NNP","bulletin"]
      ]
    },
    [",",",",","],
    {
      "tag":"PERSON",
      "content":
      [
        ["Nuova","NNP","nuov"],
        ["Rivista","NNP","rivist"],
        ["Musicale","NNP","mus"],
        ["Italiana","NNP","italian"]
      ]
    },
    [";",":",";"],
    ["recordings","NNS","record"],
    ["on","IN","on"],
    {
      "tag":"GPE",
      "content":
      [
        ["Naumberg","NNP","naumberg"]
      ]
    },
    [",",",",","],
    {
      "tag":"GPE",
      "content":
      [
        ["Vox","NNP","vox"]
      ]
    },
    [";",":",";"],
    ["commissions","NNS","commit"],
    ["from","IN","from"],
    {
      "tag":"PERSON",
      "content":
      [
        ["Fromm","NNP","from"],
        ["Foundation","NNP","found"]
      ]
    },
    [",",",",","],
    {
      "tag":"GPE",
      "content":
      [
        ["Tanglewood","NNP","tanglewood"]
      ]
    },
    [";",":",";"],
    {
      "tag":"GPE",
      "content":
      [
        ["Guggenheim","NNP","guggenheim"]
      ]
    },
    [",",",",","],
    {
      "tag":"PERSON",
      "content":
      [
        ["Fulbright","NNP","fulbright"]
      ]
    },
    [",",",",","],
    {
      "tag":"PERSON",
      "content":
      [
        ["Prix","NNP","prix"]
      ]
    },
    ["de","IN","de"],
    {
      "tag":"GPE",
      "content":
      [
        ["Rome","NNP","rom"]
      ]
    },
    [",",",",","],
    {
      "tag":"GPE",
      "content":
      [
        ["American","NNP","am"]
      ]
    },
    ["Academy","NNP","academy"],
    ["awards","NNS","award"],
    [";",":",";"],
    ["founding","VBG","found"],
    ["president","NN","presid"],
    [",",",",","],
    {
      "tag":"GPE",
      "content":
      [
        ["American","NNP","am"]
      ]
    },
    ["Society","NNP","socy"],
    ["of","IN","of"],
    {
      "tag":"ORGANIZATION",
      "content":
      [
        ["University","NNP","univers"],
        ["Composers","NNP","compos"]
      ]
    },
    [".",".","."]
  ]
},
{
  "tag":"S",
  "content":
  [
    {
      "tag":"PERSON",
      "content":
      [
        ["ROBERT","NNP","robert"]
      ]
    },
    {
      "tag":"GPE",
      "content":
      [
        ["WHITE","NNP","whit"]
      ]
    },
    [",",",",","],
    ["Ed.D","JJ","ed.d"],
    [".",".","."]
  ]
},
{
  "tag":"S",
  "content":
  [
    ["(","NN","("],
    {
      "tag":"ORGANIZATION",
      "content":
      [
        ["Columbia","NNP","columb"],
        ["University","NNP","univers"]
      ]
    },
    [")","NNP",")"],
    [",",",",","],
    ["voice","NN","voic"],
    [".",".","."]
  ]
},
{
  "tag":"S",
  "content":
  [
    {
      "tag":"GPE",
      "content":
      [
        ["Author","NNP","auth"]
      ]
    },
    [",",",",","],
    {
      "tag":"GPE",
      "content":
      [
        ["Overture","NNP","overt"]
      ]
    },
    ["to","TO","to"],
    {
      "tag":"GPE",
      "content":
      [
        ["Opera","NNP","oper"]
      ]
    },
    [",",",",","],
    {
      "tag":"PERSON",
      "content":
      [
        ["Study","NNP","study"],
        ["Guide","NNP","guid"]
      ]
    },
    ["to","TO","to"],
    {
      "tag":"GPE",
      "content":
      [
        ["Aida","NNP","aid"]
      ]
    },
    [";",":",";"],
    ["articles","NNS","artic"],
    ["and","CC","and"],
    ["reviews","NNS","review"],
    ["in","IN","in"],
    {
      "tag":"GPE",
      "content":
      [
        ["American","JJ","am"]
      ]
    },
    {
      "tag":"PERSON",
      "content":
      [
        ["Music","NNP","mus"],
        ["Teacher","NNP","teach"]
      ]
    },
    [",",",",","],
    {
      "tag":"PERSON",
      "content":
      [
        ["Music","NNP","mus"],
        ["Educators","NNP","educ"],
        ["Journal","NNP","journ"]
      ]
    },
    [",",",",","],
    {
      "tag":"PERSON",
      "content":
      [
        ["Church","NNP","church"],
        ["Musician","NNP","mus"]
      ]
    },
    [",",",",","],
    {
      "tag":"PERSON",
      "content":
      [
        ["School","NNP","school"],
        ["Music","NNP","mus"],
        ["News","NNP","new"]
      ]
    },
    [",",",",","],
    {
      "tag":"ORGANIZATION",
      "content":
      [
        ["NYSME","NNP","nysm"],
        ["Journal","NNP","journ"]
      ]
    },
    [",",",",","],
    {
      "tag":"ORGANIZATION",
      "content":
      [
        ["Journal","NNP","journ"]
      ]
    },
    ["of","IN","of"],
    {
      "tag":"GPE",
      "content":
      [
        ["Voice","NNP","voic"]
      ]
    },
    [";",":",";"],
    ["member","NN","memb"],
    [",",",",","],
    {
      "tag":"ORGANIZATION",
      "content":
      [
        ["American","JJ","am"],
        ["Academy","NNP","academy"]
      ]
    },
    ["of","IN","of"],
    {
      "tag":"ORGANIZATION",
      "content":
      [
        ["Teachers","NNP","teach"]
      ]
    },
    ["of","IN","of"],
    {
      "tag":"GPE",
      "content":
      [
        ["Singing","NNP","sing"]
      ]
    },
    [".",".","."]
  ]
},
{
  "tag":"S",
  "content":
  [
    {
      "tag":"GPE",
      "content":
      [
        ["Back","NNP","back"]
      ]
    },
    ["To","TO","To"],
    ["The","DT","The"],
    {
      "tag":"ORGANIZATION",
      "content":
      [
        ["Aaron","NNP","aaron"],
        ["Copland","NNP","copland"],
        ["School","NNP","school"]
      ]
    },
    ["of","IN","of"],
    {
      "tag":"ORGANIZATION",
      "content":
      [
        ["Music","NNP","mus"],
        ["Home","NNP","hom"]
      ]
    },
    ["Page","NNP","pag"]
  ]
}]