[
{
  "tag":"S",
  "content":
  [
    {
      "tag":"GPE",
      "content":
      [
        ["Accessibility","NN","access"]
      ]
    },
    ["links","NNS","link"],
    {
      "tag":"PERSON",
      "content":
      [
        ["Skip","NNP","skip"]
      ]
    },
    ["to","TO","to"],
    ["article","VB","artic"],
    {
      "tag":"PERSON",
      "content":
      [
        ["Skip","NNP","skip"]
      ]
    },
    ["to","TO","to"],
    ["navigation","NN","navig"],
    ["Advertisement","NNP","advert"],
    ["Telegraph.co.uk","NNP","telegraph.co.uk"],
    ["Wednesday","NNP","wednesday"],
    ["16","CD","16"],
    ["October","NNP","octob"],
    ["2013","CD","2013"],
    ["Home","NNP","hom"],
    ["News","NNP","new"],
    ["World","NNP","world"],
    ["Sport","NNP","sport"],
    ["Finance","NNP","fin"],
    ["Comment","NNP","com"],
    ["Culture","NNP","cult"],
    {
      "tag":"PERSON",
      "content":
      [
        ["Travel","NNP","travel"],
        ["Life","NNP","lif"],
        ["Women","NNP","wom"],
        ["Fashion","NNP","fash"],
        ["Luxury","NNP","luxury"],
        ["Tech","NNP","tech"],
        ["Dating","NNP","dat"]
      ]
    },
    ["Offers","NNP","off"],
    ["Jobs","NNP","job"],
    ["Politics","NNP","polit"],
    ["Obits","NNP","obit"],
    ["Education","NNP","educ"],
    ["Earth","NNP","ear"],
    ["Science","NNP","sci"],
    ["Defence","NNP","def"],
    ["Health","NNP","heal"],
    ["Scotland","NNP","scotland"],
    ["Royal","NNP","roy"],
    ["Celebrities","NNP","celebr"],
    ["Weird","NNP","weird"],
    ["Spending","NNP","spend"],
    ["Review","NNP","review"],
    ["G8","NNP","g8"],
    ["Conservatives","NNP","conserv"],
    {
      "tag":"ORGANIZATION",
      "content":
      [
        ["Liberal","NNP","lib"],
        ["Democrats","NNPS","democr"],
        ["Labour","NNP","labo"],
        ["Political","NNP","polit"],
        ["Parties","NNPS","party"],
        ["Scottish","NNP","scot"],
        ["Politics","NNP","polit"],
        ["Local","NNP","loc"],
        ["Elections","NNP","elect"]
      ]
    },
    ["Home»","NNP","home»"],
    ["News»","NNP","news»"],
    ["Politics»","NNP","politics»"],
    ["Labour","NNP","labo"],
    {
      "tag":"PERSON",
      "content":
      [
        ["Gordon","NNP","gordon"],
        ["Brown’s","NNP","brown’s"]
      ]
    },
    ["mud-slingers","NNP","mud-slingers"],
    ["eat","NN","eat"],
    ["humble","JJ","humbl"],
    ["pie","NN","pie"],
    {
      "tag":"PERSON",
      "content":
      [
        ["Ed","NNP","ed"],
        ["Balls","NNP","bal"]
      ]
    },
    ["is","VBZ","be"],
    ["turning","VBG","turn"],
    ["to","TO","to"],
    ["the","DT","the"],
    ["once-reviled","JJ","once-reviled"],
    ["figure","NN","fig"],
    ["of","IN","of"],
    {
      "tag":"PERSON",
      "content":
      [
        ["Robert","NNP","robert"],
        ["Chote","NNP","chot"]
      ]
    },
    ["in","IN","in"],
    ["an","DT","an"],
    ["effort","NN","effort"],
    ["to","TO","to"],
    ["win","VB","win"],
    ["back","RB","back"],
    ["public","JJ","publ"],
    ["trust","NN","trust"],
    ["for","IN","for"],
    ["his","PRP$","his"],
    ["fiscal","JJ","fisc"],
    ["plans","NNS","plan"],
    {
      "tag":"PERSON",
      "content":
      [
        ["Ed","NNP","ed"],
        ["Balls","NNP","bal"]
      ]
    },
    ["wants","VBZ","want"],
    ["his","PRP$","his"],
    ["sums","NNS","sum"],
    ["vetted","VBD","vet"],
    ["by","IN","by"],
    {
      "tag":"PERSON",
      "content":
      [
        ["Robert","NNP","robert"],
        ["Chote","NNP","chot"]
      ]
    },
    ["and","CC","and"],
    ["the","DT","the"],
    {
      "tag":"ORGANIZATION",
      "content":
      [
        ["OBR","NNP","obr"]
      ]
    },
    ["because","IN","because"],
    ["it","PRP","it"],
    ["would","MD","would"],
    ["give","VB","giv"],
    ["his","PRP$","his"],
    ["proposals","NNS","propos"],
    ["greater","JJR","gre"],
    ["credibility","NN","cred"],
    ["and","CC","and"],
    ["so","RB","so"],
    ["help","VB","help"],
    ["to","TO","to"],
    ["restore","VB","rest"],
    ["public","JJ","publ"],
    ["trust","NN","trust"],
    {
      "tag":"PERSON",
      "content":
      [
        ["Photo","NNP","photo"]
      ]
    },
    [":",":",":"],
    {
      "tag":"PERSON",
      "content":
      [
        ["Martin","NNP","martin"],
        ["Pope","NNP","pop"],
        ["By","NNP","by"],
        ["Sue","NNP","sue"],
        ["Cameron","NNP","cameron"]
      ]
    },
    ["7:53PM","CD","7:53PM"],
    ["BST","NNP","bst"],
    ["09","CD","09"],
    ["Oct","NNP","oct"],
    ["2013","CD","2013"],
    ["Comments","NNS","com"],
    ["When","WRB","When"],
    ["it","PRP","it"],
    ["comes","VBZ","com"],
    ["to","TO","to"],
    ["deciding","VBG","decid"],
    ["which","WDT","which"],
    ["set","NN","set"],
    ["of","IN","of"],
    ["politicians","NNS","polit"],
    ["to","TO","to"],
    ["trust","VB","trust"],
    ["on","IN","on"],
    ["the","DT","the"],
    ["economy","NN","econom"],
    [",",",",","],
    ["you","PRP","you"],
    ["have","VBP","hav"],
    ["to","TO","to"],
    ["take","VB","tak"],
    ["account","NN","account"],
    ["of","IN","of"],
    ["their","PRP$","their"],
    ["loathing","NN","loath"],
    [",",",",","],
    ["lying","VBG","lie"],
    ["and","CC","and"],
    ["bad-mouthing","JJ","bad-mouthing"],
    ["quotient","NN","quoty"],
    ["–",":","–"],
    ["particularly","RB","particul"],
    ["when","WRB","when"],
    ["they","PRP","they"],
    ["are","VBP","be"],
    ["in","IN","in"],
    ["charge","NN","charg"],
    ["of","IN","of"],
    ["the","DT","the"],
    {
      "tag":"ORGANIZATION",
      "content":
      [
        ["Treasury","NNP","treasury"]
      ]
    },
    [".",".","."]
  ]
},
{
  "tag":"S",
  "content":
  [
    ["I","PRP","I"],
    ["was","VBD","be"],
    ["much","RB","much"],
    ["struck","RB","struck"],
    ["by","IN","by"],
    ["this","DT","this"],
    ["when","WRB","when"],
    {
      "tag":"PERSON",
      "content":
      [
        ["Ed","NNP","ed"],
        ["Balls","NNP","bal"]
      ]
    },
    [",",",",","],
    ["the","DT","the"],
    ["shadow","NN","shadow"],
    ["chancellor","NN","chancel"],
    [",",",",","],
    ["made","VBN","mak"],
    ["it","PRP","it"],
    ["clear","RB","clear"],
    ["that","IN","that"],
    ["he","PRP","he"],
    ["would","MD","would"],
    ["like","VB","lik"],
    ["his","PRP$","his"],
    ["economic","JJ","econom"],
    ["homework","NN","homework"],
    ["marked","VBD","mark"],
    ["by","IN","by"],
    ["–","CD","–"],
    ["what","WP","what"],
    ["irony","NN","irony"],
    ["!",".","!"]
  ]
},
{
  "tag":"S",
  "content":
  [
    ["–","NN","–"],
    ["the","DT","the"],
    ["independent","JJ","independ"],
    ["Office","NNP","off"],
    ["for","IN","for"],
    {
      "tag":"PERSON",
      "content":
      [
        ["Budget","NNP","budget"],
        ["Responsibility","NNP","respons"]
      ]
    },
    [",",",",","],
    ["headed","VBD","head"],
    ["by","IN","by"],
    ["the","DT","the"],
    ["respected","VBN","respect"],
    ["economist","NN","econom"],
    {
      "tag":"PERSON",
      "content":
      [
        ["Robert","NNP","robert"],
        ["Chote","NNP","chot"]
      ]
    },
    [".",".","."]
  ]
},
{
  "tag":"S",
  "content":
  [
    ["Mr","NNP","mr"],
    {
      "tag":"PERSON",
      "content":
      [
        ["Balls","NNP","bal"]
      ]
    },
    ["wants","VBZ","want"],
    ["his","PRP$","his"],
    ["sums","NNS","sum"],
    ["vetted","VBD","vet"],
    ["by","IN","by"],
    ["the","DT","the"],
    {
      "tag":"ORGANIZATION",
      "content":
      [
        ["OBR","NNP","obr"]
      ]
    },
    ["because","IN","because"],
    ["it","PRP","it"],
    ["would","MD","would"],
    ["give","VB","giv"],
    ["his","PRP$","his"],
    ["proposals","NNS","propos"],
    ["greater","JJR","gre"],
    ["credibility","NN","cred"],
    ["and","CC","and"],
    ["so","RB","so"],
    ["help","VB","help"],
    ["to","TO","to"],
    ["restore","VB","rest"],
    ["public","JJ","publ"],
    ["trust","NN","trust"],
    ["–",":","–"],
    ["something","NN","someth"],
    ["that","WDT","that"],
    ["seems","VBZ","seem"],
    ["to","TO","to"],
    ["be","VB","be"],
    ["at","IN","at"],
    ["an","DT","an"],
    ["all-time","JJ","all-time"],
    ["low","JJ","low"],
    ["at","IN","at"],
    ["present","JJ","pres"],
    [",",",",","],
    ["among","IN","among"],
    ["all","DT","all"],
    ["parties","NNS","party"],
    [".",".","."]
  ]
},
{
  "tag":"S",
  "content":
  [
    ["Now","RB","now"],
    [",",",",","],
    ["there’s","NNS","there’s"],
    ["a","DT","a"],
    ["debate","NN","deb"],
    ["to","TO","to"],
    ["be","VB","be"],
    ["had","VBN","hav"],
    ["as","IN","as"],
    ["to","TO","to"],
    ["how","WRB","how"],
    ["far","RB","far"],
    ["politicians","VBZ","polit"],
    ["can","MD","can"],
    ["or","CC","or"],
    ["should","MD","should"],
    ["hide","VB","hid"],
    ["behind","IN","behind"],
    ["economists","NNS","econom"],
    ["or","CC","or"],
    ["other","JJ","oth"],
    ["experts","NNS","expert"],
    ["when","WRB","when"],
    ["it","PRP","it"],
    ["comes","VBZ","com"],
    ["to","TO","to"],
    ["some","DT","some"],
    ["of","IN","of"],
    ["their","PRP$","their"],
    ["distinctly","JJ","distinct"],
    ["back-of-an-envelope","NN","back-of-an-envelope"],
    ["policies","NNS","policy"],
    ["–",":","–"],
    ["and","CC","and"],
    ["more","JJR","mor"],
    ["of","IN","of"],
    ["this","DT","this"],
    ["in","IN","in"],
    ["a","DT","a"],
    ["moment","NN","mom"],
    [".",".","."]
  ]
},
{
  "tag":"S",
  "content":
  [
    ["What","WP","What"],
    ["is","VBZ","be"],
    ["so","RB","so"],
    ["ironic","JJ","iron"],
    ["about","IN","about"],
    {
      "tag":"PERSON",
      "content":
      [
        ["Labour","NNP","labo"]
      ]
    },
    ["and","CC","and"],
    ["the","DT","the"],
    {
      "tag":"ORGANIZATION",
      "content":
      [
        ["OBR","NNP","obr"]
      ]
    },
    ["is","VBZ","be"],
    ["that","IN","that"],
    ["on","IN","on"],
    ["the","DT","the"],
    ["loathing","NN","loath"],
    ["and","CC","and"],
    ["bad-mouthing","JJ","bad-mouthing"],
    ["front","NN","front"],
    [",",",",","],
    ["I","PRP","I"],
    ["am","VBP","be"],
    ["told","JJ","told"],
    ["that","IN","that"],
    ["Mr","NNP","mr"],
    {
      "tag":"PERSON",
      "content":
      [
        ["Balls","NNP","bal"]
      ]
    },
    ["has","VBZ","hav"],
    ["form","NN","form"],
    ["when","WRB","when"],
    ["it","PRP","it"],
    ["comes","VBZ","com"],
    ["to","TO","to"],
    ["Mr","NNP","mr"],
    ["Chote","NNP","chot"],
    [".",".","."]
  ]
},
{
  "tag":"S",
  "content":
  [
    ["It","PRP","It"],
    ["was","VBD","be"],
    ["Mr","NNP","mr"],
    ["Chote","NNP","chot"],
    ["who","WP","who"],
    ["first","RB","first"],
    ["recognised","VBD","recogn"],
    ["the…","-NONE-","the…"],
    ["er…","-NONE-","er…"],
    ["cavalier","JJR","cava"],
    ["attitudes","NNS","attitud"],
    ["of","IN","of"],
    ["Labour’s","NNS","labour’s"],
    {
      "tag":"ORGANIZATION",
      "content":
      [
        ["Treasury","NNP","treasury"]
      ]
    },
    ["team","NN","team"],
    ["under","IN","under"],
    ["the","DT","the"],
    ["then","RB","then"],
    ["chancellor","NN","chancel"],
    [",",",",","],
    {
      "tag":"PERSON",
      "content":
      [
        ["Gordon","NNP","gordon"],
        ["Brown","NNP","brown"]
      ]
    },
    ["–","NNP","–"],
    ["and","CC","and"],
    [",",",",","],
    ["boy","NN","boy"],
    [",",",",","],
    ["were","VBD","be"],
    ["they","PRP","they"],
    ["furious","JJ","fury"],
    ["when","WRB","when"],
    ["he","PRP","he"],
    ["went","VBD","go"],
    ["public","JJ","publ"],
    ["on","IN","on"],
    ["his","PRP$","his"],
    ["findings","NNS","find"],
    [".",".","."]
  ]
},
{
  "tag":"S",
  "content":
  [
    ["It","PRP","It"],
    ["was","VBD","be"],
    ["in","IN","in"],
    ["March","NNP","march"],
    ["1998","CD","1998"],
    ["when","WRB","when"],
    ["Mr","NNP","mr"],
    ["Chote","NNP","chot"],
    [",",",",","],
    ["then","RB","then"],
    ["a","DT","a"],
    ["journalist","NN","journ"],
    ["with","IN","with"],
    ["the","DT","the"],
    {
      "tag":"ORGANIZATION",
      "content":
      [
        ["Financial","NNP","fin"],
        ["Times","NNP","tim"]
      ]
    },
    [",",",",","],
    ["wrote","VBD","writ"],
    ["a","DT","a"],
    ["profile","JJ","profil"],
    ["of","IN","of"],
    ["Mr","NNP","mr"],
    ["Brown","NNP","brown"],
    ["in","IN","in"],
    {
      "tag":"GPE",
      "content":
      [
        ["Prospect","NNP","prospect"]
      ]
    },
    ["magazine","NN","magazin"],
    [".",".","."]
  ]
},
{
  "tag":"S",
  "content":
  [
    ["It","PRP","It"],
    ["was","VBD","be"],
    ["well-balanced","JJ","well-balanced"],
    [",",",",","],
    ["well-informed","JJ","well-informed"],
    ["–","NN","–"],
    ["and","CC","and"],
    ["devastating","VBG","devast"],
    [".",".","."]
  ]
},
{
  "tag":"S",
  "content":
  [
    ["It","PRP","It"],
    ["spoke","VBD","speak"],
    ["of","IN","of"],
    ["Mr","NNP","mr"],
    ["Brown","NNP","brown"],
    ["being","VBG","be"],
    ["“cliquey","JJ","“cliquey"],
    ["and","CC","and"],
    ["thin-skinned”","JJ","thin-skinned”"],
    [";",":",";"],
    ["it","PRP","it"],
    ["said","VBD","say"],
    [":",":",":"],
    ["“Brown’s","JJ","“brown’s"],
    ["reluctance","NN","reluct"],
    ["to","TO","to"],
    ["trust","VB","trust"],
    ["his","PRP$","his"],
    ["ministerial","JJ","min"],
    ["colleagues","NNS","colleagu"],
    ["has","VBZ","hav"],
    ["been","VBN","be"],
    ["mirrored","VBN","mir"],
    ["by","IN","by"],
    ["his","PRP$","his"],
    ["reluctance","NN","reluct"],
    ["to","TO","to"],
    ["trust","VB","trust"],
    ["many","JJ","many"],
    ["of","IN","of"],
    ["his","PRP$","his"],
    ["own","JJ","own"],
    ["officials”","NN","officials”"],
    [";",":",";"],
    ["it","PRP","it"],
    ["talked","VBD","talk"],
    ["of","IN","of"],
    ["the","DT","the"],
    ["small","JJ","smal"],
    ["group","NN","group"],
    ["of","IN","of"],
    ["“Brownies”","JJ","“brownies”"],
    ["–","NN","–"],
    ["including","VBG","includ"],
    {
      "tag":"PERSON",
      "content":
      [
        ["Ed","NNP","ed"],
        ["Balls","NNP","bal"]
      ]
    },
    ["–","NNP","–"],
    ["taking","VBG","tak"],
    ["decisions","NNS","decid"],
    ["out","IN","out"],
    ["of","IN","of"],
    ["sight","NN","sight"],
    ["of","IN","of"],
    ["officials","NNS","off"],
    ["and","CC","and"],
    ["“jealously","RB","“jealously"],
    ["protecting","VBG","protect"],
    ["the","DT","the"],
    ["flow","NN","flow"],
    ["of","IN","of"],
    ["information”","JJ","information”"],
    [";",":",";"],
    ["and","CC","and"],
    ["it","PRP","it"],
    ["cited","VBD","cit"],
    ["one","CD","one"],
    ["adviser","NN","adv"],
    ["saying","VBG","say"],
    ["Mr","NNP","mr"],
    {
      "tag":"PERSON",
      "content":
      [
        ["Brown","NNP","brown"]
      ]
    },
    ["was","VBD","be"],
    ["“a","NNP","“a"],
    ["mixture","NN","mixt"],
    ["of","IN","of"],
    ["arrogance","NN","arrog"],
    ["and","CC","and"],
    ["intellectual","JJ","intellect"],
    ["insecurity”","NN","insecurity”"],
    [".",".","."]
  ]
},
{
  "tag":"S",
  "content":
  [
    ["You","PRP","You"],
    ["may","MD","may"],
    ["think","VB","think"],
    ["that","IN","that"],
    ["all","DT","all"],
    ["this","DT","this"],
    ["is","VBZ","be"],
    ["well","RB","wel"],
    ["documented","VBN","docu"],
    [",",",",","],
    ["but","CC","but"],
    ["back","RB","back"],
    ["then","RB","then"],
    [",",",",","],
    ["with","IN","with"],
    {
      "tag":"PERSON",
      "content":
      [
        ["Labour","NNP","labo"]
      ]
    },
    ["in","IN","in"],
    ["power","NN","pow"],
    ["for","IN","for"],
    ["less","JJR","less"],
    ["than","IN","than"],
    ["a","DT","a"],
    ["year","NN","year"],
    [",",",",","],
    ["it","PRP","it"],
    ["was","VBD","be"],
    ["explosive","JJ","explod"],
    ["stuff","NN","stuff"],
    [".",".","."]
  ]
},
{
  "tag":"S",
  "content":
  [
    ["“Robert","NN","“robert"],
    ["was","VBD","be"],
    ["the","DT","the"],
    ["first","JJ","first"],
    ["person","NN","person"],
    ["to","TO","to"],
    ["reveal","VB","rev"],
    ["the","DT","the"],
    ["awful","JJ","aw"],
    ["monoculture","NN","monocult"],
    ["at","IN","at"],
    ["the","DT","the"],
    {
      "tag":"ORGANIZATION",
      "content":
      [
        ["Treasury","NNP","treasury"]
      ]
    },
    [",",",",","],
    ["and","CC","and"],
    ["the","DT","the"],
    {
      "tag":"ORGANIZATION",
      "content":
      [
        ["Brownites","NNPS","brownit"]
      ]
    },
    ["hated","VBD","hat"],
    ["him","PRP","him"],
    ["for","IN","for"],
    ["it","PRP","it"],
    [",",",",","],
    ["”",":","”"],
    ["recalls","NNS","recal"],
    ["one","CD","one"],
    ["close","JJ","clos"],
    ["observer","NN","observ"],
    [".",".","."]
  ]
},
{
  "tag":"S",
  "content":
  [
    ["“When","JJ","“when"],
    ["the","DT","the"],
    ["piece","NN","piec"],
    ["appeared","VBD","appear"],
    [",",",",","],
    ["it","PRP","it"],
    ["was","VBD","be"],
    ["'","''","'"],
    ["--",":","--"],
    ["--",":","--"],
    ["ing","VBG","ing"],
    ["Chote’","JJ","chote’"],
    ["from","IN","from"],
    ["that","DT","that"],
    ["day","NN","day"],
    ["on.”","-NONE-","on.”"],
    ["Some","DT","Some"],
    ["of","IN","of"],
    ["those","DT","those"],
    ["around","IN","around"],
    ["at","IN","at"],
    ["the","DT","the"],
    ["time","NN","tim"],
    ["reckon","NN","reckon"],
    ["a","DT","a"],
    ["kind","NN","kind"],
    ["of","IN","of"],
    ["fatwa","NN","fatw"],
    ["was","VBD","be"],
    ["issued","VBN","issu"],
    ["against","IN","against"],
    ["Mr","NNP","mr"],
    ["Chote","NNP","chot"],
    [",",",",","],
    ["and","CC","and"],
    ["efforts","NNS","effort"],
    ["made","VBD","mak"],
    ["to","TO","to"],
    ["exclude","VB","exclud"],
    ["him","PRP","him"],
    ["from","IN","from"],
    ["some","DT","some"],
    ["briefings","NNS","brief"],
    [".",".","."]
  ]
},
{
  "tag":"S",
  "content":
  [
    {
      "tag":"GPE",
      "content":
      [
        ["Related","JJ","rel"]
      ]
    },
    {
      "tag":"ORGANIZATION",
      "content":
      [
        ["Articles","NNS","artic"],
        ["Wary","NNP","wary"]
      ]
    },
    ["firms","NNS","firm"],
    ["hit","VBP","hit"],
    ["growth","NN","grow"],
    ["more","RBR","mor"],
    ["than","IN","than"],
    ["austerity","NN","aust"],
    ["09","CD","09"],
    ["Oct","NNP","oct"],
    ["2013","CD","2013"],
    ["Osborne","NNP","osborn"],
    ["and","CC","and"],
    {
      "tag":"PERSON",
      "content":
      [
        ["Chote","NNP","chot"]
      ]
    },
    ["questioned","VBD","quest"],
    ["by","IN","by"],
    {
      "tag":"ORGANIZATION",
      "content":
      [
        ["MPs","NNP","mps"]
      ]
    },
    [":",":",":"],
    ["as","IN","as"],
    ["it","PRP","it"],
    ["happened","VBD","hap"],
    ["26","CD","26"],
    ["Mar","NNP","mar"],
    ["2013","CD","2013"],
    {
      "tag":"PERSON",
      "content":
      [
        ["Cameron","NNP","cameron"]
      ]
    },
    ["rebuked","VBD","rebuk"],
    ["by","IN","by"],
    ["head","NN","head"],
    ["of","IN","of"],
    ["watchdog","NN","watchdog"],
    ["over","IN","over"],
    ["austerity","NN","aust"],
    ["claims","NNS","claim"],
    ["08","CD","08"],
    ["Mar","NNP","mar"],
    ["2013","CD","2013"],
    ["Ed","NNP","ed"],
    ["Balls","NNP","bal"],
    [":",":",":"],
    {
      "tag":"PERSON",
      "content":
      [
        ["Labour","NNP","labo"],
        ["Party","NNP","party"]
      ]
    },
    ["happy","NN","happy"],
    ["to","TO","to"],
    ["be","VB","be"],
    ["called","VBN","cal"],
    ["socialists","NNS","soc"],
    ["23","CD","23"],
    ["Sep","NNP","sep"],
    ["2013","CD","2013"],
    ["Ed","NNP","ed"],
    ["Miliband","NNP","miliband"],
    ["axes","VBZ","ax"],
    {
      "tag":"PERSON",
      "content":
      [
        ["Blairites","NNP","blairit"]
      ]
    },
    ["from","IN","from"],
    ["his","PRP$","his"],
    ["shadow","NN","shadow"],
    ["cabinet","NN","cabinet"],
    ["07","CD","07"],
    ["Oct","NNP","oct"],
    ["2013","CD","2013"],
    {
      "tag":"ORGANIZATION",
      "content":
      [
        ["IMF","NNP","imf"]
      ]
    },
    ["upgrades","VBZ","upgrad"],
    {
      "tag":"ORGANIZATION",
      "content":
      [
        ["UK","NNP","uk"]
      ]
    },
    ["growth","NN","grow"],
    ["in","IN","in"],
    ["embarrassing","JJ","embarrass"],
    ["about-turn","NN","about-turn"],
    ["08","CD","08"],
    ["Oct","NNP","oct"],
    ["2013","CD","2013"],
    ["(","CD","("],
    ["Not","RB","not"],
    ["that","IN","that"],
    ["bad-mouthing","JJ","bad-mouthing"],
    ["is","VBZ","be"],
    ["confined","VBN","confin"],
    ["to","TO","to"],
    {
      "tag":"GPE",
      "content":
      [
        ["Labour","NNP","labo"]
      ]
    },
    [".",".","."]
  ]
},
{
  "tag":"S",
  "content":
  [
    {
      "tag":"PERSON",
      "content":
      [
        ["Matthew","NNP","matthew"]
      ]
    },
    ["d’Ancona","NNP","d’ancona"],
    [",",",",","],
    ["in","IN","in"],
    ["his","PRP$","his"],
    ["book","NN","book"],
    ["on","IN","on"],
    ["the","DT","the"],
    {
      "tag":"ORGANIZATION",
      "content":
      [
        ["Coalition","NNP","coalit"]
      ]
    },
    [",",",",","],
    ["In","NNP","in"],
    ["It","NNP","it"],
    ["Together","NNP","togeth"],
    [",",",",","],
    ["recounts","NNS","recount"],
    ["numerous","JJ","num"],
    ["stories","NNS","story"],
    ["of","IN","of"],
    {
      "tag":"PERSON",
      "content":
      [
        ["Steve","NNP","stev"],
        ["Hilton","NNP","hilton"]
      ]
    },
    [",",",",","],
    ["adviser","NN","adv"],
    ["to","TO","to"],
    {
      "tag":"PERSON",
      "content":
      [
        ["David","NNP","david"],
        ["Cameron","NNP","cameron"]
      ]
    },
    [",",",",","],
    ["who","WP","who"],
    ["screamed","VBN","scream"],
    [":",":",":"],
    ["“",":","“"],
    ["You","PRP","You"],
    ["--",":","--"],
    ["--",":","--"],
    ["ing","VBG","ing"],
    ["lied","JJ","lied"],
    ["!",".","!"],
    ["”",":","”"],
    ["to","TO","to"],
    {
      "tag":"PERSON",
      "content":
      [
        ["Sir","NNP","sir"],
        ["Bob","NNP","bob"],
        ["Kerslake","NNP","kerslak"]
      ]
    },
    [",",",",","],
    ["head","NN","head"],
    ["of","IN","of"],
    ["the","DT","the"],
    {
      "tag":"ORGANIZATION",
      "content":
      [
        ["Civil","NNP","civil"],
        ["Service","NNP","serv"]
      ]
    },
    [".",".","."]
  ]
},
{
  "tag":"S",
  "content":
  [
    [")","NN",")"],
    ["Yet","CC","Yet"],
    ["15","CD","15"],
    ["years","NNS","year"],
    ["later","RBR","lat"],
    [",",",",","],
    ["here","RB","her"],
    ["is","VBZ","be"],
    ["Mr","NNP","mr"],
    ["Balls","NNP","bal"],
    ["calling","NN","cal"],
    ["for","IN","for"],
    ["his","PRP$","his"],
    ["figures","NNS","fig"],
    ["to","TO","to"],
    ["be","VB","be"],
    ["verified","VBN","ver"],
    ["by","IN","by"],
    ["the","DT","the"],
    ["very","JJ","very"],
    ["man","NN","man"],
    ["who","WP","who"],
    ["found","VBN","find"],
    ["him","PRP","him"],
    ["out","RP","out"],
    ["in","IN","in"],
    ["the","DT","the"],
    ["first","JJ","first"],
    ["place","NN","plac"],
    [".",".","."]
  ]
},
{
  "tag":"S",
  "content":
  [
    ["What","WP","What"],
    ["is","VBZ","be"],
    ["more","RBR","mor"],
    [",",",",","],
    ["the","DT","the"],
    {
      "tag":"ORGANIZATION",
      "content":
      [
        ["OBR","NNP","obr"]
      ]
    },
    ["was","VBD","be"],
    ["set","VBN","set"],
    ["up","RP","up"],
    ["by","IN","by"],
    ["the","DT","the"],
    ["Coalition","NNP","coalit"],
    ["in","IN","in"],
    ["2010","CD","2010"],
    ["precisely","RB","prec"],
    ["to","TO","to"],
    ["ensure","VB","ens"],
    ["that","IN","that"],
    ["politicians","NNS","polit"],
    ["–","VBP","–"],
    ["such","JJ","such"],
    ["as","IN","as"],
    {
      "tag":"PERSON",
      "content":
      [
        ["Messrs","NNP","messr"],
        ["Brown","NNP","brown"]
      ]
    },
    ["and","CC","and"],
    {
      "tag":"PERSON",
      "content":
      [
        ["Balls","NNP","bal"]
      ]
    },
    ["–","NNP","–"],
    ["would","MD","would"],
    ["never","RB","nev"],
    ["again","RB","again"],
    ["be","VB","be"],
    ["able","JJ","abl"],
    ["to","TO","to"],
    ["fiddle","VB","fiddl"],
    ["the","DT","the"],
    ["all-important","JJ","all-important"],
    {
      "tag":"ORGANIZATION",
      "content":
      [
        ["Treasury","NNP","treasury"]
      ]
    },
    ["forecasts","NNS","forecast"],
    ["on","IN","on"],
    ["which","WDT","which"],
    ["economic","JJ","econom"],
    ["policy","NN","policy"],
    ["hangs","NNS","hang"],
    [".",".","."]
  ]
},
{
  "tag":"S",
  "content":
  [
    ["I","PRP","I"],
    ["put","VBD","put"],
    ["it","PRP","it"],
    ["to","TO","to"],
    ["one","CD","one"],
    ["insider","NN","insid"],
    ["that","WDT","that"],
    ["forecasts","VBZ","forecast"],
    ["are","VBP","be"],
    ["always","RB","alway"],
    ["a","DT","a"],
    ["matter","NN","mat"],
    ["of","IN","of"],
    ["judgment","NN","judg"],
    [",",",",","],
    ["and","CC","and"],
    ["it","PRP","it"],
    ["might","MD","might"],
    ["have","VB","hav"],
    ["been","VBN","be"],
    ["unfair","JJ","unfair"],
    ["to","TO","to"],
    ["accuse","VB","accus"],
    {
      "tag":"PERSON",
      "content":
      [
        ["Gordon","NNP","gordon"],
        ["Brown","NNP","brown"]
      ]
    },
    ["of","IN","of"],
    ["cooking","VBG","cook"],
    ["the","DT","the"],
    ["books","NNS","book"],
    [".",".","."]
  ]
},
{
  "tag":"S",
  "content":
  [
    ["He","PRP","He"],
    ["paused","VBD","paus"],
    [".",".","."]
  ]
},
{
  "tag":"S",
  "content":
  [
    ["“Unfair","JJ","“unfair"],
    ["?",".","?"],
    ["”",":","”"],
    ["he","PRP","he"],
    ["asked","VBD","ask"],
    [".",".","."]
  ]
},
{
  "tag":"S",
  "content":
  [
    ["“Not","JJ","“not"],
    ["when","WRB","when"],
    ["the","DT","the"],
    ["numbers","NNS","numb"],
    ["are","VBP","be"],
    ["being","VBG","be"],
    ["shaped","VBN","shap"],
    ["by","IN","by"],
    ["phone","NN","phon"],
    ["calls","NNS","cal"],
    ["from","IN","from"],
    ["the","DT","the"],
    {
      "tag":"GPE",
      "content":
      [
        ["Brown","NNP","brown"]
      ]
    },
    ["team","NN","team"],
    ["at","IN","at"],
    ["three","CD","three"],
    ["o’clock","JJ","o’clock"],
    ["in","IN","in"],
    ["the","DT","the"],
    ["morning","NN","morn"],
    ["on","IN","on"],
    ["the","DT","the"],
    ["day","NN","day"],
    ["of","IN","of"],
    ["the","DT","the"],
    ["Budget.”","JJ","budget.”"],
    ["Labour’s","NNS","labour’s"],
    {
      "tag":"PERSON",
      "content":
      [
        ["Alistair","NNP","alistair"],
        ["Darling","NNP","darl"]
      ]
    },
    [",",",",","],
    ["in","IN","in"],
    ["his","PRP$","his"],
    ["book","NN","book"],
    ["Back","NNP","back"],
    ["from","IN","from"],
    ["the","DT","the"],
    {
      "tag":"GPE",
      "content":
      [
        ["Brink","NNP","brink"]
      ]
    },
    [",",",",","],
    ["reports","VBZ","report"],
    ["that","IN","that"],
    ["when","WRB","when"],
    ["he","PRP","he"],
    ["was","VBD","be"],
    ["at","IN","at"],
    ["the","DT","the"],
    ["Treasury","NNP","treasury"],
    ["he","PRP","he"],
    ["had","VBD","hav"],
    ["endless","JJ","endless"],
    ["disputes","NNS","disput"],
    ["with","IN","with"],
    ["Mr","NNP","mr"],
    {
      "tag":"PERSON",
      "content":
      [
        ["Brown","NNP","brown"]
      ]
    },
    ["over","IN","over"],
    ["the","DT","the"],
    ["forecasts","NNS","forecast"],
    [".",".","."]
  ]
},
{
  "tag":"S",
  "content":
  [
    ["“I","NN","“i"],
    ["wanted","VBD","want"],
    ["our","PRP$","our"],
    ["growth","NN","grow"],
    ["projections","NNS","project"],
    ["to","TO","to"],
    ["be","VB","be"],
    ["above","IN","above"],
    ["all","DT","all"],
    ["realistic","JJ","real"],
    [",",",",","],
    ["”",":","”"],
    ["he","PRP","he"],
    ["writes","VBZ","writ"],
    [".",".","."]
  ]
},
{
  "tag":"S",
  "content":
  [
    ["“If","JJ","“if"],
    ["they","PRP","they"],
    ["weren’t","JJ","weren’t"],
    [",",",",","],
    ["no","DT","no"],
    ["one","PRP","one"],
    ["would","MD","would"],
    ["believe","VB","believ"],
    ["anything","NN","anyth"],
    ["we","PRP","we"],
    ["had","VBD","hav"],
    ["to","TO","to"],
    ["say","VB","say"],
    [".",".","."]
  ]
},
{
  "tag":"S",
  "content":
  [
    ["As","IN","As"],
    ["always","RB","alway"],
    [",",",",","],
    {
      "tag":"PERSON",
      "content":
      [
        ["Gordon","NNP","gordon"]
      ]
    },
    ["thought","VBD","think"],
    ["I","PRP","I"],
    ["was","VBD","be"],
    ["being","VBG","be"],
    ["too","RB","too"],
    ["pessimistic.”","JJ","pessimistic.”"],
    ["The","DT","The"],
    ["very","JJ","very"],
    ["existence","NN","ex"],
    ["of","IN","of"],
    ["the","DT","the"],
    {
      "tag":"ORGANIZATION",
      "content":
      [
        ["OBR","NNP","obr"]
      ]
    },
    ["is","VBZ","be"],
    ["a","DT","a"],
    ["reproach","NN","reproach"],
    ["to","TO","to"],
    ["the","DT","the"],
    ["way","NN","way"],
    ["the","DT","the"],
    ["likes","NNS","lik"],
    ["of","IN","of"],
    ["Mr","NNP","mr"],
    {
      "tag":"PERSON",
      "content":
      [
        ["Balls","NNP","bal"]
      ]
    },
    ["ran","VBD","run"],
    ["the","DT","the"],
    {
      "tag":"ORGANIZATION",
      "content":
      [
        ["Treasury","NNP","treasury"]
      ]
    },
    [".",".","."]
  ]
},
{
  "tag":"S",
  "content":
  [
    ["So","IN","So"],
    ["could","MD","could"],
    ["the","DT","the"],
    {
      "tag":"ORGANIZATION",
      "content":
      [
        ["OBR","NNP","obr"]
      ]
    },
    ["look","NN","look"],
    ["at","IN","at"],
    {
      "tag":"ORGANIZATION",
      "content":
      [
        ["Labour’s","JJ","labour’s"]
      ]
    },
    ["policy","NN","policy"],
    ["costings","NNS","cost"],
    ["in","IN","in"],
    ["the","DT","the"],
    ["same","JJ","sam"],
    ["way","NN","way"],
    ["it","PRP","it"],
    ["looks","VBZ","look"],
    ["at","IN","at"],
    ["those","DT","those"],
    ["of","IN","of"],
    ["the","DT","the"],
    ["Government","NNP","govern"],
    [",",",",","],
    ["and","CC","and"],
    ["so","RB","so"],
    ["make","VB","mak"],
    ["an","DT","an"],
    ["honest","JJS","honest"],
    ["man","NN","man"],
    ["of","IN","of"],
    ["the","DT","the"],
    ["shadow","NN","shadow"],
    ["chancellor","NN","chancel"],
    ["?",".","?"]
  ]
},
{
  "tag":"S",
  "content":
  [
    ["Certainly","RB","certain"],
    [",",",",","],
    ["such","JJ","such"],
    ["a","DT","a"],
    ["move","NN","mov"],
    ["would","MD","would"],
    ["put","VB","put"],
    ["the","DT","the"],
    ["economic","JJ","econom"],
    ["policies","NNS","policy"],
    ["of","IN","of"],
    ["the","DT","the"],
    ["major","JJ","maj"],
    ["parties","NNS","party"],
    ["on","IN","on"],
    ["a","DT","a"],
    ["more","RBR","mor"],
    ["equal","JJ","eq"],
    ["footing","NN","foot"],
    [".",".","."]
  ]
},
{
  "tag":"S",
  "content":
  [
    ["And","CC","And"],
    ["whatever","RB","whatev"],
    ["the","DT","the"],
    ["friction","NN","frict"],
    ["years","NNS","year"],
    ["ago","IN","ago"],
    [",",",",","],
    ["Mr","NNP","mr"],
    ["Chote","NNP","chot"],
    ["himself","PRP","himself"],
    ["would","MD","would"],
    ["not","RB","not"],
    ["be","VB","be"],
    ["averse","RB","avers"],
    ["to","TO","to"],
    ["the","DT","the"],
    ["idea","NN","ide"],
    [".",".","."]
  ]
},
{
  "tag":"S",
  "content":
  [
    ["Last","JJ","last"],
    ["year","NN","year"],
    ["he","PRP","he"],
    ["told","VBD","tel"],
    ["the","DT","the"],
    {
      "tag":"ORGANIZATION",
      "content":
      [
        ["Institute","NNP","institut"]
      ]
    },
    ["for","IN","for"],
    ["Government","NNP","govern"],
    ["that","WDT","that"],
    ["he","PRP","he"],
    ["thought","VBD","think"],
    ["it","PRP","it"],
    ["would","MD","would"],
    ["be","VB","be"],
    ["“good","JJ","“good"],
    ["for","IN","for"],
    ["politics”","JJ","politics”"],
    [",",",",","],
    ["though","IN","though"],
    ["it","PRP","it"],
    ["would","MD","would"],
    ["require","VB","requir"],
    ["a","DT","a"],
    ["huge","JJ","hug"],
    ["expansion","NN","expand"],
    ["in","IN","in"],
    ["staff","NN","staff"],
    ["numbers","NNS","numb"],
    [".",".","."]
  ]
},
{
  "tag":"S",
  "content":
  [
    ["The","DT","The"],
    {
      "tag":"ORGANIZATION",
      "content":
      [
        ["OBR","NNP","obr"]
      ]
    },
    ["has","VBZ","hav"],
    ["17","CD","17"],
    ["people","NNS","peopl"],
    [",",",",","],
    ["a","DT","a"],
    ["similar","JJ","simil"],
    ["body","NN","body"],
    ["in","IN","in"],
    {
      "tag":"GPE",
      "content":
      [
        ["Holland","NNP","holland"]
      ]
    },
    ["has","VBZ","hav"],
    ["150","CD","150"],
    [",",",",","],
    ["and","CC","and"],
    ["the","DT","the"],
    ["non-partisan","JJ","non-partis"],
    {
      "tag":"ORGANIZATION",
      "content":
      [
        ["US","NNP","us"],
        ["Congressional","NNP","congress"],
        ["Budget","NNP","budget"]
      ]
    },
    ["Office","NNP","off"],
    ["has","VBZ","hav"],
    ["nearly","RB","near"],
    ["250","CD","250"],
    [".",".","."]
  ]
},
{
  "tag":"S",
  "content":
  [
    ["Until","IN","Until"],
    {
      "tag":"ORGANIZATION",
      "content":
      [
        ["Parliament","NNP","parlia"]
      ]
    },
    ["reviews","NNS","review"],
    ["the","DT","the"],
    {
      "tag":"ORGANIZATION",
      "content":
      [
        ["OBR","NNP","obr"]
      ]
    },
    ["in","IN","in"],
    ["2015","CD","2015"],
    ["–","CD","–"],
    ["after","IN","after"],
    ["the","DT","the"],
    ["election","NN","elect"],
    ["–",":","–"],
    ["the","DT","the"],
    ["office","NN","off"],
    ["is","VBZ","be"],
    ["banned","VBN","ban"],
    ["from","IN","from"],
    ["working","VBG","work"],
    ["with","IN","with"],
    ["other","JJ","oth"],
    ["parties","NNS","party"],
    [".",".","."]
  ]
},
{
  "tag":"S",
  "content":
  [
    ["Yet","CC","Yet"],
    ["the","DT","the"],
    ["possible","JJ","poss"],
    ["expansion","NN","expand"],
    ["of","IN","of"],
    ["its","PRP$","its"],
    ["role","NN","rol"],
    ["raises","NNS","rais"],
    ["wider","NN","wid"],
    ["issues","NNS","issu"],
    [".",".","."]
  ]
},
{
  "tag":"S",
  "content":
  [
    ["No","DT","No"],
    ["one","NN","on"],
    ["would","MD","would"],
    ["question","VB","quest"],
    ["the","DT","the"],
    ["rigour","NN","rigo"],
    ["and","CC","and"],
    ["integrity","NN","integr"],
    ["of","IN","of"],
    ["Mr","NNP","mr"],
    ["Chote","NNP","chot"],
    ["and","CC","and"],
    ["his","PRP$","his"],
    ["staff","NN","staff"],
    [",",",",","],
    ["but","CC","but"],
    ["they","PRP","they"],
    ["are","VBP","be"],
    ["of","IN","of"],
    ["course","NN","cours"],
    ["unelected","VBN","unelect"],
    [".",".","."]
  ]
},
{
  "tag":"S",
  "content":
  [
    ["And","CC","And"],
    ["the","DT","the"],
    ["last","JJ","last"],
    ["few","JJ","few"],
    ["years","NNS","year"],
    ["have","VBP","hav"],
    ["seen","VBN","see"],
    ["a","DT","a"],
    ["tendency","NN","tend"],
    ["for","IN","for"],
    ["politicians","NNS","polit"],
    [",",",",","],
    ["particularly","RB","particul"],
    {
      "tag":"GPE",
      "content":
      [
        ["Labour","NNP","labo"]
      ]
    },
    [",",",",","],
    ["to","TO","to"],
    ["bring","VB","bring"],
    ["in","IN","in"],
    ["unelected","VBN","unelect"],
    ["outsiders","NNS","outsid"],
    ["to","TO","to"],
    ["lend","VB","lend"],
    ["authority","NN","auth"],
    ["and","CC","and"],
    ["credibility","NN","cred"],
    ["to","TO","to"],
    ["their","PRP$","their"],
    ["policies","NNS","policy"],
    [".",".","."]
  ]
},
{
  "tag":"S",
  "content":
  [
    ["Think","NNP","think"],
    ["of","IN","of"],
    {
      "tag":"ORGANIZATION",
      "content":
      [
        ["Lord","NNP","lord"],
        ["Darzi","NNP","darz"]
      ]
    },
    ["in","IN","in"],
    ["health","NN","heal"],
    [",",",",","],
    {
      "tag":"ORGANIZATION",
      "content":
      [
        ["Admiral","NNP","admir"],
        ["Lord","NNP","lord"],
        ["West","NNP","west"]
      ]
    },
    ["in","IN","in"],
    ["defence","NN","def"],
    [",",",",","],
    {
      "tag":"PERSON",
      "content":
      [
        ["Lord","NNP","lord"],
        ["Malloch-Brown","NNP","malloch-brown"]
      ]
    },
    ["in","IN","in"],
    ["foreign","JJ","foreign"],
    ["affairs","NNS","affair"],
    [".",".","."]
  ]
},
{
  "tag":"S",
  "content":
  [
    ["Yet","CC","Yet"],
    ["experts","NNS","expert"],
    ["and","CC","and"],
    ["outside","IN","outside"],
    ["bodies","NNS","body"],
    ["can","MD","can"],
    ["get","VB","get"],
    ["it","PRP","it"],
    ["horribly","RB","horr"],
    ["wrong","JJ","wrong"],
    [".",".","."]
  ]
},
{
  "tag":"S",
  "content":
  [
    ["Only","RB","on"],
    ["this","DT","this"],
    ["week","NN","week"],
    [",",",",","],
    ["the","DT","the"],
    {
      "tag":"ORGANIZATION",
      "content":
      [
        ["IMF","NNP","imf"]
      ]
    },
    ["was","VBD","be"],
    ["forced","VBN","forc"],
    ["to","TO","to"],
    ["double","JJ","doubl"],
    ["its","PRP$","its"],
    ["growth","NN","grow"],
    ["forecasts","NNS","forecast"],
    ["for","IN","for"],
    ["the","DT","the"],
    {
      "tag":"ORGANIZATION",
      "content":
      [
        ["UK","NNP","uk"]
      ]
    },
    ["–","NNP","–"],
    ["much","RB","much"],
    ["to","TO","to"],
    ["the","DT","the"],
    ["satisfaction","NN","satisfact"],
    ["of","IN","of"],
    {
      "tag":"PERSON",
      "content":
      [
        ["George","NNP","georg"],
        ["Osborne","NNP","osborn"]
      ]
    },
    ["and","CC","and"],
    ["the","DT","the"],
    ["Coalition","NNP","coalit"],
    [".",".","."]
  ]
},
{
  "tag":"S",
  "content":
  [
    ["Perhaps","RB","perhap"],
    ["the","DT","the"],
    ["move","NN","mov"],
    ["to","TO","to"],
    ["import","NN","import"],
    ["more","JJR","mor"],
    ["“experts”","JJ","“experts”"],
    ["into","IN","into"],
    ["government","NN","govern"],
    ["–",":","–"],
    ["there","EX","there"],
    ["are","VBP","be"],
    ["plans","NNS","plan"],
    ["to","TO","to"],
    ["bring","VB","bring"],
    ["more","JJR","mor"],
    ["of","IN","of"],
    ["them","PRP","them"],
    ["in","IN","in"],
    ["to","TO","to"],
    ["staff","NN","staff"],
    ["ministerial","NN","min"],
    ["offices","NNS","off"],
    ["–",":","–"],
    ["is","VBZ","be"],
    ["a","DT","a"],
    ["sign","NN","sign"],
    ["of","IN","of"],
    ["how","WRB","how"],
    ["far","JJ","far"],
    ["politicians","NNS","polit"],
    ["are","VBP","be"],
    ["losing","VBG","los"],
    ["confidence","NN","confid"],
    ["in","IN","in"],
    ["their","PRP$","their"],
    ["own","JJ","own"],
    ["ability","NN","abl"],
    ["to","TO","to"],
    ["convince","VB","convint"],
    ["the","DT","the"],
    ["public","NN","publ"],
    ["of","IN","of"],
    ["their","PRP$","their"],
    ["competence","NN","compet"],
    ["and","CC","and"],
    ["probity","NN","prob"],
    [".",".","."]
  ]
},
{
  "tag":"S",
  "content":
  [
    ["Tales","NNS","tal"],
    ["from","IN","from"],
    ["the","DT","the"],
    ["last","JJ","last"],
    ["few","JJ","few"],
    ["years","NNS","year"],
    ["of","IN","of"],
    ["how","WRB","how"],
    ["badly","RB","bad"],
    ["some","DT","some"],
    ["of","IN","of"],
    ["them","PRP","them"],
    ["behave","VBP","behav"],
    ["in","IN","in"],
    ["government","NN","govern"],
    ["will","MD","will"],
    ["make","VB","mak"],
    ["winning","VBG","win"],
    ["public","JJ","publ"],
    ["trust","NN","trust"],
    ["a","DT","a"],
    ["long","JJ","long"],
    ["haul","NN","haul"],
    [".",".","."]
  ]
},
{
  "tag":"S",
  "content":
  [
    ["Labour","PRP$","Labour"],
    ["Politics","NNP","polit"],
    ["»","NNP","»"],
    ["Economics","NNP","econom"],
    ["»","NNP","»"],
    ["Comment","NNP","com"],
    ["»","NNP","»"],
    ["Columnists","NNP","column"],
    ["»","NNP","»"],
    ["Personal","NNP","person"],
    ["View","NNP","view"],
    ["»","NNP","»"],
    ["In","NNP","in"],
    ["politics","NNS","polit"],
    ["Pictures","NNPS","pict"],
    ["of","IN","of"],
    ["the","DT","the"],
    ["day","NN","day"],
    {
      "tag":"PERSON",
      "content":
      [
        ["Blame","NNP","blam"]
      ]
    },
    ["bad","JJ","bad"],
    ["parents","NNS","par"],
    ["for","IN","for"],
    ["Britain’s","NNS","britain’s"],
    ["ills","NNS","il"],
    ["In","IN","In"],
    {
      "tag":"GPE",
      "content":
      [
        ["Labour","NNP","labo"]
      ]
    },
    ["Labour","NNP","labo"],
    ["Conference","NNP","conf"],
    ["2013","CD","2013"],
    {
      "tag":"PERSON",
      "content":
      [
        ["James","NNP","jam"],
        ["Kirkup","NNP","kirkup"]
      ]
    },
    ["'s","POS","'s"],
    ["analysis","NN","analys"],
    {
      "tag":"PERSON",
      "content":
      [
        ["Michael","NNP","michael"],
        ["Deacon","NNP","deacon"]
      ]
    },
    ["'s","POS","'s"],
    ["sketch","NN","sketch"],
    ["Balls","NNS","bal"],
    [":",":",":"],
    ["axe","NN","ax"],
    ["winter","NN","wint"],
    ["fuel","NN","fuel"],
    ["payment","NN","pay"],
    ["for","IN","for"],
    ["richest","JJS","rich"],
    ["pensioners","NNS","pend"],
    ["PMQs","NNP","pmqs"],
    [":",":",":"],
    {
      "tag":"GPE",
      "content":
      [
        ["Miliband","NNP","miliband"]
      ]
    },
    ["grills","NNS","gril"],
    ["PM","NNP","pm"],
    ["over","IN","over"],
    {
      "tag":"GPE",
      "content":
      [
        ["EU","NNP","eu"]
      ]
    },
    ["vote","NN","vot"],
    ["Advertisement","NNP","advert"],
    ["How","NNP","how"],
    ["we","PRP","we"],
    ["moderate","VBP","mod"],
    ["Our","NNP","our"],
    ["new","JJ","new"],
    ["look","NN","look"],
    ["telegraphuk","NN","telegraphuk"],
    ["Please","NNP","pleas"],
    ["enable","JJ","en"],
    {
      "tag":"ORGANIZATION",
      "content":
      [
        ["JavaScript","NNP","javascrib"]
      ]
    },
    ["to","TO","to"],
    ["view","VB","view"],
    ["the","DT","the"],
    ["comments","NNS","com"],
    ["powered","VBD","pow"],
    ["by","IN","by"],
    {
      "tag":"PERSON",
      "content":
      [
        ["Disqus","NNP","disq"]
      ]
    },
    [".",".","."]
  ]
},
{
  "tag":"S",
  "content":
  [
    ["blog","NN","blog"],
    ["comments","NNS","com"],
    ["powered","VBD","pow"],
    ["by","IN","by"],
    {
      "tag":"PERSON",
      "content":
      [
        ["Disqus","NNP","disq"],
        ["Advertisement","NNP","advert"],
        ["Sign","NNP","sign"]
      ]
    },
    ["up","IN","up"],
    ["to","TO","to"],
    {
      "tag":"PERSON",
      "content":
      [
        ["James","NNP","jam"],
        ["Kirkup","NNP","kirkup"]
      ]
    },
    ["'s","POS","'s"],
    ["Evening","NNP","ev"],
    ["Briefing","NNP","brief"],
    ["Sign","NNP","sign"],
    ["up","IN","up"],
    ["to","TO","to"],
    {
      "tag":"PERSON",
      "content":
      [
        ["Benedict","NNP","benedict"],
        ["Brogan","NNP","brog"]
      ]
    },
    ["'s","POS","'s"],
    ["Morning","NNP","morn"],
    ["Briefing","NNP","brief"],
    ["Vote","NNP","vot"],
    ["2015","CD","2015"],
    [":",":",":"],
    ["results","NNS","result"],
    ["forecast","VBP","forecast"],
    ["»",":","»"],
    ["Advertisement","NNP","advert"],
    ["News","NNP","new"],
    ["Most","NNP","most"],
    ["Viewed","NNP","view"],
    ["TODAY","NNP","today"],
    ["PAST","NNP","past"],
    ["WEEK","NNP","week"],
    ["PAST","NNP","past"],
    ["MONTH","NNP","mon"],
    ["Tourist","NNP","tour"],
    ["arrested","VBD","arrest"],
    ["for","IN","for"],
    {
      "tag":"ORGANIZATION",
      "content":
      [
        ["Nazi","NNP","naz"]
      ]
    },
    ["salute","NN","salut"],
    {
      "tag":"PERSON",
      "content":
      [
        ["Blame","NNP","blam"]
      ]
    },
    ["bad","JJ","bad"],
    ["parents","NNS","par"],
    ["for","IN","for"],
    ["Britain’s","NNS","britain’s"],
    ["ills","NNS","il"],
    [",",",",","],
    ["says","VBZ","say"],
    {
      "tag":"PERSON",
      "content":
      [
        ["Sir","NNP","sir"],
        ["Michael","NNP","michael"],
        ["Wilshaw","NNP","wilshaw"],
        ["Madeleine","NNP","madelein"]
      ]
    },
    ["McCann","NNP","mccann"],
    [":",":",":"],
    ["two","CD","two"],
    ["callers","NNS","cal"],
    ["name","VBD","nam"],
    ["man","NN","man"],
    ["in","IN","in"],
    ["e-fit","JJ","e-fit"],
    ["pictures","NNS","pict"],
    {
      "tag":"PERSON",
      "content":
      [
        ["Discipline","NNP","disciplin"],
        ["Plebgate","NNP","plebg"]
      ]
    },
    ["police","NN","pol"],
    ["and","CC","and"],
    ["say","VB","say"],
    ["sorry","JJ","sorry"],
    ["to","TO","to"],
    {
      "tag":"PERSON",
      "content":
      [
        ["Andrew","NNP","andrew"],
        ["Mitchell","NNP","mitchel"]
      ]
    },
    [",",",",","],
    {
      "tag":"PERSON",
      "content":
      [
        ["Theresa","NNP","theres"],
        ["May","NNP","may"]
      ]
    },
    ["tells","VBZ","tel"],
    ["forces","NNS","forc"],
    {
      "tag":"ORGANIZATION",
      "content":
      [
        ["Kate","NNP","kat"]
      ]
    },
    ["McCann","NNP","mccann"],
    ["refused","VBD","refus"],
    ["to","TO","to"],
    ["answer","VB","answ"],
    ["48","CD","48"],
    ["questions","NNS","quest"],
    {
      "tag":"PERSON",
      "content":
      [
        ["Royal","NNP","roy"]
      ]
    },
    ["train","NN","train"],
    ["may","MD","may"],
    ["hit","VB","hit"],
    ["the","DT","the"],
    ["buffers","NNS","buff"],
    ["after","IN","after"],
    {
      "tag":"PERSON",
      "content":
      [
        ["Queen","NNP","queen"]
      ]
    },
    ["'s","POS","'s"],
    ["treasurer","NN","treas"],
    ["says","VBZ","say"],
    ["cost","NN","cost"],
    ["of","IN","of"],
    ["replacing","VBG","replac"],
    ["it","PRP","it"],
    ["is","VBZ","be"],
    ["'stagger","JJ","'stagger"]
  ]
}]