[
{
  "tag":"S",
  "content":
  [
    ["Friday","NNP","friday"],
    ["|",":","|"],
    ["October","NNP","octob"],
    ["11","CD","11"],
    [",",",",","],
    ["2013","CD","2013"],
    {
      "tag":"ORGANIZATION",
      "content":
      [
        ["HOMEPHOTO","NNP","homephoto"]
      ]
    },
    ["GALLERY","NNP","gallery"],
    ["EVENT","NNP","ev"],
    ["GUIDE","NNP","guid"],
    ["VIDEOS","NNP","video"],
    ["DISCUSSION","NNP","discuss"],
    ["FORUM","NNP","for"],
    ["BLOG","NNP","blog"],
    ["CARTOONS","NNP","cartoon"],
    ["Star","NNP","star"],
    ["ePaper","NNP","epap"],
    ["RSS","NNP","rss"],
    ["Feed","NNP","fee"],
    ["Follow","NNP","follow"],
    ["us","PRP","us"],
    ["on","IN","on"],
    {
      "tag":"PERSON",
      "content":
      [
        ["Twitter","NNP","twit"],
        ["Star","NNP","star"]
      ]
    },
    ["YouTube","NNP","youtub"],
    ["Channel","NNP","channel"],
    ["Star","NNP","star"],
    ["Sport","NNP","sport"],
    ["IN","NNP","in"],
    ["TODAY","NNP","today"],
    ["'S","POS","'S"],
    ["PAPER","NNP","pap"],
    [":",":",":"],
    ["News","NNP","new"],
    ["Sport","NNP","sport"],
    ["Entertainment","NNP","entertain"],
    {
      "tag":"ORGANIZATION",
      "content":
      [
        ["Tell","NNP","tel"],
        ["Me","NNP","me"]
      ]
    },
    ["Pastor","NNP","past"],
    {
      "tag":"PERSON",
      "content":
      [
        ["Features","NNP","feat"]
      ]
    },
    ["INTERACTIVE","NNP","interact"],
    [":",":",":"],
    ["Discussion","NNP","discuss"],
    ["Forum","NNP","for"],
    ["'STAR","NNP","'star"],
    ["WERKS'","NNP","werks'"],
    ["Photo","NNP","photo"],
    {
      "tag":"PERSON",
      "content":
      [
        ["Gallery","NNP","gallery"],
        ["Event","NNP","ev"],
        ["Guide","NNP","guid"],
        ["Videos","NNP","video"],
        ["Queen","NNP","queen"],
        ["Merlene","NNP","merl"]
      ]
    },
    ["still","RB","stil"],
    ["rules","VBZ","rul"],
    [",",",",","],
    ["survey","NN","survey"],
    ["finds","NNS","find"],
    {
      "tag":"PERSON",
      "content":
      [
        ["Leighton","NNP","leighton"],
        ["LevyStar","NNP","levyst"]
      ]
    },
    ["WriterMore","NNP","writerm"],
    ["than","IN","than"],
    ["a","DT","a"],
    ["decade","NN","decad"],
    ["since","IN","since"],
    ["she","PRP","she"],
    ["became","VBD","becom"],
    ["a","DT","a"],
    ["citizen","NN","cit"],
    ["of","IN","of"],
    ["another","DT","another"],
    ["country","NN","country"],
    ["and","CC","and"],
    ["no","DT","no"],
    ["longer","NN","long"],
    ["represents","VBZ","repres"],
    {
      "tag":"PERSON",
      "content":
      [
        ["Jamaica","NNP","jamaic"]
      ]
    },
    ["at","IN","at"],
    ["global","JJ","glob"],
    ["athletic","JJ","athlet"],
    ["events","NNS","ev"],
    [",",",",","],
    ["the","DT","the"],
    ["majority","NN","maj"],
    ["of","IN","of"],
    ["Jamaicans","NNPS","jama"],
    ["still","RB","stil"],
    ["see","VB","see"],
    {
      "tag":"PERSON",
      "content":
      [
        ["Merlene","NNP","merl"],
        ["Ottey","NNP","ottey"]
      ]
    },
    ["as","IN","as"],
    {
      "tag":"PERSON",
      "content":
      [
        ["Jamaica","NNP","jamaic"]
      ]
    },
    ["'s","POS","'s"],
    ["greatest-ever","JJ","greatest-ever"],
    ["female","NN","fem"],
    ["sprinter.This","NNS","sprinter.this"],
    ["according","VBG","accord"],
    ["to","TO","to"],
    ["a","DT","a"],
    ["survey","NN","survey"],
    ["conducted","VBN","conduc"],
    ["by","IN","by"],
    ["communication","NN","commun"],
    ["experts","NNS","expert"],
    ["Dr","NNP","dr"],
    {
      "tag":"PERSON",
      "content":
      [
        ["Paul","NNP","paul"],
        ["Andrew","NNP","andrew"],
        ["Bourne","NNP","bourn"]
      ]
    },
    [",",",",","],
    {
      "tag":"PERSON",
      "content":
      [
        ["Conroy","NNP","conroy"],
        ["Julian","NNP","jul"]
      ]
    },
    ["and","CC","and"],
    ["O'Neil","JJ","o'neil"],
    ["Riley","NNP","riley"],
    [".",".","."]
  ]
},
{
  "tag":"S",
  "content":
  [
    ["Dr","NNP","dr"],
    ["Bourne","NNP","bourn"],
    ["is","VBZ","be"],
    ["the","DT","the"],
    ["head","NN","head"],
    ["of","IN","of"],
    ["the","DT","the"],
    {
      "tag":"ORGANIZATION",
      "content":
      [
        ["Sociomedical","NNP","sociom"],
        ["Institute","NNP","institut"]
      ]
    },
    ["and","CC","and"],
    ["a","DT","a"],
    ["former","JJ","form"],
    ["research","NN","research"],
    ["fellow","NN","fellow"],
    ["at","IN","at"],
    ["the","DT","the"],
    {
      "tag":"ORGANIZATION",
      "content":
      [
        ["University","NNP","univers"]
      ]
    },
    ["of","IN","of"],
    ["the","DT","the"],
    {
      "tag":"LOCATION",
      "content":
      [
        ["West","NNP","west"],
        ["Indies","NNP","indy"]
      ]
    },
    [".",".","."]
  ]
},
{
  "tag":"S",
  "content":
  [
    {
      "tag":"GPE",
      "content":
      [
        ["Julian","JJ","jul"]
      ]
    },
    ["is","VBZ","be"],
    ["a","DT","a"],
    ["development","NN","develop"],
    ["and","CC","and"],
    ["convener","NN","conv"],
    ["of","IN","of"],
    ["the","DT","the"],
    {
      "tag":"ORGANIZATION",
      "content":
      [
        ["Association","NNP","assocy"]
      ]
    },
    ["of","IN","of"],
    {
      "tag":"ORGANIZATION",
      "content":
      [
        ["Media","NNP","med"],
        ["Professionals","NNPS","profess"]
      ]
    },
    [",",",",","],
    ["which","WDT","which"],
    ["has","VBZ","hav"],
    ["as","RB","as"],
    ["its","PRP$","its"],
    ["main","JJ","main"],
    ["mandate","NN","mand"],
    [",",",",","],
    ["the","DT","the"],
    ["creation","NN","cre"],
    ["of","IN","of"],
    ["media","NNS","med"],
    ["products","NNS","produc"],
    ["or","CC","or"],
    ["content","NN","cont"],
    [",",",",","],
    ["media","NNS","med"],
    ["and","CC","and"],
    ["communication","NN","commun"],
    ["training","NN","train"],
    ["and","CC","and"],
    ["applied","VBD","apply"],
    ["research.From","JJ","research.from"],
    ["an","DT","an"],
    ["islandwide","NN","islandwid"],
    ["survey","NN","survey"],
    ["conducted","VBD","conduc"],
    ["between","IN","between"],
    ["July","NNP","july"],
    ["and","CC","and"],
    ["August","NNP","august"],
    ["2013","CD","2013"],
    [",",",",","],
    ["results","NNS","result"],
    ["of","IN","of"],
    ["their","PRP$","their"],
    ["findings","NNS","find"],
    ["were","VBD","be"],
    ["condensed","VBN","condens"],
    ["in","IN","in"],
    ["a","DT","a"],
    ["report","NN","report"],
    ["called","VBN","cal"],
    ["Probing","NNP","prob"],
    {
      "tag":"PERSON",
      "content":
      [
        ["Jamaica","NNP","jamaic"]
      ]
    },
    ["'s","POS","'s"],
    ["perception","NN","perceiv"],
    ["on","IN","on"],
    {
      "tag":"ORGANIZATION",
      "content":
      [
        ["Sporting","NNP","sport"],
        ["Issues","NNPS","issu"]
      ]
    },
    [":",":",":"],
    ["An","DT","An"],
    ["empirical","JJ","empir"],
    ["investigation.The","NN","investigation.the"],
    ["report","NN","report"],
    ["covers","VBZ","cov"],
    ["a","DT","a"],
    ["wide","JJ","wid"],
    ["range","NN","rang"],
    ["of","IN","of"],
    {
      "tag":"GPE",
      "content":
      [
        ["Jamaican","NNP","jama"]
      ]
    },
    ["sporting","NN","sport"],
    ["issues","NNS","issu"],
    ["across","IN","across"],
    ["a","DT","a"],
    ["variety","NN","vary"],
    ["of","IN","of"],
    ["sports","NNS","sport"],
    [",",",",","],
    ["among","IN","among"],
    ["them","PRP","them"],
    ["the","DT","the"],
    ["fact","NN","fact"],
    ["that","IN","that"],
    ["48.5","CD","48.5"],
    ["per","IN","per"],
    ["cent","NN","cent"],
    ["of","IN","of"],
    ["Jamaicans","NNPS","jama"],
    ["believe","VBP","believ"],
    {
      "tag":"PERSON",
      "content":
      [
        ["Ottey","NNP","ottey"]
      ]
    },
    ["to","TO","to"],
    ["be","VB","be"],
    {
      "tag":"PERSON",
      "content":
      [
        ["Jamaica","NNP","jamaic"]
      ]
    },
    ["'s","POS","'s"],
    ["greatest-ever","JJ","greatest-ever"],
    ["female","NN","fem"],
    ["sprinter.Ottey","NN","sprinter.ottey"],
    [",",",",","],
    ["now","RB","now"],
    ["53","CD","53"],
    [",",",",","],
    ["has","VBZ","hav"],
    ["represented","VBN","repres"],
    {
      "tag":"PERSON",
      "content":
      [
        ["Jamaica","NNP","jamaic"]
      ]
    },
    ["at","IN","at"],
    ["seven","CD","seven"],
    ["Olympic","NNP","olymp"],
    ["Games","NNP","gam"],
    ["between","IN","between"],
    ["1980","CD","1980"],
    ["and","CC","and"],
    ["2000","CD","2000"],
    [",",",",","],
    ["winning","JJ","win"],
    ["nine","CD","nine"],
    ["medals","NNS","med"],
    [",",",",","],
    ["three","CD","three"],
    ["silver","NN","silv"],
    ["and","CC","and"],
    ["six","CD","six"],
    ["bronze","NN","bronz"],
    ["medals","NNS","med"],
    [".",".","."]
  ]
},
{
  "tag":"S",
  "content":
  [
    ["Between","IN","Between"],
    ["1983","CD","1983"],
    ["and","CC","and"],
    ["1997","CD","1997"],
    [",",",",","],
    {
      "tag":"PERSON",
      "content":
      [
        ["Ottey","NNP","ottey"]
      ]
    },
    ["won","VBD","win"],
    ["three","CD","three"],
    ["gold","NN","gold"],
    ["medals","NNS","med"],
    ["at","IN","at"],
    ["the","DT","the"],
    {
      "tag":"ORGANIZATION",
      "content":
      [
        ["IAAF","NNP","iaaf"]
      ]
    },
    ["World","NNP","world"],
    ["Athletic","NNP","athlet"],
    ["Championships","NNP","champ"],
    ["as","IN","as"],
    ["well","RB","wel"],
    ["as","IN","as"],
    ["four","CD","four"],
    ["silver","NN","silv"],
    ["and","CC","and"],
    ["seven","CD","seven"],
    ["bronze","NN","bronz"],
    ["medals","NNS","med"],
    [".",".","."]
  ]
},
{
  "tag":"S",
  "content":
  [
    ["She","PRP","She"],
    ["also","RB","also"],
    ["won","VBD","win"],
    ["three","CD","three"],
    ["World","NNP","world"],
    ["Indoor","NNP","indo"],
    ["gold","NN","gold"],
    ["medals","NNS","med"],
    [",",",",","],
    ["two","CD","two"],
    ["silver","NN","silv"],
    ["and","CC","and"],
    ["a","DT","a"],
    ["bronze","NN","bronz"],
    ["medal.The","NN","medal.the"],
    ["world-famous","JJ","world-famous"],
    ["sprinter","NN","sprinter"],
    ["who","WP","who"],
    ["now","RB","now"],
    ["competes","VBZ","compet"],
    ["for","IN","for"],
    {
      "tag":"GPE",
      "content":
      [
        ["Slovenia","NNP","sloven"]
      ]
    },
    [",",",",","],
    ["competing","VBG","compet"],
    ["for","IN","for"],
    ["her","PRP$","her"],
    ["adopted","VBN","adopt"],
    ["country","NN","country"],
    ["as","IN","as"],
    ["a","DT","a"],
    ["member","NN","memb"],
    ["of","IN","of"],
    ["the","DT","the"],
    ["sprint","NN","sprint"],
    ["relay","NN","relay"],
    ["team","NN","team"],
    ["at","IN","at"],
    ["the","DT","the"],
    ["2012","CD","2012"],
    {
      "tag":"GPE",
      "content":
      [
        ["European","JJ","europ"]
      ]
    },
    ["championships","NNS","champ"],
    [",",",",","],
    ["also","RB","also"],
    ["won","VBD","win"],
    ["three","CD","three"],
    ["gold","NN","gold"],
    ["medals","NNS","med"],
    ["at","IN","at"],
    ["the","DT","the"],
    {
      "tag":"ORGANIZATION",
      "content":
      [
        ["Commonwealth","NNP","commonweal"]
      ]
    },
    ["Games","NNP","gam"],
    ["while","IN","while"],
    ["representing","VBG","repres"],
    ["Jamaica.A","NNP","jamaica."],
    ["greater","JJR","gre"],
    ["number","NN","numb"],
    ["of","IN","of"],
    ["women","NNS","wom"],
    [",",",",","],
    ["52","CD","52"],
    ["per","IN","per"],
    ["cent","NN","cent"],
    [",",",",","],
    ["believe","VBP","believ"],
    {
      "tag":"PERSON",
      "content":
      [
        ["Ottey","NNP","ottey"]
      ]
    },
    ["to","TO","to"],
    ["be","VB","be"],
    ["the","DT","the"],
    ["greatest","JJS","gre"],
    [",",",",","],
    ["while","IN","while"],
    ["only","RB","on"],
    ["46.5","CD","46.5"],
    ["per","IN","per"],
    ["cent","NN","cent"],
    ["of","IN","of"],
    ["men","NNS","men"],
    ["polled","VBN","pol"],
    ["believe","VBP","believ"],
    ["that","IN","that"],
    ["to","TO","to"],
    ["be","VB","be"],
    ["the","DT","the"],
    ["case.But","JJ","case.but"],
    [",",",",","],
    ["while","IN","while"],
    {
      "tag":"PERSON",
      "content":
      [
        ["Ottey","NNP","ottey"]
      ]
    },
    ["still","RB","stil"],
    ["dominates","VBZ","domin"],
    ["in","IN","in"],
    ["the","DT","the"],
    ["minds","NNS","mind"],
    ["of","IN","of"],
    ["the","DT","the"],
    ["majority","NN","maj"],
    ["of","IN","of"],
    {
      "tag":"GPE",
      "content":
      [
        ["Jamaicans","NNPS","jama"]
      ]
    },
    [",",",",","],
    {
      "tag":"PERSON",
      "content":
      [
        ["Jamaica","NNP","jamaic"]
      ]
    },
    ["'s","POS","'s"],
    ["newest","JJS","new"],
    ["global","JJ","glob"],
    ["star","NN","star"],
    ["Shelly","RB","shel"],
    {
      "tag":"PERSON",
      "content":
      [
        ["Ann","NNP","an"]
      ]
    },
    ["Fraser-Pryce","NNP","fraser-pryce"],
    ["is","VBZ","be"],
    ["beginning","VBG","begin"],
    ["to","TO","to"],
    ["sway","VB","sway"],
    ["some","DT","some"],
    ["Jamaicans","NNPS","jama"],
    ["that","IN","that"],
    ["she","PRP","she"],
    ["is","VBZ","be"],
    ["the","DT","the"],
    ["best","JJS","best"],
    [".",".","."]
  ]
},
{
  "tag":"S",
  "content":
  [
    ["Approximately","RB","approxim"],
    ["28","CD","28"],
    ["per","IN","per"],
    ["cent","NN","cent"],
    ["of","IN","of"],
    ["the","DT","the"],
    {
      "tag":"ORGANIZATION",
      "content":
      [
        ["Jamaicans","NNPS","jama"]
      ]
    },
    ["polled","VBD","pol"],
    ["believe","VBP","believ"],
    ["that","IN","that"],
    ["the","DT","the"],
    ["26-year-old","JJ","26-year-old"],
    ["two-time","JJ","two-time"],
    ["Olympic","NNP","olymp"],
    ["100-metre","CD","100-metre"],
    ["champion","NN","champ"],
    ["and","CC","and"],
    ["two-time","JJ","two-time"],
    ["World","NNP","world"],
    ["100m","CD","100m"],
    ["champion","NN","champ"],
    ["is","VBZ","be"],
    ["the","DT","the"],
    ["greatest","JJS","gre"],
    {
      "tag":"GPE",
      "content":
      [
        ["Jamaican","NNP","jama"]
      ]
    },
    ["female","NN","fem"],
    ["sprinter","NN","sprinter"],
    [".",".","."]
  ]
},
{
  "tag":"S",
  "content":
  [
    ["Fraser-Pryce","NN","fraser-pryce"],
    ["recently","RB","rec"],
    ["dominated","VBD","domin"],
    ["the","DT","the"],
    {
      "tag":"ORGANIZATION",
      "content":
      [
        ["IAAF","NNP","iaaf"]
      ]
    },
    ["World","NNP","world"],
    ["Athletic","NNP","athlet"],
    ["Championships","NNP","champ"],
    ["held","VBD","hold"],
    ["in","IN","in"],
    {
      "tag":"GPE",
      "content":
      [
        ["Moscow","NNP","moscow"]
      ]
    },
    ["winning","NN","win"],
    ["three","CD","three"],
    ["gold","NN","gold"],
    ["medals","NNS","med"],
    [",",",",","],
    ["the","DT","the"],
    ["first","JJ","first"],
    ["time","NN","tim"],
    ["a","DT","a"],
    {
      "tag":"GPE",
      "content":
      [
        ["Jamaican","NNP","jama"]
      ]
    },
    ["female","NN","fem"],
    ["sprinter","NN","sprinter"],
    ["had","VBD","hav"],
    ["ever","RB","ev"],
    ["accomplished","VBN","accompl"],
    ["such","JJ","such"],
    ["a","DT","a"],
    ["feat","NN","feat"],
    [".",".","."]
  ]
},
{
  "tag":"S",
  "content":
  [
    ["Fraser-Pryce","NN","fraser-pryce"],
    ["is","VBZ","be"],
    ["also","RB","also"],
    ["the","DT","the"],
    ["fastest","JJS","fast"],
    {
      "tag":"GPE",
      "content":
      [
        ["Jamaican","NNP","jama"]
      ]
    },
    ["over","IN","over"],
    ["the","DT","the"],
    ["100m","CD","100m"],
    [",",",",","],
    ["with","IN","with"],
    ["a","DT","a"],
    ["time","NN","tim"],
    ["of","IN","of"],
    ["10.70","CD","10.70"],
    [".",".","."]
  ]
},
{
  "tag":"S",
  "content":
  [
    ["Since","IN","Since"],
    ["2008","CD","2008"],
    [",",",",","],
    ["when","WRB","when"],
    ["she","PRP","she"],
    ["first","RB","first"],
    ["burst","JJ","burst"],
    ["into","IN","into"],
    ["the","DT","the"],
    ["global","JJ","glob"],
    ["scene","NN","scen"],
    ["The","DT","The"],
    {
      "tag":"ORGANIZATION",
      "content":
      [
        ["Pocket","NNP","pocket"],
        ["Rocket","NNP","rocket"]
      ]
    },
    ["as","IN","as"],
    ["she","PRP","she"],
    ["is","VBZ","be"],
    ["called","VBN","cal"],
    [",",",",","],
    ["has","VBZ","hav"],
    ["won","VBN","win"],
    ["seven","CD","seven"],
    ["gold","NN","gold"],
    ["medals","NNS","med"],
    ["at","IN","at"],
    ["major","JJ","maj"],
    ["championships.An","JJ","championships.an"],
    ["equal","JJ","eq"],
    ["number","NN","numb"],
    ["of","IN","of"],
    ["men","NNS","men"],
    ["and","CC","and"],
    ["women","NNS","wom"],
    ["(",":","("],
    ["27.74","CD","27.74"],
    ["per","IN","per"],
    ["cent","NN","cent"],
    ["and","CC","and"],
    ["27.78","CD","27.78"],
    ["per","IN","per"],
    ["cent","NN","cent"],
    [",",",",","],
    ["respectively","RB","respect"],
    [")",":",")"],
    ["see","VB","see"],
    {
      "tag":"ORGANIZATION",
      "content":
      [
        ["SAFP","NNP","safp"]
      ]
    },
    ["as","IN","as"],
    ["the","DT","the"],
    ["greatest-ever","JJ","greatest-ever"],
    ["female","NN","fem"],
    ["sprinter.Veronica","NNP","sprinter.veronica"],
    {
      "tag":"PERSON",
      "content":
      [
        ["Campbell","NNP","campbel"],
        ["Brown","NNP","brown"]
      ]
    },
    ["captured","VBD","capt"],
    ["approximately","RB","approxim"],
    ["21","CD","21"],
    ["per","IN","per"],
    ["cent","NN","cent"],
    ["of","IN","of"],
    ["the","DT","the"],
    ["vote","NN","vot"],
    [".",".","."]
  ]
},
{
  "tag":"S",
  "content":
  [
    ["The","DT","The"],
    ["two-time","JJ","two-time"],
    ["Olympic","NNP","olymp"],
    ["200-metre","CD","200-metre"],
    ["champion","NN","champ"],
    ["has","VBZ","hav"],
    ["won","VBN","win"],
    ["16","CD","16"],
    ["international","JJ","intern"],
    ["gold","NN","gold"],
    ["medals","NNS","med"],
    ["representing","VBG","repres"],
    {
      "tag":"PERSON",
      "content":
      [
        ["Jamaica","NNP","jamaic"]
      ]
    },
    ["including","VBG","includ"],
    ["three","CD","three"],
    ["Olympic","NNP","olymp"],
    ["gold","NN","gold"],
    ["medals","NNS","med"],
    [",",",",","],
    ["two","CD","two"],
    ["World","NNP","world"],
    ["Championship","NNP","champ"],
    ["gold","NN","gold"],
    ["medals","NNS","med"],
    ["and","CC","and"],
    ["two","CD","two"],
    ["World","NNP","world"],
    ["Indoor","NNP","indo"],
    ["gold","NN","gold"],
    ["medals.FileMerlene","NN","medals.filemerlene"],
    {
      "tag":"ORGANIZATION",
      "content":
      [
        ["OtteyA","NNP","ottey"]
      ]
    },
    ["greater","NN","gre"],
    ["number","NN","numb"],
    ["of","IN","of"],
    ["women","NNS","wom"],
    [",",",",","],
    ["52","CD","52"],
    ["per","IN","per"],
    ["cent","NN","cent"],
    [",",",",","],
    ["believe","VBP","believ"],
    {
      "tag":"PERSON",
      "content":
      [
        ["Ottey","NNP","ottey"]
      ]
    },
    ["to","TO","to"],
    ["be","VB","be"],
    ["the","DT","the"],
    ["greatest","JJS","gre"],
    [",",",",","],
    ["while","IN","while"],
    ["only","RB","on"],
    ["46.5","CD","46.5"],
    ["per","IN","per"],
    ["cent","NN","cent"],
    ["of","IN","of"],
    ["men","NNS","men"],
    ["polled","VBN","pol"],
    ["believe","VBP","believ"],
    ["that","IN","that"],
    ["to","TO","to"],
    ["be","VB","be"],
    ["the","DT","the"],
    ["case","NN","cas"],
    [".",".","."]
  ]
},
{
  "tag":"S",
  "content":
  [
    {
      "tag":"GPE",
      "content":
      [
        ["Home","NN","hom"]
      ]
    },
    ["|","``","|"],
    {
      "tag":"PERSON",
      "content":
      [
        ["Gleaner","NNP","gle"],
        ["Blogs","NNP","blog"]
      ]
    },
    ["|","NNP","|"],
    {
      "tag":"PERSON",
      "content":
      [
        ["Gleaner","NNP","gle"],
        ["Online","NNP","onlin"]
      ]
    },
    ["|","NNP","|"],
    ["Go-Jamaica","NNP","go-jamaica"],
    ["|","NNP","|"],
    ["Go-Local","JJ","go-local"],
    ["|","NN","|"],
    {
      "tag":"PERSON",
      "content":
      [
        ["Feedback","NNP","feedback"]
      ]
    },
    ["|","NNP","|"],
    ["Disclaimer","NNP","disclaim"],
    ["|","NNP","|"],
    ["Advertisement","NNP","advert"],
    ["|","NNP","|"],
    ["Privacy","NNP","priv"],
    ["Policy","NNP","policy"],
    ["|","NNP","|"],
    ["Contact","NNP","contact"],
    ["Us","NNP","us"]
  ]
}]