[
{
  "tag":"S",
  "content":
  [
    ["Datosfreak","NNP","datosfreak"],
    ["2575","CD","2575"],
    ["datos","NNS","dato"],
    ["curiosos","NNS","curioso"],
    ["y","VBP","y"],
    ["más","JJ","más"],
    ["(","NN","("],
    ["13","CD","13"],
    ["sin","NN","sin"],
    ["fuente","NN","fuent"],
    [")",":",")"],
    [".",".","."]
  ]
},
{
  "tag":"S",
  "content":
  [
    {
      "tag":"GPE",
      "content":
      [
        ["Todos","NNP","todo"]
      ]
    },
    ["ellos","NNS","ello"],
    [",",",",","],
    ["ingeniosamente","VBP","ingeniosa"],
    ["sazonados","NNS","sazonado"],
    ["con","IN","con"],
    ["comentarios","NNS","comentario"],
    ["y","VBP","y"],
    {
      "tag":"PERSON",
      "content":
      [
        ["Bonus","NNP","bon"],
        ["Tracks","NNP","track"]
      ]
    },
    ["!",".","!"]
  ]
},
{
  "tag":"S",
  "content":
  [
    {
      "tag":"GPE",
      "content":
      [
        ["Registrarse","NNP","registrars"]
      ]
    },
    {
      "tag":"PERSON",
      "content":
      [
        ["Login","NNP","login"],
        ["Aportar","NNP","aport"],
        ["Acerca","NNP","acerc"]
      ]
    },
    ["de","IN","de"],
    {
      "tag":"PERSON",
      "content":
      [
        ["Version","NNP","vert"],
        ["gráfica","NNP","gráfica"],
        ["Datos","NNP","dato"]
      ]
    },
    ["nuevos","VBZ","nuevo"],
    ["en","VBN","en"],
    ["...",":","..."],
    ["y","NN","y"],
    ["en","NN","en"],
    {
      "tag":"PERSON",
      "content":
      [
        ["Hola","NNP","hol"]
      ]
    },
    ["!",".","!"],
    [",",",",","],
    ["invitado","VBP","invitado"],
    [".",".","."]
  ]
},
{
  "tag":"S",
  "content":
  [
    ["login","NN","login"],
    {
      "tag":"ORGANIZATION",
      "content":
      [
        ["Categorias","NNP","categoria"],
        ["Home","NNP","hom"],
        ["Seres","NNP","ser"]
      ]
    },
    ["Vivos","NNP","vivo"],
    ["415","CD","415"],
    ["Etimología","NNP","etimologí"],
    ["245","CD","245"],
    ["Anecdotario","NNP","anecdotario"],
    ["359","CD","359"],
    ["Conocimiento","NNP","conocimiento"],
    ["244","CD","244"],
    ["Día","NNP","día"],
    ["a","DT","a"],
    ["día","NNP","día"],
    ["268","CD","268"],
    ["Históricos","NNS","histórico"],
    ["321","CD","321"],
    ["Países","NNS","país"],
    ["282","CD","282"],
    ["Cultura","NNP","cultur"],
    ["435","CD","435"],
    ["Han","NNP","han"],
    ["sido","NN","sido"],
    ["cuestionados","NNS","cuestionado"],
    {
      "tag":"PERSON",
      "content":
      [
        ["Desmitificaciones","NNP","desmitificac"]
      ]
    },
    ["Permanecerán","NNP","permanecerán"],
    ["en","NN","en"],
    ["las","VBZ","las"],
    ["tinieblas","NNS","tiniebla"],
    ["No","DT","No"],
    ["son","NN","son"],
    {
      "tag":"PERSON",
      "content":
      [
        ["Dato","NNP","dato"],
        ["Freak","NNP","freak"]
      ]
    },
    ["!",".","!"]
  ]
},
{
  "tag":"S",
  "content":
  [
    ["Lo","NNP","lo"],
    ["que","VBP","que"],
    ["se","NN","se"],
    ["dice","NN","dic"],
    ["''","''","''"],
    ["``","``","``"],
    ["-",":","-"],
    ["Anónimo","JJ","anónimo"],
    ["Mas","NNP","mas"],
    ["votados","NNS","votado"],
    ["Genio","NNP","genio"],
    ["por","NN","por"],
    ["accidente","NN","accid"],
    ["77","CD","77"],
    ["Travesti","NNP","travest"],
    ["de","IN","de"],
    ["por","NN","por"],
    ["vida","NN","vid"],
    ["65","CD","65"],
    ["La","NNP","la"],
    ["gallina","NN","gallin"],
    ["sin","NN","sin"],
    ["cabeza","NN","cabez"],
    ["64","CD","64"],
    {
      "tag":"ORGANIZATION",
      "content":
      [
        ["Medicina","NNP","medicin"]
      ]
    },
    ["orgásmica","NNP","orgásmic"],
    ["48","CD","48"],
    ["La","NNP","la"],
    ["vida","NN","vid"],
    ["antes","VBZ","ant"],
    ["de","IN","de"],
    ["la","DT","la"],
    ["píldora","NNP","píldora"],
    ["47","CD","47"],
    ["Religión","JJ","religión"],
    ["melipillana","NNS","melipillan"],
    ["46","CD","46"],
    ["La","NNP","la"],
    ["cortadora","NN","cortador"],
    ["voladora","NN","volador"],
    ["45","CD","45"],
    ["¿Héroe","JJ","¿héroe"],
    ["o","NN","o"],
    ["heroina","NN","heroin"],
    ["?",".","?"]
  ]
},
{
  "tag":"S",
  "content":
  [
    ["41","CD","41"],
    ["Apio","NNP","apio"],
    ["light","NN","light"],
    ["41","CD","41"],
    ["Imagino","NNP","imagino"],
    ["que","NN","que"],
    ["los","NNS","los"],
    ["calientes","VBZ","caly"],
    ["son","NN","son"],
    ["los","NNS","los"],
    ["...",":","..."],
    ["39","CD","39"],
    ["Mas","NNP","mas"],
    ["recientes","VBZ","recy"],
    ["''","''","''"],
    ["¿Qué","-NONE-","¿Qué"],
    ["te","VBP","te"],
    ["gustaría","JJ","gustarí"],
    ["ser","NN","ser"],
    ["cuando","NN","cuando"],
    ["grande","NN","grand"],
    ["?",".","?"]
  ]
},
{
  "tag":"S",
  "content":
  [
    ["``","``","``"],
    ["hace","NN","hac"],
    ["2","CD","2"],
    ["días","JJ","día"],
    [",",",",","],
    ["17","CD","17"],
    ["horas","NNS","hora"],
    ["''","''","''"],
    {
      "tag":"PERSON",
      "content":
      [
        ["Mmmmh","NNP","mmmmh"]
      ]
    },
    ["...",":","..."],
    ["¿Hemos","NNS","¿hemos"],
    ["hablado","VBP","hablado"],
    ["antes","NNS","ant"],
    ["?",".","?"]
  ]
},
{
  "tag":"S",
  "content":
  [
    ["``","``","``"],
    ["hace","NN","hac"],
    ["6","CD","6"],
    ["días","JJ","día"],
    [",",",",","],
    ["1","CD","1"],
    ["hora","NN","hor"],
    ["Un","NNP","un"],
    ["cómodo","NNP","cómodo"],
    ["modo","NN","modo"],
    ["de","IN","de"],
    ["ser","NN","ser"],
    ["gladiador","NN","gladiad"],
    ["hace","NN","hac"],
    ["6","CD","6"],
    ["días","JJ","día"],
    [",",",",","],
    ["23","CD","23"],
    ["horas","NNS","hora"],
    {
      "tag":"PERSON",
      "content":
      [
        ["Gana","NNP","gan"]
      ]
    },
    ["el","NN","el"],
    ["más","NNS","más"],
    ["cabr-ón","JJ","cabr-ón"],
    ["hace","NN","hac"],
    ["1","CD","1"],
    ["semana","NNS","seman"],
    [",",",",","],
    ["1","CD","1"],
    ["día","NNP","día"],
    ["Mal","NNP","mal"],
    ["que","NN","que"],
    ["mal","NN","mal"],
    [",",",",","],
    ["la","NN","la"],
    ["materia","NN","mater"],
    ["prima","NN","prim"],
    ["...",":","..."],
    ["hace","NN","hac"],
    ["1","CD","1"],
    ["semana","NNS","seman"],
    [",",",",","],
    ["2","CD","2"],
    ["días","JJ","día"],
    ["''","''","''"],
    ["Yo","NNP","yo"],
    ["comparto","NN","comparto"],
    ["el","NN","el"],
    ["postre","NN","post"],
    ["con","NN","con"],
    ["el","NN","el"],
    ["...",":","..."],
    ["hace","NN","hac"],
    ["1","CD","1"],
    ["semana","NNS","seman"],
    [",",",",","],
    ["3","CD","3"],
    ["días","JJ","día"],
    ["''","''","''"],
    {
      "tag":"ORGANIZATION",
      "content":
      [
        ["Coma","NNP","com"]
      ]
    },
    ["nuestra","NN","nuestr"],
    ["deliciosa","NN","delicios"],
    ["sal","NN","sal"],
    ["sazonada","NN","sazonad"],
    ["con","NN","con"],
    ["...",":","..."],
    ["hace","NN","hac"],
    ["1","CD","1"],
    ["semana","NNS","seman"],
    [",",",",","],
    ["5","CD","5"],
    ["días","JJ","día"],
    ["¡Que","JJ","¡que"],
    ["a","DT","a"],
    ["Al","NNP","al"],
    ["Qaeda","NNP","qaed"],
    ["no","DT","no"],
    ["se","NN","se"],
    ["...",":","..."],
    ["hace","NN","hac"],
    ["1","CD","1"],
    ["semana","NNS","seman"],
    [",",",",","],
    ["6","CD","6"],
    ["días","JJ","día"],
    ["''","''","''"],
    ["Prohibido","NNP","prohibido"],
    ["fotografiar","NN","fotografi"],
    ["a","DT","a"],
    ["los","NN","los"],
    ["animales","VBZ","anim"],
    ["que","NN","que"],
    ["...",":","..."],
    ["hace","NN","hac"],
    ["2","CD","2"],
    ["semanas","NNS","semana"],
    ["''","''","''"],
    ["Elevemos","NNP","elevemo"],
    ["el","NN","el"],
    ["estatus","VBZ","estat"],
    ["de","IN","de"],
    ["esta","NN","est"],
    ["ciudad","NN","ciudad"],
    ["...",":","..."],
    ["hace","NN","hac"],
    ["2","CD","2"],
    ["semanas","NNS","semana"],
    [",",",",","],
    ["4","CD","4"],
    ["días","JJ","día"],
    ["''","''","''"],
    ["No","NNP","no"],
    ["podemos","NNS","podemo"],
    ["descartar","VBP","descart"],
    ["un","VBN","un"],
    ["ataque","NN","ataqu"],
    [".",".","."]
  ]
},
{
  "tag":"S",
  "content":
  [
    ["Aún","JJ","aún"],
    ["...",":","..."],
    ["hace","NN","hac"],
    ["3","CD","3"],
    ["semanas","NNS","semana"],
    [",",",",","],
    ["1","CD","1"],
    ["día","NNP","día"],
    ["Temple","NNP","templ"],
    ["de","IN","de"],
    ["acero","NN","acero"],
    [",",",",","],
    ["vientre","NN","vient"],
    ["de","IN","de"],
    ["carne","NN","carn"],
    ["hace","NN","hac"],
    ["1","CD","1"],
    ["mes","NNS","me"],
    ["''","''","''"],
    ["Un","NNP","un"],
    ["nombre","NN","nombr"],
    ["que","NN","que"],
    ["evoca","NN","evoc"],
    ["liderazgo","NN","liderazgo"],
    ["''","''","''"],
    [",",",",","],
    ["explica","NN","explic"],
    ["...",":","..."],
    ["hace","NN","hac"],
    ["1","CD","1"],
    ["mes","NNS","me"],
    ["''","''","''"],
    ["Ahorremos","NNP","ahorremo"],
    ["costos","NNS","costo"],
    ["y","VBP","y"],
    ["juntemos","NNS","juntemo"],
    ["las","NNS","la"],
    ["ceremonias","VBP","ceremonia"],
    ["...",":","..."],
    ["hace","NN","hac"],
    ["1","CD","1"],
    ["mes","NNS","me"],
    ["Si","NNP","si"],
    ["le","NN","le"],
    ["destiñe","NN","destiñ"],
    ["la","NN","la"],
    ["pintura","NN","pintur"],
    [",",",",","],
    ["seguro","NN","seguro"],
    ["...",":","..."],
    ["hace","NN","hac"],
    ["1","CD","1"],
    ["mes","NNS","me"],
    [",",",",","],
    ["1","CD","1"],
    ["semana","NNS","seman"],
    ["''","''","''"],
    ["Y","NNP","y"],
    ["nos","NNS","no"],
    ["aliaremos","VBZ","aliaremo"],
    ["para","NN","par"],
    ["encontrar","NN","encontr"],
    ["el","NN","el"],
    ["...",":","..."],
    ["hace","NN","hac"],
    ["1","CD","1"],
    ["mes","NNS","me"],
    [",",",",","],
    ["1","CD","1"],
    ["semana","NNS","seman"],
    ["¡Un","JJ","¡un"],
    ["arroyo","NN","arroyo"],
    ["filete","NN","filet"],
    ["!",".","!"]
  ]
},
{
  "tag":"S",
  "content":
  [
    ["hace","NN","hac"],
    ["1","CD","1"],
    ["mes","NNS","me"],
    [",",",",","],
    ["1","CD","1"],
    ["semana","NNS","seman"],
    {
      "tag":"PERSON",
      "content":
      [
        ["Hace","NNP","hac"]
      ]
    },
    ["un","NN","un"],
    ["milenio","NN","milenio"],
    ["haciendo","NN","haciendo"],
    ["sufrir","NN","sufrir"],
    ["a","DT","a"],
    ["...",":","..."],
    ["hace","NN","hac"],
    ["1","CD","1"],
    ["mes","NNS","me"],
    [",",",",","],
    ["1","CD","1"],
    ["semana","NNS","seman"],
    ["El","NNP","el"],
    ["ave","VBP","av"],
    ["mochilera","NN","mochiler"],
    ["hace","NN","hac"],
    ["1","CD","1"],
    ["mes","NNS","me"],
    [",",",",","],
    ["1","CD","1"],
    ["semana","NNS","seman"],
    ["''","''","''"],
    ["Y","NNP","y"],
    ["si","NN","si"],
    ["hace","NN","hac"],
    ["falta","NN","falt"],
    [",",",",","],
    ["hasta","NN","hast"],
    ["me","PRP","me"],
    ["...",":","..."],
    ["hace","NN","hac"],
    ["1","CD","1"],
    ["mes","NNS","me"],
    [",",",",","],
    ["1","CD","1"],
    ["semana","NNS","seman"],
    {
      "tag":"PERSON",
      "content":
      [
        ["Links","NNP","link"],
        ["Espectacular","NNP","espectacul"]
      ]
    },
    ["guía","NNP","guí"],
    ["de","IN","de"],
    {
      "tag":"ORGANIZATION",
      "content":
      [
        ["Trekking","NNP","trekk"],
        ["Chile","NNP","chil"],
        ["Energia","NNP","energ"]
      ]
    },
    ["Chile","NNP","chil"],
    ["Encuentra","NNP","encuentr"],
    ["tu","NN","tu"],
    ["empleo","NN","empleo"],
    ["en","NN","en"],
    {
      "tag":"PERSON",
      "content":
      [
        ["Pegas","NNP","pega"],
        ["Con","NNP","con"],
        ["Sentido","NNP","sentido"]
      ]
    },
    ["¿Qué","NNP","¿qué"],
    ["ocurrirá","NNP","ocurrirá"],
    ["con","NN","con"],
    ["el","NN","el"],
    ["mundo","NN","mundo"],
    ["?",".","?"]
  ]
},
{
  "tag":"S",
  "content":
  [
    ["Estos","NNS","esto"],
    ["son","VBP","son"],
    ["mis","NNS","mi"],
    {
      "tag":"PERSON",
      "content":
      [
        ["Vaticinios","NNP","vaticinio"]
      ]
    },
    ["Categoría","NNP","categorí"],
    [":",":",":"],
    ["anecdotario","NN","anecdotario"],
    [":",":",":"],
    [":",":",":"],
    ["Subcategoría","JJ","subcategorí"],
    [":",":",":"],
    ["plebeyoscualquiera","NN","plebeyoscualquier"],
    {
      "tag":"PERSON",
      "content":
      [
        ["Agregado","NNP","agregado"]
      ]
    },
    ["por","NN","por"],
    {
      "tag":"PERSON",
      "content":
      [
        ["Suelien","NNP","sue"]
      ]
    },
    ["hace","NN","hac"],
    ["3","CD","3"],
    ["años","NNS","año"],
    [",",",",","],
    ["7","CD","7"],
    ["meses","NNS","me"],
    ["''","''","''"],
    ["Es","NNP","es"],
    ["que","NN","que"],
    ["a","DT","a"],
    ["mi","NN","mi"],
    ["cueva","NN","cuev"],
    ["no","DT","no"],
    ["llegaba","NN","llegab"],
    ["el","NN","el"],
    ["periódico","-NONE-","periódico"],
    ["''","''","''"],
    ["Shōichi","NNP","shōichi"],
    ["Yokoi","NNP","yoko"],
    ["(","NNP","("],
    ["横井","NNP","横井"],
    ["庄","NNP","庄"],
    [")","NNP",")"],
    ["fue","NN","fue"],
    ["un","NN","un"],
    ["soldado","NN","soldado"],
    ["del","NN","del"],
    ["Ejército","-NONE-","Ejército"],
    ["Imperial","NNP","imp"],
    ["de","IN","de"],
    ["Japón","NNP","japón"],
    ["durante","NN","dur"],
    ["la","NN","la"],
    {
      "tag":"PERSON",
      "content":
      [
        ["Segunda","NNP","segund"],
        ["Guerra","NNP","guerr"],
        ["Mundial","NNP","mund"]
      ]
    },
    [".",".","."]
  ]
},
{
  "tag":"S",
  "content":
  [
    ["En","NNP","en"],
    ["1944","CD","1944"],
    [",",",",","],
    ["peleaba","NN","peleab"],
    ["en","NN","en"],
    ["la","NN","la"],
    ["batalla","NN","batall"],
    ["de","IN","de"],
    {
      "tag":"GPE",
      "content":
      [
        ["Guam","NNP","guam"]
      ]
    },
    [",",",",","],
    ["y","NN","y"],
    ["huyó","-NONE-","huyó"],
    ["junto","IN","junto"],
    ["a","DT","a"],
    ["otros","NNS","otro"],
    ["10","CD","10"],
    ["soldados","NNS","soldado"],
    ["japoneses","NNS","japones"],
    [".",".","."]
  ]
},
{
  "tag":"S",
  "content":
  [
    {
      "tag":"GPE",
      "content":
      [
        ["Aunque","NNP","aunqu"]
      ]
    },
    ["el","NN","el"],
    ["Ejército","-NONE-","Ejército"],
    ["de","IN","de"],
    {
      "tag":"PERSON",
      "content":
      [
        ["Estados","NNP","estado"],
        ["Unidos","NNP","unido"]
      ]
    },
    ["ganó","NNP","ganó"],
    ["la","NN","la"],
    ["batalla","NN","batall"],
    ["ese","NN","es"],
    ["mismo","NN","mismo"],
    ["año","-NONE-","año"],
    [",",",",","],
    ["y","NN","y"],
    ["aunque","NN","aunqu"],
    ["la","NN","la"],
    ["guerra","NN","guerr"],
    ["terminó","NN","terminó"],
    ["el","NN","el"],
    ["año","-NONE-","año"],
    ["siguiente","NN","siguy"],
    [",",",",","],
    {
      "tag":"PERSON",
      "content":
      [
        ["Yokoi","NNP","yoko"]
      ]
    },
    ["permaneció","NNP","permaneció"],
    ["en","NN","en"],
    ["el","NN","el"],
    ["lugar","NN","lug"],
    ["hasta","NN","hast"],
    ["el","NN","el"],
    ["24","CD","24"],
    ["de","NN","de"],
    ["enero","NN","enero"],
    ["de","IN","de"],
    ["1972","CD","1972"],
    [".",".","."]
  ]
},
{
  "tag":"S",
  "content":
  [
    ["Vivía","NN","viví"],
    ["en","VBN","en"],
    ["una","NN","un"],
    ["cueva","NN","cuev"],
    ["y","NN","y"],
    ["cazaba","NN","cazab"],
    ["para","NN","par"],
    ["alimentarse","NN","alimentars"],
    [",",",",","],
    ["principalmente","NN","princip"],
    ["de","IN","de"],
    ["noche","NN","noch"],
    [".",".","."]
  ]
},
{
  "tag":"S",
  "content":
  [
    ["NOTA","NNP","not"],
    [":",":",":"],
    ["No","DT","No"],
    ["confundir","NN","confundir"],
    ["con","NN","con"],
    ["la","NN","la"],
    ["historia","NN","histor"],
    ["falsa","NN","fals"],
    ["de","IN","de"],
    {
      "tag":"PERSON",
      "content":
      [
        ["Yoshio","NNP","yoshio"],
        ["Yamakawa","NNP","yamakaw"]
      ]
    },
    ["y","NN","y"],
    {
      "tag":"PERSON",
      "content":
      [
        ["Tsuzuki","NNP","tsuzuk"],
        ["Nakauchi","NNP","nakauch"]
      ]
    },
    ["http","NN","http"],
    [":",":",":"],
    ["//www.datosfreak.org/datos/slug/soldados-japoneses-escondidos-60-anos-en-Filipinas","JJ","//www.datosfreak.org/datos/slug/soldados-japoneses-escondidos-60-anos-en-filipinas"],
    ["10","CD","10"],
    ["votos","NNS","voto"],
    ["0","-NONE-","0"],
    ["negativos","NNS","negativo"],
    {
      "tag":"PERSON",
      "content":
      [
        ["Fuente","NNP","fuent"]
      ]
    },
    ["(","NNP","("],
    ["s","VBZ","s"],
    [")",":",")"],
    [":",":",":"],
    {
      "tag":"PERSON",
      "content":
      [
        ["Hatashin","NNP","hatashin"]
      ]
    },
    [",",",",","],
    {
      "tag":"PERSON",
      "content":
      [
        ["Omi","NNP","om"]
      ]
    },
    ["y","NN","y"],
    ["Shōichi","NNP","shōichi"],
    ["Yokoi","NNP","yoko"],
    [".",".","."]
  ]
},
{
  "tag":"S",
  "content":
  [
    ["(","NN","("],
    ["2009","CD","2009"],
    [")","CD",")"],
    [".",".","."]
  ]
},
{
  "tag":"S",
  "content":
  [
    ["``","``","``"],
    ["Private","JJ","priv"],
    {
      "tag":"PERSON",
      "content":
      [
        ["Yokoi","NNP","yoko"]
      ]
    },
    ["'s","POS","'s"],
    ["War","NNP","war"],
    ["and","CC","and"],
    {
      "tag":"PERSON",
      "content":
      [
        ["Life","NNP","lif"]
      ]
    },
    ["on","IN","on"],
    {
      "tag":"GPE",
      "content":
      [
        ["Guam","NNP","guam"]
      ]
    },
    [",",",",","],
    ["1944-72","CD","1944-72"],
    [":",":",":"],
    ["The","DT","The"],
    ["Story","NNP","story"],
    ["of","IN","of"],
    ["the","DT","the"],
    {
      "tag":"GPE",
      "content":
      [
        ["Japanese","JJ","japanes"]
      ]
    },
    {
      "tag":"ORGANIZATION",
      "content":
      [
        ["Imperial","NNP","imp"],
        ["Army","NNP","army"]
      ]
    },
    ["'s","POS","'s"],
    {
      "tag":"PERSON",
      "content":
      [
        ["Longest","NNP","longest"],
        ["WWII","NNP","wwi"],
        ["Survivor","NNP","surv"]
      ]
    },
    ["in","IN","in"],
    ["the","DT","the"],
    {
      "tag":"ORGANIZATION",
      "content":
      [
        ["Field","NNP","field"]
      ]
    },
    ["and","CC","and"],
    {
      "tag":"PERSON",
      "content":
      [
        ["Later","NNP","lat"],
        ["Life","NNP","lif"]
      ]
    },
    ["''","''","''"],
    [".",".","."]
  ]
},
{
  "tag":"S",
  "content":
  [
    {
      "tag":"GPE",
      "content":
      [
        ["Londres","NNS","londr"]
      ]
    },
    [".",".","."]
  ]
},
{
  "tag":"S",
  "content":
  [
    {
      "tag":"GPE",
      "content":
      [
        ["Ed","NNP","ed"]
      ]
    },
    [".",".","."]
  ]
},
{
  "tag":"S",
  "content":
  [
    {
      "tag":"PERSON",
      "content":
      [
        ["Global","JJ","glob"]
      ]
    },
    {
      "tag":"ORGANIZATION",
      "content":
      [
        ["Oriental","NNP","ory"]
      ]
    },
    [".",".","."]
  ]
},
{
  "tag":"S",
  "content":
  [
    ["ISBN","NNP","isbn"],
    ["9781905246694","CD","9781905246694"],
    {
      "tag":"PERSON",
      "content":
      [
        ["Shoichi","NNP","shoich"],
        ["Yokoi","NNP","yoko"]
      ]
    },
    [":",":",":"],
    ["la","DT","la"],
    ["cueva","NN","cuev"],
    ["donde","NN","dond"],
    ["vivía","NN","viví"],
    ["y","NN","y"],
    ["su","NN","su"],
    ["primer","NN","prim"],
    ["corte","NN","cort"],
    ["de","IN","de"],
    ["pelo","NN","pelo"],
    {
      "tag":"PERSON",
      "content":
      [
        ["Hiroo","NNP","hiroo"],
        ["Onoda","NNP","onod"]
      ]
    },
    ["(","NNP","("],
    ["小野田","NNP","小野田"],
    ["寛郎","NNP","寛郎"],
    [")","NNP",")"],
    ["vivó","NNP","vivó"],
    ["una","NN","un"],
    ["historia","NN","histor"],
    ["parecida","NN","parecid"],
    [",",",",","],
    ["pero","NN","pero"],
    ["volvió","-NONE-","volvió"],
    ["incluso","RB","incluso"],
    ["más","JJ","más"],
    ["tarde","NN","tard"],
    ["que","NN","que"],
    {
      "tag":"PERSON",
      "content":
      [
        ["Yokoi","NNP","yoko"]
      ]
    },
    [",",",",","],
    ["en","VBN","en"],
    ["1974","CD","1974"],
    [".",".","."]
  ]
},
{
  "tag":"S",
  "content":
  [
    {
      "tag":"GPE",
      "content":
      [
        ["Durante","NNP","dur"]
      ]
    },
    ["sus","NN","sus"],
    ["29","CD","29"],
    ["años","NNS","año"],
    ["leyó","-NONE-","leyó"],
    ["varios","NNS","vario"],
    ["panfletos","NNS","panfleto"],
    ["que","VBP","que"],
    ["declaraban","JJ","declarab"],
    ["el","NN","el"],
    ["fin","NN","fin"],
    ["de","IN","de"],
    ["la","DT","la"],
    ["guerra","NN","guerr"],
    [",",",",","],
    ["pero","NN","pero"],
    ["pensó","-NONE-","pensó"],
    ["que","NN","que"],
    ["eran","NN","er"],
    ["montajes","NNS","montas"],
    ["de","IN","de"],
    ["los","NNS","los"],
    {
      "tag":"PERSON",
      "content":
      [
        ["Aliados","NNP","aliado"]
      ]
    },
    [".",".","."]
  ]
},
{
  "tag":"S",
  "content":
  [
    {
      "tag":"PERSON",
      "content":
      [
        ["Teruo","NNP","teruo"]
      ]
    },
    {
      "tag":"ORGANIZATION",
      "content":
      [
        ["Nakamura","NNP","nakamur"]
      ]
    },
    ["(","NNP","("],
    ["中村輝夫","NNP","中村輝夫"],
    [")","NNP",")"],
    ["fue","NN","fue"],
    ["el","NN","el"],
    ["último","-NONE-","último"],
    ["de","IN","de"],
    ["los","NNS","los"],
    ["japoneses","NNS","japones"],
    ["en","VBP","en"],
    ["rendirse","NN","rendirs"],
    [",",",",","],
    ["en","VBN","en"],
    ["diciembre","NN","diciembr"],
    ["de","IN","de"],
    ["1974","CD","1974"],
    [".",".","."]
  ]
},
{
  "tag":"S",
  "content":
  [
    {
      "tag":"PERSON",
      "content":
      [
        ["Sin","NNP","sin"]
      ]
    },
    ["embargo","VBD","embargo"],
    [",",",",","],
    ["su","NN","su"],
    ["caso","RB","caso"],
    ["fue","JJ","fue"],
    ["recibido","NN","recibido"],
    ["con","NN","con"],
    ["mucho","NN","mucho"],
    ["menos","NNS","meno"],
    ["entusiasmo","VBP","entusiasmo"],
    ["público","-NONE-","público"],
    ["que","JJ","que"],
    ["el","NN","el"],
    ["de","IN","de"],
    {
      "tag":"PERSON",
      "content":
      [
        ["Hiroo","NNP","hiroo"],
        ["Onoda","NNP","onod"]
      ]
    },
    [",",",",","],
    ["por","NN","por"],
    ["tratarse","NN","tratars"],
    ["de","IN","de"],
    ["un","NN","un"],
    ["japonés","NNS","japoné"],
    ["de","IN","de"],
    ["origen","NN","orig"],
    ["taiwanés","NNS","taiwané"],
    [".",".","."]
  ]
},
{
  "tag":"S",
  "content":
  [
    {
      "tag":"PERSON",
      "content":
      [
        ["Hermann","NNP","herman"]
      ]
    },
    {
      "tag":"PERSON",
      "content":
      [
        ["Philipp","NNP","philip"],
        ["Detzner","NNP","detzn"]
      ]
    },
    ["exploraba","NN","explorab"],
    {
      "tag":"PERSON",
      "content":
      [
        ["Nueva","NNP","nuev"],
        ["Guinea","NNP","guine"]
      ]
    },
    ["como","NN","como"],
    ["soldado","NN","soldado"],
    ["del","NN","del"],
    ["Ejército","-NONE-","Ejército"],
    ["de","IN","de"],
    {
      "tag":"GPE",
      "content":
      [
        ["Alemania","NNP","aleman"]
      ]
    },
    ["cuando","NN","cuando"],
    ["estalló","-NONE-","estalló"],
    ["la","NN","la"],
    {
      "tag":"PERSON",
      "content":
      [
        ["Primera","NNP","primer"],
        ["Guerra","NNP","guerr"],
        ["Mundial","NNP","mund"]
      ]
    },
    [".",".","."]
  ]
},
{
  "tag":"S",
  "content":
  [
    ["Se","NNP","se"],
    ["negó","NNP","negó"],
    ["a","DT","a"],
    ["rendirse","NN","rendirs"],
    ["ante","NN","ant"],
    ["el","NN","el"],
    ["Ejército","-NONE-","Ejército"],
    ["de","IN","de"],
    {
      "tag":"GPE",
      "content":
      [
        ["Australia","NNP","austral"]
      ]
    },
    ["y","NN","y"],
    ["se","NN","se"],
    ["escondió","NN","escondió"],
    ["en","NN","en"],
    ["la","NN","la"],
    ["selva","NN","selv"],
    ["de","IN","de"],
    ["la","DT","la"],
    ["isla","NN","isl"],
    ["durante","NN","dur"],
    ["4","CD","4"],
    ["años","NNS","año"],
    ["con","IN","con"],
    ["20","CD","20"],
    ["hombres","NNS","hombr"],
    [",",",",","],
    ["hasta","NN","hast"],
    ["el","NN","el"],
    ["armisticio","NN","armisticio"],
    ["de","IN","de"],
    ["1919.","CD","1919."],
    ["japon","NN","japon"],
    ["2","CD","2"],
    ["guerra","NN","guerr"],
    ["mundial","JJ","mund"],
    ["Shōichi","NN","shōichi"],
    {
      "tag":"PERSON",
      "content":
      [
        ["Yokoi","NNP","yoko"]
      ]
    },
    ["(","NNP","("],
    ["横井","NNP","横井"],
    ["庄","NNP","庄"],
    [")","NNP",")"],
    ["fue","NN","fue"],
    ["un","NN","un"],
    ["soldado","NN","soldado"],
    ["del","NN","del"],
    ["Ejército","-NONE-","Ejército"],
    ["Imperial","NNP","imp"],
    ["de","IN","de"],
    ["Japón","NNP","japón"],
    ["durante","NN","dur"],
    ["la","NN","la"],
    {
      "tag":"PERSON",
      "content":
      [
        ["Segunda","NNP","segund"],
        ["Guerra","NNP","guerr"],
        ["Mundial","NNP","mund"]
      ]
    },
    [".",".","."]
  ]
},
{
  "tag":"S",
  "content":
  [
    ["En","NNP","en"],
    ["1944","CD","1944"],
    [",",",",","],
    ["peleaba","NN","peleab"],
    ["en","NN","en"],
    ["la","NN","la"],
    ["batalla","NN","batall"],
    ["de","IN","de"],
    {
      "tag":"GPE",
      "content":
      [
        ["Guam","NNP","guam"]
      ]
    },
    [",",",",","],
    ["y","NN","y"],
    ["huyó","-NONE-","huyó"],
    ["junto","IN","junto"],
    ["a","DT","a"],
    ["otros","NNS","otro"],
    ["10","CD","10"],
    ["soldados","NNS","soldado"],
    ["japoneses","NNS","japones"],
    [".",".","."]
  ]
},
{
  "tag":"S",
  "content":
  [
    {
      "tag":"GPE",
      "content":
      [
        ["Aunque","NNP","aunqu"]
      ]
    },
    ["el","NN","el"],
    ["Ejército","-NONE-","Ejército"],
    ["de","IN","de"],
    {
      "tag":"PERSON",
      "content":
      [
        ["Estados","NNP","estado"],
        ["Unidos","NNP","unido"]
      ]
    },
    ["ganó","NNP","ganó"],
    ["la","NN","la"],
    ["batalla","NN","batall"],
    ["ese","NN","es"],
    ["mismo","NN","mismo"],
    ["año","-NONE-","año"],
    [",",",",","],
    ["y","NN","y"],
    ["aunque","NN","aunqu"],
    ["la","NN","la"],
    ["guerra","NN","guerr"],
    ["terminó","NN","terminó"],
    ["el","NN","el"],
    ["año","-NONE-","año"],
    ["siguiente","NN","siguy"],
    [",",",",","],
    {
      "tag":"PERSON",
      "content":
      [
        ["Yokoi","NNP","yoko"]
      ]
    },
    ["permaneció","NNP","permaneció"],
    ["en","NN","en"],
    ["el","NN","el"],
    ["lugar","NN","lug"],
    ["hasta","NN","hast"],
    ["el","NN","el"],
    ["24","CD","24"],
    ["de","NN","de"],
    ["enero","NN","enero"],
    ["de","IN","de"],
    ["1972","CD","1972"],
    [".",".","."]
  ]
},
{
  "tag":"S",
  "content":
  [
    ["Vivía","NN","viví"],
    ["en","VBN","en"],
    ["una","NN","un"],
    ["cueva","NN","cuev"],
    ["y","NN","y"],
    ["cazaba","NN","cazab"],
    ["para","NN","par"],
    ["alimentarse","NN","alimentars"],
    [",",",",","],
    ["principalmente","NN","princip"],
    ["de","IN","de"],
    ["noche","NN","noch"],
    [".",".","."]
  ]
},
{
  "tag":"S",
  "content":
  [
    ["NOTA","NNP","not"],
    [":",":",":"],
    ["No","DT","No"],
    ["confundir","NN","confundir"],
    ["con","NN","con"],
    ["la","NN","la"],
    ["historia","NN","histor"],
    ["falsa","NN","fals"],
    ["de","IN","de"],
    {
      "tag":"PERSON",
      "content":
      [
        ["Yoshio","NNP","yoshio"],
        ["Yamakawa","NNP","yamakaw"]
      ]
    },
    ["y","NN","y"],
    {
      "tag":"PERSON",
      "content":
      [
        ["Tsuzuki","NNP","tsuzuk"],
        ["Nakauchi","NNP","nakauch"]
      ]
    },
    ["http","NN","http"],
    [":",":",":"],
    ["//www.datosfreak.org/datos/slug/soldados-japoneses-escondidos-60-anos-en-Filipinas","JJ","//www.datosfreak.org/datos/slug/soldados-japoneses-escondidos-60-anos-en-filipinas"],
    ["Es","NNS","es"],
    ["AburridoEs","VBZ","aburrido"],
    {
      "tag":"ORGANIZATION",
      "content":
      [
        ["FalsoNo","NNP","falsono"]
      ]
    },
    ["es","NNS","e"],
    {
      "tag":"PERSON",
      "content":
      [
        ["Dato","NNP","dato"],
        ["Freak","NNP","freak"]
      ]
    },
    ["!",".","!"]
  ]
},
{
  "tag":"S",
  "content":
  [
    ["©","NN","©"],
    ["2012","CD","2012"],
    {
      "tag":"PERSON",
      "content":
      [
        ["Datos","NNP","dato"],
        ["Freak","NNP","freak"]
      ]
    },
    ["|","NNP","|"],
    ["Home","NNP","hom"],
    ["|","NNP","|"],
    ["Contacta","NNP","contact"],
    ["a","DT","a"],
    ["los","NN","los"],
    ["editores","VBZ","edit"],
    [":",":",":"],
    {
      "tag":"ORGANIZATION",
      "content":
      [
        ["LITERATOS","NNP","literato"]
      ]
    },
    ["CIENTIFICOS","NNP","cientifico"],
    {
      "tag":"ORGANIZATION",
      "content":
      [
        ["ARTISTAS","NNP","artista"]
      ]
    },
    {
      "tag":"ORGANIZATION",
      "content":
      [
        ["MUSICOS","NNP","musico"]
      ]
    },
    ["ANONIMOS","NNP","anonimo"],
    ["PLEBEYOS","NNP","plebeyo"],
    ["CUALQUIERA","NNP","cualquier"],
    ["AUTORIDADES","NNP","autoridad"],
    ["INSTITUCIONES","NNP","instituc"],
    ["DEPORTISTAS","NNP","deportista"],
    ["MUNDO","NNP","mundo"],
    {
      "tag":"ORGANIZATION",
      "content":
      [
        ["FISICO","NNP","fisico"]
      ]
    },
    ["GEOGRAFIA","NNP","geograf"],
    ["CIENCIA","NNP","cienc"],
    {
      "tag":"ORGANIZATION",
      "content":
      [
        ["ASTRONOMIA","NNP","astronom"]
      ]
    },
    ["LITERATURA","NNP","literatur"],
    {
      "tag":"ORGANIZATION",
      "content":
      [
        ["MUSICA","NNP","music"]
      ]
    },
    {
      "tag":"ORGANIZATION",
      "content":
      [
        ["COMUNICACIONES","NNP","comunicac"]
      ]
    },
    ["CINE","NNP","cin"],
    {
      "tag":"ORGANIZATION",
      "content":
      [
        ["COSTUMBRES","NNP","costumbr"]
      ]
    },
    ["DIBUJOSANIMADOS","NNP","dibujosanimado"],
    ["ESPECTACULOS","NNP","espectaculo"],
    ["POLITICA","NNP","politic"],
    ["OBJETOS","NNP","objeto"],
    ["NEGOCIOS","NNP","negocio"],
    {
      "tag":"ORGANIZATION",
      "content":
      [
        ["COMIDA","NNP","comid"]
      ]
    },
    ["DEPORTES","NNP","deport"],
    ["DE","NNP","de"],
    ["PERSONAS","NNP","persona"],
    ["DEL","NNP","del"],
    ["LATIN","NNP","latin"],
    ["PALABRAS","NNP","palabra"],
    {
      "tag":"ORGANIZATION",
      "content":
      [
        ["CURIOSAS","NNP","curiosa"]
      ]
    },
    ["DEL","NNP","del"],
    ["FRANCES","NNP","frant"],
    ["ORIGEN","NNP","orig"],
    {
      "tag":"ORGANIZATION",
      "content":
      [
        ["MITOLOGICO","NNP","mitologico"]
      ]
    },
    {
      "tag":"ORGANIZATION",
      "content":
      [
        ["ORIGENES","NNP","orig"]
      ]
    },
    ["DIVERSOS","NNP","diverso"],
    ["DEL","NNP","del"],
    ["ARABE","NNP","arab"],
    ["DEL","NNP","del"],
    ["GRIEGO","NNP","griego"],
    ["DEL","NNP","del"],
    ["INGLES","NNP","ingl"],
    ["DEL","NNP","del"],
    ["HEBREO","NNP","hebreo"],
    ["DEL","NNP","del"],
    ["JAPONES","NNP","japon"],
    ["DEL","NNP","del"],
    {
      "tag":"ORGANIZATION",
      "content":
      [
        ["ITALIANO","NNP","italiano"]
      ]
    },
    ["DEL","NNP","del"],
    ["ALEMAN","NNP","alem"],
    {
      "tag":"ORGANIZATION",
      "content":
      [
        ["COSTUMBRES","NNP","costumbr"]
      ]
    },
    ["PREHISTORIA","NNP","prehistor"],
    {
      "tag":"ORGANIZATION",
      "content":
      [
        ["CREENCIAS","NNP","creencia"]
      ]
    },
    ["RELIGIOSOS","NNP","religioso"],
    ["PERSONAJES","NNP","personas"],
    ["AUTORIDADES","NNP","autoridad"],
    ["CIENCIA","NNP","cienc"],
    ["LITERATURA","NNP","literatur"],
    ["ARTE","NNP","art"],
    ["CHILE","NNP","chil"],
    ["ESTADOS","NNP","estado"],
    {
      "tag":"ORGANIZATION",
      "content":
      [
        ["UNIDOS","NNP","unido"]
      ]
    },
    ["VENEZUELA","NNP","venezuel"],
    ["URUGUAY","NNP","uruguay"],
    {
      "tag":"ORGANIZATION",
      "content":
      [
        ["ARGENTINA","NNP","argentin"]
      ]
    },
    {
      "tag":"ORGANIZATION",
      "content":
      [
        ["PARAGUAY","NNP","paraguay"]
      ]
    },
    ["ESPANA","NNP","espan"],
    {
      "tag":"ORGANIZATION",
      "content":
      [
        ["ITALIA","NNP","ital"]
      ]
    },
    {
      "tag":"ORGANIZATION",
      "content":
      [
        ["MEXICO","NNP","mexico"]
      ]
    },
    ["HONDURAS","NNP","hondura"],
    ["PERU","NNP","peru"],
    {
      "tag":"ORGANIZATION",
      "content":
      [
        ["BOLIVIA","NNP","boliv"]
      ]
    },
    ["COLOMBIA","NNP","colomb"],
    ["ECUADOR","NNP","ecuad"],
    ["CUBA","NNP","cub"],
    ["CUERPO","NNP","cuerpo"],
    ["HUMANO","NNP","humano"],
    {
      "tag":"ORGANIZATION",
      "content":
      [
        ["AVES","NNP","av"]
      ]
    },
    ["MAMIFEROS","NNP","mamifero"],
    ["PLANTAS","NNP","planta"],
    ["INVERTEBRADOS","NNP","invertebrado"],
    ["REPTILES","NNP","reptil"],
    ["PECES","NNP","pec"],
    ["ANFIBIOS","NNP","anfibio"]
  ]
}]