[
{
  "tag":"S",
  "content":
  [
    {
      "tag":"PERSON",
      "content":
      [
        ["Edgar","NN","edg"]
      ]
    },
    {
      "tag":"ORGANIZATION",
      "content":
      [
        ["Bara","NNP","bar"]
      ]
    },
    ["(","NNP","("],
    ["1876–1962","CD","1876–1962"],
    [")","CD",")"],
    ["was","VBD","be"],
    ["a","DT","a"],
    ["mandolinist","NN","mandolin"],
    [",",",",","],
    ["author","NN","auth"],
    ["and","CC","and"],
    ["composer","NN","compos"],
    [".",".","."]
  ]
},
{
  "tag":"S",
  "content":
  [
    ["He","PRP","He"],
    ["wrote","VBD","writ"],
    ["the","DT","the"],
    ["method","NN","method"],
    ["book","NN","book"],
    ["Méthode","NN","méthode"],
    ["de","IN","de"],
    {
      "tag":"GPE",
      "content":
      [
        ["Mandoline","NNP","mandolin"]
      ]
    },
    ["et","NN","et"],
    {
      "tag":"PERSON",
      "content":
      [
        ["Banjoline","NNP","banjolin"]
      ]
    },
    [",",",",","],
    ["published","VBD","publ"],
    ["1903","CD","1903"],
    ["in","IN","in"],
    ["the","DT","the"],
    {
      "tag":"GPE",
      "content":
      [
        ["United","NNP","unit"],
        ["States","NNPS","stat"]
      ]
    },
    [",",",",","],
    ["one","CD","one"],
    ["of","IN","of"],
    ["the","DT","the"],
    ["few","JJ","few"],
    ["from","IN","from"],
    ["that","DT","that"],
    ["era","NN","er"],
    ["which","WDT","which"],
    ["is","VBZ","be"],
    ["still","RB","stil"],
    ["in","IN","in"],
    ["print","NN","print"],
    ["today","NN","today"],
    [",",",",","],
    ["in","IN","in"],
    {
      "tag":"GPE",
      "content":
      [
        ["France","NNP","frant"]
      ]
    },
    [".",".","."]
  ]
},
{
  "tag":"S",
  "content":
  [
    ["He","PRP","He"],
    ["was","VBD","be"],
    ["also","RB","also"],
    ["a","DT","a"],
    ["conductor","NN","conduc"],
    ["of","IN","of"],
    ["a","DT","a"],
    ["mandolin","NN","mandolin"],
    ["orchestra","NN","orchestr"],
    ["in","IN","in"],
    {
      "tag":"GPE",
      "content":
      [
        ["Paris","NNP","par"]
      ]
    },
    [",",",",","],
    ["the","DT","the"],
    {
      "tag":"ORGANIZATION",
      "content":
      [
        ["Cercle","NNP","cerc"],
        ["Mandoliniste","NNP","mandolin"]
      ]
    },
    ["in","IN","in"],
    ["1907","CD","1907"],
    [".",".","."]
  ]
},
{
  "tag":"S",
  "content":
  [
    ["==Works==","NN","==works=="],
    ["*Lucia","NN","*lucia"],
    ["di","NN","di"],
    {
      "tag":"PERSON",
      "content":
      [
        ["Lammermoor","NNP","lammermo"]
      ]
    },
    ["*Une","NNP","*une"],
    ["Nuit","NNP","nuit"],
    ["à","NNP","à"],
    ["Bone","NNP","bon"],
    ["Sérénade","NNP","sérénade"],
    ["algérienne","NNP","algérien"],
    ["(","NNP","("],
    ["pour","PRP$","pour"],
    ["violon","NN","violon"],
    ["et","NN","et"],
    ["piano","NN","piano"],
    [")",":",")"],
    ["Op","NNP","op"],
    [".",".","."]
  ]
},
{
  "tag":"S",
  "content":
  [
    ["103","CD","103"],
    ["*Une","JJ","*une"],
    ["Fête","JJ","fête"],
    ["à","NN","à"],
    ["Séville","JJ","séville"],
    [",",",",","],
    ["boléro","JJ","boléro"],
    ["*Les","NNS","*les"],
    ["Hallebardiers","NNS","hallebardy"],
    ["passent","VBP","pass"],
    ["!",".","!"]
  ]
},
{
  "tag":"S",
  "content":
  [
    {
      "tag":"GPE",
      "content":
      [
        ["Retraite","NNP","retrait"]
      ]
    },
    ["pour","PRP$","pour"],
    ["piano","NN","piano"],
    ["et","NN","et"],
    ["mandoline","NN","mandolin"],
    ["Op","NNP","op"],
    [".",".","."]
  ]
},
{
  "tag":"S",
  "content":
  [
    ["48","CD","48"],
    ["*La","NN","*la"],
    {
      "tag":"PERSON",
      "content":
      [
        ["Veuve","NNP","veuv"]
      ]
    },
    ["joyeuse","NN","joyeus"],
    [",",",",","],
    ["célèbre","JJ","célèbre"],
    ["valse","NN","vals"],
    ["de","IN","de"],
    {
      "tag":"PERSON",
      "content":
      [
        ["Franz","NNP","franz"],
        ["Lehar","NNP","leh"]
      ]
    },
    [".",".","."]
  ]
},
{
  "tag":"S",
  "content":
  [
    ["Arrangée","JJ","arrangé"],
    ["pour","PRP$","pour"],
    ["violon","NN","violon"],
    ["(",":","("],
    ["ou","PRP","ou"],
    ["mandoline","VBP","mandolin"],
    [")",":",")"],
    ["ou","PRP","ou"],
    ["piano","RB","piano"],
    ["*La","-NONE-","*La"],
    ["Traviata","NNP","traviat"],
    [",",",",","],
    ["opéra","NNP","opér"],
    ["de","IN","de"],
    {
      "tag":"GPE",
      "content":
      [
        ["Verdi","NNP","verd"]
      ]
    },
    [".",".","."]
  ]
},
{
  "tag":"S",
  "content":
  [
    {
      "tag":"PERSON",
      "content":
      [
        ["Fantaisie","NNP","fantaisy"]
      ]
    },
    ["*La","NNP","*la"],
    ["Norma","NNP","norm"],
    [",",",",","],
    ["opéra","NNP","opér"],
    ["de","IN","de"],
    ["V.","NNP","v."],
    ["Bellini","NNP","bellin"],
    [".",".","."]
  ]
},
{
  "tag":"S",
  "content":
  [
    ["Fantaisie","NNP","fantaisy"],
    ["pour","PRP$","pour"],
    ["mandoline","NN","mandolin"],
    ["et","NN","et"],
    ["piano","NN","piano"],
    ["Op","NNP","op"],
    [".",".","."]
  ]
},
{
  "tag":"S",
  "content":
  [
    ["52","CD","52"],
    ["*La","NN","*la"],
    ["Esméralda","NN","esmérald"],
    [",",",",","],
    ["piano","RB","piano"],
    ["*Indiscrétion","JJ","*indiscrétion"],
    [",",",",","],
    ["piano","DT","piano"],
    ["==References==","NN","==references=="],
    ["<",":","<"],
    ["!",".","!"],
    ["--",":","--"],
    ["--",":","--"],
    [">","CD",">"]
  ]
}]