[
{
  "tag":"S",
  "content":
  [
    {
      "tag":"PERSON",
      "content":
      [
        ["Sol","NNP","sol"],
        ["Berkowitz","NNP","berkowitz"]
      ]
    },
    ["(","NNP","("],
    ["27","CD","27"],
    ["April","NNP","april"],
    ["1922","CD","1922"],
    ["–","CD","–"],
    ["29","CD","29"],
    ["July","NNP","july"],
    ["2006","CD","2006"],
    [")","CD",")"],
    ["was","VBD","be"],
    ["an","DT","an"],
    {
      "tag":"GPE",
      "content":
      [
        ["American","JJ","am"]
      ]
    },
    ["composer","NN","compos"],
    ["and","CC","and"],
    ["music","JJ","mus"],
    ["educator","NN","educ"],
    [".",".","."]
  ]
},
{
  "tag":"S",
  "content":
  [
    ["==Life==","NN","==life=="],
    {
      "tag":"PERSON",
      "content":
      [
        ["Sol","NNP","sol"],
        ["Berkowitz","NNP","berkowitz"]
      ]
    },
    ["was","VBD","be"],
    ["born","VBN","bear"],
    ["in","IN","in"],
    {
      "tag":"GPE",
      "content":
      [
        ["Warren","NNP","war"]
      ]
    },
    [",",",",","],
    {
      "tag":"GPE",
      "content":
      [
        ["Ohio","NNP","ohio"]
      ]
    },
    [",",",",","],
    ["and","CC","and"],
    ["lived","VBD","liv"],
    ["in","IN","in"],
    {
      "tag":"GPE",
      "content":
      [
        ["New","NNP","new"],
        ["York","NNP","york"]
      ]
    },
    ["from","IN","from"],
    ["1925","CD","1925"],
    [".",".","."]
  ]
},
{
  "tag":"S",
  "content":
  [
    ["He","PRP","He"],
    ["received","VBD","receiv"],
    ["music","JJ","mus"],
    ["degrees","NNS","degr"],
    ["from","IN","from"],
    {
      "tag":"GPE",
      "content":
      [
        ["Queens","NNP","queen"]
      ]
    },
    ["College","NNP","colleg"],
    ["(","NNP","("],
    {
      "tag":"ORGANIZATION",
      "content":
      [
        ["CUNY","NNP","cuny"]
      ]
    },
    [")","NNP",")"],
    ["in","IN","in"],
    ["1942","CD","1942"],
    ["and","CC","and"],
    {
      "tag":"ORGANIZATION",
      "content":
      [
        ["Columbia","NNP","columb"],
        ["University","NNP","univers"]
      ]
    },
    ["in","IN","in"],
    ["1946","CD","1946"],
    [".",".","."]
  ]
},
{
  "tag":"S",
  "content":
  [
    ["He","PRP","He"],
    ["studied","VBD","study"],
    ["piano","RB","piano"],
    ["with","IN","with"],
    {
      "tag":"PERSON",
      "content":
      [
        ["Abby","NNP","abby"],
        ["Whiteside","NNP","whitesid"]
      ]
    },
    ["and","CC","and"],
    ["composition","NN","composit"],
    ["with","IN","with"],
    {
      "tag":"PERSON",
      "content":
      [
        ["Karol","NNP","karol"],
        ["Rathaus","NNP","ratha"]
      ]
    },
    [",",",",","],
    {
      "tag":"PERSON",
      "content":
      [
        ["Harold","NNP","harold"],
        ["Morris","NNP","mor"]
      ]
    },
    ["and","CC","and"],
    {
      "tag":"PERSON",
      "content":
      [
        ["Otto","NNP","otto"],
        ["Luening","NNP","luen"]
      ]
    },
    [".",".","."]
  ]
},
{
  "tag":"S",
  "content":
  [
    {
      "tag":"PERSON",
      "content":
      [
        ["Berkowitz","NNP","berkowitz"]
      ]
    },
    ["was","VBD","be"],
    ["a","DT","a"],
    ["professor","NN","profess"],
    ["at","IN","at"],
    {
      "tag":"ORGANIZATION",
      "content":
      [
        ["Aaron","NNP","aaron"],
        ["Copland","NNP","copland"],
        ["School","NNP","school"]
      ]
    },
    ["of","IN","of"],
    {
      "tag":"PERSON",
      "content":
      [
        ["Music","NNP","mus"]
      ]
    },
    ["at","IN","at"],
    {
      "tag":"ORGANIZATION",
      "content":
      [
        ["Queens","NNP","queen"],
        ["College","NNP","colleg"]
      ]
    },
    ["from","IN","from"],
    ["1946","CD","1946"],
    ["until","IN","until"],
    ["1999","CD","1999"],
    [",",",",","],
    ["with","IN","with"],
    ["a","DT","a"],
    ["brief","JJ","brief"],
    ["hiatus","NN","hiat"],
    ["(",":","("],
    ["1961–1967","CD","1961–1967"],
    [")","CD",")"],
    ["to","TO","to"],
    ["pursue","VB","pursu"],
    ["a","DT","a"],
    ["career","NN","car"],
    ["as","IN","as"],
    ["a","DT","a"],
    ["theatre","NN","the"],
    [",",",",","],
    ["film","NN","film"],
    ["and","CC","and"],
    ["television","NN","televid"],
    ["composer","NN","compos"],
    [".",".","."]
  ]
},
{
  "tag":"S",
  "content":
  [
    {
      "tag":"GPE",
      "content":
      [
        ["Known","NNP","known"]
      ]
    },
    ["as","IN","as"],
    ["a","DT","a"],
    ["teacher","NN","teach"],
    ["of","IN","of"],
    ["music","JJ","mus"],
    ["theory","NN","the"],
    [",",",",","],
    ["orchestration","NN","orchest"],
    [",",",",","],
    ["ear","JJ","ear"],
    ["training","NN","train"],
    ["and","CC","and"],
    ["musicianship","NN","mus"],
    [",",",",","],
    {
      "tag":"PERSON",
      "content":
      [
        ["Berkowitz","NNP","berkowitz"]
      ]
    },
    ["wrote","VBD","writ"],
    ["the","DT","the"],
    ["music","JJ","mus"],
    ["textbooks","NNS","textbook"],
    ["A","DT","A"],
    {
      "tag":"GPE",
      "content":
      [
        ["New","NNP","new"]
      ]
    },
    ["Approach","NNP","approach"],
    ["to","TO","to"],
    {
      "tag":"PERSON",
      "content":
      [
        ["Sight","NNP","sight"],
        ["Singing","NNP","sing"]
      ]
    },
    ["and","CC","and"],
    ["Improvisation","NNP","improv"],
    ["through","IN","through"],
    {
      "tag":"PERSON",
      "content":
      [
        ["Keyboard","NNP","keyboard"],
        ["Harmony","NNP","harmony"]
      ]
    },
    [".",".","."]
  ]
},
{
  "tag":"S",
  "content":
  [
    {
      "tag":"PERSON",
      "content":
      [
        ["Berkowitz","NNP","berkowitz"]
      ]
    },
    ["composed","VBD","compos"],
    ["musicals","NNS","mus"],
    [",",",",","],
    ["ballets","NNS","ballet"],
    [",",",",","],
    ["orchestral","JJ","orchest"],
    ["works","NNS","work"],
    [",",",",","],
    ["chamber","NN","chamb"],
    ["music","NN","mus"],
    [",",",",","],
    ["and","CC","and"],
    ["hundreds","NNS","hundr"],
    ["of","IN","of"],
    ["choral","JJ","chor"],
    ["works","NNS","work"],
    ["and","CC","and"],
    ["songs","NNS","song"],
    [".",".","."]
  ]
},
{
  "tag":"S",
  "content":
  [
    ["His","PRP$","His"],
    ["musical","JJ","mus"],
    ["score","NN","scor"],
    ["Nowhere","NNP","nowh"],
    ["to","TO","to"],
    ["Go","NNP","go"],
    ["But","CC","But"],
    ["Up","NNP","up"],
    ["!",".","!"]
  ]
},
{
  "tag":"S",
  "content":
  [
    ["was","VBD","be"],
    ["produced","VBN","produc"],
    ["on","IN","on"],
    {
      "tag":"GPE",
      "content":
      [
        ["Broadway","NNP","broadway"]
      ]
    },
    ["in","IN","in"],
    ["1962","CD","1962"],
    [".",".","."]
  ]
},
{
  "tag":"S",
  "content":
  [
    ["Among","IN","Among"],
    {
      "tag":"PERSON",
      "content":
      [
        ["Berkowitz","NNP","berkowitz"]
      ]
    },
    ["'","POS","'"],
    ["students","NNS","stud"],
    ["are","VBP","be"],
    ["jazz","RB","jazz"],
    ["pianist","JJ","pian"],
    {
      "tag":"PERSON",
      "content":
      [
        ["Mal","NNP","mal"],
        ["Waldren","NNP","waldr"]
      ]
    },
    [",",",",","],
    ["jazz","NN","jazz"],
    ["guitarist","NN","guit"],
    ["Billy","RB","bil"],
    {
      "tag":"PERSON",
      "content":
      [
        ["Bauer","NNP","bau"]
      ]
    },
    [",",",",","],
    ["musicologist","NN","musicolog"],
    {
      "tag":"PERSON",
      "content":
      [
        ["Lewis","NNP","lew"],
        ["Lockwood","NNP","lockwood"]
      ]
    },
    ["and","CC","and"],
    ["composer","NN","compos"],
    {
      "tag":"PERSON",
      "content":
      [
        ["Bright","NNP","bright"],
        ["Sheng","NNP","sheng"]
      ]
    },
    [".",".","."]
  ]
},
{
  "tag":"S",
  "content":
  [
    ["==Selected","JJ","==selected"],
    ["works==","NN","works=="],
    [";",":",";"],
    ["Stage","NNP","stag"],
    ["*","-NONE-","*"],
    ["Fat","VB","fat"],
    ["Tuesday","NNP","tuesday"],
    [",",",",","],
    {
      "tag":"GPE",
      "content":
      [
        ["Opera","NNP","oper"]
      ]
    },
    ["(","NNP","("],
    ["1956","CD","1956"],
    [")","CD",")"],
    ["*","-NONE-","*"],
    ["Miss","JJ","miss"],
    {
      "tag":"PERSON",
      "content":
      [
        ["Emily","NNP","emy"],
        ["Adam","NNP","adam"]
      ]
    },
    [",",",",","],
    ["Off-Broadway","NNP","off-broadway"],
    ["Musical","NNP","mus"],
    ["(","NNP","("],
    ["1960","CD","1960"],
    [")","CD",")"],
    ["*","-NONE-","*"],
    ["Nowhere","RB","nowh"],
    ["to","TO","to"],
    ["Go","NNP","go"],
    ["But","CC","But"],
    ["Up","NNP","up"],
    ["!",".","!"],
    [",",",",","],
    {
      "tag":"PERSON",
      "content":
      [
        ["Broadway","NNP","broadway"],
        ["Musical","NNP","mus"]
      ]
    },
    ["(","NNP","("],
    ["1962","CD","1962"],
    [")","CD",")"],
    [";",":",";"],
    ["book","NN","book"],
    ["and","CC","and"],
    ["lyrics","NNS","lyr"],
    ["by","IN","by"],
    {
      "tag":"PERSON",
      "content":
      [
        ["James","NNP","jam"],
        ["Lipton","NNP","lipton"]
      ]
    },
    [";",":",";"],
    ["Orchestral","NNP","orchest"],
    ["*","-NONE-","*"],
    ["Diversion","NNP","divert"],
    ["(","NNP","("],
    ["1972","CD","1972"],
    [")","CD",")"],
    ["*","-NONE-","*"],
    {
      "tag":"PERSON",
      "content":
      [
        ["Dance","NNP","dant"],
        ["Suite","NNP","suit"]
      ]
    },
    ["for","IN","for"],
    ["string","VBG","string"],
    ["orchestra","NN","orchestr"],
    [";",":",";"],
    {
      "tag":"GPE",
      "content":
      [
        ["Band","NNP","band"]
      ]
    },
    ["*","-NONE-","*"],
    ["Game","VB","gam"],
    ["of","IN","of"],
    {
      "tag":"GPE",
      "content":
      [
        ["Dance","NNP","dant"]
      ]
    },
    ["(","NNP","("],
    ["1956","CD","1956"],
    [")","CD",")"],
    ["*","-NONE-","*"],
    {
      "tag":"ORGANIZATION",
      "content":
      [
        ["Paradigm","NNP","paradigm"]
      ]
    },
    [",",",",","],
    {
      "tag":"PERSON",
      "content":
      [
        ["Jazz","NNP","jazz"],
        ["Adventure","NNP","adv"]
      ]
    },
    ["in","IN","in"],
    {
      "tag":"GPE",
      "content":
      [
        ["Sonata","NNP","sonat"]
      ]
    },
    ["Allegro","NNP","allegro"],
    ["Form","NNP","form"],
    ["(","NNP","("],
    ["1969","CD","1969"],
    [")","CD",")"],
    ["*","-NONE-","*"],
    ["Suite","NNP","suit"],
    ["of","IN","of"],
    {
      "tag":"ORGANIZATION",
      "content":
      [
        ["Miniatures","NNP","miny"]
      ]
    },
    ["(","NNP","("],
    ["1977","CD","1977"],
    [")","CD",")"],
    [";",":",";"],
    ["Chamber","NNP","chamb"],
    ["music","NN","mus"],
    ["*","-NONE-","*"],
    ["10","CD","10"],
    ["Duets","NNS","duet"],
    ["for","IN","for"],
    {
      "tag":"ORGANIZATION",
      "content":
      [
        ["Treble","NNP","trebl"],
        ["Instruments","NNPS","instru"]
      ]
    },
    ["(","NNP","("],
    ["1971","CD","1971"],
    [")","CD",")"],
    ["*","-NONE-","*"],
    ["Introduction","NNP","introduc"],
    ["and","CC","and"],
    {
      "tag":"PERSON",
      "content":
      [
        ["Scherzo","NNP","scherzo"]
      ]
    },
    [":",":",":"],
    {
      "tag":"PERSON",
      "content":
      [
        ["Blues","NNPS","blu"]
      ]
    },
    ["and","CC","and"],
    {
      "tag":"GPE",
      "content":
      [
        ["Dance","NNP","dant"]
      ]
    },
    ["for","IN","for"],
    ["viola","NN","viol"],
    ["and","CC","and"],
    ["piano","NN","piano"],
    ["(",":","("],
    ["1974","CD","1974"],
    [")","CD",")"],
    ["*","-NONE-","*"],
    ["Suite","NNP","suit"],
    ["for","IN","for"],
    ["Winds","NNPS","wind"],
    ["for","IN","for"],
    ["flute","NN","flut"],
    [",",",",","],
    ["oboe","NN","obo"],
    [",",",",","],
    ["clarinet","NN","clarinet"],
    [",",",",","],
    ["bassoon","NN","bassoon"],
    ["and","CC","and"],
    ["horn","NN","horn"],
    ["(",":","("],
    ["1975","CD","1975"],
    [")","CD",")"],
    ["*","-NONE-","*"],
    ["Dialogue","NNP","dialog"],
    ["for","IN","for"],
    ["cello","NN","cello"],
    ["and","CC","and"],
    ["piano","NN","piano"],
    ["(",":","("],
    ["1980","CD","1980"],
    [")","CD",")"],
    [";",":",";"],
    {
      "tag":"GPE",
      "content":
      [
        ["Piano","NNP","piano"]
      ]
    },
    ["*","-NONE-","*"],
    {
      "tag":"GPE",
      "content":
      [
        ["Sonata","NNP","sonat"]
      ]
    },
    ["(","NNP","("],
    ["1941","CD","1941"],
    [")","CD",")"],
    ["*","-NONE-","*"],
    ["Duo","NNP","duo"],
    ["concertante","VB","concert"],
    ["for","IN","for"],
    ["2","CD","2"],
    ["pianos","NNS","piano"],
    ["(",":","("],
    ["1942","CD","1942"],
    [")","CD",")"],
    ["*","-NONE-","*"],
    ["9","CD","9"],
    ["Folk","NNP","folk"],
    ["Song","NNP","song"],
    ["Preludes","NNP","prelud"],
    ["(","NNP","("],
    ["1972","CD","1972"],
    [")","CD",")"],
    ["*","-NONE-","*"],
    ["12","CD","12"],
    ["Easy","NNP","easy"],
    ["Blues","NNP","blu"],
    ["(","NNP","("],
    ["1974","CD","1974"],
    [")","CD",")"],
    ["*","-NONE-","*"],
    ["4","CD","4"],
    ["Blues","NNS","blu"],
    ["for","IN","for"],
    {
      "tag":"GPE",
      "content":
      [
        ["Lefty","NNP","lefty"]
      ]
    },
    ["(",":","("],
    ["1976","CD","1976"],
    [")","CD",")"],
    ["*","-NONE-","*"],
    ["Five","CD","Five"],
    ["for","IN","for"],
    ["Four","CD","Four"],
    ["for","IN","for"],
    ["piano","NN","piano"],
    ["4-hands","NNS","4-hands"],
    ["(",":","("],
    ["1977","CD","1977"],
    [")","CD",")"],
    ["*","-NONE-","*"],
    ["Jazzettes","VBZ","jazzet"],
    [",",",",","],
    ["17","CD","17"],
    ["Pieces","NNS","piec"],
    ["in","IN","in"],
    {
      "tag":"GPE",
      "content":
      [
        ["Classic","NNP","class"]
      ]
    },
    ["Jazz","NNP","jazz"],
    ["Style","NNP","styl"],
    ["(","NNP","("],
    ["1988","CD","1988"],
    [")","CD",")"],
    [";",":",";"],
    ["Choral","NNP","chor"],
    ["*","-NONE-","*"],
    ["Did","NNP","did"],
    ["n't","RB","n't"],
    ["My","NNP","my"],
    ["Lord","NNP","lord"],
    ["Deliver","NNP","del"],
    {
      "tag":"PERSON",
      "content":
      [
        ["Daniel","NNP","daniel"]
      ]
    },
    ["for","IN","for"],
    ["mixed","VBN","mix"],
    ["chorus","NN","chor"],
    ["a","DT","a"],
    ["cappella","NN","cappell"],
    ["(",":","("],
    ["1955","CD","1955"],
    [")","CD",")"],
    ["*","-NONE-","*"],
    ["Without","IN","Without"],
    ["Words","NNS","word"],
    [",",",",","],
    {
      "tag":"PERSON",
      "content":
      [
        ["Suite","NNP","suit"]
      ]
    },
    ["for","IN","for"],
    ["mixed","VBN","mix"],
    ["chorus","NN","chor"],
    ["a","DT","a"],
    ["cappella","NN","cappell"],
    ["(",":","("],
    ["1963","CD","1963"],
    [")","CD",")"],
    ["*","-NONE-","*"],
    ["The","DT","The"],
    {
      "tag":"ORGANIZATION",
      "content":
      [
        ["Mad","NNP","mad"],
        ["Lover","NNP","lov"]
      ]
    },
    [",",",",","],
    ["5","CD","5"],
    ["Sad","NNP","sad"],
    ["and","CC","and"],
    {
      "tag":"ORGANIZATION",
      "content":
      [
        ["Humorous","NNP","hum"],
        ["Songs","NNP","song"]
      ]
    },
    ["in","IN","in"],
    {
      "tag":"GPE",
      "content":
      [
        ["Jazz","NNP","jazz"],
        ["Rock","NNP","rock"]
      ]
    },
    ["for","IN","for"],
    ["mixed","VBN","mix"],
    ["chorus","NN","chor"],
    ["a","DT","a"],
    ["cappella","NN","cappell"],
    ["(",":","("],
    ["1970","CD","1970"],
    [")","CD",")"],
    [";",":",";"],
    ["words","NNS","word"],
    ["by","IN","by"],
    {
      "tag":"PERSON",
      "content":
      [
        ["Alexander","NNP","alexand"],
        ["Brome","NNP","brom"]
      ]
    },
    ["*","-NONE-","*"],
    ["Add","NNP","ad"],
    ["a","DT","a"],
    ["Riff","NNP","riff"],
    ["for","IN","for"],
    ["mixed","VBN","mix"],
    ["chorus","NN","chor"],
    ["with","IN","with"],
    ["optional","JJ","opt"],
    ["accompaniment","NN","accompany"],
    ["(",":","("],
    ["1974","CD","1974"],
    [")","CD",")"],
    ["*","-NONE-","*"],
    ["Two","CD","Two"],
    ["Letters","NNS","let"],
    ["from","IN","from"],
    {
      "tag":"GPE",
      "content":
      [
        ["Lincoln","NNP","lincoln"]
      ]
    },
    ["for","IN","for"],
    ["mixed","VBN","mix"],
    ["chorus","NN","chor"],
    ["and","CC","and"],
    ["piano","NN","piano"],
    ["(",":","("],
    ["1974","CD","1974"],
    [")","CD",")"],
    ["*","-NONE-","*"],
    ["Two","CD","Two"],
    ["Letters","NNS","let"],
    ["from","IN","from"],
    {
      "tag":"PERSON",
      "content":
      [
        ["Jefferson","NNP","jefferson"]
      ]
    },
    ["for","IN","for"],
    ["mixed","VBN","mix"],
    ["chorus","NN","chor"],
    ["and","CC","and"],
    ["piano","NN","piano"],
    ["(",":","("],
    ["1975","CD","1975"],
    [")","CD",")"],
    ["*","-NONE-","*"],
    ["Antidisestablishmentarianism","NNP","antidisestablishment"],
    ["for","IN","for"],
    ["mixed","VBN","mix"],
    ["chorus","NN","chor"],
    ["a","DT","a"],
    ["cappella","NN","cappell"],
    ["(",":","("],
    ["1975","CD","1975"],
    [")","CD",")"],
    ["*","-NONE-","*"],
    ["Some","DT","Some"],
    ["Guides","NNP","guid"],
    ["to","TO","to"],
    ["Dining","NNP","din"],
    ["according","VBG","accord"],
    ["to","TO","to"],
    {
      "tag":"PERSON",
      "content":
      [
        ["George","NNP","georg"],
        ["Washington","NNP","washington"]
      ]
    },
    ["for","IN","for"],
    ["mixed","VBN","mix"],
    ["chorus","NN","chor"],
    ["and","CC","and"],
    ["piano","NN","piano"],
    ["(",":","("],
    ["1978","CD","1978"],
    [")","CD",")"],
    ["*","-NONE-","*"],
    ["Do","VB","do"],
    ["n't","RB","n't"],
    ["Ask","VB","ask"],
    ["Me","NNP","me"],
    ["and","CC","and"],
    ["I","PRP","I"],
    ["Had","NNP","had"],
    ["a","DT","a"],
    ["Little","NNP","littl"],
    ["Pup","NNP","pup"],
    [",",",",","],
    ["2","CD","2"],
    ["Traditional","NNP","tradit"],
    {
      "tag":"ORGANIZATION",
      "content":
      [
        ["American","NNP","am"],
        ["Rhymes","NNP","rhym"]
      ]
    },
    ["for","IN","for"],
    ["two-part","NN","two-part"],
    ["chorus","NN","chor"],
    ["of","IN","of"],
    ["young","JJ","young"],
    ["voices","NNS","voic"],
    ["and","CC","and"],
    ["piano","RB","piano"],
    ["(",":","("],
    ["1979","CD","1979"],
    [")","CD",")"],
    ["*","-NONE-","*"],
    ["Father","CC","Father"],
    {
      "tag":"PERSON",
      "content":
      [
        ["William","NNP","william"]
      ]
    },
    ["for","IN","for"],
    ["two-part","NN","two-part"],
    ["chorus","NN","chor"],
    ["of","IN","of"],
    ["young","JJ","young"],
    ["voices","NNS","voic"],
    ["with","IN","with"],
    ["piano","DT","piano"],
    ["accompaniment","NN","accompany"],
    ["(",":","("],
    ["1979","CD","1979"],
    [")","CD",")"],
    [";",":",";"],
    ["words","NNS","word"],
    ["by","IN","by"],
    {
      "tag":"PERSON",
      "content":
      [
        ["Lewis","NNP","lew"],
        ["Carroll","NNP","carrol"]
      ]
    },
    ["*","-NONE-","*"],
    {
      "tag":"PERSON",
      "content":
      [
        ["Daniel","NNP","daniel"]
      ]
    },
    [",",",",","],
    {
      "tag":"PERSON",
      "content":
      [
        ["Spiritual","NNP","spirit"],
        ["Paraphrase","NNP","paraphras"]
      ]
    },
    ["for","IN","for"],
    ["mixed","VBN","mix"],
    ["chorus","NN","chor"],
    ["and","CC","and"],
    ["piano","NN","piano"],
    ["(",":","("],
    ["1981","CD","1981"],
    [")","CD",")"],
    ["*","-NONE-","*"],
    ["The","DT","The"],
    {
      "tag":"ORGANIZATION",
      "content":
      [
        ["Bop","NNP","bop"],
        ["Fugue","NNP","fugu"]
      ]
    },
    ["for","IN","for"],
    ["two-part","NN","two-part"],
    ["chorus","NN","chor"],
    ["with","IN","with"],
    ["keyboard","NN","keyboard"],
    ["accompaniment","NN","accompany"],
    ["(",":","("],
    ["1981","CD","1981"],
    [")","CD",")"],
    ["*","-NONE-","*"],
    ["The","DT","The"],
    {
      "tag":"ORGANIZATION",
      "content":
      [
        ["Cuckoo","NNP","cuckoo"],
        ["Bird","NNP","bird"]
      ]
    },
    ["for","IN","for"],
    ["two-part","NN","two-part"],
    ["chorus","NN","chor"],
    ["and","CC","and"],
    ["piano","NN","piano"],
    ["(",":","("],
    ["1982","CD","1982"],
    [")","CD",")"],
    ["*","-NONE-","*"],
    ["Passacaglia","NNP","passacagl"],
    ["in","IN","in"],
    {
      "tag":"GPE",
      "content":
      [
        ["Blue","NNP","blu"]
      ]
    },
    [",",",",","],
    ["Theme","NNP","them"],
    ["and","CC","and"],
    ["14","CD","14"],
    ["Variations","NNS","vary"],
    ["for","IN","for"],
    ["mixed","VBN","mix"],
    ["chorus","NN","chor"],
    ["and","CC","and"],
    ["piano","NN","piano"],
    ["(",":","("],
    ["1982","CD","1982"],
    [")","CD",")"],
    ["*","-NONE-","*"],
    ["Comparisons","NNS","comparison"],
    ["for","IN","for"],
    ["two-part","NN","two-part"],
    ["chorus","NN","chor"],
    ["and","CC","and"],
    ["piano","NN","piano"],
    ["(",":","("],
    ["1982","CD","1982"],
    [")","CD",")"],
    ["*","-NONE-","*"],
    ["Me","PRP","Me"],
    ["and","CC","and"],
    {
      "tag":"ORGANIZATION",
      "content":
      [
        ["Animals","NNS","anim"]
      ]
    },
    ["for","IN","for"],
    ["two-part","NN","two-part"],
    ["chorus","NN","chor"],
    ["and","CC","and"],
    ["piano","NN","piano"],
    ["(",":","("],
    ["1982","CD","1982"],
    [")","CD",")"],
    ["*","-NONE-","*"],
    {
      "tag":"PERSON",
      "content":
      [
        ["Swingin","NNP","swingin"]
      ]
    },
    ["'","''","'"],
    ["in","IN","in"],
    {
      "tag":"GPE",
      "content":
      [
        ["Five","NNP","fiv"]
      ]
    },
    ["for","IN","for"],
    ["two-part","NN","two-part"],
    ["mixed","VBN","mix"],
    ["chorus","NN","chor"],
    ["and","CC","and"],
    ["piano","NN","piano"],
    ["(",":","("],
    ["1984","CD","1984"],
    [")","CD",")"],
    ["*","-NONE-","*"],
    {
      "tag":"PERSON",
      "content":
      [
        ["Swingin","NNP","swingin"]
      ]
    },
    ["'","''","'"],
    ["with","IN","with"],
    ["Solfège","JJ","solfèg"],
    ["for","IN","for"],
    ["two-part","NN","two-part"],
    ["mixed","VBN","mix"],
    ["chorus","NN","chor"],
    ["and","CC","and"],
    ["piano","NN","piano"],
    ["(",":","("],
    ["1984","CD","1984"],
    [")","CD",")"],
    ["*","-NONE-","*"],
    {
      "tag":"PERSON",
      "content":
      [
        ["Latin","NNP","latin"],
        ["Rock","NNP","rock"]
      ]
    },
    ["for","IN","for"],
    ["three-part","NN","three-part"],
    ["chorus","NN","chor"],
    ["and","CC","and"],
    ["piano","NN","piano"],
    ["(",":","("],
    ["1985","CD","1985"],
    [")","CD",")"],
    [";",":",";"],
    ["Educational","NNP","educ"],
    ["*","-NONE-","*"],
    ["A","DT","A"],
    {
      "tag":"GPE",
      "content":
      [
        ["New","NNP","new"]
      ]
    },
    ["Approach","NNP","approach"],
    ["to","TO","to"],
    {
      "tag":"PERSON",
      "content":
      [
        ["Sight","NNP","sight"],
        ["Singing","NNP","sing"]
      ]
    },
    ["(","NNP","("],
    ["W.","NNP","w."],
    ["W.","NNP","w."],
    {
      "tag":"GPE",
      "content":
      [
        ["Norton","NNP","norton"]
      ]
    },
    ["&","CC","&"],
    {
      "tag":"ORGANIZATION",
      "content":
      [
        ["Company","NNP","company"]
      ]
    },
    [",",",",","],
    ["1960","CD","1960"],
    [")",":",")"],
    ["*","-NONE-","*"],
    ["Improvisation","NNP","improv"],
    ["through","IN","through"],
    {
      "tag":"PERSON",
      "content":
      [
        ["Keyboard","NNP","keyboard"],
        ["Harmony","NNP","harmony"]
      ]
    },
    ["(","NNP","("],
    ["Prentice","NNP","prent"],
    ["Hall","NNP","hal"],
    [",",",",","],
    ["1975","CD","1975"],
    [")",":",")"],
    ["==References==","JJ","==references=="],
    ["==External","JJ","==external"],
    ["links==","NN","links=="],
    ["*","-NONE-","*"],
    ["*","-NONE-","*"]
  ]
}]