[
{
  "tag":"S",
  "content":
  [
    {
      "tag":"PERSON",
      "content":
      [
        ["Darren","NNP","dar"]
      ]
    },
    ["O'Shaughnessy","NNP","o'shaughnessy"],
    ["(","NNP","("],
    [";",":",";"],
    ["born","NN","born"],
    ["2","CD","2"],
    ["July","NNP","july"],
    ["1972","CD","1972"],
    ["in","IN","in"],
    {
      "tag":"GPE",
      "content":
      [
        ["London","NNP","london"]
      ]
    },
    [",",",",","],
    {
      "tag":"ORGANIZATION",
      "content":
      [
        ["UK","NNP","uk"]
      ]
    },
    [")","NNP",")"],
    [",",",",","],
    ["who","WP","who"],
    ["commonly","RB","common"],
    ["writes","VBZ","writ"],
    ["under","IN","under"],
    ["the","DT","the"],
    ["pen","NN","pen"],
    ["name","NN","nam"],
    {
      "tag":"PERSON",
      "content":
      [
        ["Darren","NNP","dar"],
        ["Shan","NNP","shan"]
      ]
    },
    [",",",",","],
    ["is","VBZ","be"],
    ["an","DT","an"],
    {
      "tag":"GPE",
      "content":
      [
        ["Irish","JJ","ir"]
      ]
    },
    ["author","NN","auth"],
    [".",".","."]
  ]
},
{
  "tag":"S",
  "content":
  [
    {
      "tag":"PERSON",
      "content":
      [
        ["Darren","NNP","dar"]
      ]
    },
    {
      "tag":"ORGANIZATION",
      "content":
      [
        ["Shan","NNP","shan"]
      ]
    },
    ["is","VBZ","be"],
    ["the","DT","the"],
    ["main","JJ","main"],
    ["character","NN","charact"],
    ["in","IN","in"],
    {
      "tag":"GPE",
      "content":
      [
        ["Shan","NNP","shan"]
      ]
    },
    ["'s","POS","'s"],
    ["The","NNP","the"],
    ["Saga","NNP","sag"],
    ["of","IN","of"],
    {
      "tag":"PERSON",
      "content":
      [
        ["Darren","NNP","dar"],
        ["Shan","NNP","shan"]
      ]
    },
    ["young-adult","NNP","young-adult"],
    ["fiction","NN","fict"],
    ["series","NNS","sery"],
    [".",".","."]
  ]
},
{
  "tag":"S",
  "content":
  [
    ["He","PRP","He"],
    ["also","RB","also"],
    ["wrote","VBD","writ"],
    ["The","DT","The"],
    {
      "tag":"ORGANIZATION",
      "content":
      [
        ["Demonata","NNP","demonat"]
      ]
    },
    ["series","NN","sery"],
    ["as","IN","as"],
    ["well","RB","wel"],
    ["as","IN","as"],
    ["the","DT","the"],
    ["stand-alone","NN","stand-alone"],
    ["books","NNS","book"],
    [",",",",","],
    {
      "tag":"PERSON",
      "content":
      [
        ["Koyasan","NNP","koyas"]
      ]
    },
    ["and","CC","and"],
    ["The","DT","The"],
    {
      "tag":"ORGANIZATION",
      "content":
      [
        ["Thin","NNP","thin"],
        ["Executioner","NNP","execut"]
      ]
    },
    [".",".","."]
  ]
},
{
  "tag":"S",
  "content":
  [
    ["The","DT","The"],
    {
      "tag":"FACILITY",
      "content":
      [
        ["City","NNP","city"],
        ["Book","NNP","book"],
        ["Trilogy","NNP","trilog"]
      ]
    },
    ["was","VBD","be"],
    ["written","VBN","writ"],
    ["for","IN","for"],
    ["older","JJR","old"],
    [",",",",","],
    ["adult","NN","adult"],
    ["readers","NNS","read"],
    [".",".","."]
  ]
},
{
  "tag":"S",
  "content":
  [
    ["He","PRP","He"],
    ["has","VBZ","hav"],
    ["also","RB","also"],
    ["written","VBN","writ"],
    ["The","DT","The"],
    {
      "tag":"ORGANIZATION",
      "content":
      [
        ["Saga","NNP","sag"]
      ]
    },
    ["of","IN","of"],
    {
      "tag":"PERSON",
      "content":
      [
        ["Larten","NNP","lart"],
        ["Crepsley","NNP","crepsley"]
      ]
    },
    ["which","WDT","which"],
    ["is","VBZ","be"],
    ["based","VBN","bas"],
    ["on","IN","on"],
    ["The","DT","The"],
    {
      "tag":"ORGANIZATION",
      "content":
      [
        ["Saga","NNP","sag"]
      ]
    },
    ["of","IN","of"],
    {
      "tag":"PERSON",
      "content":
      [
        ["Darren","NNP","dar"],
        ["Shan","NNP","shan"]
      ]
    },
    [".",".","."]
  ]
},
{
  "tag":"S",
  "content":
  [
    ["He","PRP","He"],
    ["is","VBZ","be"],
    ["currently","RB","cur"],
    ["publishing","VBG","publ"],
    ["a","DT","a"],
    ["new","JJ","new"],
    ["12","CD","12"],
    ["novel","NN","novel"],
    ["series","NNS","sery"],
    ["``","``","``"],
    ["Zom-B","JJ","zom-b"],
    ["''","''","''"],
    [".",".","."]
  ]
},
{
  "tag":"S",
  "content":
  [
    ["The","DT","The"],
    ["first","JJ","first"],
    ["book","NN","book"],
    ["went","NN","went"],
    ["on","IN","on"],
    ["sale","NN","sal"],
    ["in","IN","in"],
    ["September","NNP","septemb"],
    ["2012","CD","2012"],
    [",",",",","],
    ["and","CC","and"],
    ["the","DT","the"],
    ["books","NNS","book"],
    ["are","VBP","be"],
    ["being","VBG","be"],
    ["released","VBN","releas"],
    ["every","DT","every"],
    ["three","CD","three"],
    ["months","NNS","mon"],
    [",",",",","],
    ["with","IN","with"],
    ["the","DT","the"],
    ["final","JJ","fin"],
    ["book","NN","book"],
    ["scheduled","VBN","schedule"],
    ["to","TO","to"],
    ["see","VB","see"],
    ["print","JJ","print"],
    ["in","IN","in"],
    ["summer","NN","sum"],
    ["2015","CD","2015"],
    [".",".","."]
  ]
},
{
  "tag":"S",
  "content":
  [
    ["==Early","RB","==early"],
    ["life==","JJ","life=="],
    {
      "tag":"PERSON",
      "content":
      [
        ["Shan","NNP","shan"]
      ]
    },
    ["was","VBD","be"],
    ["born","VBN","bear"],
    ["on","IN","on"],
    ["2","CD","2"],
    ["July","NNP","july"],
    ["1972","CD","1972"],
    ["at","IN","at"],
    {
      "tag":"FACILITY",
      "content":
      [
        ["St","NNP","st"],
        ["Thomas","NNP","thoma"]
      ]
    },
    ["'","POS","'"],
    {
      "tag":"ORGANIZATION",
      "content":
      [
        ["Hospital","NNP","hospit"]
      ]
    },
    [",",",",","],
    {
      "tag":"GPE",
      "content":
      [
        ["London","NNP","london"]
      ]
    },
    [".",".","."]
  ]
},
{
  "tag":"S",
  "content":
  [
    ["At","IN","At"],
    ["the","DT","the"],
    ["age","NN","ag"],
    ["of","IN","of"],
    ["three","CD","three"],
    [",",",",","],
    ["he","PRP","he"],
    ["started","VBD","start"],
    ["school","NN","school"],
    ["at","IN","at"],
    {
      "tag":"FACILITY",
      "content":
      [
        ["English","NNP","engl"],
        ["Martyr","NNP","martyr"]
      ]
    },
    ["'s","POS","'s"],
    ["near","NN","near"],
    ["the","DT","the"],
    {
      "tag":"ORGANIZATION",
      "content":
      [
        ["Elephant","NNP","eleph"]
      ]
    },
    ["and","CC","and"],
    {
      "tag":"GPE",
      "content":
      [
        ["Castle","NNP","castl"]
      ]
    },
    [".",".","."]
  ]
},
{
  "tag":"S",
  "content":
  [
    ["When","WRB","When"],
    ["he","PRP","he"],
    ["was","VBD","be"],
    ["six","CD","six"],
    [",",",",","],
    ["he","PRP","he"],
    ["moved","VBD","mov"],
    ["with","IN","with"],
    ["his","PRP$","his"],
    ["parents","NNS","par"],
    ["and","CC","and"],
    ["younger","JJR","young"],
    ["brother","NN","broth"],
    [",",",",","],
    ["to","TO","to"],
    {
      "tag":"GPE",
      "content":
      [
        ["Limerick","NNP","limerick"]
      ]
    },
    [",",",",","],
    ["where","WRB","where"],
    ["he","PRP","he"],
    ["has","VBZ","hav"],
    ["lived","VBN","liv"],
    ["ever","RB","ev"],
    ["since","IN","since"],
    [".",".","."]
  ]
},
{
  "tag":"S",
  "content":
  [
    ["He","PRP","He"],
    ["received","VBD","receiv"],
    ["his","PRP$","his"],
    ["primary","JJ","prim"],
    ["education","NN","educ"],
    ["in","IN","in"],
    {
      "tag":"GPE",
      "content":
      [
        ["Askeaton","NNP","askeaton"]
      ]
    },
    [",",",",","],
    ["and","CC","and"],
    ["attended","VBD","attend"],
    ["secondary","JJ","second"],
    ["school","NN","school"],
    ["at","IN","at"],
    {
      "tag":"ORGANIZATION",
      "content":
      [
        ["Copsewood","NNP","copsewood"],
        ["College","NNP","colleg"]
      ]
    },
    [",",",",","],
    {
      "tag":"GPE",
      "content":
      [
        ["Pallaskenry","NNP","pallaskenry"]
      ]
    },
    [".",".","."]
  ]
},
{
  "tag":"S",
  "content":
  [
    ["He","PRP","He"],
    ["returned","VBD","return"],
    ["to","TO","to"],
    {
      "tag":"GPE",
      "content":
      [
        ["London","NNP","london"]
      ]
    },
    ["to","TO","to"],
    ["pursue","VB","pursu"],
    ["a","DT","a"],
    ["degree","NN","degr"],
    ["in","IN","in"],
    {
      "tag":"GPE",
      "content":
      [
        ["Sociology","NNP","sociolog"]
      ]
    },
    ["and","CC","and"],
    {
      "tag":"GPE",
      "content":
      [
        ["English","NNP","engl"]
      ]
    },
    ["from","IN","from"],
    {
      "tag":"PERSON",
      "content":
      [
        ["Roehampton","NNP","roehampton"],
        ["University","NNP","univers"]
      ]
    },
    [".",".","."]
  ]
},
{
  "tag":"S",
  "content":
  [
    ["==Career==","NN","==career=="],
    {
      "tag":"PERSON",
      "content":
      [
        ["Shan","NNP","shan"]
      ]
    },
    [",",",",","],
    ["before","IN","before"],
    ["he","PRP","he"],
    ["decided","VBD","decid"],
    ["to","TO","to"],
    ["become","VB","becom"],
    ["a","DT","a"],
    ["full-time","JJ","full-time"],
    ["writer","NN","writ"],
    ["at","IN","at"],
    ["the","DT","the"],
    ["age","NN","ag"],
    ["of","IN","of"],
    ["23","CD","23"],
    [",",",",","],
    ["worked","VBD","work"],
    ["for","IN","for"],
    ["a","DT","a"],
    ["cable","JJ","cabl"],
    ["company","NN","company"],
    ["in","IN","in"],
    {
      "tag":"GPE",
      "content":
      [
        ["Limerick","NNP","limerick"]
      ]
    },
    ["for","IN","for"],
    ["two","CD","two"],
    ["years","NNS","year"],
    [".",".","."]
  ]
},
{
  "tag":"S",
  "content":
  [
    ["He","PRP","He"],
    ["bought","VBD","buy"],
    ["his","PRP$","his"],
    ["first","JJ","first"],
    ["typewriter","NN","typewrit"],
    ["when","WRB","when"],
    ["he","PRP","he"],
    ["was","VBD","be"],
    ["fourteen","VBN","fourteen"],
    ["and","CC","and"],
    ["wrote","VBD","writ"],
    ["many","JJ","many"],
    ["short","JJ","short"],
    ["stories","NNS","story"],
    [",",",",","],
    ["comic","JJ","com"],
    ["scripts","NNS","script"],
    [",",",",","],
    ["and","CC","and"],
    ["books","NNS","book"],
    ["that","WDT","that"],
    ["he","PRP","he"],
    ["never","RB","nev"],
    ["finished","VBD","fin"],
    [".",".","."]
  ]
},
{
  "tag":"S",
  "content":
  [
    ["His","PRP$","His"],
    ["first","JJ","first"],
    ["success","NN","success"],
    ["came","VBD","com"],
    ["to","TO","to"],
    ["him","PRP","him"],
    ["at","IN","at"],
    ["age","NN","ag"],
    ["fifteen","NNS","fifteen"],
    [",",",",","],
    ["when","WRB","when"],
    ["he","PRP","he"],
    ["was","VBD","be"],
    ["a","DT","a"],
    ["runner-up","JJ","runner-up"],
    ["in","IN","in"],
    ["a","DT","a"],
    ["TV","NN","tv"],
    ["script-writing","NN","script-writing"],
    ["competition","NN","competit"],
    ["for","IN","for"],
    ["RTÉ","NN","rté"],
    ["in","IN","in"],
    {
      "tag":"GPE",
      "content":
      [
        ["Ireland","NNP","ireland"]
      ]
    },
    [",",",",","],
    ["with","IN","with"],
    ["a","DT","a"],
    ["dark","JJ","dark"],
    ["comedy","NN","comedy"],
    ["story","NN","story"],
    ["entitled","VBD","entitl"],
    ["A","DT","A"],
    ["Day","NNP","day"],
    ["in","IN","in"],
    ["the","DT","the"],
    {
      "tag":"GPE",
      "content":
      [
        ["Morgue","NNP","morgu"]
      ]
    },
    [".",".","."]
  ]
},
{
  "tag":"S",
  "content":
  [
    ["He","PRP","He"],
    ["finished","VBD","fin"],
    ["his","PRP$","his"],
    ["first","JJ","first"],
    ["novel","NN","novel"],
    ["at","IN","at"],
    ["age","NN","ag"],
    ["seventeen","NNS","seventeen"],
    [".",".","."]
  ]
},
{
  "tag":"S",
  "content":
  [
    {
      "tag":"PERSON",
      "content":
      [
        ["Mute","NNP","mut"]
      ]
    },
    {
      "tag":"PERSON",
      "content":
      [
        ["Pursuit","NNP","pursuit"]
      ]
    },
    ["was","VBD","be"],
    ["never","RB","nev"],
    ["published","VBN","publ"],
    [",",",",","],
    ["but","CC","but"],
    ["he","PRP","he"],
    ["loved","VBD","lov"],
    ["the","DT","the"],
    ["writing","NN","writ"],
    ["experience","NN","expery"],
    [",",",",","],
    ["so","RB","so"],
    ["he","PRP","he"],
    ["started","VBD","start"],
    ["focusing","VBG","foc"],
    ["on","IN","on"],
    ["novels","NNS","novel"],
    ["more","RBR","mor"],
    ["and","CC","and"],
    ["not","RB","not"],
    ["on","IN","on"],
    ["short","JJ","short"],
    ["stories","NNS","story"],
    [".",".","."]
  ]
},
{
  "tag":"S",
  "content":
  [
    ["His","PRP$","His"],
    ["breakthrough","JJ","breakthrough"],
    ["came","NN","cam"],
    ["with","IN","with"],
    {
      "tag":"PERSON",
      "content":
      [
        ["Ayuamarca","NNP","ayuamarc"]
      ]
    },
    [",",",",","],
    ["written","VBN","writ"],
    ["under","IN","under"],
    ["his","PRP$","his"],
    ["full","JJ","ful"],
    ["name","NN","nam"],
    ["instead","RB","instead"],
    ["of","IN","of"],
    ["a","DT","a"],
    ["pen","JJ","pen"],
    ["name","NN","nam"],
    [".",".","."]
  ]
},
{
  "tag":"S",
  "content":
  [
    ["It","PRP","It"],
    ["was","VBD","be"],
    ["published","VBN","publ"],
    ["in","IN","in"],
    ["February","NNP","febru"],
    ["1999","CD","1999"],
    ["by","IN","by"],
    {
      "tag":"PERSON",
      "content":
      [
        ["Orion","NNP","or"],
        ["Publishing","NNP","publ"],
        ["Group","NNP","group"]
      ]
    },
    [",",",",","],
    ["and","CC","and"],
    ["did","VBD","do"],
    ["not","RB","not"],
    ["sell","VB","sel"],
    ["very","RB","very"],
    ["well","RB","wel"],
    [".",".","."]
  ]
},
{
  "tag":"S",
  "content":
  [
    ["The","DT","The"],
    ["sequel","NN","sequel"],
    [",",",",","],
    {
      "tag":"PERSON",
      "content":
      [
        ["Hell","NNP","hel"]
      ]
    },
    ["'s","POS","'s"],
    {
      "tag":"PERSON",
      "content":
      [
        ["Horizon","NNP","horizon"]
      ]
    },
    [",",",",","],
    ["published","VBD","publ"],
    ["in","IN","in"],
    ["February","NNP","febru"],
    ["2000","CD","2000"],
    [",",",",","],
    ["was","VBD","be"],
    ["thought","VBN","think"],
    ["by","IN","by"],
    ["some","DT","some"],
    ["to","TO","to"],
    ["be","VB","be"],
    ["a","DT","a"],
    ["better","JJR","good"],
    ["book","NN","book"],
    [",",",",","],
    ["but","CC","but"],
    ["sold","VBD","sel"],
    ["fewer","JJR","few"],
    ["copies","NNS","cop"],
    ["than","IN","than"],
    ["the","DT","the"],
    ["first","JJ","first"],
    [".",".","."]
  ]
},
{
  "tag":"S",
  "content":
  [
    {
      "tag":"PERSON",
      "content":
      [
        ["Ayuamarca","NNP","ayuamarc"]
      ]
    },
    ["was","VBD","be"],
    ["re-released","JJ","re-released"],
    ["in","IN","in"],
    ["March","NNP","march"],
    ["2008","CD","2008"],
    ["under","IN","under"],
    ["the","DT","the"],
    ["title","NN","titl"],
    ["of","IN","of"],
    ["Procession","NNP","process"],
    ["of","IN","of"],
    ["the","DT","the"],
    {
      "tag":"ORGANIZATION",
      "content":
      [
        ["Dead","NNP","dead"]
      ]
    },
    ["and","CC","and"],
    ["under","IN","under"],
    ["the","DT","the"],
    ["pen-name","JJ","pen-name"],
    ["D.B","NN","d.b"],
    {
      "tag":"PERSON",
      "content":
      [
        ["Shan","NNP","shan"]
      ]
    },
    [".",".","."]
  ]
},
{
  "tag":"S",
  "content":
  [
    {
      "tag":"PERSON",
      "content":
      [
        ["Hell","NNP","hel"]
      ]
    },
    ["'s","POS","'s"],
    {
      "tag":"PERSON",
      "content":
      [
        ["Horizon","NNP","horizon"]
      ]
    },
    ["followed","VBD","follow"],
    ["in","IN","in"],
    ["March","NNP","march"],
    ["2009","CD","2009"],
    [",",",",","],
    ["and","CC","and"],
    ["the","DT","the"],
    ["third","JJ","third"],
    ["in","IN","in"],
    ["the","DT","the"],
    ["trilogy","NN","trilog"],
    [",",",",","],
    {
      "tag":"ORGANIZATION",
      "content":
      [
        ["City","NNP","city"]
      ]
    },
    ["of","IN","of"],
    ["the","DT","the"],
    {
      "tag":"ORGANIZATION",
      "content":
      [
        ["Snakes","NNP","snak"]
      ]
    },
    ["in","IN","in"],
    ["March","NNP","march"],
    ["2010","CD","2010"],
    ["(","CD","("],
    ["but","CC","but"],
    ["this","DT","this"],
    ["time","NN","tim"],
    ["under","IN","under"],
    ["the","DT","the"],
    ["name","NN","nam"],
    ["of","IN","of"],
    {
      "tag":"PERSON",
      "content":
      [
        ["Darren","NNP","dar"],
        ["Shan","NNP","shan"]
      ]
    },
    [")","NNP",")"],
    [".",".","."]
  ]
},
{
  "tag":"S",
  "content":
  [
    ["In","IN","In"],
    ["January","NNP","janu"],
    ["2000","CD","2000"],
    [",",",",","],
    {
      "tag":"PERSON",
      "content":
      [
        ["Shan","NNP","shan"]
      ]
    },
    ["released","VBD","releas"],
    {
      "tag":"PERSON",
      "content":
      [
        ["Cirque","NNP","cirqu"]
      ]
    },
    ["du","NN","du"],
    {
      "tag":"PERSON",
      "content":
      [
        ["Freak","NNP","freak"]
      ]
    },
    [",",",",","],
    ["the","DT","the"],
    ["first","JJ","first"],
    ["book","NN","book"],
    ["of","IN","of"],
    ["The","DT","The"],
    {
      "tag":"ORGANIZATION",
      "content":
      [
        ["Saga","NNP","sag"]
      ]
    },
    ["of","IN","of"],
    {
      "tag":"PERSON",
      "content":
      [
        ["Darren","NNP","dar"],
        ["Shan","NNP","shan"]
      ]
    },
    ["series","NN","sery"],
    ["in","IN","in"],
    ["the","DT","the"],
    {
      "tag":"ORGANIZATION",
      "content":
      [
        ["UK","NNP","uk"]
      ]
    },
    ["and","CC","and"],
    {
      "tag":"GPE",
      "content":
      [
        ["Ireland","NNP","ireland"]
      ]
    },
    [".",".","."]
  ]
},
{
  "tag":"S",
  "content":
  [
    ["The","DT","The"],
    ["series","NN","sery"],
    ["was","VBD","be"],
    ["a","DT","a"],
    ["huge","JJ","hug"],
    ["global","JJ","glob"],
    ["success","NN","success"],
    ["and","CC","and"],
    ["by","IN","by"],
    ["2012","CD","2012"],
    ["his","PRP$","his"],
    ["books","NNS","book"],
    ["were","VBD","be"],
    ["on","IN","on"],
    ["sale","NN","sal"],
    ["in","IN","in"],
    ["39","CD","39"],
    ["countries","NNS","country"],
    [",",",",","],
    ["in","IN","in"],
    ["31","CD","31"],
    ["languages","NNS","langu"],
    [",",",",","],
    ["and","CC","and"],
    ["had","VBD","hav"],
    ["sold","VBN","sel"],
    ["in","IN","in"],
    ["excess","NN","excess"],
    ["of","IN","of"],
    ["twenty","NN","twenty"],
    ["million","CD","million"],
    ["copies","NNS","cop"],
    ["worldwide","VBP","worldwid"],
    [".",".","."]
  ]
},
{
  "tag":"S",
  "content":
  [
    ["==Personal","JJ","==personal"],
    ["life==","NN","life=="],
    {
      "tag":"PERSON",
      "content":
      [
        ["Shan","NNP","shan"]
      ]
    },
    ["is","VBZ","be"],
    ["in","IN","in"],
    ["possession","NN","possess"],
    ["of","IN","of"],
    ["thousands","NNS","thousand"],
    ["of","IN","of"],
    ["films","NNS","film"],
    ["and","CC","and"],
    ["collects","NNS","collect"],
    ["original","JJ","origin"],
    ["artwork","NN","artwork"],
    [".",".","."]
  ]
},
{
  "tag":"S",
  "content":
  [
    ["He","PRP","He"],
    ["enjoys","VBZ","enjoy"],
    ["reading","VBG","read"],
    ["books","NNS","book"],
    ["and","CC","and"],
    ["comic","JJ","com"],
    ["books","NNS","book"],
    [",",",",","],
    ["taking","VBG","tak"],
    ["long","RB","long"],
    ["walks","NNS","walk"],
    [",",",",","],
    ["watching","VBG","watch"],
    ["football","NN","footbal"],
    [",",",",","],
    ["listening","VBG","list"],
    ["to","TO","to"],
    ["pop","VB","pop"],
    ["and","CC","and"],
    ["rock","NN","rock"],
    ["music","NN","mus"],
    [",",",",","],
    ["and","CC","and"],
    ["travelling","VBG","travel"],
    ["worldwide","NN","worldwid"],
    ["both","DT","both"],
    ["to","TO","to"],
    ["promote","VB","promot"],
    ["his","PRP$","his"],
    ["works","NNS","work"],
    ["and","CC","and"],
    ["for","IN","for"],
    ["leisure","NN","leis"],
    [".",".","."]
  ]
},
{
  "tag":"S",
  "content":
  [
    ["He","PRP","He"],
    ["is","VBZ","be"],
    ["a","DT","a"],
    ["huge","JJ","hug"],
    {
      "tag":"PERSON",
      "content":
      [
        ["Tottenham","NNP","tottenham"],
        ["Hotspur","NNP","hotsp"]
      ]
    },
    ["and","CC","and"],
    {
      "tag":"ORGANIZATION",
      "content":
      [
        ["Republic","NNP","republ"],
        ["of","IN","of"],
        ["Ireland","NNP","ireland"]
      ]
    },
    ["football","NN","footbal"],
    ["fan","NN","fan"],
    [".",".","."]
  ]
},
{
  "tag":"S",
  "content":
  [
    ["He","PRP","He"],
    ["lives","VBZ","liv"],
    ["in","IN","in"],
    {
      "tag":"GPE",
      "content":
      [
        ["Limerick","NNP","limerick"]
      ]
    },
    [",",",",","],
    {
      "tag":"GPE",
      "content":
      [
        ["Ireland","NNP","ireland"]
      ]
    },
    [",",",",","],
    ["with","IN","with"],
    ["his","PRP$","his"],
    ["wife","NN","wif"],
    ["Bas","NNP","bas"],
    [".",".","."]
  ]
},
{
  "tag":"S",
  "content":
  [
    ["On","IN","On"],
    ["30","CD","30"],
    ["March","NNP","march"],
    ["2013","CD","2013"],
    [",",",",","],
    ["he","PRP","he"],
    ["married","VBD","marry"],
    ["his","PRP$","his"],
    ["girlfriend","NN","girlfriend"],
    ["of","IN","of"],
    ["eleven","NN","elev"],
    ["years","NNS","year"],
    [",",",",","],
    {
      "tag":"PERSON",
      "content":
      [
        ["Bas","NNP","bas"]
      ]
    },
    [",",",",","],
    ["in","IN","in"],
    {
      "tag":"GPE",
      "content":
      [
        ["London","NNP","london"]
      ]
    },
    [".",".","."]
  ]
},
{
  "tag":"S",
  "content":
  [
    ["==Books==","NN","==books=="],
    ["===The","DT","===The"],
    ["Saga","NNP","sag"],
    ["of","IN","of"],
    {
      "tag":"PERSON",
      "content":
      [
        ["Darren","NNP","dar"],
        ["Shan===","NNP","shan==="]
      ]
    },
    ["(","NNP","("],
    ["Also","NNP","also"],
    ["known","NN","known"],
    ["as","IN","as"],
    ["``","``","``"],
    {
      "tag":"PERSON",
      "content":
      [
        ["Cirque","NNP","cirqu"],
        ["Du","NNP","du"],
        ["Freak","NNP","freak"],
        ["Series","NNP","sery"]
      ]
    },
    ["''","''","''"],
    [")",":",")"],
    ["The","DT","The"],
    {
      "tag":"ORGANIZATION",
      "content":
      [
        ["Vampire","NNP","vampir"],
        ["Blood","NNP","blood"],
        ["Trilogy","NNP","trilog"]
      ]
    },
    ["#","#","#"],
    {
      "tag":"PERSON",
      "content":
      [
        ["Cirque","NNP","cirqu"],
        ["Du","NNP","du"],
        ["Freak","NNP","freak"]
      ]
    },
    ["(","NNP","("],
    ["ISBN","NNP","isbn"],
    ["0316605107","CD","0316605107"],
    [")","CD",")"],
    ["#","#","#"],
    ["The","DT","The"],
    {
      "tag":"ORGANIZATION",
      "content":
      [
        ["Vampire","NNP","vampir"]
      ]
    },
    ["'s","POS","'s"],
    {
      "tag":"ORGANIZATION",
      "content":
      [
        ["Assistant","NNP","assist"]
      ]
    },
    ["(","NNP","("],
    ["/","NNP","/"],
    [")","NNP",")"],
    ["#","#","#"],
    ["Tunnels","NNP","tunnel"],
    ["of","IN","of"],
    {
      "tag":"GPE",
      "content":
      [
        ["Blood","NNP","blood"]
      ]
    },
    ["(","NNP","("],
    [")","NNP",")"],
    ["The","NNP","the"],
    {
      "tag":"ORGANIZATION",
      "content":
      [
        ["Vampire","NNP","vampir"],
        ["Rites","NNP","rit"],
        ["Trilogy","NNP","trilog"]
      ]
    },
    ["#","#","#"],
    {
      "tag":"PERSON",
      "content":
      [
        ["Vampire","NNP","vampir"],
        ["Mountain","NNP","mountain"]
      ]
    },
    ["(","NNP","("],
    [")","NNP",")"],
    ["#","#","#"],
    ["Trials","NNS","tri"],
    ["of","IN","of"],
    {
      "tag":"GPE",
      "content":
      [
        ["Death","NNP","dea"]
      ]
    },
    ["(","NNP","("],
    [")","NNP",")"],
    ["#","#","#"],
    ["The","DT","The"],
    {
      "tag":"ORGANIZATION",
      "content":
      [
        ["Vampire","NNP","vampir"],
        ["Prince","NNP","print"]
      ]
    },
    ["(","NNP","("],
    [")","NNP",")"],
    ["The","NNP","the"],
    ["Vampire","NNP","vampir"],
    ["War","NNP","war"],
    ["Trilogy","NNP","trilog"],
    ["#","#","#"],
    ["Hunters","NNP","hunt"],
    ["of","IN","of"],
    ["the","DT","the"],
    {
      "tag":"ORGANIZATION",
      "content":
      [
        ["Dusk","NNP","dusk"]
      ]
    },
    ["(","NNP","("],
    [")","NNP",")"],
    ["#","#","#"],
    ["Allies","NNPS","al"],
    ["of","IN","of"],
    ["the","DT","the"],
    {
      "tag":"GPE",
      "content":
      [
        ["Night","NNP","night"]
      ]
    },
    ["(","NNP","("],
    [")","NNP",")"],
    ["#","#","#"],
    ["Killers","NNP","kil"],
    ["of","IN","of"],
    ["the","DT","the"],
    {
      "tag":"ORGANIZATION",
      "content":
      [
        ["Dawn","NNP","dawn"]
      ]
    },
    ["(","NNP","("],
    [")","NNP",")"],
    ["The","NNP","the"],
    {
      "tag":"ORGANIZATION",
      "content":
      [
        ["Vampire","NNP","vampir"],
        ["Destiny","NNP","destiny"],
        ["Trilogy","NNP","trilog"]
      ]
    },
    ["#","#","#"],
    ["The","DT","The"],
    {
      "tag":"ORGANIZATION",
      "content":
      [
        ["Lake","NNP","lak"]
      ]
    },
    ["of","IN","of"],
    {
      "tag":"GPE",
      "content":
      [
        ["Souls","NNP","soul"]
      ]
    },
    ["(","NNP","("],
    [")","NNP",")"],
    ["#","#","#"],
    ["Lord","NNP","lord"],
    ["of","IN","of"],
    ["the","DT","the"],
    {
      "tag":"ORGANIZATION",
      "content":
      [
        ["Shadows","NNP","shadow"]
      ]
    },
    ["(","NNP","("],
    [")","NNP",")"],
    ["#","#","#"],
    ["Sons","NNS","son"],
    ["of","IN","of"],
    {
      "tag":"GPE",
      "content":
      [
        ["Destiny","NNP","destiny"]
      ]
    },
    ["(","NNP","("],
    [")","NNP",")"],
    ["===Koyasan===","NNP","===koyasan==="],
    ["A","NNP","a"],
    ["short","JJ","short"],
    ["novel","NN","novel"],
    ["released","VBN","releas"],
    ["for","IN","for"],
    ["World","NNP","world"],
    ["Book","NNP","book"],
    ["Day","NNP","day"],
    ["in","IN","in"],
    ["the","DT","the"],
    ["UK","NNP","uk"],
    ["in","IN","in"],
    ["2006","CD","2006"],
    [".",".","."]
  ]
},
{
  "tag":"S",
  "content":
  [
    ["It","PRP","It"],
    ["is","VBZ","be"],
    ["now","RB","now"],
    ["out","IN","out"],
    ["of","IN","of"],
    ["print","NN","print"],
    [".",".","."]
  ]
},
{
  "tag":"S",
  "content":
  [
    ["It","PRP","It"],
    ["has","VBZ","hav"],
    ["also","RB","also"],
    ["been","VBN","be"],
    ["translated","VBN","transl"],
    ["and","CC","and"],
    ["released","VBN","releas"],
    ["in","IN","in"],
    ["several","JJ","sev"],
    ["other","JJ","oth"],
    ["countries","NNS","country"],
    [".",".","."]
  ]
},
{
  "tag":"S",
  "content":
  [
    ["===The","DT","===The"],
    ["Demonata===","NN","demonata==="],
    ["The","DT","The"],
    {
      "tag":"ORGANIZATION",
      "content":
      [
        ["Demonata","NNP","demonat"]
      ]
    },
    ["is","VBZ","be"],
    ["a","DT","a"],
    ["ten-book","JJ","ten-book"],
    ["series","NN","sery"],
    [".",".","."]
  ]
},
{
  "tag":"S",
  "content":
  [
    ["#","#","#"],
    {
      "tag":"PERSON",
      "content":
      [
        ["Lord","NNP","lord"],
        ["Loss","NNP","loss"]
      ]
    },
    ["#","#","#"],
    {
      "tag":"PERSON",
      "content":
      [
        ["Demon","NNP","demon"],
        ["Thief","NNP","thief"]
      ]
    },
    ["#","#","#"],
    ["Slawter","NNP","slawt"],
    ["#","#","#"],
    ["Bec","NNP","bec"],
    ["#","#","#"],
    {
      "tag":"PERSON",
      "content":
      [
        ["Blood","NNP","blood"],
        ["Beast","NNP","beast"]
      ]
    },
    ["#","#","#"],
    {
      "tag":"PERSON",
      "content":
      [
        ["Demon","NNP","demon"],
        ["Apocalypse","NNP","apocalyps"]
      ]
    },
    ["#","#","#"],
    {
      "tag":"PERSON",
      "content":
      [
        ["Death","NNP","dea"]
      ]
    },
    ["'s","POS","'s"],
    {
      "tag":"PERSON",
      "content":
      [
        ["Shadow","NNP","shadow"]
      ]
    },
    ["#","#","#"],
    {
      "tag":"PERSON",
      "content":
      [
        ["Wolf","NNP","wolf"],
        ["Island","NNP","island"]
      ]
    },
    ["#","#","#"],
    {
      "tag":"PERSON",
      "content":
      [
        ["Dark","NNP","dark"],
        ["Calling","NNP","cal"]
      ]
    },
    ["#","#","#"],
    {
      "tag":"PERSON",
      "content":
      [
        ["Hell","NNP","hel"]
      ]
    },
    ["'s","POS","'s"],
    {
      "tag":"PERSON",
      "content":
      [
        ["Heroes","NNP","hero"]
      ]
    },
    ["===The","NNP","===the"],
    ["City","NNP","city"],
    ["Trilogy===","NNP","trilogy==="],
    ["The","NNP","the"],
    {
      "tag":"ORGANIZATION",
      "content":
      [
        ["City","NNP","city"],
        ["Trilogy","NNP","trilog"]
      ]
    },
    ["was","VBD","be"],
    ["written","VBN","writ"],
    ["for","IN","for"],
    ["adult","NN","adult"],
    ["readers","NNS","read"],
    ["and","CC","and"],
    ["was","VBD","be"],
    ["originally","RB","origin"],
    ["released","VBN","releas"],
    ["under","IN","under"],
    ["the","DT","the"],
    ["name","NN","nam"],
    ["of","IN","of"],
    {
      "tag":"PERSON",
      "content":
      [
        ["Darren","NNP","dar"]
      ]
    },
    ["O'Shaughnessy","NNP","o'shaughnessy"],
    [".",".","."]
  ]
},
{
  "tag":"S",
  "content":
  [
    ["The","DT","The"],
    ["third","JJ","third"],
    ["book","NN","book"],
    ["was","VBD","be"],
    ["never","RB","nev"],
    ["published","VBN","publ"],
    ["and","CC","and"],
    ["the","DT","the"],
    ["original","JJ","origin"],
    ["versions","NNS","vert"],
    ["are","VBP","be"],
    ["now","RB","now"],
    ["out","IN","out"],
    ["of","IN","of"],
    ["print","NN","print"],
    [".",".","."]
  ]
},
{
  "tag":"S",
  "content":
  [
    ["They","PRP","They"],
    ["were","VBD","be"],
    ["published","VBN","publ"],
    ["by","IN","by"],
    {
      "tag":"PERSON",
      "content":
      [
        ["Orion","NNP","or"],
        ["Publishing","NNP","publ"],
        ["Group","NNP","group"]
      ]
    },
    [".",".","."]
  ]
},
{
  "tag":"S",
  "content":
  [
    ["However","RB","howev"],
    [",",",",","],
    ["in","IN","in"],
    ["March","NNP","march"],
    ["2008","CD","2008"],
    [",",",",","],
    {
      "tag":"PERSON",
      "content":
      [
        ["Ayuamarca","NNP","ayuamarc"]
      ]
    },
    ["was","VBD","be"],
    ["re-published","JJ","re-published"],
    ["as","IN","as"],
    {
      "tag":"ORGANIZATION",
      "content":
      [
        ["Procession","NNP","process"]
      ]
    },
    ["of","IN","of"],
    ["the","DT","the"],
    {
      "tag":"ORGANIZATION",
      "content":
      [
        ["Dead","NNP","dead"]
      ]
    },
    ["(","NNP","("],
    ["with","IN","with"],
    ["substantial","JJ","subst"],
    ["changes","NNS","chang"],
    [")",":",")"],
    ["by","IN","by"],
    ["the","DT","the"],
    {
      "tag":"ORGANIZATION",
      "content":
      [
        ["Voyager","NNP","voy"]
      ]
    },
    ["imprint","NN","imprint"],
    ["of","IN","of"],
    {
      "tag":"PERSON",
      "content":
      [
        ["Harper","NNP","harp"],
        ["Collins","NNP","collin"]
      ]
    },
    ["(","NNP","("],
    {
      "tag":"PERSON",
      "content":
      [
        ["Shan","NNP","shan"]
      ]
    },
    ["'s","POS","'s"],
    ["children","NNS","child"],
    ["'s","POS","'s"],
    ["publisher","NN","publ"],
    [")",":",")"],
    [".",".","."]
  ]
},
{
  "tag":"S",
  "content":
  [
    {
      "tag":"PERSON",
      "content":
      [
        ["Hell","NNP","hel"]
      ]
    },
    ["'s","POS","'s"],
    {
      "tag":"PERSON",
      "content":
      [
        ["Horizon","NNP","horizon"]
      ]
    },
    ["was","VBD","be"],
    ["released","VBN","releas"],
    ["in","IN","in"],
    ["March","NNP","march"],
    ["2009","CD","2009"],
    ["and","CC","and"],
    {
      "tag":"ORGANIZATION",
      "content":
      [
        ["City","NNP","city"]
      ]
    },
    ["of","IN","of"],
    ["the","DT","the"],
    {
      "tag":"PERSON",
      "content":
      [
        ["Snakes","NNP","snak"]
      ]
    },
    ["was","VBD","be"],
    ["released","VBN","releas"],
    ["in","IN","in"],
    ["March","NNP","march"],
    ["2010","CD","2010"],
    [".",".","."]
  ]
},
{
  "tag":"S",
  "content":
  [
    ["All","DT","All"],
    ["three","CD","three"],
    ["books","NNS","book"],
    ["are","VBP","be"],
    ["now","RB","now"],
    ["also","RB","also"],
    ["available","JJ","avail"],
    ["in","IN","in"],
    ["the","DT","the"],
    {
      "tag":"GSP",
      "content":
      [
        ["US","NNP","us"]
      ]
    },
    [",",",",","],
    ["as","IN","as"],
    ["well","RB","wel"],
    ["as","IN","as"],
    ["in","IN","in"],
    ["several","JJ","sev"],
    ["other","JJ","oth"],
    ["countries","NNS","country"],
    [".",".","."]
  ]
},
{
  "tag":"S",
  "content":
  [
    ["#","#","#"],
    {
      "tag":"PERSON",
      "content":
      [
        ["Ayuamarca","NNP","ayuamarc"]
      ]
    },
    ["–","NNP","–"],
    {
      "tag":"PERSON",
      "content":
      [
        ["Renamed","NNP","renam"],
        ["Procession","NNP","process"]
      ]
    },
    ["of","IN","of"],
    ["the","DT","the"],
    {
      "tag":"ORGANIZATION",
      "content":
      [
        ["Dead","NNP","dead"]
      ]
    },
    ["–","NNP","–"],
    ["First","NNP","first"],
    ["published","VBD","publ"],
    ["in","IN","in"],
    ["the","DT","the"],
    {
      "tag":"ORGANIZATION",
      "content":
      [
        ["United","NNP","unit"],
        ["Kingdom","NNP","kingdom"]
      ]
    },
    ["in","IN","in"],
    ["February","NNP","febru"],
    ["1999","CD","1999"],
    ["and","CC","and"],
    ["later","JJ","lat"],
    ["in","IN","in"],
    {
      "tag":"GPE",
      "content":
      [
        ["Russia","NNP","russ"]
      ]
    },
    [".",".","."]
  ]
},
{
  "tag":"S",
  "content":
  [
    ["Re-released","JJ","re-released"],
    ["in","IN","in"],
    ["the","DT","the"],
    ["UK","NNP","uk"],
    ["in","IN","in"],
    ["March","NNP","march"],
    ["2008","CD","2008"],
    [".",".","."]
  ]
},
{
  "tag":"S",
  "content":
  [
    ["#","#","#"],
    {
      "tag":"PERSON",
      "content":
      [
        ["Hell","NNP","hel"]
      ]
    },
    ["'s","POS","'s"],
    {
      "tag":"PERSON",
      "content":
      [
        ["Horizon","NNP","horizon"]
      ]
    },
    ["–","NNP","–"],
    ["Sequel","NNP","sequel"],
    ["to","TO","to"],
    {
      "tag":"GPE",
      "content":
      [
        ["Ayuamarca","NNP","ayuamarc"]
      ]
    },
    [".",".","."]
  ]
},
{
  "tag":"S",
  "content":
  [
    {
      "tag":"PERSON",
      "content":
      [
        ["First","NNP","first"]
      ]
    },
    ["published","VBD","publ"],
    ["in","IN","in"],
    ["the","DT","the"],
    {
      "tag":"ORGANIZATION",
      "content":
      [
        ["United","NNP","unit"],
        ["Kingdom","NNP","kingdom"]
      ]
    },
    ["in","IN","in"],
    ["February","NNP","febru"],
    ["2000","CD","2000"],
    [".",".","."]
  ]
},
{
  "tag":"S",
  "content":
  [
    ["Re-released","JJ","re-released"],
    ["in","IN","in"],
    ["March","NNP","march"],
    ["2009","CD","2009"],
    [".",".","."]
  ]
},
{
  "tag":"S",
  "content":
  [
    ["#","#","#"],
    ["City","NNP","city"],
    ["of","IN","of"],
    ["the","DT","the"],
    {
      "tag":"ORGANIZATION",
      "content":
      [
        ["Snakes","NNP","snak"]
      ]
    },
    ["–","NNP","–"],
    ["Last","NNP","last"],
    ["book","NN","book"],
    ["of","IN","of"],
    ["The","DT","The"],
    {
      "tag":"FACILITY",
      "content":
      [
        ["City","NNP","city"],
        ["Trilogy","NNP","trilog"]
      ]
    },
    [".",".","."]
  ]
},
{
  "tag":"S",
  "content":
  [
    ["It","PRP","It"],
    ["came","VBD","com"],
    ["out","IN","out"],
    ["in","IN","in"],
    ["the","DT","the"],
    {
      "tag":"ORGANIZATION",
      "content":
      [
        ["United","NNP","unit"],
        ["Kingdom","NNP","kingdom"]
      ]
    },
    ["on","IN","on"],
    ["the","DT","the"],
    ["first","JJ","first"],
    ["of","IN","of"],
    ["March","NNP","march"],
    ["2010","CD","2010"],
    [".",".","."]
  ]
},
{
  "tag":"S",
  "content":
  [
    ["===The","DT","===The"],
    ["Thin","NNP","thin"],
    ["Executioner===","NNP","executioner==="],
    ["A","NNP","a"],
    ["one-off","NNP","one-off"],
    ["novel","NN","novel"],
    [",",",",","],
    {
      "tag":"ORGANIZATION",
      "content":
      [
        ["The","NNP","the"],
        ["Thin","NNP","thin"],
        ["Executioner","NNP","execut"]
      ]
    },
    ["was","VBD","be"],
    ["released","VBN","releas"],
    ["in","IN","in"],
    ["April","NNP","april"],
    ["2010","CD","2010"],
    [".",".","."]
  ]
},
{
  "tag":"S",
  "content":
  [
    ["Inspired","NNP","inspir"],
    ["in","IN","in"],
    ["part","NN","part"],
    ["by","IN","by"],
    ["The","DT","The"],
    {
      "tag":"ORGANIZATION",
      "content":
      [
        ["Adventures","NNP","adv"]
      ]
    },
    ["of","IN","of"],
    {
      "tag":"PERSON",
      "content":
      [
        ["Huckleberry","NNP","huckleberry"],
        ["Finn","NNP","fin"]
      ]
    },
    ["and","CC","and"],
    ["based","VBN","bas"],
    ["in","IN","in"],
    ["a","DT","a"],
    ["brutal","JJ","brut"],
    [",",",",","],
    ["fantastical","JJ","fantast"],
    ["world","NN","world"],
    [",",",",","],
    ["it","PRP","it"],
    ["details","VBZ","detail"],
    ["the","DT","the"],
    ["perilous","JJ","peril"],
    ["quest","NN","quest"],
    ["of","IN","of"],
    {
      "tag":"GPE",
      "content":
      [
        ["Jebel","NNP","jebel"]
      ]
    },
    [",",",",","],
    ["the","DT","the"],
    ["thin","JJ","thin"],
    ["son","NN","son"],
    ["of","IN","of"],
    ["a","DT","a"],
    ["respected","VBN","respect"],
    ["executioner","NN","execut"],
    [",",",",","],
    ["to","TO","to"],
    ["petition","NN","petit"],
    ["a","DT","a"],
    ["fire","NN","fir"],
    ["god","NN","god"],
    ["for","IN","for"],
    ["invincibility","NN","invinc"],
    [",",",",","],
    ["so","RB","so"],
    ["that","IN","that"],
    ["he","PRP","he"],
    ["can","MD","can"],
    ["succeed","VB","success"],
    ["his","PRP$","his"],
    ["father","NN","fath"],
    [".",".","."]
  ]
},
{
  "tag":"S",
  "content":
  [
    {
      "tag":"PERSON",
      "content":
      [
        ["Jebel","NNP","jebel"]
      ]
    },
    {
      "tag":"ORGANIZATION",
      "content":
      [
        ["Rum","NNP","rum"]
      ]
    },
    ["is","VBZ","be"],
    ["a","DT","a"],
    ["thin","JJ","thin"],
    [",",",",","],
    ["scrawny","JJ","scrawny"],
    ["boy","NN","boy"],
    [".",".","."]
  ]
},
{
  "tag":"S",
  "content":
  [
    ["His","PRP$","His"],
    ["father","NN","fath"],
    ["is","VBZ","be"],
    ["the","DT","the"],
    ["famed","VBN","fam"],
    ["executioner","NN","execut"],
    ["in","IN","in"],
    ["the","DT","the"],
    ["city","NN","city"],
    ["where","WRB","where"],
    ["they","PRP","they"],
    ["live","VBP","liv"],
    [".",".","."]
  ]
},
{
  "tag":"S",
  "content":
  [
    ["When","WRB","When"],
    {
      "tag":"PERSON",
      "content":
      [
        ["Jebel","NNP","jebel"]
      ]
    },
    ["is","VBZ","be"],
    ["humiliated","VBN","humy"],
    ["in","IN","in"],
    ["public","JJ","publ"],
    [",",",",","],
    ["he","PRP","he"],
    ["sets","VBZ","set"],
    ["off","RP","off"],
    ["on","IN","on"],
    ["a","DT","a"],
    ["quest","NN","quest"],
    ["to","TO","to"],
    ["gain","VB","gain"],
    ["great","JJ","gre"],
    ["strength","NN","strength"],
    ["and","CC","and"],
    ["invincibility","NN","invinc"],
    [".",".","."]
  ]
},
{
  "tag":"S",
  "content":
  [
    ["If","IN","If"],
    ["successful","JJ","success"],
    [",",",",","],
    ["he","PRP","he"],
    ["will","MD","will"],
    ["be","VB","be"],
    ["able","JJ","abl"],
    ["to","TO","to"],
    ["compete","VB","compet"],
    ["in","IN","in"],
    ["a","DT","a"],
    ["gruelling","NN","gruel"],
    ["contest","NN","contest"],
    ["to","TO","to"],
    ["prove","VB","prov"],
    ["himself","PRP","himself"],
    ["and","CC","and"],
    ["replace","VB","replac"],
    ["his","PRP$","his"],
    ["father","NN","fath"],
    ["as","IN","as"],
    ["the","DT","the"],
    ["wielder","NN","wield"],
    ["of","IN","of"],
    ["the","DT","the"],
    ["axe","NN","ax"],
    [".",".","."]
  ]
},
{
  "tag":"S",
  "content":
  [
    {
      "tag":"GPE",
      "content":
      [
        ["Failure","NN","fail"]
      ]
    },
    [",",",",","],
    ["on","IN","on"],
    ["the","DT","the"],
    ["other","JJ","oth"],
    ["hands","NNS","hand"],
    [",",",",","],
    ["means","VBZ","mean"],
    ["certain","JJ","certain"],
    ["death","NN","dea"],
    [".",".","."]
  ]
},
{
  "tag":"S",
  "content":
  [
    ["To","TO","To"],
    ["win","VB","win"],
    ["the","DT","the"],
    ["favour","NN","favo"],
    ["of","IN","of"],
    ["a","DT","a"],
    ["fire","NN","fir"],
    ["god","NN","god"],
    [",",",",","],
    {
      "tag":"PERSON",
      "content":
      [
        ["Jebel","NNP","jebel"]
      ]
    },
    ["must","MD","must"],
    ["make","VB","mak"],
    ["a","DT","a"],
    ["human","JJ","hum"],
    ["sacrifice","NN","sacr"],
    [".",".","."]
  ]
},
{
  "tag":"S",
  "content":
  [
    ["He","PRP","He"],
    ["finds","VBZ","find"],
    ["a","DT","a"],
    ["slave","NN","slav"],
    ["who","WP","who"],
    ["is","VBZ","be"],
    ["willing","JJ","wil"],
    ["to","TO","to"],
    ["pay","VB","pay"],
    ["this","DT","this"],
    ["grisly","RB","gris"],
    ["price","NN","pric"],
    [",",",",","],
    ["and","CC","and"],
    ["the","DT","the"],
    ["pair","NN","pair"],
    ["set","VBD","set"],
    ["off","RP","off"],
    ["on","IN","on"],
    ["a","DT","a"],
    ["trek","NN","trek"],
    ["through","IN","through"],
    ["lands","NNS","land"],
    ["deadly","RB","dead"],
    ["and","CC","and"],
    ["unwelcoming","VBG","unwelcom"],
    [".",".","."]
  ]
},
{
  "tag":"S",
  "content":
  [
    ["In","IN","In"],
    ["the","DT","the"],
    ["course","NN","cours"],
    ["of","IN","of"],
    ["their","PRP$","their"],
    ["travels","NNS","travel"],
    ["they","PRP","they"],
    ["will","MD","will"],
    ["encounter","VB","encount"],
    ["hatred","VBN","hat"],
    [",",",",","],
    ["bigotry","NN","bigotry"],
    [",",",",","],
    ["slavery","NN","slavery"],
    [",",",",","],
    ["death","NN","dea"],
    ["and","CC","and"],
    ["more","JJR","mor"],
    [".",".","."]
  ]
},
{
  "tag":"S",
  "content":
  [
    {
      "tag":"PERSON",
      "content":
      [
        ["Shan","NNP","shan"]
      ]
    },
    ["has","VBZ","hav"],
    ["often","RB","oft"],
    ["stated","VBN","stat"],
    ["that","IN","that"],
    ["this","DT","this"],
    ["is","VBZ","be"],
    ["his","PRP$","his"],
    ["favourite","NN","favourit"],
    ["out","IN","out"],
    ["of","IN","of"],
    ["all","PDT","all"],
    ["of","IN","of"],
    ["the","DT","the"],
    ["books","NNS","book"],
    ["he","PRP","he"],
    ["has","VBZ","hav"],
    ["written","VBN","writ"],
    ["over","IN","over"],
    ["the","DT","the"],
    ["years","NNS","year"],
    ["===The","DT","===The"],
    ["Saga","NNP","sag"],
    ["of","IN","of"],
    {
      "tag":"PERSON",
      "content":
      [
        ["Larten","NNP","lart"]
      ]
    },
    ["Crepsley===","NNP","crepsley==="],
    ["This","NNP","thi"],
    ["is","VBZ","be"],
    ["a","DT","a"],
    ["four-book","JJ","four-book"],
    ["series","NN","sery"],
    ["covering","VBG","cov"],
    ["200","CD","200"],
    ["years","NNS","year"],
    ["in","IN","in"],
    ["the","DT","the"],
    ["life","NN","lif"],
    ["of","IN","of"],
    {
      "tag":"PERSON",
      "content":
      [
        ["Larten","NNP","lart"],
        ["Crepsley","NNP","crepsley"]
      ]
    },
    [",",",",","],
    ["a","DT","a"],
    ["vampire","NN","vampir"],
    ["first","RB","first"],
    ["introduced","VBN","introduc"],
    ["to","TO","to"],
    ["readers","NNS","read"],
    ["in","IN","in"],
    {
      "tag":"GPE",
      "content":
      [
        ["Cirque","NNP","cirqu"]
      ]
    },
    ["Du","NNP","du"],
    ["Freak","NNP","freak"],
    [".",".","."]
  ]
},
{
  "tag":"S",
  "content":
  [
    ["#","#","#"],
    ["Book","NNP","book"],
    ["1","CD","1"],
    [",",",",","],
    {
      "tag":"PERSON",
      "content":
      [
        ["Birth","NNP","bir"]
      ]
    },
    ["of","IN","of"],
    ["a","DT","a"],
    {
      "tag":"GPE",
      "content":
      [
        ["Killer","NNP","kil"]
      ]
    },
    [".",".","."]
  ]
},
{
  "tag":"S",
  "content":
  [
    ["Released","VBN","releas"],
    ["in","IN","in"],
    ["the","DT","the"],
    {
      "tag":"ORGANIZATION",
      "content":
      [
        ["UK","NNP","uk"]
      ]
    },
    ["and","CC","and"],
    {
      "tag":"GSP",
      "content":
      [
        ["US","NNP","us"]
      ]
    },
    ["in","IN","in"],
    ["October","NNP","octob"],
    ["2010","CD","2010"],
    [".",".","."]
  ]
},
{
  "tag":"S",
  "content":
  [
    ["#","#","#"],
    ["Book","NNP","book"],
    ["2","CD","2"],
    [",",",",","],
    {
      "tag":"GPE",
      "content":
      [
        ["Ocean","NNP","oc"]
      ]
    },
    ["of","IN","of"],
    {
      "tag":"GPE",
      "content":
      [
        ["Blood","NNP","blood"]
      ]
    },
    [".",".","."]
  ]
},
{
  "tag":"S",
  "content":
  [
    ["Released","VBN","releas"],
    ["in","IN","in"],
    ["UK","NNP","uk"],
    ["and","CC","and"],
    {
      "tag":"GSP",
      "content":
      [
        ["US","NNP","us"]
      ]
    },
    ["in","IN","in"],
    ["April","NNP","april"],
    ["2011","CD","2011"],
    [".",".","."]
  ]
},
{
  "tag":"S",
  "content":
  [
    ["#","#","#"],
    ["Book","NNP","book"],
    ["3","CD","3"],
    [",",",",","],
    {
      "tag":"GPE",
      "content":
      [
        ["Palace","NNP","palac"]
      ]
    },
    ["of","IN","of"],
    ["the","DT","the"],
    {
      "tag":"GPE",
      "content":
      [
        ["Damned","NNP","damn"]
      ]
    },
    [".",".","."]
  ]
},
{
  "tag":"S",
  "content":
  [
    ["Released","VBN","releas"],
    ["in","IN","in"],
    ["UK","NNP","uk"],
    ["and","CC","and"],
    {
      "tag":"GSP",
      "content":
      [
        ["US","NNP","us"]
      ]
    },
    ["in","IN","in"],
    ["September","NNP","septemb"],
    ["2011","CD","2011"],
    [".",".","."]
  ]
},
{
  "tag":"S",
  "content":
  [
    ["#","#","#"],
    ["Book","NNP","book"],
    ["4","CD","4"],
    [",",",",","],
    {
      "tag":"GPE",
      "content":
      [
        ["Brothers","NNP","broth"]
      ]
    },
    ["to","TO","to"],
    ["the","DT","the"],
    ["Death","NNP","dea"],
    [".",".","."]
  ]
},
{
  "tag":"S",
  "content":
  [
    ["Released","VBN","releas"],
    ["in","IN","in"],
    ["UK","NNP","uk"],
    ["and","CC","and"],
    {
      "tag":"GSP",
      "content":
      [
        ["US","NNP","us"]
      ]
    },
    ["in","IN","in"],
    ["April/May","NNP","april/may"],
    ["2012","CD","2012"],
    [".",".","."]
  ]
},
{
  "tag":"S",
  "content":
  [
    ["===Zom-B===","NN","===zom-b==="],
    ["On","IN","On"],
    ["12","CD","12"],
    ["October","NNP","octob"],
    ["2011","CD","2011"],
    [",",",",","],
    ["it","PRP","it"],
    ["was","VBD","be"],
    ["announced","VBN","annount"],
    ["that","IN","that"],
    {
      "tag":"PERSON",
      "content":
      [
        ["Darren","NNP","dar"],
        ["Shan","NNP","shan"]
      ]
    },
    ["'s","POS","'s"],
    ["next","JJ","next"],
    ["series","NN","sery"],
    ["for","IN","for"],
    ["teenagers","NNS","teen"],
    ["would","MD","would"],
    ["focus","VB","foc"],
    ["on","IN","on"],
    ["zombies","NNS","zomby"],
    [",",",",","],
    ["and","CC","and"],
    ["that","IN","that"],
    ["the","DT","the"],
    ["title","NN","titl"],
    ["of","IN","of"],
    ["the","DT","the"],
    ["series","NN","sery"],
    ["was","VBD","be"],
    ["Zom-B","JJ","zom-b"],
    [".",".","."]
  ]
},
{
  "tag":"S",
  "content":
  [
    ["There","EX","There"],
    ["will","MD","will"],
    ["be","VB","be"],
    ["twelve","VB","twelv"],
    ["books","NNS","book"],
    ["in","IN","in"],
    ["total","JJ","tot"],
    [".",".","."]
  ]
},
{
  "tag":"S",
  "content":
  [
    ["The","DT","The"],
    ["first","JJ","first"],
    ["book","NN","book"],
    ["was","VBD","be"],
    ["released","VBN","releas"],
    ["in","IN","in"],
    ["the","DT","the"],
    {
      "tag":"ORGANIZATION",
      "content":
      [
        ["UK","NNP","uk"]
      ]
    },
    ["and","CC","and"],
    {
      "tag":"ORGANIZATION",
      "content":
      [
        ["USA","NNP","us"]
      ]
    },
    ["in","IN","in"],
    ["late","JJ","lat"],
    ["September","NNP","septemb"],
    ["2012","CD","2012"],
    [",",",",","],
    ["and","CC","and"],
    ["the","DT","the"],
    ["sequels","NNS","sequel"],
    ["are","VBP","be"],
    ["following","VBG","follow"],
    ["at","IN","at"],
    ["a","DT","a"],
    ["rate","NN","rat"],
    ["of","IN","of"],
    ["one","CD","one"],
    ["every","DT","every"],
    ["three","CD","three"],
    ["months","NNS","mon"],
    [".",".","."]
  ]
},
{
  "tag":"S",
  "content":
  [
    ["On","IN","On"],
    ["7","CD","7"],
    ["March","NNP","march"],
    ["2012","CD","2012"],
    [",",",",","],
    {
      "tag":"PERSON",
      "content":
      [
        ["Darren","NNP","dar"],
        ["Shan","NNP","shan"]
      ]
    },
    ["gave","VBD","giv"],
    ["a","DT","a"],
    ["world","NN","world"],
    ["exclusive","JJ","exclud"],
    ["reading","NN","read"],
    ["of","IN","of"],
    ["the","DT","the"],
    ["prologue","NN","prolog"],
    ["of","IN","of"],
    ["the","DT","the"],
    ["first","JJ","first"],
    ["book","NN","book"],
    ["in","IN","in"],
    ["the","DT","the"],
    {
      "tag":"GPE",
      "content":
      [
        ["Dubai","NNP","duba"]
      ]
    },
    ["collage","NN","col"],
    [",",",",","],
    {
      "tag":"PERSON",
      "content":
      [
        ["Dubai","NNP","duba"]
      ]
    },
    [".",".","."]
  ]
},
{
  "tag":"S",
  "content":
  [
    {
      "tag":"PERSON",
      "content":
      [
        ["Darren","NNP","dar"]
      ]
    },
    ["revealed","VBD","rev"],
    ["that","IN","that"],
    ["the","DT","the"],
    ["name","NN","nam"],
    ["of","IN","of"],
    ["the","DT","the"],
    ["first","JJ","first"],
    ["book","NN","book"],
    ["is","VBZ","be"],
    ["simply","RB","simply"],
    ["Zom-B","JJ","zom-b"],
    [".",".","."]
  ]
},
{
  "tag":"S",
  "content":
  [
    ["The","DT","The"],
    ["second","JJ","second"],
    ["book","NN","book"],
    ["'s","POS","'s"],
    ["title","NN","titl"],
    ["was","VBD","be"],
    ["released","VBN","releas"],
    ["as","IN","as"],
    ["Zom-B","JJ","zom-b"],
    ["Underground","NNP","underground"],
    ["and","CC","and"],
    ["is","VBZ","be"],
    ["about","IN","about"],
    ["B","NNP","b"],
    ["waking","NN","wak"],
    ["up","IN","up"],
    ["in","IN","in"],
    ["a","DT","a"],
    ["military","JJ","milit"],
    ["facility","NN","facil"],
    ["with","IN","with"],
    ["no","DT","no"],
    ["memory","NN","mem"],
    ["months","NNS","mon"],
    ["after","IN","after"],
    ["the","DT","the"],
    ["initial","JJ","init"],
    ["attack","NN","attack"],
    ["of","IN","of"],
    ["the","DT","the"],
    ["zombies","NNS","zomby"],
    ["and","CC","and"],
    ["being","VBG","be"],
    ["put","VBN","put"],
    ["into","IN","into"],
    ["a","DT","a"],
    ["military","JJ","milit"],
    ["regime","NN","regim"],
    [".",".","."]
  ]
},
{
  "tag":"S",
  "content":
  [
    ["B","LS","B"],
    ["begins","NNS","begin"],
    ["wondering","VBG","wond"],
    ["about","IN","about"],
    ["the","DT","the"],
    ["zombies","NNS","zomby"],
    ["the","DT","the"],
    ["scientists","NNS","sci"],
    ["are","VBP","be"],
    ["keeping","VBG","keep"],
    ["and","CC","and"],
    ["why","WRB","why"],
    ["they","PRP","they"],
    ["chose","VBP","choos"],
    ["to","TO","to"],
    ["save","VB","sav"],
    ["B","NNP","b"],
    ["in","IN","in"],
    ["the","DT","the"],
    ["first","JJ","first"],
    ["place","NN","plac"],
    [",",",",","],
    ["and","CC","and"],
    ["who","WP","who"],
    ["can","MD","can"],
    ["be","VB","be"],
    ["trusted","VBN","trust"],
    [".",".","."]
  ]
},
{
  "tag":"S",
  "content":
  [
    ["The","DT","The"],
    ["third","JJ","third"],
    ["book","NN","book"],
    ["is","VBZ","be"],
    ["called","VBN","cal"],
    ["Zom-B","-NONE-","Zom-B"],
    ["City","NNP","city"],
    [".",".","."]
  ]
},
{
  "tag":"S",
  "content":
  [
    ["It","PRP","It"],
    ["is","VBZ","be"],
    ["about","IN","about"],
    ["B","NNP","b"],
    ["and","CC","and"],
    ["what","WP","what"],
    ["happens","NNS","hap"],
    ["when","WRB","when"],
    ["she","PRP","she"],
    ["comes","VBZ","com"],
    ["out","RP","out"],
    ["of","IN","of"],
    ["the","DT","the"],
    ["underground","NN","underground"],
    ["and","CC","and"],
    ["back","RB","back"],
    ["outside","IN","outside"],
    ["into","IN","into"],
    ["the","DT","the"],
    ["city","NN","city"],
    [".",".","."]
  ]
},
{
  "tag":"S",
  "content":
  [
    ["The","DT","The"],
    ["fourth","JJ","four"],
    ["is","VBZ","be"],
    ["Zom-B","JJ","zom-b"],
    ["Angels","NNPS","angel"],
    [",",",",","],
    ["to","TO","to"],
    ["be","VB","be"],
    ["released","VBN","releas"],
    ["on","IN","on"],
    ["20","CD","20"],
    ["June","NNP","jun"],
    [".",".","."]
  ]
},
{
  "tag":"S",
  "content":
  [
    ["The","DT","The"],
    ["fifth","JJ","fif"],
    ["is","VBZ","be"],
    ["called","VBN","cal"],
    ["Zom-B","-NONE-","Zom-B"],
    {
      "tag":"PERSON",
      "content":
      [
        ["Baby","NNP","baby"]
      ]
    },
    ["and","CC","and"],
    ["will","MD","will"],
    ["be","VB","be"],
    ["released","VBN","releas"],
    ["in","IN","in"],
    ["September","NNP","septemb"],
    ["2013","CD","2013"],
    [".",".","."]
  ]
},
{
  "tag":"S",
  "content":
  [
    ["The","DT","The"],
    ["sixth","JJ","six"],
    ["is","VBZ","be"],
    ["called","VBN","cal"],
    ["Zom-B","-NONE-","Zom-B"],
    ["Gladiator","NNP","glady"],
    ["and","CC","and"],
    ["will","MD","will"],
    ["be","VB","be"],
    ["released","VBN","releas"],
    ["in","IN","in"],
    ["January","NNP","janu"],
    ["2014","CD","2014"],
    [".",".","."]
  ]
},
{
  "tag":"S",
  "content":
  [
    ["*Zom-B","NN","*zom-b"],
    [":",":",":"],
    ["September","NNP","septemb"],
    ["2012","CD","2012"],
    ["*Zom-B","NNP","*zom-b"],
    ["Underground","NNP","underground"],
    [":",":",":"],
    ["January","NNP","janu"],
    ["2013","CD","2013"],
    ["*Zom-B","NNP","*zom-b"],
    ["City","NNP","city"],
    [":",":",":"],
    ["March","NNP","march"],
    ["2013","CD","2013"],
    ["*Zom-B","NNP","*zom-b"],
    ["Angels","NNP","angel"],
    [":",":",":"],
    ["June","NNP","jun"],
    ["2013","CD","2013"],
    ["*Zom-B","NNP","*zom-b"],
    ["Baby","NNP","baby"],
    [":",":",":"],
    ["September","NNP","septemb"],
    ["2013","CD","2013"],
    ["*","-NONE-","*"],
    ["Zom-B","JJ","zom-b"],
    ["Gladiator","NNP","glady"],
    [":",":",":"],
    ["January","NNP","janu"],
    ["2014","CD","2014"],
    ["*","-NONE-","*"],
    ["Book","NNP","book"],
    ["7","CD","7"],
    [":",":",":"],
    ["April","NNP","april"],
    ["2014","CD","2014"],
    ["*","-NONE-","*"],
    ["Book","NNP","book"],
    ["8","CD","8"],
    [":",":",":"],
    ["July","NNP","july"],
    ["2014","CD","2014"],
    ["*","-NONE-","*"],
    ["Book","NNP","book"],
    ["9","CD","9"],
    [":",":",":"],
    ["October","NNP","octob"],
    ["2014","CD","2014"],
    ["*","-NONE-","*"],
    ["Book","NNP","book"],
    ["10","CD","10"],
    [":",":",":"],
    ["January","NNP","janu"],
    ["2015","CD","2015"],
    ["*","-NONE-","*"],
    ["Book","NNP","book"],
    ["11","CD","11"],
    [":",":",":"],
    ["April","NNP","april"],
    ["2015","CD","2015"],
    ["*","-NONE-","*"],
    ["Book","NNP","book"],
    ["12","CD","12"],
    [":",":",":"],
    ["July","NNP","july"],
    ["2015","CD","2015"],
    ["===Lady","JJ","===lady"],
    ["of","IN","of"],
    ["the","DT","the"],
    ["Shades===","JJ","shades==="],
    {
      "tag":"PERSON",
      "content":
      [
        ["Darren","NNP","dar"],
        ["Shan","NNP","shan"]
      ]
    },
    ["'s","POS","'s"],
    ["next","JJ","next"],
    ["book","NN","book"],
    ["for","IN","for"],
    ["adults","NNS","adult"],
    ["was","VBD","be"],
    ["the","DT","the"],
    ["stand-alone","NN","stand-alone"],
    ["novel","NN","novel"],
    {
      "tag":"PERSON",
      "content":
      [
        ["Lady","NNP","lady"]
      ]
    },
    ["of","IN","of"],
    ["the","DT","the"],
    {
      "tag":"GPE",
      "content":
      [
        ["Shades","NNP","shad"]
      ]
    },
    [".",".","."]
  ]
},
{
  "tag":"S",
  "content":
  [
    ["It","PRP","It"],
    ["was","VBD","be"],
    ["released","VBN","releas"],
    ["in","IN","in"],
    ["the","DT","the"],
    {
      "tag":"ORGANIZATION",
      "content":
      [
        ["UK","NNP","uk"]
      ]
    },
    ["and","CC","and"],
    {
      "tag":"GPE",
      "content":
      [
        ["Ireland","NNP","ireland"]
      ]
    },
    ["on","IN","on"],
    ["30","CD","30"],
    ["August","NNP","august"],
    ["2012","CD","2012"],
    [".",".","."]
  ]
},
{
  "tag":"S",
  "content":
  [
    ["===Online","JJ","===online"],
    ["short","JJ","short"],
    ["spin-off","NN","spin-off"],
    ["stories===","NN","stories==="],
    ["*","-NONE-","*"],
    ["``","``","``"],
    ["An","DT","An"],
    ["Essay","NNP","essay"],
    ["on","IN","on"],
    {
      "tag":"GPE",
      "content":
      [
        ["Vampires","NNP","vampir"]
      ]
    },
    ["''","''","''"],
    ["``","``","``"],
    ["by","IN","by"],
    ["''","''","''"],
    {
      "tag":"PERSON",
      "content":
      [
        ["Steve","NNP","stev"],
        ["Leopard","NNP","leopard"]
      ]
    },
    ["–","NNP","–"],
    ["book","NN","book"],
    ["1","CD","1"],
    ["tie-in","NN","tie-in"],
    ["story","NN","story"],
    [".",".","."]
  ]
},
{
  "tag":"S",
  "content":
  [
    ["*","-NONE-","*"],
    ["``","``","``"],
    {
      "tag":"PERSON",
      "content":
      [
        ["Annie","NNP","anny"]
      ]
    },
    ["'s","POS","'s"],
    ["Diary","NNP","diary"],
    ["''","''","''"],
    ["–",":","–"],
    ["book","NN","book"],
    ["1","CD","1"],
    ["tie-in","NN","tie-in"],
    ["story","NN","story"],
    [".",".","."]
  ]
},
{
  "tag":"S",
  "content":
  [
    ["*","-NONE-","*"],
    ["``","``","``"],
    {
      "tag":"PERSON",
      "content":
      [
        ["Tiny","NNP","tiny"],
        ["Terrors","NNP","ter"]
      ]
    },
    ["''","''","''"],
    ["–",":","–"],
    ["book","NN","book"],
    ["2","CD","2"],
    ["tie-in","NN","tie-in"],
    ["story","NN","story"],
    [".",".","."]
  ]
},
{
  "tag":"S",
  "content":
  [
    ["*","-NONE-","*"],
    ["``","``","``"],
    ["Transylvania","NNP","transylvan"],
    ["Trek","NNP","trek"],
    ["''","''","''"],
    ["–",":","–"],
    ["a","DT","a"],
    ["short","JJ","short"],
    ["story","NN","story"],
    ["``","``","``"],
    ["written","VBN","writ"],
    ["''","''","''"],
    ["by","IN","by"],
    {
      "tag":"PERSON",
      "content":
      [
        ["Sam","NNP","sam"],
        ["Grest","NNP","grest"]
      ]
    },
    [".",".","."]
  ]
},
{
  "tag":"S",
  "content":
  [
    ["*","-NONE-","*"],
    ["``","``","``"],
    {
      "tag":"PERSON",
      "content":
      [
        ["Shanta","NNP","shant"],
        ["Claus","NNP","cla"]
      ]
    },
    ["''","''","''"],
    ["(",":","("],
    ["only","RB","on"],
    ["available","JJ","avail"],
    ["at","IN","at"],
    {
      "tag":"ORGANIZATION",
      "content":
      [
        ["Christmas","NNP","christmas"]
      ]
    },
    [")","NNP",")"],
    ["*","-NONE-","*"],
    ["``","``","``"],
    ["Lonely","RB","lon"],
    ["Lefty","JJ","lefty"],
    ["''","''","''"],
    ["–",":","–"],
    ["book","NN","book"],
    ["3","CD","3"],
    ["tie-in","NN","tie-in"],
    ["story","NN","story"],
    [".",".","."]
  ]
},
{
  "tag":"S",
  "content":
  [
    ["*","-NONE-","*"],
    ["``","``","``"],
    ["Bride","VB","brid"],
    ["of","IN","of"],
    {
      "tag":"PERSON",
      "content":
      [
        ["Sam","NNP","sam"],
        ["Grest","NNP","grest"]
      ]
    },
    ["''","''","''"],
    ["–",":","–"],
    ["another","DT","another"],
    ["short","JJ","short"],
    ["story","NN","story"],
    ["``","``","``"],
    ["written","VBN","writ"],
    ["''","''","''"],
    ["by","IN","by"],
    {
      "tag":"PERSON",
      "content":
      [
        ["Sam","NNP","sam"],
        ["Grest","NNP","grest"]
      ]
    },
    [".",".","."]
  ]
},
{
  "tag":"S",
  "content":
  [
    ["*","-NONE-","*"],
    ["``","``","``"],
    ["An","DT","An"],
    ["Affair","NNP","affair"],
    ["of","IN","of"],
    ["the","DT","the"],
    ["Night","NNP","night"],
    ["''","''","''"],
    ["–",":","–"],
    ["book","NN","book"],
    ["5","CD","5"],
    ["tie-in","NN","tie-in"],
    ["story","NN","story"],
    ["(",":","("],
    ["should","MD","should"],
    ["be","VB","be"],
    ["read","VBN","read"],
    ["just","RB","just"],
    ["before","IN","before"],
    ["or","CC","or"],
    ["after","IN","after"],
    ["book","NN","book"],
    ["5","CD","5"],
    [")","CD",")"],
    [".",".","."]
  ]
},
{
  "tag":"S",
  "content":
  [
    ["===Short","NN","===short"],
    ["stories===","NN","stories==="],
    ["#","#","#"],
    ["``","``","``"],
    ["Hagurosan","NNP","haguros"],
    ["''","''","''"],
    ["–",":","–"],
    ["Originally","RB","origin"],
    ["written","VBN","writ"],
    ["for","IN","for"],
    {
      "tag":"PERSON",
      "content":
      [
        ["Kids","NNP","kid"]
      ]
    },
    ["'","POS","'"],
    {
      "tag":"PERSON",
      "content":
      [
        ["Night","NNP","night"],
        ["In","NNP","in"]
      ]
    },
    [".",".","."]
  ]
},
{
  "tag":"S",
  "content":
  [
    ["#","#","#"],
    ["``","``","``"],
    {
      "tag":"PERSON",
      "content":
      [
        ["Young","NNP","young"],
        ["Alan","NNP","al"],
        ["Moore","NNP","moor"]
      ]
    },
    ["''","''","''"],
    ["–",":","–"],
    ["Originally","RB","origin"],
    ["written","VBN","writ"],
    ["for","IN","for"],
    {
      "tag":"PERSON",
      "content":
      [
        ["Alan","NNP","al"],
        ["Moore","NNP","moor"]
      ]
    },
    [":",":",":"],
    ["Portrait","NNP","portrait"],
    ["of","IN","of"],
    ["an","DT","an"],
    ["Extraordinary","NNP","extraordin"],
    ["Gentleman","NNP","gentlem"],
    [",",",",","],
    ["a","DT","a"],
    ["book","NN","book"],
    ["written","VBN","writ"],
    ["to","TO","to"],
    ["celebrate","VB","celebr"],
    ["the","DT","the"],
    ["50th","JJ","50th"],
    ["birthday","NN","birthday"],
    ["of","IN","of"],
    {
      "tag":"PERSON",
      "content":
      [
        ["Alan","NNP","al"],
        ["Moore","NNP","moor"]
      ]
    },
    [".",".","."]
  ]
},
{
  "tag":"S",
  "content":
  [
    ["#","#","#"],
    ["``","``","``"],
    ["The","DT","The"],
    {
      "tag":"ORGANIZATION",
      "content":
      [
        ["Good","NNP","good"],
        ["Ship","NNP","ship"],
        ["Tree","NNP","tre"]
      ]
    },
    ["''","''","''"],
    ["–",":","–"],
    ["Originally","RB","origin"],
    ["written","VBN","writ"],
    ["for","IN","for"],
    ["the","DT","the"],
    {
      "tag":"ORGANIZATION",
      "content":
      [
        ["Times","NNP","tim"],
        ["Educational","NNP","educ"],
        ["Supplement","NNP","suppl"]
      ]
    },
    [",",",",","],
    ["and","CC","and"],
    ["accepted","VBD","acceiv"],
    [".",".","."]
  ]
},
{
  "tag":"S",
  "content":
  [
    ["#","#","#"],
    ["``","``","``"],
    {
      "tag":"PERSON",
      "content":
      [
        ["Life","NNP","lif"]
      ]
    },
    ["'s","POS","'s"],
    ["a","DT","a"],
    ["Beach","NNP","beach"],
    ["''","''","''"],
    ["–",":","–"],
    ["Originally","RB","origin"],
    ["written","VBN","writ"],
    ["for","IN","for"],
    ["the","DT","the"],
    {
      "tag":"ORGANIZATION",
      "content":
      [
        ["Times","NNP","tim"],
        ["Educational","NNP","educ"],
        ["Supplement","NNP","suppl"]
      ]
    },
    [",",",",","],
    ["but","CC","but"],
    ["rejected","VBD","reject"],
    [".",".","."]
  ]
},
{
  "tag":"S",
  "content":
  [
    ["#","#","#"],
    ["``","``","``"],
    ["Guyifesto—Who","-NONE-","Guyifesto—Who"],
    ["We","PRP","We"],
    ["Are","VBP","ar"],
    ["''","''","''"],
    ["–",":","–"],
    ["Originally","RB","origin"],
    ["written","VBN","writ"],
    ["for","IN","for"],
    {
      "tag":"PERSON",
      "content":
      [
        ["Guys","NNP","guy"],
        ["Write","NNP","writ"],
        ["For","NNP","for"],
        ["Guys","NNP","guy"],
        ["Read","NNP","read"]
      ]
    },
    [".",".","."]
  ]
},
{
  "tag":"S",
  "content":
  [
    ["(","NN","("],
    {
      "tag":"PERSON",
      "content":
      [
        ["Play","NNP","play"]
      ]
    },
    ["on","IN","on"],
    ["words","NNS","word"],
    ["of","IN","of"],
    ["``","``","``"],
    ["manifesto","IN","manifesto"],
    ["''","''","''"],
    [")",":",")"],
    ["#","#","#"],
    ["The","DT","The"],
    {
      "tag":"ORGANIZATION",
      "content":
      [
        ["Saga","NNP","sag"]
      ]
    },
    ["of","IN","of"],
    {
      "tag":"PERSON",
      "content":
      [
        ["Darren","NNP","dar"],
        ["Shan","NNP","shan"]
      ]
    },
    ["tie-in","NNP","tie-in"],
    ["short","JJ","short"],
    ["stories","NNS","story"],
    ["–",":","–"],
    ["See","NNP","see"],
    ["above","IN","above"],
    ["===Unpublished","JJ","===unpublished"],
    ["books===","NN","books==="],
    ["In","IN","In"],
    ["July","NNP","july"],
    ["2009","CD","2009"],
    [",",",",","],
    {
      "tag":"PERSON",
      "content":
      [
        ["Shan","NNP","shan"]
      ]
    },
    ["revealed","VBD","rev"],
    ["that","IN","that"],
    ["he","PRP","he"],
    ["has","VBZ","hav"],
    ["written","VBN","writ"],
    ["first","RB","first"],
    ["drafts","NNS","draft"],
    ["of","IN","of"],
    ["53","CD","53"],
    ["books","NNS","book"],
    ["in","IN","in"],
    ["total","JJ","tot"],
    [".",".","."]
  ]
},
{
  "tag":"S",
  "content":
  [
    ["31","CD","31"],
    ["of","IN","of"],
    ["those","DT","those"],
    ["are","VBP","be"],
    ["published","VBN","publ"],
    ["or","CC","or"],
    ["due","JJ","due"],
    ["for","IN","for"],
    ["publication","NN","publ"],
    ["over","IN","over"],
    ["the","DT","the"],
    ["next","JJ","next"],
    ["few","JJ","few"],
    ["years","NNS","year"],
    [".",".","."]
  ]
},
{
  "tag":"S",
  "content":
  [
    ["The","DT","The"],
    ["rest","NN","rest"],
    ["include","NN","includ"],
    ["some","DT","some"],
    ["books","NNS","book"],
    ["that","WDT","that"],
    ["he","PRP","he"],
    ["is","VBZ","be"],
    ["working","VBG","work"],
    ["on","IN","on"],
    ["for","IN","for"],
    ["the","DT","the"],
    ["future","NN","fut"],
    [",",",",","],
    ["along","IN","along"],
    ["with","IN","with"],
    ["some","DT","some"],
    ["he","PRP","he"],
    ["might","MD","might"],
    ["one","VB","on"],
    ["day","NN","day"],
    ["return","NN","return"],
    ["to","TO","to"],
    ["and","CC","and"],
    ["publish","VB","publ"],
    [",",",",","],
    ["and","CC","and"],
    ["others","NNS","oth"],
    ["that","WDT","that"],
    ["he","PRP","he"],
    ["will","MD","will"],
    ["probably","RB","prob"],
    ["never","RB","nev"],
    ["do","VB","do"],
    ["anything","NN","anyth"],
    ["more","RBR","mor"],
    ["with","IN","with"],
    [".",".","."]
  ]
},
{
  "tag":"S",
  "content":
  [
    ["Two","CD","Two"],
    ["of","IN","of"],
    ["the","DT","the"],
    ["unpublished","JJ","unpubl"],
    ["books","NNS","book"],
    ["are","VBP","be"],
    {
      "tag":"PERSON",
      "content":
      [
        ["Mute","NNP","mut"],
        ["Pursuit","NNP","pursuit"]
      ]
    },
    ["and","CC","and"],
    ["The","DT","The"],
    {
      "tag":"ORGANIZATION",
      "content":
      [
        ["Cannibal","NNP","cannib"]
      ]
    },
    ["King","NNP","king"],
    [":",":",":"],
    ["#","#","#"],
    {
      "tag":"PERSON",
      "content":
      [
        ["Mute","NNP","mut"],
        ["Pursuit","NNP","pursuit"]
      ]
    },
    ["–","NNP","–"],
    ["A","NNP","a"],
    ["futuristic","JJ","fut"],
    ["cross","NN","cross"],
    ["between","IN","between"],
    ["The","DT","The"],
    {
      "tag":"ORGANIZATION",
      "content":
      [
        ["Terminator","NNP","termin"]
      ]
    },
    ["and","CC","and"],
    {
      "tag":"PERSON",
      "content":
      [
        ["Stephen","NNP","steph"],
        ["King","NNP","king"]
      ]
    },
    ["'s","POS","'s"],
    ["The","NNP","the"],
    {
      "tag":"PERSON",
      "content":
      [
        ["Dark","NNP","dark"],
        ["Tower","NNP","tow"]
      ]
    },
    [";",":",";"],
    ["this","DT","this"],
    ["was","VBD","be"],
    {
      "tag":"PERSON",
      "content":
      [
        ["Shan","NNP","shan"]
      ]
    },
    ["'s","POS","'s"],
    ["first","JJ","first"],
    ["completed","VBD","complet"],
    ["book","NN","book"],
    ["at","IN","at"],
    ["age","NN","ag"],
    ["seventeen","NNS","seventeen"],
    [".",".","."]
  ]
},
{
  "tag":"S",
  "content":
  [
    ["#","#","#"],
    ["The","DT","The"],
    {
      "tag":"ORGANIZATION",
      "content":
      [
        ["Cannibal","NNP","cannib"]
      ]
    },
    ["King","NNP","king"],
    ["–","NNP","–"],
    ["This","NNP","thi"],
    ["was","VBD","be"],
    ["originally","RB","origin"],
    ["going","VBG","go"],
    ["to","TO","to"],
    ["be","VB","be"],
    ["the","DT","the"],
    ["12th","JJ","12th"],
    ["book","NN","book"],
    ["of","IN","of"],
    ["The","DT","The"],
    {
      "tag":"ORGANIZATION",
      "content":
      [
        ["Saga","NNP","sag"]
      ]
    },
    ["of","IN","of"],
    {
      "tag":"PERSON",
      "content":
      [
        ["Darren","NNP","dar"],
        ["Shan","NNP","shan"]
      ]
    },
    ["–","NNP","–"],
    ["book","NN","book"],
    ["11","CD","11"],
    ["was","VBD","be"],
    ["originally","RB","origin"],
    ["meant","JJ","meant"],
    ["to","TO","to"],
    ["be","VB","be"],
    ["much","RB","much"],
    ["longer","RBR","long"],
    [",",",",","],
    ["including","VBG","includ"],
    ["elements","NNS","el"],
    ["from","IN","from"],
    ["the","DT","the"],
    ["first","JJ","first"],
    ["half","DT","half"],
    ["of","IN","of"],
    ["what","WP","what"],
    ["became","VBD","becom"],
    ["Sons","NNS","son"],
    ["of","IN","of"],
    {
      "tag":"GPE",
      "content":
      [
        ["Destiny","NNP","destiny"]
      ]
    },
    [".",".","."]
  ]
},
{
  "tag":"S",
  "content":
  [
    ["The","DT","The"],
    {
      "tag":"ORGANIZATION",
      "content":
      [
        ["Cannibal","NNP","cannib"]
      ]
    },
    ["King","NNP","king"],
    ["was","VBD","be"],
    ["never","RB","nev"],
    ["published","VBN","publ"],
    ["because","IN","because"],
    ["it","PRP","it"],
    ["was","VBD","be"],
    ["originally","RB","origin"],
    ["part","NN","part"],
    ["of","IN","of"],
    ["the","DT","the"],
    ["planned","VBN","plan"],
    ["24-book","CD","24-book"],
    ["Saga","NNP","sag"],
    [".",".","."]
  ]
},
{
  "tag":"S",
  "content":
  [
    {
      "tag":"PERSON",
      "content":
      [
        ["Shan","NNP","shan"]
      ]
    },
    ["had","VBD","hav"],
    ["planned","VBN","plan"],
    ["to","TO","to"],
    ["write","VB","writ"],
    ["18—24","CD","18—24"],
    ["books","NNS","book"],
    ["for","IN","for"],
    ["The","DT","The"],
    {
      "tag":"ORGANIZATION",
      "content":
      [
        ["Saga","NNP","sag"]
      ]
    },
    [",",",",","],
    ["with","IN","with"],
    ["half","DT","half"],
    ["of","IN","of"],
    ["them","PRP","them"],
    ["taking","VBG","tak"],
    ["place","NN","plac"],
    ["in","IN","in"],
    ["the","DT","the"],
    ["future","NN","fut"],
    ["wasteworld","NN","wasteworld"],
    ["shown","NN","shown"],
    ["in","IN","in"],
    ["Book","NNP","book"],
    ["10","CD","10"],
    [",",",",","],
    ["The","DT","The"],
    {
      "tag":"ORGANIZATION",
      "content":
      [
        ["Lake","NNP","lak"]
      ]
    },
    ["of","IN","of"],
    {
      "tag":"GPE",
      "content":
      [
        ["Souls","NNP","soul"]
      ]
    },
    [".",".","."]
  ]
},
{
  "tag":"S",
  "content":
  [
    ["For","IN","For"],
    ["reasons","NNS","reason"],
    ["explained","VBD","explain"],
    ["on","IN","on"],
    ["his","PRP$","his"],
    ["web","NN","web"],
    ["site","NN","sit"],
    [",",",",","],
    {
      "tag":"PERSON",
      "content":
      [
        ["Shan","NNP","shan"]
      ]
    },
    ["decided","VBD","decid"],
    ["to","TO","to"],
    ["end","VB","end"],
    ["the","DT","the"],
    ["series","NN","sery"],
    ["with","IN","with"],
    ["Sons","NNS","son"],
    ["of","IN","of"],
    {
      "tag":"GPE",
      "content":
      [
        ["Destiny","NNP","destiny"]
      ]
    },
    [",",",",","],
    ["which","WDT","which"],
    ["was","VBD","be"],
    ["written","VBN","writ"],
    ["and","CC","and"],
    ["released","VBN","releas"],
    ["instead","RB","instead"],
    ["of","IN","of"],
    ["The","DT","The"],
    {
      "tag":"ORGANIZATION",
      "content":
      [
        ["Cannibal","NNP","cannib"],
        ["King","NNP","king"]
      ]
    },
    [".",".","."]
  ]
},
{
  "tag":"S",
  "content":
  [
    ["He","PRP","He"],
    ["never","RB","nev"],
    ["reveals","NNS","rev"],
    ["anything","NN","anyth"],
    ["that","IN","that"],
    ["he","PRP","he"],
    ["wrote","VBD","writ"],
    ["in","IN","in"],
    ["this","DT","this"],
    ["book","NN","book"],
    [",",",",","],
    ["because","IN","because"],
    ["there","EX","there"],
    ["is","VBZ","be"],
    ["a","DT","a"],
    ["possibility","NN","poss"],
    ["that","WDT","that"],
    ["he","PRP","he"],
    ["might","MD","might"],
    ["one","VB","on"],
    ["day","NN","day"],
    ["write","RB","writ"],
    ["a","DT","a"],
    ["follow-up","JJ","follow-up"],
    ["series","NN","sery"],
    ["to","TO","to"],
    ["The","DT","The"],
    {
      "tag":"ORGANIZATION",
      "content":
      [
        ["Saga","NNP","sag"]
      ]
    },
    [",",",",","],
    ["which","WDT","which"],
    ["would","MD","would"],
    ["take","VB","tak"],
    ["parts","NNS","part"],
    ["of","IN","of"],
    ["this","DT","this"],
    ["book","NN","book"],
    ["as","IN","as"],
    ["its","PRP$","its"],
    ["starting","NN","start"],
    ["point","NN","point"],
    [".",".","."]
  ]
},
{
  "tag":"S",
  "content":
  [
    ["==Film==","NN","==film=="],
    {
      "tag":"PERSON",
      "content":
      [
        ["Universal","NNP","univers"],
        ["Studios","NNP","studio"]
      ]
    },
    ["bought","VBD","buy"],
    ["the","DT","the"],
    ["film","NN","film"],
    ["rights","NNS","right"],
    ["to","TO","to"],
    ["the","DT","the"],
    ["first","JJ","first"],
    ["three","CD","three"],
    ["books","NNS","book"],
    ["of","IN","of"],
    ["The","DT","The"],
    {
      "tag":"ORGANIZATION",
      "content":
      [
        ["Saga","NNP","sag"]
      ]
    },
    ["of","IN","of"],
    {
      "tag":"PERSON",
      "content":
      [
        ["Darren","NNP","dar"],
        ["Shan","NNP","shan"]
      ]
    },
    ["and","CC","and"],
    ["combined","VBD","combin"],
    ["them","PRP","them"],
    ["to","TO","to"],
    ["make","VB","mak"],
    ["a","DT","a"],
    ["single","JJ","singl"],
    ["film","NN","film"],
    [",",",",","],
    {
      "tag":"GPE",
      "content":
      [
        ["Cirque","NNP","cirqu"]
      ]
    },
    ["du","NN","du"],
    {
      "tag":"PERSON",
      "content":
      [
        ["Freak","NNP","freak"]
      ]
    },
    [":",":",":"],
    ["The","DT","The"],
    {
      "tag":"ORGANIZATION",
      "content":
      [
        ["Vampire","NNP","vampir"]
      ]
    },
    ["'s","POS","'s"],
    {
      "tag":"ORGANIZATION",
      "content":
      [
        ["Assistant","NNP","assist"]
      ]
    },
    [",",",",","],
    ["released","VBD","releas"],
    ["in","IN","in"],
    ["the","DT","the"],
    {
      "tag":"GSP",
      "content":
      [
        ["US","NNP","us"]
      ]
    },
    ["on","IN","on"],
    ["23","CD","23"],
    ["October","NNP","octob"],
    ["2009","CD","2009"],
    [".",".","."]
  ]
},
{
  "tag":"S",
  "content":
  [
    {
      "tag":"PERSON",
      "content":
      [
        ["Lauren","NNP","laur"]
      ]
    },
    {
      "tag":"PERSON",
      "content":
      [
        ["Shuler","NNP","shul"],
        ["Donner","NNP","don"]
      ]
    },
    ["produced","VBD","produc"],
    ["the","DT","the"],
    ["film","NN","film"],
    ["and","CC","and"],
    {
      "tag":"PERSON",
      "content":
      [
        ["Paul","NNP","paul"],
        ["Weitz","NNP","weitz"]
      ]
    },
    ["directed","VBD","direct"],
    [".",".","."]
  ]
},
{
  "tag":"S",
  "content":
  [
    ["The","DT","The"],
    ["original","JJ","origin"],
    ["screenplay","NN","screenplay"],
    ["was","VBD","be"],
    ["written","VBN","writ"],
    ["by","IN","by"],
    {
      "tag":"PERSON",
      "content":
      [
        ["Brian","NNP","bri"],
        ["Helgeland","NNP","helgeland"]
      ]
    },
    ["but","CC","but"],
    ["rewritten","RB","rewrit"],
    ["entirely","RB","entir"],
    ["by","IN","by"],
    {
      "tag":"PERSON",
      "content":
      [
        ["Paul","NNP","paul"],
        ["Weitz","NNP","weitz"]
      ]
    },
    [".",".","."]
  ]
},
{
  "tag":"S",
  "content":
  [
    ["==References==","NN","==references=="],
    ["==External","JJ","==external"],
    ["links==","NN","links=="],
    ["*","-NONE-","*"],
    {
      "tag":"PERSON",
      "content":
      [
        ["Darren","NNP","dar"],
        ["Shan","NNP","shan"],
        ["Demonata","NNP","demonat"]
      ]
    },
    ["website","NN","websit"],
    ["*","-NONE-","*"],
    {
      "tag":"PERSON",
      "content":
      [
        ["Darren","NNP","dar"],
        ["Shan","NNP","shan"]
      ]
    },
    ["website","NN","websit"],
    ["*","-NONE-","*"],
    ["D.B","JJ","d.b"],
    ["Shan","NNP","shan"],
    ["website","NN","websit"],
    ["*","-NONE-","*"],
    {
      "tag":"PERSON",
      "content":
      [
        ["Darren","NNP","dar"],
        ["Shan","NNP","shan"]
      ]
    },
    ["blog","NN","blog"],
    ["*","-NONE-","*"],
    {
      "tag":"PERSON",
      "content":
      [
        ["Darren","NNP","dar"],
        ["Shan","NNP","shan"]
      ]
    },
    ["talks","VBZ","talk"],
    ["about","IN","about"],
    {
      "tag":"GPE",
      "content":
      [
        ["Cirque","NNP","cirqu"]
      ]
    },
    ["du","NN","du"],
    {
      "tag":"PERSON",
      "content":
      [
        ["Freak","NNP","freak"]
      ]
    },
    ["*","-NONE-","*"],
    {
      "tag":"PERSON",
      "content":
      [
        ["Darren","NNP","dar"],
        ["Shan","NNP","shan"]
      ]
    },
    ["lists","VBZ","list"],
    ["his","PRP$","his"],
    ["favourite","NN","favourit"],
    ["books","NNS","book"],
    ["at","IN","at"],
    {
      "tag":"ORGANIZATION",
      "content":
      [
        ["bookarmy.com","JJ","bookarmy.com"]
      ]
    },
    ["*","-NONE-","*"],
    {
      "tag":"PERSON",
      "content":
      [
        ["Darren","NNP","dar"],
        ["Shan","NNP","shan"]
      ]
    },
    ["reads","NNS","read"],
    ["extracts","VBZ","extract"],
    ["from","IN","from"],
    ["his","PRP$","his"],
    ["books","NNS","book"],
    ["for","IN","for"],
    ["an","DT","an"],
    ["hour","NN","hour"],
    ["as","IN","as"],
    ["part","NN","part"],
    ["of","IN","of"],
    ["the","DT","the"],
    ["One","CD","One"],
    ["&","CC","&"],
    ["Other","NNP","oth"],
    ["art","NN","art"],
    ["installation","NN","instal"],
    ["in","IN","in"],
    {
      "tag":"GPE",
      "content":
      [
        ["Trafalgar","NNP","trafalg"]
      ]
    },
    ["Square","NNP","squ"],
    ["*","-NONE-","*"],
    ["*","-NONE-","*"],
    ["Interview","VB","interview"],
    ["with","IN","with"],
    {
      "tag":"PERSON",
      "content":
      [
        ["Darren","NNP","dar"],
        ["Shan","NNP","shan"]
      ]
    },
    ["on","IN","on"],
    {
      "tag":"ORGANIZATION",
      "content":
      [
        ["Veronika","NNP","veronik"],
        ["Asks","NNP","ask"]
      ]
    },
    ["*","-NONE-","*"],
    {
      "tag":"PERSON",
      "content":
      [
        ["Darren","NNP","dar"],
        ["Shan","NNP","shan"],
        ["Interview","NNP","interview"]
      ]
    },
    ["with","IN","with"],
    {
      "tag":"PERSON",
      "content":
      [
        ["Scottish","NNP","scot"],
        ["Book","NNP","book"],
        ["Trust","NNP","trust"]
      ]
    },
    [",",",",","],
    ["October","NNP","octob"],
    ["*","-NONE-","*"],
    ["&","CC","&"],
    ["#","#","#"],
    ["91","CD","91"],
    [";",":",";"],
    ["http","NN","http"],
    [":",":",":"],
    ["//www.limerickcity.ie/Library/LocalStudies/LocalStudiesFiles/W/Writers-GeneralFictionDrama/","JJ","//www.limerickcity.ie/library/localstudies/localstudiesfiles/w/writers-generalfictiondrama/"],
    {
      "tag":"PERSON",
      "content":
      [
        ["Darren","NNP","dar"],
        ["Shan","NNP","shan"]
      ]
    },
    ["in","IN","in"],
    ["'Writers","NNS","'writers"],
    ["–",":","–"],
    {
      "tag":"PERSON",
      "content":
      [
        ["Fiction","NNP","fict"]
      ]
    },
    ["'","POS","'"],
    ["file","NN","fil"],
    ["at","IN","at"],
    {
      "tag":"ORGANIZATION",
      "content":
      [
        ["Limerick","NNP","limerick"],
        ["City","NNP","city"],
        ["Library","NNP","libr"]
      ]
    },
    [",",",",","],
    {
      "tag":"GPE",
      "content":
      [
        ["Ireland","NNP","ireland"]
      ]
    },
    ["&","CC","&"],
    ["#","#","#"],
    ["93","CD","93"],
    [";",":",";"],
    ["2009","CD","2009"],
    ["(","CD","("],
    ["audio","NN","audio"],
    [")",":",")"],
    ["*","-NONE-","*"]
  ]
}]