[
{
  tag:'S',
  content:
  [
    {
      tag:'PERSON',
      content:
      [
        ['Lech','NNP','lech']
      ]
    },
    {
      tag:'PERSON',
      content:
      [
        ['Aleksander','NNP','aleksand'],
        ['Kaczyński','NNP','kaczyńsk']
      ]
    },
    ['(','NNP','('],
    ['ˈlɛx','NNP','ˈlɛx'],
    ['alɛkˈsandɛr','NNP','alɛkˈsandɛr'],
    ['kaˈt͡ʂɨȷ̃skʲi','NNP','kaˈt͡ʂɨȷ̃skʲi'],
    [';',':',';'],
    ['18','CD','18'],
    ['June','NNP','jun'],
    ['1949','CD','1949'],
    ['–','CD','–'],
    ['10','CD','10'],
    ['April','NNP','april'],
    ['2010','CD','2010'],
    [')','CD',')'],
    ['was','VBD','be'],
    ['a','DT','a'],
    {
      tag:'GPE',
      content:
      [
        ['Polish','JJ','pol']
      ]
    },
    ['lawyer','NN','lawy'],
    ['and','CC','and'],
    ['politician','JJ','polit'],
    ['who','WP','who'],
    ['served','VBN','serv'],
    ['as','IN','as'],
    ['the','DT','the'],
    ['President','NNP','presid'],
    ['of','IN','of'],
    {
      tag:'GPE',
      content:
      [
        ['Poland','NNP','poland']
      ]
    },
    ['from','IN','from'],
    ['2005','CD','2005'],
    ['until','IN','until'],
    ['2010','CD','2010'],
    ['and','CC','and'],
    ['as','IN','as'],
    ['Mayor','NNP','may'],
    ['of','IN','of'],
    {
      tag:'GPE',
      content:
      [
        ['Warsaw','NNP','warsaw']
      ]
    },
    ['from','IN','from'],
    ['2002','CD','2002'],
    ['until','IN','until'],
    ['22','CD','22'],
    ['December','NNP','decemb'],
    ['2005','CD','2005'],
    ['.','.','.']
  ]
},
{
  tag:'S',
  content:
  [
    ['Before','IN','Before'],
    ['he','PRP','he'],
    ['became','VBD','becom'],
    ['a','DT','a'],
    ['president','NN','presid'],
    [',',',',','],
    ['he','PRP','he'],
    ['was','VBD','be'],
    ['also','RB','also'],
    ['a','DT','a'],
    ['member','NN','memb'],
    ['of','IN','of'],
    ['the','DT','the'],
    {
      tag:'ORGANIZATION',
      content:
      [
        ['Law','NNP','law']
      ]
    },
    ['and','CC','and'],
    {
      tag:'ORGANIZATION',
      content:
      [
        ['Justice','NNP','just']
      ]
    },
    ['party','NN','party'],
    ['.','.','.']
  ]
},
{
  tag:'S',
  content:
  [
    ['He','PRP','He'],
    ['was','VBD','be'],
    ['the','DT','the'],
    ['identical','JJ','id'],
    ['twin','NN','twin'],
    ['brother','NN','broth'],
    ['of','IN','of'],
    ['the','DT','the'],
    ['former','JJ','form'],
    ['Prime','NNP','prim'],
    ['Minister','NNP','min'],
    ['of','IN','of'],
    {
      tag:'GPE',
      content:
      [
        ['Poland','NNP','poland']
      ]
    },
    ['and','CC','and'],
    ['current','JJ','cur'],
    ['Chairman','NNP','chairm'],
    ['of','IN','of'],
    ['the','DT','the'],
    {
      tag:'ORGANIZATION',
      content:
      [
        ['Law','NNP','law']
      ]
    },
    ['and','CC','and'],
    {
      tag:'ORGANIZATION',
      content:
      [
        ['Justice','NNP','just']
      ]
    },
    ['party','NN','party'],
    [',',',',','],
    ['Jarosław','NNP','jarosław'],
    ['Kaczyński','NNP','kaczyńsk'],
    ['.','.','.']
  ]
},
{
  tag:'S',
  content:
  [
    ['On','IN','On'],
    ['10','CD','10'],
    ['April','NNP','april'],
    ['2010','CD','2010'],
    [',',',',','],
    ['he','PRP','he'],
    ['died','VBD','die'],
    ['in','IN','in'],
    ['the','DT','the'],
    ['crash','NN','crash'],
    ['of','IN','of'],
    ['a','DT','a'],
    {
      tag:'GPE',
      content:
      [
        ['Polish','JJ','pol']
      ]
    },
    {
      tag:'FACILITY',
      content:
      [
        ['Air','NNP','air'],
        ['Force','NNP','forc']
      ]
    },
    ['Tu-154','NNP','tu-154'],
    ['that','IN','that'],
    ['occurred','VBD','occ'],
    ['on','IN','on'],
    ['a','DT','a'],
    ['landing','NN','land'],
    ['attempt','NN','attempt'],
    ['at','IN','at'],
    ['Smolensk-North','JJ','smolensk-north'],
    ['airport','NN','airport'],
    ['in','IN','in'],
    {
      tag:'GPE',
      content:
      [
        ['Russia','NNP','russ']
      ]
    },
    ['.','.','.']
  ]
},
{
  tag:'S',
  content:
  [
    ['==Early','RB','==early'],
    ['life==','JJ','life=='],
    ['Kaczyński','NN','kaczyńsk'],
    ['was','VBD','be'],
    ['born','VBN','bear'],
    ['in','IN','in'],
    {
      tag:'GPE',
      content:
      [
        ['Warsaw','NNP','warsaw']
      ]
    },
    [',',',',','],
    ['the','DT','the'],
    ['son','NN','son'],
    ['of','IN','of'],
    {
      tag:'GPE',
      content:
      [
        ['Rajmund','NNP','rajmund']
      ]
    },
    ['(','NNP','('],
    ['an','DT','an'],
    ['engineer','NN','engin'],
    ['who','WP','who'],
    ['served','VBN','serv'],
    ['as','IN','as'],
    ['a','DT','a'],
    ['soldier','NN','soldy'],
    ['of','IN','of'],
    ['the','DT','the'],
    {
      tag:'ORGANIZATION',
      content:
      [
        ['Armia','NNP','arm'],
        ['Krajowa','NNP','krajow']
      ]
    },
    ['in','IN','in'],
    ['World','NNP','world'],
    ['War','NNP','war'],
    ['II','NNP','ii'],
    ['and','CC','and'],
    ['a','DT','a'],
    ['veteran','NN','vet'],
    ['of','IN','of'],
    ['the','DT','the'],
    {
      tag:'ORGANIZATION',
      content:
      [
        ['Warsaw','NNP','warsaw']
      ]
    },
    ['Uprising','NNP','upr'],
    [')','NNP',')'],
    [',',',',','],
    ['and','CC','and'],
    {
      tag:'GPE',
      content:
      [
        ['Jadwiga','NNP','jadwig']
      ]
    },
    ['(','NNP','('],
    ['a','DT','a'],
    ['philologist','NN','philolog'],
    ['at','IN','at'],
    ['the','DT','the'],
    {
      tag:'ORGANIZATION',
      content:
      [
        ['Polish','JJ','pol'],
        ['Academy','NNP','academy']
      ]
    },
    ['of','IN','of'],
    {
      tag:'GPE',
      content:
      [
        ['Sciences','NNPS','sci']
      ]
    },
    [')',':',')'],
    ['.','.','.']
  ]
},
{
  tag:'S',
  content:
  [
    ['As','IN','As'],
    ['a','DT','a'],
    ['child','NN','child'],
    [',',',',','],
    ['he','PRP','he'],
    ['starred','VBD','star'],
    ['in','IN','in'],
    ['a','DT','a'],
    ['1962','CD','1962'],
    {
      tag:'GPE',
      content:
      [
        ['Polish','JJ','pol']
      ]
    },
    ['film','NN','film'],
    [',',',',','],
    {
      tag:'ORGANIZATION',
      content:
      [
        ['The','NNP','the'],
        ['Two','NNP','two'],
        ['Who','NNP','who']
      ]
    },
    ['Stole','NNP','stol'],
    ['the','DT','the'],
    {
      tag:'ORGANIZATION',
      content:
      [
        ['Moon','NNP','moon']
      ]
    },
    ['(','NNP','('],
    ['Polish','NNP','pol'],
    ['title','NN','titl'],
    ['O','NNP','o'],
    ['dwóch','JJ','dwóch'],
    ['takich','NN','takich'],
    [',',',',','],
    ['co','NN','co'],
    ['ukradli','NN','ukradl'],
    ['księżyc','NN','księżyc'],
    [')',':',')'],
    ['with','IN','with'],
    ['his','PRP$','his'],
    ['twin','NN','twin'],
    ['brother','NN','broth'],
    ['Jarosław','NN','jarosław'],
    ['.','.','.']
  ]
},
{
  tag:'S',
  content:
  [
    {
      tag:'PERSON',
      content:
      [
        ['Lech','NNP','lech']
      ]
    },
    ['Kaczyński','NNP','kaczyńsk'],
    ['was','VBD','be'],
    ['a','DT','a'],
    ['graduate','JJ','gradu'],
    ['of','IN','of'],
    ['law','NN','law'],
    ['and','CC','and'],
    ['administration','NN','admin'],
    ['of','IN','of'],
    {
      tag:'ORGANIZATION',
      content:
      [
        ['Warsaw','NNP','warsaw'],
        ['University','NNP','univers']
      ]
    },
    ['.','.','.']
  ]
},
{
  tag:'S',
  content:
  [
    ['In','IN','In'],
    ['1980','CD','1980'],
    ['he','PRP','he'],
    ['was','VBD','be'],
    ['awarded','VBN','award'],
    ['his','PRP$','his'],
    ['PhD','NNP','phd'],
    ['by','IN','by'],
    {
      tag:'ORGANIZATION',
      content:
      [
        ['Gdańsk','JJ','gdańsk'],
        ['University','NNP','univers']
      ]
    },
    ['.','.','.']
  ]
},
{
  tag:'S',
  content:
  [
    ['In','IN','In'],
    ['1990','CD','1990'],
    ['he','PRP','he'],
    ['completed','VBD','complet'],
    ['his','PRP$','his'],
    ['habilitation','NN','habilit'],
    ['in','IN','in'],
    ['labour','PRP$','labour'],
    ['and','CC','and'],
    ['employment','NN','employ'],
    ['law','NN','law'],
    ['.','.','.']
  ]
},
{
  tag:'S',
  content:
  [
    ['He','PRP','He'],
    ['later','JJ','lat'],
    ['assumed','VBD','assum'],
    ['professorial','JJ','profess'],
    ['positions','NNS','posit'],
    ['at','IN','at'],
    {
      tag:'ORGANIZATION',
      content:
      [
        ['Gdańsk','JJ','gdańsk'],
        ['University','NNP','univers']
      ]
    },
    ['and','CC','and'],
    {
      tag:'ORGANIZATION',
      content:
      [
        ['Cardinal','NNP','cardin'],
        ['Stefan','NNP','stef']
      ]
    },
    ['Wyszyński','NNP','wyszyńsk'],
    ['University','NNP','univers'],
    ['in','IN','in'],
    {
      tag:'GPE',
      content:
      [
        ['Warsaw','NNP','warsaw']
      ]
    },
    ['.','.','.']
  ]
},
{
  tag:'S',
  content:
  [
    ['==Opposition','NN','==opposition'],
    ['to','TO','to'],
    ['Communism==','NNP','communism=='],
    ['In','NNP','in'],
    ['the','DT','the'],
    ['1970s','CD','1970s'],
    ['Kaczyński','NNP','kaczyńsk'],
    ['was','VBD','be'],
    ['an','DT','an'],
    ['activist','NN','act'],
    ['in','IN','in'],
    ['the','DT','the'],
    ['pro-democratic','JJ','pro-democratic'],
    ['anti-Communist','JJ','anti-communist'],
    ['movement','NN','mov'],
    ['in','IN','in'],
    {
      tag:'GPE',
      content:
      [
        ['Poland','NNP','poland']
      ]
    },
    [',',',',','],
    ['the','DT','the'],
    {
      tag:'ORGANIZATION',
      content:
      [
        ['Workers','NNP','work']
      ]
    },
    [''','POS','''],
    {
      tag:'ORGANIZATION',
      content:
      [
        ['Defence','NNP','def'],
        ['Committee','NNP','commit']
      ]
    },
    [',',',',','],
    ['as','IN','as'],
    ['well','RB','wel'],
    ['as','IN','as'],
    ['the','DT','the'],
    {
      tag:'ORGANIZATION',
      content:
      [
        ['Independent','NNP','independ'],
        ['Trade','NNP','trad'],
        ['Union','NNP','un']
      ]
    },
    ['movement','NN','mov'],
    ['.','.','.']
  ]
},
{
  tag:'S',
  content:
  [
    ['In','IN','In'],
    ['August','NNP','august'],
    ['1980','CD','1980'],
    [',',',',','],
    ['he','PRP','he'],
    ['became','VBD','becom'],
    ['an','DT','an'],
    ['adviser','NN','adv'],
    ['to','TO','to'],
    ['the','DT','the'],
    ['Inter-Enterprise','JJ','inter-enterprise'],
    {
      tag:'PERSON',
      content:
      [
        ['Strike','NNP','strike'],
        ['Committee','NNP','commit']
      ]
    },
    ['in','IN','in'],
    ['the','DT','the'],
    ['Gdańsk','JJ','gdańsk'],
    {
      tag:'ORGANIZATION',
      content:
      [
        ['Shipyard','NNP','shipyard']
      ]
    },
    ['and','CC','and'],
    ['the','DT','the'],
    {
      tag:'ORGANIZATION',
      content:
      [
        ['Solidarity','NNP','solid']
      ]
    },
    ['movement','NN','mov'],
    ['.','.','.']
  ]
},
{
  tag:'S',
  content:
  [
    ['After','IN','After'],
    ['the','DT','the'],
    ['communists','NNS','commun'],
    ['imposed','VBD','impos'],
    ['martial','JJ','mart'],
    ['law','NN','law'],
    ['in','IN','in'],
    ['December','NNP','decemb'],
    ['1981','CD','1981'],
    [',',',',','],
    ['he','PRP','he'],
    ['was','VBD','be'],
    ['interned','VBN','intern'],
    ['as','IN','as'],
    ['an','DT','an'],
    ['anti-socialist','JJ','anti-socialist'],
    ['element','NN','el'],
    ['.','.','.']
  ]
},
{
  tag:'S',
  content:
  [
    ['After','IN','After'],
    ['his','PRP$','his'],
    ['release','NN','releas'],
    [',',',',','],
    ['he','PRP','he'],
    ['returned','VBD','return'],
    ['to','TO','to'],
    ['trade','VB','trad'],
    ['union','NN','un'],
    ['activities','NNS','act'],
    [',',',',','],
    ['becoming','VBG','becom'],
    ['a','DT','a'],
    ['member','NN','memb'],
    ['of','IN','of'],
    ['the','DT','the'],
    ['underground','NN','underground'],
    ['Solidarity','NNP','solid'],
    ['.','.','.']
  ]
},
{
  tag:'S',
  content:
  [
    ['When','WRB','When'],
    {
      tag:'PERSON',
      content:
      [
        ['Solidarity','NNP','solid']
      ]
    },
    ['was','VBD','be'],
    ['legalized','VBN','leg'],
    ['again','RB','again'],
    ['in','IN','in'],
    ['the','DT','the'],
    ['late','JJ','lat'],
    ['1980s','CD','1980s'],
    [',',',',','],
    {
      tag:'PERSON',
      content:
      [
        ['Kaczyński','NNP','kaczyńsk']
      ]
    },
    ['was','VBD','be'],
    ['an','DT','an'],
    ['active','JJ','act'],
    ['adviser','NN','adv'],
    ['to','TO','to'],
    {
      tag:'PERSON',
      content:
      [
        ['Lech','NNP','lech']
      ]
    },
    ['Wałęsa','NNP','wałęs'],
    ['and','CC','and'],
    ['his','PRP$','his'],
    {
      tag:'ORGANIZATION',
      content:
      [
        ['Komitet','NNP','komitet'],
        ['Obywatelski','NNP','obywatelsk']
      ]
    },
    ['Solidarność','NNP','solidarność'],
    ['in','IN','in'],
    ['1988','CD','1988'],
    ['.','.','.']
  ]
},
{
  tag:'S',
  content:
  [
    ['From','IN','From'],
    ['February','NNP','febru'],
    ['to','TO','to'],
    ['April','NNP','april'],
    ['1989','CD','1989'],
    [',',',',','],
    ['he','PRP','he'],
    ['participated','VBD','particip'],
    ['in','IN','in'],
    ['the','DT','the'],
    {
      tag:'ORGANIZATION',
      content:
      [
        ['Round','NNP','round'],
        ['Table','NNP','tabl']
      ]
    },
    ['talks','VBZ','talk'],
    ['.','.','.']
  ]
},
{
  tag:'S',
  content:
  [
    ['==Political','JJ','==political'],
    ['activity','NN','act'],
    ['since','IN','since'],
    ['1989==','CD','1989=='],
    ['Kaczyński','NNP','kaczyńsk'],
    ['was','VBD','be'],
    ['elected','VBN','elect'],
    ['senator','NN','sen'],
    ['in','IN','in'],
    ['the','DT','the'],
    ['elections','NNS','elect'],
    ['of','IN','of'],
    ['June','NNP','jun'],
    ['1989','CD','1989'],
    [',',',',','],
    ['and','CC','and'],
    ['became','VBD','becom'],
    ['the','DT','the'],
    ['vice-chairman','JJ','vice-chairman'],
    ['of','IN','of'],
    ['the','DT','the'],
    {
      tag:'ORGANIZATION',
      content:
      [
        ['Solidarity','NNP','solid']
      ]
    },
    ['trade','NN','trad'],
    ['union','NN','un'],
    ['.','.','.']
  ]
},
{
  tag:'S',
  content:
  [
    ['In','IN','In'],
    ['the','DT','the'],
    ['1991','CD','1991'],
    ['parliamentary','JJ','parlia'],
    ['election','NN','elect'],
    [',',',',','],
    ['he','PRP','he'],
    ['was','VBD','be'],
    ['elected','VBN','elect'],
    ['to','TO','to'],
    ['the','DT','the'],
    ['parliament','NN','parlia'],
    ['as','IN','as'],
    ['a','DT','a'],
    ['non-party','JJ','non-party'],
    ['member','NN','memb'],
    ['.','.','.']
  ]
},
{
  tag:'S',
  content:
  [
    ['He','PRP','He'],
    ['was','VBD','be'],
    [',',',',','],
    ['however','RB','howev'],
    [',',',',','],
    ['supported','VBD','support'],
    ['by','IN','by'],
    ['the','DT','the'],
    ['electoral','JJ','elect'],
    ['committee','NN','commit'],
    {
      tag:'PERSON',
      content:
      [
        ['Center','NNP','cent'],
        ['Civic','NNP','civ'],
        ['Alliance','NNP','al']
      ]
    },
    [',',',',','],
    ['closely','RB','clos'],
    ['related','VBN','rel'],
    ['but','CC','but'],
    ['not','RB','not'],
    ['identical','JJ','id'],
    ['to','TO','to'],
    ['the','DT','the'],
    ['political','JJ','polit'],
    ['party','NN','party'],
    {
      tag:'PERSON',
      content:
      [
        ['Centre','NNP','cent'],
        ['Agreement','NNP','agr']
      ]
    },
    ['(','NNP','('],
    {
      tag:'PERSON',
      content:
      [
        ['Porozumienie','NNP','porozumieny'],
        ['Centrum','NNP','centr']
      ]
    },
    [')','NNP',')'],
    ['led','VBD','lead'],
    ['by','IN','by'],
    ['his','PRP$','his'],
    ['brother','NN','broth'],
    ['.','.','.']
  ]
},
{
  tag:'S',
  content:
  [
    ['He','PRP','He'],
    ['was','VBD','be'],
    ['also','RB','also'],
    ['the','DT','the'],
    ['main','JJ','main'],
    ['adviser','NN','adv'],
    ['and','CC','and'],
    ['supporter','NN','support'],
    ['of','IN','of'],
    {
      tag:'PERSON',
      content:
      [
        ['Lech','NNP','lech']
      ]
    },
    ['Wałęsa','NNP','wałęs'],
    ['when','WRB','when'],
    ['the','DT','the'],
    ['latter','NN','lat'],
    ['was','VBD','be'],
    ['elected','VBN','elect'],
    ['President','NNP','presid'],
    ['of','IN','of'],
    {
      tag:'GPE',
      content:
      [
        ['Poland','NNP','poland']
      ]
    },
    ['in','IN','in'],
    ['December','NNP','decemb'],
    ['1990','CD','1990'],
    ['.','.','.']
  ]
},
{
  tag:'S',
  content:
  [
    ['Wałęsa','NN','wałęs'],
    ['nominated','VBD','nomin'],
    ['Kaczyński','NNP','kaczyńsk'],
    ['to','TO','to'],
    ['be','VB','be'],
    ['the','DT','the'],
    {
      tag:'ORGANIZATION',
      content:
      [
        ['Security','NNP','sec']
      ]
    },
    ['Minister','NNP','min'],
    ['in','IN','in'],
    ['the','DT','the'],
    ['Presidential','NNP','presid'],
    ['Chancellery','NNP','chancellery'],
    ['but','CC','but'],
    ['fired','VBD','fir'],
    ['him','PRP','him'],
    ['in','IN','in'],
    ['1992','CD','1992'],
    ['during','IN','during'],
    ['to','TO','to'],
    ['a','DT','a'],
    ['conflict','NN','conflict'],
    ['concerning','VBG','concern'],
    {
      tag:'PERSON',
      content:
      [
        ['Jan','NNP','jan'],
        ['Olszewski','NNP','olszewsk']
      ]
    },
    [''s','POS',''s'],
    ['government','NN','govern'],
    ['.','.','.']
  ]
},
{
  tag:'S',
  content:
  [
    ['Kaczyński','NN','kaczyńsk'],
    ['was','VBD','be'],
    ['the','DT','the'],
    ['President','NNP','presid'],
    ['of','IN','of'],
    ['the','DT','the'],
    {
      tag:'ORGANIZATION',
      content:
      [
        ['Supreme','NNP','suprem']
      ]
    },
    ['Chamber','NNP','chamb'],
    ['of','IN','of'],
    {
      tag:'ORGANIZATION',
      content:
      [
        ['Control','NNP','control']
      ]
    },
    ['(','NNP','('],
    ['Najwyższa','NNP','najwyższ'],
    ['Izba','NNP','izb'],
    ['Kontroli','NNP','kontrol'],
    [',',',',','],
    {
      tag:'ORGANIZATION',
      content:
      [
        ['NIK','NNP','nik']
      ]
    },
    [')','NNP',')'],
    ['from','IN','from'],
    ['February','NNP','febru'],
    ['1992','CD','1992'],
    ['to','TO','to'],
    ['May','NNP','may'],
    ['1995','CD','1995'],
    ['and','CC','and'],
    ['later','JJ','lat'],
    ['Minister','NNP','min'],
    ['of','IN','of'],
    {
      tag:'ORGANIZATION',
      content:
      [
        ['Justice','NNP','just']
      ]
    },
    ['and','CC','and'],
    ['Attorney','NNP','attorney'],
    ['General','NNP','gen'],
    ['in','IN','in'],
    {
      tag:'GPE',
      content:
      [
        ['Jerzy','NNP','jerzy'],
        ['Buzek','NNP','buzek']
      ]
    },
    [''s','POS',''s'],
    ['government','NN','govern'],
    ['from','IN','from'],
    ['June','NNP','jun'],
    ['2000','CD','2000'],
    ['until','IN','until'],
    ['his','PRP$','his'],
    ['dismissal','NN','dismiss'],
    ['in','IN','in'],
    ['July','NNP','july'],
    ['2001','CD','2001'],
    ['.','.','.']
  ]
},
{
  tag:'S',
  content:
  [
    ['During','IN','During'],
    ['this','DT','this'],
    ['time','NN','tim'],
    ['he','PRP','he'],
    ['was','VBD','be'],
    ['very','RB','very'],
    ['popular','JJ','popul'],
    ['because','IN','because'],
    ['of','IN','of'],
    ['his','PRP$','his'],
    ['strong','JJ','strong'],
    ['stance','NN','stant'],
    ['against','IN','against'],
    ['corruption','NN','corrupt'],
    ['.','.','.']
  ]
},
{
  tag:'S',
  content:
  [
    ['===Law','NN','===law'],
    ['and','CC','and'],
    ['Justice===','NNP','justice==='],
    ['In','NNP','in'],
    ['2001','CD','2001'],
    ['he','PRP','he'],
    ['founded','VBD','found'],
    ['the','DT','the'],
    ['political','JJ','polit'],
    ['party','NN','party'],
    ['Law','NN','law'],
    ['and','CC','and'],
    {
      tag:'ORGANIZATION',
      content:
      [
        ['Justice','NNP','just']
      ]
    },
    ['(','NNP','('],
    ['Prawo','NNP','prawo'],
    ['i','PRP','i'],
    ['Sprawiedliwość','VBP','sprawiedliwość'],
    ['–',':','–'],
    ['PiS','NNP','pis'],
    [')',':',')'],
    [',',',',','],
    ['usually','RB','us'],
    ['labelled','VBN','label'],
    [''conservative','JJ',''conservative'],
    [''','''','''],
    ['by','IN','by'],
    ['media','NNS','med'],
    [',',',',','],
    ['with','IN','with'],
    ['his','PRP$','his'],
    ['brother','NN','broth'],
    ['Jarosław','NN','jarosław'],
    ['.','.','.']
  ]
},
{
  tag:'S',
  content:
  [
    {
      tag:'PERSON',
      content:
      [
        ['Lech','NNP','lech']
      ]
    },
    ['Kaczyński','NNP','kaczyńsk'],
    ['was','VBD','be'],
    ['the','DT','the'],
    ['president','NN','presid'],
    ['of','IN','of'],
    ['the','DT','the'],
    ['party','NN','party'],
    ['between','IN','between'],
    ['2001','CD','2001'],
    ['and','CC','and'],
    ['2003','CD','2003'],
    ['.','.','.']
  ]
},
{
  tag:'S',
  content:
  [
    ['His','PRP$','His'],
    ['brother','NN','broth'],
    {
      tag:'PERSON',
      content:
      [
        ['Jaroslaw','NNP','jaroslaw']
      ]
    },
    ['is','VBZ','be'],
    ['its','PRP$','its'],
    ['current','JJ','cur'],
    ['chairman','NN','chairm'],
    ['.','.','.']
  ]
},
{
  tag:'S',
  content:
  [
    ['===Mayor','JJ','===mayor'],
    ['of','IN','of'],
    ['Warsaw===','JJ','warsaw==='],
    ['In','IN','In'],
    ['2002','CD','2002'],
    [',',',',','],
    {
      tag:'PERSON',
      content:
      [
        ['Kaczyński','NNP','kaczyńsk']
      ]
    },
    ['was','VBD','be'],
    ['elected','VBN','elect'],
    ['mayor','NN','may'],
    ['of','IN','of'],
    {
      tag:'GPE',
      content:
      [
        ['Warsaw','NNP','warsaw']
      ]
    },
    ['in','IN','in'],
    ['a','DT','a'],
    ['landslide','NN','landslid'],
    ['victory','NN','vict'],
    ['.','.','.']
  ]
},
{
  tag:'S',
  content:
  [
    ['He','PRP','He'],
    ['started','VBD','start'],
    ['his','PRP$','his'],
    ['term','NN','term'],
    ['in','IN','in'],
    ['office','NN','off'],
    ['by','IN','by'],
    ['declaring','NN','decl'],
    ['a','DT','a'],
    ['war','NN','war'],
    ['on','IN','on'],
    ['corruption','NN','corrupt'],
    ['.','.','.']
  ]
},
{
  tag:'S',
  content:
  [
    ['He','PRP','He'],
    ['strongly','RB','strongly'],
    ['supported','VBD','support'],
    ['the','DT','the'],
    ['construction','NN','construct'],
    ['of','IN','of'],
    ['the','DT','the'],
    {
      tag:'ORGANIZATION',
      content:
      [
        ['Museum','NNP','muse']
      ]
    },
    ['of','IN','of'],
    ['the','DT','the'],
    {
      tag:'ORGANIZATION',
      content:
      [
        ['Warsaw','NNP','warsaw'],
        ['Uprising','NNP','upr']
      ]
    },
    ['and','CC','and'],
    ['in','IN','in'],
    ['2004','CD','2004'],
    ['appointed','VBN','appoint'],
    ['a','DT','a'],
    ['historical','JJ','hist'],
    ['panel','NN','panel'],
    ['to','TO','to'],
    ['estimate','VB','estim'],
    ['material','NN','mat'],
    ['losses','NNS','loss'],
    ['that','WDT','that'],
    ['were','VBD','be'],
    ['inflicted','VBN','inflict'],
    ['upon','IN','upon'],
    ['the','DT','the'],
    ['city','NN','city'],
    ['by','IN','by'],
    ['the','DT','the'],
    ['Germans','NNS','germ'],
    ['in','IN','in'],
    ['the','DT','the'],
    {
      tag:'ORGANIZATION',
      content:
      [
        ['Second','NNP','second']
      ]
    },
    ['World','NNP','world'],
    ['War','NNP','war'],
    ['(','NNP','('],
    ['an','DT','an'],
    ['estimated','VBN','estim'],
    ['85','CD','85'],
    ['%','NN','%'],
    ['of','IN','of'],
    ['the','DT','the'],
    ['city','NN','city'],
    ['was','VBD','be'],
    ['destroyed','VBN','destroy'],
    ['in','IN','in'],
    ['the','DT','the'],
    {
      tag:'ORGANIZATION',
      content:
      [
        ['Warsaw','NNP','warsaw']
      ]
    },
    ['Uprising','NNP','upr'],
    [')','NNP',')'],
    ['as','IN','as'],
    ['a','DT','a'],
    ['direct','JJ','direct'],
    ['response','NN','respons'],
    ['to','TO','to'],
    ['heightened','VBN','height'],
    ['claims','NNS','claim'],
    ['coming','VBG','com'],
    ['from','IN','from'],
    {
      tag:'GPE',
      content:
      [
        ['German','NNP','germ']
      ]
    },
    ['expellees','NNS','expel'],
    ['from','IN','from'],
    {
      tag:'GPE',
      content:
      [
        ['Poland','NNP','poland']
      ]
    },
    ['.','.','.']
  ]
},
{
  tag:'S',
  content:
  [
    ['The','DT','The'],
    ['panel','NN','panel'],
    ['estimated','VBD','estim'],
    ['the','DT','the'],
    ['losses','NNS','loss'],
    ['to','TO','to'],
    ['be','VB','be'],
    ['at','IN','at'],
    ['least','JJS','least'],
    ['45.3','CD','45.3'],
    ['billion','CD','billion'],
    ['euros','NNS','euro'],
    ['(',':','('],
    ['$','$','$'],
    ['54','CD','54'],
    ['billion','CD','billion'],
    [')','CD',')'],
    ['in','IN','in'],
    ['current','JJ','cur'],
    ['value','NN','valu'],
    ['.','.','.']
  ]
},
{
  tag:'S',
  content:
  [
    ['He','PRP','He'],
    ['also','RB','also'],
    ['promoted','VBD','promot'],
    ['construction','NN','construct'],
    ['of','IN','of'],
    ['the','DT','the'],
    ['museum','NN','muse'],
    ['of','IN','of'],
    {
      tag:'GPE',
      content:
      [
        ['Polish','JJ','pol']
      ]
    },
    ['Jews','NNS','jew'],
    ['in','IN','in'],
    {
      tag:'GPE',
      content:
      [
        ['Warsaw','NNP','warsaw']
      ]
    },
    ['by','IN','by'],
    ['donating','NN','don'],
    ['city','NN','city'],
    ['land','NN','land'],
    ['to','TO','to'],
    ['the','DT','the'],
    ['project','NN','project'],
    ['.','.','.']
  ]
},
{
  tag:'S',
  content:
  [
    ['Kaczyński','NN','kaczyńsk'],
    ['twice','NN','twic'],
    ['banned','VBD','ban'],
    ['the','DT','the'],
    {
      tag:'GPE',
      content:
      [
        ['Warsaw','NNP','warsaw']
      ]
    },
    ['gay','NN','gay'],
    ['pride','NN','prid'],
    ['parade','NN','parad'],
    ['in','IN','in'],
    ['2004','CD','2004'],
    ['and','CC','and'],
    ['again','RB','again'],
    ['in','IN','in'],
    ['2005','CD','2005'],
    [',',',',','],
    ['locally','RB','loc'],
    ['known','VBN','know'],
    ['as','IN','as'],
    ['the','DT','the'],
    {
      tag:'ORGANIZATION',
      content:
      [
        ['Parada','NNP','parad']
      ]
    },
    ['Równości','NNP','równości'],
    ['(','NNP','('],
    ['the','DT','the'],
    {
      tag:'ORGANIZATION',
      content:
      [
        ['Equality','NNP','eq'],
        ['Parade','NNP','parad']
      ]
    },
    [')','NNP',')'],
    [',',',',','],
    ['stating','VBG','stat'],
    ['that','IN','that'],
    ['the','DT','the'],
    ['application','NN','apply'],
    ['of','IN','of'],
    ['the','DT','the'],
    ['parade','NN','parad'],
    ['organizers','NNS','org'],
    ['had','VBD','hav'],
    ['not','RB','not'],
    ['been','VBN','be'],
    ['properly','RB','prop'],
    ['filed','VBN','fil'],
    [',',',',','],
    ['and','CC','and'],
    ['also','RB','also'],
    ['that','IN','that'],
    ['he','PRP','he'],
    ['did','VBD','do'],
    ['not','RB','not'],
    ['respect','VB','respect'],
    ['homosexuals','NNS','homosex'],
    [''','POS','''],
    ['right','NN','right'],
    ['to','TO','to'],
    ['demonstrate','VB','demonst'],
    [',',',',','],
    ['``','``','``'],
    ['I','PRP','I'],
    ['respect','VBP','respect'],
    ['your','PRP$','your'],
    ['right','NN','right'],
    ['to','TO','to'],
    ['demonstrate','VB','demonst'],
    ['as','IN','as'],
    ['citizens','NNS','cit'],
    ['.','.','.']
  ]
},
{
  tag:'S',
  content:
  [
    ['But','CC','But'],
    ['not','RB','not'],
    ['as','IN','as'],
    ['homosexuals.”','JJ','homosexuals.”'],
    ['Additionally','NNP','addit'],
    [',',',',','],
    ['he','PRP','he'],
    ['feared','VBD','fear'],
    ['the','DT','the'],
    ['parade','NN','parad'],
    ['would','MD','would'],
    ['promote','VB','promot'],
    ['a','DT','a'],
    ['``','``','``'],
    ['homosexual','JJ','homosex'],
    ['lifestyle','NN','lifestyl'],
    ['''','''',''''],
    ['and','CC','and'],
    ['complained','VBD','complain'],
    ['that','IN','that'],
    ['police','NN','pol'],
    ['did','VBD','do'],
    ['not','RB','not'],
    ['use','VB','us'],
    ['enough','RB','enough'],
    ['force','VB','forc'],
    ['in','IN','in'],
    ['breaking','NN','break'],
    ['it','PRP','it'],
    ['up','IN','up'],
    ['by','IN','by'],
    ['stating','NN','stat'],
    ['“Why','JJ','“why'],
    ['was','VBD','be'],
    ['force','NN','forc'],
    ['not','RB','not'],
    ['used','VBN','us'],
    ['to','TO','to'],
    ['break','VB','break'],
    ['up','RP','up'],
    ['an','DT','an'],
    ['illegal','JJ','illeg'],
    ['demonstration','NN','demonst'],
    ['?','.','?'],
    ['”',':','”'],
    ['.','.','.']
  ]
},
{
  tag:'S',
  content:
  [
    {
      tag:'PERSON',
      content:
      [
        ['Kaczynski','NNP','kaczynsk']
      ]
    },
    ['referred','VBD','ref'],
    ['to','TO','to'],
    ['the','DT','the'],
    ['organizers','NNS','org'],
    ['of','IN','of'],
    ['the','DT','the'],
    ['gay','NN','gay'],
    ['pride','NN','prid'],
    ['parades','VBZ','parad'],
    ['as','IN','as'],
    ['``','``','``'],
    ['perverts','NNS','pervert'],
    ['''','''',''''],
    ['.','.','.']
  ]
},
{
  tag:'S',
  content:
  [
    ['In','IN','In'],
    ['2004','CD','2004'],
    ['his','PRP$','his'],
    ['opponents','NNS','oppon'],
    ['called','VBN','cal'],
    ['his','PRP$','his'],
    ['actions','NNS','act'],
    ['unconstitutional','JJ','unconstitut'],
    ['and','CC','and'],
    ['he','PRP','he'],
    ['was','VBD','be'],
    ['repeatedly','RB','rep'],
    ['criticized','VBN','crit'],
    ['by','IN','by'],
    ['the','DT','the'],
    {
      tag:'ORGANIZATION',
      content:
      [
        ['Mazowieckie','NNP','mazowiecky'],
        ['Voivodeship','NNP','voivod']
      ]
    },
    ['administration','NN','admin'],
    [',',',',','],
    ['which','WDT','which'],
    ['officially','RB','off'],
    ['supervises','VBZ','superv'],
    ['the','DT','the'],
    ['Mayor','NNP','may'],
    ['of','IN','of'],
    {
      tag:'GPE',
      content:
      [
        ['Warsaw','NNP','warsaw']
      ]
    },
    ['.','.','.']
  ]
},
{
  tag:'S',
  content:
  [
    ['In','IN','In'],
    ['2005','CD','2005'],
    [',',',',','],
    ['he','PRP','he'],
    ['allowed','VBD','allow'],
    ['a','DT','a'],
    ['counter-demonstration','NN','counter-demonstration'],
    [',',',',','],
    ['the','DT','the'],
    ['``','``','``'],
    {
      tag:'ORGANIZATION',
      content:
      [
        ['Parade','NNP','parad']
      ]
    },
    ['of','IN','of'],
    {
      tag:'GPE',
      content:
      [
        ['Normality','NNP','norm']
      ]
    },
    ['''','''',''''],
    [',',',',','],
    ['organized','VBD','org'],
    ['by','IN','by'],
    ['the','DT','the'],
    ['All-Polish','JJ','all-polish'],
    {
      tag:'GPE',
      content:
      [
        ['Youth','NNP','you']
      ]
    },
    [',',',',','],
    ['a','DT','a'],
    {
      tag:'ORGANIZATION',
      content:
      [
        ['Catholic','NNP','cathol']
      ]
    },
    ['nationalist','NN','nat'],
    ['organization','NN','org'],
    ['opposed','VBD','oppos'],
    ['to','TO','to'],
    ['``','``','``'],
    ['liberalism','NN','lib'],
    [',',',',','],
    ['tolerance','NN','tol'],
    [',',',',','],
    ['and','CC','and'],
    ['relativism','NN','rel'],
    ['.','.','.']
  ]
},
{
  tag:'S',
  content:
  [
    ['``','``','``'],
    ['In','IN','In'],
    ['2007','CD','2007'],
    [',',',',','],
    {
      tag:'GPE',
      content:
      [
        ['Poland','NNP','poland']
      ]
    },
    [',',',',','],
    ['represented','VBD','repres'],
    ['by','IN','by'],
    ['Kaczyński','NNP','kaczyńsk'],
    [',',',',','],
    ['was','VBD','be'],
    ['found','VBN','find'],
    ['guilty','NN','guil'],
    ['by','IN','by'],
    ['the','DT','the'],
    {
      tag:'ORGANIZATION',
      content:
      [
        ['European','NNP','europ'],
        ['Court','NNP','court']
      ]
    },
    ['of','IN','of'],
    {
      tag:'ORGANIZATION',
      content:
      [
        ['Human','NNP','hum'],
        ['Rights','NNP','right']
      ]
    },
    ['of','IN','of'],
    ['violating','VBG','viol'],
    ['the','DT','the'],
    ['principle','NN','principl'],
    ['of','IN','of'],
    ['freedom','NN','freedom'],
    ['of','IN','of'],
    ['assembly','RB','assembl'],
    ['under','IN','under'],
    ['Article','NNP','artic'],
    ['11','CD','11'],
    ['of','IN','of'],
    ['the','DT','the'],
    {
      tag:'ORGANIZATION',
      content:
      [
        ['European','JJ','europ'],
        ['Convention','NNP','conv']
      ]
    },
    ['on','IN','on'],
    {
      tag:'PERSON',
      content:
      [
        ['Human','NNP','hum'],
        ['Rights','NNP','right']
      ]
    },
    ['.','.','.']
  ]
},
{
  tag:'S',
  content:
  [
    ['==Presidency==','NN','==presidency=='],
    ['===Presidential','JJ','===presidential'],
    ['election===','NN','election==='],
    ['On','IN','On'],
    ['19','CD','19'],
    ['March','NNP','march'],
    ['2005','CD','2005'],
    [',',',',','],
    ['he','PRP','he'],
    ['formally','RB','form'],
    ['declared','VBD','decl'],
    ['his','PRP$','his'],
    ['intention','NN','int'],
    ['to','TO','to'],
    ['run','VB','run'],
    ['for','IN','for'],
    ['president','NN','presid'],
    ['in','IN','in'],
    ['the','DT','the'],
    ['October','NNP','octob'],
    ['2005','CD','2005'],
    ['election','NN','elect'],
    ['.','.','.']
  ]
},
{
  tag:'S',
  content:
  [
    ['In','IN','In'],
    ['the','DT','the'],
    ['first','JJ','first'],
    ['round','NN','round'],
    ['of','IN','of'],
    ['the','DT','the'],
    ['elections','NNS','elect'],
    [',',',',','],
    ['he','PRP','he'],
    ['polled','VBD','pol'],
    ['only','RB','on'],
    ['33','CD','33'],
    ['%','NN','%'],
    ['of','IN','of'],
    ['the','DT','the'],
    ['vote','NN','vot'],
    [',',',',','],
    ['taking','VBG','tak'],
    ['second','JJ','second'],
    ['place','NN','plac'],
    ['behind','IN','behind'],
    {
      tag:'PERSON',
      content:
      [
        ['Donald','NNP','donald'],
        ['Tusk','NNP','tusk']
      ]
    },
    ['.','.','.']
  ]
},
{
  tag:'S',
  content:
  [
    ['By','IN','By'],
    ['the','DT','the'],
    ['second','JJ','second'],
    ['round','NN','round'],
    [',',',',','],
    ['however','RB','howev'],
    [',',',',','],
    ['he','PRP','he'],
    ['had','VBD','hav'],
    ['gained','VBN','gain'],
    ['the','DT','the'],
    ['support','NN','support'],
    ['of','IN','of'],
    {
      tag:'PERSON',
      content:
      [
        ['Radio','NNP','radio'],
        ['Maryja','NNP','maryj']
      ]
    },
    [',',',',','],
    ['as','IN','as'],
    ['well','RB','wel'],
    ['as','IN','as'],
    ['of','IN','of'],
    ['two','CD','two'],
    ['other','JJ','oth'],
    ['political','JJ','polit'],
    ['parties','NNS','party'],
    [':',':',':'],
    ['Self-Defence','JJ','self-defence'],
    ['of','IN','of'],
    ['the','DT','the'],
    {
      tag:'ORGANIZATION',
      content:
      [
        ['Republic','NNP','republ']
      ]
    },
    ['of','IN','of'],
    {
      tag:'GPE',
      content:
      [
        ['Poland','NNP','poland']
      ]
    },
    [',',',',','],
    ['and','CC','and'],
    {
      tag:'GPE',
      content:
      [
        ['Polish','JJ','pol']
      ]
    },
    ['People','NNS','peopl'],
    [''s','POS',''s'],
    {
      tag:'ORGANIZATION',
      content:
      [
        ['Party','NNP','party'],
        ['Elected','NNP','elect']
      ]
    },
    ['President','NNP','presid'],
    ['of','IN','of'],
    ['the','DT','the'],
    {
      tag:'ORGANIZATION',
      content:
      [
        ['Republic','NNP','republ']
      ]
    },
    ['of','IN','of'],
    {
      tag:'GPE',
      content:
      [
        ['Poland','NNP','poland']
      ]
    },
    ['in','IN','in'],
    ['defeating','NN','def'],
    ['the','DT','the'],
    ['runner','NN','run'],
    ['up','RP','up'],
    {
      tag:'PERSON',
      content:
      [
        ['Donald','NNP','donald'],
        ['Tusk','NNP','tusk']
      ]
    },
    [',',',',','],
    ['by','IN','by'],
    ['polling','NN','pol'],
    ['8,257,468','CD','8,257,468'],
    ['votes','NNS','vot'],
    [',',',',','],
    ['constituting','VBG','constitut'],
    ['54.04','CD','54.04'],
    ['percent','NN','perc'],
    ['of','IN','of'],
    ['the','DT','the'],
    ['vote','NN','vot'],
    [',',',',','],
    {
      tag:'PERSON',
      content:
      [
        ['Kaczyński','NNP','kaczyńsk']
      ]
    },
    ['assumed','VBD','assum'],
    ['office','NN','off'],
    ['on','IN','on'],
    ['23','CD','23'],
    ['December','NNP','decemb'],
    ['2005','CD','2005'],
    ['by','IN','by'],
    ['taking','NN','tak'],
    ['an','DT','an'],
    ['oath','NN','oa'],
    ['before','IN','before'],
    ['the','DT','the'],
    {
      tag:'ORGANIZATION',
      content:
      [
        ['National','NNP','nat'],
        ['Assembly','NNP','assembl']
      ]
    },
    ['.','.','.']
  ]
},
{
  tag:'S',
  content:
  [
    ['===Domestic','JJ','===domestic'],
    ['policy===','NN','policy==='],
    ['In','IN','In'],
    ['his','PRP$','his'],
    ['first','JJ','first'],
    ['public','JJ','publ'],
    ['speech','NN','speech'],
    ['as','IN','as'],
    ['president-elect','JJ','president-elect'],
    [',',',',','],
    {
      tag:'PERSON',
      content:
      [
        ['Kaczyński','NNP','kaczyńsk']
      ]
    },
    ['said','VBD','say'],
    ['that','IN','that'],
    ['his','PRP$','his'],
    ['presidency','NN','presid'],
    ['would','MD','would'],
    ['pursue','VB','pursu'],
    ['the','DT','the'],
    ['task','NN','task'],
    ['of','IN','of'],
    ['ameliorating','VBG','am'],
    ['the','DT','the'],
    {
      tag:'ORGANIZATION',
      content:
      [
        ['Republic','NNP','republ']
      ]
    },
    [',',',',','],
    ['a','DT','a'],
    ['process','NN','process'],
    ['which','WDT','which'],
    ['he','PRP','he'],
    ['said','VBD','say'],
    ['would','MD','would'],
    ['consist','VB','consist'],
    ['of','IN','of'],
    ['``','``','``'],
    ['purging','VBG','purg'],
    ['various','JJ','vary'],
    ['pathologies','NNS','patholog'],
    ['from','IN','from'],
    ['our','PRP$','our'],
    ['life','NN','lif'],
    [',',',',','],
    ['most','JJS','most'],
    ['prominently','RB','promin'],
    ['crime','NN','crim'],
    ['(',':','('],
    ['...',':','...'],
    [')',':',')'],
    [',',',',','],
    ['particularly','RB','particul'],
    ['criminal','JJ','crimin'],
    ['corruption','NN','corrupt'],
    ['–',':','–'],
    ['that','IN','that'],
    ['entire','JJ','entir'],
    [',',',',','],
    ['great','JJ','gre'],
    ['rush','NN','rush'],
    ['to','TO','to'],
    ['obtain','VB','obtain'],
    ['unjust','JJ','unjust'],
    ['enrichment','NN','enrich'],
    [',',',',','],
    ['a','DT','a'],
    ['rush','NN','rush'],
    ['that','WDT','that'],
    ['is','VBZ','be'],
    ['poisoning','VBG','poison'],
    ['society','NN','socy'],
    [',',',',','],
    ['preventing','VBG','prev'],
    ['the','DT','the'],
    ['state','NN','stat'],
    ['from','IN','from'],
    ['ensuring','NN','ens'],
    ['elementary','NN','el'],
    ['social','JJ','soc'],
    ['security','NN','sec'],
    [',',',',','],
    ['health','NN','heal'],
    ['security','NN','sec'],
    [',',',',','],
    ['basic','JJ','bas'],
    ['conditions','NNS','condit'],
    ['for','IN','for'],
    ['the','DT','the'],
    ['development','NN','develop'],
    ['of','IN','of'],
    ['the','DT','the'],
    ['family','NN','famy'],
    ['[',':','['],
    ['and','CC','and'],
    [']',':',']'],
    ['the','DT','the'],
    ['security','NN','sec'],
    ['of','IN','of'],
    ['commerce','NN','commerc'],
    ['and','CC','and'],
    ['the','DT','the'],
    ['basic','JJ','bas'],
    ['conditions','NNS','condit'],
    ['for','IN','for'],
    ['economic','JJ','econom'],
    ['development','NN','develop'],
    ['.','.','.']
  ]
},
{
  tag:'S',
  content:
  [
    ['During','IN','During'],
    ['his','PRP$','his'],
    ['inauguration','NN','inaug'],
    ['he','PRP','he'],
    ['stated','VBD','stat'],
    ['several','JJ','sev'],
    ['goals','NNS','goal'],
    ['he','PRP','he'],
    ['would','MD','would'],
    ['pursue','VB','pursu'],
    ['during','IN','during'],
    ['his','PRP$','his'],
    ['presidency','NN','presid'],
    ['.','.','.']
  ]
},
{
  tag:'S',
  content:
  [
    ['Among','IN','Among'],
    ['those','DT','those'],
    ['concerning','VBG','concern'],
    ['internal','JJ','intern'],
    ['affairs','NNS','affair'],
    ['were','VBD','be'],
    [':',':',':'],
    ['increasing','VBG','increas'],
    ['social','JJ','soc'],
    ['solidarity','NN','solid'],
    ['in','IN','in'],
    {
      tag:'GPE',
      content:
      [
        ['Poland','NNP','poland']
      ]
    },
    [',',',',','],
    ['bringing','VBG','bring'],
    ['justice','NN','just'],
    ['to','TO','to'],
    ['those','DT','those'],
    ['who','WP','who'],
    ['were','VBD','be'],
    ['responsible','JJ','respons'],
    ['for','IN','for'],
    [',',',',','],
    ['or','CC','or'],
    ['were','VBD','be'],
    ['affected','VBN','affect'],
    ['by','IN','by'],
    ['communist','NN','commun'],
    ['crimes','NNS','crim'],
    ['in','IN','in'],
    ['the','DT','the'],
    {
      tag:'ORGANIZATION',
      content:
      [
        ['People','NNP','peopl']
      ]
    },
    [''s','POS',''s'],
    {
      tag:'ORGANIZATION',
      content:
      [
        ['Republic','NNP','republ']
      ]
    },
    ['of','IN','of'],
    {
      tag:'GPE',
      content:
      [
        ['Poland','NNP','poland']
      ]
    },
    [',',',',','],
    ['fighting','VBG','fight'],
    ['corruption','NN','corrupt'],
    [',',',',','],
    ['providing','VBG','provid'],
    ['security','NN','sec'],
    ['in','IN','in'],
    ['economy','NN','econom'],
    [',',',',','],
    ['and','CC','and'],
    ['safety','NN','saf'],
    ['for','IN','for'],
    ['development','NN','develop'],
    ['of','IN','of'],
    ['family','NN','famy'],
    ['.','.','.']
  ]
},
{
  tag:'S',
  content:
  [
    ['Kaczyński','NN','kaczyńsk'],
    ['also','RB','also'],
    ['stated','VBD','stat'],
    ['that','IN','that'],
    ['he','PRP','he'],
    ['would','MD','would'],
    ['seek','VB','seek'],
    ['to','TO','to'],
    ['abolish','VB','abol'],
    ['economic','JJ','econom'],
    ['inequalities','NNS','ineq'],
    ['between','IN','between'],
    ['various','JJ','vary'],
    ['regions','NNS','reg'],
    ['of','IN','of'],
    {
      tag:'GPE',
      content:
      [
        ['Poland','NNP','poland']
      ]
    },
    ['.','.','.']
  ]
},
{
  tag:'S',
  content:
  [
    ['In','IN','In'],
    ['his','PRP$','his'],
    ['speech','NN','speech'],
    ['he','PRP','he'],
    ['also','RB','also'],
    ['emphasized','VBD','emphas'],
    ['combining','VBG','combin'],
    ['modernization','NN','modern'],
    ['with','IN','with'],
    ['tradition','NN','tradit'],
    ['and','CC','and'],
    ['remembering','VBG','rememb'],
    ['the','DT','the'],
    ['teachings','NNS','teach'],
    ['of','IN','of'],
    {
      tag:'PERSON',
      content:
      [
        ['Pope','NNP','pop'],
        ['John','NNP','john']
      ]
    },
    {
      tag:'PERSON',
      content:
      [
        ['Paul','NNP','paul'],
        ['II','NNP','ii']
      ]
    },
    ['.','.','.']
  ]
},
{
  tag:'S',
  content:
  [
    ['On','IN','On'],
    ['21','CD','21'],
    ['December','NNP','decemb'],
    ['2008','CD','2008'],
    [',',',',','],
    ['Kaczyński','NNP','kaczyńsk'],
    ['became','VBD','becom'],
    ['the','DT','the'],
    ['first','JJ','first'],
    {
      tag:'GPE',
      content:
      [
        ['Polish','JJ','pol']
      ]
    },
    ['head','NN','head'],
    ['of','IN','of'],
    ['state','NN','stat'],
    ['to','TO','to'],
    ['visit','NN','visit'],
    ['a','DT','a'],
    {
      tag:'GPE',
      content:
      [
        ['Polish','JJ','pol']
      ]
    },
    ['synagogue','NN','synagog'],
    ['and','CC','and'],
    ['to','TO','to'],
    ['attend','VB','attend'],
    ['religious','JJ','religy'],
    ['services','NNS','serv'],
    ['held','VBD','hold'],
    ['there','RB','ther'],
    ['.','.','.']
  ]
},
{
  tag:'S',
  content:
  [
    ['His','PRP$','His'],
    ['attendance','NN','attend'],
    ['coincided','VBD','coincid'],
    ['with','IN','with'],
    ['the','DT','the'],
    ['first','JJ','first'],
    ['night','NN','night'],
    ['of','IN','of'],
    {
      tag:'GPE',
      content:
      [
        ['Hanukkah','NNP','hanukkah']
      ]
    },
    ['.','.','.']
  ]
},
{
  tag:'S',
  content:
  [
    ['Kaczyński','NN','kaczyńsk'],
    ['memorialized','VBD','mem'],
    ['many','JJ','many'],
    ['of','IN','of'],
    {
      tag:'GPE',
      content:
      [
        ['Poland','NNP','poland']
      ]
    },
    [''s','POS',''s'],
    ['national','JJ','nat'],
    ['heroes','NNS','hero'],
    ['known','VBN','know'],
    ['as','IN','as'],
    ['cursed','VBN','curs'],
    ['soldiers','NNS','soldy'],
    ['who','WP','who'],
    ['perished','VBN','per'],
    ['at','IN','at'],
    ['the','DT','the'],
    ['hands','NNS','hand'],
    ['of','IN','of'],
    ['the','DT','the'],
    {
      tag:'GPE',
      content:
      [
        ['Polish','JJ','pol']
      ]
    },
    ['secret','NN','secret'],
    ['police','NN','pol'],
    [',',',',','],
    ['the','DT','the'],
    {
      tag:'GPE',
      content:
      [
        ['Soviet','NNP','soviet'],
        ['NKVD','NNP','nkvd']
      ]
    },
    [',',',',','],
    ['the','DT','the'],
    {
      tag:'ORGANIZATION',
      content:
      [
        ['SMERSH','NNP','smersh']
      ]
    },
    [',',',',','],
    ['and','CC','and'],
    ['other','JJ','oth'],
    ['repressive','JJ','repress'],
    ['organs','NNS','org'],
    ['of','IN','of'],
    ['communist','NN','commun'],
    ['rule','NN','rul'],
    ['.','.','.']
  ]
},
{
  tag:'S',
  content:
  [
    ['Such','JJ','such'],
    ['national','JJ','nat'],
    ['heroes','NNS','hero'],
    ['as','IN','as'],
    {
      tag:'PERSON',
      content:
      [
        ['Witold','NNP','witold'],
        ['Pilecki','NNP','pileck']
      ]
    },
    [',',',',','],
    {
      tag:'PERSON',
      content:
      [
        ['August','NNP','august'],
        ['Fieldorf','NNP','fieldorf']
      ]
    },
    [',',',',','],
    ['and','CC','and'],
    ['many','JJ','many'],
    ['others','NNS','oth'],
    [',',',',','],
    ['were','VBD','be'],
    ['posthumously','RB','posthum'],
    ['rehabilitated','VBN','rehabilit'],
    ['and','CC','and'],
    ['bestowed','VBD','bestow'],
    ['with','IN','with'],
    {
      tag:'GPE',
      content:
      [
        ['Poland','NNP','poland']
      ]
    },
    [''s','POS',''s'],
    ['highest','JJS','high'],
    ['decorations','NNS','dec'],
    ['for','IN','for'],
    ['valor','NN','val'],
    ['.','.','.']
  ]
},
{
  tag:'S',
  content:
  [
    ['===Presidential','JJ','===presidential'],
    ['pardons===','NN','pardons==='],
    ['From','IN','From'],
    ['2005–2007','CD','2005–2007'],
    [',',',',','],
    ['in','IN','in'],
    ['accordance','NN','accord'],
    ['article','NN','artic'],
    ['133','CD','133'],
    ['of','IN','of'],
    ['the','DT','the'],
    ['Constitution','NNP','constitut'],
    ['of','IN','of'],
    ['the','DT','the'],
    {
      tag:'ORGANIZATION',
      content:
      [
        ['Republic','NNP','republ']
      ]
    },
    ['of','IN','of'],
    {
      tag:'GPE',
      content:
      [
        ['Poland','NNP','poland']
      ]
    },
    [',',',',','],
    {
      tag:'PERSON',
      content:
      [
        ['Kaczyński','NNP','kaczyńsk']
      ]
    },
    ['pardoned','VBD','pardon'],
    ['77','CD','77'],
    ['people','NNS','peopl'],
    ['and','CC','and'],
    ['declined','VBD','declin'],
    ['to','TO','to'],
    ['pardon','VB','pardon'],
    ['550','CD','550'],
    ['.','.','.']
  ]
},
{
  tag:'S',
  content:
  [
    ['===Foreign','JJ','===foreign'],
    ['affairs===','NN','affairs==='],
    ['In','IN','In'],
    ['foreign','JJ','foreign'],
    ['affairs','NNS','affair'],
    [',',',',','],
    {
      tag:'PERSON',
      content:
      [
        ['Kaczyński','NNP','kaczyńsk']
      ]
    },
    ['noted','VBD','not'],
    ['that','IN','that'],
    ['many','JJ','many'],
    ['of','IN','of'],
    {
      tag:'GPE',
      content:
      [
        ['Poland','NNP','poland']
      ]
    },
    [''s','POS',''s'],
    ['problems','NNS','problem'],
    ['were','VBD','be'],
    ['related','VBN','rel'],
    ['to','TO','to'],
    ['the','DT','the'],
    ['lack','NN','lack'],
    ['of','IN','of'],
    ['energy','NN','energy'],
    ['security','NN','sec'],
    ['and','CC','and'],
    ['this','DT','this'],
    ['issue','NN','issu'],
    ['would','MD','would'],
    ['have','VB','hav'],
    ['to','TO','to'],
    ['be','VB','be'],
    ['resolved','VBN','resolv'],
    ['to','TO','to'],
    ['protect','VB','protect'],
    {
      tag:'GPE',
      content:
      [
        ['Polish','JJ','pol']
      ]
    },
    ['interests','NNS','interest'],
    ['.','.','.']
  ]
},
{
  tag:'S',
  content:
  [
    ['Strengthening','VBG','strengthening'],
    ['ties','NNS','tie'],
    ['with','IN','with'],
    ['the','DT','the'],
    {
      tag:'GPE',
      content:
      [
        ['United','NNP','unit'],
        ['States','NNPS','stat']
      ]
    },
    ['while','IN','while'],
    ['continuing','VBG','continu'],
    ['to','TO','to'],
    ['develop','VB','develop'],
    ['relations','NNS','rel'],
    ['within','IN','within'],
    ['the','DT','the'],
    {
      tag:'ORGANIZATION',
      content:
      [
        ['European','NNP','europ'],
        ['Union','NNP','un']
      ]
    },
    ['are','VBP','be'],
    ['two','CD','two'],
    ['main','JJ','main'],
    ['goals','NNS','goal'],
    ['of','IN','of'],
    {
      tag:'GPE',
      content:
      [
        ['Polish','JJ','pol']
      ]
    },
    ['foreign','JJ','foreign'],
    ['affairs','NNS','affair'],
    [',',',',','],
    ['as','IN','as'],
    ['well','RB','wel'],
    ['as','IN','as'],
    ['improving','VBG','improv'],
    ['relations','NNS','rel'],
    ['with','IN','with'],
    {
      tag:'GPE',
      content:
      [
        ['France','NNP','frant']
      ]
    },
    ['and','CC','and'],
    {
      tag:'GPE',
      content:
      [
        ['Germany','NNP','germany']
      ]
    },
    ['despite','IN','despite'],
    ['several','JJ','sev'],
    ['problems','NNS','problem'],
    ['in','IN','in'],
    ['relations','NNS','rel'],
    ['with','IN','with'],
    ['the','DT','the'],
    ['latter','NN','lat'],
    ['.','.','.']
  ]
},
{
  tag:'S',
  content:
  [
    {
      tag:'GPE',
      content:
      [
        ['Aside','NNP','asid']
      ]
    },
    ['from','IN','from'],
    ['those','DT','those'],
    ['issues','NNS','issu'],
    [',',',',','],
    ['his','PRP$','his'],
    ['immediate','JJ','immedy'],
    ['goals','NNS','goal'],
    ['were','VBD','be'],
    ['to','TO','to'],
    ['develop','VB','develop'],
    ['tangible','JJ','tang'],
    ['strategic','JJ','strategic'],
    ['partnership','NN','partn'],
    ['with','IN','with'],
    {
      tag:'PERSON',
      content:
      [
        ['Ukraine','NNP','ukrain']
      ]
    },
    ['and','CC','and'],
    ['greater','JJR','gre'],
    ['co-operation','NN','co-operation'],
    ['with','IN','with'],
    ['the','DT','the'],
    {
      tag:'GPE',
      content:
      [
        ['Baltic','NNP','balt']
      ]
    },
    ['states','VBZ','stat'],
    [',',',',','],
    {
      tag:'PERSON',
      content:
      [
        ['Azerbaijan','NNP','azerbaid']
      ]
    },
    ['and','CC','and'],
    {
      tag:'GPE',
      content:
      [
        ['Georgia','NNP','georg']
      ]
    },
    ['.','.','.']
  ]
},
{
  tag:'S',
  content:
  [
    ['He','PRP','He'],
    ['was','VBD','be'],
    ['greatly','RB','gre'],
    ['admired','VBN','admir'],
    ['in','IN','in'],
    {
      tag:'GPE',
      content:
      [
        ['Israel','NNP','israel']
      ]
    },
    [',',',',','],
    ['because','IN','because'],
    ['he','PRP','he'],
    ['promoted','VBD','promot'],
    ['educating','VBG','educ'],
    {
      tag:'GPE',
      content:
      [
        ['Polish','JJ','pol']
      ]
    },
    ['youth','NN','you'],
    ['about','IN','about'],
    ['the','DT','the'],
    ['Holocaust','NNP','holocaust'],
    ['.','.','.']
  ]
},
{
  tag:'S',
  content:
  [
    ['There','EX','There'],
    ['was','VBD','be'],
    ['widespread','JJ','widespread'],
    ['grief','NN','grief'],
    ['in','IN','in'],
    {
      tag:'GPE',
      content:
      [
        ['Israel','NNP','israel']
      ]
    },
    ['over','IN','over'],
    ['his','PRP$','his'],
    ['death','NN','dea'],
    ['.','.','.']
  ]
},
{
  tag:'S',
  content:
  [
    ['Defense','NN','defens'],
    ['Minister','NN','min'],
    {
      tag:'PERSON',
      content:
      [
        ['Radosław','NN','radosław'],
        ['Sikorski','NNP','sikorsk']
      ]
    },
    ['compared','VBD','comp'],
    ['the','DT','the'],
    ['planned','VBN','plan'],
    {
      tag:'GPE',
      content:
      [
        ['Russia','NNP','russ']
      ]
    },
    ['to','TO','to'],
    {
      tag:'GPE',
      content:
      [
        ['Germany','NNP','germany']
      ]
    },
    ['gas','NN','gas'],
    ['pipeline','NN','pipelin'],
    ['to','TO','to'],
    ['the','DT','the'],
    ['Ribbentrop-Molotov','NN','ribbentrop-molotov'],
    {
      tag:'PERSON',
      content:
      [
        ['Pact','NNP','pact']
      ]
    },
    ['and','CC','and'],
    ['Foreign','NNP','foreign'],
    ['Minister','NNP','min'],
    {
      tag:'PERSON',
      content:
      [
        ['Anna','NNP','ann'],
        ['Fotyga','NNP','fotyg']
      ]
    },
    ['stated','VBD','stat'],
    ['that','IN','that'],
    ['the','DT','the'],
    ['pipeline','NN','pipelin'],
    ['was','VBD','be'],
    ['a','DT','a'],
    ['threat','NN','threat'],
    ['to','TO','to'],
    {
      tag:'GPE',
      content:
      [
        ['Poland','NNP','poland']
      ]
    },
    [''s','POS',''s'],
    ['energy','NN','energy'],
    ['security','NN','sec'],
    ['.','.','.']
  ]
},
{
  tag:'S',
  content:
  [
    ['In','IN','In'],
    ['November','NNP','novemb'],
    ['2006','CD','2006'],
    ['in','IN','in'],
    {
      tag:'GPE',
      content:
      [
        ['Helsinki','NNP','helsink']
      ]
    },
    [',',',',','],
    ['at','IN','at'],
    ['a','DT','a'],
    {
      tag:'GPE',
      content:
      [
        ['European','JJ','europ']
      ]
    },
    ['Union—Russia','NN','union—russia'],
    ['meeting','NN','meet'],
    [',',',',','],
    {
      tag:'GPE',
      content:
      [
        ['Poland','NNP','poland']
      ]
    },
    ['vetoed','VBD','veto'],
    ['the','DT','the'],
    ['launch','NN','launch'],
    ['of','IN','of'],
    {
      tag:'GPE',
      content:
      [
        ['EU-Russia','NNP','eu-russia']
      ]
    },
    ['partnership','NN','partn'],
    ['talks','VBZ','talk'],
    ['due','JJ','due'],
    ['to','TO','to'],
    ['a','DT','a'],
    {
      tag:'GPE',
      content:
      [
        ['Russian','JJ','russ']
      ]
    },
    ['ban','NN','ban'],
    ['on','IN','on'],
    {
      tag:'GPE',
      content:
      [
        ['Polish','JJ','pol']
      ]
    },
    ['meat','NN','meat'],
    ['and','CC','and'],
    ['plant','NN','plant'],
    ['products','NNS','produc'],
    ['imports','NNS','import'],
    ['.','.','.']
  ]
},
{
  tag:'S',
  content:
  [
    ['As','IN','As'],
    ['a','DT','a'],
    ['reaction','NN','react'],
    ['to','TO','to'],
    ['claims','NNS','claim'],
    ['by','IN','by'],
    ['a','DT','a'],
    {
      tag:'GPE',
      content:
      [
        ['German','NNP','germ']
      ]
    },
    ['exile','NN','exil'],
    ['group','NN','group'],
    ['Preussische','NNP','preussisch'],
    {
      tag:'GPE',
      content:
      [
        ['Treuhand','NNP','treuhand']
      ]
    },
    [',',',',','],
    ['which','WDT','which'],
    ['represents','VBZ','repres'],
    ['post-1945','-NONE-','post-1945'],
    {
      tag:'GPE',
      content:
      [
        ['German','JJ','germ']
      ]
    },
    ['expellees','NNS','expel'],
    ['from','IN','from'],
    {
      tag:'GPE',
      content:
      [
        ['Eastern','NNP','eastern'],
        ['Europe','NNP','europ']
      ]
    },
    [',',',',','],
    ['the','DT','the'],
    {
      tag:'ORGANIZATION',
      content:
      [
        ['Polish','JJ','pol']
      ]
    },
    ['Foreign','NNP','foreign'],
    ['Minister','NNP','min'],
    {
      tag:'PERSON',
      content:
      [
        ['Fotyga','NNP','fotyg']
      ]
    },
    ['mistakenly','RB','mistak'],
    ['threatened','VBN','threaten'],
    ['to','TO','to'],
    ['reopen','VB','reop'],
    ['a','DT','a'],
    ['1990','CD','1990'],
    ['Treaty','NNP','treaty'],
    ['fixing','NN','fix'],
    ['the','DT','the'],
    {
      tag:'ORGANIZATION',
      content:
      [
        ['Oder','NNP','od']
      ]
    },
    ['and','CC','and'],
    {
      tag:'GPE',
      content:
      [
        ['Neisse','NNP','neiss']
      ]
    },
    ['rivers','NNS','riv'],
    ['as','IN','as'],
    ['the','DT','the'],
    ['border','NN','bord'],
    ['between','IN','between'],
    ['the','DT','the'],
    ['two','CD','two'],
    ['countries','NNS','country'],
    ['instead','RB','instead'],
    ['of','IN','of'],
    ['the','DT','the'],
    {
      tag:'FACILITY',
      content:
      [
        ['Neighborhood','NNP','neighb'],
        ['Treaty','NNP','treaty']
      ]
    },
    ['signed','VBD','sign'],
    ['in','IN','in'],
    ['the','DT','the'],
    ['same','JJ','sam'],
    ['year','NN','year'],
    ['.','.','.']
  ]
},
{
  tag:'S',
  content:
  [
    ['Following','VBG','follow'],
    ['the','DT','the'],
    ['military','JJ','milit'],
    ['conflict','NN','conflict'],
    ['between','IN','between'],
    {
      tag:'GPE',
      content:
      [
        ['Russia','NNP','russ']
      ]
    },
    ['and','CC','and'],
    {
      tag:'GPE',
      content:
      [
        ['Georgia','NNP','georg']
      ]
    },
    ['in','IN','in'],
    ['2008','CD','2008'],
    [',',',',','],
    {
      tag:'PERSON',
      content:
      [
        ['Kaczyński','NNP','kaczyńsk']
      ]
    },
    ['provided','VBD','provid'],
    ['the','DT','the'],
    ['website','NN','websit'],
    ['of','IN','of'],
    ['the','DT','the'],
    ['President','NNP','presid'],
    ['of','IN','of'],
    {
      tag:'GPE',
      content:
      [
        ['Poland','NNP','poland']
      ]
    },
    ['for','IN','for'],
    ['dissemination','NN','dissemin'],
    ['of','IN','of'],
    ['information','NN','inform'],
    ['for','IN','for'],
    ['blocked','VBN','block'],
    ['by','IN','by'],
    ['the','DT','the'],
    {
      tag:'GPE',
      content:
      [
        ['Russian','NNP','russ']
      ]
    },
    ['Federation','NNP','fed'],
    {
      tag:'GPE',
      content:
      [
        ['Georgian','NNP','georg']
      ]
    },
    ['internet','NN','internet'],
    ['portals','NNS','port'],
    ['.','.','.']
  ]
},
{
  tag:'S',
  content:
  [
    ['During','IN','During'],
    ['a','DT','a'],
    ['state','NN','stat'],
    ['visit','NN','visit'],
    ['to','TO','to'],
    {
      tag:'GPE',
      content:
      [
        ['Serbia','NNP','serb']
      ]
    },
    ['in','IN','in'],
    ['2009','CD','2009'],
    [',',',',','],
    {
      tag:'PERSON',
      content:
      [
        ['Kaczyński','NNP','kaczyńsk']
      ]
    },
    ['said','VBD','say'],
    ['that','IN','that'],
    ['the','DT','the'],
    {
      tag:'GPE',
      content:
      [
        ['Polish','JJ','pol']
      ]
    },
    ['government','NN','govern'],
    [',',',',','],
    ['on','IN','on'],
    ['the','DT','the'],
    ['basis','NN','bas'],
    ['of','IN','of'],
    ['its','PRP$','its'],
    ['constitutional','JJ','constitut'],
    ['competences','NNS','compet'],
    [',',',',','],
    ['decided','VBD','decid'],
    ['to','TO','to'],
    ['recognize','VB','recogn'],
    {
      tag:'GPE',
      content:
      [
        ['Kosovo','NNP','kosovo']
      ]
    },
    ['and','CC','and'],
    ['emphasized','VBD','emphas'],
    ['that','IN','that'],
    ['he','PRP','he'],
    [',',',',','],
    ['as','IN','as'],
    ['the','DT','the'],
    ['President','NNP','presid'],
    ['of','IN','of'],
    ['the','DT','the'],
    ['state','NN','stat'],
    [',',',',','],
    ['did','VBD','do'],
    ['not','RB','not'],
    ['agree','VB','agr'],
    ['with','IN','with'],
    ['that','DT','that'],
    ['.','.','.']
  ]
},
{
  tag:'S',
  content:
  [
    ['==Marriage','NN','==marriage'],
    ['and','CC','and'],
    ['family==','NNP','family=='],
    ['Kaczyński','NNP','kaczyńsk'],
    ['married','VBD','marry'],
    ['economist','NN','econom'],
    {
      tag:'PERSON',
      content:
      [
        ['Maria','NNP','mar']
      ]
    },
    ['Kaczyńska','NNP','kaczyńsk'],
    ['in','IN','in'],
    ['1978','CD','1978'],
    ['.','.','.']
  ]
},
{
  tag:'S',
  content:
  [
    ['They','PRP','They'],
    ['had','VBD','hav'],
    ['one','CD','one'],
    ['daughter','NN','daught'],
    [',',',',','],
    {
      tag:'PERSON',
      content:
      [
        ['Marta','NNP','mart'],
        ['Kaczyńska-Dubieniecka','NNP','kaczyńska-dubienieck']
      ]
    },
    [',',',',','],
    ['and','CC','and'],
    ['two','CD','two'],
    ['granddaughters','NNS','granddaught'],
    ['named','VBD','nam'],
    {
      tag:'PERSON',
      content:
      [
        ['Ewa','NNP','ew']
      ]
    },
    ['and','CC','and'],
    {
      tag:'PERSON',
      content:
      [
        ['Martyna','NNP','martyn']
      ]
    },
    ['.','.','.']
  ]
},
{
  tag:'S',
  content:
  [
    ['His','PRP$','His'],
    ['brother','NN','broth'],
    ['is','VBZ','be'],
    ['Jarosław','JJ','jarosław'],
    ['Kaczyński','NN','kaczyńsk'],
    [',',',',','],
    ['the','DT','the'],
    ['former','JJ','form'],
    ['Prime','NNP','prim'],
    ['Minister','NNP','min'],
    ['of','IN','of'],
    {
      tag:'GPE',
      content:
      [
        ['Poland','NNP','poland']
      ]
    },
    ['.','.','.']
  ]
},
{
  tag:'S',
  content:
  [
    ['==Death==','NN','==death=='],
    ['On','IN','On'],
    ['10','CD','10'],
    ['April','NNP','april'],
    ['2010','CD','2010'],
    [',',',',','],
    ['a','DT','a'],
    {
      tag:'ORGANIZATION',
      content:
      [
        ['Tupolev','NNP','tupolev']
      ]
    },
    ['Tu-154M','NNP','tu-154m'],
    ['plane','NN','plan'],
    ['was','VBD','be'],
    ['carrying','VBG','carry'],
    {
      tag:'PERSON',
      content:
      [
        ['Lech','NNP','lech'],
        ['Kaczyński','NNP','kaczyńsk']
      ]
    },
    [',',',',','],
    ['his','PRP$','his'],
    ['wife','NN','wif'],
    {
      tag:'PERSON',
      content:
      [
        ['Maria','NNP','mar'],
        ['Kaczyńska','NNP','kaczyńsk']
      ]
    },
    [',',',',','],
    ['and','CC','and'],
    ['other','JJ','oth'],
    ['members','NNS','memb'],
    ['of','IN','of'],
    ['a','DT','a'],
    {
      tag:'GPE',
      content:
      [
        ['Polish','JJ','pol']
      ]
    },
    ['delegation','NN','deleg'],
    ['(',':','('],
    ['top','JJ','top'],
    ['public','JJ','publ'],
    ['and','CC','and'],
    ['military','JJ','milit'],
    ['figures','NNS','fig'],
    ['of','IN','of'],
    {
      tag:'GPE',
      content:
      [
        ['Polish','JJ','pol']
      ]
    },
    ['state','NN','stat'],
    [')',':',')'],
    ['from','IN','from'],
    {
      tag:'GPE',
      content:
      [
        ['Warsaw','NNP','warsaw']
      ]
    },
    ['to','TO','to'],
    ['commemorate','VB','commem'],
    ['the','DT','the'],
    {
      tag:'GPE',
      content:
      [
        ['Katyn','NNP','katyn']
      ]
    },
    ['massacre','NN','massacr'],
    ['.','.','.']
  ]
},
{
  tag:'S',
  content:
  [
    ['The','DT','The'],
    ['plane','NN','plan'],
    ['crashed','VBD','crash'],
    ['while','IN','while'],
    ['approaching','NN','approach'],
    {
      tag:'PERSON',
      content:
      [
        ['Smolensk','NNP','smolensk'],
        ['Air','NNP','air'],
        ['Base','NNP','bas']
      ]
    },
    ['in','IN','in'],
    {
      tag:'GPE',
      content:
      [
        ['Russia','NNP','russ']
      ]
    },
    ['.','.','.']
  ]
},
{
  tag:'S',
  content:
  [
    ['The','DT','The'],
    ['governor','NN','govern'],
    ['of','IN','of'],
    {
      tag:'GPE',
      content:
      [
        ['Smolensk','NNP','smolensk']
      ]
    },
    ['Oblast','NNP','oblast'],
    ['confirmed','VBD','confirm'],
    ['to','TO','to'],
    {
      tag:'GPE',
      content:
      [
        ['Russia','NNP','russ']
      ]
    },
    ['24','CD','24'],
    ['news','NN','new'],
    ['channel','NN','channel'],
    ['that','WDT','that'],
    ['there','EX','there'],
    ['were','VBD','be'],
    ['no','DT','no'],
    ['survivors','NNS','surv'],
    ['of','IN','of'],
    ['the','DT','the'],
    ['crash','NN','crash'],
    ['.','.','.']
  ]
},
{
  tag:'S',
  content:
  [
    ['96','CD','96'],
    ['people','NNS','peopl'],
    ['were','VBD','be'],
    ['killed','VBN','kil'],
    ['in','IN','in'],
    ['the','DT','the'],
    ['crash','NN','crash'],
    [',',',',','],
    ['including','VBG','includ'],
    ['many','JJ','many'],
    ['of','IN','of'],
    {
      tag:'GPE',
      content:
      [
        ['Poland','NNP','poland']
      ]
    },
    [''s','POS',''s'],
    ['highest','JJS','high'],
    ['military','JJ','milit'],
    ['and','CC','and'],
    ['civilian','JJ','civil'],
    ['leaders','NNS','lead'],
    ['.','.','.']
  ]
},
{
  tag:'S',
  content:
  [
    {
      tag:'GPE',
      content:
      [
        ['Russian','JJ','russ']
      ]
    },
    ['President','NNP','presid'],
    {
      tag:'PERSON',
      content:
      [
        ['Dmitry','NNP','dmitry'],
        ['Medvedev','NNP','medvedev']
      ]
    },
    ['ordered','VBD','ord'],
    ['a','DT','a'],
    ['government','NN','govern'],
    ['commission','NN','commit'],
    ['to','TO','to'],
    ['investigate','VB','investig'],
    ['the','DT','the'],
    ['crash','NN','crash'],
    ['.','.','.']
  ]
},
{
  tag:'S',
  content:
  [
    {
      tag:'GPE',
      content:
      [
        ['Russia','NNP','russ']
      ]
    },
    [''s','POS',''s'],
    ['Prime','NNP','prim'],
    ['Minister','NNP','min'],
    [',',',',','],
    {
      tag:'PERSON',
      content:
      [
        ['Vladimir','NNP','vladimir'],
        ['Putin','NNP','putin']
      ]
    },
    [',',',',','],
    ['was','VBD','be'],
    ['placed','VBN','plac'],
    ['in','IN','in'],
    ['charge','NN','charg'],
    ['of','IN','of'],
    ['the','DT','the'],
    ['investigation','NN','investig'],
    ['.','.','.']
  ]
},
{
  tag:'S',
  content:
  [
    ['===State','JJ','===state'],
    ['funeral===','NN','funeral==='],
    ['On','IN','On'],
    ['11','CD','11'],
    ['April','NNP','april'],
    ['2010','CD','2010'],
    [',',',',','],
    ['President','NNP','presid'],
    {
      tag:'PERSON',
      content:
      [
        ['Kaczynski','NNP','kaczynsk']
      ]
    },
    [''s','POS',''s'],
    ['body','NN','body'],
    ['was','VBD','be'],
    ['returned','VBN','return'],
    ['to','TO','to'],
    {
      tag:'GPE',
      content:
      [
        ['Poland','NNP','poland']
      ]
    },
    [',',',',','],
    ['where','WRB','where'],
    ['he','PRP','he'],
    ['and','CC','and'],
    ['his','PRP$','his'],
    ['wife','NN','wif'],
    ['lay','NN','lay'],
    ['in','IN','in'],
    ['state','NN','stat'],
    ['at','IN','at'],
    ['the','DT','the'],
    ['Presidential','NNP','presid'],
    ['Palace','NNP','palac'],
    ['in','IN','in'],
    {
      tag:'GPE',
      content:
      [
        ['Warsaw','NNP','warsaw']
      ]
    },
    ['.','.','.']
  ]
},
{
  tag:'S',
  content:
  [
    ['The','DT','The'],
    ['state','NN','stat'],
    ['funeral','JJ','fun'],
    ['was','VBD','be'],
    ['held','VBN','hold'],
    ['in','IN','in'],
    ['Kraków','JJ','kraków'],
    ['on','IN','on'],
    ['18','CD','18'],
    ['April','NNP','april'],
    ['2010','CD','2010'],
    ['.','.','.']
  ]
},
{
  tag:'S',
  content:
  [
    ['After','IN','After'],
    ['a','DT','a'],
    {
      tag:'ORGANIZATION',
      content:
      [
        ['Roman','JJ','rom'],
        ['Catholic','NNP','cathol']
      ]
    },
    ['mass','NN','mass'],
    ['at','IN','at'],
    {
      tag:'ORGANIZATION',
      content:
      [
        ['St.','NNP','st.'],
        ['Mary','NNP','mary']
      ]
    },
    [''s','POS',''s'],
    {
      tag:'ORGANIZATION',
      content:
      [
        ['Basilica','NNP','basilic']
      ]
    },
    [',',',',','],
    ['the','DT','the'],
    ['presidential','JJ','presid'],
    ['couple','NN','coupl'],
    ['were','VBD','be'],
    ['laid','VBN','lay'],
    ['to','TO','to'],
    ['rest','NN','rest'],
    ['in','IN','in'],
    ['a','DT','a'],
    ['sarcophagus','NN','sarcophag'],
    [',',',',','],
    ['which','WDT','which'],
    ['was','VBD','be'],
    ['placed','VBN','plac'],
    ['in','IN','in'],
    ['the','DT','the'],
    ['antechamber','NN','antechamb'],
    ['of','IN','of'],
    ['the','DT','the'],
    {
      tag:'ORGANIZATION',
      content:
      [
        ['Crypt','NNP','crypt']
      ]
    },
    ['Under','NNP','und'],
    ['the','DT','the'],
    ['Tower','NNP','tow'],
    ['of','IN','of'],
    {
      tag:'PERSON',
      content:
      [
        ['Silver','NNP','silv'],
        ['Bells','NNP','bel']
      ]
    },
    ['beneath','NN','benea'],
    ['the','DT','the'],
    {
      tag:'ORGANIZATION',
      content:
      [
        ['Wawel','NNP','wawel'],
        ['Cathedral','NNP','cathedr']
      ]
    },
    [',',',',','],
    ['A','DT','A'],
    ['significant','JJ','sign'],
    ['number','NN','numb'],
    ['of','IN','of'],
    ['foreign','JJ','foreign'],
    ['dignitaries','NNS','dignit'],
    ['were','VBD','be'],
    ['unable','JJ','un'],
    ['to','TO','to'],
    ['attend','VB','attend'],
    ['the','DT','the'],
    ['funeral','JJ','fun'],
    ['as','IN','as'],
    ['a','DT','a'],
    ['result','NN','result'],
    ['of','IN','of'],
    ['air','NN','air'],
    ['travel','NN','travel'],
    ['disruption','NN','disrupt'],
    ['in','IN','in'],
    {
      tag:'GPE',
      content:
      [
        ['Europe','NNP','europ']
      ]
    },
    ['following','VBG','follow'],
    ['the','DT','the'],
    ['eruption','NN','erupt'],
    ['of','IN','of'],
    ['the','DT','the'],
    ['volcano','NN','volcano'],
    ['Eyjafjallajökull','JJ','eyjafjallajökul'],
    ['in','IN','in'],
    {
      tag:'GPE',
      content:
      [
        ['Iceland','NNP','iceland']
      ]
    },
    ['.','.','.']
  ]
},
{
  tag:'S',
  content:
  [
    ['==Honours','NNS','==honours'],
    ['and','CC','and'],
    ['awards==','JJ','awards=='],
    ['*','-NONE-','*'],
    [':',':',':'],
    ['Order','NNP','ord'],
    ['of','IN','of'],
    ['the','DT','the'],
    {
      tag:'FACILITY',
      content:
      [
        ['White','NNP','whit'],
        ['Eagle','NNP','eagl']
      ]
    },
    [',',',',','],
    {
      tag:'PERSON',
      content:
      [
        ['Grand','NNP','grand'],
        ['Master','NNP','mast']
      ]
    },
    ['*','-NONE-','*'],
    [':',':',':'],
    {
      tag:'PERSON',
      content:
      [
        ['Grand','NNP','grand'],
        ['Cross','NNP','cross']
      ]
    },
    ['of','IN','of'],
    ['the','DT','the'],
    ['Order','NNP','ord'],
    ['of','IN','of'],
    {
      tag:'GPE',
      content:
      [
        ['Polonia','NNP','polon'],
        ['Restituta','NNP','restitut']
      ]
    },
    [',',',',','],
    {
      tag:'PERSON',
      content:
      [
        ['Grand','NNP','grand'],
        ['Master','NNP','mast']
      ]
    },
    ['*','-NONE-','*'],
    [':',':',':'],
    ['Collar','JJ','coll'],
    ['of','IN','of'],
    ['Order','NNP','ord'],
    ['of','IN','of'],
    {
      tag:'ORGANIZATION',
      content:
      [
        ['Merit','NNP','merit']
      ]
    },
    ['of','IN','of'],
    {
      tag:'GPE',
      content:
      [
        ['Malta','NNP','malt']
      ]
    },
    ['(','NNP','('],
    ['14','CD','14'],
    ['May','NNP','may'],
    ['2007','CD','2007'],
    [')','CD',')'],
    ['*','-NONE-','*'],
    [':',':',':'],
    ['Collar','JJ','coll'],
    ['of','IN','of'],
    ['King','NNP','king'],
    {
      tag:'PERSON',
      content:
      [
        ['Abdul','NNP','abd'],
        ['Aziz','NNP','az']
      ]
    },
    ['(','NNP','('],
    ['25','CD','25'],
    ['June','NNP','jun'],
    ['2007','CD','2007'],
    [')','CD',')'],
    ['*','-NONE-','*'],
    [':',':',':'],
    {
      tag:'PERSON',
      content:
      [
        ['Knight','JJ','knight'],
        ['Grand','NNP','grand'],
        ['Cross','NNP','cross']
      ]
    },
    ['of','IN','of'],
    ['the','DT','the'],
    {
      tag:'FACILITY',
      content:
      [
        ['Grand','NNP','grand'],
        ['Order','NNP','ord']
      ]
    },
    ['of','IN','of'],
    ['King','NNP','king'],
    {
      tag:'PERSON',
      content:
      [
        ['Tomislav','NNP','tomislav']
      ]
    },
    ['(','NNP','('],
    ['10','CD','10'],
    ['January','NNP','janu'],
    ['2008','CD','2008'],
    [')','CD',')'],
    ['*','-NONE-','*'],
    [':',':',':'],
    ['Order','NNP','ord'],
    ['of','IN','of'],
    {
      tag:'GPE',
      content:
      [
        ['St.','NNP','st.']
      ]
    },
    {
      tag:'PERSON',
      content:
      [
        ['George','NNP','georg']
      ]
    },
    ['(','NNP','('],
    ['23','CD','23'],
    ['November','NNP','novemb'],
    ['2007','CD','2007'],
    [')','CD',')'],
    ['*','-NONE-','*'],
    [':',':',':'],
    ['The','DT','The'],
    {
      tag:'ORGANIZATION',
      content:
      [
        ['First','NNP','first'],
        ['Class','NNP','class']
      ]
    },
    ['of','IN','of'],
    ['the','DT','the'],
    ['Order','NNP','ord'],
    ['of','IN','of'],
    {
      tag:'GPE',
      content:
      [
        ['Prince','NNP','print']
      ]
    },
    ['Yaroslav','NNP','yaroslav'],
    ['the','DT','the'],
    {
      tag:'ORGANIZATION',
      content:
      [
        ['Wise','NNP','wis']
      ]
    },
    ['(','NNP','('],
    ['6','CD','6'],
    ['December','NNP','decemb'],
    ['2007','CD','2007'],
    [')','CD',')'],
    ['*','-NONE-','*'],
    [':',':',':'],
    ['Collar','JJ','coll'],
    ['of','IN','of'],
    ['the','DT','the'],
    ['Order','NNP','ord'],
    ['of','IN','of'],
    {
      tag:'GPE',
      content:
      [
        ['Prince','NNP','print']
      ]
    },
    {
      tag:'PERSON',
      content:
      [
        ['Henry','NNP','henry']
      ]
    },
    ['(','NNP','('],
    ['2','CD','2'],
    ['September','NNP','septemb'],
    ['2008','CD','2008'],
    [')','CD',')'],
    ['*','-NONE-','*'],
    [':',':',':'],
    {
      tag:'ORGANIZATION',
      content:
      [
        ['National','NNP','nat'],
        ['Order','NNP','ord']
      ]
    },
    ['of','IN','of'],
    {
      tag:'ORGANIZATION',
      content:
      [
        ['Merit','NNP','merit']
      ]
    },
    ['of','IN','of'],
    ['the','DT','the'],
    {
      tag:'ORGANIZATION',
      content:
      [
        ['Republic','NNP','republ']
      ]
    },
    ['of','IN','of'],
    {
      tag:'GPE',
      content:
      [
        ['Malta','NNP','malt']
      ]
    },
    [',',',',','],
    {
      tag:'PERSON',
      content:
      [
        ['First','NNP','first'],
        ['Class','NNP','class']
      ]
    },
    ['(','NNP','('],
    ['26','CD','26'],
    ['January','NNP','janu'],
    ['2009','CD','2009'],
    [')','CD',')'],
    ['*','-NONE-','*'],
    [':',':',':'],
    {
      tag:'PERSON',
      content:
      [
        ['Grand','NNP','grand'],
        ['Cross','NNP','cross']
      ]
    },
    ['(','NNP','('],
    ['or','CC','or'],
    ['1st','CD','1st'],
    ['Class','NNP','class'],
    [')','NNP',')'],
    ['of','IN','of'],
    ['the','DT','the'],
    ['Order','NNP','ord'],
    ['of','IN','of'],
    ['the','DT','the'],
    {
      tag:'FACILITY',
      content:
      [
        ['White','NNP','whit'],
        ['Double','NNP','doubl'],
        ['Cross','NNP','cross']
      ]
    },
    ['(','NNP','('],
    ['21','CD','21'],
    ['February','NNP','febru'],
    ['2009','CD','2009'],
    [')','CD',')'],
    ['*','-NONE-','*'],
    [':',':',':'],
    ['Order','NNP','ord'],
    ['of','IN','of'],
    ['the','DT','the'],
    {
      tag:'FACILITY',
      content:
      [
        ['White','NNP','whit'],
        ['Lion','NNP','lion']
      ]
    },
    [',',',',','],
    {
      tag:'PERSON',
      content:
      [
        ['First','NNP','first'],
        ['Class','NNP','class']
      ]
    },
    ['(','NNP','('],
    ['21','CD','21'],
    ['January','NNP','janu'],
    ['2010','CD','2010'],
    [')','CD',')'],
    ['*','-NONE-','*'],
    [':',':',':'],
    {
      tag:'PERSON',
      content:
      [
        ['Grand','NNP','grand'],
        ['Cross','NNP','cross']
      ]
    },
    ['of','IN','of'],
    ['the','DT','the'],
    ['Order','NNP','ord'],
    ['of','IN','of'],
    {
      tag:'ORGANIZATION',
      content:
      [
        ['Merit','NNP','merit']
      ]
    },
    ['of','IN','of'],
    ['the','DT','the'],
    {
      tag:'ORGANIZATION',
      content:
      [
        ['Republic','NNP','republ']
      ]
    },
    ['of','IN','of'],
    {
      tag:'GPE',
      content:
      [
        ['Hungary','NNP','hung']
      ]
    },
    ['(','NNP','('],
    ['18','CD','18'],
    ['March','NNP','march'],
    ['2009','CD','2009'],
    [')','CD',')'],
    ['*','-NONE-','*'],
    [':',':',':'],
    {
      tag:'PERSON',
      content:
      [
        ['Grand','NNP','grand'],
        ['Cross','NNP','cross']
      ]
    },
    ['with','IN','with'],
    {
      tag:'PERSON',
      content:
      [
        ['Golden','NNP','gold'],
        ['Chain','NNP','chain']
      ]
    },
    ['of','IN','of'],
    ['the','DT','the'],
    ['Order','NNP','ord'],
    ['of','IN','of'],
    ['Vytautas','NNP','vytauta'],
    ['the','DT','the'],
    {
      tag:'GPE',
      content:
      [
        ['Great','NNP','gre']
      ]
    },
    ['(','NNP','('],
    ['16','CD','16'],
    ['April','NNP','april'],
    ['2009','CD','2009'],
    [')','CD',')'],
    ['*','-NONE-','*'],
    [':',':',':'],
    {
      tag:'PERSON',
      content:
      [
        ['Heydar','NNP','heyd'],
        ['Aliyev','NNP','aliyev'],
        ['Order','NNP','ord']
      ]
    },
    ['(','NNP','('],
    ['Azerbaijan','NNP','azerbaid'],
    ['–','NNP','–'],
    ['2','CD','2'],
    ['July','NNP','july'],
    ['2009','CD','2009'],
    [')','CD',')'],
    ['*','-NONE-','*'],
    [':',':',':'],
    ['Order','NNP','ord'],
    ['of','IN','of'],
    {
      tag:'ORGANIZATION',
      content:
      [
        ['National','NNP','nat'],
        ['Hero','NNP','hero']
      ]
    },
    ['of','IN','of'],
    {
      tag:'GPE',
      content:
      [
        ['Georgia','NNP','georg']
      ]
    },
    ['(','NNP','('],
    ['10','CD','10'],
    ['April','NNP','april'],
    ['2010','CD','2010'],
    [')','CD',')'],
    ['*Honorary','JJ','*honorary'],
    ['doctorates','NNS','doct'],
    ['from','IN','from'],
    ['the','DT','the'],
    {
      tag:'ORGANIZATION',
      content:
      [
        ['Tbilisi','NNP','tbilis']
      ]
    },
    ['State','NNP','stat'],
    ['University','NNP','univers'],
    ['in','IN','in'],
    {
      tag:'GPE',
      content:
      [
        ['Georgia','NNP','georg']
      ]
    },
    ['(','NNP','('],
    ['16','CD','16'],
    ['April','NNP','april'],
    ['2007','CD','2007'],
    [')','CD',')'],
    [',',',',','],
    {
      tag:'PERSON',
      content:
      [
        ['Hankuk','NNP','hankuk'],
        ['University','NNP','univers']
      ]
    },
    ['of','IN','of'],
    {
      tag:'ORGANIZATION',
      content:
      [
        ['Foreign','NNP','foreign'],
        ['Language','NNP','langu']
      ]
    },
    ['in','IN','in'],
    {
      tag:'GPE',
      content:
      [
        ['Seoul','NNP','seo']
      ]
    },
    ['(','NNP','('],
    ['6','CD','6'],
    ['December','NNP','decemb'],
    ['2008','CD','2008'],
    [')','CD',')'],
    [',',',',','],
    {
      tag:'ORGANIZATION',
      content:
      [
        ['Catholic','NNP','cathol'],
        ['University','NNP','univers']
      ]
    },
    ['of','IN','of'],
    {
      tag:'GPE',
      content:
      [
        ['Lublin','NNP','lublin']
      ]
    },
    ['(','NNP','('],
    ['1','CD','1'],
    ['July','NNP','july'],
    ['2009','CD','2009'],
    [')','CD',')'],
    ['*Honorary','JJ','*honorary'],
    ['citizen','NN','cit'],
    ['of','IN','of'],
    {
      tag:'GPE',
      content:
      [
        ['Warsaw','NNP','warsaw']
      ]
    },
    ['(','NNP','('],
    ['15','CD','15'],
    ['April','NNP','april'],
    ['2010','CD','2010'],
    [')','CD',')'],
    ['==References==','JJ','==references=='],
    ['==External','JJ','==external'],
    ['links==','NN','links=='],
    ['*/',':','*/'],
    ['official','NN','off'],
    ['website','NN','websit'],
    ['of','IN','of'],
    ['the','DT','the'],
    ['President','NNP','presid'],
    ['of','IN','of'],
    ['the','DT','the'],
    {
      tag:'ORGANIZATION',
      content:
      [
        ['Republic','NNP','republ']
      ]
    },
    ['of','IN','of'],
    {
      tag:'GPE',
      content:
      [
        ['Poland','NNP','poland']
      ]
    },
    ['*Full','NNP','*full'],
    ['text','NN','text'],
    ['of','IN','of'],
    ['the','DT','the'],
    ['speech','NN','speech'],
    ['that','IN','that'],
    ['President','NNP','presid'],
    {
      tag:'PERSON',
      content:
      [
        ['Lech','NNP','lech']
      ]
    },
    ['Kaczyński','NNP','kaczyńsk'],
    ['would','MD','would'],
    ['have','VB','hav'],
    ['delivered','VBN','del'],
    ['at','IN','at'],
    {
      tag:'ORGANIZATION',
      content:
      [
        ['Katyn','NNP','katyn']
      ]
    },
    ['*','-NONE-','*'],
    ['''','''',''''],
    ['The','DT','The'],
    ['Death','NNP','dea'],
    ['of','IN','of'],
    ['a','DT','a'],
    ['President','NNP','presid'],
    [':',':',':'],
    {
      tag:'PERSON',
      content:
      [
        ['Countdown','NNP','countdown'],
        ['To','NNP','to']
      ]
    },
    ['the','DT','the'],
    {
      tag:'ORGANIZATION',
      content:
      [
        ['Crash','NNP','crash']
      ]
    },
    ['of','IN','of'],
    {
      tag:'PERSON',
      content:
      [
        ['Flight','NNP','flight']
      ]
    },
    ['PLF','NNP','plf'],
    ['101','CD','101'],
    ['''','''',''''],
    ['by','IN','by'],
    {
      tag:'PERSON',
      content:
      [
        ['Leszek','NNP','leszek'],
        ['Misiak','NNP','misiak']
      ]
    },
    [',',',',','],
    {
      tag:'PERSON',
      content:
      [
        ['Grzegorz','NNP','grzegorz']
      ]
    },
    ['Wierzchołowski','NNP','wierzchołowsk'],
    ['*','-NONE-','*'],
    ['|-',':','|-'],
    ['|-',':','|-'],
    ['|-',':','|-']
  ]
}]