[
{
  tag:'S',
  content:
  [
    {
      tag:'PERSON',
      content:
      [
        ['Sir','NNP','sir']
      ]
    },
    {
      tag:'PERSON',
      content:
      [
        ['Robert','NNP','robert'],
        ['Rochester','NNP','rochest']
      ]
    },
    ['K.G','NNP','k.g'],
    ['.','.','.']
  ]
},
{
  tag:'S',
  content:
  [
    ['(','NN','('],
    ['ca','MD','ca'],
    ['.','.','.']
  ]
},
{
  tag:'S',
  content:
  [
    ['1494','CD','1494'],
    ['–','``','–'],
    ['28','CD','28'],
    ['November','NNP','novemb'],
    ['1557','CD','1557'],
    [')','CD',')'],
    ['was','VBD','be'],
    ['an','DT','an'],
    {
      tag:'ORGANIZATION',
      content:
      [
        ['English','JJ','engl'],
        ['Catholic','NNP','cathol']
      ]
    },
    ['and','CC','and'],
    {
      tag:'ORGANIZATION',
      content:
      [
        ['Comptroller','NNP','comptrol']
      ]
    },
    ['of','IN','of'],
    ['the','DT','the'],
    {
      tag:'ORGANIZATION',
      content:
      [
        ['Household','NNP','household']
      ]
    },
    ['and','CC','and'],
    ['a','DT','a'],
    ['member','NN','memb'],
    ['of','IN','of'],
    ['the','DT','the'],
    {
      tag:'ORGANIZATION',
      content:
      [
        ['Privy','NNP','privy'],
        ['Council','NNP','council']
      ]
    },
    ['in','IN','in'],
    ['the','DT','the'],
    ['reign','NN','reign'],
    ['of','IN','of'],
    {
      tag:'PERSON',
      content:
      [
        ['Mary','NNP','mary']
      ]
    },
    ['I','NNP','i'],
    ['.','.','.']
  ]
},
{
  tag:'S',
  content:
  [
    ['==Family==','NN','==family=='],
    {
      tag:'PERSON',
      content:
      [
        ['Rochester','NNP','rochest']
      ]
    },
    [''s','POS',''s'],
    ['family','NN','famy'],
    ['were','VBD','be'],
    [''minor','JJ',''minor'],
    ['Essex','NNP','essex'],
    ['gentry','NN','gentry'],
    [''','POS','''],
    ['associated','VBN','assocy'],
    ['with','IN','with'],
    ['the','DT','the'],
    ['Earls','NNS','earl'],
    ['of','IN','of'],
    {
      tag:'GPE',
      content:
      [
        ['Oxford','NNP','oxford']
      ]
    },
    ['.','.','.']
  ]
},
{
  tag:'S',
  content:
  [
    ['According','VBG','accord'],
    ['to','TO','to'],
    {
      tag:'PERSON',
      content:
      [
        ['Ross','NNP','ross']
      ]
    },
    [',',',',','],
    {
      tag:'PERSON',
      content:
      [
        ['Robert','NNP','robert'],
        ['Rochester','NNP','rochest']
      ]
    },
    [',',',',','],
    ['esquire','NN','esquir'],
    [',',',',','],
    ['was','VBD','be'],
    {
      tag:'ORGANIZATION',
      content:
      [
        ['Comptroller','NNP','comptrol']
      ]
    },
    ['of','IN','of'],
    ['the','DT','the'],
    {
      tag:'ORGANIZATION',
      content:
      [
        ['Household','NNP','household']
      ]
    },
    ['to','TO','to'],
    {
      tag:'PERSON',
      content:
      [
        ['John','NNP','john']
      ]
    },
    ['de','IN','de'],
    {
      tag:'GPE',
      content:
      [
        ['Vere','NNP','ver']
      ]
    },
    [',',',',','],
    ['13th','JJ','13th'],
    ['Earl','NNP','earl'],
    ['of','IN','of'],
    {
      tag:'GPE',
      content:
      [
        ['Oxford','NNP','oxford']
      ]
    },
    [',',',',','],
    ['at','IN','at'],
    ['a','DT','a'],
    ['fee','NN','fee'],
    ['of','IN','of'],
    ['£10','-NONE-','£10'],
    ['per','IN','per'],
    ['year','NN','year'],
    [',',',',','],
    ['from','IN','from'],
    ['about','IN','about'],
    ['1495','CD','1495'],
    ['until','IN','until'],
    ['his','PRP$','his'],
    ['death','NN','dea'],
    ['in','IN','in'],
    ['1508','CD','1508'],
    ['.','.','.']
  ]
},
{
  tag:'S',
  content:
  [
    {
      tag:'PERSON',
      content:
      [
        ['Robert','NNP','robert']
      ]
    },
    {
      tag:'PERSON',
      content:
      [
        ['Rochester','NNP','rochest']
      ]
    },
    ['was','VBD','be'],
    ['born','VBN','bear'],
    ['at','IN','at'],
    {
      tag:'ORGANIZATION',
      content:
      [
        ['Terling','NNP','terl']
      ]
    },
    [',',',',','],
    {
      tag:'GPE',
      content:
      [
        ['Essex','NNP','essex']
      ]
    },
    [',',',',','],
    ['the','DT','the'],
    ['third','JJ','third'],
    ['son','NN','son'],
    ['of','IN','of'],
    {
      tag:'PERSON',
      content:
      [
        ['John','NNP','john'],
        ['Rochester','NNP','rochest']
      ]
    },
    ['and','CC','and'],
    {
      tag:'PERSON',
      content:
      [
        ['Grisold','NNP','grisold'],
        ['Writtle','NNP','writtl']
      ]
    },
    [',',',',','],
    ['daughter','NN','daught'],
    ['of','IN','of'],
    {
      tag:'PERSON',
      content:
      [
        ['Walter','NNP','walt'],
        ['Writtle','NNP','writtl']
      ]
    },
    ['of','IN','of'],
    {
      tag:'GPE',
      content:
      [
        ['Bobbingworth','NNP','bobbingwor']
      ]
    },
    ['.','.','.']
  ]
},
{
  tag:'S',
  content:
  [
    {
      tag:'PERSON',
      content:
      [
        ['Grisold','NNP','grisold']
      ]
    },
    {
      tag:'ORGANIZATION',
      content:
      [
        ['Writtle','NNP','writtl']
      ]
    },
    [''s','POS',''s'],
    ['sister','NN','sist'],
    [',',',',','],
    {
      tag:'PERSON',
      content:
      [
        ['Eleanor','NNP','el']
      ]
    },
    [',',',',','],
    ['married','VBD','marry'],
    {
      tag:'PERSON',
      content:
      [
        ['James','NNP','jam'],
        ['Walsingham','NNP','walsingham']
      ]
    },
    [',',',',','],
    ['and','CC','and'],
    ['was','VBD','be'],
    ['the','DT','the'],
    ['mother','NN','moth'],
    ['of','IN','of'],
    {
      tag:'PERSON',
      content:
      [
        ['Edmund','NNP','edmund'],
        ['Walsingham','NNP','walsingham']
      ]
    },
    [',',',',','],
    {
      tag:'ORGANIZATION',
      content:
      [
        ['Lieutenant','NNP','lieut']
      ]
    },
    ['of','IN','of'],
    ['the','DT','the'],
    ['Tower','NNP','tow'],
    ['of','IN','of'],
    {
      tag:'GPE',
      content:
      [
        ['London','NNP','london']
      ]
    },
    ['.','.','.']
  ]
},
{
  tag:'S',
  content:
  [
    {
      tag:'PERSON',
      content:
      [
        ['Rochester','NNP','rochest']
      ]
    },
    [''s','POS',''s'],
    ['younger','JJR','young'],
    ['brother','NN','broth'],
    [',',',',','],
    {
      tag:'PERSON',
      content:
      [
        ['Blessed','NNP','bless'],
        ['John','NNP','john'],
        ['Rochester','NNP','rochest']
      ]
    },
    [',',',',','],
    ['was','VBD','be'],
    ['a','DT','a'],
    {
      tag:'GPE',
      content:
      [
        ['Carthusian','JJ','carthus']
      ]
    },
    ['priest','NN','priest'],
    ['and','CC','and'],
    ['martyr','NN','martyr'],
    ['who','WP','who'],
    ['was','VBD','be'],
    ['executed','VBN','execut'],
    ['in','IN','in'],
    {
      tag:'GPE',
      content:
      [
        ['York','NNP','york']
      ]
    },
    ['in','IN','in'],
    ['May','NNP','may'],
    ['1537','CD','1537'],
    [',',',',','],
    ['and','CC','and'],
    ['beatified','VBD','beat'],
    ['in','IN','in'],
    ['1888','CD','1888'],
    ['.','.','.']
  ]
},
{
  tag:'S',
  content:
  [
    ['==Career==','NN','==career=='],
    ['According','VBG','accord'],
    ['to','TO','to'],
    {
      tag:'GPE',
      content:
      [
        ['Hughes','NNP','hugh']
      ]
    },
    [',',',',','],
    ['by','IN','by'],
    ['1542','CD','1542'],
    ['Rochester','NNP','rochest'],
    ['had','VBD','hav'],
    ['been','VBN','be'],
    ['appointed','VBN','appoint'],
    ['receiver','RP','receiver'],
    ['to','TO','to'],
    {
      tag:'PERSON',
      content:
      [
        ['John','NNP','john']
      ]
    },
    ['de','IN','de'],
    {
      tag:'GPE',
      content:
      [
        ['Vere','NNP','ver']
      ]
    },
    [',',',',','],
    ['16th','JJ','16th'],
    ['Earl','NNP','earl'],
    ['of','IN','of'],
    {
      tag:'GPE',
      content:
      [
        ['Oxford','NNP','oxford']
      ]
    },
    [',',',',','],
    ['and','CC','and'],
    ['was','VBD','be'],
    ['also','RB','also'],
    ['appointed','VBN','appoint'],
    ['bailiff','NN','bailiff'],
    ['of','IN','of'],
    ['the','DT','the'],
    {
      tag:'ORGANIZATION',
      content:
      [
        ['Earl','NNP','earl']
      ]
    },
    [''s','POS',''s'],
    ['manor','NN','man'],
    ['of','IN','of'],
    {
      tag:'GPE',
      content:
      [
        ['Lavenham','NNP','lavenham']
      ]
    },
    ['in','IN','in'],
    {
      tag:'GPE',
      content:
      [
        ['Suffolk','NNP','suffolk']
      ]
    },
    ['.','.','.']
  ]
},
{
  tag:'S',
  content:
  [
    ['By','IN','By'],
    ['1551','CD','1551'],
    ['Rochester','NNP','rochest'],
    ['had','VBD','hav'],
    ['been','VBN','be'],
    ['appointed','VBN','appoint'],
    {
      tag:'ORGANIZATION',
      content:
      [
        ['Comptroller','NNP','comptrol']
      ]
    },
    ['of','IN','of'],
    ['the','DT','the'],
    {
      tag:'ORGANIZATION',
      content:
      [
        ['Household','NNP','household']
      ]
    },
    ['to','TO','to'],
    {
      tag:'PERSON',
      content:
      [
        ['Mary','NNP','mary'],
        ['Tudor','NNP','tud']
      ]
    },
    [',',',',','],
    {
      tag:'PERSON',
      content:
      [
        ['Henry','NNP','henry'],
        ['VIII','NNP','vii']
      ]
    },
    [''s','POS',''s'],
    ['elder','NN','eld'],
    ['daughter','NN','daught'],
    ['by','IN','by'],
    {
      tag:'ORGANIZATION',
      content:
      [
        ['Catherine','NNP','catherin']
      ]
    },
    ['of','IN','of'],
    {
      tag:'PERSON',
      content:
      [
        ['Aragon','NNP','aragon']
      ]
    },
    ['.','.','.']
  ]
},
{
  tag:'S',
  content:
  [
    ['In','IN','In'],
    ['that','DT','that'],
    ['year','NN','year'],
    [',',',',','],
    ['the','DT','the'],
    {
      tag:'ORGANIZATION',
      content:
      [
        ['Privy','NNP','privy'],
        ['Council','NNP','council']
      ]
    },
    ['ordered','VBD','ord'],
    {
      tag:'PERSON',
      content:
      [
        ['Rochester','NNP','rochest']
      ]
    },
    ['to','TO','to'],
    ['stop','VB','stop'],
    ['any','DT','any'],
    ['priest','JJS','priest'],
    ['from','IN','from'],
    ['saying','VBG','say'],
    ['mass','NN','mass'],
    ['in','IN','in'],
    ['the','DT','the'],
    {
      tag:'ORGANIZATION',
      content:
      [
        ['Princess','NNP','princess']
      ]
    },
    [''s','POS',''s'],
    ['household','NN','household'],
    [';',':',';'],
    {
      tag:'PERSON',
      content:
      [
        ['Rochester','NNP','rochest']
      ]
    },
    ['refused','VBD','refus'],
    [',',',',','],
    ['and','CC','and'],
    ['was','VBD','be'],
    ['imprisoned','VBN','imprison'],
    ['in','IN','in'],
    ['the','DT','the'],
    {
      tag:'GPE',
      content:
      [
        ['Tower','NNP','tow']
      ]
    },
    [',',',',','],
    ['and','CC','and'],
    ['replaced','VBD','replac'],
    ['as','IN','as'],
    {
      tag:'ORGANIZATION',
      content:
      [
        ['Comptroller','NNP','comptrol']
      ]
    },
    ['by','IN','by'],
    {
      tag:'PERSON',
      content:
      [
        ['Sir','NNP','sir'],
        ['Anthony','NNP','anthony'],
        ['Wingfield','NNP','wingfield']
      ]
    },
    ['.','.','.']
  ]
},
{
  tag:'S',
  content:
  [
    ['The','DT','The'],
    ['next','JJ','next'],
    ['year','NN','year'],
    [',',',',','],
    ['he','PRP','he'],
    ['was','VBD','be'],
    ['released','VBN','releas'],
    ['to','TO','to'],
    ['retire','VB','retir'],
    ['to','TO','to'],
    ['the','DT','the'],
    ['county','NN','county'],
    ['because','IN','because'],
    ['of','IN','of'],
    ['his','PRP$','his'],
    ['health','NN','heal'],
    ['.','.','.']
  ]
},
{
  tag:'S',
  content:
  [
    ['He','PRP','He'],
    ['was','VBD','be'],
    ['soon','RB','soon'],
    ['allowed','VBN','allow'],
    ['to','TO','to'],
    ['resume','VB','resum'],
    ['his','PRP$','his'],
    ['post','NN','post'],
    ['as','IN','as'],
    {
      tag:'ORGANIZATION',
      content:
      [
        ['Comptroller','NNP','comptrol']
      ]
    },
    ['.','.','.']
  ]
},
{
  tag:'S',
  content:
  [
    ['When','WRB','When'],
    ['the','DT','the'],
    {
      tag:'ORGANIZATION',
      content:
      [
        ['Princess','NNP','princess']
      ]
    },
    ['assumed','VBD','assum'],
    ['the','DT','the'],
    ['throne','NN','throne'],
    ['as','IN','as'],
    {
      tag:'PERSON',
      content:
      [
        ['Mary','NNP','mary']
      ]
    },
    ['I','NNP','i'],
    [',',',',','],
    ['she','PRP','she'],
    ['rewarded','VBD','reward'],
    {
      tag:'PERSON',
      content:
      [
        ['Rochester','NNP','rochest']
      ]
    },
    ['for','IN','for'],
    ['his','PRP$','his'],
    ['faithful','JJ','faith'],
    ['service','NN','serv'],
    [',',',',','],
    ['making','VBG','mak'],
    ['him','PRP','him'],
    ['Chancellor','NNP','chancel'],
    ['of','IN','of'],
    ['the','DT','the'],
    {
      tag:'ORGANIZATION',
      content:
      [
        ['Duchy','NNP','duchy']
      ]
    },
    ['of','IN','of'],
    {
      tag:'PERSON',
      content:
      [
        ['Lancaster','NNP','lancast']
      ]
    },
    ['and','CC','and'],
    ['appointing','VBG','appoint'],
    ['him','PRP','him'],
    ['to','TO','to'],
    ['the','DT','the'],
    ['inner','NN','in'],
    ['circle','NN','circ'],
    ['of','IN','of'],
    ['the','DT','the'],
    {
      tag:'ORGANIZATION',
      content:
      [
        ['Privy','NNP','privy'],
        ['Council','NNP','council']
      ]
    },
    ['.','.','.']
  ]
},
{
  tag:'S',
  content:
  [
    ['He','PRP','He'],
    ['served','VBD','serv'],
    ['as','IN','as'],
    ['a','DT','a'],
    ['Member','NNP','memb'],
    ['of','IN','of'],
    {
      tag:'ORGANIZATION',
      content:
      [
        ['Parliament','NNP','parlia']
      ]
    },
    ['for','IN','for'],
    {
      tag:'PERSON',
      content:
      [
        ['Essex','NNP','essex']
      ]
    },
    ['from','IN','from'],
    ['1553','CD','1553'],
    ['to','TO','to'],
    ['1555','CD','1555'],
    ['.','.','.']
  ]
},
{
  tag:'S',
  content:
  [
    ['Rochester','NNP','rochest'],
    ['never','RB','nev'],
    ['married','VBD','marry'],
    ['.','.','.']
  ]
},
{
  tag:'S',
  content:
  [
    ['He','PRP','He'],
    ['died','VBD','die'],
    ['28','CD','28'],
    ['November','NNP','novemb'],
    ['1557','CD','1557'],
    [',',',',','],
    ['and','CC','and'],
    ['was','VBD','be'],
    ['buried','VBN','bury'],
    ['4','CD','4'],
    ['December','NNP','decemb'],
    ['at','IN','at'],
    ['the','DT','the'],
    ['Charterhouse','NNP','charterh'],
    ['at','IN','at'],
    {
      tag:'ORGANIZATION',
      content:
      [
        ['Sheen','NNP','sheen']
      ]
    },
    [',',',',','],
    ['the','DT','the'],
    ['house','NN','hous'],
    ['reconstituted','VBD','reconstitut'],
    ['by','IN','by'],
    ['the','DT','the'],
    ['remnant','JJ','remn'],
    ['of','IN','of'],
    ['the','DT','the'],
    {
      tag:'ORGANIZATION',
      content:
      [
        ['English','NNP','engl'],
        ['Carthusians','NNP','carthus']
      ]
    },
    ['under','IN','under'],
    {
      tag:'PERSON',
      content:
      [
        ['Dom','NNP','dom'],
        ['Maurice','NNP','maur'],
        ['Chauncy','NNP','chaunt']
      ]
    },
    ['.','.','.']
  ]
},
{
  tag:'S',
  content:
  [
    ['He','PRP','He'],
    ['was','VBD','be'],
    ['succeeded','VBN','success'],
    ['in','IN','in'],
    ['his','PRP$','his'],
    ['post','NN','post'],
    ['as','IN','as'],
    {
      tag:'ORGANIZATION',
      content:
      [
        ['Chancellor','NNP','chancel']
      ]
    },
    ['of','IN','of'],
    ['the','DT','the'],
    {
      tag:'ORGANIZATION',
      content:
      [
        ['Duchy','NNP','duchy']
      ]
    },
    ['of','IN','of'],
    ['Lancaster','NNP','lancast'],
    ['by','IN','by'],
    ['his','PRP$','his'],
    ['nephew','NN','nephew'],
    [',',',',','],
    {
      tag:'PERSON',
      content:
      [
        ['Sir','NNP','sir'],
        ['Edward','NNP','edward'],
        ['Waldegrave','NNP','waldegrav']
      ]
    },
    ['(','NNP','('],
    ['d.','NNP','d.'],
    ['1','CD','1'],
    ['September','NNP','septemb'],
    ['1561','CD','1561'],
    [')','CD',')'],
    [',',',',','],
    ['son','NN','son'],
    ['of','IN','of'],
    {
      tag:'PERSON',
      content:
      [
        ['John','NNP','john'],
        ['Waldegrave','NNP','waldegrav']
      ]
    },
    ['(','NNP','('],
    ['d.1543','NNP','d.1543'],
    [')','NNP',')'],
    ['and','CC','and'],
    {
      tag:'PERSON',
      content:
      [
        ['Rochester','NNP','rochest']
      ]
    },
    [''s','POS',''s'],
    ['sister','NN','sist'],
    {
      tag:'PERSON',
      content:
      [
        ['Lora','NNP','lor']
      ]
    },
    ['(','NNP','('],
    ['died','VBD','die'],
    ['c.1545','-NONE-','c.1545'],
    [')',':',')'],
    ['.','.','.']
  ]
},
{
  tag:'S',
  content:
  [
    ['==Footnotes==','NN','==footnotes=='],
    ['==References==','NN','==references=='],
    ['*','-NONE-','*'],
    ['*','-NONE-','*'],
    ['*','-NONE-','*'],
    ['*','-NONE-','*'],
    ['*','-NONE-','*'],
    ['*','-NONE-','*'],
    ['*','-NONE-','*'],
    ['==External','JJ','==external'],
    ['links==','NN','links=='],
    ['*','-NONE-','*'],
    [';',':',';'],
    ['Attribution','NNP','attribut']
  ]
}]