[
{
  tag:'S',
  content:
  [
    {
      tag:'PERSON',
      content:
      [
        ['Audrey','NNP','audrey'],
        ['Eu','NNP','eu']
      ]
    },
    ['Yuet-mee','NNP','yuet-mee'],
    ['(','NNP','('],
    [';',':',';'],
    ['born','NN','born'],
    ['11','CD','11'],
    ['September','NNP','septemb'],
    ['1953','CD','1953'],
    [',',',',','],
    {
      tag:'GPE',
      content:
      [
        ['Hong','NNP','hong'],
        ['Kong','NNP','kong']
      ]
    },
    [')','NNP',')'],
    [',',',',','],
    {
      tag:'ORGANIZATION',
      content:
      [
        ['LLB','NNP','llb']
      ]
    },
    [',',',',','],
    {
      tag:'ORGANIZATION',
      content:
      [
        ['LLM','NNP','llm']
      ]
    },
    [',',',',','],
    {
      tag:'ORGANIZATION',
      content:
      [
        ['SC','NNP','sc']
      ]
    },
    [',',',',','],
    {
      tag:'ORGANIZATION',
      content:
      [
        ['JP','NNP','jp']
      ]
    },
    ['is','VBZ','be'],
    ['a','DT','a'],
    ['former','JJ','form'],
    ['member','NN','memb'],
    ['of','IN','of'],
    ['the','DT','the'],
    {
      tag:'ORGANIZATION',
      content:
      [
        ['Legislative','NNP','legisl'],
        ['Council','NNP','council']
      ]
    },
    ['of','IN','of'],
    {
      tag:'GPE',
      content:
      [
        ['Hong','NNP','hong'],
        ['Kong','NNP','kong']
      ]
    },
    ['and','CC','and'],
    ['the','DT','the'],
    ['former','JJ','form'],
    ['(','NN','('],
    ['founding','VBG','found'],
    [')','NN',')'],
    ['leader','NN','lead'],
    ['of','IN','of'],
    ['the','DT','the'],
    {
      tag:'ORGANIZATION',
      content:
      [
        ['Civic','NNP','civ'],
        ['Party','NNP','party']
      ]
    },
    ['.','.','.']
  ]
},
{
  tag:'S',
  content:
  [
    {
      tag:'GPE',
      content:
      [
        ['Eu','NNP','eu']
      ]
    },
    ['lost','VBD','los'],
    ['her','PRP','her'],
    ['seat','NN','seat'],
    ['in','IN','in'],
    ['the','DT','the'],
    {
      tag:'ORGANIZATION',
      content:
      [
        ['Legislative','NNP','legisl'],
        ['Council','NNP','council']
      ]
    },
    ['of','IN','of'],
    {
      tag:'GPE',
      content:
      [
        ['Hong','NNP','hong'],
        ['Kong','NNP','kong']
      ]
    },
    ['in','IN','in'],
    ['September','NNP','septemb'],
    ['2012','CD','2012'],
    ['.','.','.']
  ]
},
{
  tag:'S',
  content:
  [
    ['==Education','NN','==education'],
    ['and','CC','and'],
    ['legal','JJ','leg'],
    ['career==','NN','career=='],
    {
      tag:'GPE',
      content:
      [
        ['Eu','NNP','eu']
      ]
    },
    ['studied','VBD','study'],
    ['at','IN','at'],
    {
      tag:'ORGANIZATION',
      content:
      [
        ['St.','NNP','st.'],
        ['Francis','NNP','frant']
      ]
    },
    [''','POS','''],
    {
      tag:'PERSON',
      content:
      [
        ['Canossian','NNP','canoss'],
        ['College','NNP','colleg']
      ]
    },
    ['from','IN','from'],
    ['1960','CD','1960'],
    ['to','TO','to'],
    ['1970','CD','1970'],
    ['and','CC','and'],
    ['matriculated','VBD','matric'],
    ['from','IN','from'],
    {
      tag:'GPE',
      content:
      [
        ['St.','NNP','st.']
      ]
    },
    {
      tag:'PERSON',
      content:
      [
        ['Paul','NNP','paul']
      ]
    },
    [''s','POS',''s'],
    ['Co-educational','JJ','co-educational'],
    ['College','NNP','colleg'],
    ['in','IN','in'],
    ['1972','CD','1972'],
    ['.','.','.']
  ]
},
{
  tag:'S',
  content:
  [
    ['She','PRP','She'],
    ['earned','VBD','earn'],
    ['her','PRP$','her'],
    ['LLB','NNP','llb'],
    ['from','IN','from'],
    ['the','DT','the'],
    {
      tag:'ORGANIZATION',
      content:
      [
        ['University','NNP','univers']
      ]
    },
    ['of','IN','of'],
    {
      tag:'GPE',
      content:
      [
        ['Hong','NNP','hong'],
        ['Kong','NNP','kong']
      ]
    },
    ['and','CC','and'],
    ['her','PRP$','her'],
    ['LLM','NNP','llm'],
    ['from','IN','from'],
    ['the','DT','the'],
    {
      tag:'ORGANIZATION',
      content:
      [
        ['University','NNP','univers']
      ]
    },
    ['of','IN','of'],
    {
      tag:'GPE',
      content:
      [
        ['London','NNP','london']
      ]
    },
    ['.','.','.']
  ]
},
{
  tag:'S',
  content:
  [
    ['She','PRP','She'],
    ['was','VBD','be'],
    ['called','VBN','cal'],
    ['to','TO','to'],
    ['the','DT','the'],
    {
      tag:'ORGANIZATION',
      content:
      [
        ['Bar','NNP','bar']
      ]
    },
    ['in','IN','in'],
    {
      tag:'GPE',
      content:
      [
        ['Hong','NNP','hong'],
        ['Kong','NNP','kong']
      ]
    },
    ['in','IN','in'],
    ['1978','CD','1978'],
    ['and','CC','and'],
    ['was','VBD','be'],
    ['appointed','VBN','appoint'],
    ['as','IN','as'],
    ['a','DT','a'],
    ['Queen','NNP','queen'],
    [''s','POS',''s'],
    ['Counsel','NNP','counsel'],
    ['in','IN','in'],
    ['1993','CD','1993'],
    ['(','CD','('],
    ['known','VBN','know'],
    ['as','IN','as'],
    {
      tag:'ORGANIZATION',
      content:
      [
        ['Senior','NNP','seny'],
        ['Counsel','NNP','counsel']
      ]
    },
    ['since','IN','since'],
    ['1997','CD','1997'],
    [')','CD',')'],
    ['.','.','.']
  ]
},
{
  tag:'S',
  content:
  [
    ['She','PRP','She'],
    ['specializes','VBZ','spec'],
    ['in','IN','in'],
    ['civil','NN','civil'],
    ['law','NN','law'],
    ['.','.','.']
  ]
},
{
  tag:'S',
  content:
  [
    ['Before','IN','Before'],
    ['entering','VBG','ent'],
    ['politics','NNS','polit'],
    [',',',',','],
    {
      tag:'GPE',
      content:
      [
        ['Eu','NNP','eu']
      ]
    },
    ['was','VBD','be'],
    ['the','DT','the'],
    ['chairlady','JJ','chairlady'],
    ['of','IN','of'],
    ['the','DT','the'],
    {
      tag:'GPE',
      content:
      [
        ['Hong','NNP','hong'],
        ['Kong','NNP','kong']
      ]
    },
    {
      tag:'PERSON',
      content:
      [
        ['Bar','NNP','bar'],
        ['Association','NNP','assocy']
      ]
    },
    ['.','.','.']
  ]
},
{
  tag:'S',
  content:
  [
    ['She','PRP','She'],
    ['shot','VBD','shoot'],
    ['to','TO','to'],
    ['prominence','NN','promin'],
    ['on','IN','on'],
    ['the','DT','the'],
    ['right','NN','right'],
    ['of','IN','of'],
    ['abode','NN','abod'],
    ['issue','NN','issu'],
    [',',',',','],
    ['at','IN','at'],
    ['the','DT','the'],
    ['time','NN','tim'],
    ['of','IN','of'],
    ['the','DT','the'],
    ['transfer','NN','transf'],
    ['of','IN','of'],
    ['sovereignty','NN','sovereignty'],
    ['to','TO','to'],
    ['the','DT','the'],
    {
      tag:'ORGANIZATION',
      content:
      [
        ['People','NNP','peopl']
      ]
    },
    [''s','POS',''s'],
    {
      tag:'ORGANIZATION',
      content:
      [
        ['Republic','NNP','republ']
      ]
    },
    ['of','IN','of'],
    {
      tag:'GPE',
      content:
      [
        ['China','NNP','chin']
      ]
    },
    ['in','IN','in'],
    ['1997','CD','1997'],
    [',',',',','],
    ['she','PRP','she'],
    ['held','VBD','hold'],
    ['a','DT','a'],
    ['firm','NN','firm'],
    ['stance','NN','stant'],
    ['against','IN','against'],
    ['the','DT','the'],
    ['interpretation','NN','interpret'],
    ['of','IN','of'],
    ['the','DT','the'],
    {
      tag:'GPE',
      content:
      [
        ['Hong','NNP','hong'],
        ['Kong','NNP','kong']
      ]
    },
    {
      tag:'PERSON',
      content:
      [
        ['Basic','NNP','bas'],
        ['Law','NNP','law']
      ]
    },
    ['by','IN','by'],
    ['the','DT','the'],
    {
      tag:'ORGANIZATION',
      content:
      [
        ['National','NNP','nat'],
        ['People','NNP','peopl']
      ]
    },
    [''s','POS',''s'],
    {
      tag:'ORGANIZATION',
      content:
      [
        ['Congress','NNP','congress']
      ]
    },
    ['.','.','.']
  ]
},
{
  tag:'S',
  content:
  [
    ['==Political','JJ','==political'],
    ['career==','NN','career=='],
    {
      tag:'GPE',
      content:
      [
        ['Eu','NNP','eu']
      ]
    },
    ['decided','VBD','decid'],
    ['to','TO','to'],
    ['enter','VB','ent'],
    ['into','IN','into'],
    ['politics','NNS','polit'],
    ['in','IN','in'],
    ['2000','CD','2000'],
    [',',',',','],
    ['and','CC','and'],
    ['was','VBD','be'],
    ['successful','JJ','success'],
    ['in','IN','in'],
    ['gaining','NN','gain'],
    ['a','DT','a'],
    {
      tag:'ORGANIZATION',
      content:
      [
        ['Legislative','JJ','legisl'],
        ['Council','NNP','council']
      ]
    },
    ['seat','NN','seat'],
    ['at','IN','at'],
    ['a','DT','a'],
    ['byelection','NN','byelect'],
    ['replacing','VBG','replac'],
    {
      tag:'PERSON',
      content:
      [
        ['Gary','NNP','gary'],
        ['Cheng','NNP','cheng']
      ]
    },
    ['after','IN','after'],
    ['he','PRP','he'],
    ['gave','VBD','giv'],
    ['up','RP','up'],
    ['his','PRP$','his'],
    ['seat','NN','seat'],
    ['due','JJ','due'],
    ['to','TO','to'],
    ['various','JJ','vary'],
    ['negative','JJ','neg'],
    ['news','NN','new'],
    ['.','.','.']
  ]
},
{
  tag:'S',
  content:
  [
    ['She','PRP','She'],
    ['then','RB','then'],
    ['became','VBD','becom'],
    ['a','DT','a'],
    ['founding','NN','found'],
    ['member','NN','memb'],
    ['of','IN','of'],
    ['the','DT','the'],
    {
      tag:'ORGANIZATION',
      content:
      [
        ['Basic','NNP','bas'],
        ['Law','NNP','law']
      ]
    },
    ['Article','NNP','artic'],
    ['23','CD','23'],
    {
      tag:'ORGANIZATION',
      content:
      [
        ['Concern','NNP','concern'],
        ['Group','NNP','group']
      ]
    },
    [',',',',','],
    ['which','WDT','which'],
    ['later','JJ','lat'],
    ['became','VBD','becom'],
    ['the','DT','the'],
    {
      tag:'ORGANIZATION',
      content:
      [
        ['Basic','NNP','bas'],
        ['Law','NNP','law']
      ]
    },
    ['Article','NNP','artic'],
    ['45','CD','45'],
    {
      tag:'ORGANIZATION',
      content:
      [
        ['Concern','NNP','concern'],
        ['Group','NNP','group']
      ]
    },
    [',',',',','],
    ['then','RB','then'],
    ['the','DT','the'],
    {
      tag:'ORGANIZATION',
      content:
      [
        ['Civic','NNP','civ'],
        ['Party','NNP','party']
      ]
    },
    ['in','IN','in'],
    ['2005','CD','2005'],
    ['.','.','.']
  ]
},
{
  tag:'S',
  content:
  [
    ['===Article','JJ','===article'],
    ['23','CD','23'],
    {
      tag:'ORGANIZATION',
      content:
      [
        ['Concern','NNP','concern']
      ]
    },
    ['Group===','NNP','group==='],
    ['In','NNP','in'],
    ['2002','CD','2002'],
    [',',',',','],
    ['when','WRB','when'],
    ['the','DT','the'],
    {
      tag:'GPE',
      content:
      [
        ['Hong','NNP','hong'],
        ['Kong','NNP','kong']
      ]
    },
    ['Government','NNP','govern'],
    ['wanted','VBD','want'],
    ['to','TO','to'],
    ['alter','VB','alt'],
    ['the','DT','the'],
    ['existing','VBG','ex'],
    ['Article','NNP','artic'],
    ['23','CD','23'],
    ['concerning','VBG','concern'],
    ['treason','NN','treason'],
    ['and','CC','and'],
    ['sedition','NN','sedit'],
    [',',',',','],
    {
      tag:'GPE',
      content:
      [
        ['Eu','NNP','eu']
      ]
    },
    [',',',',','],
    ['with','IN','with'],
    ['some','DT','some'],
    ['other','JJ','oth'],
    ['notable','JJ','not'],
    ['members','NNS','memb'],
    ['of','IN','of'],
    ['the','DT','the'],
    {
      tag:'ORGANIZATION',
      content:
      [
        ['Bar','NNP','bar']
      ]
    },
    [',',',',','],
    ['including','VBG','includ'],
    {
      tag:'PERSON',
      content:
      [
        ['Alan','NNP','al'],
        ['Leong','NNP','leong']
      ]
    },
    [',',',',','],
    {
      tag:'PERSON',
      content:
      [
        ['Margaret','NNP','margaret'],
        ['Ng','NNP','ng']
      ]
    },
    [',',',',','],
    {
      tag:'PERSON',
      content:
      [
        ['Ronny','NNP','ronny'],
        ['Tong','NNP','tong']
      ]
    },
    [',',',',','],
    ['formed','VBN','form'],
    ['the','DT','the'],
    {
      tag:'ORGANIZATION',
      content:
      [
        ['Basic','NNP','bas'],
        ['Law','NNP','law']
      ]
    },
    ['Article','NNP','artic'],
    ['23','CD','23'],
    {
      tag:'ORGANIZATION',
      content:
      [
        ['Concern','NNP','concern'],
        ['Group','NNP','group']
      ]
    },
    ['.','.','.']
  ]
},
{
  tag:'S',
  content:
  [
    ['Before','IN','Before'],
    ['the','DT','the'],
    ['draft','NN','draft'],
    {
      tag:'PERSON',
      content:
      [
        ['Bill','NNP','bil']
      ]
    },
    ['became','VBD','becom'],
    ['public','JJ','publ'],
    [',',',',','],
    {
      tag:'GPE',
      content:
      [
        ['Eu','NNP','eu']
      ]
    },
    ['put','VBD','put'],
    ['forward','RB','forward'],
    ['strong','JJ','strong'],
    ['opinions','NNS','opin'],
    ['and','CC','and'],
    ['statements','NNS','stat'],
    ['opposing','VBG','oppos'],
    ['certain','JJ','certain'],
    ['measures','NNS','meas'],
    ['of','IN','of'],
    ['the','DT','the'],
    ['Article','NNP','artic'],
    ['23','CD','23'],
    ['legislation','NN','legisl'],
    ['.','.','.']
  ]
},
{
  tag:'S',
  content:
  [
    ['Her','PRP$','Her'],
    ['campaigning','NN','campaign'],
    ['helped','VBD','help'],
    ['her','PRP','her'],
    ['significantly','RB','sign'],
    ['raise','VBP','rais'],
    ['her','PRP','her'],
    ['public','JJ','publ'],
    ['profile','NN','profil'],
    ['after','IN','after'],
    ['the','DT','the'],
    ['1','CD','1'],
    ['July','NNP','july'],
    ['2003','CD','2003'],
    [',',',',','],
    ['demonstrations','NNS','demonst'],
    ['.','.','.']
  ]
},
{
  tag:'S',
  content:
  [
    ['===Article','JJ','===article'],
    ['45','CD','45'],
    {
      tag:'ORGANIZATION',
      content:
      [
        ['Concern','NNP','concern']
      ]
    },
    ['group===','NNP','group==='],
    ['Concern','NNP','concern'],
    ['started','VBD','start'],
    ['to','TO','to'],
    ['grow','VB','grow'],
    ['among','IN','among'],
    {
      tag:'GPE',
      content:
      [
        ['Hong','NNP','hong'],
        ['Kong','NNP','kong']
      ]
    },
    ['residents','NNS','resid'],
    ['later','JJ','lat'],
    ['about','IN','about'],
    ['Articles','NNP','artic'],
    ['45','CD','45'],
    ['and','CC','and'],
    ['68','CD','68'],
    ['of','IN','of'],
    ['the','DT','the'],
    {
      tag:'ORGANIZATION',
      content:
      [
        ['Basic','NNP','bas'],
        ['Law','NNP','law']
      ]
    },
    ['in','IN','in'],
    ['2004','CD','2004'],
    ['.','.','.']
  ]
},
{
  tag:'S',
  content:
  [
    ['There','EX','There'],
    ['were','VBD','be'],
    ['also','RB','also'],
    ['uncertainties','VBZ','uncertainty'],
    ['concerning','VBG','concern'],
    ['the','DT','the'],
    ['future','NN','fut'],
    ['of','IN','of'],
    ['the','DT','the'],
    ['next','JJ','next'],
    ['2007','CD','2007'],
    ['Chief','NNP','chief'],
    ['Executive','NNP','execut'],
    ['election','NN','elect'],
    ['and','CC','and'],
    ['the','DT','the'],
    ['next','JJ','next'],
    ['4th','CD','4th'],
    ['LegCo','NNP','legco'],
    ['elections','NNS','elect'],
    ['in','IN','in'],
    ['2008','CD','2008'],
    ['.','.','.']
  ]
},
{
  tag:'S',
  content:
  [
    ['In','IN','In'],
    ['response','NN','respons'],
    [',',',',','],
    {
      tag:'GPE',
      content:
      [
        ['Eu','NNP','eu']
      ]
    },
    [',',',',','],
    ['along','IN','along'],
    ['with','IN','with'],
    ['other','JJ','oth'],
    ['barristers','NNS','bar'],
    ['including','VBG','includ'],
    {
      tag:'PERSON',
      content:
      [
        ['Margaret','NNP','margaret'],
        ['Ng','NNP','ng']
      ]
    },
    ['and','CC','and'],
    {
      tag:'PERSON',
      content:
      [
        ['Ronny','NNP','ronny'],
        ['Tong','NNP','tong']
      ]
    },
    [',',',',','],
    ['formed','VBN','form'],
    ['the','DT','the'],
    {
      tag:'ORGANIZATION',
      content:
      [
        ['Basic','NNP','bas'],
        ['Law','NNP','law']
      ]
    },
    ['Article','NNP','artic'],
    ['45','CD','45'],
    {
      tag:'ORGANIZATION',
      content:
      [
        ['Concern','NNP','concern']
      ]
    },
    ['Group','NNP','group'],
    ['that','WDT','that'],
    ['advocated','VBD','advoc'],
    ['fully','RB','ful'],
    ['democratic','JJ','democr'],
    ['processes','NNS','process'],
    ['in','IN','in'],
    ['the','DT','the'],
    ['form','NN','form'],
    ['of','IN','of'],
    ['universal','NN','univers'],
    ['suffrage','NN','suffr'],
    ['in','IN','in'],
    ['both','DT','both'],
    ['elections','NNS','elect'],
    ['.','.','.']
  ]
},
{
  tag:'S',
  content:
  [
    ['She','PRP','She'],
    ['found','VBD','find'],
    ['most','JJS','most'],
    ['support','NN','support'],
    ['with','IN','with'],
    ['the','DT','the'],
    ['middle-class','JJ','middle-class'],
    ['.','.','.']
  ]
},
{
  tag:'S',
  content:
  [
    {
      tag:'GPE',
      content:
      [
        ['Eu','NNP','eu']
      ]
    },
    ['ran','VBD','run'],
    ['for','IN','for'],
    ['the','DT','the'],
    ['2004','CD','2004'],
    ['LegCo','NNP','legco'],
    ['election','NN','elect'],
    ['for','IN','for'],
    ['the','DT','the'],
    {
      tag:'GPE',
      content:
      [
        ['Hong','NNP','hong'],
        ['Kong','NNP','kong'],
        ['Island','NNP','island']
      ]
    },
    ['constituency','NN','constitu'],
    ['in','IN','in'],
    ['the','DT','the'],
    ['same','JJ','sam'],
    ['ballot','NN','ballot'],
    ['as','IN','as'],
    {
      tag:'PERSON',
      content:
      [
        ['Cyd','NNP','cyd'],
        ['Ho','NNP','ho']
      ]
    },
    ['from','IN','from'],
    ['The','DT','The'],
    ['Frontier','NNP','fronty'],
    ['.','.','.']
  ]
},
{
  tag:'S',
  content:
  [
    ['The','DT','The'],
    ['``','``','``'],
    ['Eu-Ho','JJ','eu-ho'],
    ['''','''',''''],
    ['pair','NN','pair'],
    ['obtained','VBD','obtain'],
    ['73,844','CD','73,844'],
    ['votes','NNS','vot'],
    ['which','WDT','which'],
    ['resulted','VBN','result'],
    ['in','IN','in'],
    {
      tag:'GPE',
      content:
      [
        ['Eu','NNP','eu']
      ]
    },
    ['obtaining','NN','obtain'],
    ['a','DT','a'],
    ['seat','NN','seat'],
    ['at','IN','at'],
    ['the','DT','the'],
    ['expense','NN','expens'],
    ['of','IN','of'],
    {
      tag:'GPE',
      content:
      [
        ['Ho','NNP','ho']
      ]
    },
    [',',',',','],
    ['who','WP','who'],
    ['lost','VBD','los'],
    ['out','RP','out'],
    ['to','TO','to'],
    ['her','PRP$','her'],
    ['nearest','NN','nearest'],
    {
      tag:'ORGANIZATION',
      content:
      [
        ['DAB','NNP','dab']
      ]
    },
    ['rival','NN','riv'],
    {
      tag:'PERSON',
      content:
      [
        ['Choy','NNP','choy'],
        ['So','NNP','so'],
        ['Yuk','NNP','yuk']
      ]
    },
    ['by','IN','by'],
    ['a','DT','a'],
    ['mere','JJ','mer'],
    ['815','CD','815'],
    ['votes','NNS','vot'],
    ['.','.','.']
  ]
},
{
  tag:'S',
  content:
  [
    ['This','DT','This'],
    ['was','VBD','be'],
    ['seen','VBN','see'],
    ['as','IN','as'],
    ['a','DT','a'],
    ['blunder','NN','blund'],
    ['by','IN','by'],
    ['the','DT','the'],
    ['pan-democratic','JJ','pan-democratic'],
    ['camp','NN','camp'],
    [',',',',','],
    ['as','IN','as'],
    {
      tag:'GPE',
      content:
      [
        ['Hong','NNP','hong'],
        ['Kong','NNP','kong']
      ]
    },
    {
      tag:'ORGANIZATION',
      content:
      [
        ['Democratic','NNP','democr'],
        ['Party','NNP','party']
      ]
    },
    ['LegCo','NNP','legco'],
    ['candidate','NN','candid'],
    {
      tag:'PERSON',
      content:
      [
        ['Martin','NNP','martin'],
        ['Lee','NNP','lee']
      ]
    },
    ['had','VBD','hav'],
    ['more','JJR','mor'],
    ['than','IN','than'],
    ['enough','JJ','enough'],
    ['votes','NNS','vot'],
    ['to','TO','to'],
    ['be','VB','be'],
    ['elected','VBN','elect'],
    [',',',',','],
    ['directly','RB','direct'],
    ['affecting','VBG','affect'],
    {
      tag:'PERSON',
      content:
      [
        ['Cyd','NNP','cyd'],
        ['Ho','NNP','ho']
      ]
    },
    [''s','POS',''s'],
    ['election','NN','elect'],
    ['chances','NNS','chant'],
    ['.','.','.']
  ]
},
{
  tag:'S',
  content:
  [
    ['===','NN','==='],
    {
      tag:'PERSON',
      content:
      [
        ['Civic','NNP','civ'],
        ['Party','NNP','party']
      ]
    },
    ['===','NNP','==='],
    ['Eu','NNP','eu'],
    ['was','VBD','be'],
    ['the','DT','the'],
    ['founding','NN','found'],
    ['leader','NN','lead'],
    ['of','IN','of'],
    ['the','DT','the'],
    ['party','NN','party'],
    [',',',',','],
    ['and','CC','and'],
    ['held','VBD','hold'],
    ['the','DT','the'],
    ['office','NN','off'],
    ['from','IN','from'],
    ['19','CD','19'],
    ['Mar','NNP','mar'],
    ['2006','CD','2006'],
    ['to','TO','to'],
    ['8','CD','8'],
    ['Jan','NNP','jan'],
    ['2011','CD','2011'],
    ['.','.','.']
  ]
},
{
  tag:'S',
  content:
  [
    ['She','PRP','She'],
    ['stood','VBD','stand'],
    ['for','IN','for'],
    ['and','CC','and'],
    ['was','VBD','be'],
    ['returned','VBN','return'],
    ['in','IN','in'],
    ['the','DT','the'],
    {
      tag:'GPE',
      content:
      [
        ['Hong','NNP','hong'],
        ['Kong','NNP','kong'],
        ['Island','NNP','island']
      ]
    },
    ['geographical','JJ','geograph'],
    ['constituency','NN','constitu'],
    ['for','IN','for'],
    ['the','DT','the'],
    {
      tag:'GPE',
      content:
      [
        ['Hong','NNP','hong'],
        ['Kong','NNP','kong']
      ]
    },
    ['legislative','JJ','legisl'],
    ['election','NN','elect'],
    [',',',',','],
    ['2008','CD','2008'],
    ['.','.','.']
  ]
},
{
  tag:'S',
  content:
  [
    ['She','PRP','She'],
    ['was','VBD','be'],
    ['placed','VBN','plac'],
    ['second','JJ','second'],
    ['on','IN','on'],
    ['the','DT','the'],
    {
      tag:'ORGANIZATION',
      content:
      [
        ['Civic','NNP','civ'],
        ['Party','NNP','party']
      ]
    },
    ['ticket','NN','ticket'],
    [',',',',','],
    ['behind','IN','behind'],
    ['newcomer','NN','newcom'],
    {
      tag:'PERSON',
      content:
      [
        ['Tanya','NNP','tany'],
        ['Chan','NNP','chan']
      ]
    },
    [',',',',','],
    ['who','WP','who'],
    ['was','VBD','be'],
    ['also','RB','also'],
    ['elected','VBN','elect'],
    ['.','.','.']
  ]
},
{
  tag:'S',
  content:
  [
    ['After','IN','After'],
    ['deducting','VBG','deduc'],
    ['the','DT','the'],
    ['quotient','NN','quoty'],
    ['required','VBN','requir'],
    ['for','IN','for'],
    ['the','DT','the'],
    ['first','JJ','first'],
    ['seat','NN','seat'],
    [',',',',','],
    ['the','DT','the'],
    ['remainder','NN','remaind'],
    ['to','TO','to'],
    {
      tag:'GPE',
      content:
      [
        ['Eu','NNP','eu']
      ]
    },
    ['was','VBD','be'],
    ['only','RB','on'],
    ['30,362','CD','30,362'],
    [',',',',','],
    ['enable','JJ','en'],
    {
      tag:'GPE',
      content:
      [
        ['Eu','NNP','eu']
      ]
    },
    ['to','TO','to'],
    ['win','VB','win'],
    ['a','DT','a'],
    ['seat','NN','seat'],
    ['in','IN','in'],
    ['the','DT','the'],
    ['constituency','NN','constitu'],
    ['with','IN','with'],
    ['the','DT','the'],
    ['lowest','JJS','low'],
    ['number','NN','numb'],
    ['of','IN','of'],
    ['vote','NN','vot'],
    ['.','.','.']
  ]
},
{
  tag:'S',
  content:
  [
    ['She','PRP','She'],
    ['got','VBD','get'],
    ['525','CD','525'],
    ['votes','NNS','vot'],
    ['less','JJR','less'],
    ['than','IN','than'],
    ['her','PRP$','her'],
    ['former','JJ','form'],
    ['running','NN','run'],
    ['mate','NN','mat'],
    ['in','IN','in'],
    ['the','DT','the'],
    ['2004','CD','2004'],
    ['election','NN','elect'],
    {
      tag:'PERSON',
      content:
      [
        ['Cyd','NNP','cyd'],
        ['Ho','NNP','ho']
      ]
    },
    ['.','.','.']
  ]
},
{
  tag:'S',
  content:
  [
    ['However','RB','howev'],
    [',',',',','],
    {
      tag:'GPE',
      content:
      [
        ['Eu','NNP','eu']
      ]
    },
    ['lost','VBD','los'],
    ['her','PRP','her'],
    ['seat','NN','seat'],
    ['in','IN','in'],
    ['the','DT','the'],
    {
      tag:'ORGANIZATION',
      content:
      [
        ['Legislative','NNP','legisl'],
        ['Council','NNP','council']
      ]
    },
    ['in','IN','in'],
    ['September','NNP','septemb'],
    ['2012','CD','2012'],
    ['.','.','.']
  ]
},
{
  tag:'S',
  content:
  [
    ['===2009','NN','===2009'],
    ['Reform','NN','reform'],
    ['package===','NN','package==='],
    ['In','IN','In'],
    ['the','DT','the'],
    ['debate','NN','deb'],
    ['over','IN','over'],
    ['the','DT','the'],
    {
      tag:'GPE',
      content:
      [
        ['Hong','NNP','hong'],
        ['Kong','NNP','kong']
      ]
    },
    ['government','NN','govern'],
    [''s','POS',''s'],
    ['2009','CD','2009'],
    ['reform','NN','reform'],
    ['package','NN','pack'],
    ['(',':','('],
    ['referred','VBD','ref'],
    ['to','TO','to'],
    ['by','IN','by'],
    ['government','NN','govern'],
    ['as','IN','as'],
    ['the','DT','the'],
    [''2012','NNP',''2012'],
    ['constitutional','JJ','constitut'],
    ['reform','NN','reform'],
    ['package','NN','pack'],
    [''','''','''],
    [')','NN',')'],
    ['she','PRP','she'],
    ['was','VBD','be'],
    ['among','IN','among'],
    ['the','DT','the'],
    ['firmer','NN','firm'],
    ['voices','NNS','voic'],
    ['in','IN','in'],
    ['the','DT','the'],
    ['pan-democratic','JJ','pan-democratic'],
    ['camp','NN','camp'],
    [',',',',','],
    ['supporting','VBG','support'],
    ['the','DT','the'],
    ['January','NNP','janu'],
    ['2010','CD','2010'],
    ['resignation','NN','resign'],
    ['by','IN','by'],
    ['five','CD','five'],
    ['pan-democrat','JJ','pan-democrat'],
    ['Legislative','JJ','legisl'],
    ['Councillors','NNS','council'],
    ['to','TO','to'],
    ['force','VB','forc'],
    ['a','DT','a'],
    ['by-election','NN','by-election'],
    ['in','IN','in'],
    ['which','WDT','which'],
    ['they','PRP','they'],
    ['re-stood','VBP','re-stood'],
    ['(',':','('],
    ['and','CC','and'],
    ['were','VBD','be'],
    ['re-elected','JJ','re-elected'],
    [')','NN',')'],
    [',',',',','],
    ['intended','VBN','intend'],
    ['as','IN','as'],
    ['referendum','NN','referend'],
    ['on','IN','on'],
    ['democracy','NN','democr'],
    ['.','.','.']
  ]
},
{
  tag:'S',
  content:
  [
    ['Following','VBG','follow'],
    ['the','DT','the'],
    ['vote','NN','vot'],
    [',',',',','],
    ['she','PRP','she'],
    ['was','VBD','be'],
    ['invited','VBN','invit'],
    ['by','IN','by'],
    ['Chief','NNP','chief'],
    ['Executive','NNP','execut'],
    {
      tag:'PERSON',
      content:
      [
        ['Donald','NNP','donald'],
        ['Tsang','NNP','tsang']
      ]
    },
    ['to','TO','to'],
    ['participate','VB','particip'],
    ['in','IN','in'],
    ['a','DT','a'],
    ['live','JJ','liv'],
    ['televised','VBN','telev'],
    ['one-on-one','JJ','one-on-on'],
    ['debate','NN','deb'],
    ['with','IN','with'],
    ['him','PRP','him'],
    ['on','IN','on'],
    ['the','DT','the'],
    ['package','NN','pack'],
    ['.','.','.']
  ]
},
{
  tag:'S',
  content:
  [
    ['The','DT','The'],
    ['offer','NN','off'],
    ['surprised','VBD','surpr'],
    ['many','JJ','many'],
    [',',',',','],
    ['given','VBN','giv'],
    ['her','PRP$','her'],
    ['forthright','NN','forthright'],
    ['position','NN','posit'],
    ['among','IN','among'],
    ['democrats','NNS','democr'],
    ['.','.','.']
  ]
},
{
  tag:'S',
  content:
  [
    ['In','IN','In'],
    ['public','JJ','publ'],
    ['opinion','NN','opin'],
    ['polls','NNS','pol'],
    ['after','IN','after'],
    ['the','DT','the'],
    ['debate','NN','deb'],
    ['on','IN','on'],
    ['17','CD','17'],
    ['June','NNP','jun'],
    ['2010','CD','2010'],
    [',',',',','],
    ['she','PRP','she'],
    ['was','VBD','be'],
    ['widely','RB','wid'],
    ['considered','VBN','consid'],
    ['to','TO','to'],
    ['have','VB','hav'],
    ['won','VBN','win'],
    ['(','-NONE-','('],
    ['71','CD','71'],
    ['%','NN','%'],
    ['to','TO','to'],
    ['15','CD','15'],
    ['%','NN','%'],
    [')',':',')'],
    ['.','.','.']
  ]
},
{
  tag:'S',
  content:
  [
    ['In','IN','In'],
    ['the','DT','the'],
    ['run-up','JJ','run-up'],
    ['to','TO','to'],
    ['the','DT','the'],
    ['23','CD','23'],
    ['June','NNP','jun'],
    ['2010','CD','2010'],
    ['Legco','NNP','legco'],
    ['vote','NN','vot'],
    ['on','IN','on'],
    ['the','DT','the'],
    ['reform','NN','reform'],
    ['package','NN','pack'],
    ['she','PRP','she'],
    ['refused','VBD','refus'],
    ['support','NN','support'],
    [',',',',','],
    ['saying','VBG','say'],
    ['that','IN','that'],
    ['it','PRP','it'],
    ['did','VBD','do'],
    ['not','RB','not'],
    ['go','VB','go'],
    ['far','RB','far'],
    ['enough','RB','enough'],
    ['towards','NNS','toward'],
    ['democratic','JJ','democr'],
    ['expectations','NNS','expect'],
    [',',',',','],
    ['even','RB','ev'],
    ['if','IN','if'],
    ['it','PRP','it'],
    ['included','VBD','includ'],
    ['the','DT','the'],
    {
      tag:'ORGANIZATION',
      content:
      [
        ['Democratic','JJ','democr'],
        ['Party','NNP','party']
      ]
    },
    [''s','POS',''s'],
    ['compromise','NN','comprom'],
    ['proposal','NN','propos'],
    ['to','TO','to'],
    ['have','VB','hav'],
    ['the','DT','the'],
    ['five','CD','five'],
    ['new','JJ','new'],
    ['district','NN','district'],
    ['council','NN','council'],
    ['functional','JJ','funct'],
    ['constituency','NN','constitu'],
    ['seats','NNS','seat'],
    ['returned','VBD','return'],
    ['by','IN','by'],
    ['popular','JJ','popul'],
    ['election','NN','elect'],
    ['.','.','.']
  ]
},
{
  tag:'S',
  content:
  [
    ['==Other','JJ','==other'],
    ['positions==','NN','positions=='],
    {
      tag:'GPE',
      content:
      [
        ['Eu','NNP','eu']
      ]
    },
    ['is','VBZ','be'],
    ['a','DT','a'],
    ['patron','NN','patron'],
    ['of','IN','of'],
    ['St','NNP','st'],
    {
      tag:'PERSON',
      content:
      [
        ['John','NNP','john']
      ]
    },
    [''s','POS',''s'],
    {
      tag:'ORGANIZATION',
      content:
      [
        ['Cathedral','NNP','cathedr']
      ]
    },
    ['HIV','NNP','hiv'],
    ['Education','NNP','educ'],
    ['Centre','NNP','cent'],
    ['and','CC','and'],
    ['was','VBD','be'],
    ['formerly','RB','form'],
    ['a','DT','a'],
    ['member','NN','memb'],
    ['of','IN','of'],
    ['the','DT','the'],
    {
      tag:'ORGANIZATION',
      content:
      [
        ['Consumer','NNP','consum'],
        ['Council','NNP','council']
      ]
    },
    [''s','POS',''s'],
    {
      tag:'ORGANIZATION',
      content:
      [
        ['Management','NNP','man'],
        ['Committee','NNP','commit']
      ]
    },
    ['of','IN','of'],
    ['its','PRP$','its'],
    ['Consumer','NNP','consum'],
    ['Legal','NNP','leg'],
    ['Action','NNP','act'],
    ['Fund','NNP','fund'],
    ['.','.','.']
  ]
},
{
  tag:'S',
  content:
  [
    ['==Family==','NN','==family=='],
    ['Her','PRP$','Her'],
    ['younger','NN','young'],
    ['brother','NN','broth'],
    {
      tag:'PERSON',
      content:
      [
        ['Benjamin','NNP','benjamin'],
        ['Yu','NNP','yu']
      ]
    },
    ['is','VBZ','be'],
    ['also','RB','also'],
    ['a','DT','a'],
    ['senior','JJ','seny'],
    ['counsel','NN','counsel'],
    ['.','.','.']
  ]
},
{
  tag:'S',
  content:
  [
    ['==References==','NN','==references=='],
    ['==External','JJ','==external'],
    ['links==','NN','links=='],
    ['*','-NONE-','*'],
    {
      tag:'PERSON',
      content:
      [
        ['Audrey','NNP','audrey'],
        ['Eu','NNP','eu']
      ]
    },
    [''s','POS',''s'],
    {
      tag:'ORGANIZATION',
      content:
      [
        ['Personal','NNP','person'],
        ['Website','NNP','websit']
      ]
    }
  ]
}]