Robyn, NNP, robyn
Rihanna, NNP, rihann
Rihanna, NNP, rihann
Rhiannon, NNP, rhiannon
Barbadian, JJ, barbad
recording, NN, record
artist, NN, art
Born, NNP, born
in, IN, in
Saint, NNP, saint
Barbados, NNP, barbado
Evan, NNP, ev
through, IN, through
mutual, JJ, mut
friends, NNS, friend
in, IN, in
late, JJ, lat
2003, CD, 2003
and, CC, and
recorded, VBD, record
demo, NN, demo
tapes, NNS, tap
under, IN, under
Rogers, NNP, rog
's, POS, 's
guidance, NN, guid
Def, NNP, def
after, IN, after
auditioning, VBG, audit
for, IN, for
its, PRP$, its
president, NN, presid
Rihanna, NNP, rihann
's, POS, 's
debut, NN, debut
and, CC, and
second, JJ, second
studio, NN, studio
albums, NNS, alb
Music, NNP, mus
of, IN, of
the, DT, the
Sun, NNP, sun
Billboard, NNP, billboard
200, CD, 200
chart, NN, chart
Billboard, NNP, billboard
Hot, NNP, hot
100, CD, 100
top, NN, top
two, CD, two
hit, NN, hit
single, JJ, singl
``, ``, ``
Pon, NNP, pon
de, IN, de
Replay, NNP, replay
'', '', ''
and, CC, and
her, PRP$, her
first, JJ, first
Hot, NNP, hot
100, CD, 100
number-one, NN, number-one
``, ``, ``
Good, NNP, good
Music, NNP, mus
'', '', ''
Grammy, NNP, grammy
Best, NNP, best
for, IN, for
``, ``, ``
Rihanna, NNP, rihann
's, POS, 's
best-selling, JJ, best-selling
album, NN, alb
in, IN, in
the, DT, the
US, NNP, us
to, TO, to
date, NN, dat
Chris, NNP, chris
Rihanna, NNP, rihann
released, VBD, releas
her, PRP, her
fourth, JJ, four
studio, NN, studio
album, NN, alb
Rated, NNP, rat
Loud, NNP, loud
Talk, NNP, talk
That, NNP, that
Talk, NNP, talk
Unapologetic, NNP, unapologet
Rude, NNP, rud
'', '', ''
Have, NNP, hav
'', '', ''
and, CC, and
``, ``, ``
Girl, NNP, girl
Found, NNP, found
'', '', ''
Rihanna, NNP, rihann
has, VBZ, hav
collaborated, VBN, collab
with, IN, with
numerous, JJ, num
other, JJ, oth
artists, NNS, art
Live, JJ, liv
Life, NNP, lif
'', '', ''
Way, NNP, way
'', '', ''
Eminem, NNP, eminem
Rihanna, NNP, rihann
's, POS, 's
work, NN, work
has, VBZ, hav
earned, VBN, earn
her, PRP$, her
numerous, JJ, num
awards, NNS, award
and, CC, and
accolades, NNS, accolad
Grammy, NNP, grammy
American, NNP, am
Billboard, NNP, billboard
BRIT, NNP, brit
Billboard, NNP, billboard
Hot, NNP, hot
100, CD, 100
chart, NN, chart
Billboard, NNP, billboard
named, VBD, nam
her, PRP, her
the, DT, the
Digital, NNP, digit
of, IN, of
the, DT, the
2000s, CD, 2000s
decade, NN, decad
Billboard, NNP, billboard
ranked, VBD, rank
Rihanna, NNP, rihann
the, DT, the
top, JJ, top
Hot, NNP, hot
100, CD, 100
artist, NN, art
of, IN, of
the, DT, the
2010s, CD, 2010s
decade, NN, decad
Forbes, NNP, forb
ranked, VBD, rank
her, PRP, her
the, DT, the
fourth, JJ, four
most, JJS, most
powerful, JJ, pow
celebrity, NN, celebr
of, IN, of
the, DT, the
year, NN, year
TIME, NNP, tim
named, VBD, nam
Rihanna, NNP, rihann
one, CD, one
of, IN, of
the, DT, the
100, CD, 100
Most, NNP, most
Influential, NNP, influ
People, NNP, peopl
in, IN, in
the, DT, the
World, NNP, world
Robyn, NNP, robyn
was, VBD, be
born, VBN, bear
on, IN, on
February, NNP, febru
20, CD, 20
Saint, NNP, saint
Barbados, NNP, barbado
Monica, NNP, monic
Ronald, NNP, ronald
Barbadian, NNP, barbad
and, CC, and
Irish, NNP, ir
descent, NN, desc
Rihanna, NNP, rihann
has, VBZ, hav
two, CD, two
brothers, NNS, broth
Rorrey, NNP, rorrey
and, CC, and
Rajad, NNP, rajad
Bridgetown, NNP, bridgetown
and, CC, and
sold, VBD, sel
clothes, NNS, cloth
with, IN, with
her, PRP$, her
father, NN, fath
in, IN, in
Rihanna, NNP, rihann
's, POS, 's
childhood, NN, child
was, VBD, be
deeply, RB, deeply
affected, VBN, affect
by, IN, by
her, PRP$, her
father, NN, fath
's, POS, 's
addiction, NN, addict
to, TO, to
crack, VB, crack
cocaine, NN, cocain
Rihanna, NNP, rihann
grew, VBD, grow
up, RP, up
listening, VBG, list
to, TO, to
reggae, VB, regga
music, JJ, mus
and, CC, and
began, VBD, begin
singing, VBG, sing
at, IN, at
around, IN, around
the, DT, the
age, NN, ag
of, IN, of
seven, CD, seven
Charles, NNP, charl
Primary, NNP, prim
School, NNP, school
and, CC, and
Combermere, NNP, comberm
Rihanna, NNP, rihann
was, VBD, be
an, DT, an
army, NN, army
cadet, NN, cadet
in, IN, in
Shontelle, NNP, shontel
was, VBD, be
her, PRP$, her
drill, NN, dril
sergeant, NN, serg
Rihanna, NNP, rihann
's, POS, 's
career, NN, car
began, VBD, begin
through, IN, through
her, PRP$, her
association, NN, assocy
with, IN, with
American, JJ, am
record, NN, record
producers, NNS, produc
Carl, NNP, carl
and, CC, and
Evan, NNP, ev
Rogers, NNP, rog
through, IN, through
mutual, JJ, mut
friends, NNS, friend
in, IN, in
Barbados, NNP, barbado
in, IN, in
December, NNP, decemb
2003, CD, 2003
Rogers, NNP, rog
Rihanna, NNP, rihann
to, TO, to
come, VB, com
to, TO, to
his, PRP$, his
hotel, NN, hotel
room, NN, room
Rogers, NNP, rog
Rihanna, NNP, rihann
and, CC, and
her, PRP$, her
mother, NN, moth
to, TO, to
New, NNP, new
to, TO, to
record, VB, record
some, DT, some
demo, NN, demo
tapes, NNS, tap
Rihanna, NNP, rihann
was, VBD, be
signed, VBN, sign
to, TO, to
Rogers, NNP, rog
Sturken, NNP, sturk
's, POS, 's
production, NN, produc
company, NN, company
Syndicated, NNP, synd
Jay, NNP, jay
executive, JJ, execut
at, IN, at
Def, NNP, def
CEO, NNP, ceo
of, IN, of
Def, NNP, def
Sun, NNP, sun
and, CC, and
Jingle, NNP, jingl
Rihanna, NNP, rihann
flew, VBD, fly
up, RP, up
to, TO, to
New, NNP, new
to, TO, to
audition, NN, audit
for, IN, for
Jay-Z, JJ, jay-z
and, CC, and
industry, NN, industry
executive, NN, execut
L.A., NNP, l.a.
Reid, NNP, reid
Whitney, NNP, whitney
's, POS, 's
version, NN, vert
of, IN, of
``, ``, ``
Love, NNP, lov
of, IN, of
You, NNP, you
'', '', ''
and, CC, and
the, DT, the
original, JJ, origin
songs, NNS, song
``, ``, ``
Pon, NNP, pon
de, IN, de
Replay, NNP, replay
'', '', ''
and, CC, and
``, ``, ``
Rihanna, NNP, rihann
signed, VBD, sign
Def, NNP, def
New, NNP, new
to, TO, to
live, VB, liv
with, IN, with
Rogers, NNP, rog
and, CC, and
his, PRP$, his
wife, NN, wif
Rihanna, NNP, rihann
spent, VBD, spend
the, DT, the
next, JJ, next
three, CD, three
months, NNS, mon
collaborating, VBG, collab
with, IN, with
rapper, JJR, rap
Memphis, NNP, memph
Bleek, NNP, bleek
on, IN, on
his, PRP$, his
fourth, JJ, four
studio, NN, studio
album, NN, alb
534, CD, 534
and, CC, and
recording, VBG, record
her, PRP$, her
debut, NN, debut
album, NN, alb
Rogers, NNP, rog
Sturken, NNP, sturk
StarGate, NNP, starg
and, CC, and
Poke, NNP, pok
Pon, NNP, pon
de, IN, de
Replay, NNP, replay
'', '', ''
US, NNP, us
Hot, NNP, hot
100, CD, 100
chart, NN, chart
and, CC, and
the, DT, the
UK, NNP, uk
Chart, NNP, chart
Music, NNP, mus
of, IN, of
the, DT, the
Sun, NNP, sun
US, NNP, us
Billboard, NNP, billboard
200, CD, 200
and, CC, and
received, VBD, receiv
America, NNP, americ
RIAA, NNP, ria
Sal, NNP, sal
Cinquemani, NNP, cinqueman
of, IN, of
Slant, NNP, slant
described, VBD, describ
the, DT, the
album, NN, alb
as, IN, as
Baby, NNP, baby
'', '', ''
Lovin, NNP, lovin
Australia, NNP, austral
Ireland, NNP, ireland
New, NNP, new
Rihanna, NNP, rihann
began, VBD, begin
working, VBG, work
on, IN, on
her, PRP$, her
second, JJ, second
studio, NN, studio
album, NN, alb
Rogers, NNP, rog
Sturken, NNP, sturk
StarGate, NNP, starg
J., NNP, j.
and, CC, and
label-mate, JJ, label-mate
singer-songwriter, NN, singer-songwrit
Ne-Yo, -NONE-, Ne-Yo
worked, VBD, work
on, IN, on
the, DT, the
production, NN, produc
and, CC, and
writing, VBG, writ
of, IN, of
the, DT, the
album, NN, alb
Critical, JJ, crit
response, NN, respons
to, TO, to
the, DT, the
album, NN, alb
was, VBD, be
mixed, VBN, mix
Canada, NNP, canad
and, CC, and
number, NN, numb
five, CD, five
in, IN, in
the, DT, the
UK, NNP, uk
and, CC, and
US, NNP, us
Canada, NNP, canad
Germany, NNP, germany
New, NNP, new
United, NNP, unit
US, NNP, us
Hot, NNP, hot
100, CD, 100
and, CC, and
in, IN, in
Australia, NNP, austral
Canada, NNP, canad
and, CC, and
Switzerland, NNP, switzerland
Sean, NNP, sean
Rihanna, NNP, rihann
embarked, VBD, embark
on, IN, on
her, PRP$, her
first, JJ, first
headlining, NN, headlin
tour, NN, tour
Concert, NNP, concert
Rock, NNP, rock
Pussycat, NNP, pussyc
on, IN, on
their, PRP$, their
PCD, NNP, pcd
World, NNP, world
Tour, NNP, tour
Good, NNP, good
and, CC, and
Rated, NNP, rat
R===, NNP, r===
For, NNP, for
her, PRP, her
third, JJ, third
studio, NN, studio
album, NN, alb
Good, NNP, good
Rihanna, NNP, rihann
embraced, VBD, embrac
Timbaland, NNP, timbaland
Sean, NNP, sean
Australia, NNP, austral
and, CC, and
the, DT, the
US, NNP, us
and, CC, and
topped, VBD, top
the, DT, the
charts, NNS, chart
in, IN, in
multiple, NN, multipl
countries, NNS, country
Brazil, NNP, brazil
Canada, NNP, canad
Ireland, NNP, ireland
Japan, NNP, jap
Russia, NNP, russ
and, CC, and
the, DT, the
UK, NNP, uk
UK, NNP, uk
for, IN, for
ten, RB, ten
consecutive, JJ, consecut
weeks, NNS, week
Wet, NNP, wet
's, POS, 's
single, JJ, singl
``, ``, ``
Love, NNP, lov
'', '', ''
spent, NN, spent
fifteen, RB, fifteen
weeks, VBZ, week
at, IN, at
the, DT, the
top, JJ, top
in, IN, in
1994, CD, 1994
Rihanna, NNP, rihann
's, POS, 's
first, JJ, first
single, JJ, singl
to, TO, to
be, VB, be
named, VBN, nam
one, CD, one
of, IN, of
the, DT, the
best-selling, JJ, best-selling
singles, NNS, singl
worldwide, VBP, worldwid
Shut, NNP, shut
and, CC, and
Drive, NNP, driv
'', '', ''
Music, NNP, mus
'', '', ''
were, VBD, be
also, RB, also
released, VBN, releas
as, IN, as
singles, NNS, singl
Good, NNP, good
in, IN, in
September, NNP, septemb
2007, CD, 2007
US, NNP, us
Canada, NNP, canad
Europe, NNP, europ
Rihanna, NNP, rihann
was, VBD, be
nominated, VBN, nomin
for, IN, for
several, JJ, sev
2008, CD, 2008
Grammy, NNP, grammy
Best, NNP, best
for, IN, for
``, ``, ``
Rihanna, NNP, rihann
performed, VBD, perform
on, IN, on
the, DT, the
Glow, NNP, glow
in, IN, in
the, DT, the
Dark, NNP, dark
alongside, NN, alongsid
Kanye, NNP, kany
Lupe, NNP, lup
Good, NNP, good
Rihanna, NNP, rihann
and, CC, and
Mary, NNP, mary
Mariah, NNP, mariah
Stand, NNP, stand
Stand, NNP, stand
to, TO, to
Cancer, NNP, cant
Live, JJ, liv
Life, NNP, lif
'', '', ''
Rihanna, NNP, rihann
Billboard, NNP, billboard
Hot, NNP, hot
100, CD, 100
Good, NNP, good
Remixes, NNPS, remix
Good, NNP, good
Girl, NNP, girl
has, VBZ, hav
sold, VBN, sel
over, IN, over
2.8, CD, 2.8
million, CD, million
units, NNS, unit
in, IN, in
the, DT, the
United, NNP, unit
alone, RB, alon
RIAA, NNP, ria
Rihanna, NNP, rihann
's, POS, 's
best-selling, JJ, best-selling
album, NN, alb
in, IN, in
the, DT, the
country, NN, country
to, TO, to
date, NN, dat
Rihanna, NNP, rihann
collaborated, VBD, collab
with, IN, with
Jay-Z, JJ, jay-z
and, CC, and
Kanye, NNP, kany
on, IN, on
``, ``, ``
Billboard, NNP, billboard
Hot, NNP, hot
100, CD, 100
UK, NNP, uk
Rated, NNP, rat
Critical, JJ, crit
response, NN, respons
was, VBD, be
favorable, JJ, fav
Rihanna, NNP, rihann
``, ``, ``
Russian, JJ, russ
Roulette, NNP, roulet
'', '', ''
Norway, NNP, norway
and, CC, and
Switzerland, NNP, switzerland
and, CC, and
making, VBG, mak
the, DT, the
top, JJ, top
ten, NN, ten
in, IN, in
sixteen, NN, sixteen
other, JJ, oth
countries, NNS, country
Hard, NNP, hard
'', '', ''
with, IN, with
Young, NNP, young
and, CC, and
``, ``, ``
Rude, NNP, rud
'', '', ''
US, NNP, us
Hot, NNP, hot
100, CD, 100
for, IN, for
six, CD, six
weeks, NNS, week
and, CC, and
reaching, VBG, reach
top, JJ, top
ten, NN, ten
positions, NNS, posit
in, IN, in
twenty-two, CD, twenty-two
other, JJ, oth
countries, NNS, country
Slash, NNP, slash
and, CC, and
``, ``, ``
Rated, NNP, rat
Remixed, NNP, remix
was, VBD, be
released, VBN, releas
in, IN, in
the, DT, the
spring, NN, spring
of, IN, of
2010, CD, 2010
and, CC, and
featured, VBD, feat
ten, VBN, ten
tracks, NNS, track
remixed, VBN, remix
by, IN, by
Chew, NNP, chew
Rihanna, NNP, rihann
embarked, VBD, embark
on, IN, on
her, PRP$, her
second, JJ, second
worldwide, NN, worldwid
tour, NN, tour
Earth, NNP, ear
Grammy, NNP, grammy
Best, NNP, best
and, CC, and
Best, NNP, best
Loud, NNP, loud
and, CC, and
Talk, NNP, talk
Talk===, NNP, talk===
In, NNP, in
summer, NN, sum
2010, CD, 2010
Rihanna, NNP, rihann
collaborated, VBD, collab
with, IN, with
rapper, NN, rap
Eminem, NNP, eminem
on, IN, on
``, ``, ``
Way, NNP, way
'', '', ''
Rihanna, NNP, rihann
's, POS, 's
seventh, JJ, seven
US, NNP, us
number, NN, numb
one, CD, one
of, IN, of
her, PRP$, her
career, NN, car
UK, NNP, uk
Rihanna, NNP, rihann
's, POS, 's
singles, NNS, singl
to, TO, to
sell, VB, sel
over, RP, over
one, CD, one
million, CD, million
copies, NNS, cop
in, IN, in
the, DT, the
country, NN, country
Lights, NNP, light
'', '', ''
Kanye, NNP, kany
's, POS, 's
album, NN, alb
My, NNP, my
John, NNP, john
Elly, NNP, el
Alicia, NNP, alic
Fergie, NNP, fergy
Kid, NNP, kid
Elton, NNP, elton
Rihanna, NNP, rihann
switched, VBD, switch
managers, NNS, man
Roc, NNP, roc
Loud, NNP, loud
Rihanna, NNP, rihann
's, POS, 's
fifth, JJ, fif
studio, NN, studio
album, NN, alb
Girl, NNP, girl
Australia, NNP, austral
Canada, NNP, canad
UK, NNP, uk
US, NNP, us
Drake, NNP, drak
US, NNP, us
and, CC, and
UK, NNP, uk
United, NNP, unit
in, IN, in
consecutive, JJ, consecut
years, NNS, year
US, NNP, us
Hot, NNP, hot
100, CD, 100
before, IN, before
``, ``, ``
Girl, NNP, girl
US, NNP, us
following, VBG, follow
the, DT, the
release, NN, releas
of, IN, of
its, PRP$, its
official, NN, off
remix, NN, remix
featuring, VBG, feat
Britney, NNP, britney
Rihanna, NNP, rihann
's, POS, 's
tenth, NN, ten
US, NNP, us
number, NN, numb
one, CD, one
single, JJ, singl
on, IN, on
the, DT, the
chart, NN, chart
Janet, NNP, janet
in, IN, in
fourth, JJ, four
place, NN, plac
for, IN, for
female, JJ, fem
soloists, NNS, solo
who, WP, who
have, VBP, hav
topped, VBN, top
the, DT, the
chart, NN, chart
Rihanna, NNP, rihann
set, VBD, set
California, NNP, californ
King, NNP, king
Bed, NNP, bed
'', '', ''
were, VBD, be
released, VBN, releas
as, IN, as
singles, NNS, singl
in, IN, in
May, NNP, may
2011, CD, 2011
with, IN, with
moderate, JJ, mod
success, NN, success
Drink, NNP, drink
to, TO, to
That, DT, That
UK, NNP, uk
and, CC, and
the, DT, the
top, JJ, top
ten, NN, ten
in, IN, in
the, DT, the
US, NNP, us
Girl, NNP, girl
Best, NNP, best
at, IN, at
the, DT, the
53rd, JJ, 53rd
Grammy, NNP, grammy
Rihanna, NNP, rihann
embarked, VBD, embark
on, IN, on
the, DT, the
Loud, NNP, loud
The, NNP, the
O2, NNP, o2
Arena, NNP, aren
in, IN, in
London, NNP, london
London, NNP, london
in, IN, in
December, NNP, decemb
2011, CD, 2011
were, VBD, be
filmed, VBN, film
for, IN, for
Rihanna, NNP, rihann
's, POS, 's
second, JJ, second
live, JJ, liv
video, NN, video
album, NN, alb
Loud, NNP, loud
at, IN, at
the, DT, the
O2, NNP, o2
Nicki, NNP, nick
released, VBD, releas
the, DT, the
collaboration, NN, collab
``, ``, ``
Rihanna, NNP, rihann
US, NNP, us
and, CC, and
UK, NNP, uk
Rihanna, NNP, rihann
's, POS, 's
sixth, JJ, six
album, NN, alb
Talk, NNP, talk
That, NNP, that
Talk, NNP, talk
Billboard, NNP, billboard
200, CD, 200
with, IN, with
sales, NNS, sal
of, IN, of
198,000, CD, 198,000
copies, NNS, cop
and, CC, and
number, NN, numb
one, CD, one
in, IN, in
the, DT, the
UK, NNP, uk
Found, NNP, found
'', '', ''
Billboard, NNP, billboard
Hot, NNP, hot
100, CD, 100
for, IN, for
ten, CD, ten
non-consecutive, JJ, non-consecutive
weeks, NNS, week
Rihanna, NNP, rihann
's, POS, 's
longest-running, JJ, longest-running
number, NN, numb
one, CD, one
single, JJ, singl
and, CC, and
the, DT, the
longest-running, JJ, longest-running
number, NN, numb
one, CD, one
of, IN, of
2011, CD, 2011
Billboard, NNP, billboard
Hot, NNP, hot
100, CD, 100
UK, NNP, uk
and, CC, and
US, NNP, us
Have, NNP, hav
'', '', ''
US, NNP, us
and, CC, and
six, CD, six
in, IN, in
the, DT, the
UK, NNP, uk
ASAP, NNP, asap
Rihanna, NNP, rihann
were, VBD, be
released, VBN, releas
Coldplay, NNP, coldplay
's, POS, 's
``, ``, ``
China, NNP, chin
'', '', ''
from, IN, from
the, DT, the
album, NN, alb
Mylo, NNP, mylo
and, CC, and
Drake, NNP, drak
's, POS, 's
``, ``, ``
Take, NNP, tak
'', '', ''
from, IN, from
his, PRP$, his
album, NN, alb
of, IN, of
the, DT, the
same, JJ, sam
name, NN, nam
Rihanna, NNP, rihann
won, VBD, win
her, PRP, her
third, JJ, third
Grammy, NNP, grammy
for, IN, for
Best, NNP, best
at, IN, at
the, DT, the
2012, CD, 2012
Grammy, NNP, grammy
Best, NNP, best
at, IN, at
the, DT, the
2012, CD, 2012
BRIT, NNP, brit
for, IN, for
the, DT, the
second, JJ, second
consecutive, JJ, consecut
year, NN, year
Rihanna, NNP, rihann
and, CC, and
Chris, NNP, chris
Turn, NNP, turn
the, DT, the
Music, NNP, mus
'', '', ''
Found, NNP, found
'', '', ''
won, VBD, win
the, DT, the
MTV, NNP, mtv
for, IN, for
Video, NNP, video
of, IN, of
the, DT, the
Year, NN, year
Rihanna, NNP, rihann
's, POS, 's
seventh, JJ, seven
studio, NN, studio
album, NN, alb
Unapologetic, NNP, unapologet
United, NNP, unit
Billboard, NNP, billboard
200, CD, 200
with, IN, with
sales, NNS, sal
of, IN, of
238,000, CD, 238,000
Rihanna, NNP, rihann
's, POS, 's
first, JJ, first
number, NN, numb
one, CD, one
album, NN, alb
in, IN, in
the, DT, the
country, NN, country
Loud, NNP, loud
Rihanna, NNP, rihann
's, POS, 's
third, JJ, third
consecutive, JJ, consecut
number, NN, numb
one, CD, one
album, NN, alb
in, IN, in
the, DT, the
United, NNP, unit
and, CC, and
fifth, JJ, fif
in, IN, in
Switzerland, NNP, switzerland
US, NNP, us
Hot, NNP, hot
100, CD, 100
Madonna, NNP, madonn
and, CC, and
The, DT, The
Supremes, NNP, suprem
as, IN, as
the, DT, the
artists, NNS, art
Mikky, NNP, mikky
Billboard, NNP, billboard
Hot, NNP, hot
100, CD, 100
US, NNP, us
single, JJ, singl
and, CC, and
third, JJ, third
overall, JJ, overal
American, JJ, am
rappers, NNS, rap
Young, NNP, young
Rick, NNP, rick
Juicy, NNP, juicy
David, NNP, david
serves, VBZ, serv
as, IN, as
the, DT, the
fourth, JJ, four
single, NN, singl
from, IN, from
the, DT, the
album, NN, alb
and, CC, and
currently, RB, cur
has, VBZ, hav
reached, VBN, reach
the, DT, the
top, JJ, top
fifty, NN, fifty
on, IN, on
the, DT, the
Hot, NNP, hot
100, CD, 100
Rihanna, NNP, rihann
embarked, VBD, embark
on, IN, on
the, DT, the
777, CD, 777
Tour, NNP, tour
DVD, NNP, dvd
of, IN, of
the, DT, the
tour, NN, tour
was, VBD, be
later, JJ, lat
released, VBN, releas
Grammy, NNP, grammy
Rihanna, NNP, rihann
won, VBD, win
her, PRP, her
sixth, JJ, six
Grammy, NNP, grammy
Best, NNP, best
for, IN, for
``, ``, ``
Found, NNP, found
'', '', ''
Official, NNP, off
Charts, NNP, chart
Company, NNP, company
announced, VBD, annount
that, IN, that
Rihanna, NNP, rihann
had, VBD, hav
sold, VBN, sel
records, NNS, record
in, IN, in
the, DT, the
past, JJ, past
year, NN, year
in, IN, in
the, DT, the
UK, NNP, uk
alone, NN, alon
Rihanna, NNP, rihann
's, POS, 's
fifth, JJ, fif
headlining, NN, headlin
concert, NN, concert
tour, NN, tour
World, NNP, world
'', '', ''
Unapologetic, NNP, unapologet
American, NNP, am
hip, NN, hip
hop, VB, hop
artist, NN, art
Wale, NNP, wal
released, VBD, releas
Rihanna, NNP, rihann
Good, NNP, good
Rihanna, NNP, rihann
took, VBD, tak
vocal, JJ, voc
lessons, NNS, lesson
from, IN, from
Ne-Yo, NNP, ne-yo
Loud, NNP, loud
James, NNP, jam
from, IN, from
BBC, NNP, bbc
praised, VBD, pra
Rihanna, NNP, rihann
's, POS, 's
vocals, NNS, voc
on, IN, on
the, DT, the
song, JJ, song
``, ``, ``
Way, NNP, way
Part, NNP, part
II, NNP, ii
Loud, NNP, loud
itself, PRP, itself
'', '', ''
Andy, NNP, andy
Gill, NNP, gil
from, IN, from
The, DT, The
Independent, NNP, independ
feels, VBZ, feel
that, IN, that
``, ``, ``
California, NNP, californ
King, NNP, king
Bed, NNP, bed
'', '', ''
features, VBZ, feat
her, PRP$, her
best, JJS, best
vocal, JJ, voc
performance, NN, perform
Unapologetic, NNP, unapologet
Billboard, NNP, billboard
magazine, NN, magazin
wrote, VBD, writ
Rihanna, NNP, rihann
doing, VBG, do
one, CD, one
of, IN, of
her, PRP$, her
throatiest, NN, throatiest
Jon, NNP, jon
of, IN, of
The, DT, The
New, NNP, new
stated, VBD, stat
Rihanna, NNP, rihann
is, VBZ, be
the, DT, the
rare, NN, rar
rhythm, NN, rhythm
and, CC, and
blues, NNS, blu
diva, VBP, div
to, TO, to
emerge, VB, emerg
from, IN, from
the, DT, the
Caribbean, NNP, carib
world, NN, world
Caribbean, NNP, carib
descent, NN, desc
Music, NNP, mus
of, IN, of
the, DT, the
Sun, NNP, sun
Kelefa, NNP, kelef
of, IN, of
The, DT, The
New, NNP, new
Rihanna, NNP, rihann
is, VBZ, be
only, RB, on
the, DT, the
latest, JJS, lat
singer, NN, sing
to, TO, to
discover, VB, discov
how, WRB, how
versatile, JJ, versatil
the, DT, the
genre, NN, genr
's, POS, 's
spring-loaded, JJ, spring-loaded
electronic, JJ, electron
rhythms, NNS, rhythm
can, MD, can
be, VB, be
'', '', ''
Stargate, NNP, starg
and, CC, and
production, NN, produc
duo, NN, duo
Carl, NNP, carl
and, CC, and
Evan, NNP, ev
Pon, NNP, pon
de, IN, de
Replay, NNP, replay
'', '', ''
Rihanna, NNP, rihann
infuse, NN, infus
Shut, NNP, shut
and, CC, and
Drive, NNP, driv
'', '', ''
and, CC, and
``, ``, ``
Rihanna, NNP, rihann
worked, VBD, work
again, RB, again
with, IN, with
Sturken, NNP, sturk
and, CC, and
Rogers, NNP, rog
Good, NNP, good
Timbaland, NNP, timbaland
Sean, NNP, sean
Stewart, NNP, stewart
Rihanna, NNP, rihann
again, RB, again
entered, VBD, ent
Rated, NNP, rat
Chris, NNP, chris
Loud, NNP, loud
Loud, NNP, loud
Rated, NNP, rat
Loud, NNP, loud
reflects, VBZ, reflect
the, DT, the
sassy, JJ, sassy
Talk, NNP, talk
That, NNP, that
Talk, NNP, talk
Rated, NNP, rat
Loud, NNP, loud
and, CC, and
Talk, NNP, talk
That, NNP, that
Talk, NNP, talk
also, RB, also
saw, VBD, saw
her, PRP, her
return, NN, return
to, TO, to
her, PRP$, her
dancehall, NN, dancehal
roots, NNS, root
Found, NNP, found
'', '', ''
Girl, NNP, girl
Rihanna, NNP, rihann
has, VBZ, hav
named, VBN, nam
Madonna, NNP, madonn
as, IN, as
her, PRP$, her
idol, NN, idol
and, CC, and
biggest, JJS, big
influence, NN, influ
Madonna, NNP, madonn
'', '', ''
Madonna, NNP, madonn
was, VBD, be
Whitney, NNP, whitney
as, IN, as
Mariah, NNP, mariah
and, CC, and
Beyonc\u00e9, NNP, beyonc\u00e9
Knowles, NNP, knowl
as, IN, as
major, JJ, maj
influences, NNS, influ
Janet, NNP, janet
Rihanna, NNP, rihann
has, VBZ, hav
commented, VBN, com
that, IN, that
``, ``, ``
Rihanna, NNP, rihann
was, VBD, be
inspired, VBN, inspir
to, TO, to
start, VB, start
her, PRP$, her
career, NN, car
after, IN, after
watching, VBG, watch
Knowles, NNP, knowl
on, IN, on
television, NN, televid
with, IN, with
Destiny, NNP, destiny
's, POS, 's
Child, NNP, child
Rihanna, NNP, rihann
commented, VBD, com
that, IN, that
Marilyn, NNP, marilyn
and, CC, and
vintage, NN, vint
clothing, NN, cloth
served, VBD, serv
as, IN, as
visual, JJ, vis
inspiration, NN, inspir
for, IN, for
the, DT, the
music, NN, mus
video, NN, video
``, ``, ``
Michael, NNP, michael
's, POS, 's
Thriller, NNP, thriller
Alicia, NNP, alic
Fefe, NNP, fef
Celine, NNP, celin
Brandy, NNP, brandy
Gwen, NNP, gwen
Jon, NNP, jon
Bream, NNP, bream
of, IN, of
the, DT, the
Star, NNP, star
commented, VBD, com
``, ``, ``
Madonna, NNP, madonn
and, CC, and
Janet, NNP, janet
Rihanna, NNP, rihann
has, VBZ, hav
become, VBN, becom
the, DT, the
video, NN, video
vixen, NN, vix
of, IN, of
the, DT, the
'00s, NNS, '00s
..., :, ...
Rihanna, NNP, rihann
has, VBZ, hav
perfected, VBN, perfect
the, DT, the
pout, NN, pout
YouTube, NNP, youtub
George, NNP, georg
of, IN, of
InStyle, NNP, instyl
considers, NNS, consid
Rihanna, NNP, rihann
's, POS, 's
music, JJ, mus
videos, NNS, video
to, TO, to
be, VB, be
``, ``, ``
Rihanna, NNP, rihann
's, POS, 's
music, JJ, mus
contains, NNS, contain
strong, JJ, strong
influences, NNS, influ
of, IN, of
Caribbean, NNP, carib
music, NN, mus
Rude, NNP, rud
'', '', ''
was, VBD, be
inspired, VBN, inspir
by, IN, by
her, PRP$, her
Caribbean, NNP, carib
roots, NNS, root
Barbados, NNP, barbado
she, PRP, she
listened, VBD, list
to, TO, to
reggae, VB, regga
music, JJ, mus
United, NNP, unit
she, PRP, she
was, VBD, be
exposed, VBN, expos
to, TO, to
many, JJ, many
different, JJ, diff
types, NNS, typ
of, IN, of
music, JJ, mus
Rihanna, NNP, rihann
is, VBZ, be
heavily, RB, heavy
influenced, VBN, influ
by, IN, by
the, DT, the
Jamaican, NNP, jama
singer-songwriter, NNP, singer-songwrit
Bob, NNP, bob
Caribbean, NNP, carib
'', '', ''
Los, NNP, los
home, NN, hom
dedicated, VBD, ded
to, TO, to
Marley, NNP, marley
Rihanna, NNP, rihann
has, VBZ, hav
covered, VBN, cov
Marley, NNP, marley
's, POS, 's
``, ``, ``
Bob, NNP, bob
Wailers, NNP, wail
Song, NNP, song
'', '', ''
Rihanna, NNP, rihann
has, VBZ, hav
worked, VBN, work
with, IN, with
music, JJ, mus
video, NN, video
director, NN, direct
Anthony, NNP, anthony
on, IN, on
more, JJR, mor
than, IN, than
Roulette, NNP, roulet
's, POS, 's
and, CC, and
things, NNS, thing
like, IN, like
that, DT, that
Girl, NNP, girl
Mandler, NNP, mandl
said, VBD, say
Jocelyn, NNP, jocelyn
Vena, NNP, ven
of, IN, of
MTV, NNP, mtv
wrote, VBD, writ
Rihanna, NNP, rihann
Madonna, NNP, madonn
Smattered, NNP, smat
in, IN, in
between, IN, between
glitzier, JJR, glitzy
Madge, NNP, madg
and, CC, and
Ri, NNP, ri
want, NN, want
us, PRP, us
to, TO, to
think, VB, think
about, IN, about
bigger, JJR, big
issues, NNS, issu
'', '', ''
Way, NNP, way
'', '', ''
Found, NNP, found
'', '', ''
were, VBD, be
shot, RB, shot
as, IN, as
short, JJ, short
films, NNS, film
exploring, VBG, expl
issues, NNS, issu
such, JJ, such
as, IN, as
love, JJ, lov
triangles, NNS, triangl
Rihanna, NNP, rihann
's, POS, 's
transition, NN, transit
into, IN, into
adulthood, NN, adult
and, CC, and
her, PRP$, her
newly, RB, new
adopted, VBN, adopt
image, NN, im
Tamar, NNP, tam
Anitai, NNP, anita
from, IN, from
MTV, NNP, mtv
listed, VBD, list
``, ``, ``
Buzzworthy, NNP, buzzworthy
's, POS, 's
Top, NNP, top
Music, NNP, mus
'', '', ''
Paranoia, NNP, parano
never, RB, nev
looked, VBD, look
so, RB, so
supernaturally, RB, supern
sexy, JJ, sexy
Russian, JJ, russ
Roulette, NNP, roulet
'', '', ''
features, VBZ, feat
Rihanna, NNP, rihann
in, IN, in
Rihanna, NNP, rihann
being, VBG, be
approached, VBN, approach
by, IN, by
Chris, NNP, chris
Rude, NNP, rud
'', '', ''
was, VBD, be
compared, VBN, comp
to, TO, to
rapper, VB, rap
M.I.A, NNP, m.i.a
Rihanna, NNP, rihann
released, VBD, releas
three, CD, three
controversial, JJ, controvers
music, NN, mus
videos, NNS, video
about, IN, about
sadomasochism, NN, sadomasoch
Rihanna, NNP, rihann
shooting, VBG, shoot
Parents, NNP, par
Found, NNP, found
'', '', ''
Rihanna, NNP, rihann
and, CC, and
her, PRP$, her
love, NN, lov
interest, NN, interest
in, IN, in
Rape, NNP, rap
for, IN, for
its, PRP$, its
inappropriate, JJ, inappropry
message, NN, mess
Charne, NNP, charn
Graham, NNP, graham
of, IN, of
the, DT, the
Houston, NNP, houston
Press, NNP, press
stated, VBD, stat
Rihanna, NNP, rihann
's, POS, 's
music, JJ, mus
videos, NNS, video
get, VBP, get
everyone, NN, everyon
riled, VBN, ril
up, RP, up
when, WRB, when
others, NNS, oth
Rihanna, NNP, rihann
is, VBZ, be
the, DT, the
first, JJ, first
woman, NN, wom
to, TO, to
pass, VB, pass
two, CD, two
billion, CD, billion
cumulative, JJ, cum
views, NNS, view
on, IN, on
the, DT, the
music, NN, mus
video, NN, video
website, NN, websit
VEVO, NNP, vevo
Denis, NNP, den
of, IN, of
Canadian, NNP, canad
Online, NNP, onlin
Explorer, NNP, expl
commented, VBD, com
on, IN, on
her, PRP$, her
performance, NN, perform
at, IN, at
the, DT, the
Ottawa, NNP, ottaw
MTV, NNP, mtv
was, VBD, be
ranked, VBN, rank
tenth, NN, ten
best, JJS, best
on, IN, on
the, DT, the
MTV, NNP, mtv
Billboard, NNP, billboard
poll, NN, pol
Malaysia, NNP, malays
's, POS, 's
conservative, JJ, conserv
Islamic, NNP, islam
party, NN, party
Whilst, NNP, whilst
commenting, NN, com
on, IN, on
her, PRP$, her
third, JJ, third
album, NN, alb
's, POS, 's
accompanying, NN, accompany
tour, NN, tour
Times, NNP, tim
compared, VBD, comp
Rihanna, NNP, rihann
's, POS, 's
stage, NN, stag
wardrobe, NN, wardrob
styling, VBG, styl
to, TO, to
that, DT, that
of, IN, of
Janet, NNP, janet
and, CC, and
called, VBN, cal
her, PRP$, her
``, ``, ``
Ann, NNP, an
couture, NN, cout
in, IN, in
thigh-high, JJ, thigh-high
boots, NNS, boot
and, CC, and
PVC, NNP, pvc
British, NNP, brit
Rihanna, NNP, rihann
said, VBD, say
her, PRP, her
performance, NN, perform
outfits, NNS, outfit
and, CC, and
appearances, NNS, appear
are, VBP, be
all, DT, all
an, DT, an
act, NN, act
New, NNP, new
magazine, NN, magazin
described, VBD, describ
Rihanna, NNP, rihann
's, POS, 's
early, JJ, ear
look, NN, look
as, IN, as
that, DT, that
of, IN, of
Rihanna, NNP, rihann
's, POS, 's
style, NN, styl
Rihanna, NNP, rihann
went, VBD, go
told, VBD, tel
Look, NNP, look
magazine, NN, magazin
that, WDT, that
``, ``, ``
Rihanna, NNP, rihann
's, POS, 's
new, JJ, new
image, NN, im
Charlize, NNP, charl
's, POS, 's
bob, NN, bob
cut, VBD, cut
in, IN, in
the, DT, the
science, NN, sci
fiction, NN, fict
thriller, NN, thriller
\u00c6on, NN, \u00e6on
Flux, NNP, flux
MTV, NNP, mtv
Rob, NNP, rob
wrote, VBD, writ
Good, NNP, good
seemed, VBD, seem
to, TO, to
serve, VB, serv
as, IN, as
Rihanna, NNP, rihann
has, VBZ, hav
emerged, VBN, emerg
as, IN, as
Guardian, NNP, guard
wrote, VBD, writ
that, IN, that
``, ``, ``
Rihanna, NNP, rihann
's, POS, 's
wardrobe, NN, wardrob
is, VBZ, be
the, DT, the
most, RBS, most
talked-about, JJ, talked-about
Dressed, NNP, dress
of, IN, of
2008, CD, 2008
'', '', ''
list, NN, list
Rihanna, NNP, rihann
hit, VBD, hit
all, DT, all
the, DT, the
right, NN, right
notes, NNS, not
in, IN, in
her, PRP$, her
sophisticated, JJ, soph
mix, NN, mix
of, IN, of
glamorous, JJ, glam
gowns, NNS, gown
Miranda, NNP, mirand
admires, VBZ, admir
Rihanna, NNP, rihann
's, POS, 's
fashion, NN, fash
and, CC, and
style, NN, styl
MTV, NNP, mtv
The, NNP, the
writer, NN, writ
and, CC, and
feminist, NN, femin
Eve, NNP, ev
praised, VBD, pra
the, DT, the
singer, NN, sing
Hewett, NNP, hewet
from, IN, from
Metro, NNP, metro
wrote, VBD, writ
Rihanna, NNP, rihann
is, VBZ, be
quite, RB, quit
possibly, RB, poss
THE, DT, THE
most, RBS, most
sexiest, JJ, sexy
woman, NN, wom
in, IN, in
the, DT, the
world, NN, world
Rihanna, NNP, rihann
looks, VBZ, look
good, JJ, good
in, IN, in
anything, NN, anyth
ANYTHING, NNP, anyth
Battleship, NNP, battl
Maxim, NNP, maxim
FHM, NNP, fhm
Rolling, NNP, rol
and, CC, and
GQ, NNP, gq
Maxims, NNP, maxim
100, CD, 100
list, NN, list
and, CC, and
on, IN, on
FHMs, NNP, fhms
``, ``, ``
Sexiest, NNP, sexiest
in, IN, in
the, DT, the
World, NNP, world
'', '', ''
several, JJ, sev
times, NNS, tim
Venus, NNP, ven
's, POS, 's
Celebrity, NNP, celebr
of, IN, of
Gillette, NNP, gillet
in, IN, in
2007, CD, 2007
and, CC, and
Diva, NNP, div
of, IN, of
the, DT, the
year, NN, year
by, IN, by
Entertainment, NNP, entertain
in, IN, in
2008, CD, 2008
Glamour, NNP, glamo
ranked, VBD, rank
her, PRP, her
at, IN, at
number, NN, numb
17, CD, 17
on, IN, on
the, DT, the
50, CD, 50
Most, NNP, most
Glamorous, NNP, glam
Women, NNP, wom
and, CC, and
Esquire, NNP, esquir
named, VBD, nam
her, PRP, her
the, DT, the
Sexiest, NNP, sexiest
Woman, NNP, wom
Alive, NNP, al
of, IN, of
2011, CD, 2011
Rihanna, NNP, rihann
became, VBD, becom
the, DT, the
first, JJ, first
woman, NN, wom
to, TO, to
be, VB, be
featured, VBN, feat
on, IN, on
the, DT, the
cover, NN, cov
of, IN, of
GQ, NNP, gq
magazine\u2019s, NNP, magazine\u2019s
``, ``, ``
Complex, NNP, complex
list, NN, list
of, IN, of
``, ``, ``
Hottest, NNP, hottest
of, IN, of
All, NNP, al
Time, NNP, tim
'', '', ''
VH1, NNP, vh1
placed, VBD, plac
Rihanna, NNP, rihann
second, JJ, second
on, IN, on
their, PRP$, their
list, NN, list
of, IN, of
``, ``, ``
Sexiest, NNP, sexiest
'', '', ''
Sanskrit, NNP, sanskrit
prayer, NN, pray
on, IN, on
her, PRP$, her
hip, NN, hip
Messiah, NNP, messiah
'', '', ''
in, IN, in
Arabic, NNP, arab
on, IN, on
her, PRP$, her
ribcage, NN, ribc
Egyptian, JJ, egypt
falcon, NN, falcon
shaped, VBD, shap
like, IN, like
Rihanna, NNP, rihann
's, POS, 's
first, JJ, first
albums, NNS, alb
established, VBD, est
her, PRP, her
as, IN, as
Nick, NNP, nick
of, IN, of
Digital, NNP, digit
described, VBD, describ
her, PRP, her
third, JJ, third
studio, NN, studio
album, NN, alb
Good, NNP, good
Rolling, NNP, rol
Stone, NNP, ston
to, TO, to
be, VB, be
one, CD, one
of, IN, of
the, DT, the
500, CD, 500
greatest, JJS, gre
songs, NNS, song
of, IN, of
all, DT, all
time, NN, tim
and, CC, and
received, VBD, receiv
critical, JJ, crit
acclaim, NN, acclaim
Found, NNP, found
'', '', ''
was, VBD, be
ranked, VBN, rank
by, IN, by
Billboard, NNP, billboard
as, IN, as
the, DT, the
24th, CD, 24th
biggest, JJS, big
US, NNP, us
Hot, NNP, hot
100, CD, 100
hit, NN, hit
of, IN, of
all, DT, all
time, NN, tim
Grammy, NNP, grammy
for, IN, for
Best, NNP, best
and, CC, and
MTV, NNP, mtv
's, POS, 's
Video, NNP, video
of, IN, of
the, DT, the
Year, NN, year
Time, NNP, tim
Magazine, NNP, magazin
included, VBD, includ
Rihanna, NNP, rihann
on, IN, on
its, PRP$, its
100, CD, 100
Most, NNP, most
Influential, NNP, influ
People, NNP, peopl
in, IN, in
2012, CD, 2012
Stella, NNP, stell
writing, NN, writ
Forbes, NNP, forb
ranked, VBD, rank
Rihanna, NNP, rihann
fourth, JJ, four
on, IN, on
their, PRP$, their
Most, NNP, most
Powerful, NNP, pow
Celebrity, NNP, celebr
100, CD, 100
list, NN, list
Rihanna, NNP, rihann
has, VBZ, hav
sold, VBN, sel
over, IN, over
30, CD, 30
million, CD, million
albums, NNS, alb
and, CC, and
120, CD, 120
million, CD, million
singles, NNS, singl
worldwide, VBP, worldwid
United, NNP, unit
Rihanna, NNP, rihann
has, VBZ, hav
sold, VBN, sel
over, IN, over
9.8, CD, 9.8
million, CD, million
albums, NNS, alb
Nielsen, NNP, niels
ranked, VBD, rank
her, PRP, her
as, IN, as
the, DT, the
best-selling, JJ, best-selling
digital, NN, digit
artist, NN, art
in, IN, in
the, DT, the
country, NN, country
Guinness, NNP, guin
World, NNP, world
Record, NNP, record
for, IN, for
digital, JJ, digit
single, JJ, singl
sales, NNS, sal
of, IN, of
over, IN, over
58, CD, 58
million, CD, million
as, IN, as
of, IN, of
2012, CD, 2012
America, NNP, americ
RIAA, NNP, ria
United, NNP, unit
Eminem, NNP, eminem
Way, NNP, way
'', '', ''
Girl, NNP, girl
Found, NNP, found
'', '', ''
US, NNP, us
Hot, NNP, hot
100, CD, 100
chart, NN, chart
Madonna, NNP, madonn
and, CC, and
The, DT, The
Supremes, NNP, suprem
for, IN, for
fourth, JJ, four
place, NN, plac
Pop, NNP, pop
chart, NN, chart
artist, NN, art
of, IN, of
the, DT, the
past, JJ, past
twenty, NN, twenty
years, NNS, year
by, IN, by
Billboard, NNP, billboard
Rihanna, NNP, rihann
became, VBD, becom
the, DT, the
third, JJ, third
most-played, JJ, most-played
Top, NNP, top
40, CD, 40
artist, NN, art
based, VBN, bas
on, IN, on
Mediabase, NNP, mediabas
of, IN, of
Clear, NNP, clear
Communications, NNPS, commun
Rihanna, NNP, rihann
has, VBZ, hav
sold, VBN, sel
over, IN, over
14, CD, 14
million, CD, million
singles, NNS, singl
and, CC, and
six, CD, six
million, CD, million
albums, NNS, alb
in, IN, in
the, DT, the
United, NNP, unit
Madonna, NNP, madonn
Rihanna, NNP, rihann
was, VBD, be
named, VBN, nam
the, DT, the
15th, JJ, 15th
biggest, NN, biggest
US, NNP, us
Hot, NNP, hot
100, CD, 100
artist, NN, art
of, IN, of
all, DT, all
time, NN, tim
Billboard, NNP, billboard
compiled, VBD, compil
all, DT, all
time, NN, tim
artists, NNS, art
in, IN, in
2008, CD, 2008
Billboard, NNP, billboard
ranked, VBD, rank
Rihanna, NNP, rihann
the, DT, the
top, JJ, top
Hot, NNP, hot
100, CD, 100
artist, NN, art
of, IN, of
the, DT, the
2010s, CD, 2010s
decade, NN, decad
Rihanna, NNP, rihann
has, VBZ, hav
directly, RB, direct
influenced, VBN, influ
artists, NNS, art
such, JJ, such
as, IN, as
Justin, NNP, justin
Ellie, NNP, el
Demi, NNP, dem
Willow, NNP, willow
Rihanna, NNP, rihann
has, VBZ, hav
an, DT, an
honorary, JJ, hon
title, NN, titl
of, IN, of
Ambassador, NNP, ambassad
for, IN, for
Culture, NNP, cult
and, CC, and
Youth, NNP, you
in, IN, in
Barbados, NNP, barbado
Rihanna, NNP, rihann
has, VBZ, hav
become, VBN, becom
Forbes, NNP, forb
list, NN, list
of, IN, of
Social, NNP, soc
Facebook, NNP, facebook
Twitter, NNP, twit
YouTube, NNP, youtub
Spotify, NNP, spot
announced, VBD, annount
that, IN, that
Rihanna, NNP, rihann
is, VBZ, be
the, DT, the
most, RBS, most
streamed, VBN, stream
artist, NN, art
worldwide, NN, worldwid
Rihanna, NNP, rihann
was, VBD, be
also, RB, also
named, VBN, nam
the, DT, the
most, RBS, most
influential, JJ, influ
artist, NN, art
in, IN, in
the, DT, the
United, NNP, unit
and, CC, and
the, DT, the
most, RBS, most
influential, JJ, influ
celebrity, NN, celebr
on, IN, on
the, DT, the
internet, NN, internet
Rihanna, NNP, rihann
Australian, JJ, aust
premiere, NN, premy
of, IN, of
Battleship, NNP, battl
in, IN, in
April, NNP, april
2012, CD, 2012
Rihanna, NNP, rihann
has, VBZ, hav
ventured, VBN, vent
into, IN, into
other, JJ, oth
businesses, NNS, busy
and, CC, and
industries, NNS, industry
Rihanna, NNP, rihann
struck, NN, struck
an, DT, an
endorsement, NN, endors
deal, NN, deal
Secret, NNP, secret
Believe, NNP, believ
to, TO, to
help, VB, help
terminally, RB, termin
ill, VB, il
children, NNS, child
Rihanna, NNP, rihann
made, VBD, mak
her, PRP, her
acting, VBG, act
debut, NN, debut
in, IN, in
Rihanna, NNP, rihann
and, CC, and
other, JJ, oth
public, JJ, publ
figures, NNS, fig
designed, VBN, design
clothing, VBG, cloth
for, IN, for
the, DT, the
February, NNP, febru
2008, CD, 2008
Rihanna, NNP, rihann
's, POS, 's
first, JJ, first
fragrance, NN, fragr
Armani, NNP, arman
Rihanna, NNP, rihann
starred, VBD, star
as, IN, as
Petty, NNP, petty
GM2, NNP, gm2
Battleship, NNP, battl
Rihanna, NNP, rihann
's, POS, 's
performance, NN, perform
received, VBD, receiv
mixed-to-negative, JJ, mixed-to-negative
reviews, NNS, review
New, NNP, new
Times, NNP, tim
said, VBD, say
she, PRP, she
was, VBD, be
``, ``, ``
Golden, NNP, gold
for, IN, for
Worst, NNP, worst
and, CC, and
Katy, NNP, katy
Perry, NNP, perry
Me, NNP, me
Katy, NNP, katy
Rihanna, NNP, rihann
's, POS, 's
second, JJ, second
fragrance, NN, fragr
Styled, NNP, styl
to, TO, to
Rock, NNP, rock
Sky, NNP, sky
Rihanna, NNP, rihann
Nicola, NNP, nicol
Lysa, NNP, lys
Henry, NNP, henry
assist, NN, assist
up-and-coming, NN, up-and-coming
British, NNP, brit
designers, NNS, design
with, IN, with
their, PRP$, their
clothing, NN, cloth
lines, NNS, lin
Rihanna, NNP, rihann
appeared, VBD, appear
in, IN, in
the, DT, the
first, JJ, first
episode, NN, episod
of, IN, of
the, DT, the
second, JJ, second
season, NN, season
of, IN, of
Oprah, NNP, oprah
's, POS, 's
American, NNP, am
prime, NN, prim
time, NN, tim
television, NN, televid
show, NN, show
Oprah, NNP, oprah
's, POS, 's
Next, NNP, next
Chapter, NNP, chapt
Oprah, NNP, oprah
Rihanna, NNP, rihann
released, VBD, releas
her, PRP, her
third, JJ, third
fragrance, NN, fragr
Rihanna, NNP, rihann
presented, VBD, pres
her, PRP, her
first, RB, first
women, NNS, wom
's, POS, 's
fashion, NN, fash
collection, NN, collect
at, IN, at
London, NNP, london
for, IN, for
British, NNP, brit
street, NN, street
fashion, NN, fash
brand, NN, brand
River, NNP, riv
Adam, NNP, adam
MAC, NNP, mac
Seth, NNP, seth
and, CC, and
Evan, NNP, ev
comedy, NN, comedy
film, NN, film
This, DT, This
Is, VBZ, is
the, DT, the
End, NN, end
Rihanna, NNP, rihann
's, POS, 's
first, JJ, first
men, NNS, men
's, POS, 's
fragrance, NN, fragr
Rihanna, NNP, rihann
's, POS, 's
scheduled, VBN, schedule
performance, NN, perform
at, IN, at
the, DT, the
51st, CD, 51st
Grammy, NNP, grammy
was, VBD, be
cancelled, VBN, cancel
Chris, NNP, chris
Brown, NNP, brown
was, VBD, be
charged, VBN, charg
with, IN, with
assault, NN, assault
and, CC, and
making, VBG, mak
criminal, JJ, crimin
threats, NNS, threat
Los, NNP, los
Police, NNP, pol
Department, NNP, depart
obtained, VBD, obtain
by, IN, by
TMZ.com\u2014which, JJ, tmz.com\u2014which
revealed, VBN, rev
that, IN, that
Rihanna, NNP, rihann
had, VBD, hav
sustained, VBN, sustain
visible, JJ, vis
injuries\u2014an, JJ, injuries\u2014an
organization, NN, org
known, VBN, know
as, IN, as
STOParazzi, NNP, stoparazz
proposed, VBD, propos
``, ``, ``
Rihanna, NNP, rihann
's, POS, 's
Law, NNP, law
Gil, NNP, gil
of, IN, of
VH1, NNP, vh1
reported, VBD, report
the, DT, the
``, ``, ``
Rihanna, NNP, rihann
was, VBD, be
subpoenaed, VBN, subpoen
to, TO, to
testify, VB, test
during, IN, during
Los, NNP, los
on, IN, on
June, NNP, jun
22, CD, 22
Brown, NNP, brown
pled, VBD, plead
guilty, JJ, guil
to, TO, to
felony, NN, felony
assault, NN, assault
Brown, NNP, brown
received, VBD, receiv
five, CD, five
years, NNS, year
probation, NN, prob
and, CC, and
was, VBD, be
ordered, VBN, ord
to, TO, to
stay, VB, stay
fifty, JJ, fifty
yards, NNS, yard
Rihanna, NNP, rihann
Brown, NNP, brown
's, POS, 's
lawyer, NN, lawy
and, CC, and
with, IN, with
Rihanna, NNP, rihann
's, POS, 's
consent, NN, cons
Patricia, NNP, patric
modified, VBD, mod
with, IN, with
the, DT, the
restraining, VBG, restrain
order, NN, ord
to, TO, to
Rihanna, NNP, rihann
dated, VBD, dat
Los, NNP, los
Dodgers, NNP, dodg
baseball, NN, basebal
star, NN, star
Matt, NNP, mat
Canadian, JJ, canad
rapper, NN, rap
Drake, NNP, drak
has, VBZ, hav
also, RB, also
admitted, VBN, admit
to, TO, to
dating, NN, dat
the, DT, the
singer, NN, sing
Rolling, NNP, rol
Rihanna, NNP, rihann
confirmed, VBD, confirm
that, IN, that
she, PRP, she
had, VBD, hav
rekindled, VBN, rekindl
her, PRP$, her
relationship, NN, rel
with, IN, with
Chris, NNP, chris
Brown, NNP, brown
stated, VBD, stat
that, IN, that
he, PRP, he
and, CC, and
Rihanna, NNP, rihann
had, VBD, hav
broken, VBN, break
up, RP, up
again, RB, again
Sun, NNP, sun
Me, NNP, me
Good, NNP, good
Loud, NNP, loud
Unapologetic, JJ, unapologet
Nothing, NNP, noth
Concert, NNP, concert
Earth, NNP, ear
Barbados, NNP, barbado
*Music, JJ, *music
of, IN, of
Barbados, NNP, barbado
*List, JJ, *list
of, IN, of
best-selling, JJ, best-selling
music, NN, mus
artists, NNS, art
*Honorific, JJ, *honorific
nicknames, NNS, nicknam
in, IN, in
popular, JJ, popul
music, NN, mus
*List, JJ, *list
of, IN, of
Billboard, NNP, billboard
50, CD, 50
number-one, NN, number-one
artists, NNS, art
*List, JJ, *list
of, IN, of
Billboard, NNP, billboard
100, CD, 100
chart, NN, chart
achievements, NNS, achiev
and, CC, and
milestones, NNS, mileston
==Notes==, -NONE-, ==Notes==
:1.Rihanna, JJ, :1.rihanna
has, VBZ, hav
won, VBN, win
six, CD, six
Grammy, NNP, grammy
as, IN, as
of, IN, of
2013, CD, 2013
Grammy, NNP, grammy
for, IN, for
Best, NNP, best
award, NN, award
in, IN, in
2012, CD, 2012
Rihanna, NNP, rihann
's, POS, 's
Grammy, NNP, grammy
and, CC, and
Nominations, NNS, nomin
Island, NNP, island
Rihanna, NNP, rihann
's, POS, 's
Believe, NNP, believ
