Japanese, JJ, japanes
painter, NN, paint
and, CC, and
lacquerer, NN, lacqu
of, IN, of
the, DT, the
late, JJ, lat
Edo, NNP, edo
period, NN, period
and, CC, and
early, RB, ear
Meiji, NNP, meij
era, NN, er
Japan, NNP, jap
Westernization, NNP, western
movement, NN, mov
Japan, NNP, jap
Zeshin, NNP, zeshin
has, VBZ, hav
come, VBN, com
to, TO, to
be, VB, be
well, RB, wel
regarded, VBN, regard
and, CC, and
much, RB, much
studied, VBD, study
among, IN, among
the, DT, the
art, NN, art
world, NN, world
of, IN, of
the, DT, the
West, NNP, west
England, NNP, england
and, CC, and
the, DT, the
United, NNP, unit
in, IN, in
particular, JJ, particul
Biography, NNP, biograph
==, NNP, ==
Zeshin, NNP, zeshin
was, VBD, be
born, VBN, bear
and, CC, and
raised, VBN, rais
in, IN, in
Edo, NNP, edo
Izumi, NNP, izum
and, CC, and
his, PRP$, his
father, NN, fath
Ichigoro, NNP, ichigoro
were, VBD, be
shrine, NN, shrine
carpenters, NNS, carp
Shibata, NNP, shibat
Katsukawa, NNP, katsukaw
Kametaro, NNP, kametaro
Zeshin, NNP, zeshin
was, VBD, be
called, VBN, cal
in, IN, in
his, PRP$, his
childhood, NN, child
Koma, NNP, kom
Zeshin, NNP, zeshin
abandoned, VBD, abandon
the, DT, the
name, NN, nam
Kametaro, NNP, kametaro
and, CC, and
became, VBD, becom
Junzo, NNP, junzo
Koma, NNP, kom
Kansai, NNP, kansa
decided, VBD, decid
that, IN, that
his, PRP$, his
young, JJ, young
charge, NN, charg
would, MD, would
need, VB, nee
to, TO, to
learn, VB, learn
to, TO, to
sketch, VB, sketch
Suzuki, NNP, suzuk
Shibata, NNP, shibat
then, RB, then
took, VBD, tak
on, IN, on
yet, NN, yet
another, DT, another
artist, NN, art
's, POS, 's
name, NN, nam
Junzo, NNP, junzo
and, CC, and
signing, VBG, sign
his, PRP$, his
works, NNS, work
``, ``, ``
Suzuki, NNP, suzuk
Koma, NNP, kom
Nanrei, NNP, nanre
that, IN, that
he, PRP, he
was, VBD, be
given, VBN, giv
the, DT, the
name, NN, nam
Zeshin, NNP, zeshin
Truth, NNP, tru
'', '', ''
Chinese, JJ, chines
tale, NN, tal
of, IN, of
Zeshin, NNP, zeshin
was, VBD, be
taken, VBN, tak
Zeshin, NNP, zeshin
learned, VBD, learn
not, RB, not
only, RB, on
the, DT, the
basics, NNS, bas
of, IN, of
painting, VBG, paint
and, CC, and
sketching, VBG, sketch
Japanese, JJ, japanes
tea, NN, tea
ceremony, NN, ceremony
Japanese, JJ, japanes
traditional, JJ, tradit
art, NN, art
Nanrei, NNP, nanre
were, VBD, be
fan, VBN, fan
paintings, NNS, paint
Utagawa, NNP, utagaw
was, VBD, be
impressed, VBN, impress
with, IN, with
these, DT, these
fan, JJ, fan
paintings, NNS, paint
and, CC, and
Zeshin, NNP, zeshin
later, JJ, lat
studied, VBD, study
under, IN, under
other, JJ, oth
great, JJ, gre
artists, NNS, art
of, IN, of
the, DT, the
Kyoto, NNP, kyoto
school, NN, school
Maruyama, NNP, maruyam
Okamoto, NNP, okamoto
Goshin, NNP, goshin
Zeshin, NNP, zeshin
excelled, VBD, excel
at, IN, at
traditional, JJ, tradit
ink, NN, ink
painting, NN, paint
Japanese, JJ, japanes
masters, NNS, mast
Zeshin, NNP, zeshin
's, POS, 's
teachers, NNS, teach
is, VBZ, be
reputed, VBN, reput
to, TO, to
have, VB, hav
made, VBN, mak
the, DT, the
comment, NN, com
that, IN, that
``, ``, ``
Mt, NNP, mt
Fuji, NNP, fuj
while, IN, while
standing, NN, stand
upon, IN, upon
it, PRP, it
Kyoto, NNP, kyoto
Zeshin, NNP, zeshin
Zeshin, NNP, zeshin
's, POS, 's
Zeshin, NNP, zeshin
Koma, NNP, kom
died, VBD, die
in, IN, in
1835, CD, 1835
Zeshin, NNP, zeshin
inherited, VBD, inherit
the, DT, the
Koma, NNP, kom
workshop, NN, workshop
Ikeda, NNP, iked
as, IN, as
Taishin, NNP, taishin
would, MD, would
remain, VB, remain
his, PRP$, his
pupil, NN, pupil
and, CC, and
close, JJ, clos
friend, NN, friend
until, IN, until
his, PRP$, his
death, NN, dea
in, IN, in
1903, CD, 1903
Zeshin, NNP, zeshin
married, VBD, marry
in, IN, in
1849, CD, 1849
and, CC, and
named, VBD, nam
his, PRP$, his
first, JJ, first
son, NN, son
Reisai, NNP, reisa
Japan, NNP, jap
suffered, VBD, suff
an, DT, an
economic, JJ, econom
crisis, NN, cris
Zeshin, NNP, zeshin
compensated, VBD, compens
by, IN, by
using, NN, us
bronze, NN, bronz
to, TO, to
simulate, VB, sim
the, DT, the
look, NN, look
and, CC, and
texture, NN, text
of, IN, of
iron, NN, iron
Japanese, JJ, japanes
tea, NN, tea
ceremony, NN, ceremony
Zeshin, NNP, zeshin
was, VBD, be
commissioned, VBN, commit
to, TO, to
work, VB, work
for, IN, for
the, DT, the
Imperial, NNP, imp
government, NN, govern
Imperial, NNP, imp
decorated, VBD, dec
in, IN, in
Japan, NNP, jap
's, POS, 's
official, NN, off
representative, NN, repres
to, TO, to
several, JJ, sev
international, JJ, intern
expositions, NNS, exposit
Vienna, NNP, vienn
in, IN, in
1873, CD, 1873
Philadelphia, NNP, philadelph
the, DT, the
following, VBG, follow
year, NN, year
Paris, NNP, par
Zeshin, NNP, zeshin
was, VBD, be
granted, VBN, grant
the, DT, the
immense, NN, immens
honor, NN, hon
of, IN, of
membership, NN, memb
in, IN, in
the, DT, the
newly, RB, new
created, VBN, cre
Imperial, JJ, imp
Imperial, NNP, imp
was, VBD, be
only, RB, on
granted, VBN, grant
to, TO, to
53, CD, 53
artists, NNS, art
between, IN, between
1890, CD, 1890
and, CC, and
1944, CD, 1944
Zeshin, NNP, zeshin
's, POS, 's
works, NNS, work
is, VBZ, be
the, DT, the
Khalili, NNP, khalil
of, IN, of
London, NNP, london
Zeshin, NNP, zeshin
also, RB, also
experimented, VBD, expery
greatly, RB, gre
with, IN, with
the, DT, the
technical, JJ, techn
elements, NNS, el
of, IN, of
using, VBG, us
lacquer, NN, lacqu
Western, JJ, western
oil, NN, oil
painting, NN, paint
Zeshin, NNP, zeshin
remains, VBZ, remain
Zeshin, NNP, zeshin
also, RB, also
revived, VBD, rev
Zeshin, NNP, zeshin
's, POS, 's
works, NNS, work
were, VBD, be
always, RB, alway
Maruyama, NNP, maruyam
Zeshin, NNP, zeshin
serves, VBZ, serv
as, IN, as
another, DT, another
good, NN, good
example, NN, exampl
of, IN, of
this, DT, this
revolutionary, JJ, revolv
traditionalism, NN, tradit
Zeshin, NNP, zeshin
's, POS, 's
signature, NN, sign
was, VBD, be
always, RB, alway
quite, RB, quit
subdued, VBN, subdu
Zeshin, NNP, zeshin
's, POS, 's
signature, NN, sign
to, TO, to
the, DT, the
other, JJ, oth
side, NN, sid
of, IN, of
the, DT, the
piece, NN, piec
Zeshin, NNP, zeshin
's, POS, 's
work, NN, work
strongly, RB, strongly
represents, VBZ, repres
the, DT, the
aesthetic, JJ, aesthet
concept, NN, conceiv
of, IN, of
iki, NN, ik
Edo, NNP, edo
concept, NN, conceiv
of, IN, of
iki, NN, ik
Kansai, NNP, kansa
Kuki, NNP, kuk
English, NNP, engl
ideas, NNS, ide
of, IN, of
chic, JJ, chic
Zeshin, NNP, zeshin
's, POS, 's
works, NNS, work
are, VBP, be
often, RB, oft
labeled, VBN, label
as, IN, as
iki, NN, ik
Zeshin, NNP, zeshin
Artelino, NNP, artelino
C.B.Liddell, NNP, c.b.liddell
===, NNP, ===
Shibata, NNP, shibat
's, POS, 's
art, NN, art
===, :, ===
Hannya, NNP, hanny
retrieving, NN, retriev
her, PRP, her
arm, NN, arm
Genius, NNP, geni
of, IN, of
Japanese, JJ, japanes
Lacquer, NNP, lacqu
Shibata, NNP, shibat
