Ian, JJ, ian
Archibald, NNP, archibald
Brighton, NNP, brighton
Elton, NNP, elton
's, POS, 's
Goodbye, NNP, goodby
album, NN, alb
Ian, NNP, ian
was, VBD, be
encouraged, VBN, enco
by, IN, by
the, DT, the
art, NN, art
teacher, NN, teach
and, CC, and
headmaster, NN, headmast
to, TO, to
attend, VB, attend
Brighton, NNP, brighton
of, IN, of
Art, NNP, art
where, WRB, where
he, PRP, he
studied, VBD, study
illustration, NN, illust
and, CC, and
graphic, JJ, graph
design, NN, design
Raymond, NNP, raymond
and, CC, and
John, NNP, john
and, CC, and
in, IN, in
1968, CD, 1968
he, PRP, he
graduated, VBD, gradu
London, NNP, london
Harrods, NNPS, harrod
in, IN, in
the, DT, the
toy, NN, toy
department, NN, depart
Good, NNP, good
Cosmopolitan, NNP, cosmopolit
Homes, NNP, hom
and, CC, and
Gardens, NNP, gard
Ry, NNP, ry
and, CC, and
Richie, NNP, richy
Goodbye, NNP, goodby
Elton, NNP, elton
Conran, NNP, conr
Design, NNP, design
Group, NNP, group
Gatwick, NNP, gatwick
Oxford, NNP, oxford
University, NNP, univers
Press, NNP, press
had, VBD, hav
seen, VBN, see
some, DT, some
drawings, NNS, draw
he, PRP, he
had, VBD, hav
done, VBN, do
for, IN, for
the, DT, the
Radio, NNP, radio
and, CC, and
wanted, VBD, want
him, PRP, him
to, TO, to
illustrate, VB, illust
Round, NNP, round
and, CC, and
Round, NNP, round
the, DT, the
Garden, NNP, gard
Teddy, NNP, teddy
Robber, NNP, rob
Home, NNP, hom
won, VBD, win
Happy, NNP, happy
Master, NNP, mast
of, IN, of
the, DT, the
Art, NNP, art
in, IN, in
1999, CD, 1999
Secret, NNP, secret
of, IN, of
Tom, NNP, tom
Boy, NNP, boy
Tom, NNP, tom
and, CC, and
the, DT, the
Land, NNP, land
of, IN, of
Dark, NNP, dark
Tom, NNP, tom
and, CC, and
the, DT, the
Land, NNP, land
of, IN, of
Myth, NNP, myth
and, CC, and
Legends, NNPS, legend
on, IN, on
Pastworld, NNP, pastworld
The, NNP, the
Oxford, NNP, oxford
Charity, NNP, char
Bodley, NNP, bodley
Head,2011, NNP, head,2011
Charlie, NNP, char
Buster, NNP, bust
and, CC, and
Little, NNP, littl
for, IN, for
Harrow, NNP, harrow
Middlesex, NNP, middlesex
Nightingale, NNP, night
Beck, NNP, beck
has, VBZ, hav
produced, VBN, produc
further, RB, far
drawings, NNS, draw
in, IN, in
this, DT, this
series, NN, sery
Limelight, NNP, limelight
that, IN, that
ran, NN, ran
from, IN, from
February, NNP, febru
to, TO, to
June, NNP, jun
2013, CD, 2013
Emma, NNP, emm
tellingtrails.co.uk, JJ, tellingtrails.co.uk
