Javier, NNP, javy
Sotomayor, NNP, sotomay
Cuban, NNP, cub
former, JJ, form
track, NN, track
and, CC, and
field, NN, field
athlete, NN, athlet
Cuban, NNP, cub
boycotts, NNS, boycot
of, IN, of
the, DT, the
Olympics, NNP, olymp
in, IN, in
1984, CD, 1984
and, CC, and
1988, CD, 1988
and, CC, and
an, DT, an
injury, NN, injury
in, IN, in
1996, CD, 1996
cost, NN, cost
him, PRP, him
chances, VBZ, chant
at, IN, at
additional, JJ, addit
Olympic, NNP, olymp
medals, NNS, med
Sydney, NNP, sydney
Sotomayor, NNP, sotomay
retired, VBD, retir
in, IN, in
2001, CD, 2001
Sotomayor, NNP, sotomay
was, VBD, be
born, VBN, bear
October, NNP, octob
13, CD, 13
Limonar, NNP, limon
Matanzas, NNP, matanza
Sotomayor, NNP, sotomay
was, VBD, be
first, JJ, first
sent, NN, sent
to, TO, to
Cuban, NNP, cub
sports, VBZ, sport
school, NN, school
as, IN, as
Cuban, NNP, cub
high, JJ, high
jumper, NN, jump
Mar\u00eda, NN, mar\u00ed
del, NN, del
Carmen, NNP, carm
Garc\u00eda, NNP, garc\u00ed
Sotomayor, NNP, sotomay
listed, VBD, list
his, PRP$, his
competition, NN, competit
weight, NN, weight
at, IN, at
82, CD, 82
kilograms, NNS, kilogram
Junior, NNP, juny
in, IN, in
1984==, CD, 1984==
Sotomayor, NNP, sotomay
was, VBD, be
only, RB, on
15, CD, 15
when, WRB, when
he, PRP, he
first, RB, first
cleared, VBD, clear
Havana, NNP, havan
Los, NNP, los
California, NNP, californ
for, IN, for
the, DT, the
1984, CD, 1984
Olympics, NNP, olymp
due, JJ, due
to, TO, to
the, DT, the
boycott, NN, boycot
by, IN, by
Cuba, NNP, cub
Paris, NNP, par
Havana, NNP, havan
Santiago, NNP, santiago
de, IN, de
Cuba, NNP, cub
on, IN, on
23, CD, 23
February, NNP, febru
1986, CD, 1986
Pan, NNP, pan
Games, NNP, gam
Athens, NNP, ath
Greece, NNP, greec
on, IN, on
20, CD, 20
June, NNP, jun
1987, CD, 1987
Salamanca, NNP, salamanc
Spain, NNP, spain
\u2013, NNP, \u2013
Sotomayor, NNP, sotomay
was, VBD, be
again, RB, again
denied, VBN, deny
the, DT, the
chance, NN, chant
to, TO, to
compete, VB, compet
in, IN, in
the, DT, the
Olympics, NNP, olymp
in, IN, in
Seoul, NNP, seo
due, JJ, due
to, TO, to
another, DT, another
Cuban, NNP, cub
boycott, NN, boycot
of, IN, of
the, DT, the
Olympics, NNP, olymp
North, NNP, nor
Albania, NNP, alban
Cuba, NNP, cub
and, CC, and
Ethiopia, NNP, ethiop
Sotomayor, NNP, sotomay
's, POS, 's
leap, NN, leap
of, IN, of
2.43, CD, 2.43
broke, NN, brok
Sweden, NNP, swed
's, POS, 's
Patrik, NNP, patrik
in, IN, in
Stockholm, NNP, stockholm
Again, NNP, again
in, IN, in
1993===, CD, 1993===
Sotomayor, NNP, sotomay
twice, NN, twic
increased, VBD, increas
the, DT, the
world, NN, world
record, NN, record
Central, NNP, cent
and, CC, and
Caribbean, NNP, carib
San, NNP, san
and, CC, and
to, TO, to
the, DT, the
current, JJ, cur
record, NN, record
of, IN, of
2.45m, CD, 2.45m
Salamanca, NNP, salamanc
Sotomayor, NNP, sotomay
became, VBD, becom
inconsistent, NN, inconsist
the, DT, the
following, VBG, follow
year, NN, year
Cuban, NNP, cub
public, JJ, publ
at, IN, at
the, DT, the
Pan, NNP, pan
Games, NNP, gam
in, IN, in
Havana, NNP, havan
on, IN, on
Saturday, NNP, saturday
10, CD, 10
August, NNP, august
1991, CD, 1991
Sotomayor, NNP, sotomay
defeated, VBD, def
his, PRP$, his
principal, JJ, princip
rival, NN, riv
American, JJ, am
Hollis, NNP, hol
Conway, NNP, conway
Salamanca, NNP, salamanc
track, NN, track
meet, NN, meet
was, VBD, be
remarkable, JJ, remark
in, IN, in
that, DT, that
Sotomayor, NNP, sotomay
required, VBD, requir
only, RB, on
four, CD, four
jumps, NNS, jump
Salamanca, NNP, salamanc
Sotomayor, NNP, sotomay
told, VBD, tel
reporters, NNS, report
Cuba, NNP, cub
New, NNP, new
World, NNP, world
Record, NNP, record
in, IN, in
1989===, CD, 1989===
Sotomayor, NNP, sotomay
set, NN, set
the, DT, the
current, JJ, cur
world, NN, world
indoor, NN, indo
record, NN, record
of, IN, of
on, IN, on
March, NNP, march
Budapest, NNP, budapest
IAAF, NNP, iaaf
World, NNP, world
Indoor, NNP, indo
Championships, NNP, champ
Sotomayor, NNP, sotomay
was, VBD, be
one, CD, one
of, IN, of
four, CD, four
men, NNS, men
to, TO, to
clear, VB, clear
2.35, CD, 2.35
Dietmar, NNP, dietm
Germany, NNP, germany
Dalton, NNP, dalton
Britain, NNP, britain
Sotomayor, NNP, sotomay
and, CC, and
Patrik, NNP, patrik
Sweden, NNP, swed
Budapest, NNP, budapest
Germany, NNP, germany
's, POS, 's
Carlo, NNP, carlo
Berlin, NNP, berlin
Budapest, NNP, budapest
with, IN, with
Summer, NNP, sum
Olympics, NNP, olymp
he, PRP, he
won, VBD, win
the, DT, the
gold, NN, gold
medal, NN, med
at, IN, at
the, DT, the
1992, CD, 1992
Olympics, NNP, olymp
and, CC, and
then, RB, then
the, DT, the
silver, NN, silv
medal, NN, med
at, IN, at
the, DT, the
2000, CD, 2000
Olympics, NNP, olymp
Barcelona, NNP, barcelon
Sotomayor, NNP, sotomay
won, VBD, win
the, DT, the
high, JJ, high
jump, NN, jump
on, IN, on
the, DT, the
basis, NN, bas
of, IN, of
his, PRP$, his
ability, NN, abl
to, TO, to
jump, VB, jump
``, ``, ``
Sotomayor, NNP, sotomay
was, VBD, be
the, DT, the
only, JJ, on
one, CD, one
to, TO, to
clear, JJ, clear
the, DT, the
bar, NN, bar
on, IN, on
his, PRP$, his
first, JJ, first
attempt, NN, attempt
Sotomayor, NNP, sotomay
failed, VBD, fail
on, IN, on
his, PRP$, his
first, JJ, first
two, CD, two
attempts, NNS, attempt
at, IN, at
2.37, CD, 2.37
Sotomayor, NNP, sotomay
was, VBD, be
assured, VBN, ass
of, IN, of
the, DT, the
gold, NN, gold
medal, NN, med
and, CC, and
therefore, RB, theref
passed, VBD, pass
up, RP, up
his, PRP$, his
third, JJ, third
attempt, NN, attempt
Sotomayor, NNP, sotomay
was, VBD, be
declared, VBN, decl
the, DT, the
victor, NN, vict
on, IN, on
the, DT, the
basis, NN, bas
of, IN, of
the, DT, the
tie-breaker, NN, tie-breaker
Patrick, NNP, patrick
Sweden, NNP, swed
Artur, NNP, art
Tim, NNP, tim
Australia, NNP, austral
Hollis, NNP, hol
USA, NNP, us
Outdoor, NNP, outdo
Champion, NNP, champ
in, IN, in
1993===, CD, 1993===
Less, NNP, less
than, IN, than
one, CD, one
month, NN, mon
after, IN, after
setting, VBG, set
the, DT, the
world, NN, world
record, NN, record
of, IN, of
2.45m, CD, 2.45m
at, IN, at
Salamanca, NNP, salamanc
Sotomayor, NNP, sotomay
won, VBD, win
the, DT, the
1993, CD, 1993
World, NNP, world
Championships, NNP, champ
held, VBD, hold
at, IN, at
Stuttgart, NNP, stuttgart
Germany, NNP, germany
on, IN, on
22, CD, 22
August, NNP, august
Artur, NNP, art
Pan, NNP, pan
Games, NNP, gam
in, IN, in
Mar, NNP, mar
del, NN, del
Plata, NNP, plat
Argentina, NNP, argentin
Sotomayor, NNP, sotomay
attempted, VBD, attempt
to, TO, to
defend, VB, defend
his, PRP$, his
title, NN, titl
at, IN, at
the, DT, the
1995, CD, 1995
World, NNP, world
Championships, NNP, champ
Goteborg, NNP, goteborg
Sweden, NNP, swed
Troy, NNP, troy
Partyka, NNP, partyk
finished, VBD, fin
third, JJ, third
Athens, NNP, ath
Greece, NNP, greec
Sotomayor, NNP, sotomay
again, RB, again
won, VBD, win
the, DT, the
gold, NN, gold
medal, NN, med
on, IN, on
Partyka, NNP, partyk
with, IN, with
Partyka, NNP, partyk
's, POS, 's
2.35m, JJ, 2.35m
Sotomayor, NNP, sotomay
had, VBD, hav
Atlanta, NNP, atlant
Atlanta, NNP, atlant
American, JJ, am
Charles, NNP, charl
won, VBD, win
the, DT, the
gold, NN, gold
medal, NN, med
Sotomayor, NNP, sotomay
underwent, VBD, undergo
treatment, NN, tre
for, IN, for
knee, NN, kne
and, CC, and
heel, NN, heel
injuries, NNS, injury
after, IN, after
his, PRP$, his
poor, NN, poor
showing, VBG, show
in, IN, in
the, DT, the
Atlanta, NNP, atlant
and, CC, and
skipped, VBD, skip
the, DT, the
1997, CD, 1997
indoor, NN, indo
season, NN, season
Puerto, NNP, puerto
in, IN, in
spring, NN, spring
1997, CD, 1997
for, IN, for
the, DT, the
outdoor, NN, outdo
season, NN, season
Cuban, NNP, cub
sports, NNS, sport
officials, NNS, off
announced, VBD, annount
on, IN, on
30, CD, 30
May, NNP, may
1997, CD, 1997
that, WDT, that
although, IN, although
Sotomayor, NNP, sotomay
was, VBD, be
``, ``, ``
Toronto, NNP, toronto
and, CC, and
would, MD, would
instead, VB, instead
make, VB, mak
his, PRP$, his
season, NN, season
debut, NN, debut
the, DT, the
following, VBG, follow
week, NN, week
at, IN, at
France, NNP, frant
Pan, NNP, pan
Games===, NNP, games===
Sotomayor, NNP, sotomay
won, VBD, win
the, DT, the
gold, NN, gold
medal, NN, med
at, IN, at
the, DT, the
1999, CD, 1999
Pan, NNP, pan
American, NNP, am
Games, NNP, gam
Winnipeg, NNP, winnipeg
Games, NNP, gam
officials, NNS, off
announced, VBD, annount
that, IN, that
his, PRP$, his
urine, NN, urin
test, NN, test
tested, VBD, test
positive, JJ, posit
for, IN, for
an, DT, an
illegal, JJ, illeg
drug, NN, drug
Cuba, NNP, cub
in, IN, in
disgrace, NN, disgrac
Canadian, JJ, canad
sprinter, NN, sprinter
Ben, NNP, ben
was, VBD, be
stripped, VBN, strip
of, IN, of
his, PRP$, his
gold, NN, gold
medal, NN, med
at, IN, at
the, DT, the
1988, CD, 1988
Seoul, NNP, seo
Olympics, NNP, olymp
Cuba, NNP, cub
's, POS, 's
sports, NNS, sport
system, NN, system
Mario, NNP, mario
Granda, NNP, grand
Cuba, NNP, cub
's, POS, 's
chief, NN, chief
of, IN, of
sports, NNS, sport
medicine, VBP, medicin
Sotomayor, NNP, sotomay
had, VBD, hav
``, ``, ``
Sotomayor, NNP, sotomay
was, VBD, be
the, DT, the
victim, NN, victim
of, IN, of
sabotage, NN, sabot
Sydney, NNP, sydney
despite, IN, despite
his, PRP$, his
two-year, JJ, two-year
drug, NN, drug
suspension, NN, suspend
from, IN, from
1999, CD, 1999
IAAF, NNP, iaaf
cut, VBD, cut
the, DT, the
penalty, NN, penal
in, IN, in
half, DT, half
\u2013, NN, \u2013
Sydney, NNP, sydney
at, IN, at
the, DT, the
age, NN, ag
of, IN, of
32, CD, 32
Russian, NNP, russ
Sergey, NNP, sergey
Klyugin, NNP, klyugin
was, VBD, be
the, DT, the
only, JJ, on
jumper, NN, jump
able, JJ, abl
to, TO, to
clear, JJ, clear
the, DT, the
next, JJ, next
height, NN, height
Sotomayor, NNP, sotomay
was, VBD, be
awarded, VBN, award
silver, NN, silv
on, IN, on
the, DT, the
count-back, JJ, count-back
Vyacheslav, NNP, vyacheslav
Russia, NNP, russ
Stefan, NNP, stef
Sweden, NNP, swed
IAAF, NNP, iaaf
should, MD, should
not, RB, not
have, VB, hav
reduced, VBN, reduc
Sotomayor, NNP, sotomay
's, POS, 's
two-year, JJ, two-year
suspension, NN, suspend
Sotomayor, NNP, sotomay
has, VBZ, hav
Carlo, NNP, carlo
Thr\u00e4nhardt, NNP, thr\u00e4nhardt
did, VBD, do
it, PRP, it
twice, NN, twic
Patrik, NNP, patrik
did, VBD, do
four, CD, four
times, NNS, tim
Sotomayor, NNP, sotomay
did, VBD, do
it, PRP, it
24, CD, 24
times, NNS, tim
Seville, NNP, sevil
on, IN, on
Grand, NNP, grand
circuit, NN, circuit
Sotomayor, NNP, sotomay
recorded, VBD, record
wins, NNS, win
at, IN, at
the, DT, the
Goodwill, NNP, goodwil
Games, NNP, gam
in, IN, in
St, NNP, st
on, IN, on
29, CD, 29
July, NNP, july
London, NNP, london
on, IN, on
11, CD, 11
September, NNP, septemb
Pan, NNP, pan
Games, NNP, gam
in, IN, in
Mar, NNP, mar
del, NN, del
Plata, NNP, plat
Argentina, NNP, argentin
Bohdan, NNP, bohd
has, VBZ, hav
jumped, VBN, jump
higher, JJR, high
since, IN, since
Sotomayor, NNP, sotomay
was, VBD, be
ranked, VBN, rank
by, IN, by
Track, NNP, track
Field, NNP, field
in, IN, in
the, DT, the
``, ``, ``
Russian, JJ, russ
Valeriy, NNP, valeriy
in, IN, in
five, CD, five
consecutive, JJ, consecut
years, NNS, year
Sotomayor, NNP, sotomay
accummulated, VBD, accumm
123, CD, 123
ranking, VBG, rank
points, NNS, point
American, NNP, am
Dwight, NNP, dwight
Stones, NNP, ston
has, VBZ, hav
90, CD, 90
points, NNS, point
and, CC, and
four, CD, four
consecutive, JJ, consecut
Fosbury, NNP, fosbury
style, NN, styl
relies, VBZ, rely
on, IN, on
speed, NN, spee
Sotomayor, NNP, sotomay
was, VBD, be
deceptively, RB, deceiv
fast, RB, fast
for, IN, for
Sotomayor, NNP, sotomay
did, VBD, do
not, RB, not
even, RB, ev
take, VB, tak
his, PRP$, his
first, JJ, first
jump, NN, jump
until, IN, until
the, DT, the
bar, NN, bar
was, VBD, be
at, IN, at
2.31, CD, 2.31
Carlo, NNP, carlo
's, POS, 's
year-old, JJ, year-old
record, NN, record
of, IN, of
2.42, CD, 2.42
in, IN, in
mind, NN, mind
\u2013, :, \u2013
Sotomayor, NNP, sotomay
decided, VBD, decid
to, TO, to
pass, VB, pass
at, IN, at
2.39, CD, 2.39
and, CC, and
had, VBD, hav
the, DT, the
bar, NN, bar
raised, VBD, rais
to, TO, to
record, VB, record
height, JJ, height
Sotomayor, NNP, sotomay
's, POS, 's
height, NN, height
was, VBD, be
also, RB, also
an, DT, an
advantage, NN, adv
Cuban, NNP, cub
's, POS, 's
height, NN, height
as, IN, as
1.93m, CD, 1.93m
Franklin, NNP, franklin
and, CC, and
Stefan, NNP, stef
Sotomayor, NNP, sotomay
tested, VBD, test
positive, JJ, posit
for, IN, for
cocaine, NN, cocain
at, IN, at
the, DT, the
1999, CD, 1999
Pan, NNP, pan
American, NNP, am
Games, NNP, gam
Cuban, NNP, cub
president, NN, presid
Fidel, NNP, fidel
claimed, VBD, claim
was, VBD, be
Sotomayor, NNP, sotomay
claimed, VBD, claim
his, PRP$, his
innocence, NN, innoc
IAAF, NNP, iaaf
arbitration, NN, arbit
panel, NN, panel
upheld, VBD, uphold
the, DT, the
two-year, JJ, two-year
ban, NN, ban
on, IN, on
June, NNP, jun
27, CD, 27
Cuban, NNP, cub
federation, NN, fed
continued, VBD, continu
to, TO, to
appeal, NN, ap
his, PRP$, his
case, NN, cas
IAAF, NNP, iaaf
rulebook, NN, rulebook
that, WDT, that
allows, VBZ, allow
drug, NN, drug
bans, NNS, ban
to, TO, to
be, VB, be
modified, VBN, mod
under, IN, under
``, ``, ``
IAAF, NNP, iaaf
shortened, VBD, short
the, DT, the
suspension, NN, suspend
to, TO, to
one, CD, one
year, NN, year
\u2013, :, \u2013
IAAF, NNP, iaaf
's, POS, 's
motivation, NN, mot
for, IN, for
this, DT, this
action, NN, act
was, VBD, be
that, IN, that
Sotomayor, NNP, sotomay
had, VBD, hav
done, VBN, do
Sotomayor, NNP, sotomay
returned, VBD, return
to, TO, to
competition, NN, competit
at, IN, at
Montauban, NNP, montaub
France, NNP, frant
Golden, NNP, gold
meet, NN, meet
held, VBD, hold
in, IN, in
Monaco, NNP, monaco
by, IN, by
clearing, NN, clear
Interviewed, NNP, interview
on, IN, on
French, NNP, french
television, NN, televid
immediately, RB, immedy
after, IN, after
his, PRP$, his
victory, NN, vict
Sotomayor, NNP, sotomay
said, VBD, say
Sotomayor, NNP, sotomay
announced, VBD, annount
that, IN, that
he, PRP, he
would, MD, would
end, VB, end
his, PRP$, his
career, NN, car
Sotomayor, NNP, sotomay
claimed, VBD, claim
he, PRP, he
was, VBD, be
innocent, JJ, innoc
and, CC, and
that, IN, that
mistakes, NNS, mistak
had, VBD, hav
been, VBN, be
made, VBN, mak
during, IN, during
the, DT, the
handling, NN, handl
of, IN, of
his, PRP$, his
doping, NN, dop
test, NN, test
Cuba, NNP, cub
IAAF, NNP, iaaf
Vice, NNP, vic
President, NNP, presid
and, CC, and
Doping, NNP, dop
Chairman, NNP, chairm
Arne, NNP, arn
asserted, VBD, assert
these, DT, these
were, VBD, be
both, DT, both
``, ``, ``
Swedish, JJ, swed
interview, NN, interview
Cuban, NNP, cub
news, NN, new
Sotomayor, NNP, sotomay
said, VBD, say
that, IN, that
injury, NN, injury
had, VBD, hav
forced, VBN, forc
his, PRP$, his
retirement, NN, retir
Achilles, NNP, achil
tendon, NN, tendon
problem, NN, problem
hampered, VBD, hamp
his, PRP$, his
performance, NN, perform
