Edwin, NNP, edwin
Edwin, NNP, edwin
American, JJ, am
track, NN, track
and, CC, and
field, NN, field
athlete, NN, athlet
Moses, NNP, mos
won, VBD, win
107, CD, 107
consecutive, JJ, consecut
finals, NNS, fin
Moses, NNP, mos
was, VBD, be
also, RB, also
an, DT, an
innovative, JJ, innov
reformer, NN, reform
in, IN, in
the, DT, the
areas, NNS, are
of, IN, of
Olympic, NNP, olymp
eligibility, NN, elig
and, CC, and
drug, NN, drug
testing, NN, test
Laureus, NNP, laure
World, NNP, world
Sports, NNP, sport
Academy, NNP, academy
Dayton, NNP, dayton
Ohio, NNP, ohio
Morehouse, NNP, moreh
in, IN, in
Atlanta, NNP, atlant
Georgia, NNP, georg
Morehouse, NNP, moreh
did, VBD, do
not, RB, not
have, VB, hav
its, PRP$, its
own, JJ, own
track, NN, track
Moses, NNP, mos
competed, VBD, compet
mostly, RB, most
in, IN, in
the, DT, the
120-yard, JJ, 120-yard
hurdles, NNS, hurdl
and, CC, and
440-yard, JJ, 440-yard
dash, NN, dash
US, NNP, us
team, NN, team
for, IN, for
the, DT, the
1976, CD, 1976
Summer, NNP, sum
Olympics, NNP, olymp
in, IN, in
Montreal, NNP, mont
Moses, NNP, mos
won, VBD, win
the, DT, the
gold, NN, gold
medal, NN, med
and, CC, and
set, VBD, set
Moses, NNP, mos
lost, VBD, los
to, TO, to
West, NNP, west
's, POS, 's
Harald, NNP, harald
on, IN, on
26, CD, 26
August, NNP, august
1977, CD, 1977
in, IN, in
Berlin, NNP, berlin
Schmid, NNP, schmid
by, IN, by
15, CD, 15
meters, NNS, met
in, IN, in
D\u00fcsseldorf, JJ, d\u00fcsseldorf
Moses, NNP, mos
did, VBD, do
not, RB, not
lose, VB, los
another, DT, another
race, NN, rac
for, IN, for
nine, CD, nine
years, NNS, year
American, NNP, am
beat, VBD, beat
Moses, NNP, mos
in, IN, in
Madrid, NNP, madrid
on, IN, on
June, NNP, jun
Moses, NNP, mos
had, VBD, hav
won, VBN, win
122, CD, 122
consecutive, JJ, consecut
races, NNS, rac
Los, NNP, los
Harris, NNP, har
Rome, NNP, rom
in, IN, in
August, NNP, august
of, IN, of
the, DT, the
same, JJ, sam
year, NN, year
Seoul, NNP, seo
General, NNP, gen
to, TO, to
devote, VB, devot
himself, PRP, himself
to, TO, to
running, VBG, run
full-time, JJ, full-time
Athletes, NNPS, athlet
program, NN, program
was, VBD, be
established, VBN, est
to, TO, to
allow, VB, allow
athletes, NNS, athlet
to, TO, to
benefit, VB, benefit
from, IN, from
government-, NNP, government-
or, CC, or
privately, RB, priv
supplied, VBN, supply
stipends, NNS, stipend
Juan, NNP, juan
International, NNP, intern
Olympic, NNP, olymp
Committee, NNP, commit
United, NNP, unit
Olympic, NNP, olymp
Committee, NNP, commit
's, POS, 's
Direct, NNP, direct
Moscow, NNP, moscow
Moses, NNP, mos
was, VBD, be
the, DT, the
1980, CD, 1980
Track, NNP, track
Field, NNP, field
of, IN, of
the, DT, the
Year, NN, year
USA, NNP, us
Field, NNP, field
's, POS, 's
Jesse, NNP, jess
as, IN, as
outstanding, JJ, outstand
U.S., NNP, u.s.
track, NN, track
and, CC, and
field, NN, field
performer, NN, perform
for, IN, for
1981, CD, 1981
AAU, NNP, aau
's, POS, 's
James, NNP, jam
as, IN, as
outstanding, JJ, outstand
amateur, NN, am
athlete, NN, athlet
in, IN, in
the, DT, the
United, NNP, unit
in, IN, in
1983, CD, 1983
ABC, NNP, abc
's, POS, 's
Wide, NNP, wid
World, NNP, world
of, IN, of
Sports, NNPS, sport
of, IN, of
the, DT, the
Year, NN, year
in, IN, in
1984, CD, 1984
Sports, NNS, sport
Sportsman, NNP, sportsm
of, IN, of
the, DT, the
Year, NN, year
with, IN, with
American, JJ, am
gymnast, NN, gymnast
Mary, NNP, mary
in, IN, in
1984, CD, 1984
Athlete, NNP, athlet
's, POS, 's
Oath, NNP, oa
for, IN, for
the, DT, the
1984, CD, 1984
Summer, NNP, sum
Olympics, NNP, olymp
Dayton, NNP, dayton
renamed, VBD, renam
Miami, NNP, miam
and, CC, and
Sunrise, NNP, sunr
``, ``, ``
Edwin, NNP, edwin
'', '', ''
Moses, NNP, mos
ranked, VBD, rank
ESPN, NNP, espn
's, POS, 's
SportCentury, NNP, sportcentury
50, CD, 50
Greatest, NNP, greatest
Moses, NNP, mos
participated, VBD, particip
in, IN, in
the, DT, the
development, NN, develop
of, IN, of
Moses, NNP, mos
competed, VBD, compet
in, IN, in
Winterberg, NNP, winterberg
Germany, NNP, germany
US, NNP, us
won, VBD, win
the, DT, the
two-man, JJ, two-man
bronze, NN, bronz
medal, NN, med
Pepperdine, NNP, pepperdin
and, CC, and
was, VBD, be
inducted, VBN, induc
into, IN, into
the, DT, the
National, NNP, nat
and, CC, and
Field, NNP, field
of, IN, of
Fame, NNP, fam
Moses, NNP, mos
has, VBZ, hav
been, VBN, be
chairman, NN, chairm
of, IN, of
the, DT, the
Laureus, NNP, laure
World, NNP, world
Sports, NNP, sport
Academy, NNP, academy
Laureus, NNP, laure
for, IN, for
Good, NNP, good
Moses, NNP, mos
presented, VBD, pres
the, DT, the
Dayton, NNP, dayton
Literary, NNP, lit
Peace, NNP, peac
Prize, NNP, priz
's, POS, 's
Lifetime, NNP, lifetim
Achievement, NNP, achiev
Award, NNP, award
to, TO, to
Martin, NNP, martin
University, NNP, univers
of, IN, of
Massachusetts, NNP, massachuset
Boston, NNP, boston
awarded, VBD, award
Moses, NNP, mos
an, DT, an
honorary, JJ, hon
doctorate, NN, doct
for, IN, for
his, PRP$, his
efforts, NNS, effort
to, TO, to
maintain, VB, maintain
the, DT, the
integrity, NN, integr
of, IN, of
Olympic, NNP, olymp
sports, NNS, sport
and, CC, and
for, IN, for
his, PRP$, his
use, NN, us
of, IN, of
sports, NNS, sport
as, IN, as
Julian, NNP, jul
California, NNP, californ
Vegetarian, JJ, veget
American, NNP, am
400m, CD, 400m
hurdler, NN, hurdl
Edwin, NNP, edwin
ESPN, NNP, espn
SportsCentury, NNP, sportscentury
Michael, NNP, michael
MacCambridge, NNP, maccambridg
Editor, NNP, edit
New, NNP, new
Schwartz, NNP, schwartz
Larry, NNP, larry
Edwin, NNP, edwin
Major, NNP, maj
Taylor, NNP, tayl
Official, NNP, off
Georgia, NNP, georg
of, IN, of
Fame, NNP, fam
