Henry, NNP, henry
Dreyfuss, NNP, dreyfuss
American, JJ, am
composer, NN, compos
Brant, NNP, brant
's, POS, 's
works, NNS, work
featured, VBD, feat
spatialization, NN, spat
techniques, NNS, techn
Biography, NNP, biograph
==, NNP, ==
Brant, NNP, brant
was, VBD, be
born, VBN, bear
in, IN, in
Montreal, NNP, mont
Quebec, NNP, quebec
Canada, NNP, canad
of, IN, of
American, NNP, am
parents, NNS, par
in, IN, in
1913, CD, 1913
Henry, NNP, henry
began, VBD, begin
composing, VBG, compos
at, IN, at
the, DT, the
age, NN, ag
of, IN, of
eight, CD, eight
McGill, NNP, mcgill
New, NNP, new
Brant, NNP, brant
played, VBD, play
violin, NN, violin
Henry, NNP, henry
's, POS, 's
landmark, NN, landmark
book, NN, book
American, JJ, am
Composers, NNS, compos
on, IN, on
American, NNP, am
American, NNP, am
experimental, NN, expery
musical, JJ, mus
tradition, NN, tradit
Brant, NNP, brant
was, VBD, be
represented, VBN, repres
in, IN, in
Cowell, NNP, cowel
's, POS, 's
anthology, NN, antholog
by, IN, by
an, DT, an
essay, NN, essay
on, IN, on
oblique, NN, obl
harmony, NN, harmony
Columbia, NNP, columb
Juilliard, NNP, juilliard
and, CC, and
Bennington, NNP, bennington
Brant, NNP, brant
felt, VBD, felt
that, IN, that
\u201csingle-style, JJ, \u201csingle-style
music\u2026could, MD, music\u2026could
no, RB, no
longer, RBR, long
evoke, NN, evok
the, DT, the
new, JJ, new
stresses, NNS, stress
Brant, NNP, brant
made, VBD, mak
Elizabeth, NNP, elizabe
movie, NN, movy
Cleopatra, NNP, cleopatr
Alex, NNP, alex
Brant, NNP, brant
helped, VBD, help
with, IN, with
the, DT, the
orchestration, NN, orchest
of, IN, of
North, NNP, nor
's, POS, 's
score, NN, scor
for, IN, for
2001, CD, 2001
North, NNP, nor
's, POS, 's
stress-induced, JJ, stress-induced
muscle, NN, musc
spasms, NNS, spasm
Brant, NNP, brant
had, VBD, hav
to, TO, to
conduct, VB, conduc
the, DT, the
recording, NN, record
session, NN, sess
for, IN, for
the, DT, the
film, NN, film
score, NN, scor
Virgil, NNP, virgil
Aaron, NNP, aaron
George, NNP, georg
Douglas, NNP, dougla
Gordon, NNP, gordon
Brant, NNP, brant
's, POS, 's
work, NN, work
as, IN, as
an, DT, an
orchestrator, NN, orchest
was, VBD, be
not, RB, not
limited, VBN, limit
to, TO, to
film, VB, film
and, CC, and
stage, NN, stag
Charles, NNP, charl
\u2014, NNP, \u2014
Unanswered, NNP, unansw
was, VBD, be
an, DT, an
acknowledged, JJ, acknowledg
inspiration, NN, inspir
for, IN, for
Brant, NNP, brant
's, POS, 's
spatial, JJ, spat
music, NN, mus
\u2014, :, \u2014
Brant, NNP, brant
's, POS, 's
arrangement, NN, arrang
of, IN, of
Ives, NNP, iv
Piano, NNP, piano
Mass, NNP, mass
1840-60, CD, 1840-60
'', '', ''
as, IN, as
Concord, NNP, concord
in, IN, in
1996, CD, 1996
Santa, NNP, sant
California, NNP, californ
where, WRB, where
he, PRP, he
died, VBD, die
on, IN, on
April, NNP, april
26, CD, 26
Stockhausen, NNP, stockhaus
's, POS, 's
Gruppen, NNP, grup
of, IN, of
1955-57, CD, 1955-57
Brant, NNP, brant
developed, VBD, develop
the, DT, the
concept, NN, conceiv
of, IN, of
spatial, JJ, spat
music, NN, mus
Requiem, NNP, requiem
of, IN, of
Hector, NNP, hect
and, CC, and
Charles, NNP, charl
Unanswered, NNP, unansw
Henry, NNP, henry
Brant, NNP, brant
was, VBD, be
America\u2019s, JJ, america\u2019s
foremost, NN, foremost
composer, NN, compos
of, IN, of
acoustic, JJ, acoust
spatial, JJ, spat
music, NN, mus
Meteor, NNP, met
West, NNP, west
drum, NN, drum
ensemble, JJ, ensembl
and, CC, and
chorus, VBZ, chor
South, NNP, sou
Indian, NNP, ind
soloists, NNS, solo
Javanese, NNP, javanes
ensemble, JJ, ensembl
Western, NNP, western
solo, NN, solo
sopranos, NNS, soprano
Brant, NNP, brant
experimented, VBD, expery
with, IN, with
new, JJ, new
combinations, NNS, combin
of, IN, of
acoustic, JJ, acoust
timbres, NNS, timbr
Ghosts, NNP, ghost
Gargoyles, NNP, gargoyl
for, IN, for
Angels, NNPS, angel
and, CC, and
Devils, NNP, devil
Brant, NNP, brant
did, VBD, do
not, RB, not
use, VB, us
electronic, JJ, electron
materials, NNS, mat
or, CC, or
permit, VB, permit
amplification, NN, ampl
in, IN, in
his, PRP$, his
music, NN, mus
Verticals, NNPS, vert
Watts, NNP, wat
in, IN, in
Los, NNP, los
Horizontals, NNPS, horizont
Grand, NNP, grand
Patricia, NNP, patric
Brant, NNP, brant
won, VBD, win
the, DT, the
Pulitzer, NNP, pulitz
for, IN, for
Music, NNP, mus
in, IN, in
2002, CD, 2002
for, IN, for
his, PRP$, his
composition, NN, composit
Ice, NNP, ic
Field, NNP, field
Wind, NNP, wind
Water, NNP, wat
Clouds, NNP, cloud
Fire, NNP, fir
The, DT, The
of, IN, of
St., NNP, st.
John, NNP, john
the, DT, the
Evangelist, NNP, evangel
Milwaukee, NNP, milwauk
Wisconsin, NNP, wisconsin
Getty, NNP, getty
Getty, NNP, getty
in, IN, in
Los, NNP, los
Green, NNP, green
concert, NN, concert
at, IN, at
LA\u2019s, JJ, la\u2019s
on, IN, on
November, NNP, novemb
Gargoyles, NNP, gargoyl
New, NNP, new
Music, NNP, mus
Toronto, NNP, toronto
had, VBD, hav
its, PRP$, its
premiere, NN, premy
on, IN, on
May, NNP, may
26, CD, 26
San, NNP, san
Brant, NNP, brant
's, POS, 's
handbook, NN, handbook
for, IN, for
orchestration, NN, orchest
Textures, NNP, text
and, CC, and
Timbres, NNP, timbr
American, NNP, am
of, IN, of
Arts, NNPS, art
and, CC, and
Letters, NNP, let
Brant, NNP, brant
was, VBD, be
awarded, VBN, award
the, DT, the
2002, CD, 2002
Pulitzer, NNP, pulitz
Prize, NNP, priz
in, IN, in
Music, NNP, mus
for, IN, for
Ice, NNP, ic
San, NNP, san
under, IN, under
the, DT, the
direction, NN, direct
of, IN, of
Michael, NNP, michael
Guggenheim, NNP, guggenheim
and, CC, and
was, VBD, be
the, DT, the
first, JJ, first
American, NNP, am
composer, NN, compos
to, TO, to
win, VB, win
the, DT, the
Prix, NNP, prix
Ford, NNP, ford
Fromm, NNP, from
National, NNP, nat
for, IN, for
the, DT, the
Arts, NNPS, art
and, CC, and
Koussevitzky, NNP, koussevitzky
awards, NNS, award
and, CC, and
the, DT, the
American, NNP, am
Center\u2019s, NNP, center\u2019s
Letter, NNP, let
of, IN, of
Distinction, NNP, distinct
Paul, NNP, paul
Foundation, NNP, found
in, IN, in
Basel, NNP, basel
has, VBZ, hav
acquired, VBN, acquir
Brant\u2019s, -NONE-, Brant\u2019s
complete, JJ, complet
archive, JJ, arch
of, IN, of
original, JJ, origin
manuscripts, NNS, manuscrib
including, VBG, includ
over, IN, over
300, CD, 300
works, NNS, work
Wesleyan, NNP, wesley
conferred, VBD, conf
upon, IN, upon
him, PRP, him
the, DT, the
honorary, JJ, hon
degree, NN, degr
of, IN, of
Doctor, NNP, doct
of, IN, of
Fine, NNP, fin
Brant, NNP, brant
's, POS, 's
Home, NNP, hom
Page, NNP, pag
*Henry, NNP, *henry
Brant, NNP, brant
Tribute, NNP, tribut
by, IN, by
Samara, NNP, samar
WMJ, NNP, wmj
Issue, NNP, issu
Article, NNP, artic
13, CD, 13
*OtherMinds.org, JJ, *otherminds.org
Charles, NNP, charl
*MusicMavericks.PublicRadio.org, NNP, *musicmavericks.publicradio.org
Henry, NNP, henry
by, IN, by
Alan, NNP, al
Minnesota, NNP, minnesot
Henry, NNP, henry
two, CD, two
works, NNS, work
by, IN, by
the, DT, the
composer, NN, compos
*The, NNP, *the
Henry, NNP, henry
on, IN, on
innova, NN, innov
*San, JJ, *san
Francisco, NNP, francisco
obituary, NN, obitu
for, IN, for
Brant, NNP, brant
*Obituary, JJ, *obituary
from, IN, from
the, DT, the
Washington, NNP, washington
