John, NNP, john
David, NNP, david
British, JJ, brit
engineer, NN, engin
and, CC, and
physicist, NN, phys
Coventry, NNP, coventry
and, CC, and
educated, VBD, educ
at, IN, at
Wolverhampton, NNP, wolverhampton
before, IN, before
going, VBG, go
on, IN, on
to, TO, to
St, NNP, st
John, NNP, john
's, POS, 's
College, NNP, colleg
Cambridge, NNP, cambridg
Mechanical, NNP, mech
degree, VBP, degr
Telecommunications, NNS, telecommun
Malvern, NNP, malvern
Lawson, NNP, lawson
continued, VBD, continu
to, TO, to
work, VB, work
at, IN, at
Malvern, NNP, malvern
Atomic, NNP, atom
Research, NNP, research
Establishment, NNP, est
General, NNP, gen
of, IN, of
the, DT, the
AERE, NNP, aer
at, IN, at
Harwell, NNP, harwel
Lawson, NNP, lawson
started, VBD, start
to, TO, to
work, VB, work
on, IN, on
the, DT, the
klystron, NN, klystron
Peter, NNP, pet
who, WP, who
was, VBD, be
also, RB, also
in, IN, in
charge, NN, charg
of, IN, of
the, DT, the
ZETA, NNP, zet
Lawson, NNP, lawson
's, POS, 's
association, NN, assocy
with, IN, with
Thonemann, NNP, thoneman
that, IN, that
he, PRP, he
became, VBD, becom
interested, JJ, interest
in, IN, in
the, DT, the
topic, JJ, top
of, IN, of
nuclear, JJ, nuclear
fusion, NN, fus
Soc, NNP, soc
Vol, NNP, vol
Lawson, NNP, lawson
criterion, NN, crit
Lawson, NNP, lawson
also, RB, also
worked, VBD, work
with, IN, with
the, DT, the
1980, CD, 1980
MeV, NNP, mev
cyclotron, NN, cyclotron
and, CC, and
on, IN, on
early, JJ, ear
accelerator, NN, accel
proposals, NNS, propos
AERE, NNP, aer
to, TO, to
1961, CD, 1961
Research, NNP, research
at, IN, at
the, DT, the
W.W., NNP, w.w.
Hansen, NNP, hans
Laboratories, NNPS, lab
at, IN, at
Stanford, NNP, stanford
where, WRB, where
his, PRP$, his
work, NN, work
included, VBD, includ
the, DT, the
study, NN, study
of, IN, of
the, DT, the
properties, NNS, property
of, IN, of
caesium, NN, caes
plasma, NN, plasm
Lawson, NNP, lawson
was, VBD, be
transferred, VBN, transf
to, TO, to
the, DT, the
newly, RB, new
established, VBD, est
National, NNP, nat
for, IN, for
Research, NNP, research
in, IN, in
Nuclear, NNP, nuclear
Harwell, NNP, harwel
village, NN, vil
Rutherford, NNP, rutherford
Variable, NNP, vary
AERE, NNP, aer
Physics, NNP, phys
of, IN, of
Charged, NNP, charg
was, VBD, be
published, VBN, publ
Lawson, NNP, lawson
returned, VBD, return
to, TO, to
fusion, NN, fus
research, NN, research
with, IN, with
Culham, NNP, culham
Rutherford, NNP, rutherford
in, IN, in
1977, CD, 1977
where, WRB, where
he, PRP, he
continued, VBD, continu
working, VBG, work
on, IN, on
free, JJ, fre
electron, NN, electron
lasers, NNS, las
and, CC, and
accelerator, NN, accel
design, NN, design
Lawson, NNP, lawson
was, VBD, be
awarded, VBN, award
the, DT, the
University, NNP, univers
of, IN, of
Cambridge, NNP, cambridg
Sc.D, NNP, sc.d
Physics, NNP, phys
in, IN, in
1959, CD, 1959
and, CC, and
made, VBD, mak
Institute, NNP, institut
of, IN, of
Physics, NNP, phys
in, IN, in
1970, CD, 1970
Royal, NNP, roy
for, IN, for
his, PRP$, his
contributions, NNS, contribut
to, TO, to
the, DT, the
field, NN, field
of, IN, of
applied, JJ, apply
electromagnetism, NN, electromagnet
Lawson, NNP, lawson
criterion, NN, crit
Soc, NNP, soc
Lawson, NNP, lawson
died, VBD, die
on, IN, on
15, CD, 15
January, NNP, janu
2008, CD, 2008
