Albert, NNP, albert
Einstein, NNP, einstein
David, NNP, david
World, NNP, world
's, POS, 's
Most, NNP, most
New, NNP, new
Walker, NNP, walk
Physics, NNP, phys
``, ``, ``
Einstein, NNP, einstein
thought, VBD, think
that, IN, that
Newtonian, JJ, newton
mechanics, NNS, mech
was, VBD, be
no, DT, no
longer, NN, long
enough, RB, enough
to, TO, to
reconcile, VB, reconcil
the, DT, the
laws, NNS, law
of, IN, of
classical, JJ, class
mechanics, NNS, mech
with, IN, with
the, DT, the
laws, NNS, law
of, IN, of
the, DT, the
electromagnetic, JJ, electromagnet
field, NN, field
Einstein, NNP, einstein
applied, VBD, apply
the, DT, the
general, JJ, gen
theory, NN, the
of, IN, of
relativity, NN, rel
to, TO, to
model, VB, model
the, DT, the
large-scale, JJ, large-scal
structure, NN, structure
of, IN, of
the, DT, the
universe, NN, univers
United, NNP, unit
when, WRB, when
Adolf, NNP, adolf
came, VBD, com
to, TO, to
power, NN, pow
in, IN, in
1933, CD, 1933
and, CC, and
did, VBD, do
not, RB, not
go, VB, go
back, RB, back
to, TO, to
Germany, NNP, germany
Berlin, NNP, berlin
of, IN, of
Sciences, NNPS, sci
U.S., NNP, u.s.
American, JJ, am
citizen, NN, cit
in, IN, in
1940, CD, 1940
Franklin, NNP, franklin
alerting, NN, alert
him, PRP, him
to, TO, to
the, DT, the
potential, JJ, pot
developing, VBG, develop
of, IN, of
``, ``, ``
U.S., NNP, u.s.
begin, NN, begin
similar, JJ, simil
research, NN, research
Manhattan, NNP, manhat
Einstein, NNP, einstein
was, VBD, be
in, IN, in
support, NN, support
of, IN, of
defending, VBG, defend
the, DT, the
Allied, NNP, al
forces, VBZ, forc
British, JJ, brit
philosopher, NN, philosoph
Bertrand, NNP, bertrand
Einstein, NNP, einstein
signed, VBD, sign
the, DT, the
Russell\u2013Einstein, JJ, russell\u2013einstein
Manifesto, NNP, manifesto
Einstein, NNP, einstein
was, VBD, be
affiliated, VBN, affy
with, IN, with
the, DT, the
Institute, NNP, institut
for, IN, for
Advanced, NNP, adv
in, IN, in
Princeton, NNP, princeton
New, NNP, new
Einstein, NNP, einstein
published, VBD, publ
more, JJR, mor
than, IN, than
300, CD, 300
scientific, JJ, sci
papers, NNS, pap
along, IN, along
with, IN, with
over, IN, over
150, CD, 150
non-scientific, JJ, non-scientific
works, NNS, work
Einstein, NNP, einstein
'', '', ''
synonymous, VBZ, synonym
with, IN, with
genius, NN, geni
Albert, NNP, albert
was, VBD, be
born, VBN, bear
in, IN, in
Ulm, NNP, ulm
Kingdom, NNP, kingdom
of, IN, of
W\u00fcrttemberg, NNP, w\u00fcrttemberg
in, IN, in
the, DT, the
German, NNP, germ
on, IN, on
14, CD, 14
March, NNP, march
1879, CD, 1879
Hermann, NNP, herman
Pauline, NNP, paulin
Munich, NNP, munich
Elektrotechnische, NNP, elektrotechnisch
Cie, NNP, cie
Einsteins, NNP, einstein
were, VBD, be
non-observant, JJ, non-observant
Jews, NNS, jew
Albert, NNP, albert
attended, VBD, attend
Catholic, NNP, cathol
elementary, NN, el
school, NN, school
from, IN, from
the, DT, the
age, NN, ag
of, IN, of
five, CD, five
for, IN, for
three, CD, three
years, NNS, year
Luitpold, NNP, luitpold
Albert, NNP, albert
Germany, NNP, germany
seven, CD, seven
years, NNS, year
later, RBR, lat
Albert, NNP, albert
indicate, NN, ind
he, PRP, he
excelled, VBD, excel
at, IN, at
the, DT, the
first, JJ, first
school, NN, school
that, WDT, that
he, PRP, he
attended, VBD, attend
Einstein, NNP, einstein
realized, VBD, real
that, IN, that
there, EX, there
must, MD, must
be, VB, be
something, NN, someth
causing, VBG, caus
the, DT, the
needle, NN, needl
to, TO, to
move, VB, mov
Einstein, NNP, einstein
built, VBD, build
models, NNS, model
and, CC, and
mechanical, JJ, mech
devices, NNS, dev
for, IN, for
fun, NN, fun
and, CC, and
began, VBD, begin
to, TO, to
show, VB, show
Einstein, NNP, einstein
was, VBD, be
ten, VBN, ten
years, NNS, year
old, JJ, old
Max, NNP, max
Max, NNP, max
Poland, NNP, poland
Einstein, NNP, einstein
family, NN, famy
by, IN, by
his, PRP$, his
brother, NN, broth
Immanuel, NNP, immanuel
's, POS, 's
Critique, NNP, crit
of, IN, of
Pure, NNP, pur
Euclid, NNP, euclid
's, POS, 's
Elements, NNS, el
Einstein, NNP, einstein
called, VBD, cal
the, DT, the
``, ``, ``
DC, NNP, dc
Currents, NNP, cur
to, TO, to
alternating, VBG, altern
current, JJ, cur
AC, NNP, ac
Einstein, NNP, einstein
family, NN, famy
moved, VBD, mov
to, TO, to
Italy, NNP, ita
Milan, NNP, mil
and, CC, and
then, RB, then
Pavia, NNP, pav
Pavia, NNP, pav
Einstein, NNP, einstein
stayed, VBD, stay
in, IN, in
Munich, NNP, munich
to, TO, to
finish, VB, fin
his, PRP$, his
studies, NNS, study
at, IN, at
the, DT, the
Luitpold, NNP, luitpold
Einstein, NNP, einstein
clashed, VBD, clash
with, IN, with
authorities, NNS, auth
and, CC, and
resented, VBD, res
the, DT, the
school, NN, school
's, POS, 's
regimen, NNS, regim
and, CC, and
teaching, NN, teach
method, NN, method
Italy, NNP, ita
to, TO, to
join, VB, join
his, PRP$, his
family, NN, famy
in, IN, in
Pavia, NNP, pav
Italy, NNP, ita
that, IN, that
he, PRP, he
wrote, VBD, writ
Magnetic, JJ, magnet
Einstein, NNP, einstein
sat, NN, sat
the, DT, the
entrance, NN, ent
examinations, NNS, examin
for, IN, for
the, DT, the
Swiss, NNP, swiss
in, IN, in
Zurich, NNP, zurich
French, JJ, french
Principal, NNP, princip
of, IN, of
the, DT, the
Polytechnic, NNP, polytechn
Aargau, NNP, aargau
in, IN, in
Aarau, NNP, aarau
Switzerland, NNP, switzerland
Professor, NNP, profess
Winteler, NNP, wintel
's, POS, 's
daughter, NN, daught
Marie, NNP, mary
Albert, NNP, albert
's, POS, 's
sister, NN, sist
Maja, NNP, maj
later, JJ, lat
married, VBD, marry
Wintelers, NNP, wintel
Paul, NNP, paul
German, NNP, germ
Kingdom, NNP, kingdom
of, IN, of
W\u00fcrttemberg, NNP, w\u00fcrttemberg
to, TO, to
avoid, VB, avoid
military, JJ, milit
service, NN, serv
Swiss, NNP, swiss
Matura, NNP, matur
with, IN, with
mostly, RB, most
good, JJ, good
grades, NNS, grad
Zurich, NNP, zurich
Marie, NNP, mary
Winteler, NNP, wintel
moved, VBD, mov
to, TO, to
Olsberg, NNP, olsberg
Switzerland, NNP, switzerland
for, IN, for
Einstein, NNP, einstein
's, POS, 's
future, JJ, fut
wife, NN, wif
Mileva, NNP, milev
Einstein, NNP, einstein
and, CC, and
Mari\u0107, NNP, mari\u0107
's, POS, 's
friendship, NN, friend
developed, VBD, develop
into, IN, into
romance, NN, rom
Einstein, NNP, einstein
was, VBD, be
taking, VBG, tak
an, DT, an
increasing, VBG, increas
interest, NN, interest
Einstein, NNP, einstein
was, VBD, be
awarded, VBN, award
the, DT, the
Zurich, NNP, zurich
Polytechnic, NNP, polytechn
teaching, NN, teach
diploma, NN, diplom
Mari\u0107, NNP, mari\u0107
failed, VBD, fail
the, DT, the
examination, NN, examin
with, IN, with
Einstein, NNP, einstein
on, IN, on
his, PRP$, his
celebrated, VBN, celebr
1905, CD, 1905
papers, NNS, pap
Einstein, NNP, einstein
and, CC, and
Mari\u0107, NNP, mari\u0107
it, PRP, it
became, VBD, becom
known, VBN, know
that, IN, that
they, PRP, they
had, VBD, hav
Novi, NNP, nov
Sad, NNP, sad
where, WRB, where
Mari\u0107, JJ, mari\u0107
was, VBD, be
staying, VBG, stay
with, IN, with
her, PRP$, her
parents, NNS, par
Switzerland, NNP, switzerland
without, IN, without
the, DT, the
child, NN, child
Einstein, NNP, einstein
probably, RB, prob
never, RB, nev
saw, VBD, saw
his, PRP$, his
daughter, NN, daught
Einstein, NNP, einstein
and, CC, and
Mari\u0107, NNP, mari\u0107
married, VBD, marry
in, IN, in
January, NNP, janu
1903, CD, 1903
Hans, NNP, han
Bern, NNP, bern
Switzerland, NNP, switzerland
Eduard, NNP, eduard
Zurich, NNP, zurich
in, IN, in
July, NNP, july
1910, CD, 1910
Einstein, NNP, einstein
moved, VBD, mov
to, TO, to
Berlin, NNP, berlin
Zurich, NNP, zurich
with, IN, with
their, PRP$, their
sons, NNS, son
Einstein, NNP, einstein
married, VBD, marry
Elsa, NNP, els
L\u00f6wenthal, JJ, l\u00f6wenthal
on, IN, on
United, NNP, unit
Elsa, NNP, els
was, VBD, be
diagnosed, VBN, diagnos
with, IN, with
heart, NN, heart
and, CC, and
kidney, NN, kidney
problems, NNS, problem
and, CC, and
died, VBD, die
in, IN, in
December, NNP, decemb
1936, CD, 1936
Einstein, NNP, einstein
spent, VBD, spend
almost, RB, almost
two, CD, two
frustrating, VBG, frust
years, NNS, year
searching, VBG, search
for, IN, for
Swiss, NNP, swiss
citizenship, NN, cit
in, IN, in
February, NNP, febru
1901, CD, 1901
Marcel, NNP, marcel
's, POS, 's
father, NN, fath
he, PRP, he
secured, VBD, sec
Bern, NNP, bern
at, IN, at
the, DT, the
Federal, NNP, fed
Office, NNP, off
for, IN, for
Intellectual, NNP, intellect
Einstein, NNP, einstein
's, POS, 's
position, NN, posit
at, IN, at
the, DT, the
Swiss, NNP, swiss
Patent, NNP, pat
Office, NNP, off
became, VBD, becom
permanent, NN, perm
Einstein, NNP, einstein
to, TO, to
his, PRP$, his
radical, JJ, rad
conclusions, NNS, conclud
about, IN, about
the, DT, the
nature, NN, nat
of, IN, of
light, JJ, light
and, CC, and
the, DT, the
fundamental, JJ, funda
connection, NN, connect
between, IN, between
space, NN, spac
and, CC, and
time, NN, tim
Bern, NNP, bern
Einstein, NNP, einstein
started, VBD, start
Olympia, NNP, olymp
'', '', ''
Henri, NNP, henr
Ernst, NNP, ernst
David, NNP, david
Capillarity, NNP, capill
Phenomena, NNP, phenomen
'', '', ''
Annalen, NNP, an
der, NN, der
Physik, NNP, physik
Einstein, NNP, einstein
completed, VBD, complet
his, PRP$, his
thesis, NN, thes
Alfred, NNP, alfr
Experimental, NNP, expery
Einstein, NNP, einstein
was, VBD, be
awarded, VBN, award
University, NNP, univers
of, IN, of
Zurich, NNP, zurich
New, NNP, new
Determination, NNP, determin
of, IN, of
Molecular, NNP, molecul
Einstein, NNP, einstein
's, POS, 's
initial, JJ, init
estimates, NNS, estim
of, IN, of
Avagadro, NNP, avagadro
constant, NN, const
as, IN, as
based, VBN, bas
on, IN, on
diffusion, NN, diffus
coefficients, NNS, coefficy
and, CC, and
viscosities, NNS, viscos
of, IN, of
sugar, NN, sug
solutions, NNS, solv
in, IN, in
water, NN, wat
Einstein, NNP, einstein
's, POS, 's
annus, NN, ann
mirabilis, NNS, mir
Brownian, NNP, brown
motion, NN, mot
University, NNP, univers
of, IN, of
Bern, NNP, bern
University, NNP, univers
of, IN, of
Zurich, NNP, zurich
Charles-Ferdinand, JJ, charles-ferdinand
in, IN, in
Prague, NNP, pragu
in, IN, in
1911, CD, 1911
Einstein, NNP, einstein
's, POS, 's
Avogadro, NNP, avogadro
constant, NN, const
estimate, NN, estim
to, TO, to
Germany, NNP, germany
after, IN, after
being, VBG, be
appointed, VBN, appoint
director, NN, direct
of, IN, of
the, DT, the
Kaiser, NNP, kais
for, IN, for
Physics, NNP, phys
Humboldt, NNP, humboldt
of, IN, of
Berlin, NNP, berlin
Prussian, NNP, pruss
Academy, NNP, academy
of, IN, of
Sciences, NNPS, sci
Einstein, NNP, einstein
was, VBD, be
appointed, VBN, appoint
president, NN, presid
of, IN, of
the, DT, the
German, NNP, germ
Sun, NNP, sun
's, POS, 's
gravity, NN, grav
British, JJ, brit
expedition, NN, expedit
led, VBN, lead
by, IN, by
Sir, NNP, sir
during, IN, during
the, DT, the
solar, JJ, sol
eclipse, NN, eclips
of, IN, of
29, CD, 29
May, NNP, may
1919., CD, 1919.
International, NNP, intern
media, NNS, med
reports, NNS, report
of, IN, of
this, DT, this
made, NN, mad
Einstein, NNP, einstein
world, NN, world
famous, VBZ, fam
British, NNP, brit
newspaper, NN, newspap
The, DT, The
Times, NNP, tim
printed, VBD, print
Science, NNP, sci
\u2013, NNP, \u2013
Universe, NNP, univers
\u2013, NNP, \u2013
Einstein, NNP, einstein
's, POS, 's
theory, NN, the
John, NNP, john
and, CC, and
Clark, NNP, clark
published, VBD, publ
an, DT, an
analysis, NN, analys
suggesting, VBG, suggest
that, IN, that
Eddington, NNP, eddington
had, VBD, hav
suppressed, VBN, suppress
unfavorable, JJ, unfav
results, NNS, result
Eddington, NNP, eddington
's, POS, 's
selection, NN, select
of, IN, of
data, NNS, dat
Eddington, NNP, eddington
's, POS, 's
selection, NN, select
from, IN, from
the, DT, the
data, NNS, dat
seems, VBZ, seem
valid, JJ, valid
and, CC, and
his, PRP$, his
team, NN, team
indeed, RB, indee
made, VBN, mak
astronomical, JJ, astronom
measurements, NNS, meas
verifying, VBG, ver
the, DT, the
theory, NN, the
Einstein, NNP, einstein
was, VBD, be
awarded, VBN, award
the, DT, the
Nobel, NNP, nobel
in, IN, in
Physics, NNP, phys
for, IN, for
his, PRP$, his
explanation, NN, expl
of, IN, of
the, DT, the
photoelectric, JJ, photoelect
effect, NN, effect
Copley, NNP, copley
from, IN, from
the, DT, the
Royal, NNP, roy
in, IN, in
1925, CD, 1925
Einstein, NNP, einstein
visited, VBD, visit
New, NNP, new
for, IN, for
the, DT, the
first, JJ, first
time, NN, tim
on, IN, on
John, NNP, john
Columbia, NNP, columb
and, CC, and
Princeton, NNP, princeton
Washington, NNP, washington
he, PRP, he
accompanied, VBD, accompany
representatives, NNS, repres
of, IN, of
the, DT, the
National, NNP, nat
of, IN, of
Science, NNP, sci
on, IN, on
White, NNP, whit
Europe, NNP, europ
he, PRP, he
was, VBD, be
the, DT, the
guest, JJS, guest
of, IN, of
the, DT, the
British, JJ, brit
statesman, NN, statesm
and, CC, and
philosopher, NN, philosoph
Viscount, NNP, viscount
in, IN, in
London, NNP, london
King, NNP, king
's, POS, 's
College, NNP, colleg
Asia, NNP, as
and, CC, and
later, JJ, lat
to, TO, to
Palestine, NNP, palestin
Singapore, NNP, singap
Ceylon, NNP, ceylon
Japan, NNP, jap
Japanese, JJ, japanes
Tokyo, NNP, tokyo
lasted, VBD, last
four, CD, four
hours, NNS, hour
Imperial, NNP, imp
where, WRB, where
thousands, NNS, thousand
came, VBD, com
to, TO, to
watch, VB, watch
Einstein, NNP, einstein
later, JJ, lat
gave, VBD, giv
his, PRP$, his
impressions, NNS, impress
of, IN, of
the, DT, the
Japanese, JJ, japanes
in, IN, in
Japanese, JJ, japanes
most, JJS, most
Palestine, NNP, palestin
for, IN, for
12, CD, 12
days, NNS, day
in, IN, in
what, WP, what
would, MD, would
become, VB, becom
his, PRP$, his
only, RB, on
visit, NN, visit
to, TO, to
that, DT, that
region, NN, reg
British, JJ, brit
pomp, NN, pomp
Isaacson, NNP, isaacson
British, JJ, brit
high, NN, high
commissioner, NN, commit
Sir, NNP, sir
Einstein, NNP, einstein
's, POS, 's
talk, NN, talk
to, TO, to
the, DT, the
audience, NN, audy
U.S., NNP, u.s.
in, IN, in
1933===, CD, 1933===
In, IN, In
February, NNP, febru
1933, CD, 1933
while, IN, while
on, IN, on
United, NNP, unit
Einstein, NNP, einstein
decided, VBD, decid
not, RB, not
to, TO, to
return, VB, return
to, TO, to
Germany, NNP, germany
due, JJ, due
to, TO, to
the, DT, the
rise, NN, ris
to, TO, to
power, NN, pow
of, IN, of
the, DT, the
Nazis, NNP, naz
under, IN, under
Germany, NNP, germany
's, POS, 's
new, JJ, new
chancellor, NN, chancel
Adolf, NNP, adolf
American, NNP, am
universities, NNS, univers
in, IN, in
early, JJ, ear
1933, CD, 1933
where, WRB, where
he, PRP, he
undertook, VBP, undertak
his, PRP$, his
third, JJ, third
two-month, JJ, two-month
visiting, NN, visit
professorship, NN, profess
at, IN, at
the, DT, the
California, NNP, californ
of, IN, of
Technology, NNP, technolog
in, IN, in
Pasadena, NNP, pasaden
Elsa, NNP, els
returned, VBD, return
by, IN, by
ship, NN, ship
to, TO, to
Belgium, NNP, belg
at, IN, at
the, DT, the
end, NN, end
of, IN, of
March, NNP, march
Nazis, NNP, naz
and, CC, and
his, PRP$, his
personal, JJ, person
sailboat, NN, sailbo
had, VBD, hav
been, VBN, be
confiscated, VBN, confisc
Upon, NNP, upon
landing, NN, land
in, IN, in
Antwerp, NNP, antwerp
on, IN, on
28, CD, 28
March, NNP, march
German, NNP, germ
consulate, NN, cons
where, WRB, where
he, PRP, he
turned, VBD, turn
in, IN, in
his, PRP$, his
passport, NN, passport
and, CC, and
formally, RB, form
renounced, VBN, renount
his, PRP$, his
German, NNP, germ
citizenship, NN, cit
Nazis, NNP, naz
sold, VBD, sel
his, PRP$, his
boat, NN, boat
and, CC, and
turned, VBD, turn
his, PRP$, his
cottage, NN, cot
into, IN, into
an, DT, an
Aryan, NNP, ary
youth, NN, you
camp, NN, camp
German, JJ, germ
government, NN, govern
had, VBD, hav
passed, VBN, pass
laws, NNS, law
barring, VBG, bar
Jews, NNS, jew
from, IN, from
holding, VBG, hold
any, DT, any
official, NN, off
positions, NNS, posit
Einstein, NNP, einstein
's, POS, 's
works, NNS, work
were, VBD, be
among, IN, among
those, DT, those
targeted, VBN, target
by, IN, by
Nazi, NNP, naz
book, NN, book
burnings, NNS, burn
Nazi, NNP, naz
propaganda, NN, propagand
minister, NN, min
Joseph, NNP, joseph
proclaimed, VBD, proclaim
Einstein, NNP, einstein
also, RB, also
learned, VBD, learn
that, DT, that
his, PRP$, his
name, NN, nam
was, VBD, be
on, IN, on
German, JJ, germ
magazine, NN, magazin
included, VBD, includ
him, PRP, him
in, IN, in
German, NNP, germ
regime, NN, regim
with, IN, with
the, DT, the
phrase, NN, phrase
Belgium, NNP, belg
for, IN, for
some, DT, some
months, NNS, mon
England, NNP, england
Max, NNP, max
Germany, NNP, germany
and, CC, and
lived, VBD, liv
in, IN, in
England, NNP, england
Einstein, NNP, einstein
wrote, VBD, writ
U.S., NNP, u.s.
and, CC, and
took, VBD, tak
up, RP, up
Institute, NNP, institut
for, IN, for
Advanced, NNP, adv
Princeton, NNP, princeton
New, NNP, new
European, JJ, europ
universities, NNS, univers
Oxford, NNP, oxford
United, NNP, unit
and, CC, and
apply, RB, apply
for, IN, for
citizenship, NN, cit
Institute, NNP, institut
for, IN, for
Advanced, NNP, adv
would, MD, would
last, VB, last
until, IN, until
his, PRP$, his
death, NN, dea
in, IN, in
1955, CD, 1955
John, NNP, john
von, NN, von
Neumann, NNP, neuman
and, CC, and
Kurt, NNP, kurt
G\u00f6del, NNP, g\u00f6del
Bruria, NNP, brur
Einstein, NNP, einstein
tried, VBD, try
to, TO, to
develop, VB, develop
America, NNP, americ
Nobel, NNP, nobel
laureates, NNS, laur
and, CC, and
professors, NNS, profess
of, IN, of
theoretical, JJ, theoret
physics, NNS, phys
America, NNP, americ
Einstein, NNP, einstein
wrote, VBD, writ
to, TO, to
Jewish, NNP, jew
as, IN, as
now, RB, now
Manhattan, NNP, manhat
Project====, NNP, project====
In, NNP, in
1939, CD, 1939
Hungarian, JJ, hung
scientists, NNS, sci
that, WDT, that
included, VBD, includ
emigre, VBP, emigr
physicist, NN, phys
Le\u00f3, -NONE-, Le\u00f3
Szil\u00e1rd, JJ, szil\u00e1rd
attempted, VBN, attempt
to, TO, to
alert, VB, alert
Washington, NNP, washington
of, IN, of
ongoing, VBG, ongo
Nazi, NNP, naz
atomic, JJ, atom
bomb, NN, bomb
research, NN, research
Einstein, NNP, einstein
and, CC, and
Szil\u00e1rd, JJ, szil\u00e1rd
Edward, NNP, edward
and, CC, and
Eugene, NNP, eug
Americans, NNPS, am
to, TO, to
the, DT, the
possibility, NN, poss
that, IN, that
German, NNP, germ
scientists, NNS, sci
might, MD, might
win, VB, win
the, DT, the
race, NN, rac
to, TO, to
build, VB, build
an, DT, an
atomic, JJ, atom
bomb, NN, bomb
Hitler, NNP, hitl
would, MD, would
be, VB, be
more, RBR, mor
than, IN, than
willing, JJ, wil
to, TO, to
resort, VB, resort
to, TO, to
such, JJ, such
Europe, NNP, europ
Einstein, NNP, einstein
was, VBD, be
persuaded, VBN, persuad
to, TO, to
lend, VB, lend
his, PRP$, his
prestige, NN, prestig
by, IN, by
writing, NN, writ
Franklin, NNP, franklin
to, TO, to
alert, VB, alert
him, PRP, him
of, IN, of
the, DT, the
possibility, NN, poss
U.S., NNP, u.s.
government, NN, govern
pay, NN, pay
attention, NN, at
to, TO, to
and, CC, and
become, VB, becom
directly, RB, direct
involved, VBN, involv
in, IN, in
uranium, NN, uran
research, NN, research
and, CC, and
associated, VBN, assocy
chain, NN, chain
reaction, NN, react
research, NN, research
U.S., NNP, u.s.
adoption, NN, adopt
of, IN, of
serious, JJ, sery
investigations, NNS, investig
into, IN, into
nuclear, JJ, nuclear
weapons, NNS, weapon
on, IN, on
the, DT, the
eve, NN, ev
of, IN, of
the, DT, the
U.S., NNP, u.s.
entry, NN, entry
into, IN, into
World, NNP, world
War, NNP, war
II, NNP, ii
'', '', ''
Roosevelt, NNP, roosevelt
could, MD, could
not, RB, not
take, VB, tak
the, DT, the
risk, NN, risk
of, IN, of
allowing, VBG, allow
Hitler, NNP, hitl
to, TO, to
possess, NN, poss
atomic, JJ, atom
bombs, NNS, bomb
first, RB, first
Einstein, NNP, einstein
's, POS, 's
letter, NN, let
and, CC, and
his, PRP$, his
meetings, NNS, meet
with, IN, with
Roosevelt, NNP, roosevelt
U.S., NNP, u.s.
entered, VBD, ent
the, DT, the
``, ``, ``
Manhattan, NNP, manhat
Einstein, NNP, einstein
Einstein, NNP, einstein
said, VBD, say
to, TO, to
his, PRP$, his
old, JJ, old
friend, NN, friend
Linus, NNP, lin
Roosevelt, NNP, roosevelt
recommending, VBG, recommend
that, IN, that
atom, NN, atom
bombs, NNS, bomb
be, VB, be
made, VBN, mak
Einstein, NNP, einstein
became, VBD, becom
an, DT, an
American, JJ, am
citizen, NN, cit
in, IN, in
1940, CD, 1940
Institute, NNP, institut
for, IN, for
Advanced, NNP, adv
Princeton, NNP, princeton
New, NNP, new
American, NNP, am
culture, NN, cult
when, WRB, when
compared, VBN, comp
to, TO, to
Europe, NNP, europ
Isaacson, NNP, isaacson
Einstein, NNP, einstein
writes, VBZ, writ
American, JJ, am
youth, NN, you
has, VBZ, hav
the, DT, the
good, JJ, good
fortune, NN, fortun
not, RB, not
to, TO, to
have, VB, hav
its, PRP$, its
outlook, NN, outlook
troubled, VBD, troubl
by, IN, by
outworn, NN, outworn
traditions, NNS, tradit
National, NNP, nat
for, IN, for
the, DT, the
Advancement, NNP, adv
of, IN, of
Colored, NNP, col
People, NNP, peopl
NAACP, NNP, naacp
Princeton, NNP, princeton
who, WP, who
campaigned, VBN, campaign
for, IN, for
the, DT, the
civil, NN, civil
rights, NNS, right
of, IN, of
African, NNP, afr
Einstein, NNP, einstein
corresponded, VBD, correspond
with, IN, with
civil, JJ, civil
rights, NNS, right
activist, VBP, act
W., NNP, w.
E., NNP, e.
Einstein, NNP, einstein
called, VBD, cal
racism, NN, rac
America, NNP, americ
's, POS, 's
``, ``, ``
American, NNP, am
tradition, NN, tradit
which, WDT, which
is, VBZ, be
uncritically, RB, uncrit
handed, VBN, hand
down, RP, down
from, IN, from
one, CD, one
generation, NN, gen
to, TO, to
the, DT, the
next, JJ, next
Einstein, NNP, einstein
transitioned, VBD, transit
to, TO, to
Israel, NNP, israel
's, POS, 's
first, JJ, first
president, NN, presid
Chaim, NNP, chaim
David, NNP, david
Ben-Gurion, NNP, ben-gur
offered, VBD, off
Einstein, NNP, einstein
the, DT, the
position, NN, posit
of, IN, of
President, NNP, presid
of, IN, of
Israel, NNP, israel
Israel, NNP, israel
's, POS, 's
ambassador, NN, ambassad
in, IN, in
Washington, NNP, washington
Abba, NNP, abb
Jewish, NNP, jew
people, NNS, peopl
can, MD, can
repose, VB, repos
in, IN, in
any, DT, any
of, IN, of
its, PRP$, its
sons, NNS, son
'', '', ''
Einstein, NNP, einstein
declined, VBD, declin
Jewish, NNP, jew
people, NNS, peopl
became, VBD, becom
my, PRP$, my
strongest, NN, strongest
human, NN, hum
tie, NN, tie
once, RB, ont
Albert, NNP, albert
experienced, VBD, expery
internal, JJ, intern
bleeding, NN, blee
caused, VBD, caus
by, IN, by
the, DT, the
rupture, NN, rupt
of, IN, of
an, DT, an
abdominal, JJ, abdomin
aortic, JJ, aort
aneurysm, NN, aneurysm
Rudolph, NNP, rudolph
in, IN, in
1948, CD, 1948
Israel, NNP, israel
's, POS, 's
seventh, JJ, seven
anniversary, NN, annivers
with, IN, with
him, PRP, him
to, TO, to
the, DT, the
hospital, NN, hospit
Einstein, NNP, einstein
refused, VBD, refus
surgery, NN, surgery
Princeton, NNP, princeton
Hospital, NNP, hospit
early, RB, ear
the, DT, the
next, JJ, next
morning, NN, morn
at, IN, at
the, DT, the
age, NN, ag
of, IN, of
76, CD, 76
Princeton, NNP, princeton
Thomas, NNP, thoma
Einstein, NNP, einstein
's, POS, 's
brain, NN, brain
for, IN, for
preservation, NN, preserv
without, IN, without
the, DT, the
permission, NN, permit
of, IN, of
his, PRP$, his
family, NN, famy
Einstein, NNP, einstein
so, RB, so
intelligent, JJ, intellig
Einstein, NNP, einstein
's, POS, 's
remains, NNS, remain
were, VBD, be
cremated, VBN, crem
and, CC, and
his, PRP$, his
ashes, NNS, ash
were, VBD, be
scattered, VBN, scat
at, IN, at
an, DT, an
undisclosed, JJ, undisclos
location, NN, loc
Einstein, NNP, einstein
's, POS, 's
memorial, JJ, mem
Robert, NNP, robert
summarized, VBD, summ
his, PRP$, his
impression, NN, impress
of, IN, of
him, PRP, him
as, IN, as
Einstein, NNP, einstein
published, VBD, publ
hundreds, NNS, hundr
of, IN, of
books, NNS, book
and, CC, and
articles, NNS, artic
Einstein, NNP, einstein
refrigerator, NN, refrig
and, CC, and
others, NNS, oth
Annus, NNP, ann
papers===, NNP, papers===
The, NNP, the
Annus, NNP, ann
papers, NNS, pap
are, VBP, be
four, CD, four
articles, NNS, artic
pertaining, VBG, pertain
to, TO, to
the, DT, the
photoelectric, JJ, photoelect
effect, NN, effect
Brownian, NNP, brown
motion, NN, mot
Albert, NNP, albert
published, VBD, publ
in, IN, in
the, DT, the
Annalen, NNP, an
der, NN, der
Physik, NNP, physik
scientific, JJ, sci
journal, JJ, journ
in, IN, in
1905, CD, 1905
Albert, NNP, albert
's, POS, 's
first, JJ, first
paper, NN, pap
submitted, VBN, submit
in, IN, in
1900, CD, 1900
to, TO, to
Annalen, NNP, an
der, NN, der
Physik, NNP, physik
was, VBD, be
on, IN, on
capillary, JJ, capil
attraction, NN, attract
Brownian, NNP, brown
motion, NN, mot
Brownian, JJ, brown
movement, NN, mov
can, MD, can
be, VB, be
construed, VBN, constru
as, IN, as
firm, NN, firm
evidence, NN, evid
that, IN, that
molecules, NNS, molec
exist, VBP, ex
Hermann, NNP, herman
to, TO, to
be, VB, be
Einstein, NNP, einstein
and, CC, and
later, JJ, lat
vindicated, VBN, vind
are, VBP, be
the, DT, the
principle, NN, principl
of, IN, of
equivalence, NN, equ
and, CC, and
the, DT, the
principle, NN, principl
of, IN, of
adiabatic, JJ, adiab
invariance, NN, inv
of, IN, of
the, DT, the
quantum, NN, quant
number, NN, numb
Einstein, NNP, einstein
's, POS, 's
``, ``, ``
Zur, NNP, zur
bewegter, NN, bewegt
K\u00f6rper, NN, k\u00f6rper
'', '', ''
Electrodynamics, NNP, electrodynam
of, IN, of
Moving, NNP, mov
'', '', ''
Maxwell, NNP, maxwel
's, POS, 's
equations, NNS, equ
for, IN, for
electricity, NN, elect
and, CC, and
magnetism, NN, magnet
with, IN, with
the, DT, the
laws, NNS, law
of, IN, of
mechanics, NNS, mech
Einstein, NNP, einstein
's, POS, 's
special, JJ, spec
theory, NN, the
of, IN, of
relativity, NN, rel
Einstein, NNP, einstein
produced, VBD, produc
Einstein, NNP, einstein
's, POS, 's
1905, CD, 1905
work, NN, work
on, IN, on
relativity, NN, rel
remained, VBD, remain
controversial, JJ, controvers
for, IN, for
many, JJ, many
years, NNS, year
Max, NNP, max
Einstein, NNP, einstein
postulated, VBD, post
that, IN, that
light, JJ, light
itself, NN, itself
consists, NNS, consist
of, IN, of
localized, JJ, loc
particles, NNS, partic
Einstein, NNP, einstein
's, POS, 's
light, JJ, light
quanta, NN, quant
were, VBD, be
nearly, RB, near
universally, RB, univers
rejected, VBN, reject
by, IN, by
all, DT, all
physicists, NNS, phys
Max, NNP, max
and, CC, and
Niels, NNP, niel
Robert, NNP, robert
's, POS, 's
detailed, JJ, detail
experiments, NNS, expery
on, IN, on
the, DT, the
photoelectric, JJ, photoelect
effect, NN, effect
Compton, NNP, compton
scattering, NN, scat
Einstein, NNP, einstein
concluded, VBD, conclud
that, IN, that
each, DT, each
wave, NN, wav
of, IN, of
frequency, NN, frequ
Planck, NNP, planck
's, POS, 's
constant, JJ, const
Einstein, NNP, einstein
proposed, VBD, propos
Einstein, NNP, einstein
model, NN, model
Einstein, NNP, einstein
was, VBD, be
aware, JJ, aw
that, IN, that
getting, VBG, get
the, DT, the
frequency, NN, frequ
of, IN, of
the, DT, the
actual, JJ, act
oscillations, NNS, oscil
would, MD, would
be, VB, be
different, JJ, diff
Peter, NNP, pet
Debye, NNP, deby
refined, VBD, refin
this, DT, this
model, NN, model
Ernest, NNP, ernest
discovered, VBD, discov
the, DT, the
nucleus, NN, nucle
and, CC, and
proposed, VBD, propos
that, IN, that
electrons, NNS, electron
orbit, VBP, orbit
like, IN, like
planets, NNS, planet
Niels, NNP, niel
was, VBD, be
able, JJ, abl
to, TO, to
show, VB, show
that, IN, that
the, DT, the
same, JJ, sam
quantum, NN, quant
mechanical, JJ, mech
postulates, NNS, post
introduced, VBN, introduc
by, IN, by
Planck, NNP, planck
and, CC, and
developed, VBD, develop
by, IN, by
Einstein, NNP, einstein
would, MD, would
explain, VB, explain
the, DT, the
discrete, JJ, discret
motion, NN, mot
of, IN, of
electrons, NNS, electron
in, IN, in
atoms, NNS, atom
Einstein, NNP, einstein
contributed, VBD, contribut
to, TO, to
these, DT, these
developments, NNS, develop
by, IN, by
linking, VBG, link
them, PRP, them
with, IN, with
the, DT, the
1898, CD, 1898
arguments, NNS, argu
Wilhelm, NNP, wilhelm
had, VBD, hav
made, VBN, mak
Wien, NNP, wien
had, VBD, hav
shown, VBN, show
that, IN, that
the, DT, the
hypothesis, NN, hypothes
of, IN, of
adiabatic, JJ, adiab
invariance, NN, inv
of, IN, of
Einstein, NNP, einstein
noted, VBD, not
in, IN, in
1911, CD, 1911
that, WDT, that
the, DT, the
same, JJ, sam
adiabatic, JJ, adiab
principle, NN, principl
shows, VBZ, show
that, IN, that
the, DT, the
quantity, NN, quant
which, WDT, which
is, VBZ, be
quantized, VBN, quant
in, IN, in
any, DT, any
mechanical, JJ, mech
motion, NN, mot
must, MD, must
be, VB, be
an, DT, an
adiabatic, JJ, adiab
invariant, NN, inv
Arnold, NNP, arnold
identified, VBD, ident
this, DT, this
adiabatic, JJ, adiab
invariant, NN, inv
as, IN, as
the, DT, the
action, NN, act
variable, JJ, vary
of, IN, of
classical, JJ, class
mechanics, NNS, mech
Einstein, NNP, einstein
to, TO, to
Technical, NNP, techn
Second, NNP, second
Class, NNP, class
in, IN, in
1906, CD, 1906
University, NNP, univers
of, IN, of
Bern, NNP, bern
Anschauungen, NNP, anschauung
\u00fcber, NNP, \u00fcber
das, VBZ, das
Wesen, NNP, wes
und, NN, und
die, VB, die
Konstitution, NNP, konstitut
der, NN, der
Strahlung, NNP, strahlung
'', '', ''
Development, NNP, develop
of, IN, of
Our, NNP, our
Views, NNP, view
on, IN, on
the, DT, the
Composition, NNP, composit
and, CC, and
Essence, NNP, ess
of, IN, of
Radiation, NNP, rady
'', '', ''
Einstein, NNP, einstein
showed, VBD, show
that, IN, that
Max, NNP, max
's, POS, 's
energy, NN, energy
quanta, NN, quant
must, MD, must
have, VB, hav
well-defined, JJ, well-defined
momenta, NN, moment
and, CC, and
act, NN, act
in, IN, in
some, DT, some
respects, NNS, respect
as, IN, as
independent, JJ, independ
Gilbert, NNP, gilbert
in, IN, in
1926, CD, 1926
Einstein, NNP, einstein
returned, VBD, return
to, TO, to
the, DT, the
problem, NN, problem
of, IN, of
thermodynamic, JJ, thermodynam
fluctuations, NNS, fluctu
Einstein, NNP, einstein
relates, VBZ, rel
this, DT, this
to, TO, to
Rayleigh, NNP, rayleigh
scattering, NN, scat
Einstein, NNP, einstein
quantitatively, RB, quantit
derived, VBD, der
critical, JJ, crit
opalescence, NN, opalesc
from, IN, from
Rayleigh, NNP, rayleigh
scattering, NN, scat
originate, NN, origin
from, IN, from
the, DT, the
atomistic, JJ, atom
constitution, NN, constitut
of, IN, of
matter, NN, mat
Einstein, NNP, einstein
's, POS, 's
physical, JJ, phys
intuition, NN, intuit
led, VBN, lead
him, PRP, him
to, TO, to
note, VB, not
that, IN, that
Planck, NNP, planck
's, POS, 's
oscillator, NN, oscil
energies, NNS, energy
had, VBD, hav
an, DT, an
incorrect, NN, incorrect
zero, NN, zero
point, NN, point
Planck, NNP, planck
's, POS, 's
hypothesis, NN, hypothes
by, IN, by
stating, NN, stat
that, IN, that
the, DT, the
lowest, JJS, low
energy, NN, energy
state, NN, stat
of, IN, of
an, DT, an
oscillator, NN, oscil
is, VBZ, be
equal, JJ, eq
to, TO, to
hf, NN, hf
Otto, NNP, otto
Albert, NNP, albert
between, IN, between
1907, CD, 1907
and, CC, and
1915, CD, 1915
Albert, NNP, albert
later, JJ, lat
said, VBD, say
Equivalence, NNP, equ
principle, NN, principl
Einstein, NNP, einstein
also, RB, also
predicted, VBD, predict
the, DT, the
phenomenon, NN, phenomenon
of, IN, of
gravitational, JJ, gravit
time, NN, tim
dilation, NN, dil
Einstein, NNP, einstein
published, VBD, publ
another, DT, another
article, NN, artic
expanding, VBG, expand
on, IN, on
the, DT, the
1907, CD, 1907
article, NN, artic
Entwurf, NNP, entwurf
theory===, NNP, theory===
While, NNP, whil
developing, VBG, develop
general, JJ, gen
relativity, NN, rel
Einstein, NNP, einstein
became, VBD, becom
confused, VBN, confus
about, IN, about
the, DT, the
gauge, NN, gaug
invariance, NN, inv
in, IN, in
the, DT, the
theory, NN, the
Entwurf, NNP, entwurf
Einstein, NNP, einstein
abandoned, VBD, abandon
the, DT, the
theory, NN, the
in, IN, in
November, NNP, novemb
1915, CD, 1915
after, IN, after
realizing, NN, real
that, IN, that
the, DT, the
hole, NN, hol
argument, NN, argu
was, VBD, be
mistaken, VBN, mistak
Einstein, NNP, einstein
applied, VBD, apply
the, DT, the
General, NNP, gen
theory, NN, the
of, IN, of
relativity, NN, rel
to, TO, to
model, VB, model
the, DT, the
structure, NN, structure
of, IN, of
the, DT, the
universe, NN, univers
as, IN, as
Einstein, NNP, einstein
modified, VBD, mod
the, DT, the
general, JJ, gen
theory, NN, the
by, IN, by
introducing, NN, introduc
Einstein, NNP, einstein
believed, VBD, believ
Mach, NNP, mach
's, POS, 's
principle, NN, principl
Mach, NNP, mach
's, POS, 's
principle, NN, principl
to, TO, to
Mach, NNP, mach
's, POS, 's
idea, NN, ide
would, MD, would
not, RB, not
work, VB, work
if, IN, if
space, NN, spac
goes, VBZ, go
on, IN, on
forever, NN, forev
Mach, NNP, mach
's, POS, 's
principle, NN, principl
would, MD, would
hold, VB, hold
Einstein, NNP, einstein
was, VBD, be
displeased, VBN, displeas
with, IN, with
quantum, NN, quant
theory, NN, the
and, CC, and
mechanics, NNS, mech
Einstein, NNP, einstein
died, VBD, die
at, IN, at
the, DT, the
age, NN, ag
of, IN, of
76, CD, 76
he, PRP, he
still, RB, stil
would, MD, would
not, RB, not
accept, VB, acceiv
quantum, NN, quant
theory, NN, the
Einstein, NNP, einstein
published, VBD, publ
an, DT, an
article, NN, artic
in, IN, in
Physikalische, NNP, physikalisch
Zeitschrift, NNP, zeitschrift
that, IN, that
proposed, VBN, propos
the, DT, the
possibility, NN, poss
of, IN, of
stimulated, VBN, stim
emission, NN, emit
Planck, NNP, planck
's, POS, 's
distribution, NN, distribut
law, NN, law
if, IN, if
the, DT, the
emission, NN, emit
of, IN, of
light, JJ, light
into, IN, into
Einstein, NNP, einstein
discovered, VBD, discov
Louis, NNP, lou
de, IN, de
Broglie, NNP, brog
's, POS, 's
work, NN, work
Einstein, NNP, einstein
gave, VBD, giv
Broglie, NNP, brog
waves, VBZ, wav
Einstein, NNP, einstein
suggested, VBD, suggest
was, VBD, be
the, DT, the
Hamilton\u2013Jacobi, NNP, hamilton\u2013jacobi
equation, NN, equ
of, IN, of
mechanics, NNS, mech
Einstein, NNP, einstein
received, VBD, receiv
Indian, NNP, ind
physicist, NN, phys
Satyendra, NNP, satyendr
Einstein, NNP, einstein
noted, VBD, not
that, IN, that
Bose, NNP, bos
's, POS, 's
statistics, NNS, stat
applied, VBD, apply
to, TO, to
some, DT, some
atoms, NNS, atom
as, IN, as
well, RB, wel
as, IN, as
to, TO, to
the, DT, the
proposed, VBN, propos
light, NN, light
particles, NNS, partic
Bose, NNP, bos
's, POS, 's
paper, NN, pap
to, TO, to
the, DT, the
Zeitschrift, NNP, zeitschrift
f\u00fcr, NNP, f\u00fcr
Physik, NNP, physik
Einstein, NNP, einstein
also, RB, also
published, VBD, publ
his, PRP$, his
own, JJ, own
articles, NNS, artic
describing, VBG, describ
the, DT, the
model, NN, model
and, CC, and
its, PRP$, its
implications, NNS, imply
Eric, NNP, er
and, CC, and
Carl, NNP, carl
using, VBG, us
ultra-cooling, JJ, ultra-cooling
equipment, NN, equip
built, NN, built
at, IN, at
the, DT, the
NIST\u2013JILA, NNP, nist\u2013jila
laboratory, NN, lab
at, IN, at
the, DT, the
University, NNP, univers
of, IN, of
Colorado, NNP, colorado
at, IN, at
Boulder, NNP, bould
Einstein, NNP, einstein
's, POS, 's
sketches, NNS, sketch
for, IN, for
this, DT, this
project, NN, project
may, MD, may
be, VB, be
seen, VBN, see
in, IN, in
the, DT, the
Einstein, NNP, einstein
in, IN, in
the, DT, the
library, NN, libr
of, IN, of
the, DT, the
Leiden, NNP, leid
Noether, NNP, noeth
's, POS, 's
theorem, NN, theorem
allows, VBZ, allow
these, DT, these
quantities, NNS, quant
to, TO, to
be, VB, be
determined, VBN, determin
from, IN, from
Lagrangian, JJ, lagrang
with, IN, with
translation, NN, transl
invariance, NN, inv
Noether, NNP, noeth
's, POS, 's
presecriptions, NNS, presecrib
do, VBP, do
not, RB, not
make, VB, mak
Einstein, NNP, einstein
argued, VBD, argu
that, IN, that
this, DT, this
is, VBZ, be
true, JJ, tru
for, IN, for
fundamental, JJ, funda
reasons, NNS, reason
Lev, NNP, lev
and, CC, and
Evgeny, NNP, evgeny
Erwin, NNP, erwin
Schr\u00f6dinger, NNP, schr\u00f6dinger
and, CC, and
others, NNS, oth
Einstein, NNP, einstein
entered, VBD, ent
into, IN, into
Scientific, NNP, sci
article, NN, artic
entitled, VBD, entitl
``, ``, ``
Generalized, NNP, gen
Theory, NNP, the
of, IN, of
Gravitation, NNP, gravit
'', '', ''
Einstein, NNP, einstein
became, VBD, becom
increasingly, RB, increas
isolated, VBN, isol
in, IN, in
his, PRP$, his
research, NN, research
Einstein, NNP, einstein
ignored, VBD, ign
some, DT, some
mainstream, NN, mainstream
developments, NNS, develop
in, IN, in
physics, NN, phys
Mainstream, NNP, mainstream
physics, NN, phys
Einstein, NNP, einstein
's, POS, 's
approaches, NNS, approach
to, TO, to
unification, NN, un
Einstein, NNP, einstein
's, POS, 's
dream, NN, dream
of, IN, of
unifying, VBG, un
other, JJ, oth
laws, NNS, law
of, IN, of
physics, NNS, phys
with, IN, with
gravity, NN, grav
motivates, NNS, mot
modern, JJ, modern
quests, NNS, quest
for, IN, for
Einstein, NNP, einstein
collaborated, VBD, collab
with, IN, with
others, NNS, oth
to, TO, to
produce, VB, produc
Important, JJ, import
in, IN, in
the, DT, the
Constitution, NNP, constitut
of, IN, of
the, DT, the
Elementary, NNP, el
Schwarzschild, NNP, schwarzschild
black, NN, black
holes, NNS, hol
to, TO, to
make, VB, mak
Einstein, NNP, einstein
to, TO, to
believe, VB, believ
that, IN, that
pairs, NNS, pair
of, IN, of
particles, NNS, partic
and, CC, and
antiparticles, NNS, antipartic
could, MD, could
be, VB, be
described, VBN, describ
in, IN, in
this, DT, this
way, NN, way
Einstein, NNP, einstein
and, CC, and
Cartan, NNP, cart
in, IN, in
the, DT, the
1920s, NNS, 1920s
Einstein, NNP, einstein
equations, NNS, equ
which, WDT, which
describe, VBP, describ
how, WRB, how
space, NN, spac
curves, NNS, curv
Einstein, NNP, einstein
equations, NNS, equ
Einstein, NNP, einstein
equations, NNS, equ
themselves, PRP, themselves
Einstein, NNP, einstein
proposed, VBD, propos
that, IN, that
the, DT, the
path, NN, path
of, IN, of
Einstein, NNP, einstein
Infeld, NNP, infeld
Hoffmann, NNP, hoffman
for, IN, for
pointlike, NN, pointlik
objects, NNS, object
without, IN, without
angular, JJ, angul
momentum, NN, moment
Roy, NNP, roy
for, IN, for
spinning, VBG, spin
objects, NNS, object
Einstein, NNP, einstein
conducted, VBD, conduc
other, JJ, oth
investigations, NNS, investig
that, IN, that
were, VBD, be
unsuccessful, JJ, unsuccess
and, CC, and
abandoned, VBN, abandon
Leopold, NNP, leopold
Nathan, NNP, nath
Peter, NNP, pet
and, CC, and
others, NNS, oth
Einstein, NNP, einstein
also, RB, also
had, VBD, hav
some, DT, some
one-shot, JJ, one-shot
collaborations, NNS, collab
with, IN, with
various, JJ, vary
scientists, NNS, sci
Haas, NNP, haa
experiment====, NNP, experiment====
Einstein, NNP, einstein
and, CC, and
De, NNP, de
demonstrated, VBD, demonst
that, IN, that
magnetization, NN, magnet
is, VBZ, be
due, JJ, due
to, TO, to
the, DT, the
motion, NN, mot
of, IN, of
electrons, NNS, electron
Einstein, NNP, einstein
suggested, VBD, suggest
to, TO, to
Erwin, NNP, erwin
Schr\u00f6dinger, NNP, schr\u00f6dinger
that, IN, that
he, PRP, he
might, MD, might
be, VB, be
able, JJ, abl
to, TO, to
reproduce, VB, reproduc
the, DT, the
statistics, NNS, stat
of, IN, of
Erwin, NNP, erwin
Schr\u00f6dinger, NNP, schr\u00f6dinger
applied, VBD, apply
this, DT, this
to, TO, to
derive, VB, der
the, DT, the
thermodynamic, JJ, thermodynam
properties, NNS, property
of, IN, of
Einstein, NNP, einstein
to, TO, to
add, VB, ad
his, PRP$, his
name, NN, nam
as, IN, as
co-author, NN, co-author
Einstein, NNP, einstein
declined, VBD, declin
the, DT, the
invitation, NN, invit
Einstein, NNP, einstein
and, CC, and
his, PRP$, his
former, JJ, form
student, NN, stud
Le\u00f3, -NONE-, Le\u00f3
Szil\u00e1rd, JJ, szil\u00e1rd
co-invented, JJ, co-invented
Einstein, NNP, einstein
refrigerator, NN, refrig
Albert, NNP, albert
and, CC, and
Le\u00f3, NNP, le\u00f3
Szil\u00e1rd, NNP, szil\u00e1rd
for, IN, for
the, DT, the
refrigerator, NN, refrig
Swedish, NNP, swed
company, NN, company
Electrolux, NNP, electrolux
to, TO, to
protect, VB, protect
its, PRP$, its
refrigeration, NN, refrig
technology, NN, technolog
from, IN, from
competition, NN, competit
Albert, NNP, albert
and, CC, and
Niels, NNP, niel
who, WP, who
were, VBD, be
two, CD, two
of, IN, of
its, PRP$, its
founders, NNS, found
Einstein, NNP, einstein
returned, VBD, return
to, TO, to
the, DT, the
question, NN, quest
of, IN, of
quantum, NN, quant
mechanics, NNS, mech
Einstein, NNP, einstein
's, POS, 's
objection, NN, object
to, TO, to
quantum, NN, quant
mechanics, NNS, mech
Aspect, NNP, aspect
experiment, NN, expery
of, IN, of
1982, CD, 1982
confirmed, VBN, confirm
Bell, NNP, bel
's, POS, 's
theorem, NN, theorem
Einstein, NNP, einstein
's, POS, 's
political, JJ, polit
view, NN, view
was, VBD, be
in, IN, in
favor, NN, fav
of, IN, of
socialism, NN, soc
and, CC, and
critical, JJ, crit
of, IN, of
capitalism, NN, capit
Socialism, NNP, soc
Einstein, NNP, einstein
offered, VBD, off
to, TO, to
and, CC, and
was, VBD, be
called, VBN, cal
on, IN, on
to, TO, to
give, VB, giv
judgments, NNS, judg
and, CC, and
opinions, NNS, opin
on, IN, on
matters, NNS, mat
often, RB, oft
unrelated, VBN, unrel
to, TO, to
theoretical, JJ, theoret
physics, NNS, phys
or, CC, or
mathematics, NNS, mathem
Einstein, NNP, einstein
's, POS, 's
views, NNS, view
about, IN, about
religious, JJ, religy
belief, NN, believ
have, VBP, hav
been, VBN, be
collected, VBN, collect
from, IN, from
interviews, NNS, interview
and, CC, and
original, JJ, origin
writings, NNS, writ
Baruch, NNP, baruch
Einstein, NNP, einstein
developed, VBD, develop
an, DT, an
appreciation, NN, apprecy
of, IN, of
music, JJ, mus
at, IN, at
an, DT, an
early, JJ, ear
age, NN, ag
German, JJ, germ
culture, NN, cult
Leon, NNP, leon
Einstein, NNP, einstein
is, VBZ, be
said, VBN, say
to, TO, to
have, VB, hav
begun, VBN, begin
playing, VBG, play
when, WRB, when
he, PRP, he
was, VBD, be
five, CD, five
Mozart, NNP, mozart
Einstein, NNP, einstein
fell, VBD, fel
in, IN, in
love, NN, lov
'', '', ''
with, IN, with
Mozart, NNP, mozart
's, POS, 's
music, JJ, mus
Botstein, NNP, botstein
Einstein, NNP, einstein
Aarau, NNP, aarau
as, IN, as
he, PRP, he
played, VBD, play
Beethoven, NNP, beethov
's, POS, 's
violin, NN, violin
sonatas, NNS, sonat
Botstein, NNP, botstein
Einstein, NNP, einstein
``, ``, ``
Music, NNP, mus
possessed, VBD, possess
an, DT, an
unusual, JJ, unus
meaning, NN, mean
for, IN, for
this, DT, this
student, NN, stud
Einstein, NNP, einstein
's, POS, 's
life, NN, lif
from, IN, from
that, DT, that
period, NN, period
on, IN, on
Einstein, NNP, einstein
played, VBD, play
chamber, NN, chamb
music, NN, mus
were, VBD, be
Bern, NNP, bern
Zurich, NNP, zurich
Berlin, NNP, berlin
Max, NNP, max
and, CC, and
his, PRP$, his
son, NN, son
California, NNP, californ
of, IN, of
Technology, NNP, technolog
Zoellner, NNP, zoelln
family, NN, famy
conservatory, NN, conserv
in, IN, in
Los, NNP, los
and, CC, and
played, VBD, play
some, DT, some
of, IN, of
Beethoven, NNP, beethov
and, CC, and
Mozart, NNP, mozart
's, POS, 's
works, NNS, work
with, IN, with
members, NNS, memb
of, IN, of
the, DT, the
Zoellner, NNP, zoelln
United, NNP, unit
Einstein, NNP, einstein
later, JJ, lat
presented, VBD, pres
the, DT, the
family, NN, famy
patriarch, NN, patriarch
with, IN, with
an, DT, an
autographed, JJ, autograph
photograph, NN, photograph
as, IN, as
Juilliard, NNP, juilliard
visited, VBD, visit
him, PRP, him
in, IN, in
Princeton, NNP, princeton
Botstein, NNP, botstein
notes, NNS, not
the, DT, the
quartet, NN, quartet
was, VBD, be
``, ``, ``
Einstein, NNP, einstein
's, POS, 's
level, NN, level
of, IN, of
coordination, NN, coordin
and, CC, and
intonation, NN, inton
Einstein, NNP, einstein
wrote, VBD, writ
daily, JJ, dai
to, TO, to
his, PRP$, his
wife, NN, wif
Elsa, NNP, els
and, CC, and
adopted, VBD, adopt
stepdaughters, NNS, stepdaught
Margot, NNP, margot
and, CC, and
Ilse, NNP, ils
Hebrew, NNP, hebrew
Margot, NNP, margot
Einstein, NNP, einstein
permitted, VBD, permit
the, DT, the
personal, JJ, person
letters, NNS, let
to, TO, to
be, VB, be
made, VBN, mak
available, JJ, avail
to, TO, to
the, DT, the
public, NN, publ
Barbara, NNP, barbar
Wolff, NNP, wolff
Hebrew, NNP, hebrew
's, POS, 's
Albert, NNP, albert
BBC, NNP, bbc
that, IN, that
there, EX, there
are, VBP, be
about, IN, about
pages, NNS, pag
of, IN, of
private, JJ, priv
correspondence, NN, correspond
written, VBN, writ
between, IN, between
1912, CD, 1912
and, CC, and
1955, CD, 1955
Corbis, NNP, corb
Roger, NNP, rog
Einstein, NNP, einstein
was, VBD, be
so, RB, so
well, RB, wel
known, VBN, know
in, IN, in
America, NNP, americ
that, IN, that
he, PRP, he
would, MD, would
be, VB, be
stopped, VBN, stop
on, IN, on
the, DT, the
street, NN, street
by, IN, by
people, NNS, peopl
wanting, VBG, want
him, PRP, him
to, TO, to
explain, VB, explain
``, ``, ``
Professor, NNP, profess
Einstein, NNP, einstein
has, VBZ, hav
been, VBN, be
the, DT, the
subject, NN, subject
of, IN, of
or, CC, or
inspiration, NN, inspir
for, IN, for
many, JJ, many
novels, NNS, novel
Time, NNP, tim
magazine, NN, magazin
's, POS, 's
Frederic, NNP, fred
wrote, VBD, writ
that, IN, that
Einstein, NNP, einstein
was, VBD, be
``, ``, ``
Einstein, NNP, einstein
received, VBD, receiv
numerous, JJ, num
awards, NNS, award
and, CC, and
honors, NNS, hon
Nobel, NNP, nobel
in, IN, in
Physics, NNP, phys
Albert, NNP, albert
are, VBP, be
referenced, VBN, ref
in, IN, in
this, DT, this
article, NN, artic
List, NNP, list
of, IN, of
scientific, JJ, sci
publications, NNS, publ
by, IN, by
Albert, NNP, albert
Annalen, NNP, an
der, NN, der
Physik, NNP, physik
18, CD, 18
March, NNP, march
Brownian, NNP, brown
motion, NN, mot
was, VBD, be
received, VBN, receiv
11, CD, 11
May, NNP, may
Baer, NNP, baer
's, POS, 's
law, NN, law
and, CC, and
meanders, NNS, meand
in, IN, in
the, DT, the
courses, NNS, cours
of, IN, of
rivers, NNS, riv
Einstein, NNP, einstein
and, CC, and
on, IN, on
the, DT, the
Princeton, NNP, princeton
Press, NNP, press
Einstein, NNP, einstein
==See, NNP, ==see
also==, NNP, also==
==Notes==, NNP, ==notes==
==References==, NNP, ==references==
==Further, NNP, ==further
reading==, NNP, reading==
Brian, JJ, bri
Denis, NNP, den
Einstein, NNP, einstein
New, NNP, new
John, NNP, john
Ronald, NNP, ronald
Einstein, NNP, einstein
Life, NNP, lif
and, CC, and
Times, NNP, tim
New, NNP, new
Avon, NNP, avon
Albrecht, NNP, albrecht
Albert, NNP, albert
New, NNP, new
Penguin, NNP, penguin
German, NNP, germ
by, IN, by
Ewald, NNP, ewald
Banesh, NNP, banesh
Helen, NNP, hel
Albert, NNP, albert
Rebel, NNP, rebel
London, NNP, london
MacGibbon, NNP, macgibbon
Ltd., NNP, ltd.
ISBN, NNP, isbn
978-0-670-11181-7, CD, 978-0-670-11181-7
Isaacson, NNP, isaacson
Walter, NNP, walt
Einstein, NNP, einstein
Universe, NNP, univers
Simon, NNP, simon
Schuster, NNP, schuster
New, NNP, new
Gary, NNP, gary
Einstein, NNP, einstein
Indianapolis, NNP, indianapol
IN, NNP, in
Macmillan, NNP, macmil
Abraham, NNP, abraham
Subtle, NNP, subtl
is, VBZ, be
the, DT, the
Lord, NNP, lord
Albert, NNP, albert
Oxford, NNP, oxford
University, NNP, univers
Abraham, NNP, abraham
Einstein, NNP, einstein
Oxford, NNP, oxford
University, NNP, univers
Parker, NNP, park
Barry, NNP, barry
Einstein, NNP, einstein
's, POS, 's
Brainchild, NNP, brainchild
Made, NNP, mad
Illustrated, NNP, illust
by, IN, by
Lori, NNP, lor
Scoffield-Beer, NNP, scoffield-beer
Einstein, NNP, einstein
's, POS, 's
career, NN, car
and, CC, and
accomplishments, NNS, accompl
Sylvan, NNP, sylv
Einstein, NNP, einstein
and, CC, and
Oppenheimer, NNP, oppenheim
Genius, NNP, geni
Harvard, NNP, harvard
University, NNP, univers
Albert, NNP, albert
Science, NNP, sci
and, CC, and
synthesis, NN, synthes
Unesco, NNP, unesco
on, IN, on
the, DT, the
tenth, NN, ten
anniversary, NN, annivers
of, IN, of
the, DT, the
death, NN, dea
of, IN, of
Albert, NNP, albert
and, CC, and
Teilhard, NNP, teilhard
de, IN, de
Chardin, NNP, chardin
Lecture, NN, lect
delivered, VBD, del
at, IN, at
the, DT, the
UNESCO, NNP, unesco
in, IN, in
Paris, NNP, par
on, IN, on
13, CD, 13
December, NNP, decemb
1965, CD, 1965
New, NNP, new
Review, NNP, review
of, IN, of
Books, NNP, book
Albert, NNP, albert
by, IN, by
Robert, NNP, robert
==External, NNP, ==external
links==, NNP, links==
Einstein, NNP, einstein
's, POS, 's
letters, NNS, let
and, CC, and
speeches, NNS, speech
Full, NNP, ful
text, NN, text
Crown, NNP, crown
Scholar, JJ, scholar
profile, NN, profil
Albert, NNP, albert
Canada, NNP, canad
Socialism, NNP, soc
Albert, NNP, albert
Monthly, NNP, month
Einstein, NNP, einstein
's, POS, 's
Personal, NNP, person
Politics, NNP, polit
The, NNP, the
Philosophy, NNP, philosoph
Foundation, NNP, found
FBI, NNP, fbi
file, VB, fil
on, IN, on
Albert, NNP, albert
Albert, NNP, albert
Einstein, NNP, einstein
Never, NNP, nev
Knew, NNP, knew
\u2014, NNP, \u2014
Life, NNP, lif
magazine, NN, magazin
Albert, VB, albert
\u2014, NNP, \u2014
Odyssey, NNP, odyssey
And, CC, And
Discoveries, NNPS, discovery
OpenCourseWare, NNP, opencoursew
STS.042J/8.225J, NNP, sts.042j/8.225j
Einstein, NNP, einstein
Oppenheimer, NNP, oppenheim
Feynman, NNP, feynm
Albert, VB, albert
MSNBC, NNP, msnbc
Einstein, NNP, einstein
's, POS, 's
declaration, NN, decl
of, IN, of
intention, NN, int
for, IN, for
American, JJ, am
citizenship, NN, cit
from, IN, from
the, DT, the
World, NNP, world
Digital, NNP, digit
Library, NNP, libr
Albert, NNP, albert
at, IN, at
Brandeis, NNP, brand
