Christina, NNP, christina
McPhee, NNP, mcphee
Los, NNP, los
California, NNP, californ
American, JJ, am
painter, NN, paint
California, NNP, californ
's, POS, 's
central, JJ, cent
coast, NN, coast
and, CC, and
San, NNP, san
CA, NNP, ca
Christina, NNP, christina
works, VBZ, work
in, IN, in
drawing, NN, draw
as, IN, as
McPhee, NNP, mcphee
attended, VBD, attend
Scripps, NNP, scripps
in, IN, in
Claremont, NNP, claremont
California, NNP, californ
and, CC, and
obtained, VBD, obtain
Fine, NNP, fin
BFA, NNP, bfa
Kansas, NNP, kansa
in, IN, in
Kansas, NNP, kansa
Missouri, NNP, missour
Fine, NNP, fin
degree, NN, degr
MFA, NNP, mfa
Boston, NNP, boston
of, IN, of
Fine, NNP, fin
Philip, NNP, philip
Solo, NNP, solo
museum, NN, muse
exhibitions, NNS, exhibit
include, VBP, includ
those, DT, those
at, IN, at
the, DT, the
American, NNP, am
located, VBD, loc
in, IN, in
the, DT, the
Katzen, NNP, katz
in, IN, in
Washington, NNP, washington
D.C., NNP, d.c.
in, IN, in
2007, CD, 2007
Bildmuseet, NNP, bildmuseet
in, IN, in
Umea, NNP, ume
Sweden, NNP, swed
in, IN, in
2005, CD, 2005
Cartes, NNPS, cart
for, IN, for
Art, NNP, art
and, CC, and
Technology, NNP, technolog
in, IN, in
Espoo, NNP, espoo
Finland, NNP, finland
in, IN, in
2006, CD, 2006
Documenta, NNP, document
12, CD, 12
in, IN, in
Kassel, NNP, kassel
Germany, NNP, germany
in, IN, in
2007, CD, 2007
Bucharest, NNP, bucharest
Bucharest, NNP, bucharest
Romania, NNP, roman
in, IN, in
2008, CD, 2008
Video, NNP, video
and, CC, and
multimedia, VB, multimed
work, NN, work
shown, NN, shown
at, IN, at
international, JJ, intern
festivals, NNS, fest
include, VBP, includ
VIDEOFORMES, NNP, videoform
in, IN, in
Clermont-Ferrand, NNP, clermont-ferrand
France, NNP, frant
in, IN, in
2009, CD, 2009
Open, NNP, op
in, IN, in
Cologne, NNP, cologn
Germany, NNP, germany
in, IN, in
2010, CD, 2010
Kemper, NNP, kemp
of, IN, of
Contemporary, NNP, contemp
Art, NNP, art
in, IN, in
Kansas, NNP, kansa
Missouri, NNP, missour
New, NNP, new
of, IN, of
Contemporary, NNP, contemp
art/Rhizome, NNP, art/rhizome
ArtBase, NNP, artbas
Experimental, NNP, expery
in, IN, in
Owego, NNP, owego
New, NNP, new
Spencer, NNP, spent
of, IN, of
Art, NNP, art
of, IN, of
the, DT, the
University, NNP, univers
of, IN, of
Kansas, NNP, kansa
in, IN, in
Lawrence, NNP, lawr
Kansas, NNP, kansa
Sheldon, NNP, sheldon
of, IN, of
Art, NNP, art
at, IN, at
the, DT, the
University, NNP, univers
of, IN, of
Nebraska, NNP, nebrask
in, IN, in
Lincoln, NNP, lincoln
Nebraska, NNP, nebrask
Taylor, NNP, tayl
for, IN, for
Southwestern, NNP, southwestern
and, CC, and
the, DT, the
Colorado, NNP, colorado
in, IN, in
Colorado, NNP, colorado
Colorado, NNP, colorado
Thresholds, NNP, thresholds
in, IN, in
Perth, NNP, per
Scotland, NNP, scotland
United, NNP, unit
John, NNP, john
Lin, NNP, lin
Tay\u2019s, NNP, tay\u2019s
discussion, NN, discuss
of, IN, of
McPhee\u2019s, JJ, mcphee\u2019s
La, NNP, la
Conchita, NNP, conchit
mon, NN, mon
amour, PRP$, amour
ISBN, NNP, isbn
978-0-230-21776-8, CD, 978-0-230-21776-8
Artist, NNP, art
by, IN, by
Christina, NNP, christina
Christina, NNP, christina
*Home, NNP, *home
page, NN, pag
of, IN, of
Silverman, NNP, silverm
