Frederick, NNP, frederick
Murray, NNP, murray
English, JJ, engl
athlete, NN, athlet
from, IN, from
Islington, NNP, islington
London, NNP, london
London, NNP, london
Ashford, NNP, ashford
represented, VBD, repres
Great, NNP, gre
in, IN, in
the, DT, the
800, CD, 800
metres, NNS, met
at, IN, at
the, DT, the
1908, CD, 1908
Summer, NNP, sum
Olympics, NNP, olymp
Ashford, NNP, ashford
had, VBD, hav
been, VBN, be
Finchley, NNP, finchley
at, IN, at
the, DT, the
1908, CD, 1908
AAA, NNP, aa
Championships, NNP, champ
Royal, NNP, roy
of, IN, of
Music, NNP, mus
Concert, NNP, concert
which, WDT, which
played, VBN, play
the, DT, the
season, NN, season
at, IN, at
Scarborough, NNP, scarborough
every, DT, every
year, NN, year
from, IN, from
1929-39, CD, 1929-39
