Publius, NNP, publi
Ostorius, NNP, ostori
Britain, NNP, britain
from, IN, from
47, CD, 47
until, IN, until
his, PRP$, his
death, NN, dea
Caratacus, NNP, caratac
Publius, NNP, publi
was, VBD, be
probably, RB, prob
the, DT, the
son, NN, son
of, IN, of
Quintus, NNP, quint
Praetorian, NNP, praet
appointed, VBD, appoint
by, IN, by
Augustus, NNP, august
and, CC, and
later, JJ, lat
prefect, NN, prefect
of, IN, of
Egypt, NNP, egypt
Nothing, NN, noth
is, VBZ, be
known, VBN, know
of, IN, of
his, PRP$, his
early, JJ, ear
career, NN, car
Roman, NNP, rom
by, IN, by
the, DT, the
emperor, NN, emp
Claudius, NNP, claudi
Aulus, NNP, aul
Ostorius, NNP, ostori
disabused, VBD, disabus
them, PRP, them
of, IN, of
this, DT, this
notion, NN, not
and, CC, and
responded, VBD, respond
vigorously, RB, vig
Tacitus, NNP, tacit
's, POS, 's
Annals, NNPS, an
Trent, NNP, trent
and, CC, and
Severn, NNP, severn
Fosse, NNP, foss
as, IN, as
Trent, NNP, trent
and, CC, and
the, DT, the
Severn, NNP, severn
Iceni, NNP, icen
Norfolk, NNP, norfolk
who, WP, who
had, VBD, hav
not, RB, not
been, VBN, be
conquered, VBN, conqu
but, CC, but
allied, VBN, al
themselves, NNS, themselv
with, IN, with
the, DT, the
Romans, NNPS, rom
voluntarily, RB, volunt
Ostorius, NNP, ostori
defeated, VBD, def
them, PRP, them
by, IN, by
storming, NN, storm
Stonea, NNP, stone
in, IN, in
the, DT, the
Fens, NNP, fen
near, IN, near
March, NNP, march
in, IN, in
Cambridgeshire, NNP, cambridgeshir
Marcus, NNP, marc
Roman, NNP, rom
citizen, NN, cit
's, POS, 's
life, NN, lif
during, IN, during
the, DT, the
fighting, NN, fight
Iceni, NNP, icen
remained, VBD, remain
independent, JJ, independ
Prasutagus, NNP, prasutag
was, VBD, be
installed, VBN, inst
as, IN, as
Cheshire, NNP, cheshir
in, IN, in
48, CD, 48
North, NNP, nor
from, IN, from
those, DT, those
in, IN, in
Wales, NNP, wal
Brigantes, NNPS, brig
Romans, NNPS, rom
Brigantes, NNPS, brig
were, VBD, be
Legio, NNP, legio
XIV, NNP, xiv
Gemina, NNP, gemin
were, VBD, be
stationed, VBN, stat
in, IN, in
the, DT, the
area, NN, are
to, TO, to
keep, VB, keep
the, DT, the
Brigantian, NNP, brig
peace, NN, peac
Legio, NNP, legio
II, NNP, ii
Augusta, NNP, august
held, VBD, hold
the, DT, the
command, NN, command
in, IN, in
the, DT, the
south, NN, sou
east, NN, east
Legio, NNP, legio
IX, NNP, ix
Hispana, NNP, hispan
was, VBD, be
campaigning, VBG, campaign
the, DT, the
north, JJ, nor
east, NN, east
beyond, IN, beyond
the, DT, the
Trent, NNP, trent
Legio, NNP, legio
XX, NNP, xx
Valeria, NNP, valer
Victrix, NNP, victrix
held, VBD, hold
Colchester, NNP, colchest
and, CC, and
the, DT, the
Legio, NNP, legio
XIV, NNP, xiv
was, VBD, be
based, VBN, bas
at, IN, at
Wroxeter, NNP, wroxet
Ostorius, NNP, ostori
initiated, VBD, in
further, JJ, furth
Romanisation, NN, rom
during, IN, during
his, PRP$, his
command, NN, command
in, IN, in
the, DT, the
safer, NN, saf
southern, NN, southern
lands, NNS, land
Britain, NNP, britain
's, POS, 's
first, JJ, first
colony, NN, colony
of, IN, of
military, JJ, milit
veterans, NNS, vet
at, IN, at
Camulodunum, NNP, camulodun
Verulamium, NNP, verulam
Albans, NNP, alb
Claudian, NNP, claud
lowlands, VBZ, lowland
were, VBD, be
economically, RB, econom
unspectacular, JJ, unspectacul
and, CC, and
Britain, NNP, britain
's, POS, 's
mineral, JJ, min
wealth, NN, weal
lay, NN, lay
in, IN, in
the, DT, the
barbarian, JJ, barb
lands, NNS, land
instead, RB, instead
Caratacus, NNP, caratac
Catuvellauni, NNP, catuvellaun
Silures, NNP, sil
of, IN, of
south, NN, sou
east, NN, east
Wales, NNS, wal
and, CC, and
Gloucestershire, NNP, gloucestershir
Caratacus, NNP, caratac
north, NN, nor
into, IN, into
the, DT, the
lands, NNS, land
of, IN, of
the, DT, the
Ordovices, NNPS, ordov
Ostorius, NNP, ostori
managed, VBD, man
to, TO, to
force, VB, forc
him, PRP, him
into, IN, into
an, DT, an
open, JJ, op
conflict, NN, conflict
River, NNP, riv
and, CC, and
possibly, RB, poss
near, IN, near
Caersws, NNP, caersw
Romans, NNP, rom
defeated, VBD, def
the, DT, the
British, JJ, brit
leader, NN, lead
in, IN, in
51, CD, 51
Ordovices, NNS, ordov
had, VBD, hav
fortified, VBN, fort
Romans, NNPS, rom
impossible, JJ, imposs
Ostorius, NNP, ostori
was, VBD, be
concerned, VBN, concern
at, IN, at
the, DT, the
seemingly, RB, seem
impregnable, JJ, impregn
defences, NNS, def
Tacitus, NNP, tacit
records, NNS, record
that, WDT, that
the, DT, the
eagerness, NN, eag
and, CC, and
loyalty, NN, loyal
of, IN, of
his, PRP$, his
troops, NNS, troop
persuaded, VBD, persuad
him, PRP, him
to, TO, to
attack, VB, attack
and, CC, and
in, IN, in
the, DT, the
end, NN, end
the, DT, the
Britons, NNS, briton
were, VBD, be
easily, RB, easy
defeated, VBN, def
Caratacus, NNP, caratac
Caratacus, NNP, caratac
himself, PRP, himself
fled, VBD, fle
to, TO, to
the, DT, the
territory, NN, territ
of, IN, of
the, DT, the
Brigantes, NNPS, brig
Cartimandua, NNP, cartimandu
Rome, NNP, rom
and, CC, and
handed, VBD, hand
him, PRP, him
over, IN, over
in, IN, in
chains, NNS, chain
Ostorius, NNP, ostori
was, VBD, be
honoured, VBN, hono
with, IN, with
triumphal, JJ, triumph
insignia, NNS, insign
but, CC, but
the, DT, the
victory, NN, vict
did, VBD, do
not, RB, not
entirely, RB, entir
quell, RB, quel
resistance, NN, resist
in, IN, in
the, DT, the
Welsh, NNP, welsh
borders, NNS, bord
Silures, NNP, sil
especially, RB, espec
continued, VBD, continu
to, TO, to
harass, NN, harass
Roman, NNP, rom
troops, NNS, troop
Ostorius, NNP, ostori
had, VBD, hav
publicly, RB, publ
said, VBD, say
that, IN, that
they, PRP, they
posed, VBD, pos
such, JJ, such
Siluran, NNP, sil
territory, NN, territ
was, VBD, be
surrounded, VBN, surround
and, CC, and
attacked, VBD, attack
and, CC, and
only, RB, on
rescued, VBN, rescu
with, IN, with
difficulty, NN, difficul
and, CC, and
considerable, JJ, consid
loss, NN, loss
Silures, NNP, sil
can, MD, can
be, VB, be
attributed, VBN, attribut
to, TO, to
their, PRP$, their
reaction, NN, react
to, TO, to
what, WP, what
Peter, NNP, pet
calls, VBZ, cal
Ostorius, NNP, ostori
Silures, NNP, sil
had, VBD, hav
been, VBN, be
galvanised, VBN, galv
by, IN, by
Ostorius, NNP, ostori
Roman, NNP, rom
prisoners, NNS, prison
as, IN, as
hostages, NNS, host
and, CC, and
distributing, VBG, distribut
them, PRP, them
amongst, MD, amongst
their, PRP$, their
neighbouring, NN, neighbo
tribes, NNS, trib
Ostorius, NNP, ostori
died, VBD, die
unexpectedly, RB, unexpect
in, IN, in
52, CD, 52
Tacitus, NNP, tacit
puts, NNS, put
it, PRP, it
Rome, NNP, rom
with, IN, with
British, JJ, brit
frontiers, NNS, fronty
Clawdd, NNP, clawd
in, IN, in
the, DT, the
Vale, NNP, val
of, IN, of
Glamorgan, NNP, glamorg
Silurian, JJ, sil
raids, NNS, raid
continued, VBD, continu
Gaius, NNP, gai
Aulus, NNP, aul
arrived, VBD, ar
as, IN, as
replacement, NN, replac
governor, NN, govern
Sextus, NNP, sext
Birley, NNP, birley
p., NNP, p.
42, CD, 42
Agricola, NNP, agricol
14, CD, 14
Cassius, NNP, cassi
Roman, NNP, rom
55:10.10, CD, 55:10.10
===Secondary, JJ, ===secondary
sources===, NN, sources===
*William, NN, *william
Smith, NNP, smi
Greek, NNP, greek
and, CC, and
Roman, NNP, rom
and, CC, and
Mythology, NNP, mytholog
Fasti, NNP, fast
of, IN, of
Roman, NNP, rom
Ostorius, NNP, ostori
at, IN, at
Roman-Britain.org, JJ, roman-britain.org
