Hal, NNP, hal
Oscar, NNP, osc
American, JJ, am
electrical, JJ, elect
engineer, NN, engin
and, CC, and
biophysicist, NN, biophys
at, IN, at
Donner, NNP, don
University, NNP, univers
of, IN, of
California, NNP, californ
Berkeley, NNP, berkeley
Anger, NNP, ang
camera, NN, camer
Anger, NNP, ang
held, VBD, hold
15, CD, 15
patents, NNS, pat
Ernest, NNP, ernest
O., NNP, o.
Lawrence, NNP, lawr
Radiation, NNP, rady
Laboratory, NNP, lab
Anger, NNP, ang
received, VBD, receiv
several, JJ, sev
awards, NNS, award
in, IN, in
recognition, NN, recognit
of, IN, of
his, PRP$, his
inventions, NNS, inv
and, CC, and
their, PRP$, their
contributions, NNS, contribut
to, TO, to
the, DT, the
field, NN, field
of, IN, of
nuclear, JJ, nuclear
medicine, NN, medicin
Anger, NNP, ang
died, VBD, die
in, IN, in
Berkeley, NNP, berkeley
California, NNP, californ
Anger, NNP, ang
camera, NN, camer
Anger, NNP, ang
also, RB, also
developed, VBD, develop
the, DT, the
well, NN, wel
counter, NN, count
Anger, NNP, ang
also, RB, also
developed, VBD, develop
Anger, NNP, ang
camera, NN, camer
and, CC, and
Anger, NNP, ang
at, IN, at
an, DT, an
AEC-funded, JJ, aec-funded
laboratory, NN, lab
at, IN, at
the, DT, the
University, NNP, univers
of, IN, of
California, NNP, californ
at, IN, at
Berkeley, NNP, berkeley
California, NNP, californ
U.S., NNP, u.s.
Government, NNP, govern
Anger, NNP, ang
's, POS, 's
supervisors, NNS, superv
at, IN, at
the, DT, the
lab, NN, lab
were, VBD, be
well-connected, JJ, well-connected
with, IN, with
the, DT, the
head, NN, head
of, IN, of
the, DT, the
AEC, NNP, aec
Glenn, NNP, glen
AEC, NNP, aec
to, TO, to
release, VB, releas
the, DT, the
patent, NN, pat
rights, NNS, right
to, TO, to
Anger, NNP, ang
personally, RB, person
Anger, NNP, ang
retained, VBD, retain
patent, NN, pat
counsel, NN, counsel
to, TO, to
file, VB, fil
U.S., NNP, u.s.
patent, NN, pat
application, NN, apply
on, IN, on
his, PRP$, his
invention, NN, inv
U.S., NNP, u.s.
Patent, NNP, pat
Anger, NNP, ang
tried, VBD, try
unsuccessfully, RB, unsuccess
to, TO, to
interest, NN, interest
nuclear, NN, nuclear
instrument, NN, instru
companies, NNS, company
in, IN, in
taking, VBG, tak
Anger, NNP, ang
camera, NN, camer
NCC, NNP, ncc
Illinois, NNP, illino
Anger, NNP, ang
and, CC, and
began, VBD, begin
marketing, NN, market
it, PRP, it
to, TO, to
nuclear, VB, nuclear
medical, JJ, med
departments, NNS, depart
of, IN, of
hospitals, NNS, hospit
in, IN, in
the, DT, the
United, NNP, unit
NCC, NNP, ncc
's, POS, 's
commercial, JJ, commerc
sales, NNS, sal
of, IN, of
the, DT, the
Anger, NNP, ang
grew, VBD, grow
substantially, RB, subst
over, IN, over
the, DT, the
years, NNS, year
and, CC, and
Anger, NNP, ang
became, VBD, becom
modestly, RB, modest
wealthy, JJ, wealthy
from, IN, from
the, DT, the
royalties, NNS, royal
that, WDT, that
he, PRP, he
received, VBD, receiv
under, IN, under
the, DT, the
exclusive, JJ, exclud
license, NN, licens
agreement, NN, agr
NCC, NNP, ncc
was, VBD, be
eventually, RB, ev
acquired, VBN, acquir
by, IN, by
G.D., NNP, g.d.
Searle, NNP, searl
Skokie, NNP, skoky
Illinois, NNP, illino
Corporation, NN, corp
's, POS, 's
exclusivity, NN, exclud
on, IN, on
marketing, NN, market
the, DT, the
Anger, NNP, ang
scintillation, NN, scintil
camera, NN, camer
was, VBD, be
eventually, RB, ev
challenged, VBN, challeng
by, IN, by
the, DT, the
introduction, NN, introduc
of, IN, of
Anger, NNP, ang
camera, NN, camer
by, IN, by
Picker, NNP, pick
NCC, NNP, ncc
and, CC, and
Anger, NNP, ang
sued, VBD, sue
Picker, NNP, pick
for, IN, for
infringement, NN, infr
of, IN, of
the, DT, the
'057, NNP, '057
patent, NN, pat
Picker, NNP, pick
counterclaimed, VBD, counterclaim
for, IN, for
invalidity, NN, invalid
of, IN, of
the, DT, the
'057, NNP, '057
patent, NN, pat
Picker, NN, pick
also, RB, also
filed, VBD, fil
Atomic, NNP, atom
AEC, NNP, aec
's, POS, 's
release, NN, releas
of, IN, of
the, DT, the
patent, NN, pat
rights, NNS, right
to, TO, to
Anger, NNP, ang
AEC, NNP, aec
proceeding, NN, process
was, VBD, be
decided, VBN, decid
in, IN, in
favor, NN, fav
of, IN, of
Anger, NNP, ang
and, CC, and
NCC, NNP, ncc
Picker, NNP, pick
NCC, NNP, ncc
was, VBD, be
eventually, RB, ev
sold, VBN, sel
to, TO, to
Siemens, NNP, siem
and, CC, and
Siemens, NNP, siem
continued, VBD, continu
to, TO, to
develop, VB, develop
the, DT, the
technology, NN, technolog
of, IN, of
the, DT, the
Anger, NNP, ang
and, CC, and
to, TO, to
market, NN, market
the, DT, the
device, NN, dev
worldwide, NN, worldwid
Society, NNP, socy
of, IN, of
Nuclear, NNP, nuclear
's, POS, 's
Education, NNP, educ
and, CC, and
Research, NNP, research
received, VBD, receiv
Hal, NNP, hal
Lecture, NNP, lect
Anger, NNP, ang
