Milton, NNP, milton
Byron, NNP, byron
American, JJ, am
composer, NN, compos
Babbitt, NNP, babbit
was, VBD, be
born, VBN, bear
in, IN, in
Philadelphia, NNP, philadelph
Pennsylvania, NNP, pennsylvan
Barkin, NNP, barkin
Albert, NNP, albert
and, CC, and
Sarah, NNP, sarah
Jewish, JJ, jew
Anon, NNP, anon
Jackson, NNP, jackson
Mississippi, NNP, mississipp
Kozinn, NNP, kozin
2011, CD, 2011
Babbitt, NNP, babbit
's, POS, 's
father, NN, fath
was, VBD, be
Babbitt, NNP, babbit
intended, VBD, intend
to, TO, to
study, NN, study
when, WRB, when
he, PRP, he
entered, VBD, ent
the, DT, the
University, NNP, univers
of, IN, of
Pennsylvania, NNP, pennsylvan
in, IN, in
1931, CD, 1931
New, NNP, new
instead, RB, instead
Philip, NNP, philip
and, CC, and
Marion, NNP, mar
Second, NNP, second
and, CC, and
went, VBD, go
on, IN, on
to, TO, to
write, VB, writ
New, NNP, new
University, NNP, univers
of, IN, of
Arts, NNPS, art
and, CC, and
Science, NNP, sci
in, IN, in
1935, CD, 1935
with, IN, with
Phi, NNP, phi
honors, NNS, hon
Roger, NNP, rog
Princeton, NNP, princeton
Princeton, NNP, princeton
's, POS, 's
first, JJ, first
Master, NNP, mast
of, IN, of
Fine, NNP, fin
degrees, VBZ, degr
in, IN, in
1942, CD, 1942
Barkin, NNP, barkin
Second, NNP, second
World, NNP, world
War, NNP, war
Babbitt, NNP, babbit
divided, VBD, divid
his, PRP$, his
time, NN, tim
between, IN, between
mathematical, JJ, mathem
research, NN, research
in, IN, in
Washington, NNP, washington
D.C., NNP, d.c.
Princeton, NNP, princeton
Barkin, NNP, barkin
Babbitt, NNP, babbit
returned, VBD, return
to, TO, to
Princeton, NNP, princeton
's, POS, 's
music, JJ, mus
faculty, NN, facul
and, CC, and
in, IN, in
1973, CD, 1973
became, VBD, becom
Juilliard, NNP, juilliard
in, IN, in
New, NNP, new
David, NNP, david
and, CC, and
John, NNP, john
Donald, NNP, donald
Laura, NNP, laur
Tobias, NNP, tobia
Paul, NNP, paul
John, NNP, john
Stephen, NNP, steph
Frederic, NNP, fred
Stanley, NNP, stanley
Babbitt, NNP, babbit
achieved, VBD, achiev
unsought, NN, unsought
notoriety, NN, not
through, IN, through
an, DT, an
article, NN, artic
in, IN, in
the, DT, the
popular, JJ, popul
magazine, NN, magazin
High, NNP, high
Babbitt, NNP, babbit
1958, CD, 1958
Babbitt, NNP, babbit
said, VBD, say
his, PRP$, his
own, JJ, own
title, NN, titl
for, IN, for
the, DT, the
article, NN, artic
was, VBD, be
``, ``, ``
Composer, NNP, compos
as, IN, as
Specialist, NNP, spec
'', '', ''
Babbitt, NNP, babbit
2003, CD, 2003
Listen, NNP, list
Babbitt, NNP, babbit
1991, CD, 1991
Listen, NNP, list
Babbitt, NNP, babbit
1991, CD, 1991
Babbitt, NNP, babbit
later, JJ, lat
became, VBD, becom
interested, JJ, interest
in, IN, in
electronic, JJ, electron
music, NN, mus
RCA, NNP, rca
as, IN, as
consultant, NN, consult
composer, NN, compos
to, TO, to
work, VB, work
with, IN, with
their, PRP$, their
RCA, NNP, rca
II, NNP, ii
Synthesizer, NNP, synthes
at, IN, at
the, DT, the
Columbia-Princeton, NNP, columbia-princeton
Electronic, NNP, electron
Music, NNP, mus
Columbia, NNP, columb
Composition, NNP, composit
for, IN, for
Synthesizer, NNP, synthes
Babbitt, NNP, babbit
was, VBD, be
less, JJR, less
interested, JJ, interest
in, IN, in
producing, NN, produc
new, JJ, new
timbres, NNS, timbr
than, IN, than
in, IN, in
the, DT, the
rhythmic, JJ, rhythm
precision, NN, precid
he, PRP, he
could, MD, could
achieve, VB, achiev
using, VBG, us
the, DT, the
Mark, NNP, mark
synthesizer, NN, synthes
Barkin, NNP, barkin
Babbitt, NNP, babbit
wrote, VBD, writ
both, DT, both
electronic, JJ, electron
music, NN, mus
and, CC, and
music, JJ, mus
for, IN, for
conventional, JJ, conv
musical, JJ, mus
instruments, NNS, instru
Philomel, NNP, philomel
Bethany, NNP, bethany
BMI, NNP, bmi
Milton, NNP, milton
Babbitt, NNP, babbit
died, VBD, die
in, IN, in
Princeton, NNP, princeton
New, NNP, new
on, IN, on
January, NNP, janu
29, CD, 29
Kozinn, NNP, kozin
2011, CD, 2011
Anon, NNP, anon
American, NNP, am
of, IN, of
Arts, NNPS, art
and, CC, and
Letters, NNP, let
American, NNP, am
of, IN, of
Arts, NNPS, art
and, CC, and
Sciences, NNPS, sci
Pulitzer, NNP, pulitz
board, NN, board
Milton, NNP, milton
for, IN, for
his, PRP$, his
life, NN, lif
's, POS, 's
work, NN, work
as, IN, as
American, JJ, am
composer, NN, compos
'', '', ''
Columbia, NNP, columb
University, NNP, univers
1991, CD, 1991
MacArthur, NNP, macarth
Mississippi, NNP, mississipp
and, CC, and
Letters, NNP, let
for, IN, for
music, JJ, mus
composition, NN, composit
National, NNP, nat
of, IN, of
Delta, NNP, delt
Klafeta, NNP, klafet
and, CC, and
Beckner, NNP, beckn
2009, CD, 2009
Anon, NNP, anon
Score, NNP, scor
and, CC, and
I.M.A, NNP, i.m.a
Listen, NNP, list
High, JJ, high
Fidelity, NN, fidel
Composer, NNP, compos
as, IN, as
Specialist, NNP, spec
High, NNP, high
Compositional, NNP, composit
Musical, NNP, mus
46/2, CD, 46/2
Structure, NNP, structure
as, IN, as
Compositional, NNP, composit
Music, NNP, mus
Theory, NNP, the
5/1, CD, 5/1
Structure, NNP, structure
and, CC, and
Function, NNP, funct
of, IN, of
Musical, NNP, mus
Theory, NNP, the
College, NNP, colleg
Symposium, NNP, sympos
Music, NNP, mus
and, CC, and
Music, NNP, mus
as, IN, as
Contemporary, NNP, contemp
History, NNP, hist
'', '', ''
Perspectives, NNP, perspect
in, IN, in
Musicology, NNP, musicolog
Inaugural, NNP, inaug
of, IN, of
the, DT, the
Ph, NNP, ph
Music, NNP, mus
at, IN, at
the, DT, the
City, NNP, city
of, IN, of
New, NNP, new
Barry, NNP, barry
Edward, NNP, edward
Sherman, NNP, sherm
New, NNP, new
Norton, NNP, norton
Reprinted, NNP, reprint
New, NNP, new
Pendragon, NNP, pendragon
Music, NNP, mus
Madison, NNP, madison
Stephen, NNP, steph
and, CC, and
Joseph, NNP, joseph
Madison, NNP, madison
University, NNP, univers
of, IN, of
Wisconsin, NNP, wisconsin
Function, NNP, funct
of, IN, of
Set, NNP, set
in, IN, in
the, DT, the
12-tone, CD, 12-tone
system, NN, system
PhD, NNP, phd
Princeton, NNP, princeton
Collected, NNP, collect
of, IN, of
Milton, NNP, milton
Stephen, NNP, steph
Stephen, NNP, steph
Andrew, NNP, andrew
Joseph, NNP, joseph
Princeton, NNP, princeton
Princeton, NNP, princeton
Press, NNP, press
String, NNP, string
Symphony, NNP, symphony
Mass, NNP, mass
Mass, NNP, mass
II, NNP, ii
for, IN, for
mixed, VBN, mix
chorus, NN, chor
*1946, -NONE-, *1946
Fabulous, NNP, fab
Richard, NNP, richard
Fabulous, NNP, fab
Piano, NNP, piano
*1948, NNP, *1948
Composition, NNP, composit
for, IN, for
Four, CD, Four
Instruments, NNS, instru
*1948, -NONE-, *1948
String, VBG, string
Quartet, NNP, quartet
Twelve, NNP, twelv
*1949, -NONE-, *1949
Into, NNP, into
the, DT, the
Good, NNP, good
film, NN, film
music, NN, mus
Viola, NNP, viol
and, CC, and
Piano, NNP, piano
*1951, NNP, *1951
The, NNP, the
Widow\u2019s, NNP, widow\u2019s
Lament, NNP, lam
in, IN, in
Springtime, NNP, springtime
for, IN, for
soprano, NN, soprano
and, CC, and
piano, NN, piano
*1951, -NONE-, *1951
Du, NNP, du
for, IN, for
soprano, NN, soprano
and, CC, and
piano, NN, piano
August, NNP, august
*1953, NNP, *1953
Woodwind, NNP, woodwind
Quartet, NNP, quartet
Prayer, NNP, pray
for, IN, for
soprano, NN, soprano
and, CC, and
piano, NN, piano
*1955, -NONE-, *1955
Two, CD, Two
Sonnets, NNS, sonnet
for, IN, for
baritone, NN, bariton
Gerard, NNP, gerard
*1956, NNP, *1956
Duet, NNP, duet
for, IN, for
piano, NN, piano
*1956, -NONE-, *1956
Semi-Simple, JJ, semi-simple
Variations, NNS, vary
for, IN, for
piano, NN, piano
*1957, -NONE-, *1957
All, DT, All
Set, NNP, set
for, IN, for
jazz, NN, jazz
ensemble, JJ, ensembl
Tenor, NNP, ten
and, CC, and
Six, NNP, six
*1961, NNP, *1961
Composition, NNP, composit
for, IN, for
Synthesizer, NNP, synthes
*1961, -NONE-, *1961
Vision, NNP, vis
and, CC, and
Prayer, NNP, pray
for, IN, for
soprano, NN, soprano
and, CC, and
synthesized, VBD, synthes
tape, NN, tap
Dylan, NNP, dyl
John, NNP, john
*1964, NNP, *1964
Ensembles, NNP, ensembl
for, IN, for
Synthesizer, NNP, synthes
*1965, NNP, *1965
Relata, NNP, relat
Sextets, NNPS, sextet
for, IN, for
violin, NN, violin
and, CC, and
piano, NN, piano
*1967, -NONE-, *1967
Correspondences, VBZ, correspond
for, IN, for
string, VBG, string
orchestra, NN, orchestr
and, CC, and
synthesized, VBD, synthes
tape, NN, tap
*1968, -NONE-, *1968
Relata, NNP, relat
for, IN, for
orchestra, NN, orchestr
*1968\u201369, -NONE-, *1968\u201369
Four, CD, Four
Canons, NNS, canon
for, IN, for
SA, NNP, sa
*1969, NNP, *1969
Phonemena, NNP, phonemen
for, IN, for
soprano, NN, soprano
and, CC, and
piano, NN, piano
*1970, -NONE-, *1970
String, VBG, string
Quartet, NNP, quartet
Quartet, NNP, quartet
Occasional, NNP, occas
for, IN, for
synthesized, JJ, synthes
tape, NN, tap
*1972, -NONE-, *1972
Tableaux, NNP, tableaux
for, IN, for
piano, NN, piano
*1974, -NONE-, *1974
Arie, NNP, ary
da, NN, da
capo, NN, capo
for, IN, for
five, CD, five
instrumentalists, NNS, instru
*1975, -NONE-, *1975
Reflections, NNS, reflect
for, IN, for
piano, NN, piano
and, CC, and
synthesized, VBD, synthes
tape, NN, tap
*1975, -NONE-, *1975
Phonemena, NNP, phonemen
for, IN, for
soprano, NN, soprano
and, CC, and
synthesized, VBD, synthes
tape, NN, tap
*1976, -NONE-, *1976
Concerti, NNP, concert
for, IN, for
violin, NN, violin
Solo, NNP, solo
for, IN, for
soprano, NN, soprano
and, CC, and
two, CD, two
pianos, NNS, piano
*1977, -NONE-, *1977
Minute, NNP, minut
Roger, NNP, rog
for, IN, for
piano, NN, piano
*1978, -NONE-, *1978
More, NNP, mor
Phonemena, NNP, phonemen
for, IN, for
twelve-part, NN, twelve-part
chorus, NN, chor
*1979, -NONE-, *1979
An, DT, An
Elizabethan, NNP, elizabeth
for, IN, for
six-part, NN, six-part
women\u2019s, NNS, women\u2019s
chorus, VBZ, chor
*1979, -NONE-, *1979
Images, NNPS, im
for, IN, for
saxophonist, NN, saxophon
and, CC, and
synthesized, VBD, synthes
tape, NN, tap
*1979, -NONE-, *1979
Paraphrases, VBZ, paraphras
for, IN, for
ten, RB, ten
instrumentalists, VBZ, instru
*1980, -NONE-, *1980
Dual, NNP, dual
for, IN, for
cello, NN, cello
and, CC, and
piano, NN, piano
Combinatoria, NNP, combinator
for, IN, for
small, JJ, smal
orchestra, NN, orchestr
*1981, -NONE-, *1981
Don, NNP, don
for, IN, for
four-hand, NNP, four-hand
piano, NN, piano
*1982, -NONE-, *1982
The, DT, The
Head, NNP, head
of, IN, of
the, DT, the
Bed, NNP, bed
for, IN, for
soprano, NN, soprano
and, CC, and
four, CD, four
instruments, NNS, instru
*1982, -NONE-, *1982
String, VBG, string
Quartet, NNP, quartet
Twelve, NNP, twelv
to, TO, to
Tango, NNP, tango
for, IN, for
piano, NN, piano
*1984, -NONE-, *1984
Sheer, NNP, she
Pluck, NNP, pluck
Joy, NNP, joy
of, IN, of
More, NNP, mor
for, IN, for
piano, RB, piano
and, CC, and
violin, VB, violin
*1987, -NONE-, *1987
Three, CD, Three
Cultivated, NNP, cult
Choruses, NNP, chorus
for, IN, for
four-part, NN, four-part
chorus, NN, chor
*1987, -NONE-, *1987
Fanfare, NNP, fanf
for, IN, for
double, JJ, doubl
brass, NN, brass
sextet, NN, sextet
*1987, -NONE-, *1987
Overtime, NNP, overtim
for, IN, for
piano, NN, piano
*1987, -NONE-, *1987
Souper, NNP, soup
for, IN, for
speaker, NN, speak
and, CC, and
ensemble, JJ, ensembl
*1987, NN, *1987
Homily, NNP, hom
for, IN, for
snare, NN, snar
drum, NN, drum
*1987, -NONE-, *1987
Whirled, NNP, whirl
Series, NNP, sery
for, IN, for
saxophone, NN, saxophon
and, CC, and
piano, NN, piano
*1988, -NONE-, *1988
In, IN, In
His, NNP, his
Own, NNP, own
Words, NNP, word
for, IN, for
speaker, NN, speak
and, CC, and
piano, NN, piano
*1988, -NONE-, *1988
The, DT, The
Virginal, NNP, virgin
for, IN, for
contralto, NN, contralto
and, CC, and
piano, NN, piano
John, NNP, john
*1988, NNP, *1988
Beaten, NNP, beat
for, IN, for
solo, NN, solo
marimba, NN, marimb
*1988, -NONE-, *1988
Glosses, VBZ, gloss
for, IN, for
Boys\u2019, JJ, boys\u2019
Choir, NNP, choir
*1988, NNP, *1988
The, NNP, the
Crowded, NNP, crowd
for, IN, for
eleven, RB, elev
instruments, NNS, instru
*1989, -NONE-, *1989
Consortini, NNP, consortin
for, IN, for
five, CD, five
players, NNS, play
*1989, -NONE-, *1989
Play, NNP, play
It, NNP, it
Again, NNP, again
Sam, NNP, sam
for, IN, for
solo, NN, solo
viola, NN, viol
*1989, -NONE-, *1989
Emblems, NNP, emblem
Soli, NNP, sol
Interludes, NNP, interlud
Postlude, NNP, postlud
for, IN, for
piano, NN, piano
*1991, -NONE-, *1991
Four, CD, Four
Cavalier, NNP, cava
Settings, NNP, set
for, IN, for
tenor, NN, ten
and, CC, and
guitar, NN, guit
*1991, -NONE-, *1991
Mehr, NNP, mehr
``, ``, ``
Lonely, NNP, lon
for, IN, for
solo, NN, solo
flute, NN, flut
*1992, -NONE-, *1992
Septet, NNP, septet
Equal, NNP, eq
*1992, -NONE-, *1992
Counterparts, VBZ, counterpart
for, IN, for
brass, NN, brass
quintet, NN, quintet
*1993, -NONE-, *1993
Around, NNP, around
the, DT, the
Horn, NNP, horn
for, IN, for
solo, NN, solo
horn, NN, horn
*1993, -NONE-, *1993
Quatrains, VBZ, quatrain
for, IN, for
soprano, RB, soprano
and, CC, and
two, CD, two
clarinets, NNS, clarinet
*1993, -NONE-, *1993
Fanfare, NNP, fanf
for, IN, for
All, NNP, al
for, IN, for
brass, NN, brass
quintet, NN, quintet
*1993, -NONE-, *1993
String, VBG, string
Quartet, NNP, quartet
John, NNP, john
*1994, NNP, *1994
Tutte, NNP, tut
le, NN, le
corde, NN, cord
for, IN, for
piano, NN, piano
*1994, -NONE-, *1994
Arrivals, NNS, ar
and, CC, and
Departures, NNP, depart
for, IN, for
two, CD, two
violins, NNS, violin
*1994, -NONE-, *1994
Accompanied, NNP, accompany
Recitative, NNP, recit
for, IN, for
soprano, NN, soprano
sax, NN, sax
and, CC, and
piano, NN, piano
*1995, -NONE-, *1995
Manifold, NNP, manifold
Music, NNP, mus
for, IN, for
organ, NN, org
*1995, -NONE-, *1995
Bicenguinguagenary, NNP, bicenguingu
Fanfare, NNP, fanf
for, IN, for
brass, NN, brass
quintet, NN, quintet
*1995, -NONE-, *1995
Quartet, NNP, quartet
for, IN, for
piano, NN, piano
and, CC, and
string, VBG, string
trio, NN, trio
*1996, -NONE-, *1996
Quintet, NNP, quintet
for, IN, for
clarinet, NN, clarinet
and, CC, and
string, VBG, string
quartet, NN, quartet
*1996, -NONE-, *1996
Danci, NNP, danc
for, IN, for
solo, NN, solo
guitar, NN, guit
*1996, -NONE-, *1996
When, WRB, When
Shall, NNP, shal
Piano, NNP, piano
Old, NNP, old
Changeth, NNP, change
for, IN, for
piano, NN, piano
*1999, -NONE-, *1999
Composition, NNP, composit
for, IN, for
One, CD, One
Instrument, NNP, instru
for, IN, for
celesta, NN, celest
*1999, -NONE-, *1999
Allegro, NNP, allegro
for, IN, for
piano, NN, piano
*1999, -NONE-, *1999
Concerto, NNP, concerto
for, IN, for
vibraphone, NN, vibraphon
*2000, -NONE-, *2000
Little, NNP, littl
Goes, NNP, goe
Long, NNP, long
for, IN, for
violin, NN, violin
and, CC, and
piano, NN, piano
*2000, -NONE-, *2000
Pantuns, VBZ, pantun
for, IN, for
soprano, RB, soprano
and, CC, and
piano, RB, piano
*2001, -NONE-, *2001
Psalter, NNP, psalt
soprano, NN, soprano
and, CC, and
string, VBG, string
orchestra, NN, orchestr
*2002, -NONE-, *2002
Now, RB, now
Evening, NNP, ev
after, IN, after
Evening, NNP, ev
for, IN, for
soprano, NN, soprano
and, CC, and
piano, NN, piano
Derek, NNP, derek
*2003, NNP, *2003
Swan, NNP, swan
Song, NNP, song
No, NNP, no
House, NNP, hous
for, IN, for
soprano, NN, soprano
and, CC, and
vibraphone, NN, vibraphon
Stanley, NNP, stanley
*2004, NNP, *2004
Concerti, NNP, concert
for, IN, for
Orchestra, NNP, orchestr
James, NNP, jam
and, CC, and
the, DT, the
Boston, NNP, boston
*2004, NNP, *2004
Autobiography, NNP, autobiograph
of, IN, of
the, DT, the
Eye, NNP, ey
for, IN, for
soprano, NN, soprano
and, CC, and
cello, NN, cello
Paul, NNP, paul
*2005\u20136, NNP, *2005\u20136
More, NNP, mor
Melismata, NNP, melismat
for, IN, for
solo, NN, solo
cello, NN, cello
*2006, -NONE-, *2006
An, DT, An
Encore, NNP, ent
for, IN, for
violin, NN, violin
Phoenix, NNP, phoenix
Ensemble, NNP, ensembl
Mark, NNP, mark
Aaron, NNP, aaron
Kristi, NNP, krist
Alicia, NNP, alic
Cyrus, NNP, cyr
Alberto, NNP, alberto
and, CC, and
Bruce, NNP, bruc
Morton, NNP, morton
Clarinet, NNP, clarinet
and, CC, and
String, NNP, string
Milton, NNP, milton
Quintet, NNP, quintet
for, IN, for
Clarinet, NNP, clarinet
and, CC, and
String, NNP, string
St., NNP, st.
American, JJ, am
Composers, NNS, compos
Piano, NNP, piano
And, CC, And
Orchestra/The, NNP, orchestra/the
Head, NNP, head
Of, NNP, of
The, NNP, the
Bed, NNP, bed
Alan, NNP, al
American, NNP, am
Composers, NNP, compos
Orchestra, NNP, orchestr
Charles, NNP, charl
Judith, NNP, judi
Parnassus, NNP, parnass
Anthony, NNP, anthony
New, NNP, new
World, NNP, world
Records, NNP, record
80346, CD, 80346
Juilliard, NNP, juilliard
String, NNP, string
Quartet, NNP, quartet
Wolpe, NNP, wolp
Babbitt, NNP, babbit
Roger, NNP, rog
Sessions, NNP, sess
String, NNP, string
Stefan, NNP, stef
String, NNP, string
Milton, NNP, milton
String, NNP, string
Juilliard, NNP, juilliard
Robert, NNP, robert
Joel, NNP, joel
Samuel, NNP, samuel
Joel, NNP, joel
New, NNP, new
Composers, NNPS, compos
Occasional, NNP, occas
Composition, NNP, composit
for, IN, for
Guitar, NNP, guit
William, NNP, william
Anderson, NNP, anderson
Fred, NNP, fred
Composers, NNP, compos
String, NNP, string
Quartet, NNP, quartet
New, NNP, new
Tzadik, NNP, tzadik
Philomel, NNP, philomel
Phonemena, NNP, phonemen
for, IN, for
soprano, NN, soprano
and, CC, and
piano, NN, piano
Phonemena, NNP, phonemen
for, IN, for
soprano, NN, soprano
and, CC, and
tape, NN, tap
Reflections, NNS, reflect
Bethany, NNP, bethany
Beardslee, NNP, beardsl
and, CC, and
Lynne, NNP, lyn
Jerry, NNP, jerry
and, CC, and
Robert, NNP, robert
New, NNP, new
World, NNP, world
Records, NNP, record
80466-2, CD, 80466-2
New, NNP, new
American, JJ, am
New, NNP, new
World, NNP, world
LPs, NNP, lps
NW, NNP, nw
209, CD, 209
and, CC, and
NW, NNP, nw
307, CD, 307
Charles, NNP, charl
Quartet, NNP, quartet
for, IN, for
Strings, NNP, strings
Fine, NNP, fin
Sextets, NNPS, sextet
Joy, NNP, joy
of, IN, of
More, NNP, mor
Rolf, NNP, rolf
Alan, NNP, al
New, NNP, new
World, NNP, world
Records, NNP, record
NW, NNP, nw
364-2, CD, 364-2
New, NNP, new
American, JJ, am
Duettini, NNP, duettin
Horn, NNP, horn
Whirled, NNP, whirl
Lonely, NNP, lon
Homily, NNP, hom
Beaten, NNP, beat
Again, NNP, again
Soli, NNP, sol
Duettini, NNP, duettin
Melismata, NNP, melismat
American, NNP, am
Mel, NNP, mel
Powell, NNP, powel
String, NNP, string
Elliott, NNP, elliot
Quartet, NNP, quartet
for, IN, for
Strings, NNP, strings
Milton, NNP, milton
Quartet, NNP, quartet
Matthew, NNP, matthew
Anahid, NNP, anahid
Maureen, NNP, maureen
Karl, NNP, karl
Mark, NNP, mark
Music, NNP, mus
Arts, NNP, art
CD-606, NNP, cd-606
Berkeley, NNP, berkeley
Music, NNP, mus
and, CC, and
Arts, NNP, art
of, IN, of
America, NNP, americ
Elizabethan, NNP, elizabeth
Elizabethan, NNP, elizabeth
Minute, NNP, minut
Partitions, NNP, partit
Twelve, NNP, twelv
to, TO, to
Tango, NNP, tango
About, NNP, about
Groupwise, NNP, groupw
Vision, NNP, vis
And, CC, And
Prayer, NNP, pray
Alan, NNP, al
Bethany, NNP, bethany
Harvey, NNP, harvey
New, NNP, new
Composers, NNPS, compos
Reissued, NNP, reissu
on, IN, on
CRI/New, NNP, cri/new
World, NNP, world
NWCR521, NNP, nwcr521
Milton, NNP, milton
Jewish, JJ, jew
Virtual, NNP, virt
Inducted, NNP, induc
Into, NNP, into
'', '', ''
Delta, NNP, delt
Omicron, NNP, omicron
Milton, NNP, milton
Listen, NNP, list
High, JJ, high
Fidelity, NN, fidel
Milton, NNP, milton
Charles, NNP, charl
for, IN, for
1991, CD, 1991
'', '', ''
Occasional, NNP, occas
Paper, NNP, pap
17, CD, 17
New, NNP, new
American, JJ, am
of, IN, of
Learned, NNP, learn
Milton, NNP, milton
Collected, NNP, collect
of, IN, of
Milton, NNP, milton
Stephen, NNP, steph
Stephen, NNP, steph
Andrew, NNP, andrew
Joseph, NNP, joseph
Princeton, NNP, princeton
Princeton, NNP, princeton
Press, NNP, press
Elaine, NNP, elain
Martin, NNP, martin
Babbitt, NNP, babbit
Milton, NNP, milton
Byron, NNP, byron
New, NNP, new
Dictionary, NNP, dict
of, IN, of
Music, NNP, mus
and, CC, and
Musicians, NNP, mus
Stanley, NNP, stanley
and, CC, and
John, NNP, john
London, NNP, london
Macmillan, NNP, macmil
New, NNP, new
Grove, NNP, grov
's, POS, 's
Dictionaries, NNPS, dict
of, IN, of
Music, NNP, mus
University, NNP, univers
Pulitzer, NNP, pulitz
New, NNP, new
Columbia, NNP, columb
Stephen, NNP, steph
and, CC, and
Straus, NNP, straus
Joseph, NNP, joseph
Milton, NNP, milton
Babbitt, NNP, babbit
Music, NNP, mus
Madison, NNP, madison
University, NNP, univers
of, IN, of
Wisconsin, NNP, wisconsin
Josiah, NNP, josiah
Jeff, NNP, jeff
Music, NNP, mus
Writings, NNP, writ
Boston, NNP, boston
Northeastern, NNP, northeastern
Press, NNP, press
Jennifer, NNP, jen
Debbie, NNP, debby
Delta, NNP, delt
Omicron, NNP, omicron
National, NNP, nat
Front, NNP, front
page, NN, pag
Retrieved, NNP, retriev
January, NNP, janu
30, CD, 30
Andrew, NNP, andrew
Music, NNP, mus
of, IN, of
Milton, NNP, milton
Princeton, NNP, princeton
Princeton, NNP, princeton
Press, NNP, press
Peter, NNP, pet
Rhythmic, NNP, rhythm
in, IN, in
Milton, NNP, milton
's, POS, 's
Composition, NNP, composit
for, IN, for
Twelve, NNP, twelv
'', '', ''
New, NNP, new
Music, NNP, mus
Garde, NNP, gard
AGP72, NNP, agp72
Piano, NNP, piano
music, NN, mus
of, IN, of
Milton, NNP, milton
as, IN, as
played, VBN, play
by, IN, by
Robert, NNP, robert
*Schirmer.com, NNP, *schirmer.com
Milton, NNP, milton
Milton, NNP, milton
NewMusicBox, NNP, newmusicbox
Milton, NNP, milton
talks, VBZ, talk
about, IN, about
``, ``, ``
Milton, NNP, milton
James, NNP, jam
at, IN, at
the, DT, the
Dickinson, NNP, dickinson
on, IN, on
April, NNP, april
11, CD, 11
Milton, NNP, milton
Gabrielle, NNP, gabriel
American, NNP, am
Public, NNP, publ
Media, NNP, med
Milton, NNP, milton
by, IN, by
Bruce, NNP, bruc
Babbitt, NNP, babbit
interview, NN, interview
from, IN, from
National, NNP, nat
Today, NNP, today
program, NN, program
Music, NNP, mus
Milton, NNP, milton
by, IN, by
Charles, NNP, charl
Milton, NNP, milton
NewMusicBox, NNP, newmusicbox
Milton, NNP, milton
*Recording, NNP, *recording
Concerto, NNP, concerto
Piccolino, NNP, piccolino
\u2013, NNP, \u2013
Lee, NNP, lee
Nova, NNP, nov
*Recording, NNP, *recording
None, NNP, non
But, CC, But
the, DT, the
Lonely, NNP, lon
\u2013, NNP, \u2013
John, NNP, john
Nova, NNP, nov
*Woodwind, NNP, *woodwind
Quartet, NNP, quartet
Soni, NNP, son
Karpman, NNP, karpm
documentary, NN, docu
on, IN, on
Milton, NNP, milton
*Babbitt, NNP, *babbitt
Serial, JJ, ser
Robert, NNP, robert
Hilferty/Laura, NNP, hilferty/laura
Karpman, NNP, karpm
documentary, NN, docu
Milton, NNP, milton
``, ``, ``
Musical, NNP, mus
Thought, NNP, thought
'', '', ''
The, NNP, the
Baltimore, NNP, baltim
of, IN, of
Art, NNP, art
Baltimore, NNP, baltim
Maryland, NNP, maryland
