Harold, NNP, harold
``, ``, ``
Harry, NNP, harry
'', '', ''
Watson, NNP, watson
British, JJ, brit
athlete, NN, athlet
who, WP, who
competed, VBN, compet
at, IN, at
the, DT, the
1908, CD, 1908
Summer, NNP, sum
Olympics, NNP, olymp
in, IN, in
London, NNP, london
Sutton, NNP, sutton
London, NNP, london
Watson, NNP, watson
took, VBD, tak
third, JJ, third
place, NN, plac
in, IN, in
his, PRP$, his
first, JJ, first
round, NN, round
heat, NN, heat
and, CC, and
did, VBD, do
not, RB, not
advance, NN, adv
to, TO, to
the, DT, the
semifinals, NNS, semifin
