Quintus, NNP, quint
Caecilius, NNP, caecili
Metellus, NNP, metell
Late, NNP, lat
Julius, NNP, juli
and, CC, and
the, DT, the
senatorial, JJ, sen
faction, NN, fact
led, VBN, lead
by, IN, by
Pompeius, NNP, pompei
Great, NNP, gre
'', '', ''
Caesar, NNP, caes
's, POS, 's
forces, NNS, forc
Pharsalus, NNP, pharsal
and, CC, and
Thapsus, NNP, thaps
Ronald, NNP, ronald
Syme, NNP, sym
called, VBD, cal
him, PRP, him
``, ``, ``
Roman, NNP, rom
history, NN, hist
Metellus, NNP, metell
was, VBD, be
born, VBN, bear
Publius, NNP, publi
Cornelius, NNP, corneli
who, WP, who
was, VBD, be
consul, JJ, cons
in, IN, in
111, CD, 111
BC, NNP, bc
Licinia, NNP, licin
Licinius, NNP, licini
who, WP, who
was, VBD, be
consul, JJ, cons
in, IN, in
95, CD, 95
BC, NNP, bc
Crassus, NNP, crass
Publius, NNP, publi
Scipio, NNP, scipio
Quintus, NNP, quint
Scipio, NNP, scipio
's, POS, 's
ancestry, NN, ancestry
Syme, NNP, sym
Jerzy, NNP, jerzy
has, VBZ, hav
shown, VBN, show
at, IN, at
length, NN, leng
Scipio, NNP, scipio
becomes, VBZ, becom
Caecilius, NNP, caecili
in, IN, in
name, NN, nam
while, IN, while
inheriting, VBG, inherit
the, DT, the
estate, NN, est
of, IN, of
Metellus, NNP, metell
Metellus, NNP, metell
'', '', ''
but, CC, but
also, RB, also
sometimes, VBZ, sometim
just, RB, just
``, ``, ``
Caecilius, NNP, caecili
Q., NNP, q.
f., NNP, f.
Fab, NNP, fab
Metellus, NNP, metell
Scipio, NNP, scipio
married, VBD, marry
Aemilia, NNP, aemil
Mamercus, NNP, mamerc
Cato, NNP, cato
had, VBD, hav
also, RB, also
wanted, VBN, want
to, TO, to
marry, VB, marry
Aemilia, NNP, aemil
and, CC, and
lost, VBD, los
out, RP, out
in, IN, in
the, DT, the
seduction, NN, seduc
Metellus, NNP, metell
Scipio, NNP, scipio
who, WP, who
seems, VBZ, seem
to, TO, to
have, VB, hav
died, VBN, die
when, WRB, when
he, PRP, he
was, VBD, be
only, RB, on
18.CIL, CD, 18.CIL
XIV.3483, -NONE-, XIV.3483
Tibur, NNP, tib
Scipio, NNP, scipio
first, RB, first
married, VBD, marry
off, IN, off
the, DT, the
celebrated, VBN, celebr
Cornelia, NNP, cornel
to, TO, to
Publius, NNP, publi
Marcus, NNP, marc
Publius, NNP, publi
's, POS, 's
premature, NN, prem
death, NN, dea
at, IN, at
Carrhae, NNP, carrha
Scipio, NNP, scipio
decided, VBD, decid
to, TO, to
succeed, VB, success
Caesar, NNP, caes
as, IN, as
the, DT, the
father-in-law, NN, father-in-law
of, IN, of
Pompeius, NNP, pompei
Cornelia, NNP, cornel
Pompeius, NNP, pompei
severed, VBD, sev
his, PRP$, his
alliance, NN, al
to, TO, to
Caesar, NNP, caes
and, CC, and
declared, VBD, decl
himself, PRP, himself
the, DT, the
champion, NN, champ
of, IN, of
the, DT, the
optimates, NNS, optim
Scipio, NNP, scipio
were, VBD, be
consuls, NNS, cons
together, RB, togeth
in, IN, in
52, CD, 52
Cicero, NNP, cicero
names, VBZ, nam
``, ``, ``
Roscius, NNP, rosci
of, IN, of
Ameria, NNP, amer
was, VBD, be
prosecuted, VBN, prosecut
in, IN, in
80, CD, 80
BC, NNP, bc
Metellus, NNP, metell
Metellus, NNP, metell
Scipio, NNP, scipio
has, VBZ, hav
been, VBN, be
listed, VBN, list
as, IN, as
tribune, NN, tribun
of, IN, of
the, DT, the
plebs, NNS, pleb
in, IN, in
59, CD, 59
Dates, NNP, dat
and, CC, and
offices, NNS, off
from, IN, from
T.R.S, JJ, t.r.s
Broughton, NNP, broughton
The, NNP, the
of, IN, of
the, DT, the
Roman, JJ, rom
New, NNP, new
1952, CD, 1952
Broughton, NNP, broughton
recants, NNS, rec
his, PRP$, his
earlier, JJR, ear
identification, NN, id
of, IN, of
Scipio, NNP, scipio
as, IN, as
Metellus, NNP, metell
's, POS, 's
magistracies, NNS, mag
include, VBP, includ
Cicero, NNP, cicero
Ad, NNP, ad
2.1.9, CD, 2.1.9
and, CC, and
In, NNP, in
Vatinium, NNP, vatin
16, CD, 16
Valerius, NNP, valeri
9.1.8, CD, 9.1.8
CIL, NNP, cil
I2.2.2663c, NNP, i2.2.2663c
June, NNP, jun
Cicero, NNP, cicero
Ad, NNP, ad
familiares, NNS, famili
7.11.1, CD, 7.11.1
and, CC, and
M\u00fcnzer, JJ, m\u00fcnzer
Scipio, NNP, scipio
's, POS, 's
'adoption, NN, 'adoption
Pompeius, NNP, pompei
and, CC, and
Marcus, NNP, marc
Valerius, NNP, valeri
Pompeius, NNP, pompei
in, IN, in
52, CD, 52
BC, NNP, bc
Metellus, NNP, metell
had, VBD, hav
been, VBN, be
at, IN, at
least, JJS, least
symbolically, RB, symbol
Crassus, NNP, crass
in, IN, in
53, CD, 53
Syme, NNP, sym
Metellan, NNP, metel
consuls, VBZ, cons
College, NNP, colleg
of, IN, of
Pontiffs, NNP, pontiff
by, IN, by
57, CD, 57
BC, NNP, bc
Metellus, NNP, metell
persuaded, VBD, persuad
the, DT, the
senate, NN, sen
to, TO, to
issue, VB, issu
the, DT, the
ultimatum, NN, ultimat
to, TO, to
Caesar, NNP, caes
that, IN, that
made, VBD, mak
war, NN, war
inevitable, JJ, inevit
Syria, NNP, syr
Syria, NNP, syr
and, CC, and
in, IN, in
the, DT, the
province, NN, provint
of, IN, of
Asia, NNP, as
Scipio, NNP, scipio
put, VBD, put
to, TO, to
death, NN, dea
Alexander, NNP, alexand
of, IN, of
Judaea, NNP, judae
Imperator, NNP, imp
for, IN, for
``, ``, ``
Amanus, NNP, aman
\u2014, NNP, \u2014
Caesar, NNP, caes
Asia, NNP, as
to, TO, to
Greece, NNP, greec
Gn, NNP, gn
Domitius, NNP, domiti
Calvinus, NNP, calvin
and, CC, and
L., NNP, l.
Cassius, NNP, cassi
until, IN, until
the, DT, the
arrival, NN, ar
of, IN, of
Pompeius, NNP, pompei
Battle, NNP, battl
of, IN, of
Pharsalus, NNP, pharsal
Caesar, NNP, caes
Metellus, NNP, metell
fled, VBD, fle
to, TO, to
Africa, NNP, afric
Cato, NNP, cato
Pompeius, NNP, pompei
's, POS, 's
forces, NNS, forc
from, IN, from
the, DT, the
loyal, JJ, loy
Attius, NNP, atti
Battle, NNP, battl
of, IN, of
Thapsus, NNP, thaps
``, ``, ``
Cato, NNP, cato
Iberian, NNP, ib
Peninsula, NNP, peninsul
to, TO, to
continue, VB, continu
the, DT, the
fight, NN, fight
Publius, NNP, publi
Metellus, NNP, metell
achieved, VBD, achiev
an, DT, an
uncharacteristic, JJ, uncharact
dignity, NN, dign
John, NNP, john
summed, VBD, sum
up, RP, up
the, DT, the
character, NN, charact
and, CC, and
reputation, NN, reput
of, IN, of
Metellus, NNP, metell
Scipio, NNP, scipio
Thapsus, NNP, thaps
Cornelia, NNP, cornel
Caecilia, NNP, caecil
Jerzy, NNP, jerzy
Imperium, NNP, imper
sine, NN, sin
fine, NN, fin
Robert, NNP, robert
and, CC, and
the, DT, the
Roman, NNP, rom
Franz, NNP, franz
Steiner, NNP, stein
Limited, NNP, limit
preview, VBD, preview
online, NN, onlin
Ronald, NNP, ronald
Augustan, NNP, august
Oxford, NNP, oxford
University, NNP, univers
Manuel, NNP, manuel
de, IN, de
Magalh\u00e3es, NNS, magalh\u00e3
Arnao, NNP, arnao
and, CC, and
Jo\u00e3o, NNP, jo\u00e3o
Carlos, NNP, carlo
de, IN, de
N\u00e1poles, NNS, n\u00e1poles
Metellos, NNP, metello
de, IN, de
Portugal, NNP, portug
Brasil, NNP, brasil
Roma, NNP, rom
'', '', ''
Torres, NNP, tor
