[
{
  "tag":"S",
  "content":
  [
    {
      "tag":"PERSON",
      "content":
      [
        ["Aidan","NNP","aid"]
      ]
    },
    {
      "tag":"ORGANIZATION",
      "content":
      [
        ["Davis","NNP","dav"]
      ]
    },
    ["(","NNP","("],
    ["born","NN","born"],
    ["23","CD","23"],
    ["March","NNP","march"],
    ["1997","CD","1997"],
    [")","CD",")"],
    ["is","VBZ","be"],
    ["a","DT","a"],
    ["youth","NN","you"],
    ["street","NN","street"],
    ["dancer","NN","dant"],
    ["from","IN","from"],
    {
      "tag":"GPE",
      "content":
      [
        ["Birmingham","NNP","birmingham"]
      ]
    },
    [",",",",","],
    {
      "tag":"GPE",
      "content":
      [
        ["England","NNP","england"]
      ]
    },
    ["who","WP","who"],
    ["in","IN","in"],
    ["2009","CD","2009"],
    ["reached","VBN","reach"],
    ["the","DT","the"],
    ["final","JJ","fin"],
    ["of","IN","of"],
    ["the","DT","the"],
    ["third","JJ","third"],
    ["series","NN","sery"],
    ["of","IN","of"],
    ["the","DT","the"],
    {
      "tag":"ORGANIZATION",
      "content":
      [
        ["ITV","NNP","itv"]
      ]
    },
    ["talent","NN","tal"],
    ["show","NN","show"],
    {
      "tag":"GPE",
      "content":
      [
        ["Britain","NNP","britain"]
      ]
    },
    ["'s","POS","'s"],
    {
      "tag":"ORGANIZATION",
      "content":
      [
        ["Got","NNP","got"],
        ["Talent","NNP","tal"]
      ]
    },
    [".",".","."]
  ]
},
{
  "tag":"S",
  "content":
  [
    ["He","PRP","He"],
    ["finished","VBD","fin"],
    ["fifth","JJ","fif"],
    ["place","NN","plac"],
    ["overall","JJ","overal"],
    ["and","CC","and"],
    ["later","JJ","lat"],
    ["that","IN","that"],
    ["year","NN","year"],
    ["he","PRP","he"],
    ["toured","VBD","tour"],
    ["the","DT","the"],
    {
      "tag":"ORGANIZATION",
      "content":
      [
        ["United","NNP","unit"],
        ["Kingdom","NNP","kingdom"]
      ]
    },
    [",",",",","],
    ["making","VBG","mak"],
    ["live","JJ","liv"],
    ["performances","NNS","perform"],
    ["with","IN","with"],
    ["the","DT","the"],
    ["series","NNS","sery"],
    ["'","POS","'"],
    ["other","JJ","oth"],
    ["finalists","NNS","fin"],
    [".",".","."]
  ]
},
{
  "tag":"S",
  "content":
  [
    {
      "tag":"PERSON",
      "content":
      [
        ["Davis","NNP","dav"]
      ]
    },
    ["has","VBZ","hav"],
    ["made","VBN","mak"],
    ["numerous","JJ","num"],
    ["performances","NNS","perform"],
    ["since","IN","since"],
    {
      "tag":"GPE",
      "content":
      [
        ["Britain","NNP","britain"]
      ]
    },
    ["'s","POS","'s"],
    {
      "tag":"ORGANIZATION",
      "content":
      [
        ["Got","NNP","got"],
        ["Talent","NNP","tal"]
      ]
    },
    [",",",",","],
    ["including","VBG","includ"],
    ["the","DT","the"],
    ["'Diversitoys","NNS","'diversitoys"],
    ["'","POS","'"],
    ["tour","NN","tour"],
    ["with","IN","with"],
    {
      "tag":"ORGANIZATION",
      "content":
      [
        ["Diversity","NNP","divers"]
      ]
    },
    [",",",",","],
    ["and","CC","and"],
    ["as","IN","as"],
    ["a","DT","a"],
    ["presenter","NN","pres"],
    ["on","IN","on"],
    ["the","DT","the"],
    ["Friday","NNP","friday"],
    ["Download","NNP","download"],
    ["show","NN","show"],
    ["on","IN","on"],
    {
      "tag":"ORGANIZATION",
      "content":
      [
        ["CBBC","NNP","cbbc"]
      ]
    },
    [".",".","."]
  ]
},
{
  "tag":"S",
  "content":
  [
    ["During","IN","During"],
    ["the","DT","the"],
    ["year","NN","year"],
    ["of","IN","of"],
    ["2012","CD","2012"],
    ["aidan","NN","aid"],
    ["made","VBD","mak"],
    ["his","PRP$","his"],
    ["music","JJ","mus"],
    ["video","NN","video"],
    ["let","NN","let"],
    ["'s","POS","'s"],
    ["dance","NN","dant"],
    ["which","WDT","which"],
    ["featured","VBN","feat"],
    ["jon","NN","jon"],
    ["dos","NNS","do"],
    [".",".","."]
  ]
},
{
  "tag":"S",
  "content":
  [
    ["==History==","NN","==history=="],
    ["===Britain","NN","===britain"],
    ["'s","POS","'s"],
    {
      "tag":"ORGANIZATION",
      "content":
      [
        ["Got","NNP","got"]
      ]
    },
    ["Talent","NNP","tal"],
    [":",":",":"],
    ["2009===","CD","2009==="],
    ["In","IN","In"],
    ["May","NNP","may"],
    ["2009","CD","2009"],
    [",",",",","],
    {
      "tag":"PERSON",
      "content":
      [
        ["Davis","NNP","dav"]
      ]
    },
    ["auditioned","VBD","audit"],
    ["for","IN","for"],
    ["the","DT","the"],
    ["third","JJ","third"],
    ["series","NN","sery"],
    ["of","IN","of"],
    ["the","DT","the"],
    {
      "tag":"ORGANIZATION",
      "content":
      [
        ["ITV","NNP","itv"]
      ]
    },
    ["television","NN","televid"],
    ["talent","NN","tal"],
    ["show","NN","show"],
    {
      "tag":"GPE",
      "content":
      [
        ["Britain","NNP","britain"]
      ]
    },
    ["'s","POS","'s"],
    {
      "tag":"ORGANIZATION",
      "content":
      [
        ["Got","NNP","got"],
        ["Talent","NNP","tal"]
      ]
    },
    [".",".","."]
  ]
},
{
  "tag":"S",
  "content":
  [
    ["In","IN","In"],
    ["his","PRP$","his"],
    ["audition","NN","audit"],
    ["he","PRP","he"],
    ["performed","VBD","perform"],
    ["to","TO","to"],
    {
      "tag":"PERSON",
      "content":
      [
        ["Flo","NNP","flo"],
        ["Rida","NNP","rid"]
      ]
    },
    ["'s","POS","'s"],
    ["``","``","``"],
    ["Low","NNP","low"],
    ["''","''","''"],
    [".",".","."]
  ]
},
{
  "tag":"S",
  "content":
  [
    ["He","PRP","He"],
    ["received","VBD","receiv"],
    ["positive","JJ","posit"],
    ["comments","NNS","com"],
    ["from","IN","from"],
    ["all","DT","all"],
    ["three","CD","three"],
    ["judges","NNS","judg"],
    [",",",",","],
    ["with","IN","with"],
    {
      "tag":"PERSON",
      "content":
      [
        ["Simon","NNP","simon"],
        ["Cowell","NNP","cowel"]
      ]
    },
    ["saying","VBG","say"],
    ["``","``","``"],
    ["I","PRP","I"],
    ["think","VBP","think"],
    ["you","PRP","you"],
    ["'re","VBP","'re"],
    ["better","RBR","wel"],
    ["than","IN","than"],
    ["any","DT","any"],
    ["dancer","NN","dant"],
    ["on","IN","on"],
    ["this","DT","this"],
    ["show","NN","show"],
    [",",",",","],
    ["you","PRP","you"],
    ["are","VBP","be"],
    ["super","JJ","sup"],
    [",",",",","],
    ["super","NN","sup"],
    [",",",",","],
    ["super","NN","sup"],
    ["talented","VBD","tal"],
    ["''","''","''"],
    [".",".","."]
  ]
},
{
  "tag":"S",
  "content":
  [
    ["He","PRP","He"],
    ["received","VBD","receiv"],
    ["three","CD","three"],
    ["yeses","NNS","ye"],
    ["from","IN","from"],
    {
      "tag":"GPE",
      "content":
      [
        ["Cowell","NNP","cowel"]
      ]
    },
    [",",",",","],
    {
      "tag":"PERSON",
      "content":
      [
        ["Amanda","NNP","amand"],
        ["Holden","NNP","hold"]
      ]
    },
    ["and","CC","and"],
    {
      "tag":"ORGANIZATION",
      "content":
      [
        ["Piers","NNP","pier"],
        ["Morgan","NNP","morg"]
      ]
    },
    ["and","CC","and"],
    ["was","VBD","be"],
    ["put","VBN","put"],
    ["through","IN","through"],
    ["to","TO","to"],
    ["the","DT","the"],
    ["next","JJ","next"],
    ["round","NN","round"],
    [".",".","."]
  ]
},
{
  "tag":"S",
  "content":
  [
    ["Despite","IN","Despite"],
    ["never","RB","nev"],
    ["having","VBG","hav"],
    ["had","VBD","hav"],
    ["a","DT","a"],
    ["dance","NN","dant"],
    ["lesson","NN","lesson"],
    [",",",",","],
    ["at","IN","at"],
    ["the","DT","the"],
    ["time","NN","tim"],
    {
      "tag":"PERSON",
      "content":
      [
        ["Davis","NNP","dav"]
      ]
    },
    ["was","VBD","be"],
    ["compared","VBN","comp"],
    ["to","TO","to"],
    ["the","DT","the"],
    ["series","NN","sery"],
    ["2","CD","2"],
    ["winner","NN","win"],
    {
      "tag":"PERSON",
      "content":
      [
        ["George","NNP","georg"],
        ["Sampson","NNP","sampson"]
      ]
    },
    ["and","CC","and"],
    ["was","VBD","be"],
    ["later","JJ","lat"],
    ["chosen","VBN","choos"],
    ["as","IN","as"],
    ["one","CD","one"],
    ["of","IN","of"],
    ["the","DT","the"],
    ["40","CD","40"],
    ["semi-finalists","NNS","semi-finalists"],
    [".",".","."]
  ]
},
{
  "tag":"S",
  "content":
  [
    ["He","PRP","He"],
    ["performed","VBD","perform"],
    ["for","IN","for"],
    ["a","DT","a"],
    ["second","JJ","second"],
    ["time","NN","tim"],
    ["in","IN","in"],
    ["the","DT","the"],
    ["semi-final","JJ","semi-final"],
    ["on","IN","on"],
    ["29","CD","29"],
    ["May","NNP","may"],
    ["2009","CD","2009"],
    [",",",",","],
    ["dancing","VBG","dant"],
    ["to","TO","to"],
    ["``","``","``"],
    {
      "tag":"PERSON",
      "content":
      [
        ["Rock","NNP","rock"],
        ["Your","NNP","yo"],
        ["Body","NNP","body"]
      ]
    },
    ["''","''","''"],
    ["by","IN","by"],
    {
      "tag":"PERSON",
      "content":
      [
        ["Justin","NNP","justin"],
        ["Timberlake","NNP","timberlak"]
      ]
    },
    [".",".","."]
  ]
},
{
  "tag":"S",
  "content":
  [
    ["Again","RB","again"],
    ["he","PRP","he"],
    ["received","VBD","receiv"],
    ["a","DT","a"],
    ["standing","NN","stand"],
    ["ovation","NN","ov"],
    ["from","IN","from"],
    ["the","DT","the"],
    ["audience","NN","audy"],
    ["and","CC","and"],
    ["positive","JJ","posit"],
    ["comments","NNS","com"],
    ["from","IN","from"],
    ["the","DT","the"],
    ["judges","NNS","judg"],
    [".",".","."]
  ]
},
{
  "tag":"S",
  "content":
  [
    {
      "tag":"PERSON",
      "content":
      [
        ["Amanda","NNP","amand"]
      ]
    },
    {
      "tag":"PERSON",
      "content":
      [
        ["Holden","NNP","hold"]
      ]
    },
    ["said","VBD","say"],
    ["that","IN","that"],
    {
      "tag":"PERSON",
      "content":
      [
        ["Davis","NNP","dav"]
      ]
    },
    ["``","``","``"],
    ["blew","VB","blow"],
    ["her","PRP","her"],
    ["away","RB","away"],
    ["''","''","''"],
    ["and","CC","and"],
    ["he","PRP","he"],
    ["``","``","``"],
    ["went","VBD","go"],
    ["through","IN","through"],
    ["the","DT","the"],
    ["roof","NN","roof"],
    [".",".","."]
  ]
},
{
  "tag":"S",
  "content":
  [
    ["``","``","``"],
    {
      "tag":"PERSON",
      "content":
      [
        ["Cowell","NNP","cowel"]
      ]
    },
    ["told","VBD","tel"],
    ["him","PRP","him"],
    [",",",",","],
    ["``","``","``"],
    ["whatever","RB","whatev"],
    ["'it","JJ","'it"],
    ["'","''","'"],
    ["is","VBZ","be"],
    [",",",",","],
    ["you","PRP","you"],
    ["'ve","VBP","'ve"],
    ["got","VBN","get"],
    ["it","PRP","it"],
    [".",".","."]
  ]
},
{
  "tag":"S",
  "content":
  [
    ["``","``","``"],
    ["He","PRP","He"],
    ["also","RB","also"],
    ["praised","VBD","pra"],
    {
      "tag":"PERSON",
      "content":
      [
        ["Davis","NNP","dav"]
      ]
    },
    ["'","POS","'"],
    ["confidence","NN","confid"],
    ["and","CC","and"],
    ["charisma","NN","charism"],
    [".",".","."]
  ]
},
{
  "tag":"S",
  "content":
  [
    {
      "tag":"PERSON",
      "content":
      [
        ["Morgan","NNP","morg"]
      ]
    },
    ["compared","VBD","comp"],
    ["him","PRP","him"],
    ["to","TO","to"],
    ["a","DT","a"],
    ["young","JJ","young"],
    {
      "tag":"PERSON",
      "content":
      [
        ["Justin","NNP","justin"],
        ["Timberlake","NNP","timberlak"]
      ]
    },
    [",",",",","],
    ["declaring","VBG","decl"],
    ["him","PRP","him"],
    ["``","``","``"],
    ["a","DT","a"],
    ["delight","NN","delight"],
    ["to","TO","to"],
    ["watch","VB","watch"],
    ["''","''","''"],
    [".",".","."]
  ]
},
{
  "tag":"S",
  "content":
  [
    ["He","PRP","He"],
    ["was","VBD","be"],
    ["automatically","RB","autom"],
    ["put","VBN","put"],
    ["through","IN","through"],
    ["to","TO","to"],
    ["the","DT","the"],
    ["final","JJ","fin"],
    ["after","IN","after"],
    ["receiving","VBG","receiv"],
    ["the","DT","the"],
    ["highest","JJS","high"],
    ["public","JJ","publ"],
    ["vote","NN","vot"],
    [".",".","."]
  ]
},
{
  "tag":"S",
  "content":
  [
    ["In","IN","In"],
    ["the","DT","the"],
    ["final","JJ","fin"],
    [",",",",","],
    ["on","IN","on"],
    ["30","CD","30"],
    ["May","NNP","may"],
    ["2009","CD","2009"],
    [",",",",","],
    ["he","PRP","he"],
    ["again","RB","again"],
    ["performed","VBN","perform"],
    ["to","TO","to"],
    {
      "tag":"PERSON",
      "content":
      [
        ["Flo","NNP","flo"],
        ["Rida","NNP","rid"]
      ]
    },
    ["'s","POS","'s"],
    ["``","``","``"],
    ["Low","NNP","low"],
    ["''","''","''"],
    [",",",",","],
    ["which","WDT","which"],
    ["was","VBD","be"],
    ["his","PRP$","his"],
    ["audition","NN","audit"],
    ["piece","NN","piec"],
    [".",".","."]
  ]
},
{
  "tag":"S",
  "content":
  [
    ["He","PRP","He"],
    ["received","VBD","receiv"],
    ["a","DT","a"],
    ["standing","NN","stand"],
    ["ovation","NN","ov"],
    [".",".","."]
  ]
},
{
  "tag":"S",
  "content":
  [
    {
      "tag":"PERSON",
      "content":
      [
        ["Amanda","NNP","amand"]
      ]
    },
    {
      "tag":"ORGANIZATION",
      "content":
      [
        ["Holden","NNP","hold"]
      ]
    },
    ["and","CC","and"],
    {
      "tag":"ORGANIZATION",
      "content":
      [
        ["Piers","NNP","pier"],
        ["Morgan","NNP","morg"]
      ]
    },
    ["loved","VBD","lov"],
    ["the","DT","the"],
    ["performance","NN","perform"],
    [".",".","."]
  ]
},
{
  "tag":"S",
  "content":
  [
    {
      "tag":"PERSON",
      "content":
      [
        ["Simon","NNP","simon"]
      ]
    },
    {
      "tag":"ORGANIZATION",
      "content":
      [
        ["Cowell","NNP","cowel"]
      ]
    },
    [",",",",","],
    ["however","RB","howev"],
    [",",",",","],
    ["told","VBD","tel"],
    ["him","PRP","him"],
    ["his","PRP$","his"],
    ["performance","NN","perform"],
    ["was","VBD","be"],
    ["not","RB","not"],
    ["as","IN","as"],
    ["good","JJ","good"],
    ["as","IN","as"],
    ["his","PRP$","his"],
    ["performance","NN","perform"],
    ["the","DT","the"],
    ["previous","JJ","prevy"],
    ["night","NN","night"],
    ["in","IN","in"],
    ["the","DT","the"],
    ["semi-final","JJ","semi-final"],
    [".",".","."]
  ]
},
{
  "tag":"S",
  "content":
  [
    ["He","PRP","He"],
    ["told","VBD","tel"],
    ["him","PRP","him"],
    [":",":",":"],
    ["``","``","``"],
    ["To","TO","To"],
    ["be","VB","be"],
    ["honest","JJS","honest"],
    ["with","IN","with"],
    ["you","PRP","you"],
    ["it","PRP","it"],
    ["was","VBD","be"],
    ["n't","RB","n't"],
    ["as","RB","as"],
    ["good","JJ","good"],
    [".",".","."]
  ]
},
{
  "tag":"S",
  "content":
  [
    ["You","PRP","You"],
    ["had","VBD","hav"],
    ["24","CD","24"],
    ["hours","NNS","hour"],
    ["and","CC","and"],
    ["limited","VBD","limit"],
    ["time","NN","tim"],
    ["to","TO","to"],
    ["put","VB","put"],
    ["it","PRP","it"],
    ["together","RB","togeth"],
    [".",".","."]
  ]
},
{
  "tag":"S",
  "content":
  [
    ["But","CC","But"],
    ["you","PRP","you"],
    ["still","RB","stil"],
    ["have","VBP","hav"],
    ["a","DT","a"],
    ["huge","JJ","hug"],
    ["future","JJ","fut"],
    ["ahead","NN","ahead"],
    ["of","IN","of"],
    ["you","PRP","you"],
    ["''","''","''"],
    {
      "tag":"PERSON",
      "content":
      [
        ["Davis","NNP","dav"]
      ]
    },
    ["later","JJ","lat"],
    ["said","VBD","say"],
    ["that","IN","that"],
    ["he","PRP","he"],
    ["felt","VBD","felt"],
    ["``","``","``"],
    ["gutted","VBN","gut"],
    ["''","''","''"],
    ["by","IN","by"],
    ["this","DT","this"],
    [",",",",","],
    ["but","CC","but"],
    {
      "tag":"PERSON",
      "content":
      [
        ["Cowell","NNP","cowel"]
      ]
    },
    ["urged","VBD","urg"],
    ["``","``","``"],
    ["Do","NNP","do"],
    ["n't","RB","n't"],
    ["listen","VB","list"],
    ["to","TO","to"],
    ["me","PRP","me"],
    ["-",":","-"],
    ["no","DT","no"],
    ["one","NN","on"],
    ["else","NN","els"],
    ["does","VBZ","do"],
    [".",".","."]
  ]
},
{
  "tag":"S",
  "content":
  [
    ["There","EX","There"],
    ["'s","VBZ","'s"],
    ["the","DT","the"],
    ["public","NN","publ"],
    ["vote","NN","vot"],
    ["''","''","''"],
    [".",".","."]
  ]
},
{
  "tag":"S",
  "content":
  [
    ["He","PRP","He"],
    ["did","VBD","do"],
    ["not","RB","not"],
    ["rank","VB","rank"],
    ["in","IN","in"],
    ["the","DT","the"],
    ["top","JJ","top"],
    ["three","CD","three"],
    ["acts","NNS","act"],
    ["in","IN","in"],
    ["the","DT","the"],
    ["competition","NN","competit"],
    [",",",",","],
    ["finishing","VBG","fin"],
    ["overall","JJ","overal"],
    ["in","IN","in"],
    ["fifth","JJ","fif"],
    ["place","NN","plac"],
    [",",",",","],
    ["receiving","VBG","receiv"],
    ["6.5","CD","6.5"],
    ["%","NN","%"],
    ["of","IN","of"],
    ["the","DT","the"],
    ["total","JJ","tot"],
    ["4","CD","4"],
    ["million","CD","million"],
    ["votes","NNS","vot"],
    ["cast","JJ","cast"],
    [".",".","."]
  ]
},
{
  "tag":"S",
  "content":
  [
    ["After","IN","After"],
    ["the","DT","the"],
    ["show","NN","show"],
    [",",",",","],
    {
      "tag":"PERSON",
      "content":
      [
        ["Simon","NNP","simon"],
        ["Cowell","NNP","cowel"]
      ]
    },
    ["spoke","NN","spok"],
    ["of","IN","of"],
    ["his","PRP$","his"],
    ["regret","NN","regret"],
    ["at","IN","at"],
    ["making","VBG","mak"],
    {
      "tag":"PERSON",
      "content":
      [
        ["Davis","NNP","dav"]
      ]
    },
    ["cry","NN","cry"],
    ["during","IN","during"],
    ["the","DT","the"],
    ["final","JJ","fin"],
    [".",".","."]
  ]
},
{
  "tag":"S",
  "content":
  [
    ["===Post","JJ","===post"],
    {
      "tag":"GPE",
      "content":
      [
        ["Britain","NNP","britain"]
      ]
    },
    ["'s","POS","'s"],
    {
      "tag":"ORGANIZATION",
      "content":
      [
        ["Got","NNP","got"]
      ]
    },
    ["Talent===","NNP","talent==="],
    {
      "tag":"PERSON",
      "content":
      [
        ["Davis","NNP","dav"]
      ]
    },
    ["performed","VBD","perform"],
    ["in","IN","in"],
    ["the","DT","the"],
    {
      "tag":"GPE",
      "content":
      [
        ["Britain","NNP","britain"]
      ]
    },
    ["'s","POS","'s"],
    {
      "tag":"ORGANIZATION",
      "content":
      [
        ["Got","NNP","got"],
        ["Talent","NNP","tal"]
      ]
    },
    ["-",":","-"],
    ["The","DT","The"],
    {
      "tag":"ORGANIZATION",
      "content":
      [
        ["Live","NNP","liv"]
      ]
    },
    ["Tour","NNP","tour"],
    ["2009","CD","2009"],
    ["in","IN","in"],
    ["June","NNP","jun"],
    ["and","CC","and"],
    ["July","NNP","july"],
    ["2009","CD","2009"],
    ["at","IN","at"],
    ["venues","NNS","venu"],
    ["all","DT","all"],
    ["over","IN","over"],
    ["the","DT","the"],
    {
      "tag":"ORGANIZATION",
      "content":
      [
        ["UK","NNP","uk"]
      ]
    },
    ["along","IN","along"],
    ["with","IN","with"],
    ["the","DT","the"],
    ["other","JJ","oth"],
    ["finalists","NNS","fin"],
    ["from","IN","from"],
    ["the","DT","the"],
    ["show","NN","show"],
    [".",".","."]
  ]
},
{
  "tag":"S",
  "content":
  [
    ["It","PRP","It"],
    ["was","VBD","be"],
    ["reported","VBN","report"],
    ["that","IN","that"],
    {
      "tag":"PERSON",
      "content":
      [
        ["Davis","NNP","dav"]
      ]
    },
    ["was","VBD","be"],
    ["going","VBG","go"],
    ["to","TO","to"],
    ["team","VB","team"],
    ["up","RP","up"],
    ["with","IN","with"],
    ["series","NNS","sery"],
    ["3","CD","3"],
    ["winners","NNS","win"],
    {
      "tag":"GPE",
      "content":
      [
        ["Diversity","NNP","divers"]
      ]
    },
    [";",":",";"],
    ["although","IN","although"],
    ["they","PRP","they"],
    ["did","VBD","do"],
    ["perform","NN","perform"],
    ["together","RB","togeth"],
    ["on","IN","on"],
    ["the","DT","the"],
    ["tour","NN","tour"],
    [",",",",","],
    {
      "tag":"PERSON",
      "content":
      [
        ["Davis","NNP","dav"]
      ]
    },
    ["never","RB","nev"],
    ["officially","RB","off"],
    ["became","VBD","becom"],
    ["a","DT","a"],
    ["member","NN","memb"],
    ["of","IN","of"],
    {
      "tag":"GPE",
      "content":
      [
        ["Diversity","NNP","divers"]
      ]
    },
    [".",".","."]
  ]
},
{
  "tag":"S",
  "content":
  [
    {
      "tag":"PERSON",
      "content":
      [
        ["Davis","NNP","dav"]
      ]
    },
    ["performed","VBD","perform"],
    ["at","IN","at"],
    ["a","DT","a"],
    {
      "tag":"ORGANIZATION",
      "content":
      [
        ["Michael","NNP","michael"],
        ["Jackson","NNP","jackson"]
      ]
    },
    ["dance","NN","dant"],
    ["tribute","NN","tribut"],
    ["show","NN","show"],
    ["on","IN","on"],
    ["30","CD","30"],
    ["August","NNP","august"],
    ["2009","CD","2009"],
    [".",".","."]
  ]
},
{
  "tag":"S",
  "content":
  [
    ["He","PRP","He"],
    ["was","VBD","be"],
    ["lined","VBN","lin"],
    ["up","RP","up"],
    ["with","IN","with"],
    ["other","JJ","oth"],
    ["dance","NN","dant"],
    ["stars","NNS","star"],
    ["from","IN","from"],
    {
      "tag":"GPE",
      "content":
      [
        ["Britain","NNP","britain"]
      ]
    },
    ["'s","POS","'s"],
    {
      "tag":"ORGANIZATION",
      "content":
      [
        ["Got","NNP","got"],
        ["Talent","NNP","tal"]
      ]
    },
    [",",",",","],
    ["including","VBG","includ"],
    {
      "tag":"PERSON",
      "content":
      [
        ["George","NNP","georg"],
        ["Sampson","NNP","sampson"]
      ]
    },
    [",",",",","],
    {
      "tag":"ORGANIZATION",
      "content":
      [
        ["Diversity","NNP","divers"]
      ]
    },
    ["and","CC","and"],
    {
      "tag":"PERSON",
      "content":
      [
        ["Signature","NNP","sign"]
      ]
    },
    ["at","IN","at"],
    ["the","DT","the"],
    {
      "tag":"FACILITY",
      "content":
      [
        ["Opera","NNP","oper"],
        ["House","NNP","hous"]
      ]
    },
    ["Theatre","NNP","the"],
    ["in","IN","in"],
    {
      "tag":"ORGANIZATION",
      "content":
      [
        ["Blackpool","NNP","blackpool"]
      ]
    },
    ["Winter","NNP","wint"],
    ["Gardens","NNP","gard"],
    [".",".","."]
  ]
},
{
  "tag":"S",
  "content":
  [
    ["Acts","NNS","act"],
    ["that","IN","that"],
    ["also","RB","also"],
    ["appeared","VBD","appear"],
    ["were","VBD","be"],
    {
      "tag":"ORGANIZATION",
      "content":
      [
        ["MD","NNP","md"],
        ["Productions","NNPS","produc"]
      ]
    },
    [",",",",","],
    ["from","IN","from"],
    ["the","DT","the"],
    ["first","JJ","first"],
    ["series","NN","sery"],
    ["of","IN","of"],
    {
      "tag":"GPE",
      "content":
      [
        ["Britain","NNP","britain"]
      ]
    },
    ["'s","POS","'s"],
    {
      "tag":"ORGANIZATION",
      "content":
      [
        ["Got","NNP","got"],
        ["Talent","NNP","tal"]
      ]
    },
    [",",",",","],
    {
      "tag":"GPE",
      "content":
      [
        ["Flava","NNP","flav"]
      ]
    },
    [",",",",","],
    {
      "tag":"PERSON",
      "content":
      [
        ["Sugar","NNP","sug"],
        ["Free","NNP","fre"]
      ]
    },
    ["and","CC","and"],
    {
      "tag":"PERSON",
      "content":
      [
        ["Marcquelle","NNP","marcquel"],
        ["Ward","NNP","ward"]
      ]
    },
    ["who","WP","who"],
    ["plays","VBZ","play"],
    ["BB","NNP","bb"],
    ["from","IN","from"],
    ["television","NN","televid"],
    ["show","NN","show"],
    {
      "tag":"GPE",
      "content":
      [
        ["Britannia","NNP","britann"],
        ["High","NNP","high"]
      ]
    },
    [".",".","."]
  ]
},
{
  "tag":"S",
  "content":
  [
    ["On","IN","On"],
    ["24","CD","24"],
    ["September","NNP","septemb"],
    ["2009","CD","2009"],
    [",",",",","],
    {
      "tag":"PERSON",
      "content":
      [
        ["Davis","NNP","dav"]
      ]
    },
    ["performed","VBD","perform"],
    ["at","IN","at"],
    ["the","DT","the"],
    ["launch","NN","launch"],
    ["night","NN","night"],
    ["of","IN","of"],
    {
      "tag":"GPE",
      "content":
      [
        ["Birmingham","NNP","birmingham"]
      ]
    },
    ["'s","POS","'s"],
    ["Style","NNP","styl"],
    ["in","IN","in"],
    ["the","DT","the"],
    {
      "tag":"ORGANIZATION",
      "content":
      [
        ["City","NNP","city"]
      ]
    },
    ["event","NN","ev"],
    [".",".","."]
  ]
},
{
  "tag":"S",
  "content":
  [
    ["He","PRP","He"],
    ["showed","VBD","show"],
    ["off","RP","off"],
    ["some","DT","some"],
    ["of","IN","of"],
    ["his","PRP$","his"],
    ["``","``","``"],
    ["popping","VBG","pop"],
    ["''","''","''"],
    ["moves","NNS","mov"],
    ["at","IN","at"],
    ["the","DT","the"],
    ["event","NN","ev"],
    [",",",",","],
    ["hosted","VBD","host"],
    ["by","IN","by"],
    ["Mr","NNP","mr"],
    {
      "tag":"PERSON",
      "content":
      [
        ["Hudson","NNP","hudson"]
      ]
    },
    [".",".","."]
  ]
},
{
  "tag":"S",
  "content":
  [
    ["The","DT","The"],
    ["following","VBG","follow"],
    ["month","NN","mon"],
    [",",",",","],
    {
      "tag":"PERSON",
      "content":
      [
        ["Davis","NNP","dav"]
      ]
    },
    ["filmed","VBD","film"],
    ["an","DT","an"],
    ["advert","NN","advert"],
    ["for","IN","for"],
    {
      "tag":"PERSON",
      "content":
      [
        ["Cheetos","NNP","cheeto"],
        ["Sweetos","NNP","sweeto"]
      ]
    },
    ["in","IN","in"],
    {
      "tag":"GPE",
      "content":
      [
        ["Turkey","NNP","turkey"]
      ]
    },
    [".",".","."]
  ]
},
{
  "tag":"S",
  "content":
  [
    {
      "tag":"PERSON",
      "content":
      [
        ["Davis","NNP","dav"]
      ]
    },
    ["joined","VBD","join"],
    {
      "tag":"PERSON",
      "content":
      [
        ["Peter","NNP","pet"],
        ["Andre","NNP","andr"]
      ]
    },
    [",",",",","],
    {
      "tag":"PERSON",
      "content":
      [
        ["Alesha","NNP","alesh"],
        ["Dixon","NNP","dixon"]
      ]
    },
    [",",",",","],
    {
      "tag":"PERSON",
      "content":
      [
        ["Alan","NNP","al"],
        ["Carr","NNP","car"]
      ]
    },
    [",",",",","],
    {
      "tag":"PERSON",
      "content":
      [
        ["Lenny","NNP","lenny"],
        ["Henry","NNP","henry"]
      ]
    },
    ["and","CC","and"],
    ["the","DT","the"],
    {
      "tag":"ORGANIZATION",
      "content":
      [
        ["Sugababes","NNPS","sugabab"]
      ]
    },
    ["for","IN","for"],
    ["the","DT","the"],
    ["2009","CD","2009"],
    ["Rock","NNP","rock"],
    ["with","IN","with"],
    {
      "tag":"PERSON",
      "content":
      [
        ["Laughter","NNP","laught"]
      ]
    },
    ["event","NN","ev"],
    ["which","WDT","which"],
    ["took","VBD","tak"],
    ["place","NN","plac"],
    ["on","IN","on"],
    ["18","CD","18"],
    ["&","CC","&"],
    ["19","CD","19"],
    ["December","NNP","decemb"],
    ["2009","CD","2009"],
    ["at","IN","at"],
    ["the","DT","the"],
    {
      "tag":"ORGANIZATION",
      "content":
      [
        ["LG","NNP","lg"],
        ["Arena","NNP","aren"]
      ]
    },
    [".",".","."]
  ]
},
{
  "tag":"S",
  "content":
  [
    {
      "tag":"PERSON",
      "content":
      [
        ["Lenny","NNP","lenny"]
      ]
    },
    {
      "tag":"GPE",
      "content":
      [
        ["Henry","NNP","henry"]
      ]
    },
    [",",",",","],
    ["host","NN","host"],
    ["of","IN","of"],
    ["the","DT","the"],
    ["event","NN","ev"],
    [",",",",","],
    ["spoke","NN","spok"],
    ["highly","RB","high"],
    ["of","IN","of"],
    {
      "tag":"PERSON",
      "content":
      [
        ["Davis","NNP","dav"]
      ]
    },
    [":",":",":"],
    ["===2010===","JJ","===2010==="],
    {
      "tag":"PERSON",
      "content":
      [
        ["Davis","NNP","dav"]
      ]
    },
    ["toured","VBD","tour"],
    ["with","IN","with"],
    {
      "tag":"ORGANIZATION",
      "content":
      [
        ["Talent","NNP","tal"]
      ]
    },
    ["winners","NNS","win"],
    ["Diversity","NNP","divers"],
    ["in","IN","in"],
    ["Spring","NNP","spring"],
    ["2010","CD","2010"],
    [".",".","."]
  ]
},
{
  "tag":"S",
  "content":
  [
    ["The","DT","The"],
    ["tour","NN","tour"],
    ["was","VBD","be"],
    ["named","VBN","nam"],
    ["``","``","``"],
    ["Bringing","NNP","bring"],
    ["a","DT","a"],
    {
      "tag":"ORGANIZATION",
      "content":
      [
        ["Toy","NNP","toy"]
      ]
    },
    ["Story","NNP","story"],
    ["to","TO","to"],
    ["Life","NNP","lif"],
    ["''","''","''"],
    {
      "tag":"PERSON",
      "content":
      [
        ["Plus","NNP","plu"],
        ["Many","NNP","many"],
        ["Special","NNP","spec"],
        ["Guest","NNP","guest"]
      ]
    },
    ["'s","POS","'s"],
    [",",",",","],
    ["which","WDT","which"],
    ["specialises","NNS","spec"],
    ["in","IN","in"],
    ["'bringing","JJ","'bringing"],
    ["toys","NNS","toy"],
    ["to","TO","to"],
    ["life","VB","lif"],
    ["'","POS","'"],
    [".",".","."]
  ]
},
{
  "tag":"S",
  "content":
  [
    ["The","DT","The"],
    ["tour","NN","tour"],
    ["also","RB","also"],
    ["features","VBZ","feat"],
    ["Talent","NNP","tal"],
    ["semi","NN","sem"],
    ["-",":","-"],
    ["finalists","NNS","fin"],
    {
      "tag":"PERSON",
      "content":
      [
        ["Sugar","NNP","sug"],
        ["Free","NNP","fre"]
      ]
    },
    [",",",",","],
    ["rap","NN","rap"],
    ["artist","NN","art"],
    {
      "tag":"PERSON",
      "content":
      [
        ["Aggro","NNP","aggro"],
        ["Santos","NNP","santo"]
      ]
    },
    [",",",",","],
    {
      "tag":"ORGANIZATION",
      "content":
      [
        ["Contortionist","NNP","contort"],
        ["Delia","NNP","del"],
        ["Du","NNP","du"],
        ["Sol","NNP","sol"]
      ]
    },
    [",",",",","],
    ["and","CC","and"],
    {
      "tag":"PERSON",
      "content":
      [
        ["Beatboxer","NNP","beatbox"],
        ["Petebox","NNP","petebox"]
      ]
    },
    [".",".","."]
  ]
},
{
  "tag":"S",
  "content":
  [
    ["He","PRP","He"],
    ["performed","VBD","perform"],
    ["at","IN","at"],
    ["the","DT","the"],
    {
      "tag":"ORGANIZATION",
      "content":
      [
        ["Christmas","NNP","christmas"]
      ]
    },
    ["lights","NNS","light"],
    ["switch","VBP","switch"],
    ["on","IN","on"],
    ["in","IN","in"],
    {
      "tag":"GPE",
      "content":
      [
        ["St","NNP","st"],
        ["Helens","NNP","hel"]
      ]
    },
    [",",",",","],
    {
      "tag":"ORGANIZATION",
      "content":
      [
        ["Merseyside","NNP","merseysid"]
      ]
    },
    ["on","IN","on"],
    ["14","CD","14"],
    ["November","NNP","novemb"],
    [".",".","."]
  ]
},
{
  "tag":"S",
  "content":
  [
    {
      "tag":"PERSON",
      "content":
      [
        ["Davis","NNP","dav"]
      ]
    },
    ["performed","VBD","perform"],
    ["at","IN","at"],
    ["the","DT","the"],
    {
      "tag":"ORGANIZATION",
      "content":
      [
        ["Northfield","NNP","northfield"]
      ]
    },
    ["Shopping","NNP","shop"],
    ["Centre","NNP","cent"],
    ["on","IN","on"],
    ["5","CD","5"],
    ["December","NNP","decemb"],
    [",",",",","],
    ["and","CC","and"],
    ["on","IN","on"],
    ["8","CD","8"],
    ["December","NNP","decemb"],
    [",",",",","],
    ["he","PRP","he"],
    ["performed","VBD","perform"],
    ["at","IN","at"],
    ["the","DT","the"],
    {
      "tag":"ORGANIZATION",
      "content":
      [
        ["Pavilions","NNS","pavil"],
        ["Shopping","NNP","shop"],
        ["Centre","NNP","cent"]
      ]
    },
    ["which","WDT","which"],
    ["was","VBD","be"],
    ["featured","VBN","feat"],
    ["on","IN","on"],
    {
      "tag":"ORGANIZATION",
      "content":
      [
        ["Central","NNP","cent"],
        ["Tonight","NNP","tonight"]
      ]
    },
    [".",".","."]
  ]
},
{
  "tag":"S",
  "content":
  [
    ["On","IN","On"],
    ["1","CD","1"],
    ["August","NNP","august"],
    ["2010","CD","2010"],
    [",",",",","],
    {
      "tag":"PERSON",
      "content":
      [
        ["Davis","NNP","dav"]
      ]
    },
    ["performed","VBD","perform"],
    ["at","IN","at"],
    {
      "tag":"ORGANIZATION",
      "content":
      [
        ["Nantwich","NNP","nantwich"]
      ]
    },
    ["live","JJ","liv"],
    ["festival","NN","fest"],
    ["alongside","NN","alongsid"],
    ["many","JJ","many"],
    ["other","JJ","oth"],
    ["acts","NNS","act"],
    [".",".","."]
  ]
},
{
  "tag":"S",
  "content":
  [
    ["He","PRP","He"],
    ["also","RB","also"],
    ["toured","VBD","tour"],
    ["with","IN","with"],
    {
      "tag":"PERSON",
      "content":
      [
        ["Diversity","NNP","divers"]
      ]
    },
    ["again","RB","again"],
    ["in","IN","in"],
    ["November/","NN","november/"],
    ["December","NNP","decemb"],
    ["2010","CD","2010"],
    ["in","IN","in"],
    ["the","DT","the"],
    ["second","JJ","second"],
    ["run","NN","run"],
    ["of","IN","of"],
    ["their","PRP$","their"],
    ["Diversitoys","NNP","diversitoy"],
    ["tour","PRP$","tour"],
    [",",",",","],
    ["this","DT","this"],
    ["time","NN","tim"],
    ["titled","VBD","titl"],
    {
      "tag":"GPE",
      "content":
      [
        ["Diversitoys","NNP","diversitoy"]
      ]
    },
    [";",":",";"],
    ["bringing","VBG","bring"],
    ["a","DT","a"],
    ["toy","NN","toy"],
    ["story","NN","story"],
    ["to","TO","to"],
    ["life","VB","lif"],
    ["at","IN","at"],
    {
      "tag":"ORGANIZATION",
      "content":
      [
        ["Christmas","NNP","christmas"]
      ]
    },
    ["===2011-2013===","NNP","===2011-2013==="],
    ["Davis","NNP","dav"],
    ["presents","NNS","pres"],
    ["on","IN","on"],
    ["the","DT","the"],
    {
      "tag":"ORGANIZATION",
      "content":
      [
        ["CBBC","NNP","cbbc"]
      ]
    },
    ["program","NN","program"],
    ["called","VBN","cal"],
    ["'Friday","JJ","'friday"],
    ["Download","NNP","download"],
    ["'","''","'"],
    ["where","WRB","where"],
    ["in","IN","in"],
    ["a","DT","a"],
    ["section","NN","sect"],
    [",",",",","],
    ["he","PRP","he"],
    ["teaches","VBZ","teach"],
    ["the","DT","the"],
    ["audience","NN","audy"],
    ["some","DT","some"],
    ["of","IN","of"],
    ["his","PRP$","his"],
    ["signature","NN","sign"],
    ["dance","NN","dant"],
    ["moves","NNS","mov"],
    ["'Dance","NN","'dance"],
    ["Download","NNP","download"],
    ["'","''","'"],
    [".",".","."]
  ]
},
{
  "tag":"S",
  "content":
  [
    ["Other","JJ","oth"],
    ["presenters","NNS","pres"],
    ["are","VBP","be"],
    ["singer","JJR","sing"],
    {
      "tag":"PERSON",
      "content":
      [
        ["Dionne","NNP","dion"],
        ["Bromfield","NNP","bromfield"]
      ]
    },
    ["and","CC","and"],
    ["actors","NNS","act"],
    {
      "tag":"PERSON",
      "content":
      [
        ["Ceallach","NNP","ceallach"],
        ["Spellman","NNP","spellm"]
      ]
    },
    [",",",",","],
    {
      "tag":"PERSON",
      "content":
      [
        ["Richard","NNP","richard"],
        ["Wisker","NNP","wisk"]
      ]
    },
    [",",",",","],
    {
      "tag":"PERSON",
      "content":
      [
        ["Shannon","NNP","shannon"],
        ["Flynn","NNP","flyn"]
      ]
    },
    ["and","CC","and"],
    {
      "tag":"PERSON",
      "content":
      [
        ["Daniel","NNP","daniel"],
        ["Pearson","NNP","pearson"]
      ]
    },
    [".",".","."]
  ]
},
{
  "tag":"S",
  "content":
  [
    ["In","IN","In"],
    ["2011","CD","2011"],
    [",",",",","],
    {
      "tag":"PERSON",
      "content":
      [
        ["Davis","NNP","dav"]
      ]
    },
    ["began","VBD","begin"],
    ["posting","VBG","post"],
    ["weekly","RB","week"],
    ["video","RB","video"],
    ["updates","VBZ","upd"],
    ["on","IN","on"],
    ["his","PRP$","his"],
    ["Facebook","NNP","facebook"],
    ["page","NN","pag"],
    ["every","DT","every"],
    ["Sunday","NNP","sunday"],
    ["to","TO","to"],
    ["keep","VB","keep"],
    ["his","PRP$","his"],
    ["fans","NNS","fan"],
    ["informed","VBD","inform"],
    [".",".","."]
  ]
},
{
  "tag":"S",
  "content":
  [
    ["He","PRP","He"],
    ["answers","VBZ","answ"],
    ["questions","NNS","quest"],
    ["and","CC","and"],
    ["talks","NNS","talk"],
    ["about","IN","about"],
    ["topics","NNS","top"],
    ["his","PRP$","his"],
    ["fans","NNS","fan"],
    ["want","VBP","want"],
    ["to","TO","to"],
    ["know","VB","know"],
    ["about","IN","about"],
    ["during","IN","during"],
    ["these","DT","these"],
    ["videos","NNS","video"],
    [",",",",","],
    ["and","CC","and"],
    ["he","PRP","he"],
    ["also","RB","also"],
    ["gives","VBZ","giv"],
    ["shoutouts","NNS","shoutout"],
    ["to","TO","to"],
    ["fans","NNS","fan"],
    ["who","WP","who"],
    ["ask","NN","ask"],
    [".",".","."]
  ]
},
{
  "tag":"S",
  "content":
  [
    ["In","IN","In"],
    ["November","NNP","novemb"],
    ["2012","CD","2012"],
    {
      "tag":"PERSON",
      "content":
      [
        ["Davis","NNP","dav"]
      ]
    },
    ["released","VBD","releas"],
    ["his","PRP$","his"],
    ["first","JJ","first"],
    ["music","NN","mus"],
    ["video","NN","video"],
    ["for","IN","for"],
    ["his","PRP$","his"],
    ["new","JJ","new"],
    ["song","NN","song"],
    [",",",",","],
    ["``","``","``"],
    ["Lets","NNS","let"],
    {
      "tag":"PERSON",
      "content":
      [
        ["Dance","NNP","dant"]
      ]
    },
    ["''","''","''"],
    ["featuring","VBG","feat"],
    {
      "tag":"PERSON",
      "content":
      [
        ["Jon","NNP","jon"],
        ["Dos","NNP","dos"]
      ]
    },
    [".",".","."]
  ]
},
{
  "tag":"S",
  "content":
  [
    ["In","IN","In"],
    ["the","DT","the"],
    ["song","JJ","song"],
    {
      "tag":"PERSON",
      "content":
      [
        ["Davis","NNP","dav"]
      ]
    },
    ["raps","RB","rap"],
    [".",".","."]
  ]
},
{
  "tag":"S",
  "content":
  [
    ["He","PRP","He"],
    ["said","VBD","say"],
    ["in","IN","in"],
    ["a","DT","a"],
    ["recent","JJ","rec"],
    ["update","NN","upd"],
    ["video","NN","video"],
    ["``","``","``"],
    ["There","EX","There"],
    ["'s","VBZ","'s"],
    ["more","JJR","mor"],
    ["like","IN","like"],
    ["that","DT","that"],
    ["to","TO","to"],
    ["come","VB","com"],
    [".",".","."]
  ]
},
{
  "tag":"S",
  "content":
  [
    ["``","``","``"],
    ["==Personal","JJ","==personal"],
    ["life==","NN","life=="],
    {
      "tag":"PERSON",
      "content":
      [
        ["Davis","NNP","dav"]
      ]
    },
    ["currently","RB","cur"],
    ["attends","VBZ","attend"],
    {
      "tag":"PERSON",
      "content":
      [
        ["St","NNP","st"],
        ["Thomas","NNP","thoma"],
        ["Aquinas","NNP","aquina"],
        ["Catholic","NNP","cathol"],
        ["School","NNP","school"]
      ]
    },
    ["in","IN","in"],
    {
      "tag":"GPE",
      "content":
      [
        ["Kings","NNP","king"],
        ["Norton","NNP","norton"]
      ]
    },
    [",",",",","],
    {
      "tag":"PERSON",
      "content":
      [
        ["Birmingham","NNP","birmingham"]
      ]
    },
    ["and","CC","and"],
    ["is","VBZ","be"],
    ["in","IN","in"],
    ["Year","NNP","year"],
    ["12","CD","12"],
    [".",".","."]
  ]
},
{
  "tag":"S",
  "content":
  [
    ["He","PRP","He"],
    ["attends","VBZ","attend"],
    ["the","DT","the"],
    ["schools","NNS","school"],
    ["sixth","JJ","six"],
    ["form","NN","form"],
    ["He","PRP","He"],
    ["lives","VBZ","liv"],
    ["in","IN","in"],
    {
      "tag":"GPE",
      "content":
      [
        ["Selly","NNP","sel"],
        ["Oak","NNP","oak"]
      ]
    },
    [",",",",","],
    {
      "tag":"PERSON",
      "content":
      [
        ["Birmingham","NNP","birmingham"]
      ]
    },
    ["with","IN","with"],
    ["his","PRP$","his"],
    ["parents","NNS","par"],
    [".",".","."]
  ]
},
{
  "tag":"S",
  "content":
  [
    ["==References==","NN","==references=="],
    ["==","``","=="],
    ["External","NNP","extern"],
    ["links","VBZ","link"],
    ["==",":","=="],
    ["*Official","JJ","*official"],
    {
      "tag":"PERSON",
      "content":
      [
        ["Aidan","NNP","aid"],
        ["Davis","NNP","dav"]
      ]
    },
    ["website","NN","websit"],
    ["*Official","JJ","*official"],
    {
      "tag":"PERSON",
      "content":
      [
        ["Aidan","NNP","aid"],
        ["Davis","NNP","dav"]
      ]
    },
    ["twitter","NN","twit"],
    ["*Official","JJ","*official"],
    {
      "tag":"PERSON",
      "content":
      [
        ["Aidan","NNP","aid"],
        ["Davis","NNP","dav"],
        ["Facebook","NNP","facebook"],
        ["Page","NNP","pag"]
      ]
    }
  ]
}]