[
{
  "tag":"S",
  "content":
  [
    {
      "tag":"PERSON",
      "content":
      [
        ["Francisco","NNP","francisco"]
      ]
    },
    {
      "tag":"PERSON",
      "content":
      [
        ["Javier","NNP","javy"],
        ["Gomez-Aspron","NNP","gomez-aspron"]
      ]
    },
    ["(","NNP","("],
    ["born","NN","born"],
    ["4","CD","4"],
    ["February","NNP","febru"],
    ["1985","CD","1985"],
    ["in","IN","in"],
    {
      "tag":"GPE",
      "content":
      [
        ["London","NNP","london"]
      ]
    },
    [",",",",","],
    {
      "tag":"GPE",
      "content":
      [
        ["England","NNP","england"]
      ]
    },
    [")","NNP",")"],
    [",",",",","],
    ["known","VBN","know"],
    ["professionally","RB","profess"],
    ["as","IN","as"],
    {
      "tag":"PERSON",
      "content":
      [
        ["Sisco","NNP","sisco"],
        ["Gomez","NNP","gomez"]
      ]
    },
    [",",",",","],
    ["is","VBZ","be"],
    ["an","DT","an"],
    {
      "tag":"GPE",
      "content":
      [
        ["English","JJ","engl"]
      ]
    },
    ["dancer","NN","dant"],
    ["and","CC","and"],
    ["choreographer","NN","choreograph"],
    [".",".","."]
  ]
},
{
  "tag":"S",
  "content":
  [
    ["He","PRP","He"],
    ["was","VBD","be"],
    ["awarded","VBN","award"],
    ["the","DT","the"],
    {
      "tag":"ORGANIZATION",
      "content":
      [
        ["Best","NNP","best"],
        ["New","NNP","new"]
      ]
    },
    ["Choreographer","NNP","choreograph"],
    ["award","NN","award"],
    ["at","IN","at"],
    ["the","DT","the"],
    {
      "tag":"ORGANIZATION",
      "content":
      [
        ["UK","NNP","uk"]
      ]
    },
    ["satellite","NN","satellit"],
    ["version","NN","vert"],
    ["of","IN","of"],
    ["The","DT","The"],
    ["Carnival","NNP","carn"],
    [":",":",":"],
    ["Choreographer","NNP","choreograph"],
    ["'s","POS","'s"],
    ["Ball","NNP","bal"],
    ["in","IN","in"],
    ["2005","CD","2005"],
    [".",".","."]
  ]
},
{
  "tag":"S",
  "content":
  [
    ["==Career==","NN","==career=="],
    ["===Dancer===","NN","===dancer==="],
    {
      "tag":"PERSON",
      "content":
      [
        ["Sisco","NNP","sisco"],
        ["Gomez","NNP","gomez"]
      ]
    },
    ["was","VBD","be"],
    ["born","VBN","bear"],
    ["in","IN","in"],
    ["1985","CD","1985"],
    [",",",",","],
    ["an","DT","an"],
    ["only","JJ","on"],
    ["child","NN","child"],
    [",",",",","],
    ["and","CC","and"],
    ["is","VBZ","be"],
    ["of","IN","of"],
    {
      "tag":"GPE",
      "content":
      [
        ["Afro-Colombian","JJ","afro-colombian"]
      ]
    },
    ["heritage","NN","herit"],
    [".",".","."]
  ]
},
{
  "tag":"S",
  "content":
  [
    ["His","PRP$","His"],
    ["father","NN","fath"],
    [",",",",","],
    ["who","WP","who"],
    ["originates","VBZ","origin"],
    ["from","IN","from"],
    {
      "tag":"GPE",
      "content":
      [
        ["Seville","NNP","sevil"]
      ]
    },
    [",",",",","],
    {
      "tag":"GPE",
      "content":
      [
        ["Spain","NNP","spain"]
      ]
    },
    [",",",",","],
    ["was","VBD","be"],
    ["a","DT","a"],
    ["draughtsman","NN","draughtsm"],
    ["at","IN","at"],
    ["the","DT","the"],
    {
      "tag":"ORGANIZATION",
      "content":
      [
        ["Seville","NNP","sevil"]
      ]
    },
    ["shipyard","NN","shipyard"],
    ["and","CC","and"],
    ["moved","VBD","mov"],
    ["to","TO","to"],
    {
      "tag":"GPE",
      "content":
      [
        ["England","NNP","england"]
      ]
    },
    ["around","IN","around"],
    ["1954","CD","1954"],
    [";",":",";"],
    ["his","PRP$","his"],
    ["mother","NN","moth"],
    ["is","VBZ","be"],
    ["from","IN","from"],
    {
      "tag":"GPE",
      "content":
      [
        ["Cali","NNP","cal"]
      ]
    },
    [",",",",","],
    {
      "tag":"GPE",
      "content":
      [
        ["Colombia","NNP","colomb"]
      ]
    },
    [",",",",","],
    ["es","VBZ","es"],
    {
      "tag":"GPE",
      "content":
      [
        ["Vallecaucano","NNP","vallecaucano"]
      ]
    },
    [".",".","."]
  ]
},
{
  "tag":"S",
  "content":
  [
    ["Following","VBG","follow"],
    ["in","IN","in"],
    ["the","DT","the"],
    ["footsteps","NNS","footstep"],
    ["of","IN","of"],
    ["his","PRP$","his"],
    ["mother","NN","moth"],
    [",",",",","],
    {
      "tag":"PERSON",
      "content":
      [
        ["Sisco","NNP","sisco"]
      ]
    },
    ["became","VBD","becom"],
    ["a","DT","a"],
    ["dancer","NN","dant"],
    [".",".","."]
  ]
},
{
  "tag":"S",
  "content":
  [
    ["At","IN","At"],
    ["school","NN","school"],
    ["in","IN","in"],
    ["Westminster","NNP","westminst"],
    ["he","PRP","he"],
    ["studied","VBD","study"],
    ["musical","JJ","mus"],
    ["theatre","NN","the"],
    [",",",",","],
    ["jazz","NN","jazz"],
    ["and","CC","and"],
    ["tap","NN","tap"],
    [".",".","."]
  ]
},
{
  "tag":"S",
  "content":
  [
    ["He","PRP","He"],
    ["also","RB","also"],
    ["went","VBD","go"],
    ["to","TO","to"],
    ["the","DT","the"],
    {
      "tag":"ORGANIZATION",
      "content":
      [
        ["Sylvia","NNP","sylv"],
        ["Young","NNP","young"]
      ]
    },
    ["Theatre","NNP","the"],
    ["School","NNP","school"],
    ["and","CC","and"],
    {
      "tag":"PERSON",
      "content":
      [
        ["Pineapple","NNP","pineappl"],
        ["Performing","NNP","perform"],
        ["Arts","NNP","art"],
        ["School","NNP","school"]
      ]
    },
    [".",".","."]
  ]
},
{
  "tag":"S",
  "content":
  [
    ["At","IN","At"],
    ["16","CD","16"],
    [",",",",","],
    {
      "tag":"PERSON",
      "content":
      [
        ["Gomez","NNP","gomez"]
      ]
    },
    ["joined","VBD","join"],
    ["the","DT","the"],
    ["hip-hop","JJ","hip-hop"],
    ["company","NN","company"],
    {
      "tag":"PERSON",
      "content":
      [
        ["Culture","NNP","cult"],
        ["Shock","NNP","shock"]
      ]
    },
    [".",".","."]
  ]
},
{
  "tag":"S",
  "content":
  [
    ["He","PRP","He"],
    ["then","RB","then"],
    ["studied","VBD","study"],
    ["jazz","NN","jazz"],
    ["and","CC","and"],
    ["hip-hop","JJ","hip-hop"],
    ["in","IN","in"],
    ["the","DT","the"],
    {
      "tag":"ORGANIZATION",
      "content":
      [
        ["USA","NNP","us"]
      ]
    },
    ["(","NNP","("],
    {
      "tag":"GPE",
      "content":
      [
        ["New","NNP","new"],
        ["York","NNP","york"]
      ]
    },
    [")","NNP",")"],
    ["and","CC","and"],
    ["also","RB","also"],
    ["in","IN","in"],
    ["a","DT","a"],
    ["variety","NN","vary"],
    ["of","IN","of"],
    {
      "tag":"GPE",
      "content":
      [
        ["European","JJ","europ"]
      ]
    },
    ["countries","NNS","country"],
    [".",".","."]
  ]
},
{
  "tag":"S",
  "content":
  [
    {
      "tag":"PERSON",
      "content":
      [
        ["Sisco","NNP","sisco"]
      ]
    },
    ["danced","VBD","dant"],
    ["in","IN","in"],
    {
      "tag":"GPE",
      "content":
      [
        ["Zoonation","NNP","zoon"]
      ]
    },
    ["'s","POS","'s"],
    {
      "tag":"ORGANIZATION",
      "content":
      [
        ["Box","NNP","box"],
        ["Beat","NNP","beat"]
      ]
    },
    ["show","NN","show"],
    ["at","IN","at"],
    ["the","DT","the"],
    {
      "tag":"GPE",
      "content":
      [
        ["Lilian","NNP","lil"]
      ]
    },
    ["Baylis","NNP","bayl"],
    ["Theatre","NNP","the"],
    ["and","CC","and"],
    ["was","VBD","be"],
    ["the","DT","the"],
    ["youngest","JJS","young"],
    ["member","NN","memb"],
    ["of","IN","of"],
    {
      "tag":"GPE",
      "content":
      [
        ["Bounce","NNP","bount"]
      ]
    },
    ["–","NNP","–"],
    ["The","NNP","the"],
    {
      "tag":"PERSON",
      "content":
      [
        ["Street","NNP","street"],
        ["Dance","NNP","dant"]
      ]
    },
    ["Sensation","NNP","sens"],
    [".",".","."]
  ]
},
{
  "tag":"S",
  "content":
  [
    ["As","IN","As"],
    ["well","RB","wel"],
    ["as","IN","as"],
    ["working","VBG","work"],
    ["as","IN","as"],
    ["a","DT","a"],
    ["commercial","JJ","commerc"],
    ["dancer","NN","dant"],
    [",",",",","],
    {
      "tag":"PERSON",
      "content":
      [
        ["Gomez","NNP","gomez"]
      ]
    },
    ["has","VBZ","hav"],
    ["been","VBN","be"],
    ["a","DT","a"],
    ["choreographer","NN","choreograph"],
    ["and","CC","and"],
    ["a","DT","a"],
    ["teacher","NN","teach"],
    ["of","IN","of"],
    ["dance","NN","dant"],
    ["master","NN","mast"],
    ["classes","NNS","class"],
    [".",".","."]
  ]
},
{
  "tag":"S",
  "content":
  [
    ["From","IN","From"],
    ["2003","CD","2003"],
    ["to","TO","to"],
    ["2009","CD","2009"],
    ["he","PRP","he"],
    ["was","VBD","be"],
    {
      "tag":"PERSON",
      "content":
      [
        ["Artistic","NNP","art"],
        ["Director","NNP","direct"]
      ]
    },
    ["of","IN","of"],
    ["Dance","NNP","dant"],
    ["2xs","CD","2xs"],
    [",",",",","],
    ["which","WDT","which"],
    ["trains","NNS","train"],
    ["dancers","NNS","dant"],
    ["in","IN","in"],
    ["a","DT","a"],
    ["variety","NN","vary"],
    ["of","IN","of"],
    ["forms","NNS","form"],
    [".",".","."]
  ]
},
{
  "tag":"S",
  "content":
  [
    ["He","PRP","He"],
    ["worked","VBD","work"],
    ["as","IN","as"],
    ["a","DT","a"],
    ["judge","NN","judg"],
    ["on","IN","on"],
    ["the","DT","the"],
    {
      "tag":"GPE",
      "content":
      [
        ["Ukrainian","NNP","ukrain"]
      ]
    },
    ["version","NN","vert"],
    ["of","IN","of"],
    ["So","NNP","so"],
    ["You","NNP","you"],
    ["Think","NNP","think"],
    ["You","NNP","you"],
    ["Can","NNP","can"],
    ["Dance","NNP","dant"],
    ["and","CC","and"],
    ["then","RB","then"],
    ["became","VBD","becom"],
    ["a","DT","a"],
    ["judge","NN","judg"],
    ["on","IN","on"],
    ["the","DT","the"],
    {
      "tag":"ORGANIZATION",
      "content":
      [
        ["UK","NNP","uk"]
      ]
    },
    ["version","NN","vert"],
    ["of","IN","of"],
    ["the","DT","the"],
    ["show","NN","show"],
    [".",".","."]
  ]
},
{
  "tag":"S",
  "content":
  [
    {
      "tag":"GPE",
      "content":
      [
        ["Sisco","NNP","sisco"]
      ]
    },
    ["'s","POS","'s"],
    ["assistant","NN","assist"],
    ["on","IN","on"],
    {
      "tag":"PERSON",
      "content":
      [
        ["Kylie","NNP","kyly"],
        ["Minogue","NNP","minog"]
      ]
    },
    [",",",",","],
    {
      "tag":"ORGANIZATION",
      "content":
      [
        ["NRJ","NNP","nrj"]
      ]
    },
    ["awards","NNS","award"],
    [",",",",","],
    ["So","RB","so"],
    ["You","PRP","You"],
    ["Think","NNP","think"],
    ["You","NNP","you"],
    ["Can","NNP","can"],
    ["Dance","NNP","dant"],
    ["UK","NNP","uk"],
    [",",",",","],
    ["and","CC","and"],
    ["So","RB","so"],
    ["You","PRP","You"],
    ["Think","NNP","think"],
    ["You","NNP","you"],
    ["Can","NNP","can"],
    ["Dance","NNP","dant"],
    {
      "tag":"PERSON",
      "content":
      [
        ["Ukraine","NNP","ukrain"]
      ]
    },
    ["was","VBD","be"],
    {
      "tag":"PERSON",
      "content":
      [
        ["Abby","NNP","abby"],
        ["Goodwin","NNP","goodwin"]
      ]
    },
    [".",".","."]
  ]
},
{
  "tag":"S",
  "content":
  [
    {
      "tag":"PERSON",
      "content":
      [
        ["Sisco","NNP","sisco"]
      ]
    },
    ["also","RB","also"],
    ["danced","VBD","dant"],
    ["with","IN","with"],
    ["fellow","JJ","fellow"],
    ["judge","NN","judg"],
    {
      "tag":"PERSON",
      "content":
      [
        ["Louise","NNP","lou"],
        ["Redknapp","NNP","redknap"]
      ]
    },
    [".",".","."]
  ]
},
{
  "tag":"S",
  "content":
  [
    ["===Choreographer===","NN","===choreographer==="],
    ["The","DT","The"],
    ["recipient","JJ","recipy"],
    ["of","IN","of"],
    ["the","DT","the"],
    {
      "tag":"ORGANIZATION",
      "content":
      [
        ["Best","NNP","best"],
        ["New","NNP","new"]
      ]
    },
    ["Choreographer","NNP","choreograph"],
    ["award","NN","award"],
    ["at","IN","at"],
    ["the","DT","the"],
    {
      "tag":"ORGANIZATION",
      "content":
      [
        ["UK","NNP","uk"]
      ]
    },
    ["satellite","NN","satellit"],
    ["version","NN","vert"],
    ["of","IN","of"],
    ["The","DT","The"],
    ["Carnival","NNP","carn"],
    [":",":",":"],
    ["Choreographer","NNP","choreograph"],
    ["'s","POS","'s"],
    ["Ball","NNP","bal"],
    ["in","IN","in"],
    ["2005","CD","2005"],
    [",",",",","],
    {
      "tag":"PERSON",
      "content":
      [
        ["Sisco","NNP","sisco"]
      ]
    },
    ["has","VBZ","hav"],
    ["worked","VBN","work"],
    ["with","IN","with"],
    ["artists","NNS","art"],
    ["such","JJ","such"],
    ["as","IN","as"],
    {
      "tag":"PERSON",
      "content":
      [
        ["Kylie","NNP","kyly"],
        ["Minogue","NNP","minog"]
      ]
    },
    [",",",",","],
    ["A'mei","NNP","a'mei"],
    [",",",",","],
    {
      "tag":"PERSON",
      "content":
      [
        ["Paula","NNP","paul"],
        ["Abdul","NNP","abd"]
      ]
    },
    [",",",",","],
    {
      "tag":"PERSON",
      "content":
      [
        ["Sugababes","NNP","sugabab"]
      ]
    },
    [",",",",","],
    {
      "tag":"PERSON",
      "content":
      [
        ["Liberty","NNP","liberty"],
        ["X","NNP","x"]
      ]
    },
    [",",",",","],
    {
      "tag":"PERSON",
      "content":
      [
        ["Alexandra","NNP","alexandr"],
        ["Burke","NNP","burk"]
      ]
    },
    [",",",",","],
    {
      "tag":"PERSON",
      "content":
      [
        ["Dannii","NNP","danni"],
        ["Minogue","NNP","minog"]
      ]
    },
    [",",",",","],
    {
      "tag":"PERSON",
      "content":
      [
        ["Nike","NNP","nik"]
      ]
    },
    [",",",",","],
    ["Inc.","NNP","inc."],
    [",",",",","],
    {
      "tag":"PERSON",
      "content":
      [
        ["Madonna","NNP","madonn"]
      ]
    },
    [",",",",","],
    {
      "tag":"PERSON",
      "content":
      [
        ["Geri","NNP","ger"],
        ["Halliwell","NNP","halliwel"]
      ]
    },
    [",",",",","],
    ["and","CC","and"],
    {
      "tag":"PERSON",
      "content":
      [
        ["Charlotte","NNP","charlot"],
        ["Church","NNP","church"]
      ]
    },
    [",",",",","],
    ["and","CC","and"],
    ["was","VBD","be"],
    ["a","DT","a"],
    ["choreographer","NN","choreograph"],
    ["on","IN","on"],
    ["So","NNP","so"],
    ["You","NNP","you"],
    ["Think","NNP","think"],
    ["You","NNP","you"],
    ["Can","NNP","can"],
    ["Dance","NNP","dant"],
    ["in","IN","in"],
    {
      "tag":"GPE",
      "content":
      [
        ["Ukraine","NNP","ukrain"]
      ]
    },
    [".",".","."]
  ]
},
{
  "tag":"S",
  "content":
  [
    ["He","PRP","He"],
    ["was","VBD","be"],
    ["the","DT","the"],
    {
      "tag":"ORGANIZATION",
      "content":
      [
        ["Artistic","NNP","art"],
        ["Director","NNP","direct"]
      ]
    },
    ["and","CC","and"],
    ["Choreographer","NNP","choreograph"],
    ["for","IN","for"],
    {
      "tag":"PERSON",
      "content":
      [
        ["Alexandra","NNP","alexandr"],
        ["Burke","NNP","burk"]
      ]
    },
    ["'s","POS","'s"],
    {
      "tag":"ORGANIZATION",
      "content":
      [
        ["All","NNP","al"],
        ["Night","NNP","night"],
        ["Long","NNP","long"]
      ]
    },
    ["UK","NNP","uk"],
    ["Tour","NNP","tour"],
    [".",".","."]
  ]
},
{
  "tag":"S",
  "content":
  [
    {
      "tag":"GPE",
      "content":
      [
        ["Gomez","NNP","gomez"]
      ]
    },
    ["is","VBZ","be"],
    ["currently","RB","cur"],
    ["the","DT","the"],
    ["choreographer","NN","choreograph"],
    ["for","IN","for"],
    ["the","DT","the"],
    ["ninth","NN","nin"],
    ["series","NN","sery"],
    ["of","IN","of"],
    ["The","DT","The"],
    {
      "tag":"ORGANIZATION",
      "content":
      [
        ["X","NNP","x"],
        ["Factor","NNP","fact"]
      ]
    },
    ["(","NNP","("],
    ["UK","NNP","uk"],
    [")","NNP",")"],
    [".",".","."]
  ]
},
{
  "tag":"S",
  "content":
  [
    ["===Reality","NN","===reality"],
    ["television","NN","televid"],
    ["judge===","NN","judge==="],
    ["He","PRP","He"],
    ["is","VBZ","be"],
    ["a","DT","a"],
    ["judge","NN","judg"],
    ["on","IN","on"],
    ["So","NNP","so"],
    ["You","NNP","you"],
    ["Think","NNP","think"],
    ["You","NNP","you"],
    ["Can","NNP","can"],
    ["Dance","NNP","dant"],
    ["in","IN","in"],
    {
      "tag":"GPE",
      "content":
      [
        ["Ukraine","NNP","ukrain"]
      ]
    },
    [".",".","."]
  ]
},
{
  "tag":"S",
  "content":
  [
    ["He","PRP","He"],
    ["is","VBZ","be"],
    ["also","RB","also"],
    ["a","DT","a"],
    ["main","JJ","main"],
    ["judge","NN","judg"],
    ["on","IN","on"],
    ["So","NNP","so"],
    ["You","NNP","you"],
    ["Think","NNP","think"],
    ["You","NNP","you"],
    ["Can","NNP","can"],
    ["Dance","NNP","dant"],
    ["(","NNP","("],
    ["UK","NNP","uk"],
    [")","NNP",")"],
    [".",".","."]
  ]
},
{
  "tag":"S",
  "content":
  [
    {
      "tag":"GPE",
      "content":
      [
        ["Gomez","NNP","gomez"]
      ]
    },
    ["is","VBZ","be"],
    ["also","RB","also"],
    ["a","DT","a"],
    ["judge","NN","judg"],
    ["on","IN","on"],
    {
      "tag":"ORGANIZATION",
      "content":
      [
        ["CBBC","NNP","cbbc"]
      ]
    },
    ["'s","POS","'s"],
    ["show","NN","show"],
    ["Sport","NNP","sport"],
    ["Relief/Comic","JJ","relief/comic"],
    ["Relief","NNP","reliev"],
    ["Does","NNP","doe"],
    {
      "tag":"PERSON",
      "content":
      [
        ["Glee","NNP","gle"],
        ["Club","NNP","club"]
      ]
    },
    [".",".","."]
  ]
},
{
  "tag":"S",
  "content":
  [
    ["He","PRP","He"],
    ["is","VBZ","be"],
    ["a","DT","a"],
    ["judge","NN","judg"],
    ["alongside","NN","alongsid"],
    {
      "tag":"PERSON",
      "content":
      [
        ["David","NNP","david"],
        ["Grant","NNP","grant"]
      ]
    },
    ["and","CC","and"],
    ["head","NN","head"],
    ["judge","NN","judg"],
    {
      "tag":"PERSON",
      "content":
      [
        ["Carrie","NNP","carry"],
        ["Grant","NNP","grant"]
      ]
    },
    [".",".","."]
  ]
},
{
  "tag":"S",
  "content":
  [
    ["There","EX","There"],
    ["have","VBP","hav"],
    ["been","VBN","be"],
    ["two","CD","two"],
    ["series","NNS","sery"],
    [",",",",","],
    ["in","IN","in"],
    ["2011","CD","2011"],
    ["and","CC","and"],
    ["2012","CD","2012"],
    [".",".","."]
  ]
},
{
  "tag":"S",
  "content":
  [
    {
      "tag":"GPE",
      "content":
      [
        ["Gomez","NNP","gomez"]
      ]
    },
    ["will","MD","will"],
    ["judge","VB","judg"],
    ["on","IN","on"],
    {
      "tag":"ORGANIZATION",
      "content":
      [
        ["CBBC","NNP","cbbc"]
      ]
    },
    ["dance","NN","dant"],
    ["show","NN","show"],
    {
      "tag":"PERSON",
      "content":
      [
        ["Alesha","NNP","alesh"]
      ]
    },
    ["'s","POS","'s"],
    {
      "tag":"PERSON",
      "content":
      [
        ["Street","NNP","street"],
        ["Dance","NNP","dant"],
        ["Stars","NNP","star"]
      ]
    },
    ["along","IN","along"],
    ["with","IN","with"],
    {
      "tag":"PERSON",
      "content":
      [
        ["Reailty","NNP","reail"]
      ]
    },
    ["star","NN","star"],
    {
      "tag":"PERSON",
      "content":
      [
        ["Benn","NNP","ben"],
        ["Zarin","NNP","zarin"],
        ["McCord","NNP","mccord"]
      ]
    },
    ["and","CC","and"],
    ["former","JJ","form"],
    ["Dancing","NNP","dant"],
    ["On","NNP","on"],
    ["Ice","NNP","ic"],
    ["judge","NN","judg"],
    {
      "tag":"PERSON",
      "content":
      [
        ["Louis","NNP","lou"],
        ["Spence","NNP","spent"]
      ]
    },
    ["and","CC","and"],
    ["the","DT","the"],
    ["show","NN","show"],
    ["will","MD","will"],
    ["be","VB","be"],
    ["hosted","VBN","host"],
    ["by","IN","by"],
    {
      "tag":"PERSON",
      "content":
      [
        ["Alesha","NNP","alesh"],
        ["Dixon","NNP","dixon"]
      ]
    },
    [".",".","."]
  ]
},
{
  "tag":"S",
  "content":
  [
    ["The","DT","The"],
    ["show","NN","show"],
    ["is","VBZ","be"],
    ["awaiting","VBG","await"],
    ["its","PRP$","its"],
    ["third","JJ","third"],
    ["series","NN","sery"],
    ["as","IN","as"],
    ["it","PRP","it"],
    ["is","VBZ","be"],
    ["currently","RB","cur"],
    ["on","IN","on"],
    ["hiatus","NN","hiat"],
    ["==Fashion==","NN","==fashion=="],
    {
      "tag":"PERSON",
      "content":
      [
        ["Sisco","NNP","sisco"]
      ]
    },
    ["is","VBZ","be"],
    ["famous","JJ","fam"],
    ["for","IN","for"],
    ["his","PRP$","his"],
    ["confident","NN","confid"],
    ["and","CC","and"],
    ["unique","JJ","un"],
    ["(","NN","("],
    ["sometimes","RB","sometim"],
    ["flamboyant","JJ","flamboy"],
    [")","NN",")"],
    ["fashion","NN","fash"],
    ["sense","NN","sens"],
    [",",",",","],
    ["in","IN","in"],
    ["which","WDT","which"],
    ["he","PRP","he"],
    ["claims","VBZ","claim"],
    ["to","TO","to"],
    ["take","VB","tak"],
    ["great","JJ","gre"],
    ["pride","NN","prid"],
    [".",".","."]
  ]
},
{
  "tag":"S",
  "content":
  [
    ["Notably","RB","not"],
    [",",",",","],
    ["his","PRP$","his"],
    ["hairstyles","NNS","hairstyl"],
    ["have","VBP","hav"],
    ["drawn","VBN","draw"],
    ["media","NNS","med"],
    ["attention","NN","at"],
    ["and","CC","and"],
    ["he","PRP","he"],
    ["is","VBZ","be"],
    ["particularly","RB","particul"],
    ["interested","JJ","interest"],
    ["in","IN","in"],
    ["the","DT","the"],
    ["visual","JJ","vis"],
    ["presentation","NN","pres"],
    ["of","IN","of"],
    ["other","JJ","oth"],
    ["dancers","NNS","dant"],
    [".",".","."]
  ]
},
{
  "tag":"S",
  "content":
  [
    {
      "tag":"PERSON",
      "content":
      [
        ["Gomez","NNP","gomez"]
      ]
    },
    ["created","VBD","cre"],
    ["controversy","NN","controversy"],
    ["with","IN","with"],
    ["his","PRP$","his"],
    ["new","JJ","new"],
    ["sleeker","NN","sleek"],
    ["hairstyle","NN","hairstyl"],
    ["on","IN","on"],
    ["the","DT","the"],
    ["first","JJ","first"],
    ["live","JJ","liv"],
    ["episode","NN","episod"],
    ["of","IN","of"],
    ["So","NNP","so"],
    ["You","NNP","you"],
    ["Think","NNP","think"],
    ["You","NNP","you"],
    ["Can","NNP","can"],
    ["Dance","NNP","dant"],
    ["2010","CD","2010"],
    ["–","CD","–"],
    ["most","JJS","most"],
    ["fans","NNS","fan"],
    ["preferred","VBD","pref"],
    ["his","PRP$","his"],
    ["more","JJR","mor"],
    ["natural","JJ","nat"],
    ["curly","RB","cur"],
    ["hair","JJ","hair"],
    [".",".","."]
  ]
},
{
  "tag":"S",
  "content":
  [
    ["Stylejacking","VBG","stylejack"],
    ["blog","NN","blog"],
    ["also","RB","also"],
    ["commented","VBD","com"],
    [":",":",":"],
    ["``","``","``"],
    {
      "tag":"PERSON",
      "content":
      [
        ["Sisco","NNP","sisco"]
      ]
    },
    ["is","VBZ","be"],
    ["a","DT","a"],
    ["dancer","NN","dant"],
    [",",",",","],
    ["a","DT","a"],
    ["choreographer","NN","choreograph"],
    ["and","CC","and"],
    ["ultimately","RB","ultim"],
    ["a","DT","a"],
    ["performer","NN","perform"],
    ["–",":","–"],
    ["we","PRP","we"],
    ["loved","VBD","lov"],
    ["the","DT","the"],
    ["outfit","NN","outfit"],
    ["!",".","!"]
  ]
},
{
  "tag":"S",
  "content":
  [
    ["``","``","``"],
    ["==References==","JJ","==references=="],
    ["¡","NN","¡"]
  ]
}]