[
{
  "tag":"S",
  "content":
  [
    {
      "tag":"PERSON",
      "content":
      [
        ["Bill","NNP","bil"]
      ]
    },
    ["``","``","``"],
    ["Bojangles","VBZ","bojangl"],
    ["''","''","''"],
    {
      "tag":"PERSON",
      "content":
      [
        ["Robinson","NNP","robinson"]
      ]
    },
    ["(","NNP","("],
    ["May","NNP","may"],
    ["25","CD","25"],
    [",",",",","],
    ["1878","CD","1878"],
    ["–",":","–"],
    ["November","NNP","novemb"],
    ["25","CD","25"],
    [",",",",","],
    ["1949","CD","1949"],
    [")",":",")"],
    ["was","VBD","be"],
    ["an","DT","an"],
    {
      "tag":"GPE",
      "content":
      [
        ["American","JJ","am"]
      ]
    },
    ["tap","NN","tap"],
    ["dancer","NN","dant"],
    ["and","CC","and"],
    ["actor","NN","act"],
    ["of","IN","of"],
    ["stage","NN","stag"],
    ["and","CC","and"],
    ["film","NN","film"],
    [".",".","."]
  ]
},
{
  "tag":"S",
  "content":
  [
    ["Audiences","NNS","audy"],
    ["enjoyed","VBD","enjoy"],
    ["his","PRP$","his"],
    ["understated","VBN","underst"],
    ["style","NN","styl"],
    [",",",",","],
    ["which","WDT","which"],
    ["eschewed","VBD","eschew"],
    ["the","DT","the"],
    ["frenetic","JJ","frenet"],
    ["manner","NN","man"],
    ["of","IN","of"],
    ["the","DT","the"],
    ["jitterbug","NN","jitterbug"],
    ["in","IN","in"],
    ["favor","NN","fav"],
    ["of","IN","of"],
    ["cool","NN","cool"],
    ["and","CC","and"],
    ["reserve","VB","reserv"],
    [";",":",";"],
    ["rarely","RB","rar"],
    ["did","VBD","do"],
    ["he","PRP","he"],
    ["use","VB","us"],
    ["his","PRP$","his"],
    ["upper","NN","up"],
    ["body","NN","body"],
    [",",",",","],
    ["relying","VBG","rely"],
    ["instead","RB","instead"],
    ["on","IN","on"],
    ["busy","JJ","busy"],
    [",",",",","],
    ["inventive","JJ","inv"],
    ["feet","NNS","foot"],
    [",",",",","],
    ["and","CC","and"],
    ["an","DT","an"],
    ["expressive","JJ","express"],
    ["face","NN","fac"],
    [".",".","."]
  ]
},
{
  "tag":"S",
  "content":
  [
    ["A","DT","A"],
    ["figure","NN","fig"],
    ["in","IN","in"],
    ["both","DT","both"],
    ["the","DT","the"],
    ["black","JJ","black"],
    ["and","CC","and"],
    ["white","NN","whit"],
    ["entertainment","NN","entertain"],
    ["worlds","NNS","world"],
    ["of","IN","of"],
    ["his","PRP$","his"],
    ["era","NN","er"],
    [",",",",","],
    ["he","PRP","he"],
    ["is","VBZ","be"],
    ["best","JJS","best"],
    ["known","VBN","know"],
    ["today","NN","today"],
    ["for","IN","for"],
    ["his","PRP$","his"],
    ["dancing","NN","dant"],
    ["with","IN","with"],
    {
      "tag":"PERSON",
      "content":
      [
        ["Shirley","NNP","shirley"],
        ["Temple","NNP","templ"]
      ]
    },
    ["in","IN","in"],
    ["a","DT","a"],
    ["series","NN","sery"],
    ["of","IN","of"],
    ["films","NNS","film"],
    ["during","IN","during"],
    ["the","DT","the"],
    ["1930s","CD","1930s"],
    [",",",",","],
    ["and","CC","and"],
    ["for","IN","for"],
    ["starring","NN","star"],
    ["in","IN","in"],
    ["the","DT","the"],
    ["musical","JJ","mus"],
    {
      "tag":"PERSON",
      "content":
      [
        ["Stormy","NNP","stormy"],
        ["Weather","NNP","weath"]
      ]
    },
    ["(","NNP","("],
    ["1943","CD","1943"],
    [")","CD",")"],
    [",",",",","],
    ["loosely","RB","loos"],
    ["based","VBN","bas"],
    ["on","IN","on"],
    {
      "tag":"PERSON",
      "content":
      [
        ["Robinson","NNP","robinson"]
      ]
    },
    ["'s","POS","'s"],
    ["own","JJ","own"],
    ["life","NN","lif"],
    [".",".","."]
  ]
},
{
  "tag":"S",
  "content":
  [
    ["==Life","JJ","==life"],
    ["and","CC","and"],
    ["career==","JJ","career=="],
    ["===Early","JJ","===early"],
    ["years===","NN","years==="],
    {
      "tag":"PERSON",
      "content":
      [
        ["Robinson","NNP","robinson"]
      ]
    },
    ["was","VBD","be"],
    ["born","VBN","bear"],
    ["in","IN","in"],
    {
      "tag":"GPE",
      "content":
      [
        ["Richmond","NNP","richmond"]
      ]
    },
    [",",",",","],
    {
      "tag":"GPE",
      "content":
      [
        ["Virginia","NNP","virgin"]
      ]
    },
    [",",",",","],
    ["to","TO","to"],
    {
      "tag":"GPE",
      "content":
      [
        ["Maxwell","NNP","maxwel"]
      ]
    },
    [",",",",","],
    ["a","DT","a"],
    ["machine-shop","JJ","machine-shop"],
    ["worker","NN","work"],
    [",",",",","],
    ["and","CC","and"],
    {
      "tag":"PERSON",
      "content":
      [
        ["Maria","NNP","mar"],
        ["Robinson","NNP","robinson"]
      ]
    },
    [",",",",","],
    ["a","DT","a"],
    ["choir","NN","choir"],
    ["singer","NN","sing"],
    [".",".","."]
  ]
},
{
  "tag":"S",
  "content":
  [
    ["His","PRP$","His"],
    ["grandmother","NN","grandmoth"],
    ["raised","VBD","rais"],
    ["him","PRP","him"],
    ["after","IN","after"],
    ["both","DT","both"],
    ["parents","NNS","par"],
    ["died","VBD","die"],
    ["in","IN","in"],
    ["1885","CD","1885"],
    ["when","WRB","when"],
    ["he","PRP","he"],
    ["was","VBD","be"],
    ["7","CD","7"],
    ["years","NNS","year"],
    ["old—his","-NONE-","old—his"],
    ["father","RB","fath"],
    ["from","IN","from"],
    ["chronic","JJ","chronic"],
    ["heart","NN","heart"],
    ["disease","NN","diseas"],
    ["and","CC","and"],
    ["his","PRP$","his"],
    ["mother","NN","moth"],
    ["from","IN","from"],
    ["natural","JJ","nat"],
    ["causes","NNS","caus"],
    [".",".","."]
  ]
},
{
  "tag":"S",
  "content":
  [
    ["Details","NNS","detail"],
    ["of","IN","of"],
    {
      "tag":"PERSON",
      "content":
      [
        ["Robinson","NNP","robinson"]
      ]
    },
    ["'s","POS","'s"],
    ["early","JJ","ear"],
    ["life","NN","lif"],
    ["are","VBP","be"],
    ["known","VBN","know"],
    ["only","RB","on"],
    ["through","IN","through"],
    ["legend","NN","legend"],
    [",",",",","],
    ["much","RB","much"],
    ["of","IN","of"],
    ["it","PRP","it"],
    ["perpetuated","VBD","perpetu"],
    ["by","IN","by"],
    {
      "tag":"PERSON",
      "content":
      [
        ["Robinson","NNP","robinson"]
      ]
    },
    ["himself","PRP","himself"],
    [".",".","."]
  ]
},
{
  "tag":"S",
  "content":
  [
    ["He","PRP","He"],
    ["claimed","VBD","claim"],
    ["he","PRP","he"],
    ["was","VBD","be"],
    ["christened","VBN","christen"],
    ["``","``","``"],
    ["Luther","NNP","luth"],
    ["''","''","''"],
    ["—a","NNP","—a"],
    ["name","NN","nam"],
    ["he","PRP","he"],
    ["did","VBD","do"],
    ["not","RB","not"],
    ["like","IN","like"],
    [".",".","."]
  ]
},
{
  "tag":"S",
  "content":
  [
    ["He","PRP","He"],
    ["suggested","VBD","suggest"],
    ["to","TO","to"],
    ["his","PRP$","his"],
    ["younger","NN","young"],
    ["brother","NN","broth"],
    {
      "tag":"PERSON",
      "content":
      [
        ["Bill","NNP","bil"]
      ]
    },
    ["that","WDT","that"],
    ["they","PRP","they"],
    ["should","MD","should"],
    ["exchange","VB","exchang"],
    ["names","NNS","nam"],
    [".",".","."]
  ]
},
{
  "tag":"S",
  "content":
  [
    ["Eventually","RB","ev"],
    [",",",",","],
    ["the","DT","the"],
    ["exchange","NN","exchang"],
    ["between","IN","between"],
    ["the","DT","the"],
    ["names","NNS","nam"],
    ["of","IN","of"],
    ["both","DT","both"],
    ["brothers","NNS","broth"],
    ["was","VBD","be"],
    ["made","VBN","mak"],
    [".",".","."]
  ]
},
{
  "tag":"S",
  "content":
  [
    ["===Career===","NN","===career==="],
    ["At","IN","At"],
    ["the","DT","the"],
    ["age","NN","ag"],
    ["of","IN","of"],
    ["five","CD","five"],
    [",",",",","],
    {
      "tag":"PERSON",
      "content":
      [
        ["Robinson","NNP","robinson"]
      ]
    },
    ["began","VBD","begin"],
    ["dancing","VBG","dant"],
    ["for","IN","for"],
    ["a","DT","a"],
    ["living","NN","liv"],
    [",",",",","],
    ["appearing","VBG","appear"],
    ["as","IN","as"],
    ["a","DT","a"],
    ["``","``","``"],
    ["hoofer","NN","hoof"],
    ["''","''","''"],
    ["or","CC","or"],
    ["busker","NN","busk"],
    ["in","IN","in"],
    ["local","JJ","loc"],
    ["beer","NN","beer"],
    ["gardens","NNS","gard"],
    [".",".","."]
  ]
},
{
  "tag":"S",
  "content":
  [
    ["He","PRP","He"],
    ["soon","RB","soon"],
    ["dropped","VBD","drop"],
    ["out","IN","out"],
    ["of","IN","of"],
    ["school","NN","school"],
    ["to","TO","to"],
    ["pursue","VB","pursu"],
    ["dancing","NN","dant"],
    ["as","IN","as"],
    ["a","DT","a"],
    ["career","NN","car"],
    [".",".","."]
  ]
},
{
  "tag":"S",
  "content":
  [
    ["In","IN","In"],
    ["1886","CD","1886"],
    [",",",",","],
    ["he","PRP","he"],
    ["joined","VBD","join"],
    {
      "tag":"PERSON",
      "content":
      [
        ["Mayme","NNP","maym"],
        ["Remington","NNP","remington"]
      ]
    },
    ["'s","POS","'s"],
    ["troupe","NN","troup"],
    ["in","IN","in"],
    {
      "tag":"GPE",
      "content":
      [
        ["Washington","NNP","washington"]
      ]
    },
    [",",",",","],
    {
      "tag":"ORGANIZATION",
      "content":
      [
        ["DC","NNP","dc"]
      ]
    },
    [",",",",","],
    ["and","CC","and"],
    ["toured","VBD","tour"],
    ["with","IN","with"],
    ["them","PRP","them"],
    [".",".","."]
  ]
},
{
  "tag":"S",
  "content":
  [
    ["In","IN","In"],
    ["1891","CD","1891"],
    [",",",",","],
    ["at","IN","at"],
    ["the","DT","the"],
    ["age","NN","ag"],
    ["of","IN","of"],
    ["12","CD","12"],
    [",",",",","],
    ["he","PRP","he"],
    ["joined","VBD","join"],
    ["a","DT","a"],
    ["traveling","NN","travel"],
    ["company","NN","company"],
    ["in","IN","in"],
    ["The","DT","The"],
    {
      "tag":"LOCATION",
      "content":
      [
        ["South","NNP","sou"]
      ]
    },
    ["Before","NNP","bef"],
    ["the","DT","the"],
    ["War","NNP","war"],
    [",",",",","],
    ["and","CC","and"],
    ["in","IN","in"],
    ["1905","CD","1905"],
    ["worked","VBN","work"],
    ["with","IN","with"],
    {
      "tag":"PERSON",
      "content":
      [
        ["George","NNP","georg"],
        ["Cooper","NNP","coop"]
      ]
    },
    ["as","IN","as"],
    ["a","DT","a"],
    ["vaudeville","NN","vaudevil"],
    ["team","NN","team"],
    [".",".","."]
  ]
},
{
  "tag":"S",
  "content":
  [
    ["He","PRP","He"],
    ["gained","VBD","gain"],
    ["great","JJ","gre"],
    ["success","NN","success"],
    ["as","IN","as"],
    ["a","DT","a"],
    ["nightclub","NN","nightclub"],
    ["and","CC","and"],
    ["musical","JJ","mus"],
    ["comedy","NN","comedy"],
    ["performer","NN","perform"],
    [",",",",","],
    ["and","CC","and"],
    ["during","IN","during"],
    ["the","DT","the"],
    ["next","JJ","next"],
    ["25","CD","25"],
    ["years","NNS","year"],
    ["became","VBD","becom"],
    ["one","CD","one"],
    ["of","IN","of"],
    ["the","DT","the"],
    ["toasts","NNS","toast"],
    ["of","IN","of"],
    {
      "tag":"GPE",
      "content":
      [
        ["Broadway","NNP","broadway"]
      ]
    },
    [".",".","."]
  ]
},
{
  "tag":"S",
  "content":
  [
    ["Not","RB","not"],
    ["until","IN","until"],
    ["he","PRP","he"],
    ["was","VBD","be"],
    ["50","CD","50"],
    ["did","VBD","do"],
    ["he","PRP","he"],
    ["dance","NN","dant"],
    ["for","IN","for"],
    ["white","JJ","whit"],
    ["audiences","NNS","audy"],
    [",",",",","],
    ["having","VBG","hav"],
    ["devoted","VBN","devot"],
    ["his","PRP$","his"],
    ["early","JJ","ear"],
    ["career","NN","car"],
    ["exclusively","RB","exclud"],
    ["to","TO","to"],
    ["appearances","NNS","appear"],
    ["on","IN","on"],
    ["the","DT","the"],
    ["black","JJ","black"],
    ["theater","NN","the"],
    ["circuit","NN","circuit"],
    [".",".","."]
  ]
},
{
  "tag":"S",
  "content":
  [
    ["In","IN","In"],
    ["1908","CD","1908"],
    [",",",",","],
    ["in","IN","in"],
    {
      "tag":"GPE",
      "content":
      [
        ["Chicago","NNP","chicago"]
      ]
    },
    [",",",",","],
    ["he","PRP","he"],
    ["met","VBD","meet"],
    {
      "tag":"PERSON",
      "content":
      [
        ["Marty","NNP","marty"],
        ["Forkins","NNP","forkin"]
      ]
    },
    [",",",",","],
    ["who","WP","who"],
    ["became","VBD","becom"],
    ["his","PRP$","his"],
    ["manager","NN","man"],
    ["for","IN","for"],
    ["the","DT","the"],
    ["rest","NN","rest"],
    ["of","IN","of"],
    ["his","PRP$","his"],
    ["life","NN","lif"],
    [".",".","."]
  ]
},
{
  "tag":"S",
  "content":
  [
    ["Under","IN","Under"],
    {
      "tag":"ORGANIZATION",
      "content":
      [
        ["Forkins","NNPS","forkin"]
      ]
    },
    ["'","POS","'"],
    ["tutelage","NN","tutel"],
    [",",",",","],
    {
      "tag":"PERSON",
      "content":
      [
        ["Robinson","NNP","robinson"]
      ]
    },
    ["matured","VBD","mat"],
    ["and","CC","and"],
    ["began","VBD","begin"],
    ["working","VBG","work"],
    ["as","IN","as"],
    ["a","DT","a"],
    ["solo","NN","solo"],
    ["act","NN","act"],
    ["in","IN","in"],
    ["nightclubs","NNS","nightclub"],
    [",",",",","],
    ["increasing","VBG","increas"],
    ["his","PRP$","his"],
    ["earnings","NNS","earn"],
    ["to","TO","to"],
    ["an","DT","an"],
    ["estimated","VBN","estim"],
    ["$","$","$"],
    ["3,500","CD","3,500"],
    ["per","IN","per"],
    ["week","NN","week"],
    [".",".","."]
  ]
},
{
  "tag":"S",
  "content":
  [
    ["In","IN","In"],
    ["1928","CD","1928"],
    [",",",",","],
    ["he","PRP","he"],
    ["starred","VBD","star"],
    ["with","IN","with"],
    {
      "tag":"ORGANIZATION",
      "content":
      [
        ["Adelaide","NNP","adelaid"],
        ["Hall","NNP","hal"]
      ]
    },
    ["on","IN","on"],
    {
      "tag":"GPE",
      "content":
      [
        ["Broadway","NNP","broadway"]
      ]
    },
    ["in","IN","in"],
    ["the","DT","the"],
    ["hugely","RB","hug"],
    ["successful","JJ","success"],
    ["musical","JJ","mus"],
    ["revue","NN","revu"],
    ["Blackbirds","NNS","blackbird"],
    ["of","IN","of"],
    ["1928","CD","1928"],
    ["written","VBN","writ"],
    ["by","IN","by"],
    {
      "tag":"PERSON",
      "content":
      [
        ["Dorothy","NNP","dorothy"],
        ["Fields","NNP","field"]
      ]
    },
    ["and","CC","and"],
    {
      "tag":"PERSON",
      "content":
      [
        ["Jimmy","NNP","jimmy"],
        ["McHugh","NNP","mchugh"]
      ]
    },
    [",",",",","],
    ["in","IN","in"],
    ["which","WDT","which"],
    {
      "tag":"PERSON",
      "content":
      [
        ["Robinson","NNP","robinson"]
      ]
    },
    ["performed","VBD","perform"],
    ["his","PRP$","his"],
    ["famous","JJ","fam"],
    ["stair","NN","stair"],
    ["dance","NN","dant"],
    [".",".","."]
  ]
},
{
  "tag":"S",
  "content":
  [
    ["In","IN","In"],
    ["1930","CD","1930"],
    [",",",",","],
    ["he","PRP","he"],
    ["returned","VBD","return"],
    ["to","TO","to"],
    {
      "tag":"GPE",
      "content":
      [
        ["Broadway","NNP","broadway"]
      ]
    },
    ["to","TO","to"],
    ["star","VB","star"],
    ["with","IN","with"],
    {
      "tag":"ORGANIZATION",
      "content":
      [
        ["Adelaide","NNP","adelaid"],
        ["Hall","NNP","hal"]
      ]
    },
    ["in","IN","in"],
    {
      "tag":"GPE",
      "content":
      [
        ["Brown","NNP","brown"],
        ["Buddies","NNPS","buddy"]
      ]
    },
    [".",".","."]
  ]
},
{
  "tag":"S",
  "content":
  [
    ["The","DT","The"],
    ["publicity","NN","publ"],
    ["that","IN","that"],
    ["gradually","RB","grad"],
    ["came","VBD","com"],
    ["to","TO","to"],
    ["surround","VB","surround"],
    ["him","PRP","him"],
    ["included","VBD","includ"],
    ["the","DT","the"],
    ["creation","NN","cre"],
    ["of","IN","of"],
    ["his","PRP$","his"],
    ["famous","JJ","fam"],
    ["``","``","``"],
    ["stair","JJ","stair"],
    ["dance","NN","dant"],
    ["''","''","''"],
    ["(",":","("],
    ["which","WDT","which"],
    ["he","PRP","he"],
    ["claimed","VBD","claim"],
    ["to","TO","to"],
    ["have","VB","hav"],
    ["invented","VBN","inv"],
    ["on","IN","on"],
    ["the","DT","the"],
    ["spur","NN","spur"],
    ["of","IN","of"],
    ["the","DT","the"],
    ["moment","NN","mom"],
    ["when","WRB","when"],
    ["he","PRP","he"],
    ["was","VBD","be"],
    ["receiving","VBG","receiv"],
    ["an","DT","an"],
    ["honor","NN","hon"],
    ["from","IN","from"],
    ["the","DT","the"],
    ["King","NNP","king"],
    ["of","IN","of"],
    {
      "tag":"GPE",
      "content":
      [
        ["England","NNP","england"]
      ]
    },
    [",",",",","],
    ["who","WP","who"],
    ["was","VBD","be"],
    ["standing","VBG","stand"],
    ["at","IN","at"],
    ["the","DT","the"],
    ["top","JJ","top"],
    ["of","IN","of"],
    ["a","DT","a"],
    ["flight","NN","flight"],
    ["of","IN","of"],
    ["stairs","NNS","stair"],
    ["–",":","–"],
    {
      "tag":"PERSON",
      "content":
      [
        ["Bojangles","NNP","bojangl"]
      ]
    },
    ["'","POS","'"],
    ["feet","NN","foot"],
    ["just","RB","just"],
    ["danced","VBN","dant"],
    ["up","RP","up"],
    ["to","TO","to"],
    ["be","VB","be"],
    ["honored","VBN","hon"],
    [")","-NONE-",")"],
    [";",":",";"],
    ["his","PRP$","his"],
    ["successful","JJ","success"],
    ["gambling","NN","gambl"],
    ["exploits","NNS","exploit"],
    [";",":",";"],
    ["his","PRP$","his"],
    ["bow","NN","bow"],
    ["ties","NNS","tie"],
    ["of","IN","of"],
    ["multiple","NN","multipl"],
    ["colors","NNS","col"],
    [";",":",";"],
    ["his","PRP$","his"],
    ["prodigious","JJ","prodigy"],
    ["charity","NN","char"],
    [";",":",";"],
    ["his","PRP$","his"],
    ["ability","NN","abl"],
    ["to","TO","to"],
    ["run","VB","run"],
    ["backward","NN","backward"],
    ["extremely","RB","extrem"],
    ["fast","RB","fast"],
    [";",":",";"],
    ["his","PRP$","his"],
    ["argot","NN","argot"],
    [",",",",","],
    ["most","JJS","most"],
    ["notably","RB","not"],
    ["the","DT","the"],
    ["neologism","NN","neolog"],
    ["copacetic","JJ","copacet"],
    [";",":",";"],
    ["and","CC","and"],
    ["such","JJ","such"],
    ["stunts","NNS","stunt"],
    ["as","IN","as"],
    ["dancing","VBG","dant"],
    ["down","IN","down"],
    {
      "tag":"GPE",
      "content":
      [
        ["Broadway","NNP","broadway"]
      ]
    },
    ["in","IN","in"],
    ["1939","CD","1939"],
    ["from","IN","from"],
    {
      "tag":"PERSON",
      "content":
      [
        ["Columbus","NNP","columb"],
        ["Circle","NNP","circ"]
      ]
    },
    ["to","TO","to"],
    ["44th","CD","44th"],
    ["Street","NNP","street"],
    ["in","IN","in"],
    ["celebration","NN","celebr"],
    ["of","IN","of"],
    ["his","PRP$","his"],
    ["61st","CD","61st"],
    ["birthday","NN","birthday"],
    [".",".","."]
  ]
},
{
  "tag":"S",
  "content":
  [
    ["Little","RB","littl"],
    ["is","VBZ","be"],
    ["known","VBN","know"],
    ["of","IN","of"],
    ["his","PRP$","his"],
    ["first","JJ","first"],
    ["marriage","NN","marry"],
    ["to","TO","to"],
    {
      "tag":"PERSON",
      "content":
      [
        ["Lena","NNP","len"],
        ["Chase","NNP","chas"]
      ]
    },
    ["in","IN","in"],
    ["1907","CD","1907"],
    [".",".","."]
  ]
},
{
  "tag":"S",
  "content":
  [
    ["They","PRP","They"],
    ["had","VBD","hav"],
    ["no","DT","no"],
    ["children","NNS","child"],
    ["before","IN","before"],
    ["the","DT","the"],
    ["marriage","NN","marry"],
    ["ended","VBD","end"],
    ["in","IN","in"],
    ["1922","CD","1922"],
    [".",".","."]
  ]
},
{
  "tag":"S",
  "content":
  [
    ["His","PRP$","His"],
    ["second","JJ","second"],
    ["wife","NN","wif"],
    ["was","VBD","be"],
    {
      "tag":"PERSON",
      "content":
      [
        ["Fannie","NNP","fanny"],
        ["S.","NNP","s."]
      ]
    },
    ["Clay","NNP","clay"],
    ["whom","WP","whom"],
    ["he","PRP","he"],
    ["married","VBD","marry"],
    ["on","IN","on"],
    ["January","NNP","janu"],
    ["27","CD","27"],
    [",",",",","],
    ["1922","CD","1922"],
    ["in","IN","in"],
    {
      "tag":"GPE",
      "content":
      [
        ["Chicago","NNP","chicago"]
      ]
    },
    ["shortly","RB","short"],
    ["after","IN","after"],
    ["World","NNP","world"],
    ["War","NNP","war"],
    ["I","NNP","i"],
    [".",".","."]
  ]
},
{
  "tag":"S",
  "content":
  [
    ["They","PRP","They"],
    ["divorced","VBD","divorc"],
    ["in","IN","in"],
    ["1943","CD","1943"],
    [".",".","."]
  ]
},
{
  "tag":"S",
  "content":
  [
    ["His","PRP$","His"],
    ["third","JJ","third"],
    ["marriage","NN","marry"],
    ["was","VBD","be"],
    ["in","IN","in"],
    ["1944","CD","1944"],
    ["to","TO","to"],
    {
      "tag":"PERSON",
      "content":
      [
        ["Elaine","NNP","elain"],
        ["Plaines","NNP","plain"]
      ]
    },
    ["in","IN","in"],
    {
      "tag":"GPE",
      "content":
      [
        ["Columbus","NNP","columb"]
      ]
    },
    [",",",",","],
    {
      "tag":"GPE",
      "content":
      [
        ["Ohio","NNP","ohio"]
      ]
    },
    [",",",",","],
    ["and","CC","and"],
    ["they","PRP","they"],
    ["were","VBD","be"],
    ["together","RB","togeth"],
    ["until","IN","until"],
    ["he","PRP","he"],
    ["died","VBD","die"],
    [",",",",","],
    ["never","RB","nev"],
    ["having","VBG","hav"],
    ["any","DT","any"],
    ["children","NNS","child"],
    ["with","IN","with"],
    ["any","DT","any"],
    ["of","IN","of"],
    ["his","PRP$","his"],
    ["wives","NNS","wif"],
    [".",".","."]
  ]
},
{
  "tag":"S",
  "content":
  [
    {
      "tag":"PERSON",
      "content":
      [
        ["Robinson","NNP","robinson"]
      ]
    },
    ["served","VBD","serv"],
    ["as","IN","as"],
    ["a","DT","a"],
    ["rifleman","NN","riflem"],
    ["in","IN","in"],
    ["World","NNP","world"],
    ["War","NNP","war"],
    ["I","NNP","i"],
    ["with","IN","with"],
    {
      "tag":"GPE",
      "content":
      [
        ["New","NNP","new"],
        ["York","NNP","york"]
      ]
    },
    ["'s","POS","'s"],
    ["15th","JJ","15th"],
    {
      "tag":"ORGANIZATION",
      "content":
      [
        ["Infantry","NNP","infantry"],
        ["Regiment","NNP","regy"]
      ]
    },
    [",",",",","],
    {
      "tag":"ORGANIZATION",
      "content":
      [
        ["National","NNP","nat"],
        ["Guard","NNP","guard"]
      ]
    },
    [".",".","."]
  ]
},
{
  "tag":"S",
  "content":
  [
    ["The","DT","The"],
    {
      "tag":"ORGANIZATION",
      "content":
      [
        ["Regiment","NNP","regy"]
      ]
    },
    ["was","VBD","be"],
    ["renamed","VBN","renam"],
    ["the","DT","the"],
    ["369th","JJ","369th"],
    ["Infantry","NNP","infantry"],
    ["while","IN","while"],
    ["serving","VBG","serv"],
    ["under","IN","under"],
    {
      "tag":"GPE",
      "content":
      [
        ["France","NNP","frant"]
      ]
    },
    ["'s","POS","'s"],
    {
      "tag":"PERSON",
      "content":
      [
        ["Fourth","NNP","four"],
        ["Army","NNP","army"]
      ]
    },
    ["and","CC","and"],
    ["earned","VBD","earn"],
    ["the","DT","the"],
    ["nickname","NN","nicknam"],
    ["the","DT","the"],
    ["``","``","``"],
    {
      "tag":"PERSON",
      "content":
      [
        ["Harlem","NNP","harlem"],
        ["Hellfighters","NNP","hellfight"]
      ]
    },
    ["''","''","''"],
    [".",".","."]
  ]
},
{
  "tag":"S",
  "content":
  [
    ["Along","IN","Along"],
    ["with","IN","with"],
    ["serving","VBG","serv"],
    ["in","IN","in"],
    ["the","DT","the"],
    ["trenches","NNS","trench"],
    ["in","IN","in"],
    ["World","NNP","world"],
    ["War","NNP","war"],
    ["I","NNP","i"],
    [",",",",","],
    {
      "tag":"PERSON",
      "content":
      [
        ["Robinson","NNP","robinson"]
      ]
    },
    ["was","VBD","be"],
    ["also","RB","also"],
    ["the","DT","the"],
    ["369th","JJ","369th"],
    ["``","``","``"],
    ["Hellfighters","NNS","hellfight"],
    {
      "tag":"GPE",
      "content":
      [
        ["Band","NNP","band"]
      ]
    },
    ["''","''","''"],
    ["drum","NN","drum"],
    ["major","JJ","maj"],
    ["and","CC","and"],
    ["led","VBN","lead"],
    ["the","DT","the"],
    ["regimental","JJ","regy"],
    ["band","NN","band"],
    ["up","IN","up"],
    {
      "tag":"FACILITY",
      "content":
      [
        ["Fifth","NNP","fif"],
        ["Avenue","NNP","avenu"]
      ]
    },
    ["on","IN","on"],
    ["the","DT","the"],
    ["369th","JJ","369th"],
    ["'s","POS","'s"],
    ["return","NN","return"],
    ["from","IN","from"],
    ["overseas","JJ","oversea"],
    [".",".","."]
  ]
},
{
  "tag":"S",
  "content":
  [
    ["In","IN","In"],
    ["1928","CD","1928"],
    [",",",",","],
    ["a","DT","a"],
    ["white","JJ","whit"],
    ["impresario","NN","impresario"],
    [",",",",","],
    {
      "tag":"PERSON",
      "content":
      [
        ["Lew","NNP","lew"],
        ["Leslie","NNP","les"]
      ]
    },
    [",",",",","],
    ["produced","VBN","produc"],
    {
      "tag":"ORGANIZATION",
      "content":
      [
        ["Blackbirds","NNS","blackbird"]
      ]
    },
    ["of","IN","of"],
    ["1928","CD","1928"],
    ["on","IN","on"],
    {
      "tag":"GPE",
      "content":
      [
        ["Broadway","NNP","broadway"]
      ]
    },
    [",",",",","],
    ["a","DT","a"],
    ["black","JJ","black"],
    ["revue","NN","revu"],
    ["for","IN","for"],
    ["white","JJ","whit"],
    ["audiences","NNS","audy"],
    ["starring","VBG","star"],
    {
      "tag":"PERSON",
      "content":
      [
        ["Adelaide","NNP","adelaid"],
        ["Hall","NNP","hal"]
      ]
    },
    ["and","CC","and"],
    {
      "tag":"PERSON",
      "content":
      [
        ["Bill","NNP","bil"],
        ["Robinson","NNP","robinson"]
      ]
    },
    ["along","IN","along"],
    ["with","IN","with"],
    {
      "tag":"PERSON",
      "content":
      [
        ["Aida","NNP","aid"],
        ["Ward","NNP","ward"]
      ]
    },
    [",",",",","],
    {
      "tag":"PERSON",
      "content":
      [
        ["Tim","NNP","tim"],
        ["Moore","NNP","moor"]
      ]
    },
    ["and","CC","and"],
    ["other","JJ","oth"],
    ["black","NN","black"],
    ["stars","NNS","star"],
    [".",".","."]
  ]
},
{
  "tag":"S",
  "content":
  [
    ["The","DT","The"],
    ["show","NN","show"],
    ["was","VBD","be"],
    ["a","DT","a"],
    ["huge","JJ","hug"],
    ["success","NN","success"],
    ["on","IN","on"],
    {
      "tag":"GPE",
      "content":
      [
        ["Broadway","NNP","broadway"]
      ]
    },
    [",",",",","],
    ["where","WRB","where"],
    ["it","PRP","it"],
    ["ran","VBD","run"],
    ["for","IN","for"],
    ["over","IN","over"],
    ["one","CD","one"],
    ["year","NN","year"],
    ["to","TO","to"],
    ["sell-out","VB","sell-out"],
    ["performances","NNS","perform"],
    [".",".","."]
  ]
},
{
  "tag":"S",
  "content":
  [
    ["On","IN","On"],
    ["stage","NN","stag"],
    [",",",",","],
    {
      "tag":"PERSON",
      "content":
      [
        ["Adelaide","NNP","adelaid"],
        ["Hall","NNP","hal"]
      ]
    },
    ["and","CC","and"],
    {
      "tag":"PERSON",
      "content":
      [
        ["Robinson","NNP","robinson"]
      ]
    },
    ["danced","VBD","dant"],
    ["and","CC","and"],
    ["sang","NN","sang"],
    ["a","DT","a"],
    ["duet","NN","duet"],
    ["together","NN","togeth"],
    [",",",",","],
    ["which","WDT","which"],
    ["captivated","VBN","capt"],
    ["the","DT","the"],
    ["audiences","NNS","audy"],
    [".",".","."]
  ]
},
{
  "tag":"S",
  "content":
  [
    ["From","IN","From"],
    ["then","RB","then"],
    ["on","IN","on"],
    [",",",",","],
    {
      "tag":"PERSON",
      "content":
      [
        ["Robinson","NNP","robinson"]
      ]
    },
    ["'s","POS","'s"],
    ["public","JJ","publ"],
    ["role","NN","rol"],
    ["was","VBD","be"],
    ["that","IN","that"],
    ["of","IN","of"],
    ["a","DT","a"],
    ["dapper","NN","dap"],
    [",",",",","],
    ["smiling","VBG","smil"],
    [",",",",","],
    ["plaid-suited","JJ","plaid-suit"],
    ["ambassador","NN","ambassad"],
    ["to","TO","to"],
    ["the","DT","the"],
    ["white","JJ","whit"],
    ["world","NN","world"],
    [",",",",","],
    ["maintaining","VBG","maintain"],
    ["a","DT","a"],
    ["tenuous","JJ","tenu"],
    ["connection","NN","connect"],
    ["with","IN","with"],
    ["the","DT","the"],
    ["black","JJ","black"],
    ["show-business","NN","show-business"],
    ["circles","NNS","circ"],
    ["through","IN","through"],
    ["his","PRP$","his"],
    ["continuing","VBG","continu"],
    ["patronage","NN","patron"],
    ["of","IN","of"],
    ["the","DT","the"],
    {
      "tag":"ORGANIZATION",
      "content":
      [
        ["Hoofers","NNP","hoof"],
        ["Club","NNP","club"]
      ]
    },
    [",",",",","],
    ["an","DT","an"],
    ["entertainer","NN","entertain"],
    ["'s","POS","'s"],
    ["haven","NN","hav"],
    ["in","IN","in"],
    {
      "tag":"GPE",
      "content":
      [
        ["Harlem","NNP","harlem"]
      ]
    },
    [".",".","."]
  ]
},
{
  "tag":"S",
  "content":
  [
    ["Consequently","RB","consequ"],
    [",",",",","],
    ["blacks","NNS","black"],
    ["and","CC","and"],
    ["whites","NNS","whit"],
    ["developed","VBD","develop"],
    ["differing","VBG","diff"],
    ["opinions","NNS","opin"],
    ["of","IN","of"],
    ["him","PRP","him"],
    [".",".","."]
  ]
},
{
  "tag":"S",
  "content":
  [
    ["To","TO","To"],
    ["whites","NNS","whit"],
    [",",",",","],
    ["for","IN","for"],
    ["example","NN","exampl"],
    [",",",",","],
    ["his","PRP$","his"],
    ["nickname","NN","nicknam"],
    ["``","``","``"],
    ["Bojangles","NNS","bojangl"],
    ["''","''","''"],
    ["meant","NN","meant"],
    ["happy-go-lucky","JJ","happy-go-lucky"],
    [",",",",","],
    ["while","IN","while"],
    ["the","DT","the"],
    ["black","JJ","black"],
    ["variety","NN","vary"],
    ["artist","NN","art"],
    {
      "tag":"PERSON",
      "content":
      [
        ["Tom","NNP","tom"],
        ["Flatcher","NNP","flatch"]
      ]
    },
    ["claimed","VBD","claim"],
    ["it","PRP","it"],
    ["was","VBD","be"],
    ["slang","JJ","slang"],
    ["for","IN","for"],
    ["``","``","``"],
    ["squabbler","JJR","squabbl"],
    [".",".","."]
  ]
},
{
  "tag":"S",
  "content":
  [
    ["``","``","``"],
    ["So","RB","so"],
    ["successful","JJ","success"],
    ["was","VBD","be"],
    {
      "tag":"PERSON",
      "content":
      [
        ["Adelaide","NNP","adelaid"],
        ["Hall","NNP","hal"]
      ]
    },
    ["'s","POS","'s"],
    ["collaboration","NN","collab"],
    ["with","IN","with"],
    {
      "tag":"PERSON",
      "content":
      [
        ["Bojangles","NNP","bojangl"]
      ]
    },
    [",",",",","],
    ["they","PRP","they"],
    ["even","RB","ev"],
    ["appeared","VBD","appear"],
    ["together","RB","togeth"],
    ["on","IN","on"],
    ["stage","NN","stag"],
    ["at","IN","at"],
    ["the","DT","the"],
    ["prestigious","JJ","prestigy"],
    {
      "tag":"PERSON",
      "content":
      [
        ["Palace","NNP","palac"],
        ["Theatre","NNP","the"]
      ]
    },
    ["(","NNP","("],
    {
      "tag":"PERSON",
      "content":
      [
        ["Broadway","NNP","broadway"]
      ]
    },
    [")","NNP",")"],
    ["before","IN","before"],
    ["they","PRP","they"],
    ["were","VBD","be"],
    ["teamed","VBN","team"],
    ["up","RP","up"],
    ["together","RB","togeth"],
    ["again","RB","again"],
    ["by","IN","by"],
    {
      "tag":"PERSON",
      "content":
      [
        ["Marty","NNP","marty"],
        ["Forkins","NNP","forkin"]
      ]
    },
    ["(","NNP","("],
    {
      "tag":"PERSON",
      "content":
      [
        ["Robinson","NNP","robinson"]
      ]
    },
    ["'s","POS","'s"],
    ["manager","NN","man"],
    [")",":",")"],
    ["to","TO","to"],
    ["star","VB","star"],
    ["in","IN","in"],
    ["another","DT","another"],
    ["Broadway","NNP","broadway"],
    ["musical","JJ","mus"],
    ["titled","VBD","titl"],
    [",",",",","],
    ["``","``","``"],
    {
      "tag":"PERSON",
      "content":
      [
        ["Brown","NNP","brown"],
        ["Buddies","NNP","buddy"]
      ]
    },
    ["''","''","''"],
    [",",",",","],
    ["that","IN","that"],
    ["opened","VBN","op"],
    ["in","IN","in"],
    ["1930","CD","1930"],
    ["at","IN","at"],
    ["the","DT","the"],
    {
      "tag":"ORGANIZATION",
      "content":
      [
        ["Liberty","NNP","liberty"],
        ["Theatre","NNP","the"]
      ]
    },
    [",",",",","],
    ["where","WRB","where"],
    ["it","PRP","it"],
    ["ran","VBD","run"],
    ["for","IN","for"],
    ["four","CD","four"],
    ["months","NNS","mon"],
    ["before","IN","before"],
    ["commencing","VBG","com"],
    ["a","DT","a"],
    ["road","NN","road"],
    ["tour","NN","tour"],
    ["of","IN","of"],
    ["the","DT","the"],
    {
      "tag":"ORGANIZATION",
      "content":
      [
        ["States","NNPS","stat"]
      ]
    },
    [".",".","."]
  ]
},
{
  "tag":"S",
  "content":
  [
    ["During","IN","During"],
    ["1930","CD","1930"],
    [",",",",","],
    {
      "tag":"PERSON",
      "content":
      [
        ["Adelaide","NNP","adelaid"],
        ["Hall","NNP","hal"]
      ]
    },
    ["and","CC","and"],
    {
      "tag":"PERSON",
      "content":
      [
        ["Bojangles","NNP","bojangl"]
      ]
    },
    ["also","RB","also"],
    ["appeared","VBD","appear"],
    ["together","RB","togeth"],
    ["on","IN","on"],
    ["stage","NN","stag"],
    ["at","IN","at"],
    {
      "tag":"GPE",
      "content":
      [
        ["New","NNP","new"],
        ["York","NNP","york"]
      ]
    },
    ["'s","POS","'s"],
    {
      "tag":"PERSON",
      "content":
      [
        ["Palace","NNP","palac"],
        ["Theatre","NNP","the"]
      ]
    },
    ["on","IN","on"],
    {
      "tag":"GPE",
      "content":
      [
        ["Broadway","NNP","broadway"]
      ]
    },
    ["for","IN","for"],
    ["one","CD","one"],
    ["week","NN","week"],
    [".",".","."]
  ]
},
{
  "tag":"S",
  "content":
  [
    ["Political","JJ","polit"],
    ["figures","NNS","fig"],
    ["and","CC","and"],
    ["celebrities","NNS","celebr"],
    ["appointed","VBD","appoint"],
    ["him","PRP","him"],
    ["an","DT","an"],
    ["honorary","JJ","hon"],
    ["mayor","NN","may"],
    ["of","IN","of"],
    {
      "tag":"GPE",
      "content":
      [
        ["Harlem","NNP","harlem"]
      ]
    },
    [",",",",","],
    ["a","DT","a"],
    ["lifetime","NN","lifetim"],
    ["member","NN","memb"],
    ["of","IN","of"],
    ["policemen","NNS","policem"],
    ["'s","POS","'s"],
    ["associations","NNS","assocy"],
    ["and","CC","and"],
    ["fraternal","JJ","fratern"],
    ["orders","NNS","ord"],
    [",",",",","],
    ["and","CC","and"],
    ["a","DT","a"],
    ["mascot","NN","mascot"],
    ["of","IN","of"],
    ["the","DT","the"],
    {
      "tag":"GPE",
      "content":
      [
        ["New","NNP","new"],
        ["York","NNP","york"]
      ]
    },
    ["Giants","NNPS","giant"],
    ["major","JJ","maj"],
    ["league","NN","leagu"],
    ["baseball","NN","basebal"],
    ["team","NN","team"],
    [".",".","."]
  ]
},
{
  "tag":"S",
  "content":
  [
    {
      "tag":"PERSON",
      "content":
      [
        ["Robinson","NNP","robinson"]
      ]
    },
    ["reciprocated","VBD","reciproc"],
    ["with","IN","with"],
    ["open-handed","JJ","open-handed"],
    ["generosity","NN","generos"],
    ["and","CC","and"],
    ["frequently","RB","frequ"],
    ["credited","VBN","credit"],
    ["the","DT","the"],
    ["white","JJ","whit"],
    ["dancer","NN","dant"],
    {
      "tag":"PERSON",
      "content":
      [
        ["James","NNP","jam"],
        ["Barton","NNP","barton"]
      ]
    },
    ["for","IN","for"],
    ["his","PRP$","his"],
    ["contribution","NN","contribut"],
    ["to","TO","to"],
    ["his","PRP$","his"],
    ["dancing","NN","dant"],
    ["style","NN","styl"],
    [".",".","."]
  ]
},
{
  "tag":"S",
  "content":
  [
    ["After","IN","After"],
    ["1930","CD","1930"],
    [",",",",","],
    ["black","JJ","black"],
    ["revues","NNS","revu"],
    ["waned","VBN","wan"],
    ["in","IN","in"],
    ["popularity","NN","popul"],
    [",",",",","],
    ["but","CC","but"],
    {
      "tag":"PERSON",
      "content":
      [
        ["Robinson","NNP","robinson"]
      ]
    },
    ["remained","VBD","remain"],
    ["in","IN","in"],
    ["vogue","NN","vog"],
    ["with","IN","with"],
    ["white","JJ","whit"],
    ["audiences","NNS","audy"],
    ["for","IN","for"],
    ["more","JJR","mor"],
    ["than","IN","than"],
    ["a","DT","a"],
    ["decade","NN","decad"],
    ["in","IN","in"],
    ["some","DT","some"],
    ["fourteen","NN","fourteen"],
    ["motion","NN","mot"],
    ["pictures","NNS","pict"],
    ["produced","VBN","produc"],
    ["by","IN","by"],
    ["such","JJ","such"],
    ["companies","NNS","company"],
    ["as","IN","as"],
    {
      "tag":"ORGANIZATION",
      "content":
      [
        ["RKO","NNP","rko"]
      ]
    },
    [",",",",","],
    ["20th","JJ","20th"],
    {
      "tag":"ORGANIZATION",
      "content":
      [
        ["Century","NNP","century"],
        ["Fox","NNP","fox"]
      ]
    },
    ["and","CC","and"],
    {
      "tag":"ORGANIZATION",
      "content":
      [
        ["Paramount","NNP","paramount"],
        ["Pictures","NNPS","pict"]
      ]
    },
    [".",".","."]
  ]
},
{
  "tag":"S",
  "content":
  [
    ["Most","JJS","most"],
    ["of","IN","of"],
    ["them","PRP","them"],
    ["had","VBD","hav"],
    ["musical","JJ","mus"],
    ["settings","NNS","set"],
    [",",",",","],
    ["in","IN","in"],
    ["which","WDT","which"],
    ["he","PRP","he"],
    ["played","VBD","play"],
    ["old-fashioned","JJ","old-fashion"],
    ["roles","NNS","rol"],
    ["in","IN","in"],
    ["nostalgic","JJ","nostalg"],
    ["romances","NNS","rom"],
    [".",".","."]
  ]
},
{
  "tag":"S",
  "content":
  [
    ["His","PRP$","His"],
    ["most","RBS","most"],
    ["frequent","JJ","frequ"],
    ["role","NN","rol"],
    ["was","VBD","be"],
    ["that","IN","that"],
    ["of","IN","of"],
    ["an","DT","an"],
    ["antebellum","NN","antebell"],
    ["butler","NN","butl"],
    ["opposite","NN","opposit"],
    {
      "tag":"PERSON",
      "content":
      [
        ["Shirley","NNP","shirley"],
        ["Temple","NNP","templ"]
      ]
    },
    ["in","IN","in"],
    ["such","JJ","such"],
    ["films","NNS","film"],
    ["as","IN","as"],
    ["The","DT","The"],
    {
      "tag":"ORGANIZATION",
      "content":
      [
        ["Little","NNP","littl"],
        ["Colonel","NNP","colonel"]
      ]
    },
    [",",",",","],
    {
      "tag":"ORGANIZATION",
      "content":
      [
        ["The","NNP","the"],
        ["Littlest","NNP","littlest"],
        ["Rebel","NNP","rebel"]
      ]
    },
    [",",",",","],
    {
      "tag":"PERSON",
      "content":
      [
        ["Rebecca","NNP","rebecc"]
      ]
    },
    ["of","IN","of"],
    {
      "tag":"ORGANIZATION",
      "content":
      [
        ["Sunnybrook","NNP","sunnybrook"],
        ["Farm","NNP","farm"]
      ]
    },
    ["and","CC","and"],
    {
      "tag":"ORGANIZATION",
      "content":
      [
        ["Just","NNP","just"]
      ]
    },
    ["Around","NNP","around"],
    ["the","DT","the"],
    {
      "tag":"ORGANIZATION",
      "content":
      [
        ["Corner","NNP","corn"]
      ]
    },
    [",",",",","],
    ["or","CC","or"],
    {
      "tag":"PERSON",
      "content":
      [
        ["Will","NNP","wil"],
        ["Rogers","NNP","rog"]
      ]
    },
    ["in","IN","in"],
    ["In","NNP","in"],
    ["Old","NNP","old"],
    ["Kentucky","NNP","kentucky"],
    ["(","NNP","("],
    ["1935","CD","1935"],
    [")","CD",")"],
    [".",".","."]
  ]
},
{
  "tag":"S",
  "content":
  [
    {
      "tag":"PERSON",
      "content":
      [
        ["Robinson","NNP","robinson"]
      ]
    },
    ["was","VBD","be"],
    ["the","DT","the"],
    ["first","JJ","first"],
    ["African–American","JJ","african–americ"],
    ["male","NN","mal"],
    ["to","TO","to"],
    ["appear","VB","appear"],
    ["on","IN","on"],
    ["film","NN","film"],
    ["dancing","VBG","dant"],
    ["with","IN","with"],
    ["a","DT","a"],
    ["white","JJ","whit"],
    ["girl","NN","girl"],
    [",",",",","],
    {
      "tag":"PERSON",
      "content":
      [
        ["Shirley","NNP","shirley"],
        ["Temple","NNP","templ"]
      ]
    },
    ["(","NNP","("],
    ["The","NNP","the"],
    ["Little","NNP","littl"],
    ["Colonel","NNP","colonel"],
    [",",",",","],
    ["1935","CD","1935"],
    [")",":",")"],
    [".",".","."]
  ]
},
{
  "tag":"S",
  "content":
  [
    ["Rarely","RB","rar"],
    ["did","VBD","do"],
    ["he","PRP","he"],
    ["depart","VB","depart"],
    ["from","IN","from"],
    ["the","DT","the"],
    ["stereotype","NN","stereotyp"],
    ["imposed","VBD","impos"],
    ["by","IN","by"],
    {
      "tag":"ORGANIZATION",
      "content":
      [
        ["Hollywood","NNP","hollywood"]
      ]
    },
    ["writers","NNS","writ"],
    [".",".","."]
  ]
},
{
  "tag":"S",
  "content":
  [
    ["In","IN","In"],
    ["a","DT","a"],
    ["small","JJ","smal"],
    ["vignette","NN","vignet"],
    ["in","IN","in"],
    {
      "tag":"GPE",
      "content":
      [
        ["Hooray","NNP","hooray"]
      ]
    },
    ["for","IN","for"],
    ["Love","NNP","lov"],
    ["he","PRP","he"],
    ["played","VBD","play"],
    ["a","DT","a"],
    ["mayor","NN","may"],
    ["of","IN","of"],
    {
      "tag":"PERSON",
      "content":
      [
        ["Harlem","NNP","harlem"]
      ]
    },
    ["modeled","VBD","model"],
    ["after","IN","after"],
    ["his","PRP$","his"],
    ["own","JJ","own"],
    ["ceremonial","JJ","ceremon"],
    ["honor","NN","hon"],
    [";",":",";"],
    ["in","IN","in"],
    ["One","CD","One"],
    ["Mile","NNP","mil"],
    ["from","IN","from"],
    {
      "tag":"GPE",
      "content":
      [
        ["Heaven","NNP","heav"]
      ]
    },
    [",",",",","],
    ["he","PRP","he"],
    ["played","VBD","play"],
    ["a","DT","a"],
    ["romantic","JJ","rom"],
    ["lead","NN","lead"],
    ["opposite","NN","opposit"],
    ["African-American","JJ","african-americ"],
    ["actress","NN","actress"],
    {
      "tag":"PERSON",
      "content":
      [
        ["Fredi","NNP","fred"],
        ["Washington","NNP","washington"]
      ]
    },
    ["after","IN","after"],
    {
      "tag":"PERSON",
      "content":
      [
        ["Hollywood","NNP","hollywood"]
      ]
    },
    ["had","VBD","hav"],
    ["relaxed","VBN","relax"],
    ["its","PRP$","its"],
    ["taboo","NN","taboo"],
    ["against","IN","against"],
    ["such","JJ","such"],
    ["roles","NNS","rol"],
    ["for","IN","for"],
    ["blacks","NNS","black"],
    [".",".","."]
  ]
},
{
  "tag":"S",
  "content":
  [
    ["He","PRP","He"],
    ["only","RB","on"],
    ["appeared","VBD","appear"],
    ["in","IN","in"],
    ["one","CD","one"],
    ["film","NN","film"],
    ["intended","VBN","intend"],
    ["for","IN","for"],
    ["black","JJ","black"],
    ["audiences","NNS","audy"],
    [",",",",","],
    {
      "tag":"PERSON",
      "content":
      [
        ["Harlem","NNP","harlem"]
      ]
    },
    ["is","VBZ","be"],
    {
      "tag":"PERSON",
      "content":
      [
        ["Heaven","NNP","heav"]
      ]
    },
    [",",",",","],
    ["a","DT","a"],
    ["financial","JJ","fin"],
    ["failure","NN","fail"],
    ["that","WDT","that"],
    ["turned","VBD","turn"],
    ["him","PRP","him"],
    ["away","RB","away"],
    ["from","IN","from"],
    ["independent","JJ","independ"],
    ["production","NN","produc"],
    [".",".","."]
  ]
},
{
  "tag":"S",
  "content":
  [
    ["HotmikadoBill.jpg|right|thumb|200px|Robinson","NN","hotmikadobill.jpg|right|thumb|200px|robinson"],
    ["in","IN","in"],
    ["The","DT","The"],
    {
      "tag":"ORGANIZATION",
      "content":
      [
        ["Hot","NNP","hot"],
        ["Mikado","NNP","mikado"]
      ]
    },
    ["In","NNP","in"],
    ["1939","CD","1939"],
    [",",",",","],
    ["he","PRP","he"],
    ["returned","VBD","return"],
    ["to","TO","to"],
    ["the","DT","the"],
    ["stage","NN","stag"],
    ["in","IN","in"],
    ["The","DT","The"],
    {
      "tag":"ORGANIZATION",
      "content":
      [
        ["Hot","NNP","hot"],
        ["Mikado","NNP","mikado"]
      ]
    },
    [",",",",","],
    ["a","DT","a"],
    ["jazz","NN","jazz"],
    ["version","NN","vert"],
    ["of","IN","of"],
    ["the","DT","the"],
    {
      "tag":"ORGANIZATION",
      "content":
      [
        ["Gilbert","NNP","gilbert"]
      ]
    },
    ["and","CC","and"],
    {
      "tag":"PERSON",
      "content":
      [
        ["Sullivan","NNP","sul"]
      ]
    },
    ["operetta","NN","operett"],
    ["produced","VBN","produc"],
    ["at","IN","at"],
    ["the","DT","the"],
    ["1939","CD","1939"],
    {
      "tag":"GPE",
      "content":
      [
        ["New","NNP","new"],
        ["York","NNP","york"],
        ["World","NNP","world"]
      ]
    },
    ["'s","POS","'s"],
    {
      "tag":"PERSON",
      "content":
      [
        ["Fair","NNP","fair"]
      ]
    },
    [",",",",","],
    ["which","WDT","which"],
    ["was","VBD","be"],
    ["one","CD","one"],
    ["of","IN","of"],
    ["the","DT","the"],
    ["greatest","JJS","gre"],
    ["hits","NNS","hit"],
    ["of","IN","of"],
    ["the","DT","the"],
    ["fair","JJ","fair"],
    [".",".","."]
  ]
},
{
  "tag":"S",
  "content":
  [
    ["His","PRP$","His"],
    ["next","JJ","next"],
    ["performance","NN","perform"],
    [",",",",","],
    ["in","IN","in"],
    ["All","DT","All"],
    ["in","IN","in"],
    {
      "tag":"GPE",
      "content":
      [
        ["Fun","NNP","fun"]
      ]
    },
    ["(","NNP","("],
    ["1940","CD","1940"],
    [")","CD",")"],
    [",",",",","],
    ["failed","VBD","fail"],
    ["to","TO","to"],
    ["attract","VB","attract"],
    ["audiences","NNS","audy"],
    [".",".","."]
  ]
},
{
  "tag":"S",
  "content":
  [
    ["His","PRP$","His"],
    ["last","JJ","last"],
    ["theatrical","JJ","the"],
    ["project","NN","project"],
    ["was","VBD","be"],
    ["to","TO","to"],
    ["have","VB","hav"],
    ["been","VBN","be"],
    ["Two","CD","Two"],
    ["Gentlemen","NNP","gentlem"],
    ["from","IN","from"],
    ["the","DT","the"],
    {
      "tag":"GPE",
      "content":
      [
        ["South","NNP","sou"]
      ]
    },
    [",",",",","],
    ["with","IN","with"],
    {
      "tag":"PERSON",
      "content":
      [
        ["James","NNP","jam"],
        ["Barton","NNP","barton"]
      ]
    },
    [",",",",","],
    ["in","IN","in"],
    ["which","WDT","which"],
    ["the","DT","the"],
    ["black","JJ","black"],
    ["and","CC","and"],
    ["white","NN","whit"],
    ["roles","NNS","rol"],
    ["reverse","VBP","revers"],
    ["and","CC","and"],
    ["eventually","RB","ev"],
    ["come","VBN","com"],
    ["together","RB","togeth"],
    ["as","IN","as"],
    ["equals","NNS","eq"],
    [",",",",","],
    ["but","CC","but"],
    ["the","DT","the"],
    ["show","NN","show"],
    ["did","VBD","do"],
    ["not","RB","not"],
    ["open","JJ","op"],
    [".",".","."]
  ]
},
{
  "tag":"S",
  "content":
  [
    ["Thereafter","NNP","thereaft"],
    [",",",",","],
    ["he","PRP","he"],
    ["confined","VBD","confin"],
    ["himself","PRP","himself"],
    ["to","TO","to"],
    ["occasional","JJ","occas"],
    ["performances","NNS","perform"],
    [",",",",","],
    ["but","CC","but"],
    ["he","PRP","he"],
    ["could","MD","could"],
    ["still","RB","stil"],
    ["dance","VB","dant"],
    ["well","RB","wel"],
    ["in","IN","in"],
    ["his","PRP$","his"],
    ["late","JJ","lat"],
    ["sixties","NNS","sixty"],
    [",",",",","],
    ["to","TO","to"],
    ["the","DT","the"],
    ["continual","JJ","contin"],
    ["astonishment","NN","aston"],
    ["of","IN","of"],
    ["his","PRP$","his"],
    ["admirers","NNS","admir"],
    [".",".","."]
  ]
},
{
  "tag":"S",
  "content":
  [
    ["He","PRP","He"],
    ["explained","VBD","explain"],
    ["this","DT","this"],
    ["extraordinary","JJ","extraordin"],
    ["versatility—he","NN","versatility—he"],
    ["once","RB","ont"],
    ["danced","VBN","dant"],
    ["for","IN","for"],
    ["more","JJR","mor"],
    ["than","IN","than"],
    ["an","DT","an"],
    ["hour","NN","hour"],
    ["before","IN","before"],
    ["a","DT","a"],
    ["dancing","NN","dant"],
    ["class","NN","class"],
    ["without","IN","without"],
    ["repeating","NN","rep"],
    ["a","DT","a"],
    ["step—by","JJ","step—by"],
    ["insisting","NN","insist"],
    ["that","WDT","that"],
    ["his","PRP$","his"],
    ["feet","NN","foot"],
    ["responded","VBD","respond"],
    ["directly","RB","direct"],
    ["to","TO","to"],
    ["the","DT","the"],
    ["music","NN","mus"],
    [",",",",","],
    ["with","IN","with"],
    ["his","PRP$","his"],
    ["head","NN","head"],
    ["having","VBG","hav"],
    ["nothing","NN","noth"],
    ["to","TO","to"],
    ["do","VB","do"],
    ["with","IN","with"],
    ["it","PRP","it"],
    [".",".","."]
  ]
},
{
  "tag":"S",
  "content":
  [
    ["===Death===","NN","===death==="],
    ["Despite","IN","Despite"],
    ["earning","VBG","earn"],
    ["more","JJR","mor"],
    ["than","IN","than"],
    {
      "tag":"GSP",
      "content":
      [
        ["US","NNP","us"]
      ]
    },
    ["$","$","$"],
    ["2","CD","2"],
    ["million","CD","million"],
    ["during","IN","during"],
    ["his","PRP$","his"],
    ["lifetime","NN","lifetim"],
    [",",",",","],
    {
      "tag":"PERSON",
      "content":
      [
        ["Robinson","NNP","robinson"]
      ]
    },
    ["died","VBD","die"],
    ["penniless","NN","penniless"],
    ["in","IN","in"],
    ["1949","CD","1949"],
    [",",",",","],
    ["at","IN","at"],
    ["the","DT","the"],
    ["age","NN","ag"],
    ["of","IN","of"],
    ["71","CD","71"],
    ["from","IN","from"],
    ["heart","NN","heart"],
    ["failure","NN","fail"],
    [".",".","."]
  ]
},
{
  "tag":"S",
  "content":
  [
    ["His","PRP$","His"],
    ["funeral","JJ","fun"],
    [",",",",","],
    ["which","WDT","which"],
    ["was","VBD","be"],
    ["arranged","VBN","arrang"],
    ["by","IN","by"],
    ["longtime","NN","longtim"],
    ["friend","NN","friend"],
    ["and","CC","and"],
    ["television","NN","televid"],
    ["host","NN","host"],
    {
      "tag":"PERSON",
      "content":
      [
        ["Ed","NNP","ed"],
        ["Sullivan","NNP","sul"]
      ]
    },
    [",",",",","],
    ["was","VBD","be"],
    ["held","VBN","hold"],
    ["at","IN","at"],
    ["the","DT","the"],
    ["369th","JJ","369th"],
    {
      "tag":"ORGANIZATION",
      "content":
      [
        ["Infantry","NNP","infantry"]
      ]
    },
    ["Regiment","NNP","regy"],
    ["Armory","NNP","arm"],
    ["369th","CD","369th"],
    {
      "tag":"ORGANIZATION",
      "content":
      [
        ["Infantry","NNP","infantry"],
        ["Regiment","NNP","regy"]
      ]
    },
    ["(","NNP","("],
    {
      "tag":"GPE",
      "content":
      [
        ["United","NNP","unit"],
        ["States","NNPS","stat"]
      ]
    },
    [")","NNP",")"],
    ["near","IN","near"],
    {
      "tag":"GPE",
      "content":
      [
        ["Harlem","NNP","harlem"]
      ]
    },
    ["and","CC","and"],
    ["attended","VBD","attend"],
    ["by","IN","by"],
    ["32,000","CD","32,000"],
    ["people","NNS","peopl"],
    [".",".","."]
  ]
},
{
  "tag":"S",
  "content":
  [
    {
      "tag":"PERSON",
      "content":
      [
        ["Adam","NNP","adam"]
      ]
    },
    {
      "tag":"PERSON",
      "content":
      [
        ["Clayton","NNP","clayton"],
        ["Powell","NNP","powel"]
      ]
    },
    [",",",",","],
    ["Sr.","NNP","sr."],
    ["gave","VBD","giv"],
    ["the","DT","the"],
    ["eulogy","NN","eulog"],
    [",",",",","],
    ["which","WDT","which"],
    ["was","VBD","be"],
    ["broadcast","VBN","broadcast"],
    ["over","IN","over"],
    ["the","DT","the"],
    ["radio","NN","radio"],
    [".",".","."]
  ]
},
{
  "tag":"S",
  "content":
  [
    {
      "tag":"PERSON",
      "content":
      [
        ["Robinson","NNP","robinson"]
      ]
    },
    ["is","VBZ","be"],
    ["buried","VBN","bury"],
    ["in","IN","in"],
    ["the","DT","the"],
    {
      "tag":"ORGANIZATION",
      "content":
      [
        ["Cemetery","NNP","cemetery"]
      ]
    },
    ["of","IN","of"],
    ["the","DT","the"],
    ["Evergreens","NNP","evergreen"],
    ["in","IN","in"],
    {
      "tag":"GPE",
      "content":
      [
        ["Brooklyn","NNP","brooklyn"]
      ]
    },
    [",",",",","],
    {
      "tag":"GPE",
      "content":
      [
        ["New","NNP","new"],
        ["York","NNP","york"]
      ]
    },
    [".",".","."]
  ]
},
{
  "tag":"S",
  "content":
  [
    ["==Legacy==","NN","==legacy=="],
    ["A","DT","A"],
    ["statue","NN","statu"],
    ["of","IN","of"],
    {
      "tag":"PERSON",
      "content":
      [
        ["Bill","NNP","bil"],
        ["Robinson","NNP","robinson"]
      ]
    },
    ["sculpted","VBD","sculpt"],
    ["by","IN","by"],
    {
      "tag":"PERSON",
      "content":
      [
        ["Jack","NNP","jack"],
        ["Witt","NNP","wit"]
      ]
    },
    ["is","VBZ","be"],
    ["in","IN","in"],
    {
      "tag":"GPE",
      "content":
      [
        ["Richmond","NNP","richmond"]
      ]
    },
    [",",",",","],
    {
      "tag":"GPE",
      "content":
      [
        ["Virginia","NNP","virgin"]
      ]
    },
    [",",",",","],
    ["at","IN","at"],
    ["the","DT","the"],
    ["intersection","NN","intersect"],
    ["of","IN","of"],
    {
      "tag":"PERSON",
      "content":
      [
        ["Adams","NNP","adam"]
      ]
    },
    ["and","CC","and"],
    {
      "tag":"LOCATION",
      "content":
      [
        ["West","NNP","west"],
        ["Leigh","NNP","leigh"]
      ]
    },
    {
      "tag":"ORGANIZATION",
      "content":
      [
        ["Streets","NNPS","streets"]
      ]
    },
    [".",".","."]
  ]
},
{
  "tag":"S",
  "content":
  [
    {
      "tag":"PERSON",
      "content":
      [
        ["Robinson","NNP","robinson"]
      ]
    },
    ["was","VBD","be"],
    ["successful","JJ","success"],
    ["despite","IN","despite"],
    ["the","DT","the"],
    ["obstacle","NN","obstac"],
    ["of","IN","of"],
    ["racism","NN","rac"],
    [".",".","."]
  ]
},
{
  "tag":"S",
  "content":
  [
    ["A","DT","A"],
    ["favorite","JJ","favorit"],
    {
      "tag":"PERSON",
      "content":
      [
        ["Robinson","NNP","robinson"]
      ]
    },
    ["anecdote","NN","anecdot"],
    ["is","VBZ","be"],
    ["that","IN","that"],
    ["he","PRP","he"],
    ["seated","VBD","seat"],
    ["himself","PRP","himself"],
    ["in","IN","in"],
    ["a","DT","a"],
    ["restaurant","NN","resta"],
    ["and","CC","and"],
    ["a","DT","a"],
    ["customer","NN","custom"],
    ["objected","VBN","object"],
    ["to","TO","to"],
    ["his","PRP$","his"],
    ["presence","NN","pres"],
    [".",".","."]
  ]
},
{
  "tag":"S",
  "content":
  [
    ["When","WRB","When"],
    ["the","DT","the"],
    ["manager","NN","man"],
    ["suggested","VBD","suggest"],
    ["that","IN","that"],
    ["it","PRP","it"],
    ["might","MD","might"],
    ["be","VB","be"],
    ["better","JJR","good"],
    ["if","IN","if"],
    {
      "tag":"PERSON",
      "content":
      [
        ["Robinson","NNP","robinson"]
      ]
    },
    ["leave","VBP","leav"],
    [",",",",","],
    ["he","PRP","he"],
    ["smiled","VBD","smil"],
    ["and","CC","and"],
    ["asked","VBD","ask"],
    [",",",",","],
    ["``","``","``"],
    ["Have","NNP","hav"],
    ["you","PRP","you"],
    ["got","VBD","get"],
    ["a","DT","a"],
    ["ten","NN","ten"],
    ["dollar","NN","doll"],
    ["bill","NN","bil"],
    ["?",".","?"]
  ]
},
{
  "tag":"S",
  "content":
  [
    ["``","``","``"],
    ["Politely","RB","polit"],
    ["asking","VBG","ask"],
    ["to","TO","to"],
    ["borrow","VB","borrow"],
    ["the","DT","the"],
    ["manager","NN","man"],
    ["'s","POS","'s"],
    ["note","NN","not"],
    ["for","IN","for"],
    ["a","DT","a"],
    ["moment","NN","mom"],
    [",",",",","],
    {
      "tag":"PERSON",
      "content":
      [
        ["Robinson","NNP","robinson"]
      ]
    },
    ["added","VBD","ad"],
    ["six","CD","six"],
    ["$","$","$"],
    ["10","CD","10"],
    ["bills","NNS","bil"],
    ["from","IN","from"],
    ["his","PRP$","his"],
    ["own","JJ","own"],
    ["wallet","NN","wallet"],
    ["and","CC","and"],
    ["mixed","VBD","mix"],
    ["them","PRP","them"],
    ["up","RP","up"],
    [",",",",","],
    ["then","RB","then"],
    ["extended","VBD","extend"],
    ["the","DT","the"],
    ["seven","CD","seven"],
    ["bills","NNS","bil"],
    ["together","RB","togeth"],
    [",",",",","],
    ["adding","VBG","ad"],
    [",",",",","],
    ["``","``","``"],
    ["Here","RB","her"],
    [",",",",","],
    ["let","VB","let"],
    ["'s","POS","'s"],
    ["see","NN","see"],
    ["you","PRP","you"],
    ["pick","VBP","pick"],
    ["out","RP","out"],
    ["the","DT","the"],
    ["colored","VBN","col"],
    ["one","CD","one"],
    ["''","''","''"],
    [".",".","."]
  ]
},
{
  "tag":"S",
  "content":
  [
    ["The","DT","The"],
    ["restaurant","NN","resta"],
    ["manager","NN","man"],
    ["served","VBD","serv"],
    {
      "tag":"PERSON",
      "content":
      [
        ["Robinson","NNP","robinson"]
      ]
    },
    ["without","IN","without"],
    ["further","JJ","furth"],
    ["delay","NN","delay"],
    [".",".","."]
  ]
},
{
  "tag":"S",
  "content":
  [
    ["Despite","IN","Despite"],
    ["earning","VBG","earn"],
    ["and","CC","and"],
    ["spending","NN","spend"],
    ["a","DT","a"],
    ["fortune","NN","fortun"],
    [",",",",","],
    ["his","PRP$","his"],
    ["memories","NNS","mem"],
    ["of","IN","of"],
    ["surviving","VBG","surv"],
    ["the","DT","the"],
    ["streets","NNS","street"],
    ["as","IN","as"],
    ["a","DT","a"],
    ["child","NN","child"],
    ["never","RB","nev"],
    ["left","VBN","leav"],
    ["him","PRP","him"],
    [",",",",","],
    ["prompting","VBG","prompt"],
    ["many","JJ","many"],
    ["acts","NNS","act"],
    ["of","IN","of"],
    ["generosity","NN","generos"],
    [".",".","."]
  ]
},
{
  "tag":"S",
  "content":
  [
    ["In","IN","In"],
    ["1933","CD","1933"],
    [",",",",","],
    ["while","IN","while"],
    ["in","IN","in"],
    ["his","PRP$","his"],
    ["hometown","NN","hometown"],
    ["of","IN","of"],
    {
      "tag":"GPE",
      "content":
      [
        ["Richmond","NNP","richmond"]
      ]
    },
    [",",",",","],
    ["he","PRP","he"],
    ["saw","VBD","saw"],
    ["two","CD","two"],
    ["children","NNS","child"],
    ["caught","VBN","catch"],
    ["between","IN","between"],
    ["the","DT","the"],
    ["heat","NN","heat"],
    ["of","IN","of"],
    ["traffic","JJ","traff"],
    ["to","TO","to"],
    ["retrieve","VB","retriev"],
    ["their","PRP$","their"],
    ["ball","NN","bal"],
    [".",".","."]
  ]
},
{
  "tag":"S",
  "content":
  [
    ["Since","IN","Since"],
    ["there","EX","there"],
    ["was","VBD","be"],
    ["no","DT","no"],
    ["stoplight","NN","stoplight"],
    ["at","IN","at"],
    ["the","DT","the"],
    ["intersection","NN","intersect"],
    [",",",",","],
    {
      "tag":"PERSON",
      "content":
      [
        ["Robinson","NNP","robinson"]
      ]
    },
    ["went","VBD","go"],
    ["to","TO","to"],
    ["the","DT","the"],
    ["city","NN","city"],
    ["and","CC","and"],
    ["provided","VBN","provid"],
    ["the","DT","the"],
    ["money","NN","money"],
    ["to","TO","to"],
    ["have","VB","hav"],
    ["one","CD","one"],
    ["installed","VBN","inst"],
    [".",".","."]
  ]
},
{
  "tag":"S",
  "content":
  [
    ["In","IN","In"],
    ["1973","CD","1973"],
    [",",",",","],
    ["a","DT","a"],
    ["statue","NN","statu"],
    ["of","IN","of"],
    ["``","``","``"],
    ["Bojangles","NNS","bojangl"],
    ["''","''","''"],
    ["was","VBD","be"],
    ["established","VBN","est"],
    ["in","IN","in"],
    ["a","DT","a"],
    ["small","JJ","smal"],
    ["park","NN","park"],
    ["at","IN","at"],
    ["that","DT","that"],
    ["intersection","NN","intersect"],
    [".",".","."]
  ]
},
{
  "tag":"S",
  "content":
  [
    ["Bojangles","NNS","bojangl"],
    ["co-founded","JJ","co-founded"],
    ["the","DT","the"],
    {
      "tag":"GPE",
      "content":
      [
        ["New","NNP","new"],
        ["York","NNP","york"]
      ]
    },
    {
      "tag":"PERSON",
      "content":
      [
        ["Black","NNP","black"],
        ["Yankees","NNP","yank"]
      ]
    },
    ["baseball","NN","basebal"],
    ["team","NN","team"],
    ["in","IN","in"],
    {
      "tag":"GPE",
      "content":
      [
        ["Harlem","NNP","harlem"]
      ]
    },
    ["in","IN","in"],
    ["1936","CD","1936"],
    ["with","IN","with"],
    ["financier","JJR","fin"],
    {
      "tag":"PERSON",
      "content":
      [
        ["James","NNP","jam"]
      ]
    },
    ["``","``","``"],
    {
      "tag":"PERSON",
      "content":
      [
        ["Soldier","NNP","soldy"],
        ["Boy","NNP","boy"]
      ]
    },
    ["''","''","''"],
    {
      "tag":"PERSON",
      "content":
      [
        ["Semler","NNP","seml"]
      ]
    },
    [".",".","."]
  ]
},
{
  "tag":"S",
  "content":
  [
    ["The","DT","The"],
    ["team","NN","team"],
    ["was","VBD","be"],
    ["a","DT","a"],
    ["successful","JJ","success"],
    ["member","NN","memb"],
    ["of","IN","of"],
    ["the","DT","the"],
    {
      "tag":"ORGANIZATION",
      "content":
      [
        ["Negro","NNP","negro"],
        ["National","NNP","nat"],
        ["League","NNP","leagu"]
      ]
    },
    ["until","IN","until"],
    ["it","PRP","it"],
    ["disbanded","VBD","disband"],
    ["in","IN","in"],
    ["1948","CD","1948"],
    [",",",",","],
    ["after","IN","after"],
    {
      "tag":"PERSON",
      "content":
      [
        ["Major","NNP","maj"],
        ["League","NNP","leagu"],
        ["Baseball","NNP","basebal"]
      ]
    },
    ["was","VBD","be"],
    ["desegregated","VBN","desegreg"],
    ["and","CC","and"],
    ["began","VBD","begin"],
    ["to","TO","to"],
    ["limit","VB","limit"],
    ["the","DT","the"],
    ["only","JJ","on"],
    ["the","DT","the"],
    ["top","JJ","top"],
    ["Black","NNP","black"],
    ["talent","NN","tal"],
    ["available","JJ","avail"],
    [".",".","."]
  ]
},
{
  "tag":"S",
  "content":
  [
    ["In","IN","In"],
    ["1989","CD","1989"],
    [",",",",","],
    ["a","DT","a"],
    ["joint","JJ","joint"],
    {
      "tag":"GPE",
      "content":
      [
        ["U.S.","NNP","u.s."]
      ]
    },
    ["Senate/House","NNP","senate/hous"],
    ["resolution","NN","resolv"],
    ["declared","VBD","decl"],
    ["``","``","``"],
    {
      "tag":"ORGANIZATION",
      "content":
      [
        ["National","NNP","nat"],
        ["Tap","NNP","tap"],
        ["Dance","NNP","dant"]
      ]
    },
    ["Day","NNP","day"],
    ["''","''","''"],
    ["to","TO","to"],
    ["be","VB","be"],
    ["May","NNP","may"],
    ["25","CD","25"],
    [",",",",","],
    ["the","DT","the"],
    ["anniversary","JJ","annivers"],
    ["of","IN","of"],
    {
      "tag":"PERSON",
      "content":
      [
        ["Bill","NNP","bil"],
        ["Robinson","NNP","robinson"]
      ]
    },
    ["'s","POS","'s"],
    ["birth","JJ","bir"],
    [".",".","."]
  ]
},
{
  "tag":"S",
  "content":
  [
    {
      "tag":"PERSON",
      "content":
      [
        ["Robinson","NNP","robinson"]
      ]
    },
    ["was","VBD","be"],
    ["inducted","VBN","induc"],
    ["into","IN","into"],
    ["the","DT","the"],
    {
      "tag":"ORGANIZATION",
      "content":
      [
        ["National","NNP","nat"],
        ["Museum","NNP","muse"]
      ]
    },
    ["of","IN","of"],
    {
      "tag":"GPE",
      "content":
      [
        ["Dance","NNP","dant"]
      ]
    },
    ["'s","POS","'s"],
    ["Mr.","NNP","mr."],
    ["&","CC","&"],
    ["Mrs.","NNP","mrs."],
    {
      "tag":"PERSON",
      "content":
      [
        ["Cornelius","NNP","corneli"],
        ["Vanderbilt","NNP","vanderbilt"],
        ["Whitney","NNP","whitney"],
        ["Hall","NNP","hal"]
      ]
    },
    ["of","IN","of"],
    {
      "tag":"GPE",
      "content":
      [
        ["Fame","NNP","fam"]
      ]
    },
    ["in","IN","in"],
    ["1987","CD","1987"],
    [".",".","."]
  ]
},
{
  "tag":"S",
  "content":
  [
    ["==In","JJ","==in"],
    ["popular","JJ","popul"],
    ["culture==","NN","culture=="],
    ["*Fred","JJ","*fred"],
    {
      "tag":"PERSON",
      "content":
      [
        ["Astaire","NNP","astair"]
      ]
    },
    ["paid","VBD","pay"],
    ["tribute","NN","tribut"],
    ["to","TO","to"],
    {
      "tag":"PERSON",
      "content":
      [
        ["Bill","NNP","bil"],
        ["Robinson","NNP","robinson"]
      ]
    },
    ["in","IN","in"],
    ["the","DT","the"],
    ["tap","NN","tap"],
    ["routine","NN","routin"],
    ["Bojangles","NNS","bojangl"],
    ["of","IN","of"],
    {
      "tag":"GPE",
      "content":
      [
        ["Harlem","NNP","harlem"]
      ]
    },
    ["from","IN","from"],
    ["the","DT","the"],
    ["1936","CD","1936"],
    ["film","NN","film"],
    ["Swing","NNP","swing"],
    ["Time","NNP","tim"],
    [".",".","."]
  ]
},
{
  "tag":"S",
  "content":
  [
    ["In","IN","In"],
    ["it","PRP","it"],
    [",",",",","],
    {
      "tag":"PERSON",
      "content":
      [
        ["Astaire","NNP","astair"]
      ]
    },
    ["famously","RB","fam"],
    ["dances","VBZ","dant"],
    ["to","TO","to"],
    ["three","CD","three"],
    ["of","IN","of"],
    ["his","PRP$","his"],
    ["shadows","NNS","shadow"],
    [".",".","."]
  ]
},
{
  "tag":"S",
  "content":
  [
    ["*Duke","JJ","*duke"],
    {
      "tag":"PERSON",
      "content":
      [
        ["Ellington","NNP","ellington"]
      ]
    },
    ["composed","VBD","compos"],
    ["``","``","``"],
    ["Bojangles","NNS","bojangl"],
    ["(","VBP","("],
    ["A","DT","A"],
    {
      "tag":"GPE",
      "content":
      [
        ["Portrait","NNP","portrait"]
      ]
    },
    ["of","IN","of"],
    {
      "tag":"PERSON",
      "content":
      [
        ["Bill","NNP","bil"],
        ["Robinson","NNP","robinson"]
      ]
    },
    [")","NNP",")"],
    ["''","''","''"],
    [",",",",","],
    ["a","DT","a"],
    ["set","NN","set"],
    ["of","IN","of"],
    ["rhythmic","JJ","rhythm"],
    ["variations","NNS","vary"],
    ["as","IN","as"],
    ["a","DT","a"],
    ["salute","NN","salut"],
    ["to","TO","to"],
    ["the","DT","the"],
    ["great","JJ","gre"],
    ["dancer","NN","dant"],
    [".",".","."]
  ]
},
{
  "tag":"S",
  "content":
  [
    ["*A","NN","*a"],
    ["biography","NN","biograph"],
    ["of","IN","of"],
    {
      "tag":"PERSON",
      "content":
      [
        ["Bill","NNP","bil"],
        ["Robinson","NNP","robinson"]
      ]
    },
    ["by","IN","by"],
    {
      "tag":"PERSON",
      "content":
      [
        ["Jim","NNP","jim"],
        ["Haskins","NNP","haskin"]
      ]
    },
    ["and","CC","and"],
    ["N.","NNP","n."],
    ["R.","NNP","r."],
    {
      "tag":"PERSON",
      "content":
      [
        ["Mitgang","NNP","mitgang"]
      ]
    },
    [",",",",","],
    {
      "tag":"PERSON",
      "content":
      [
        ["Mr.","NNP","mr."],
        ["Bojangles","NNP","bojangl"]
      ]
    },
    [":",":",":"],
    ["The","DT","The"],
    {
      "tag":"ORGANIZATION",
      "content":
      [
        ["Biography","NNP","biograph"]
      ]
    },
    ["of","IN","of"],
    {
      "tag":"PERSON",
      "content":
      [
        ["Bill","NNP","bil"],
        ["Robinson","NNP","robinson"]
      ]
    },
    ["(","NNP","("],
    ["Morrow","NNP","morrow"],
    [")","NNP",")"],
    [",",",",","],
    ["was","VBD","be"],
    ["published","VBN","publ"],
    ["in","IN","in"],
    ["1988","CD","1988"],
    [".",".","."]
  ]
},
{
  "tag":"S",
  "content":
  [
    ["``","``","``"],
    ["Bojangles","NNS","bojangl"],
    ["''","''","''"],
    ["the","DT","the"],
    ["musical","JJ","mus"],
    [",",",",","],
    ["premiered","VBN","premy"],
    ["as","IN","as"],
    ["the","DT","the"],
    ["centerpiece","NN","centerpiec"],
    ["of","IN","of"],
    {
      "tag":"PERSON",
      "content":
      [
        ["Barksdale","NNP","barksd"],
        ["Theatre","NNP","the"]
      ]
    },
    ["'s","POS","'s"],
    ["(","NNP","("],
    ["at","IN","at"],
    {
      "tag":"FACILITY",
      "content":
      [
        ["Hanover","NNP","hanov"],
        ["Tavern","NNP","tavern"]
      ]
    },
    [")","NNP",")"],
    ["40th","CD","40th"],
    ["anniversary","JJ","annivers"],
    ["season","NN","season"],
    ["in","IN","in"],
    ["1993","CD","1993"],
    [".",".","."]
  ]
},
{
  "tag":"S",
  "content":
  [
    {
      "tag":"PERSON",
      "content":
      [
        ["Playwright","NNP","playwright"]
      ]
    },
    {
      "tag":"PERSON",
      "content":
      [
        ["Doug","NNP","doug"],
        ["Jones","NNP","jon"]
      ]
    },
    ["collaborated","VBD","collab"],
    ["with","IN","with"],
    ["composer","NN","compos"],
    {
      "tag":"PERSON",
      "content":
      [
        ["Charles","NNP","charl"],
        ["Strouse","NNP","strouse"]
      ]
    },
    ["(","NNP","("],
    {
      "tag":"PERSON",
      "content":
      [
        ["Annie","NNP","anny"]
      ]
    },
    [",",",",","],
    {
      "tag":"PERSON",
      "content":
      [
        ["Bye","NNP","bye"],
        ["Bye","NNP","bye"],
        ["Birdie","NNP","birdy"]
      ]
    },
    [",",",",","],
    {
      "tag":"ORGANIZATION",
      "content":
      [
        ["Applause","NNP","applaus"]
      ]
    },
    [")","NNP",")"],
    ["and","CC","and"],
    {
      "tag":"PERSON",
      "content":
      [
        ["Academy","NNP","academy"]
      ]
    },
    ["Award-winning","NNP","award-winning"],
    ["lyricist","NN","lyr"],
    {
      "tag":"PERSON",
      "content":
      [
        ["Sammy","NNP","sammy"],
        ["Cahn","NNP","cahn"]
      ]
    },
    [".",".","."]
  ]
},
{
  "tag":"S",
  "content":
  [
    ["*A","NN","*a"],
    ["made-for-television","NN","made-for-television"],
    ["film","NN","film"],
    ["entitled","VBD","entitl"],
    {
      "tag":"PERSON",
      "content":
      [
        ["Bojangles","NNP","bojangl"]
      ]
    },
    ["was","VBD","be"],
    ["released","VBN","releas"],
    ["in","IN","in"],
    ["2001","CD","2001"],
    [".",".","."]
  ]
},
{
  "tag":"S",
  "content":
  [
    ["The","DT","The"],
    ["film","NN","film"],
    ["earned","VBD","earn"],
    ["the","DT","the"],
    {
      "tag":"ORGANIZATION",
      "content":
      [
        ["NAACP","NNP","naacp"],
        ["Best","NNP","best"]
      ]
    },
    ["actor","NN","act"],
    {
      "tag":"PERSON",
      "content":
      [
        ["Award","NNP","award"]
      ]
    },
    ["for","IN","for"],
    {
      "tag":"ORGANIZATION",
      "content":
      [
        ["Gregory","NNP","greg"],
        ["Hines","NNPS","hin"]
      ]
    },
    ["'","POS","'"],
    ["performance","NN","perform"],
    ["as","IN","as"],
    {
      "tag":"PERSON",
      "content":
      [
        ["Robinson","NNP","robinson"]
      ]
    },
    [".",".","."]
  ]
},
{
  "tag":"S",
  "content":
  [
    ["*While","JJ","*while"],
    {
      "tag":"PERSON",
      "content":
      [
        ["Jerry","NNP","jerry"],
        ["Jeff","NNP","jeff"],
        ["Walker","NNP","walk"]
      ]
    },
    ["'s","POS","'s"],
    ["1968","CD","1968"],
    ["folk","NN","folk"],
    ["song","IN","song"],
    ["``","``","``"],
    {
      "tag":"PERSON",
      "content":
      [
        ["Mr.","NNP","mr."],
        ["Bojangles","NNP","bojangl"]
      ]
    },
    ["''","''","''"],
    ["is","VBZ","be"],
    ["often","RB","oft"],
    ["thought","VBN","think"],
    ["to","TO","to"],
    ["be","VB","be"],
    ["about","RB","about"],
    {
      "tag":"PERSON",
      "content":
      [
        ["Robinson","NNP","robinson"]
      ]
    },
    [",",",",","],
    ["it","PRP","it"],
    ["was","VBD","be"],
    ["actually","RB","act"],
    ["inspired","VBN","inspir"],
    ["by","IN","by"],
    {
      "tag":"PERSON",
      "content":
      [
        ["Walker","NNP","walk"]
      ]
    },
    ["'s","POS","'s"],
    ["encounter","NN","encount"],
    ["with","IN","with"],
    ["a","DT","a"],
    ["street","NN","street"],
    ["performer","NN","perform"],
    ["in","IN","in"],
    ["the","DT","the"],
    {
      "tag":"ORGANIZATION",
      "content":
      [
        ["New","NNP","new"],
        ["Orleans","NNP","orl"]
      ]
    },
    ["first","RB","first"],
    ["precinct","JJ","precinct"],
    ["jail","NN","jail"],
    [".",".","."]
  ]
},
{
  "tag":"S",
  "content":
  [
    ["*Arthur","JJ","*arthur"],
    {
      "tag":"GPE",
      "content":
      [
        ["Duncan","NNP","dunt"]
      ]
    },
    [",",",",","],
    ["an","DT","an"],
    ["exceptional","JJ","exceiv"],
    ["tap","NN","tap"],
    ["dancer","NN","dant"],
    ["in","IN","in"],
    ["his","PRP$","his"],
    ["own","JJ","own"],
    ["right","NN","right"],
    [",",",",","],
    ["frequently","RB","frequ"],
    ["paid","VBD","pay"],
    ["homage","NN","hom"],
    ["to","TO","to"],
    {
      "tag":"PERSON",
      "content":
      [
        ["Bill","NNP","bil"],
        ["Robinson","NNP","robinson"]
      ]
    },
    ["with","IN","with"],
    ["the","DT","the"],
    ["stair","NN","stair"],
    ["routine","NN","routin"],
    ["on","IN","on"],
    ["The","DT","The"],
    {
      "tag":"ORGANIZATION",
      "content":
      [
        ["Lawrence","NNP","lawr"],
        ["Welk","NNP","welk"],
        ["Show","NNP","show"]
      ]
    },
    [".",".","."]
  ]
},
{
  "tag":"S",
  "content":
  [
    ["*He","JJ","*he"],
    ["is","VBZ","be"],
    ["mentioned","VBN","ment"],
    ["in","IN","in"],
    ["the","DT","the"],
    {
      "tag":"PERSON",
      "content":
      [
        ["Larry","NNP","larry"],
        ["Norman","NNP","norm"]
      ]
    },
    ["song","IN","song"],
    ["``","``","``"],
    ["Nightmare","NNP","nightm"],
    ["''","''","''"],
    ["from","IN","from"],
    ["the","DT","the"],
    ["album","NN","alb"],
    ["So","RB","so"],
    {
      "tag":"ORGANIZATION",
      "content":
      [
        ["Long","JJ","long"],
        ["Ago","NNP","ago"]
      ]
    },
    ["the","DT","the"],
    {
      "tag":"FACILITY",
      "content":
      [
        ["Garden","NNP","gard"]
      ]
    },
    [".",".","."]
  ]
},
{
  "tag":"S",
  "content":
  [
    ["*In","JJ","*in"],
    ["the","DT","the"],
    ["All","NNP","al"],
    ["in","IN","in"],
    ["the","DT","the"],
    {
      "tag":"ORGANIZATION",
      "content":
      [
        ["Family","NNP","famy"]
      ]
    },
    ["episode","NN","episod"],
    ["``","``","``"],
    {
      "tag":"ORGANIZATION",
      "content":
      [
        ["Lionel","NNP","lionel"],
        ["Steps","NNP","step"]
      ]
    },
    ["Out","NNP","out"],
    ["''","''","''"],
    {
      "tag":"PERSON",
      "content":
      [
        ["Robinson","NNP","robinson"]
      ]
    },
    ["'s","POS","'s"],
    ["dancing","NN","dant"],
    ["with","IN","with"],
    {
      "tag":"PERSON",
      "content":
      [
        ["Shirley","NNP","shirley"],
        ["Temple","NNP","templ"]
      ]
    },
    ["was","VBD","be"],
    ["referenced","VBN","ref"],
    [".",".","."]
  ]
},
{
  "tag":"S",
  "content":
  [
    ["*","-NONE-","*"],
    ["The","DT","The"],
    {
      "tag":"ORGANIZATION",
      "content":
      [
        ["Grateful","NNP","grat"],
        ["Dead","NNP","dead"]
      ]
    },
    ["mention","NN","ment"],
    {
      "tag":"PERSON",
      "content":
      [
        ["Billy","NNP","bil"],
        ["Bojangles","NNP","bojangl"]
      ]
    },
    ["in","IN","in"],
    ["the","DT","the"],
    ["song","JJ","song"],
    {
      "tag":"PERSON",
      "content":
      [
        ["Alabama","NNP","alabam"],
        ["Getaway","NNP","getaway"]
      ]
    },
    [".",".","."]
  ]
},
{
  "tag":"S",
  "content":
  [
    ["==Filmography==","NN","==filmography=="],
    ["==See","NN","==see"],
    ["also==","NN","also=="],
    ["*Racism","NN","*racism"],
    ["in","IN","in"],
    ["the","DT","the"],
    {
      "tag":"GPE",
      "content":
      [
        ["United","NNP","unit"],
        ["States","NNPS","stat"]
      ]
    },
    ["*Blackface","NNP","*blackface"],
    ["==Notes==","NNP","==notes=="],
    ["==References==","NNP","==references=="],
    [";",":",";"],
    ["Sources","NNS","sourc"],
    ["*Some","VBP","*some"],
    ["biographical","JJ","biograph"],
    ["material","NN","mat"],
    ["is","VBZ","be"],
    ["from","IN","from"],
    ["the","DT","the"],
    {
      "tag":"ORGANIZATION",
      "content":
      [
        ["International","NNP","intern"],
        ["Tap","NNP","tap"],
        ["Association","NNP","assocy"],
        ["Newsletter","NNP","newslet"]
      ]
    },
    [",",",",","],
    ["May/June","JJ","may/june"],
    ["1993","CD","1993"],
    [".",".","."]
  ]
},
{
  "tag":"S",
  "content":
  [
    ["The","DT","The"],
    ["biographical","JJ","biograph"],
    ["material","NN","mat"],
    ["was","VBD","be"],
    ["extrapolated","VBN","extrapol"],
    ["from","IN","from"],
    ["The","DT","The"],
    {
      "tag":"ORGANIZATION",
      "content":
      [
        ["American","NNP","am"],
        ["Dictionary","NNP","dict"]
      ]
    },
    ["of","IN","of"],
    {
      "tag":"GPE",
      "content":
      [
        ["Biography","NNP","biograph"]
      ]
    },
    ["and","CC","and"],
    {
      "tag":"PERSON",
      "content":
      [
        ["Webster","NNP","webst"]
      ]
    },
    ["'s","POS","'s"],
    {
      "tag":"ORGANIZATION",
      "content":
      [
        ["American","NNP","am"],
        ["Biographies","NNPS","biograph"]
      ]
    },
    [".",".","."]
  ]
},
{
  "tag":"S",
  "content":
  [
    ["*Haskins","NNS","*haskins"],
    [",",",",","],
    {
      "tag":"PERSON",
      "content":
      [
        ["James","NNP","jam"]
      ]
    },
    [";",":",";"],
    {
      "tag":"PERSON",
      "content":
      [
        ["Mitgang","NNP","mitgang"]
      ]
    },
    [",",",",","],
    ["N.","NNP","n."],
    ["R.","NNP","r."],
    [",",",",","],
    {
      "tag":"PERSON",
      "content":
      [
        ["Mr.","NNP","mr."],
        ["Bojangles","NNP","bojangl"]
      ]
    },
    [":",":",":"],
    ["the","DT","the"],
    ["biography","NN","biograph"],
    ["of","IN","of"],
    {
      "tag":"PERSON",
      "content":
      [
        ["Bill","NNP","bil"],
        ["Robinson","NNP","robinson"]
      ]
    },
    ["(","NNP","("],
    {
      "tag":"GPE",
      "content":
      [
        ["New","NNP","new"],
        ["York","NNP","york"]
      ]
    },
    [":",":",":"],
    {
      "tag":"PERSON",
      "content":
      [
        ["William","NNP","william"],
        ["Morrow","NNP","morrow"]
      ]
    },
    [",",",",","],
    ["1988","CD","1988"],
    [")",":",")"],
    [".",".","."]
  ]
},
{
  "tag":"S",
  "content":
  [
    ["ISBN","NNP","isbn"],
    ["0-688-07203-8","CD","0-688-07203-8"],
    ["==External","JJ","==external"],
    ["links==","NN","links=="],
    ["*","-NONE-","*"],
    ["*","-NONE-","*"],
    ["*","-NONE-","*"],
    ["*Bojangles","NNS","*bojangles"],
    ["at","IN","at"],
    ["the","DT","the"],
    {
      "tag":"FACILITY",
      "content":
      [
        ["Evergreens","NNP","evergreen"],
        ["Cemetery","NNP","cemetery"]
      ]
    }
  ]
}]