[
{
  tag:'S',
  content:
  [
    {
      tag:'PERSON',
      content:
      [
        ['William','NNP','william']
      ]
    },
    {
      tag:'ORGANIZATION',
      content:
      [
        ['Smith','NNP','smi']
      ]
    },
    ['(','NNP','('],
    ['1790—1847','CD','1790—1847'],
    [')','CD',')'],
    ['was','VBD','be'],
    ['the','DT','the'],
    {
      tag:'GPE',
      content:
      [
        ['English','NNP','engl']
      ]
    },
    ['captain','NN','captain'],
    ['born','NN','born'],
    ['in','IN','in'],
    {
      tag:'GPE',
      content:
      [
        ['Blyth','NNP','bly']
      ]
    },
    [',',',',','],
    {
      tag:'GPE',
      content:
      [
        ['Northumberland','NNP','northumberland']
      ]
    },
    [',',',',','],
    ['who','WP','who'],
    ['discovered','VBN','discov'],
    ['the','DT','the'],
    {
      tag:'LOCATION',
      content:
      [
        ['South','NNP','sou'],
        ['Shetland','NNP','shetland']
      ]
    },
    {
      tag:'ORGANIZATION',
      content:
      [
        ['Islands','NNPS','island']
      ]
    },
    [',',',',','],
    ['an','DT','an'],
    ['archipelago','NN','archipelago'],
    ['off','IN','off'],
    ['the','DT','the'],
    {
      tag:'ORGANIZATION',
      content:
      [
        ['Graham','NNP','graham'],
        ['Land','NNP','land']
      ]
    },
    ['in','IN','in'],
    {
      tag:'GPE',
      content:
      [
        ['Antarctica','NNP','antarctic']
      ]
    },
    ['.','.','.']
  ]
},
{
  tag:'S',
  content:
  [
    ['His','PRP$','His'],
    ['discovery','NN','discovery'],
    ['was','VBD','be'],
    ['the','DT','the'],
    ['first','JJ','first'],
    ['ever','NN','ev'],
    ['made','VBN','mak'],
    ['south','NN','sou'],
    ['of','IN','of'],
    ['60°','CD','60°'],
    ['south','NN','sou'],
    ['latitude','NN','latitud'],
    [',',',',','],
    ['in','IN','in'],
    ['the','DT','the'],
    ['present','NN','pres'],
    {
      tag:'PERSON',
      content:
      [
        ['Antarctic','NNP','antarct'],
        ['Treaty','NNP','treaty']
      ]
    },
    ['area','NN','are'],
    ['.','.','.']
  ]
},
{
  tag:'S',
  content:
  [
    ['In','IN','In'],
    ['1819','CD','1819'],
    [',',',',','],
    ['while','IN','while'],
    ['sailing','NN','sail'],
    ['cargo','NN','cargo'],
    ['on','IN','on'],
    ['the','DT','the'],
    {
      tag:'ORGANIZATION',
      content:
      [
        ['Williams','NNP','william']
      ]
    },
    ['from','IN','from'],
    {
      tag:'PERSON',
      content:
      [
        ['Buenos','NNP','bueno'],
        ['Aires','NNP','air']
      ]
    },
    ['to','TO','to'],
    ['Valparaíso','NNP','valparaíso'],
    [',',',',','],
    ['he','PRP','he'],
    ['sailed','VBD','sail'],
    ['further','RB','far'],
    ['south','JJ','sou'],
    ['round','NN','round'],
    {
      tag:'PERSON',
      content:
      [
        ['Cape','NNP','cap'],
        ['Horn','NNP','horn']
      ]
    },
    ['in','IN','in'],
    ['an','DT','an'],
    ['attempt','NN','attempt'],
    ['to','TO','to'],
    ['catch','VB','catch'],
    ['the','DT','the'],
    ['right','NN','right'],
    ['winds','VBZ','wind'],
    ['.','.','.']
  ]
},
{
  tag:'S',
  content:
  [
    ['On','IN','On'],
    ['19','CD','19'],
    ['February','NNP','febru'],
    ['1819','CD','1819'],
    ['he','PRP','he'],
    ['spotted','VBD','spot'],
    ['the','DT','the'],
    ['new','JJ','new'],
    ['land','NN','land'],
    ['at','IN','at'],
    ['62°','CD','62°'],
    ['south','NN','sou'],
    ['latitude','NN','latitud'],
    ['and','CC','and'],
    ['60°','CD','60°'],
    ['west','NN','west'],
    ['longitude','NN','longitud'],
    [',',',',','],
    ['but','CC','but'],
    ['did','VBD','do'],
    ['not','RB','not'],
    ['land','VB','land'],
    ['on','IN','on'],
    ['it','PRP','it'],
    ['.','.','.']
  ]
},
{
  tag:'S',
  content:
  [
    ['The','DT','The'],
    ['naval','NN','nav'],
    ['authorities','NNS','auth'],
    ['did','VBD','do'],
    ['not','RB','not'],
    ['believe','VB','believ'],
    ['his','PRP$','his'],
    ['discovery','NN','discovery'],
    [',',',',','],
    ['but','CC','but'],
    ['on','IN','on'],
    ['a','DT','a'],
    ['subsequent','JJ','subsequ'],
    ['trip','NN','trip'],
    ['on','IN','on'],
    ['16','CD','16'],
    ['October','NNP','octob'],
    ['he','PRP','he'],
    ['landed','VBD','land'],
    ['on','IN','on'],
    ['the','DT','the'],
    ['largest','JJS','larg'],
    ['of','IN','of'],
    ['the','DT','the'],
    ['islands','NNS','island'],
    ['.','.','.']
  ]
},
{
  tag:'S',
  content:
  [
    ['He','PRP','He'],
    ['named','VBD','nam'],
    ['the','DT','the'],
    ['island','NN','island'],
    ['King','NNP','king'],
    {
      tag:'PERSON',
      content:
      [
        ['George','NNP','georg'],
        ['Island','NNP','island']
      ]
    },
    ['and','CC','and'],
    ['the','DT','the'],
    ['archipelago','NN','archipelago'],
    {
      tag:'LOCATION',
      content:
      [
        ['South','NNP','sou'],
        ['Shetland','NNP','shetland']
      ]
    },
    {
      tag:'ORGANIZATION',
      content:
      [
        ['Islands','NNPS','island']
      ]
    },
    ['in','IN','in'],
    ['honour','PRP$','honour'],
    ['of','IN','of'],
    ['the','DT','the'],
    {
      tag:'ORGANIZATION',
      content:
      [
        ['Shetland','NNP','shetland'],
        ['Islands','NNPS','island']
      ]
    },
    ['which','WDT','which'],
    ['are','VBP','be'],
    ['to','TO','to'],
    ['the','DT','the'],
    ['north','JJ','nor'],
    ['of','IN','of'],
    {
      tag:'GPE',
      content:
      [
        ['Scotland','NNP','scotland']
      ]
    },
    ['.','.','.']
  ]
},
{
  tag:'S',
  content:
  [
    ['At','IN','At'],
    ['the','DT','the'],
    ['beginning','NN','begin'],
    ['of','IN','of'],
    ['the','DT','the'],
    ['following','JJ','follow'],
    ['year','NN','year'],
    [',',',',','],
    ['1820','CD','1820'],
    [',',',',','],
    ['the','DT','the'],
    {
      tag:'PERSON',
      content:
      [
        ['Williams','NNP','william']
      ]
    },
    ['was','VBD','be'],
    ['chartered','VBN','chart'],
    ['by','IN','by'],
    ['the','DT','the'],
    {
      tag:'ORGANIZATION',
      content:
      [
        ['Royal','NNP','roy'],
        ['Navy','NNP','navy']
      ]
    },
    [',',',',','],
    ['and','CC','and'],
    ['dispatched','VBD','dispatch'],
    ['with','IN','with'],
    {
      tag:'PERSON',
      content:
      [
        ['Smith','NNP','smi']
      ]
    },
    ['and','CC','and'],
    {
      tag:'ORGANIZATION',
      content:
      [
        ['Lieutenant','NNP','lieut'],
        ['Edward','NNP','edward'],
        ['Bransfield','NNP','bransfield']
      ]
    },
    ['on','IN','on'],
    ['board','NN','board'],
    ['to','TO','to'],
    ['survey','NN','survey'],
    ['the','DT','the'],
    ['newly','RB','new'],
    ['discovered','VBN','discov'],
    ['islands','NNS','island'],
    [',',',',','],
    ['discovering','VBG','discov'],
    ['also','RB','also'],
    ['the','DT','the'],
    {
      tag:'ORGANIZATION',
      content:
      [
        ['Antarctic','NNP','antarct'],
        ['Peninsula','NNP','peninsul']
      ]
    },
    ['in','IN','in'],
    ['the','DT','the'],
    ['process','NN','process'],
    ['.','.','.']
  ]
},
{
  tag:'S',
  content:
  [
    ['==Honour==','NN','==honour=='],
    {
      tag:'PERSON',
      content:
      [
        ['Smith','NNP','smi'],
        ['Island','NNP','island']
      ]
    },
    ['and','CC','and'],
    {
      tag:'PERSON',
      content:
      [
        ['Cape','NNP','cap'],
        ['Smith','NNP','smi']
      ]
    },
    ['in','IN','in'],
    ['the','DT','the'],
    {
      tag:'LOCATION',
      content:
      [
        ['South','NNP','sou'],
        ['Shetland','NNP','shetland']
      ]
    },
    {
      tag:'ORGANIZATION',
      content:
      [
        ['Islands','NNPS','island']
      ]
    },
    [',',',',','],
    {
      tag:'ORGANIZATION',
      content:
      [
        ['Antarctica','NNP','antarctic']
      ]
    },
    ['are','VBP','be'],
    ['named','VBN','nam'],
    ['after','IN','after'],
    {
      tag:'PERSON',
      content:
      [
        ['William','NNP','william'],
        ['Smith','NNP','smi']
      ]
    },
    ['.','.','.']
  ]
},
{
  tag:'S',
  content:
  [
    ['==','NN','=='],
    {
      tag:'PERSON',
      content:
      [
        ['See','NNP','see']
      ]
    },
    ['also','RB','also'],
    ['==',':','=='],
    ['*','-NONE-','*'],
    {
      tag:'PERSON',
      content:
      [
        ['Livingston','NNP','livingston'],
        ['Island','NNP','island']
      ]
    },
    ['==Notes==','NNP','==notes=='],
    ['==','NNP','=='],
    ['Sources','NNPS','sourc'],
    ['==','NNP','=='],
    ['*','-NONE-','*'],
    ['Antarctic','JJ','antarct'],
    ['Voyages','NNS','voy'],
    ['and','CC','and'],
    ['Expeditions','NNS','expedit'],
    [',',',',','],
    ['retrieved','VBD','retriev'],
    ['on','IN','on'],
    ['March','NNP','march'],
    ['2','CD','2'],
    [',',',',','],
    ['2005','CD','2005'],
    ['*','-NONE-','*'],
    {
      tag:'PERSON',
      content:
      [
        ['Glasgow','NNP','glasgow'],
        ['Digital','NNP','digit'],
        ['Library','NNP','libr']
      ]
    },
    [':',':',':'],
    {
      tag:'GPE',
      content:
      [
        ['Scotland','NNP','scotland']
      ]
    },
    ['and','CC','and'],
    ['the','DT','the'],
    ['Antarctic','NNP','antarct'],
    [':',':',':'],
    {
      tag:'PERSON',
      content:
      [
        ['Nineteenth','NNP','nineteen'],
        ['Century','NNP','century']
      ]
    },
    [',',',',','],
    ['retrieved','VBD','retriev'],
    ['on','IN','on'],
    ['March','NNP','march'],
    ['2','CD','2'],
    [',',',',','],
    ['2005','CD','2005'],
    ['*','-NONE-','*'],
    {
      tag:'ORGANIZATION',
      content:
      [
        ['Ashgate','NNP','ashg']
      ]
    },
    ['Publishing','NNP','publ'],
    [':',':',':'],
    ['The','DT','The'],
    {
      tag:'ORGANIZATION',
      content:
      [
        ['Discovery','NNP','discovery']
      ]
    },
    ['of','IN','of'],
    ['the','DT','the'],
    {
      tag:'LOCATION',
      content:
      [
        ['South','NNP','sou'],
        ['Shetland','NNP','shetland']
      ]
    },
    {
      tag:'ORGANIZATION',
      content:
      [
        ['Islands','NNPS','island']
      ]
    },
    [',',',',','],
    ['1819-1820','CD','1819-1820'],
    [':',':',':'],
    ['The','DT','The'],
    {
      tag:'ORGANIZATION',
      content:
      [
        ['Journal','NNP','journ']
      ]
    },
    ['of','IN','of'],
    {
      tag:'ORGANIZATION',
      content:
      [
        ['Midshipman','NNP','midshipm']
      ]
    },
    ['C.','NNP','c.'],
    ['W.','NNP','w.'],
    ['Poynter','NNP','poynt'],
    [',',',',','],
    ['summary','JJ','sum'],
    ['of','IN','of'],
    ['the','DT','the'],
    ['book','NN','book'],
    ['retrieved','VBD','retriev'],
    ['on','IN','on'],
    ['March','NNP','march'],
    ['2','CD','2'],
    [',',',',','],
    ['2005','CD','2005']
  ]
}]