[
{
  tag:'S',
  content:
  [
    {
      tag:'PERSON',
      content:
      [
        ['George','NNP','georg']
      ]
    },
    {
      tag:'ORGANIZATION',
      content:
      [
        ['Bass','NNP','bass']
      ]
    },
    ['(','NNP','('],
    ['30','CD','30'],
    ['January','NNP','janu'],
    ['1771','CD','1771'],
    ['-',':','-'],
    ['after','IN','after'],
    ['5','CD','5'],
    ['February','NNP','febru'],
    ['1803','CD','1803'],
    [')','CD',')'],
    ['was','VBD','be'],
    ['a','DT','a'],
    {
      tag:'GPE',
      content:
      [
        ['British','JJ','brit']
      ]
    },
    ['naval','NN','nav'],
    ['surgeon','NN','surgeon'],
    ['and','CC','and'],
    ['explorer','NN','expl'],
    ['of','IN','of'],
    {
      tag:'GPE',
      content:
      [
        ['Australia','NNP','austral']
      ]
    },
    ['.','.','.']
  ]
},
{
  tag:'S',
  content:
  [
    ['==Early','RB','==early'],
    ['years==','JJ','years=='],
    {
      tag:'PERSON',
      content:
      [
        ['George','NNP','georg'],
        ['Bass','NNP','bass']
      ]
    },
    ['was','VBD','be'],
    ['born','VBN','bear'],
    ['on','IN','on'],
    ['30','CD','30'],
    ['January','NNP','janu'],
    ['1771','CD','1771'],
    ['at','IN','at'],
    {
      tag:'ORGANIZATION',
      content:
      [
        ['Aswarby','NNP','aswarby']
      ]
    },
    [',',',',','],
    ['a','DT','a'],
    ['hamlet','NN','hamlet'],
    ['near','IN','near'],
    {
      tag:'GPE',
      content:
      [
        ['Sleaford','NNP','sleaford']
      ]
    },
    [',',',',','],
    {
      tag:'GPE',
      content:
      [
        ['Lincolnshire','NNP','lincolnshir']
      ]
    },
    [',',',',','],
    ['the','DT','the'],
    ['son','NN','son'],
    ['of','IN','of'],
    ['a','DT','a'],
    ['tenant','JJ','ten'],
    ['farmer','NN','farm'],
    [',',',',','],
    {
      tag:'PERSON',
      content:
      [
        ['George','NNP','georg'],
        ['Bass','NNP','bass']
      ]
    },
    [',',',',','],
    ['and','CC','and'],
    ['a','DT','a'],
    ['local','JJ','loc'],
    ['beauty','NN','beauty'],
    ['named','VBD','nam'],
    {
      tag:'PERSON',
      content:
      [
        ['Sarah','NNP','sarah'],
        ['Nee','NNP','nee'],
        ['Newman','NNP','newm']
      ]
    },
    ['.','.','.']
  ]
},
{
  tag:'S',
  content:
  [
    ['His','PRP$','His'],
    ['father','NN','fath'],
    ['died','VBD','die'],
    ['in','IN','in'],
    ['1777','CD','1777'],
    ['when','WRB','when'],
    {
      tag:'PERSON',
      content:
      [
        ['Bass','NNP','bass']
      ]
    },
    ['was','VBD','be'],
    ['6','CD','6'],
    ['.','.','.']
  ]
},
{
  tag:'S',
  content:
  [
    ['He','PRP','He'],
    ['had','VBD','hav'],
    ['attended','VBN','attend'],
    {
      tag:'PERSON',
      content:
      [
        ['Boston','NNP','boston'],
        ['Grammar','NNP','gramm'],
        ['School','NNP','school']
      ]
    },
    ['and','CC','and'],
    ['later','JJ','lat'],
    ['trained','VBN','train'],
    ['in','IN','in'],
    ['medicine','NN','medicin'],
    ['at','IN','at'],
    ['the','DT','the'],
    ['hospital','JJ','hospit'],
    ['at','IN','at'],
    {
      tag:'GPE',
      content:
      [
        ['Boston','NNP','boston']
      ]
    },
    [',',',',','],
    {
      tag:'PERSON',
      content:
      [
        ['Lincolnshire','NNP','lincolnshir']
      ]
    },
    ['.','.','.']
  ]
},
{
  tag:'S',
  content:
  [
    ['At','IN','At'],
    ['the','DT','the'],
    ['age','NN','ag'],
    ['of','IN','of'],
    ['18','CD','18'],
    ['he','PRP','he'],
    ['was','VBD','be'],
    ['accepted','VBN','acceiv'],
    ['in','IN','in'],
    {
      tag:'GPE',
      content:
      [
        ['London','NNP','london']
      ]
    },
    ['as','IN','as'],
    ['a','DT','a'],
    ['member','NN','memb'],
    ['of','IN','of'],
    ['the','DT','the'],
    {
      tag:'ORGANIZATION',
      content:
      [
        ['Company','NNP','company'],
        ['of','IN','of'],
        ['Surgeons','NNPS','surgeon']
      ]
    },
    [',',',',','],
    ['and','CC','and'],
    ['in','IN','in'],
    ['1794','CD','1794'],
    ['he','PRP','he'],
    ['joined','VBD','join'],
    ['the','DT','the'],
    {
      tag:'ORGANIZATION',
      content:
      [
        ['Royal','NNP','roy'],
        ['Navy','NNP','navy']
      ]
    },
    ['as','IN','as'],
    ['a','DT','a'],
    ['surgeon','NN','surgeon'],
    ['.','.','.']
  ]
},
{
  tag:'S',
  content:
  [
    ['He','PRP','He'],
    ['arrived','VBD','ar'],
    ['in','IN','in'],
    {
      tag:'GPE',
      content:
      [
        ['Sydney','NNP','sydney']
      ]
    },
    ['in','IN','in'],
    {
      tag:'GPE',
      content:
      [
        ['New','NNP','new'],
        ['South','NNP','sou'],
        ['Wales','NNP','wal']
      ]
    },
    ['on','IN','on'],
    {
      tag:'ORGANIZATION',
      content:
      [
        ['HMS','NNP','hms'],
        ['Reliance','NNP','rely']
      ]
    },
    ['on','IN','on'],
    ['7','CD','7'],
    ['September','NNP','septemb'],
    ['1795','CD','1795'],
    ['.','.','.']
  ]
},
{
  tag:'S',
  content:
  [
    ['Also','RB','also'],
    ['on','IN','on'],
    ['the','DT','the'],
    ['voyage','NN','voy'],
    ['were','VBD','be'],
    {
      tag:'PERSON',
      content:
      [
        ['Matthew','NNP','matthew'],
        ['Flinders','NNP','flind']
      ]
    },
    [',',',',','],
    {
      tag:'PERSON',
      content:
      [
        ['John','NNP','john'],
        ['Hunter','NNP','hunt']
      ]
    },
    [',',',',','],
    {
      tag:'GPE',
      content:
      [
        ['Bennelong','NNP','bennelong']
      ]
    },
    [',',',',','],
    ['and','CC','and'],
    ['his','PRP$','his'],
    ['surgeon','NN','surgeon'],
    [''s','POS',''s'],
    ['assistant','NN','assist'],
    {
      tag:'PERSON',
      content:
      [
        ['William','NNP','william'],
        ['Martin','NNP','martin']
      ]
    },
    ['.','.','.']
  ]
},
{
  tag:'S',
  content:
  [
    ['==Two','CD','==Two'],
    ['voyages','NNS','voy'],
    ['of','IN','of'],
    ['the','DT','the'],
    {
      tag:'ORGANIZATION',
      content:
      [
        ['Tom','NNP','tom']
      ]
    },
    ['Thumb==','NNP','thumb=='],
    {
      tag:'PERSON',
      content:
      [
        ['Bass','NNP','bass']
      ]
    },
    ['had','VBD','hav'],
    ['brought','VBN','bring'],
    ['with','IN','with'],
    ['him','PRP','him'],
    ['on','IN','on'],
    ['the','DT','the'],
    ['Reliance','NNP','rely'],
    ['a','DT','a'],
    ['small','JJ','smal'],
    ['boat','NN','boat'],
    ['with','IN','with'],
    ['an','DT','an'],
    ['keel','NN','keel'],
    ['and','CC','and'],
    ['beam','NN','beam'],
    [',',',',','],
    ['which','WDT','which'],
    ['he','PRP','he'],
    ['called','VBD','cal'],
    ['the','DT','the'],
    {
      tag:'ORGANIZATION',
      content:
      [
        ['Tom','NNP','tom'],
        ['Thumb','NNP','thumb']
      ]
    },
    ['on','IN','on'],
    ['account','NN','account'],
    ['of','IN','of'],
    ['its','PRP$','its'],
    ['size','NN','siz'],
    ['.','.','.']
  ]
},
{
  tag:'S',
  content:
  [
    ['In','IN','In'],
    ['October','NNP','octob'],
    ['1795','CD','1795'],
    ['Bass','NNP','bass'],
    ['and','CC','and'],
    {
      tag:'ORGANIZATION',
      content:
      [
        ['Flinders','NNP','flind']
      ]
    },
    [',',',',','],
    ['accompanied','VBD','accompany'],
    ['by','IN','by'],
    {
      tag:'PERSON',
      content:
      [
        ['William','NNP','william'],
        ['Martin','NNP','martin']
      ]
    },
    ['sailed','VBD','sail'],
    ['the','DT','the'],
    {
      tag:'ORGANIZATION',
      content:
      [
        ['Tom','NNP','tom'],
        ['Thumb','NNP','thumb']
      ]
    },
    ['out','IN','out'],
    ['of','IN','of'],
    {
      tag:'GPE',
      content:
      [
        ['Port','NNP','port']
      ]
    },
    {
      tag:'PERSON',
      content:
      [
        ['Jackson','NNP','jackson']
      ]
    },
    ['to','TO','to'],
    {
      tag:'PERSON',
      content:
      [
        ['Botany','NNP','botany'],
        ['Bay','NNP','bay']
      ]
    },
    ['and','CC','and'],
    ['explored','VBD','expl'],
    ['the','DT','the'],
    {
      tag:'ORGANIZATION',
      content:
      [
        ['Georges','NNP','georg']
      ]
    },
    ['River','NNP','riv'],
    ['further','RB','far'],
    ['upstream','VB','upstream'],
    ['than','IN','than'],
    ['had','VBD','hav'],
    ['been','VBN','be'],
    ['done','VBN','do'],
    ['previously','RB','prevy'],
    ['by','IN','by'],
    ['the','DT','the'],
    ['colonists','NNS','colon'],
    ['.','.','.']
  ]
},
{
  tag:'S',
  content:
  [
    ['Their','PRP$','Their'],
    ['reports','NNS','report'],
    ['on','IN','on'],
    ['their','PRP$','their'],
    ['return','NN','return'],
    ['led','VBN','lead'],
    ['to','TO','to'],
    ['the','DT','the'],
    ['settlement','NN','settl'],
    ['of','IN','of'],
    {
      tag:'ORGANIZATION',
      content:
      [
        ['Banks','NNS','bank']
      ]
    },
    [''','POS','''],
    ['Town','NNP','town'],
    ['.','.','.']
  ]
},
{
  tag:'S',
  content:
  [
    ['In','IN','In'],
    ['March','NNP','march'],
    ['1796','CD','1796'],
    ['the','DT','the'],
    ['same','JJ','sam'],
    ['party','NN','party'],
    ['embarked','VBD','embark'],
    ['on','IN','on'],
    ['a','DT','a'],
    ['second','JJ','second'],
    ['voyage','NN','voy'],
    ['in','IN','in'],
    ['a','DT','a'],
    ['similar','JJ','simil'],
    ['small','JJ','smal'],
    ['boat','JJ','boat'],
    [',',',',','],
    ['which','WDT','which'],
    ['they','PRP','they'],
    ['also','RB','also'],
    ['called','VBN','cal'],
    ['the','DT','the'],
    {
      tag:'ORGANIZATION',
      content:
      [
        ['Tom','NNP','tom'],
        ['Thumb','NNP','thumb']
      ]
    },
    ['.','.','.']
  ]
},
{
  tag:'S',
  content:
  [
    ['During','IN','During'],
    ['this','DT','this'],
    ['trip','NN','trip'],
    ['they','PRP','they'],
    ['travelled','VBD','travel'],
    ['as','IN','as'],
    ['far','RB','far'],
    ['down','IN','down'],
    ['the','DT','the'],
    ['coast','NN','coast'],
    ['as','IN','as'],
    {
      tag:'PERSON',
      content:
      [
        ['Lake','NNP','lak'],
        ['Illawarra','NNP','illawarr']
      ]
    },
    [',',',',','],
    ['which','WDT','which'],
    ['they','PRP','they'],
    ['called','VBD','cal'],
    {
      tag:'PERSON',
      content:
      [
        ['Tom','NNP','tom'],
        ['Thumb','NNP','thumb'],
        ['Lagoon','NNP','lagoon']
      ]
    },
    ['.','.','.']
  ]
},
{
  tag:'S',
  content:
  [
    ['They','PRP','They'],
    ['discovered','VBD','discov'],
    ['and','CC','and'],
    ['explored','VBN','expl'],
    {
      tag:'PERSON',
      content:
      [
        ['Port','NNP','port'],
        ['Hacking','NNP','hack']
      ]
    },
    ['.','.','.']
  ]
},
{
  tag:'S',
  content:
  [
    ['Later','JJ','lat'],
    ['that','IN','that'],
    ['year','NN','year'],
    {
      tag:'PERSON',
      content:
      [
        ['Bass','NNP','bass']
      ]
    },
    ['discovered','VBD','discov'],
    ['good','JJ','good'],
    ['land','NN','land'],
    ['near','IN','near'],
    {
      tag:'PERSON',
      content:
      [
        ['Prospect','NNP','prospect'],
        ['Hill','NNP','hil']
      ]
    },
    [',',',',','],
    ['found','VBD','find'],
    ['lost','VBN','los'],
    ['cattle','NN','cattl'],
    ['brought','NN','brought'],
    ['out','IN','out'],
    ['with','IN','with'],
    ['the','DT','the'],
    {
      tag:'ORGANIZATION',
      content:
      [
        ['First','NNP','first'],
        ['Fleet','NNP','fleet']
      ]
    },
    [',',',',','],
    ['and','CC','and'],
    ['failed','VBD','fail'],
    ['in','IN','in'],
    ['an','DT','an'],
    ['attempt','NN','attempt'],
    ['to','TO','to'],
    ['cross','NNS','cross'],
    ['the','DT','the'],
    {
      tag:'ORGANIZATION',
      content:
      [
        ['Blue','NNP','blu'],
        ['Mountains','NNP','mountain']
      ]
    },
    ['.','.','.']
  ]
},
{
  tag:'S',
  content:
  [
    ['==Whaleboat','JJ','==whaleboat'],
    ['voyage','NN','voy'],
    ['to','TO','to'],
    {
      tag:'LOCATION',
      content:
      [
        ['Western','NNP','western']
      ]
    },
    ['Port==','NNP','port=='],
    ['In','NNP','in'],
    ['1797','CD','1797'],
    [',',',',','],
    ['without','IN','without'],
    {
      tag:'GPE',
      content:
      [
        ['Flinders','NNP','flind']
      ]
    },
    [',',',',','],
    ['in','IN','in'],
    ['an','DT','an'],
    ['open','JJ','op'],
    ['whaleboat','NN','whalebo'],
    ['with','IN','with'],
    ['a','DT','a'],
    ['crew','JJ','crew'],
    ['of','IN','of'],
    ['six','CD','six'],
    [',',',',','],
    {
      tag:'PERSON',
      content:
      [
        ['Bass','NNP','bass']
      ]
    },
    ['sailed','VBD','sail'],
    ['to','TO','to'],
    {
      tag:'PERSON',
      content:
      [
        ['Cape','NNP','cap'],
        ['Howe','NNP','how']
      ]
    },
    [',',',',','],
    ['the','DT','the'],
    ['farthest','JJS','farthest'],
    ['point','NN','point'],
    ['of','IN','of'],
    ['south-eastern','JJ','south-eastern'],
    {
      tag:'GPE',
      content:
      [
        ['Australia','NNP','austral']
      ]
    },
    ['.','.','.']
  ]
},
{
  tag:'S',
  content:
  [
    ['From','IN','From'],
    ['here','RB','her'],
    ['he','PRP','he'],
    ['went','VBD','go'],
    ['westwards','NNS','westward'],
    ['along','IN','along'],
    ['what','WP','what'],
    ['is','VBZ','be'],
    ['now','RB','now'],
    ['the','DT','the'],
    ['coast','NN','coast'],
    ['of','IN','of'],
    ['the','DT','the'],
    {
      tag:'GPE',
      content:
      [
        ['Gippsland','NNP','gippsland']
      ]
    },
    ['region','NN','reg'],
    ['of','IN','of'],
    {
      tag:'GPE',
      content:
      [
        ['Victoria','NNP','victor']
      ]
    },
    [',',',',','],
    ['to','TO','to'],
    {
      tag:'LOCATION',
      content:
      [
        ['Western','NNP','western'],
        ['Port','NNP','port'],
        ['Bay','NNP','bay']
      ]
    },
    [',',',',','],
    ['almost','RB','almost'],
    ['as','IN','as'],
    ['far','RB','far'],
    ['as','IN','as'],
    ['the','DT','the'],
    ['site','NN','sit'],
    ['of','IN','of'],
    ['present-day','JJ','present-day'],
    ['Melbourne','NNP','melbourn'],
    ['.','.','.']
  ]
},
{
  tag:'S',
  content:
  [
    ['His','PRP$','His'],
    ['belief','NN','believ'],
    ['that','IN','that'],
    ['a','DT','a'],
    ['strait','NN','strait'],
    ['separated','VBN','sep'],
    ['the','DT','the'],
    ['mainland','NN','mainland'],
    ['from','IN','from'],
    {
      tag:'PERSON',
      content:
      [
        ['Van','NNP','van'],
        ['Diemen','NNP','diem']
      ]
    },
    [''s','POS',''s'],
    {
      tag:'GPE',
      content:
      [
        ['Land','NNP','land']
      ]
    },
    ['(','NNP','('],
    ['now','RB','now'],
    {
      tag:'GPE',
      content:
      [
        ['Tasmania','NNP','tasman']
      ]
    },
    [')',':',')'],
    ['was','VBD','be'],
    ['backed','VBN','back'],
    ['up','RP','up'],
    ['by','IN','by'],
    ['his','PRP$','his'],
    ['astute','NN','astut'],
    ['observation','NN','observ'],
    ['of','IN','of'],
    ['the','DT','the'],
    ['rapid','JJ','rapid'],
    ['tide','NN','tid'],
    ['and','CC','and'],
    ['the','DT','the'],
    ['long','JJ','long'],
    ['south-western','JJ','south-western'],
    ['swell','NN','swel'],
    ['at','IN','at'],
    {
      tag:'FACILITY',
      content:
      [
        ['Wilsons','NNS','wilson'],
        ['Promontory','NNP','promont']
      ]
    },
    ['.','.','.']
  ]
},
{
  tag:'S',
  content:
  [
    {
      tag:'PERSON',
      content:
      [
        ['Bass','NNP','bass']
      ]
    },
    ['discovered','VBD','discov'],
    ['the','DT','the'],
    {
      tag:'GPE',
      content:
      [
        ['Kiama','NNP','kiam']
      ]
    },
    ['area','NN','are'],
    ['and','CC','and'],
    ['made','VBD','mak'],
    ['many','JJ','many'],
    ['notes','NNS','not'],
    ['on','IN','on'],
    ['its','PRP$','its'],
    ['botanical','JJ','bot'],
    ['complexity','NN','complex'],
    ['and','CC','and'],
    ['the','DT','the'],
    ['amazing','NN','amaz'],
    ['natural','JJ','nat'],
    ['phenomenon','NN','phenomenon'],
    [',',',',','],
    ['the','DT','the'],
    {
      tag:'ORGANIZATION',
      content:
      [
        ['Kiama','NNP','kiam'],
        ['Blowhole','NNP','blowhol']
      ]
    },
    [',',',',','],
    ['noting','VBG','not'],
    ['the','DT','the'],
    ['volcanic','JJ','volc'],
    ['geology','NN','geolog'],
    ['around','IN','around'],
    ['the','DT','the'],
    {
      tag:'ORGANIZATION',
      content:
      [
        ['Blowhole','NNP','blowhol']
      ]
    },
    ['and','CC','and'],
    ['contributed','VBD','contribut'],
    ['much','RB','much'],
    ['to','TO','to'],
    ['its','PRP$','its'],
    ['understanding','NN','understand'],
    ['.','.','.']
  ]
},
{
  tag:'S',
  content:
  [
    ['==Circumnavigation','NN','==circumnavigation'],
    ['of','IN','of'],
    {
      tag:'GPE',
      content:
      [
        ['Tasmania','NNP','tasman']
      ]
    },
    ['in','IN','in'],
    ['the','DT','the'],
    ['Norfolk==','NN','norfolk=='],
    ['In','IN','In'],
    ['1798','CD','1798'],
    [',',',',','],
    ['this','DT','this'],
    ['theory','NN','the'],
    ['was','VBD','be'],
    ['confirmed','VBN','confirm'],
    ['when','WRB','when'],
    {
      tag:'PERSON',
      content:
      [
        ['Bass','NNP','bass']
      ]
    },
    ['and','CC','and'],
    {
      tag:'ORGANIZATION',
      content:
      [
        ['Flinders','NNP','flind']
      ]
    },
    [',',',',','],
    ['in','IN','in'],
    ['the','DT','the'],
    ['sloop','NN','sloop'],
    {
      tag:'GPE',
      content:
      [
        ['Norfolk','NNP','norfolk']
      ]
    },
    [',',',',','],
    ['circumnavigated','VBD','circumnavig'],
    {
      tag:'PERSON',
      content:
      [
        ['Van','NNP','van'],
        ['Diemen','NNP','diem']
      ]
    },
    [''s','POS',''s'],
    {
      tag:'GPE',
      content:
      [
        ['Land','NNP','land']
      ]
    },
    ['.','.','.']
  ]
},
{
  tag:'S',
  content:
  [
    ['In','IN','In'],
    ['the','DT','the'],
    ['course','NN','cours'],
    ['of','IN','of'],
    ['this','DT','this'],
    ['voyage','NN','voy'],
    {
      tag:'PERSON',
      content:
      [
        ['Bass','NNP','bass']
      ]
    },
    ['found','VBD','find'],
    ['and','CC','and'],
    ['explored','VBN','expl'],
    ['the','DT','the'],
    ['estuary','JJ','estu'],
    ['of','IN','of'],
    ['the','DT','the'],
    {
      tag:'ORGANIZATION',
      content:
      [
        ['Derwent','NNP','derw'],
        ['River','NNP','riv']
      ]
    },
    [',',',',','],
    ['where','WRB','where'],
    ['the','DT','the'],
    ['city','NN','city'],
    ['of','IN','of'],
    {
      tag:'GPE',
      content:
      [
        ['Hobart','NNP','hobart']
      ]
    },
    ['would','MD','would'],
    ['be','VB','be'],
    ['founded','VBN','found'],
    [',',',',','],
    ['on','IN','on'],
    ['the','DT','the'],
    ['strength','NN','strength'],
    ['of','IN','of'],
    ['his','PRP$','his'],
    ['report','NN','report'],
    [',',',',','],
    ['in','IN','in'],
    ['1803','CD','1803'],
    ['.','.','.']
  ]
},
{
  tag:'S',
  content:
  [
    ['When','WRB','When'],
    ['the','DT','the'],
    ['two','CD','two'],
    ['returned','VBD','return'],
    ['to','TO','to'],
    {
      tag:'GPE',
      content:
      [
        ['Sydney','NNP','sydney']
      ]
    },
    [',',',',','],
    {
      tag:'PERSON',
      content:
      [
        ['Flinders','NNP','flind']
      ]
    },
    ['recommended','VBD','recommend'],
    ['to','TO','to'],
    ['Governor','NNP','govern'],
    {
      tag:'PERSON',
      content:
      [
        ['John','NNP','john'],
        ['Hunter','NNP','hunt']
      ]
    },
    ['that','IN','that'],
    ['the','DT','the'],
    ['passage','NN','pass'],
    ['between','IN','between'],
    {
      tag:'PERSON',
      content:
      [
        ['Van','NNP','van'],
        ['Diemen','NNP','diem']
      ]
    },
    [''s','POS',''s'],
    {
      tag:'GPE',
      content:
      [
        ['Land','NNP','land']
      ]
    },
    ['and','CC','and'],
    ['the','DT','the'],
    ['mainland','NN','mainland'],
    ['be','VB','be'],
    ['called','VBN','cal'],
    {
      tag:'ORGANIZATION',
      content:
      [
        ['Bass','NNP','bass'],
        ['Strait','NNP','strait']
      ]
    },
    ['.','.','.']
  ]
},
{
  tag:'S',
  content:
  [
    ['``','``','``'],
    ['This','DT','This'],
    ['was','VBD','be'],
    ['no','DT','no'],
    ['more','RBR','mor'],
    ['than','IN','than'],
    ['a','DT','a'],
    ['just','RB','just'],
    ['tribute','JJ','tribut'],
    ['to','TO','to'],
    ['my','PRP$','my'],
    ['worthy','JJ','worthy'],
    ['friend','NN','friend'],
    ['and','CC','and'],
    ['companion','NN','comp'],
    [',',',',','],
    ['''','''',''''],
    {
      tag:'ORGANIZATION',
      content:
      [
        ['Flinders','NNP','flind']
      ]
    },
    ['wrote','VBD','writ'],
    [',',',',','],
    ['``','``','``'],
    ['for','IN','for'],
    ['the','DT','the'],
    ['extreme','NN','extrem'],
    ['dangers','NNS','dang'],
    ['and','CC','and'],
    ['fatigues','NNS','fatigu'],
    ['he','PRP','he'],
    ['had','VBD','hav'],
    ['undergone','VBN','undergo'],
    [',',',',','],
    ['in','IN','in'],
    ['first','JJ','first'],
    ['entering','NN','ent'],
    ['it','PRP','it'],
    ['in','IN','in'],
    ['a','DT','a'],
    ['whaleboat','JJ','whalebo'],
    [',',',',','],
    ['and','CC','and'],
    ['to','TO','to'],
    ['the','DT','the'],
    ['correct','NN','correct'],
    ['judgement','NN','judg'],
    ['he','PRP','he'],
    ['had','VBD','hav'],
    ['formed','VBN','form'],
    [',',',',','],
    ['from','IN','from'],
    ['various','JJ','vary'],
    ['indications','NNS','ind'],
    [',',',',','],
    ['of','IN','of'],
    ['the','DT','the'],
    ['existence','NN','ex'],
    ['of','IN','of'],
    ['a','DT','a'],
    ['wide','JJ','wid'],
    ['opening','NN','op'],
    ['between','IN','between'],
    {
      tag:'PERSON',
      content:
      [
        ['Van','NNP','van'],
        ['Diemen','NNP','diem']
      ]
    },
    [''s','POS',''s'],
    {
      tag:'GPE',
      content:
      [
        ['Land','NNP','land']
      ]
    },
    ['and','CC','and'],
    {
      tag:'GPE',
      content:
      [
        ['New','NNP','new'],
        ['South','NNP','sou'],
        ['Wales','NNP','wal']
      ]
    },
    ['.','.','.']
  ]
},
{
  tag:'S',
  content:
  [
    ['``','``','``'],
    {
      tag:'PERSON',
      content:
      [
        ['Bass','NNP','bass']
      ]
    },
    ['was','VBD','be'],
    ['an','DT','an'],
    ['enthusiastic','JJ','enthusiast'],
    ['naturalist','NN','nat'],
    ['and','CC','and'],
    ['botanist','NN','bot'],
    [',',',',','],
    ['and','CC','and'],
    ['he','PRP','he'],
    ['forwarded','VBD','forward'],
    ['some','DT','some'],
    ['of','IN','of'],
    ['his','PRP$','his'],
    ['botanical','JJ','bot'],
    ['discoveries','NNS','discovery'],
    ['to','TO','to'],
    {
      tag:'PERSON',
      content:
      [
        ['Sir','NNP','sir'],
        ['Joseph','NNP','joseph'],
        ['Banks','NNP','bank']
      ]
    },
    ['in','IN','in'],
    {
      tag:'GPE',
      content:
      [
        ['London','NNP','london']
      ]
    },
    ['.','.','.']
  ]
},
{
  tag:'S',
  content:
  [
    ['``','``','``'],
    ['In','IN','In'],
    ['this','DT','this'],
    ['voyage','NN','voy'],
    ['of','IN','of'],
    ['fourteen','CD','fourteen'],
    ['weeks','NNS','week'],
    ['I','PRP','I'],
    ['collected','VBD','collect'],
    ['those','DT','those'],
    ['few','JJ','few'],
    ['plants','NNS','plant'],
    ['upon','IN','upon'],
    {
      tag:'PERSON',
      content:
      [
        ['Van','NNP','van'],
        ['Diemen','NNP','diem']
      ]
    },
    [''s','POS',''s'],
    {
      tag:'GPE',
      content:
      [
        ['Land','NNP','land']
      ]
    },
    ['which','WDT','which'],
    ['had','VBD','hav'],
    ['not','RB','not'],
    ['been','VBN','be'],
    ['familiar','JJ','famili'],
    ['to','TO','to'],
    ['me','PRP','me'],
    ['in','IN','in'],
    {
      tag:'GPE',
      content:
      [
        ['New','NNP','new'],
        ['South','NNP','sou'],
        ['Wales','NNP','wal']
      ]
    },
    [',',',',','],
    ['''','''',''''],
    ['he','PRP','he'],
    ['wrote','VBD','writ'],
    ['to','TO','to'],
    {
      tag:'GPE',
      content:
      [
        ['Banks','NNP','bank']
      ]
    },
    [',',',',','],
    ['``','``','``'],
    ['and','CC','and'],
    ['have','VBP','hav'],
    ['done','VBN','do'],
    ['myself','PRP','myself'],
    ['the','DT','the'],
    ['honour','NN','hono'],
    ['of','IN','of'],
    ['submitting','VBG','submit'],
    ['them','PRP','them'],
    ['to','TO','to'],
    ['your','PRP$','your'],
    ['inspection','NN','inspect'],
    ['.','.','.']
  ]
},
{
  tag:'S',
  content:
  [
    ['``','``','``'],
    ['He','PRP','He'],
    ['was','VBD','be'],
    ['made','VBN','mak'],
    ['an','DT','an'],
    ['honorary','JJ','hon'],
    ['member','NN','memb'],
    ['of','IN','of'],
    ['the','DT','the'],
    {
      tag:'ORGANIZATION',
      content:
      [
        ['Society','NNP','socy']
      ]
    },
    ['for','IN','for'],
    ['Promoting','NNP','promot'],
    ['Natural','NNP','nat'],
    ['History','NNP','hist'],
    [',',',',','],
    ['which','WDT','which'],
    ['later','JJ','lat'],
    ['became','VBD','becom'],
    ['the','DT','the'],
    {
      tag:'ORGANIZATION',
      content:
      [
        ['Linnean','NNP','lin'],
        ['Society','NNP','socy']
      ]
    },
    ['.','.','.']
  ]
},
{
  tag:'S',
  content:
  [
    ['Some','DT','Some'],
    ['of','IN','of'],
    ['his','PRP$','his'],
    ['observations','NNS','observ'],
    ['were','VBD','be'],
    ['published','VBN','publ'],
    ['in','IN','in'],
    ['the','DT','the'],
    ['second','JJ','second'],
    ['volume','NN','volum'],
    ['of','IN','of'],
    {
      tag:'PERSON',
      content:
      [
        ['David','NNP','david'],
        ['Collins','NNP','collin']
      ]
    },
    [''s','POS',''s'],
    ['An','DT','An'],
    ['Account','NNP','account'],
    ['of','IN','of'],
    ['the','DT','the'],
    {
      tag:'GPE',
      content:
      [
        ['English','NNP','engl']
      ]
    },
    ['colony','NN','colony'],
    ['in','IN','in'],
    {
      tag:'GPE',
      content:
      [
        ['New','NNP','new'],
        ['South','NNP','sou'],
        ['Wales','NNP','wal']
      ]
    },
    ['.','.','.']
  ]
},
{
  tag:'S',
  content:
  [
    ['He','PRP','He'],
    ['was','VBD','be'],
    ['one','CD','one'],
    ['of','IN','of'],
    ['the','DT','the'],
    ['first','JJ','first'],
    ['to','TO','to'],
    ['describe','VB','describ'],
    ['the','DT','the'],
    {
      tag:'GPE',
      content:
      [
        ['Australian','JJ','aust']
      ]
    },
    ['marsupial','JJ','marsup'],
    [',',',',','],
    ['the','DT','the'],
    ['wombat','NN','womb'],
    ['.','.','.']
  ]
},
{
  tag:'S',
  content:
  [
    ['==','NN','=='],
    {
      tag:'PERSON',
      content:
      [
        ['Marriage','NNP','marry']
      ]
    },
    ['and','CC','and'],
    ['trading','NN','trad'],
    ['==',':','=='],
    ['On','NNP','on'],
    ['8','CD','8'],
    ['October','NNP','octob'],
    ['1800','CD','1800'],
    [',',',',','],
    {
      tag:'PERSON',
      content:
      [
        ['George','NNP','georg']
      ]
    },
    ['married','VBD','marry'],
    {
      tag:'PERSON',
      content:
      [
        ['Elizabeth','NNP','elizabe'],
        ['Waterhouse','NNP','waterh']
      ]
    },
    ['at','IN','at'],
    {
      tag:'ORGANIZATION',
      content:
      [
        ['St.','NNP','st.'],
        ['James','NNP','jam'],
        ['Church','NNP','church']
      ]
    },
    [',',',',','],
    {
      tag:'GSP',
      content:
      [
        ['Westminster','NNP','westminst']
      ]
    },
    ['.','.','.']
  ]
},
{
  tag:'S',
  content:
  [
    ['She','PRP','She'],
    ['was','VBD','be'],
    ['the','DT','the'],
    ['sister','NN','sist'],
    ['of','IN','of'],
    {
      tag:'PERSON',
      content:
      [
        ['Henry','NNP','henry'],
        ['Waterhouse','NNP','waterh']
      ]
    },
    [',',',',','],
    {
      tag:'PERSON',
      content:
      [
        ['Bass','NNP','bass']
      ]
    },
    [''s','POS',''s'],
    ['former','JJ','form'],
    ['shipmate','NN','shipm'],
    [',',',',','],
    ['and','CC','and'],
    ['captain','VB','captain'],
    ['of','IN','of'],
    ['the','DT','the'],
    {
      tag:'GPE',
      content:
      [
        ['Reliance','NNP','rely']
      ]
    },
    ['.','.','.']
  ]
},
{
  tag:'S',
  content:
  [
    ['In','IN','In'],
    ['January','NNP','janu'],
    ['1801','CD','1801'],
    ['Bass','NNP','bass'],
    ['set','NN','set'],
    ['sail','NN','sail'],
    ['again','RB','again'],
    ['for','IN','for'],
    {
      tag:'PERSON',
      content:
      [
        ['Port','NNP','port'],
        ['Jackson','NNP','jackson']
      ]
    },
    [',',',',','],
    ['leaving','VBG','leav'],
    {
      tag:'PERSON',
      content:
      [
        ['Elizabeth','NNP','elizabe']
      ]
    },
    ['behind','IN','behind'],
    [',',',',','],
    ['and','CC','and'],
    ['though','IN','though'],
    ['the','DT','the'],
    ['couple','NN','coupl'],
    ['wrote','VBD','writ'],
    ['to','TO','to'],
    ['each','DT','each'],
    ['other','JJ','oth'],
    [',',',',','],
    ['they','PRP','they'],
    ['did','VBD','do'],
    ['not','RB','not'],
    ['meet','VB','meet'],
    ['again','RB','again'],
    [',',',',','],
    ['as','IN','as'],
    {
      tag:'ORGANIZATION',
      content:
      [
        ['Bass','NNP','bass']
      ]
    },
    ['never','RB','nev'],
    ['returned','VBD','return'],
    ['from','IN','from'],
    ['this','DT','this'],
    ['journey','NN','journey'],
    ['.','.','.']
  ]
},
{
  tag:'S',
  content:
  [
    {
      tag:'GPE',
      content:
      [
        ['Bass','NNP','bass']
      ]
    },
    ['and','CC','and'],
    ['a','DT','a'],
    ['syndicate','NN','synd'],
    ['of','IN','of'],
    ['friends','NNS','friend'],
    ['had','VBD','hav'],
    ['invested','VBN','invest'],
    ['some','DT','some'],
    ['£10,000','-NONE-','£10,000'],
    ['in','IN','in'],
    ['the','DT','the'],
    ['copper-sheathed','JJ','copper-sheathed'],
    ['brig','NN','brig'],
    ['the','DT','the'],
    {
      tag:'GPE',
      content:
      [
        ['Venus','NNP','ven']
      ]
    },
    [',',',',','],
    ['and','CC','and'],
    ['a','DT','a'],
    ['cargo','NN','cargo'],
    ['of','IN','of'],
    ['general','JJ','gen'],
    ['goods','NNS','good'],
    ['to','TO','to'],
    ['transport','VB','transport'],
    ['and','CC','and'],
    ['sell','VB','sel'],
    ['in','IN','in'],
    {
      tag:'GPE',
      content:
      [
        ['Port','NNP','port'],
        ['Jackson','NNP','jackson']
      ]
    },
    ['.','.','.']
  ]
},
{
  tag:'S',
  content:
  [
    {
      tag:'PERSON',
      content:
      [
        ['Bass','NNP','bass']
      ]
    },
    ['was','VBD','be'],
    ['the','DT','the'],
    ['owner-manager','JJ','owner-manag'],
    ['and','CC','and'],
    ['set','NN','set'],
    ['sail','NN','sail'],
    ['in','IN','in'],
    ['early','JJ','ear'],
    ['1801','CD','1801'],
    ['.','.','.']
  ]
},
{
  tag:'S',
  content:
  [
    ['(','NN','('],
    ['Among','IN','Among'],
    ['his','PRP$','his'],
    ['influential','JJ','influ'],
    ['friends','NNS','friend'],
    ['and','CC','and'],
    ['key','JJ','key'],
    ['business','NN','busy'],
    ['associates','NNS','assocy'],
    ['in','IN','in'],
    ['the','DT','the'],
    {
      tag:'ORGANIZATION',
      content:
      [
        ['Antipodes','NNP','antipod']
      ]
    },
    ['was','VBD','be'],
    ['the','DT','the'],
    ['principal','JJ','princip'],
    ['surgeon','NN','surgeon'],
    ['of','IN','of'],
    ['the','DT','the'],
    ['satellite','JJ','satellit'],
    {
      tag:'GPE',
      content:
      [
        ['British','JJ','brit']
      ]
    },
    ['colony','NN','colony'],
    ['on','IN','on'],
    {
      tag:'GPE',
      content:
      [
        ['Norfolk','NNP','norfolk'],
        ['Island','NNP','island']
      ]
    },
    [',',',',','],
    {
      tag:'PERSON',
      content:
      [
        ['Thomas','NNP','thoma'],
        ['Jamison','NNP','jamison']
      ]
    },
    [',',',',','],
    ['who','WP','who'],
    ['was','VBD','be'],
    ['subsequently','RB','subsequ'],
    ['appointed','VBN','appoint'],
    ['Surgeon-General','JJ','surgeon-general'],
    ['of','IN','of'],
    {
      tag:'GPE',
      content:
      [
        ['New','NNP','new'],
        ['South','NNP','sou'],
        ['Wales','NNP','wal']
      ]
    },
    ['.','.','.']
  ]
},
{
  tag:'S',
  content:
  [
    [')','NN',')'],
    ['On','IN','On'],
    ['passing','NN','pass'],
    ['through','IN','through'],
    {
      tag:'ORGANIZATION',
      content:
      [
        ['Bass','NNP','bass'],
        ['Strait','NNP','strait']
      ]
    },
    ['on','IN','on'],
    ['his','PRP$','his'],
    ['1801','CD','1801'],
    ['voyage','NN','voy'],
    ['he','PRP','he'],
    ['recorded','VBD','record'],
    ['it','PRP','it'],
    ['simply','RB','simply'],
    ['as','IN','as'],
    {
      tag:'ORGANIZATION',
      content:
      [
        ['Bass','NNP','bass'],
        ['Strait','NNP','strait']
      ]
    },
    [',',',',','],
    ['like','IN','like'],
    ['any','DT','any'],
    ['other','JJ','oth'],
    ['geographical','JJ','geograph'],
    ['feature','NN','feat'],
    ['.','.','.']
  ]
},
{
  tag:'S',
  content:
  [
    ['It','PRP','It'],
    ['seems','VBZ','seem'],
    [',',',',','],
    ['as','IN','as'],
    {
      tag:'ORGANIZATION',
      content:
      [
        ['Flinders','NNP','flind']
      ]
    },
    [''','POS','''],
    ['biographer','NN','biograph'],
    {
      tag:'PERSON',
      content:
      [
        ['Ernest','NNP','ernest'],
        ['Scott','NNP','scot']
      ]
    },
    ['observed','VBD','observ'],
    [',',',',','],
    ['that','IN','that'],
    {
      tag:'PERSON',
      content:
      [
        ['Bass','NNP','bass']
      ]
    },
    [''s','POS',''s'],
    ['natural','JJ','nat'],
    ['modesty','NN','modesty'],
    ['meant','NN','meant'],
    ['he','PRP','he'],
    ['felt','VBD','felt'],
    ['no','DT','no'],
    ['need','NN','nee'],
    ['to','TO','to'],
    ['say','VB','say'],
    ['``','``','``'],
    ['discovered','VBN','discov'],
    ['by','IN','by'],
    ['me','PRP','me'],
    ['''','''',''''],
    ['or','CC','or'],
    ['``','``','``'],
    ['named','VBN','nam'],
    ['after','IN','after'],
    ['me','PRP','me'],
    ['''','''',''''],
    ['.','.','.']
  ]
},
{
  tag:'S',
  content:
  [
    ['On','IN','On'],
    ['arrival','NN','ar'],
    {
      tag:'PERSON',
      content:
      [
        ['Bass','NNP','bass']
      ]
    },
    ['found','VBD','find'],
    ['the','DT','the'],
    ['colony','NN','colony'],
    ['awash','NN','awash'],
    ['with','IN','with'],
    ['goods','NNS','good'],
    ['and','CC','and'],
    ['he','PRP','he'],
    ['was','VBD','be'],
    ['unable','JJ','un'],
    ['to','TO','to'],
    ['sell','VB','sel'],
    ['his','PRP$','his'],
    ['cargo','NN','cargo'],
    ['.','.','.']
  ]
},
{
  tag:'S',
  content:
  [
    ['Governor','NNP','govern'],
    ['King','NNP','king'],
    ['was','VBD','be'],
    ['operating','VBG','op'],
    ['on','IN','on'],
    ['a','DT','a'],
    ['strict','NN','strict'],
    ['programme','NN','program'],
    ['of','IN','of'],
    ['economy','NN','econom'],
    ['and','CC','and'],
    ['would','MD','would'],
    ['not','RB','not'],
    ['take','VB','tak'],
    ['the','DT','the'],
    ['goods','NNS','good'],
    ['into','IN','into'],
    ['the','DT','the'],
    ['government','NN','govern'],
    ['store','NN','stor'],
    [',',',',','],
    ['even','RB','ev'],
    ['at','IN','at'],
    ['a','DT','a'],
    ['50','CD','50'],
    ['%','NN','%'],
    ['discount','NN','discount'],
    ['.','.','.']
  ]
},
{
  tag:'S',
  content:
  [
    ['What','WP','What'],
    ['King','NNP','king'],
    ['did','VBD','do'],
    ['though','IN','though'],
    ['was','VBD','be'],
    ['contract','NN','contract'],
    ['with','IN','with'],
    {
      tag:'PERSON',
      content:
      [
        ['Bass','NNP','bass']
      ]
    },
    ['to','TO','to'],
    ['ship','VB','ship'],
    ['salt','NN','salt'],
    ['pork','NN','pork'],
    ['from','IN','from'],
    {
      tag:'GPE',
      content:
      [
        ['Tahiti','NNP','tahit']
      ]
    },
    ['.','.','.']
  ]
},
{
  tag:'S',
  content:
  [
    {
      tag:'PERSON',
      content:
      [
        ['Food','NNP','food']
      ]
    },
    ['was','VBD','be'],
    ['scarce','NN','scarc'],
    ['in','IN','in'],
    {
      tag:'GPE',
      content:
      [
        ['Sydney','NNP','sydney']
      ]
    },
    ['at','IN','at'],
    ['that','DT','that'],
    ['time','NN','tim'],
    ['and','CC','and'],
    ['prices','NNS','pric'],
    ['were','VBD','be'],
    ['being','VBG','be'],
    ['driven','VBN','driv'],
    ['up','RP','up'],
    [',',',',','],
    ['yet','RB','yet'],
    ['pigs','VBZ','pig'],
    ['were','RB','wer'],
    ['plentiful','JJ','plenty'],
    ['in','IN','in'],
    ['the','DT','the'],
    {
      tag:'ORGANIZATION',
      content:
      [
        ['Society','NNP','socy'],
        ['Islands','NNPS','island']
      ]
    },
    ['and','CC','and'],
    ['King','NNP','king'],
    ['could','MD','could'],
    ['contract','VB','contract'],
    ['with','IN','with'],
    {
      tag:'PERSON',
      content:
      [
        ['Bass','NNP','bass']
      ]
    },
    ['at','IN','at'],
    ['6','CD','6'],
    ['pence','NN','penny'],
    ['a','DT','a'],
    ['pound','NN','pound'],
    ['where','WRB','where'],
    ['he','PRP','he'],
    [''d','MD',''d'],
    ['been','VB','be'],
    ['paying','VBG','pay'],
    ['a','DT','a'],
    ['shilling','VBG','shil'],
    ['(','NN','('],
    ['12','CD','12'],
    ['pence','NN','penny'],
    [')',':',')'],
    ['previously','RB','prevy'],
    ['.','.','.']
  ]
},
{
  tag:'S',
  content:
  [
    ['The','DT','The'],
    ['arrangement','NN','arrang'],
    ['suited','VBD','suit'],
    {
      tag:'PERSON',
      content:
      [
        ['King','NNP','king']
      ]
    },
    [''s','POS',''s'],
    ['thrift','NN','thrift'],
    [',',',',','],
    ['and','CC','and'],
    ['was','VBD','be'],
    ['profitable','JJ','profit'],
    ['for','IN','for'],
    {
      tag:'ORGANIZATION',
      content:
      [
        ['Bass','NNP','bass']
      ]
    },
    ['.','.','.']
  ]
},
{
  tag:'S',
  content:
  [
    ['With','IN','With'],
    ['his','PRP$','his'],
    ['partner','NN','partn'],
    {
      tag:'PERSON',
      content:
      [
        ['Charles','NNP','charl'],
        ['Bishop','NNP','bishop']
      ]
    },
    [',',',',','],
    {
      tag:'PERSON',
      content:
      [
        ['Bass','NNP','bass']
      ]
    },
    ['sailed','VBD','sail'],
    ['from','IN','from'],
    {
      tag:'GPE',
      content:
      [
        ['Sydney','NNP','sydney']
      ]
    },
    ['in','IN','in'],
    ['the','DT','the'],
    {
      tag:'ORGANIZATION',
      content:
      [
        ['Venus','NNP','ven']
      ]
    },
    ['for','IN','for'],
    {
      tag:'PERSON',
      content:
      [
        ['Dusky','NNP','dusky'],
        ['Sound','NNP','sound']
      ]
    },
    ['in','IN','in'],
    {
      tag:'GPE',
      content:
      [
        ['New','NNP','new'],
        ['Zealand','NNP','zealand']
      ]
    },
    ['where','WRB','where'],
    ['they','PRP','they'],
    ['spent','VBP','spend'],
    ['14','CD','14'],
    ['days','NNS','day'],
    ['stripping','VBG','strip'],
    ['iron','NN','iron'],
    ['from','IN','from'],
    ['the','DT','the'],
    ['wreck','NN','wreck'],
    ['of','IN','of'],
    {
      tag:'GPE',
      content:
      [
        ['Captain','NNP','captain']
      ]
    },
    {
      tag:'PERSON',
      content:
      [
        ['Brampton','NNP','brampton']
      ]
    },
    [''s','POS',''s'],
    ['old','JJ','old'],
    ['ship','NN','ship'],
    ['the','DT','the'],
    ['Endeavour','NNP','endeavo'],
    ['.','.','.']
  ]
},
{
  tag:'S',
  content:
  [
    ['This','DT','This'],
    ['was','VBD','be'],
    ['made','VBN','mak'],
    ['into','IN','into'],
    ['axes','NNS','ax'],
    ['which','WDT','which'],
    ['were','VBD','be'],
    ['used','VBN','us'],
    ['to','TO','to'],
    ['trade','VB','trad'],
    ['for','IN','for'],
    ['the','DT','the'],
    ['pork','NN','pork'],
    ['in','IN','in'],
    {
      tag:'GPE',
      content:
      [
        ['Tahiti','NNP','tahit']
      ]
    },
    ['before','IN','before'],
    ['returning','VBG','return'],
    ['with','IN','with'],
    ['the','DT','the'],
    ['latter','NN','lat'],
    ['to','TO','to'],
    {
      tag:'GPE',
      content:
      [
        ['Sydney','NNP','sydney']
      ]
    },
    ['by','IN','by'],
    ['November','NNP','novemb'],
    ['1802','CD','1802'],
    ['.','.','.']
  ]
},
{
  tag:'S',
  content:
  [
    ['In','IN','In'],
    ['January','NNP','janu'],
    ['1803','CD','1803'],
    {
      tag:'ORGANIZATION',
      content:
      [
        ['Bass','NNP','bass']
      ]
    },
    ['applied','VBD','apply'],
    ['to','TO','to'],
    ['King','NNP','king'],
    ['for','IN','for'],
    ['a','DT','a'],
    ['fishing','NN','fish'],
    ['monopoly','RB','monopo'],
    ['extending','VBG','extend'],
    ['from','IN','from'],
    ['a','DT','a'],
    ['line','NN','lin'],
    ['bisecting','VBG','bisect'],
    ['the','DT','the'],
    ['lower','JJR','low'],
    {
      tag:'GPE',
      content:
      [
        ['South','NNP','sou'],
        ['Island','NNP','island']
      ]
    },
    ['of','IN','of'],
    {
      tag:'GPE',
      content:
      [
        ['New','NNP','new'],
        ['Zealand','NNP','zealand']
      ]
    },
    ['from','IN','from'],
    {
      tag:'PERSON',
      content:
      [
        ['Dusky','NNP','dusky'],
        ['Sound','NNP','sound']
      ]
    },
    ['to','TO','to'],
    {
      tag:'PERSON',
      content:
      [
        ['Otago','NNP','otago'],
        ['Harbour','NNP','harbo']
      ]
    },
    ['-',':','-'],
    ['now','RB','now'],
    ['the','DT','the'],
    ['site','JJ','sit'],
    ['of','IN','of'],
    ['the','DT','the'],
    ['city','NN','city'],
    ['of','IN','of'],
    {
      tag:'GPE',
      content:
      [
        ['Dunedin','NNP','dunedin']
      ]
    },
    ['-',':','-'],
    ['and','CC','and'],
    ['including','VBG','includ'],
    ['all','DT','all'],
    ['the','DT','the'],
    ['lands','NNS','land'],
    ['and','CC','and'],
    ['seas','NNS','sea'],
    ['to','TO','to'],
    ['the','DT','the'],
    ['south','NN','sou'],
    [',',',',','],
    ['notably','RB','not'],
    ['the','DT','the'],
    {
      tag:'ORGANIZATION',
      content:
      [
        ['Antipodes','NNP','antipod'],
        ['Islands','NNPS','island']
      ]
    },
    [',',',',','],
    ['probably','RB','prob'],
    ['on','IN','on'],
    ['the','DT','the'],
    ['basis','NN','bas'],
    ['of','IN','of'],
    ['information','NN','inform'],
    ['from','IN','from'],
    ['his','PRP$','his'],
    ['brother-in-law','NN','brother-in-law'],
    {
      tag:'ORGANIZATION',
      content:
      [
        ['Waterhouse','NNP','waterh']
      ]
    },
    [',',',',','],
    ['the','DT','the'],
    ['discoverer','NN','discov'],
    ['of','IN','of'],
    ['the','DT','the'],
    {
      tag:'ORGANIZATION',
      content:
      [
        ['Antipodes','NNP','antipod']
      ]
    },
    ['archipelago','NN','archipelago'],
    ['.','.','.']
  ]
},
{
  tag:'S',
  content:
  [
    ['He','PRP','He'],
    ['expected','VBD','expect'],
    ['much','RB','much'],
    ['from','IN','from'],
    ['it','PRP','it'],
    [',',',',','],
    ['but','CC','but'],
    ['before','IN','before'],
    ['he','PRP','he'],
    ['heard','VBD','hear'],
    ['it','PRP','it'],
    ['had','VBD','hav'],
    ['been','VBN','be'],
    ['declined','VBN','declin'],
    ['he','PRP','he'],
    ['sailed','VBD','sail'],
    ['south','RB','sou'],
    ['from','IN','from'],
    {
      tag:'GPE',
      content:
      [
        ['Sydney','NNP','sydney']
      ]
    },
    ['never','RB','nev'],
    ['to','TO','to'],
    ['return','VB','return'],
    ['.','.','.']
  ]
},
{
  tag:'S',
  content:
  [
    {
      tag:'GPE',
      content:
      [
        ['Bass','NNP','bass']
      ]
    },
    ['and','CC','and'],
    {
      tag:'ORGANIZATION',
      content:
      [
        ['Flinders','NNP','flind']
      ]
    },
    ['were','VBD','be'],
    ['both','DT','both'],
    ['operating','NN','op'],
    ['out','IN','out'],
    ['of','IN','of'],
    {
      tag:'GPE',
      content:
      [
        ['Sydney','NNP','sydney']
      ]
    },
    ['during','IN','during'],
    ['these','DT','these'],
    ['times','NNS','tim'],
    [',',',',','],
    ['but','CC','but'],
    ['their','PRP$','their'],
    ['stays','NNS','stay'],
    ['there','RB','ther'],
    ['did','VBD','do'],
    ['n't','RB','n't'],
    ['coincide','VB','coincid'],
    ['.','.','.']
  ]
},
{
  tag:'S',
  content:
  [
    ['==','NN','=='],
    ['Final','NNP','fin'],
    ['voyage','NN','voy'],
    ['==',':','=='],
    ['What','WP','What'],
    ['became','VBD','becom'],
    ['of','IN','of'],
    {
      tag:'ORGANIZATION',
      content:
      [
        ['Bass','NNP','bass']
      ]
    },
    ['is','VBZ','be'],
    ['unknown','VBN','unknown'],
    ['.','.','.']
  ]
},
{
  tag:'S',
  content:
  [
    ['He','PRP','He'],
    ['set','VBD','set'],
    ['sail','NN','sail'],
    ['on','IN','on'],
    ['his','PRP$','his'],
    ['last','JJ','last'],
    ['voyage','NN','voy'],
    ['in','IN','in'],
    ['the','DT','the'],
    {
      tag:'GPE',
      content:
      [
        ['Venus','NNP','ven']
      ]
    },
    ['on','IN','on'],
    ['5','CD','5'],
    ['February','NNP','febru'],
    ['1803','CD','1803'],
    ['and','CC','and'],
    ['was','VBD','be'],
    ['not','RB','not'],
    ['seen','VBN','see'],
    ['again','RB','again'],
    ['.','.','.']
  ]
},
{
  tag:'S',
  content:
  [
    ['His','PRP$','His'],
    ['plan','NN','plan'],
    ['was','VBD','be'],
    ['to','TO','to'],
    ['go','VB','go'],
    ['to','TO','to'],
    {
      tag:'GPE',
      content:
      [
        ['Tahiti','NNP','tahit']
      ]
    },
    ['and','CC','and'],
    ['perhaps','RB','perhap'],
    ['on','IN','on'],
    ['to','TO','to'],
    ['the','DT','the'],
    {
      tag:'GPE',
      content:
      [
        ['Spanish','NNP','span']
      ]
    },
    ['colonies','VBZ','colony'],
    ['on','IN','on'],
    ['the','DT','the'],
    ['coast','NN','coast'],
    ['of','IN','of'],
    {
      tag:'GPE',
      content:
      [
        ['Chile','NNP','chil']
      ]
    },
    ['to','TO','to'],
    ['buy','VB','buy'],
    ['provisions','NNS','provid'],
    ['and','CC','and'],
    ['bring','VBG','bring'],
    ['them','PRP','them'],
    ['back','RB','back'],
    ['to','TO','to'],
    {
      tag:'GPE',
      content:
      [
        ['Sydney','NNP','sydney']
      ]
    },
    ['.','.','.']
  ]
},
{
  tag:'S',
  content:
  [
    ['It','PRP','It'],
    ['has','VBZ','hav'],
    ['been','VBN','be'],
    ['suspected','VBN','suspect'],
    {
      tag:'PERSON',
      content:
      [
        ['Bass','NNP','bass']
      ]
    },
    ['may','MD','may'],
    ['also','RB','also'],
    ['have','VB','hav'],
    ['planned','VBN','plan'],
    ['to','TO','to'],
    ['engage','NN','eng'],
    ['in','IN','in'],
    ['contraband','NN','contraband'],
    ['trade','NN','trad'],
    ['in','IN','in'],
    {
      tag:'GPE',
      content:
      [
        ['Chile','NNP','chil']
      ]
    },
    ['.','.','.']
  ]
},
{
  tag:'S',
  content:
  [
    {
      tag:'GPE',
      content:
      [
        ['Spain','NNP','spain']
      ]
    },
    ['reserved','VBD','reserv'],
    ['the','DT','the'],
    ['import','NN','import'],
    ['of','IN','of'],
    ['goods','NNS','good'],
    ['into','IN','into'],
    ['her','PRP$','her'],
    ['colonies','NNS','colony'],
    ['for','IN','for'],
    {
      tag:'GPE',
      content:
      [
        ['Spanish','NNP','span']
      ]
    },
    ['ships','NNS','ship'],
    ['and','CC','and'],
    {
      tag:'GPE',
      content:
      [
        ['Spanish','NNP','span']
      ]
    },
    ['merchants','NNS','merch'],
    ['.','.','.']
  ]
},
{
  tag:'S',
  content:
  [
    ['But','CC','But'],
    ['the','DT','the'],
    ['colonists','NNS','colon'],
    ['needed','VBD','nee'],
    ['more','JJR','mor'],
    ['than','IN','than'],
    ['they','PRP','they'],
    ['could','MD','could'],
    ['supply','RB','supply'],
    ['and','CC','and'],
    ['shortages','NNS','short'],
    ['and','CC','and'],
    ['heavy','JJ','heavy'],
    ['taxation','NN','tax'],
    ['caused','VBD','caus'],
    ['high','JJ','high'],
    ['prices','NNS','pric'],
    [',',',',','],
    ['encouraging','VBG','enco'],
    ['an','DT','an'],
    ['extensive','JJ','extend'],
    ['illegal','JJ','illeg'],
    ['trade','NN','trad'],
    ['with','IN','with'],
    ['foreign','JJ','foreign'],
    ['vessels','NNS','vessel'],
    ['.','.','.']
  ]
},
{
  tag:'S',
  content:
  [
    {
      tag:'GPE',
      content:
      [
        ['Port','NN','port']
      ]
    },
    {
      tag:'PERSON',
      content:
      [
        ['Jackson','NNP','jackson']
      ]
    },
    ['was','VBD','be'],
    ['a','DT','a'],
    ['well-known','JJ','well-known'],
    ['base','NN','bas'],
    ['for','IN','for'],
    ['such','JJ','such'],
    ['smuggling','NN','smuggl'],
    ['(',':','('],
    {
      tag:'GPE',
      content:
      [
        ['Britain','NNP','britain']
      ]
    },
    ['had','VBD','hav'],
    ['no','DT','no'],
    ['great','JJ','gre'],
    ['friendship','NN','friend'],
    ['with','IN','with'],
    {
      tag:'GPE',
      content:
      [
        ['Spain','NNP','spain']
      ]
    },
    ['at','IN','at'],
    ['that','DT','that'],
    ['time','NN','tim'],
    ['so','RB','so'],
    {
      tag:'GPE',
      content:
      [
        ['British','JJ','brit']
      ]
    },
    ['authorities','NNS','auth'],
    ['were','VBD','be'],
    ['unconcerned','VBN','unconcern'],
    [')','-NONE-',')'],
    ['.','.','.']
  ]
},
{
  tag:'S',
  content:
  [
    {
      tag:'PERSON',
      content:
      [
        ['Bass','NNP','bass']
      ]
    },
    ['still','RB','stil'],
    ['had','VBD','hav'],
    ['much','RB','much'],
    ['of','IN','of'],
    ['the','DT','the'],
    ['general','JJ','gen'],
    ['cargo','NN','cargo'],
    ['he','PRP','he'],
    [''d','MD',''d'],
    ['brought','VB','bring'],
    ['to','TO','to'],
    {
      tag:'GPE',
      content:
      [
        ['Sydney','NNP','sydney']
      ]
    },
    ['in','IN','in'],
    ['1801','CD','1801'],
    ['and','CC','and'],
    ['he','PRP','he'],
    ['may','MD','may'],
    ['well','RB','wel'],
    ['have','VB','hav'],
    ['been','VBN','be'],
    ['tempted','VBN','tempt'],
    ['to','TO','to'],
    ['take','VB','tak'],
    ['some','DT','some'],
    ['to','TO','to'],
    {
      tag:'GPE',
      content:
      [
        ['Chile','NNP','chil']
      ]
    },
    ['.','.','.']
  ]
},
{
  tag:'S',
  content:
  [
    ['Two','CD','Two'],
    ['of','IN','of'],
    ['his','PRP$','his'],
    ['last','JJ','last'],
    ['letters','NNS','let'],
    ['have','VBP','hav'],
    ['hints','NNS','hint'],
    ['at','IN','at'],
    ['a','DT','a'],
    ['venture','NN','vent'],
    ['which','WDT','which'],
    ['he','PRP','he'],
    ['could','MD','could'],
    ['not','RB','not'],
    ['name','VB','nam'],
    ['.','.','.']
  ]
},
{
  tag:'S',
  content:
  [
    ['But','CC','But'],
    ['in','IN','in'],
    ['any','DT','any'],
    ['case','NN','cas'],
    ['he','PRP','he'],
    ['set','VBD','set'],
    ['off','RP','off'],
    ['in','IN','in'],
    ['1803','CD','1803'],
    [',',',',','],
    ['with','IN','with'],
    ['a','DT','a'],
    ['diplomatic','JJ','diplom'],
    ['letter','NN','let'],
    ['from','IN','from'],
    ['Governor','NNP','govern'],
    ['King','NNP','king'],
    ['attesting','NN','attest'],
    ['his','PRP$','his'],
    ['bona-fides','NNS','bona-fides'],
    ['and','CC','and'],
    ['that','IN','that'],
    ['his','PRP$','his'],
    ['sole','NN','sol'],
    ['purpose','NN','purpos'],
    ['if','IN','if'],
    ['he','PRP','he'],
    ['were','VBD','be'],
    ['on','IN','on'],
    ['the','DT','the'],
    {
      tag:'LOCATION',
      content:
      [
        ['West','NNP','west']
      ]
    },
    ['coast','NN','coast'],
    ['of','IN','of'],
    {
      tag:'GPE',
      content:
      [
        ['South','NNP','sou'],
        ['America','NNP','americ']
      ]
    },
    ['would','MD','would'],
    ['be','VB','be'],
    ['in','IN','in'],
    ['procuring','NN','proc'],
    ['provisions','NNS','provid'],
    ['.','.','.']
  ]
},
{
  tag:'S',
  content:
  [
    ['As','IN','As'],
    ['many','JJ','many'],
    ['months','NNS','mon'],
    ['passed','VBD','pass'],
    ['with','IN','with'],
    ['no','DT','no'],
    ['word','NN','word'],
    ['of','IN','of'],
    ['his','PRP$','his'],
    ['arrival','NN','ar'],
    ['Governor','NNP','govern'],
    ['King','NNP','king'],
    ['and','CC','and'],
    {
      tag:'ORGANIZATION',
      content:
      [
        ['Bass','NNP','bass']
      ]
    },
    [''s','POS',''s'],
    ['friends','NNS','friend'],
    ['in','IN','in'],
    {
      tag:'GPE',
      content:
      [
        ['Sydney','NNP','sydney']
      ]
    },
    ['were','VBD','be'],
    ['forced','VBN','forc'],
    ['to','TO','to'],
    ['accept','VB','acceiv'],
    ['that','IN','that'],
    ['he','PRP','he'],
    ['had','VBD','hav'],
    ['met','VBN','meet'],
    ['some','DT','some'],
    ['misfortune','NN','misfortun'],
    ['.','.','.']
  ]
},
{
  tag:'S',
  content:
  [
    ['In','IN','In'],
    {
      tag:'GPE',
      content:
      [
        ['England','NNP','england']
      ]
    },
    ['in','IN','in'],
    ['January','NNP','janu'],
    ['1806','CD','1806'],
    {
      tag:'PERSON',
      content:
      [
        ['Bass','NNP','bass']
      ]
    },
    ['was','VBD','be'],
    ['listed','VBN','list'],
    ['by','IN','by'],
    ['the','DT','the'],
    {
      tag:'ORGANIZATION',
      content:
      [
        ['Admiralty','NNP','admiral']
      ]
    },
    ['as','IN','as'],
    ['lost','VBN','los'],
    ['at','IN','at'],
    ['sea','NN','sea'],
    ['and','CC','and'],
    ['later','JJ','lat'],
    ['that','IN','that'],
    ['year','NN','year'],
    {
      tag:'PERSON',
      content:
      [
        ['Elizabeth','NNP','elizabe']
      ]
    },
    ['was','VBD','be'],
    ['granted','VBN','grant'],
    ['an','DT','an'],
    ['annuity','NN','annu'],
    ['from','IN','from'],
    ['the','DT','the'],
    ['widows','NNS','widow'],
    [''','POS','''],
    ['fund','NN','fund'],
    [',',',',','],
    ['back','RB','back'],
    ['dated','VBN','dat'],
    ['to','TO','to'],
    ['when','WRB','when'],
    {
      tag:'PERSON',
      content:
      [
        ['Bass','NNP','bass']
      ]
    },
    [''s','POS',''s'],
    ['half-pay','JJ','half-pay'],
    ['had','NN','had'],
    ['ended','VBD','end'],
    ['in','IN','in'],
    ['June','NNP','jun'],
    ['1803','CD','1803'],
    ['.','.','.']
  ]
},
{
  tag:'S',
  content:
  [
    ['(','NN','('],
    {
      tag:'ORGANIZATION',
      content:
      [
        ['Bass','NNP','bass']
      ]
    },
    ['had','VBD','hav'],
    ['made','VBN','mak'],
    ['the','DT','the'],
    ['usual','JJ','us'],
    ['contributions','NNS','contribut'],
    ['to','TO','to'],
    ['the','DT','the'],
    ['fund','NN','fund'],
    ['from','IN','from'],
    ['his','PRP$','his'],
    ['salary','NN','sal'],
    ['.','.','.']
  ]
},
{
  tag:'S',
  content:
  [
    [')','NN',')'],
    ['==','``','=='],
    ['Speculation','NN','spec'],
    ['on','IN','on'],
    {
      tag:'ORGANIZATION',
      content:
      [
        ['Bass','NNP','bass']
      ]
    },
    [''s','POS',''s'],
    ['fate','NN','fat'],
    ['==',':','=='],
    ['A','DT','A'],
    ['good','JJ','good'],
    ['deal','NN','deal'],
    ['of','IN','of'],
    ['speculation','NN','spec'],
    ['has','VBZ','hav'],
    ['taken','VBN','tak'],
    ['place','NN','plac'],
    ['about','IN','about'],
    {
      tag:'PERSON',
      content:
      [
        ['Bass','NNP','bass']
      ]
    },
    [''s','POS',''s'],
    ['fate','NN','fat'],
    ['.','.','.']
  ]
},
{
  tag:'S',
  content:
  [
    ['One','CD','One'],
    ['story','NN','story'],
    [',',',',','],
    ['attributed','VBD','attribut'],
    ['to','TO','to'],
    {
      tag:'PERSON',
      content:
      [
        ['William','NNP','william'],
        ['Campbell','NNP','campbel']
      ]
    },
    ['of','IN','of'],
    ['the','DT','the'],
    ['brig','NN','brig'],
    {
      tag:'PERSON',
      content:
      [
        ['Harrington','NNP','harrington']
      ]
    },
    ['has','VBZ','hav'],
    ['it','PRP','it'],
    ['that','IN','that'],
    {
      tag:'PERSON',
      content:
      [
        ['Bass','NNP','bass']
      ]
    },
    ['was','VBD','be'],
    ['captured','VBN','capt'],
    ['by','IN','by'],
    ['the','DT','the'],
    {
      tag:'GPE',
      content:
      [
        ['Spanish','NNP','span']
      ]
    },
    ['in','IN','in'],
    {
      tag:'GPE',
      content:
      [
        ['Chile','NNP','chil']
      ]
    },
    ['and','CC','and'],
    ['sent','NN','sent'],
    ['to','TO','to'],
    ['the','DT','the'],
    ['silver','NN','silv'],
    ['mines','NNS','min'],
    ['.','.','.']
  ]
},
{
  tag:'S',
  content:
  [
    ['The','DT','The'],
    {
      tag:'ORGANIZATION',
      content:
      [
        ['Harrington','NNP','harrington']
      ]
    },
    ['was','VBD','be'],
    ['engaged','VBN','eng'],
    ['in','IN','in'],
    ['smuggling','NN','smuggl'],
    ['and','CC','and'],
    ['returned','VBD','return'],
    ['to','TO','to'],
    {
      tag:'GPE',
      content:
      [
        ['Sydney','NNP','sydney']
      ]
    },
    ['some','DT','some'],
    ['three','CD','three'],
    ['months','NNS','mon'],
    ['after','IN','after'],
    {
      tag:'PERSON',
      content:
      [
        ['Bass','NNP','bass']
      ]
    },
    [''s','POS',''s'],
    ['departure','NN','depart'],
    ['.','.','.']
  ]
},
{
  tag:'S',
  content:
  [
    ['However','RB','howev'],
    [',',',',','],
    ['this','DT','this'],
    ['story','NN','story'],
    ['dates','VBZ','dat'],
    ['from','IN','from'],
    ['1811','CD','1811'],
    ['in','IN','in'],
    ['a','DT','a'],
    ['report','NN','report'],
    ['by','IN','by'],
    {
      tag:'PERSON',
      content:
      [
        ['William','NNP','william'],
        ['Fitzmaurice','NNP','fitzma']
      ]
    },
    ['.','.','.']
  ]
},
{
  tag:'S',
  content:
  [
    ['There','EX','There'],
    ['are','VBP','be'],
    ['good','JJ','good'],
    ['records','NNS','record'],
    ['of','IN','of'],
    {
      tag:'GPE',
      content:
      [
        ['Campbell','NNP','campbel']
      ]
    },
    ['in','IN','in'],
    ['1803','CD','1803'],
    [',',',',','],
    ['and','CC','and'],
    ['then','RB','then'],
    ['in','IN','in'],
    ['1805','CD','1805'],
    ['when','WRB','when'],
    ['he','PRP','he'],
    ['captured','VBD','capt'],
    ['a','DT','a'],
    {
      tag:'GPE',
      content:
      [
        ['Spanish','NNP','span']
      ]
    },
    ['ship','NN','ship'],
    [',',',',','],
    ['but','CC','but'],
    {
      tag:'ORGANIZATION',
      content:
      [
        ['Bass','NNP','bass']
      ]
    },
    ['is','VBZ','be'],
    ['not','RB','not'],
    ['mentioned','VBN','ment'],
    ['at','IN','at'],
    ['those','DT','those'],
    ['times','NNS','tim'],
    ['.','.','.']
  ]
},
{
  tag:'S',
  content:
  [
    ['(','NN','('],
    ['Three','CD','Three'],
    ['months','NNS','mon'],
    ['also','RB','also'],
    ['seems','VBZ','seem'],
    ['a','DT','a'],
    ['little','RB','littl'],
    ['short','JJ','short'],
    ['for','IN','for'],
    {
      tag:'ORGANIZATION',
      content:
      [
        ['Bass','NNP','bass']
      ]
    },
    ['to','TO','to'],
    ['reach','VB','reach'],
    {
      tag:'GPE',
      content:
      [
        ['Chile','NNP','chil']
      ]
    },
    ['and','CC','and'],
    ['then','RB','then'],
    ['the','DT','the'],
    {
      tag:'ORGANIZATION',
      content:
      [
        ['Harrington','NNP','harrington']
      ]
    },
    ['to','TO','to'],
    ['get','VB','get'],
    ['back','RB','back'],
    ['to','TO','to'],
    {
      tag:'GPE',
      content:
      [
        ['Sydney','NNP','sydney']
      ]
    },
    ['.','.','.']
  ]
},
{
  tag:'S',
  content:
  [
    [')','NN',')'],
    ['Another','DT','Another'],
    ['factor','NN','fact'],
    ['against','IN','against'],
    ['the','DT','the'],
    {
      tag:'LOCATION',
      content:
      [
        ['South','NNP','sou'],
        ['American','NNP','am']
      ]
    },
    ['story','NN','story'],
    ['is','VBZ','be'],
    ['that','IN','that'],
    ['all','DT','all'],
    {
      tag:'GPE',
      content:
      [
        ['British','JJ','brit']
      ]
    },
    ['prisoners','NNS','prison'],
    ['held','VBD','hold'],
    ['by','IN','by'],
    ['the','DT','the'],
    {
      tag:'GPE',
      content:
      [
        ['Spanish','NNP','span']
      ]
    },
    ['in','IN','in'],
    {
      tag:'GPE',
      content:
      [
        ['Chile','NNP','chil']
      ]
    },
    ['and','CC','and'],
    {
      tag:'PERSON',
      content:
      [
        ['Peru','NNP','peru']
      ]
    },
    ['were','VBD','be'],
    ['freed','VBN','fre'],
    ['in','IN','in'],
    ['1808','CD','1808'],
    ['and','CC','and'],
    ['returned','VBD','return'],
    ['to','TO','to'],
    {
      tag:'GPE',
      content:
      [
        ['Europe','NNP','europ']
      ]
    },
    ['.','.','.']
  ]
},
{
  tag:'S',
  content:
  [
    ['If','IN','If'],
    ['the','DT','the'],
    ['crew','NN','crew'],
    ['of','IN','of'],
    ['the','DT','the'],
    {
      tag:'PERSON',
      content:
      [
        ['Venus','NNP','ven']
      ]
    },
    ['had','VBD','hav'],
    ['indeed','VBN','indee'],
    ['been','VBN','be'],
    ['captured','VBN','capt'],
    ['then','RB','then'],
    ['none','NN','non'],
    ['of','IN','of'],
    ['the','DT','the'],
    ['25','CD','25'],
    ['survived','VBD','surv'],
    ['.','.','.']
  ]
},
{
  tag:'S',
  content:
  [
    {
      tag:'PERSON',
      content:
      [
        ['Adventurer','NNP','adv']
      ]
    },
    {
      tag:'PERSON',
      content:
      [
        ['Jorgen','NNP','jorg'],
        ['Jorgenson','NNP','jorgenson']
      ]
    },
    ['wrote','VBD','writ'],
    ['about','IN','about'],
    {
      tag:'ORGANIZATION',
      content:
      [
        ['Bass','NNP','bass']
      ]
    },
    ['in','IN','in'],
    ['his','PRP$','his'],
    ['1835','CD','1835'],
    ['autobiography','NN','autobiograph'],
    [',',',',','],
    ['claiming','VBG','claim'],
    {
      tag:'PERSON',
      content:
      [
        ['Bass','NNP','bass']
      ]
    },
    ['had','VBD','hav'],
    ['attempted','VBN','attempt'],
    ['forced','VBN','forc'],
    ['trade','NN','trad'],
    ['at','IN','at'],
    ['gunpoint','NN','gunpoint'],
    ['in','IN','in'],
    {
      tag:'GPE',
      content:
      [
        ['Chile','NNP','chil']
      ]
    },
    [',',',',','],
    ['and','CC','and'],
    ['was','VBD','be'],
    ['captured','VBN','capt'],
    ['when','WRB','when'],
    ['he','PRP','he'],
    ['let','VBP','let'],
    ['his','PRP$','his'],
    ['guard','NN','guard'],
    ['down','IN','down'],
    ['.','.','.']
  ]
},
{
  tag:'S',
  content:
  [
    {
      tag:'PERSON',
      content:
      [
        ['Jorgenson','NNP','jorgenson']
      ]
    },
    ['probably','RB','prob'],
    ['met','VBD','meet'],
    {
      tag:'PERSON',
      content:
      [
        ['Bass','NNP','bass']
      ]
    },
    [',',',',','],
    ['but','CC','but'],
    ['this','DT','this'],
    ['account','NN','account'],
    ['is','VBZ','be'],
    ['almost','RB','almost'],
    ['certainly','RB','certain'],
    ['an','DT','an'],
    ['invention','NN','inv'],
    ['.','.','.']
  ]
},
{
  tag:'S',
  content:
  [
    {
      tag:'PERSON',
      content:
      [
        ['Jorgenson','NNP','jorgenson']
      ]
    },
    [''s','POS',''s'],
    ['writing','NN','writ'],
    [',',',',','],
    ['though','IN','though'],
    ['entertaining','NN','entertain'],
    [',',',',','],
    ['was','VBD','be'],
    ['often','RB','oft'],
    ['far','RB','far'],
    ['from','IN','from'],
    ['factual','JJ','fact'],
    ['.','.','.']
  ]
},
{
  tag:'S',
  content:
  [
    ['A','DT','A'],
    ['search','NN','search'],
    ['of','IN','of'],
    {
      tag:'GPE',
      content:
      [
        ['Spanish','NNP','span']
      ]
    },
    ['archives','NNS','arch'],
    ['in','IN','in'],
    ['1903','CD','1903'],
    ['by','IN','by'],
    ['scholar','JJ','scholar'],
    ['Pascual','NNP','pasc'],
    ['de','IN','de'],
    {
      tag:'GPE',
      content:
      [
        ['Gayangos','NNP','gayango']
      ]
    },
    ['and','CC','and'],
    ['a','DT','a'],
    ['search','NN','search'],
    ['of','IN','of'],
    {
      tag:'GPE',
      content:
      [
        ['Peruvian','NNP','peruv']
      ]
    },
    ['archives','NNS','arch'],
    ['in','IN','in'],
    ['2003','CD','2003'],
    ['by','IN','by'],
    ['historian','JJ','hist'],
    {
      tag:'PERSON',
      content:
      [
        ['Jorge','NNP','jorg']
      ]
    },
    ['Ortiz-Sotelo','NNP','ortiz-sotelo'],
    ['found','VBD','find'],
    ['no','DT','no'],
    ['mention','NN','ment'],
    ['of','IN','of'],
    {
      tag:'ORGANIZATION',
      content:
      [
        ['Bass','NNP','bass']
      ]
    },
    ['.','.','.']
  ]
},
{
  tag:'S',
  content:
  [
    ['His','PRP$','His'],
    ['ultimate','JJ','ultim'],
    ['fate','NN','fat'],
    ['remains','VBZ','remain'],
    ['a','DT','a'],
    ['mystery','NN','mystery'],
    ['.','.','.']
  ]
},
{
  tag:'S',
  content:
  [
    ['==','NN','=='],
    ['Recognition','NN','recognit'],
    ['==',':','=='],
    ['In','NNP','in'],
    ['1963','CD','1963'],
    ['he','PRP','he'],
    ['was','VBD','be'],
    ['honoured','VBN','hono'],
    ['on','IN','on'],
    ['a','DT','a'],
    ['postage','NN','post'],
    ['stamp','NN','stamp'],
    ['issued','VBD','issu'],
    ['by','IN','by'],
    {
      tag:'PERSON',
      content:
      [
        ['Australia','NNP','austral'],
        ['Post','NNP','post']
      ]
    },
    ['[','NNP','['],
    ['http','NN','http'],
    [':',':',':'],
    ['//www.australianstamp.com/images/large/0007650.jpg','JJ','//www.australianstamp.com/images/large/0007650.jpg'],
    [']','NN',']'],
    [',',',',','],
    ['and','CC','and'],
    ['again','RB','again'],
    ['in','IN','in'],
    ['1998','CD','1998'],
    ['with','IN','with'],
    {
      tag:'PERSON',
      content:
      [
        ['Matthew','NNP','matthew'],
        ['Flinders','NNP','flind']
      ]
    },
    ['.','.','.']
  ]
},
{
  tag:'S',
  content:
  [
    ['[','NN','['],
    ['http','NN','http'],
    [':',':',':'],
    ['//www.australianstamp.com/images/large/0033520.jpg','JJ','//www.australianstamp.com/images/large/0033520.jpg'],
    [']','NN',']'],
    ['A','DT','A'],
    ['re-enactment','JJ','re-enactment'],
    ['of','IN','of'],
    ['the','DT','the'],
    ['whaleboat','JJ','whalebo'],
    ['voyage','NN','voy'],
    ['was','VBD','be'],
    ['conducted','VBN','conduc'],
    ['on','IN','on'],
    ['the','DT','the'],
    ['200th','JJ','200th'],
    ['anniversary','NN','annivers'],
    ['of','IN','of'],
    {
      tag:'ORGANIZATION',
      content:
      [
        ['Bass','NNP','bass']
      ]
    },
    [''s','POS',''s'],
    ['voyage','NN','voy'],
    [',',',',','],
    ['and','CC','and'],
    ['arrived','VBD','ar'],
    ['at','IN','at'],
    {
      tag:'LOCATION',
      content:
      [
        ['Western','NNP','western'],
        ['Port','NNP','port']
      ]
    },
    ['on','IN','on'],
    ['5','CD','5'],
    ['January','NNP','janu'],
    ['1998','CD','1998'],
    [',',',',','],
    ['using','VBG','us'],
    ['a','DT','a'],
    ['``','``','``'],
    {
      tag:'PERSON',
      content:
      [
        ['Elizabeth','NNP','elizabe']
      ]
    },
    ['''','''',''''],
    ['skippered','VBD','skip'],
    ['by','IN','by'],
    {
      tag:'PERSON',
      content:
      [
        ['Bern','NNP','bern'],
        ['Cuthbertson','NNP','cuthbertson']
      ]
    },
    ['.','.','.']
  ]
},
{
  tag:'S',
  content:
  [
    ['A','DT','A'],
    ['plaque','NN','plaqu'],
    ['memorialising','VBG','mem'],
    ['this','DT','this'],
    ['was','VBD','be'],
    ['added','VBN','ad'],
    ['to','TO','to'],
    ['the','DT','the'],
    {
      tag:'ORGANIZATION',
      content:
      [
        ['Bass','NNP','bass']
      ]
    },
    ['and','CC','and'],
    {
      tag:'ORGANIZATION',
      content:
      [
        ['Flinders','NNP','flind']
      ]
    },
    ['memorial','JJ','mem'],
    ['at','IN','at'],
    {
      tag:'ORGANIZATION',
      content:
      [
        ['Flinders','NNP','flind']
      ]
    },
    ['.','.','.']
  ]
},
{
  tag:'S',
  content:
  [
    ['==','NN','=='],
    {
      tag:'PERSON',
      content:
      [
        ['See','NNP','see']
      ]
    },
    ['also','RB','also'],
    ['==',':','=='],
    ['Places','NNS','plac'],
    ['named','VBD','nam'],
    ['after','IN','after'],
    {
      tag:'PERSON',
      content:
      [
        ['Bass','NNP','bass']
      ]
    },
    [':',':',':'],
    ['*','-NONE-','*'],
    {
      tag:'ORGANIZATION',
      content:
      [
        ['Bass','NNPS','bass']
      ]
    },
    [',',',',','],
    {
      tag:'GPE',
      content:
      [
        ['Victoria','NNP','victor']
      ]
    },
    ['(','NNP','('],
    ['town','NN','town'],
    [')',':',')'],
    ['*','-NONE-','*'],
    {
      tag:'ORGANIZATION',
      content:
      [
        ['Bass','NNPS','bass'],
        ['Highway','NNP','highway']
      ]
    },
    ['(','NNP','('],
    ['Tasmania','NNP','tasman'],
    [')','NNP',')'],
    ['*','-NONE-','*'],
    {
      tag:'ORGANIZATION',
      content:
      [
        ['Bass','NNP','bass'],
        ['Highway','NNP','highway']
      ]
    },
    ['(','NNP','('],
    ['Victoria','NNP','victor'],
    [')','NNP',')'],
    ['*','-NONE-','*'],
    {
      tag:'ORGANIZATION',
      content:
      [
        ['Bass','NNP','bass'],
        ['Hill','NNP','hil']
      ]
    },
    [',',',',','],
    {
      tag:'GPE',
      content:
      [
        ['New','NNP','new'],
        ['South','NNP','sou'],
        ['Wales','NNP','wal']
      ]
    },
    ['*','-NONE-','*'],
    {
      tag:'ORGANIZATION',
      content:
      [
        ['Bass','NNP','bass'],
        ['Point','NNP','point']
      ]
    },
    ['*','-NONE-','*'],
    {
      tag:'ORGANIZATION',
      content:
      [
        ['Bass','NNP','bass'],
        ['Strait','NNP','strait']
      ]
    },
    ['*','-NONE-','*'],
    ['Division','NNP','divid'],
    ['of','IN','of'],
    {
      tag:'GPE',
      content:
      [
        ['Bass','NNP','bass']
      ]
    },
    [',',',',','],
    {
      tag:'GPE',
      content:
      [
        ['Tasmania','NNP','tasman']
      ]
    },
    ['(','NNP','('],
    ['federal','JJ','fed'],
    [')','NN',')'],
    ['*','-NONE-','*'],
    ['Division','NNP','divid'],
    ['of','IN','of'],
    {
      tag:'GPE',
      content:
      [
        ['Bass','NNP','bass']
      ]
    },
    [',',',',','],
    {
      tag:'GPE',
      content:
      [
        ['Tasmania','NNP','tasman']
      ]
    },
    ['(','NNP','('],
    ['state','NN','stat'],
    [')',':',')'],
    ['*','-NONE-','*'],
    {
      tag:'ORGANIZATION',
      content:
      [
        ['Bass','NNPS','bass'],
        ['River','NNP','riv']
      ]
    },
    ['==','NNP','=='],
    ['Notes','NNPS','not'],
    ['==','NNP','=='],
    ['==References==','NNP','==references=='],
    ['*','-NONE-','*'],
    {
      tag:'PERSON',
      content:
      [
        ['Miriam','NNP','miriam'],
        ['Estensen','NNP','estens']
      ]
    },
    [',',',',','],
    {
      tag:'ORGANIZATION',
      content:
      [
        ['The','NNP','the'],
        ['Life','NNP','lif']
      ]
    },
    ['of','IN','of'],
    {
      tag:'PERSON',
      content:
      [
        ['George','NNP','georg'],
        ['Bass','NNP','bass']
      ]
    },
    [',',',',','],
    {
      tag:'PERSON',
      content:
      [
        ['Allen','NNP','al']
      ]
    },
    ['and','CC','and'],
    {
      tag:'PERSON',
      content:
      [
        ['Unwin','NNP','unwin']
      ]
    },
    [',',',',','],
    ['2005','CD','2005'],
    [',',',',','],
    {
      tag:'ORGANIZATION',
      content:
      [
        ['ISBN','NNP','isbn']
      ]
    },
    ['1-74114-130-3','CD','1-74114-130-3'],
    ['*','-NONE-','*'],
    ['Keith','IN','Keith'],
    {
      tag:'PERSON',
      content:
      [
        ['Macrae','NNP','macra'],
        ['Bowden','NNP','bowd']
      ]
    },
    [':',':',':'],
    {
      tag:'PERSON',
      content:
      [
        ['George','NNP','georg'],
        ['Bass','NNP','bass']
      ]
    },
    ['1771–1803','CD','1771–1803'],
    [':',':',':'],
    ['His','NNP','his'],
    ['Discoveries','NNPS','discovery'],
    [',',',',','],
    {
      tag:'PERSON',
      content:
      [
        ['Romantic','NNP','rom'],
        ['Life','NNP','lif']
      ]
    },
    ['and','CC','and'],
    {
      tag:'PERSON',
      content:
      [
        ['Tragic','NNP','trag'],
        ['Disappearance','NNP','disappear']
      ]
    },
    ['.','.','.']
  ]
},
{
  tag:'S',
  content:
  [
    ['–','NN','–'],
    {
      tag:'GPE',
      content:
      [
        ['London','NNP','london']
      ]
    },
    [',',',',','],
    {
      tag:'PERSON',
      content:
      [
        ['Melbourne','NNP','melbourn']
      ]
    },
    [':',':',':'],
    {
      tag:'PERSON',
      content:
      [
        ['Oxford','NNP','oxford'],
        ['University','NNP','univers'],
        ['Press','NNP','press']
      ]
    },
    [',',',',','],
    ['1952','CD','1952'],
    ['*','-NONE-','*'],
    ['*','-NONE-','*'],
    ['by','IN','by'],
    {
      tag:'PERSON',
      content:
      [
        ['Ernest','NNP','ernest'],
        ['Scott','NNP','scot']
      ]
    },
    [';',':',';'],
    ['Attribution','NNP','attribut'],
    ['*','-NONE-','*']
  ]
}]