[
{
  tag:'S',
  content:
  [
    {
      tag:'PERSON',
      content:
      [
        ['Vonda','NNP','vond']
      ]
    },
    {
      tag:'ORGANIZATION',
      content:
      [
        ['Shepard','NNP','shepard']
      ]
    },
    ['(','NNP','('],
    ['born','NN','born'],
    ['July','NNP','july'],
    ['7','CD','7'],
    [',',',',','],
    ['1963','CD','1963'],
    [')',':',')'],
    ['is','VBZ','be'],
    ['an','DT','an'],
    {
      tag:'GPE',
      content:
      [
        ['American','JJ','am']
      ]
    },
    ['pop/rock','NN','pop/rock'],
    ['singer','NN','sing'],
    ['.','.','.']
  ]
},
{
  tag:'S',
  content:
  [
    ['She','PRP','She'],
    ['appeared','VBD','appear'],
    ['as','IN','as'],
    ['a','DT','a'],
    ['regular','JJ','regul'],
    ['in','IN','in'],
    ['the','DT','the'],
    ['television','NN','televid'],
    ['show','NN','show'],
    ['Ally','RB','al'],
    {
      tag:'ORGANIZATION',
      content:
      [
        ['McBeal','NNP','mcbeal']
      ]
    },
    ['in','IN','in'],
    ['seasons','NNS','season'],
    ['1–5','CD','1–5'],
    ['in','IN','in'],
    ['which','WDT','which'],
    ['she','PRP','she'],
    ['played','VBD','play'],
    ['a','DT','a'],
    ['resident','NN','resid'],
    ['performer','NN','perform'],
    ['at','IN','at'],
    ['the','DT','the'],
    ['bar','NN','bar'],
    ['where','WRB','where'],
    ['the','DT','the'],
    ['show','NN','show'],
    [''s','POS',''s'],
    ['characters','NNS','charact'],
    ['drank','VBP','drink'],
    ['after','IN','after'],
    ['work','NN','work'],
    ['.','.','.']
  ]
},
{
  tag:'S',
  content:
  [
    ['Her','PRP$','Her'],
    ['version','NN','vert'],
    ['of','IN','of'],
    {
      tag:'ORGANIZATION',
      content:
      [
        ['Kay','NNP','kay']
      ]
    },
    ['Starr’s','NNP','starr’s'],
    ['Christmas','NNP','christmas'],
    ['classic','JJ','class'],
    ['(','NN','('],
    ['Everybody','NNP','everybody'],
    [''s','POS',''s'],
    {
      tag:'PERSON',
      content:
      [
        ['Waitin','NNP','waitin']
      ]
    },
    [''','POS','''],
    ['For','NNP','for'],
    [')','NNP',')'],
    ['The','NNP','the'],
    ['Man','NNP','man'],
    ['with','IN','with'],
    ['the','DT','the'],
    {
      tag:'ORGANIZATION',
      content:
      [
        ['Bag','NNP','bag']
      ]
    },
    ['was','VBD','be'],
    ['featured','VBN','feat'],
    ['on','IN','on'],
    ['a','DT','a'],
    ['season','NN','season'],
    ['4','CD','4'],
    ['episode','NN','episod'],
    ['of','IN','of'],
    {
      tag:'PERSON',
      content:
      [
        ['Ally','NNP','al'],
        ['McBeal','NNP','mcbeal']
      ]
    },
    ['and','CC','and'],
    ['has','VBZ','hav'],
    ['become','VBN','becom'],
    ['a','DT','a'],
    ['popular','JJ','popul'],
    ['holiday','NN','holiday'],
    ['song','IN','song'],
    ['.','.','.']
  ]
},
{
  tag:'S',
  content:
  [
    ['She','PRP','She'],
    ['plays','VBZ','play'],
    ['piano','RB','piano'],
    [',',',',','],
    ['guitar','NN','guit'],
    [',',',',','],
    ['and','CC','and'],
    ['bass','NN','bass'],
    ['.','.','.']
  ]
},
{
  tag:'S',
  content:
  [
    ['==Biography==','NN','==biography=='],
    {
      tag:'PERSON',
      content:
      [
        ['Vonda','NNP','vond'],
        ['Shepard','NNP','shepard']
      ]
    },
    ['was','VBD','be'],
    ['born','VBN','bear'],
    ['in','IN','in'],
    {
      tag:'GPE',
      content:
      [
        ['New','NNP','new'],
        ['York','NNP','york']
      ]
    },
    ['but','CC','but'],
    ['her','PRP$','her'],
    ['family','NN','famy'],
    ['relocated','VBN','reloc'],
    ['to','TO','to'],
    {
      tag:'GPE',
      content:
      [
        ['California','NNP','californ']
      ]
    },
    ['when','WRB','when'],
    ['she','PRP','she'],
    ['was','VBD','be'],
    ['a','DT','a'],
    ['child','NN','child'],
    ['.','.','.']
  ]
},
{
  tag:'S',
  content:
  [
    ['She','PRP','She'],
    ['played','VBD','play'],
    ['piano','RB','piano'],
    ['from','IN','from'],
    ['an','DT','an'],
    ['early','JJ','ear'],
    ['age','NN','ag'],
    ['.','.','.']
  ]
},
{
  tag:'S',
  content:
  [
    ['Her','PRP$','Her'],
    ['father','NN','fath'],
    ['is','VBZ','be'],
    {
      tag:'PERSON',
      content:
      [
        ['Richmond','NNP','richmond'],
        ['Shepard','NNP','shepard']
      ]
    },
    [',',',',','],
    ['a','DT','a'],
    ['mime','NN','mim'],
    ['and','CC','and'],
    ['improv','NN','improv'],
    ['actor','NN','act'],
    ['.','.','.']
  ]
},
{
  tag:'S',
  content:
  [
    {
      tag:'GSP',
      content:
      [
        ['Vonda','NNP','vond']
      ]
    },
    ['has','VBZ','hav'],
    ['three','CD','three'],
    ['sisters','NNS','sist'],
    [':',':',':'],
    {
      tag:'GPE',
      content:
      [
        ['Armina','NNP','armin']
      ]
    },
    [',',',',','],
    {
      tag:'PERSON',
      content:
      [
        ['Rosetta','NNP','rosett']
      ]
    },
    ['(','NNP','('],
    ['now','RB','now'],
    {
      tag:'GPE',
      content:
      [
        ['Brianna','NNP','briann']
      ]
    },
    [')',':',')'],
    ['and','CC','and'],
    {
      tag:'GPE',
      content:
      [
        ['Luana','NNP','luan']
      ]
    },
    ['.','.','.']
  ]
},
{
  tag:'S',
  content:
  [
    ['After','IN','After'],
    ['performing','VBG','perform'],
    ['as','IN','as'],
    ['a','DT','a'],
    ['backing','NN','back'],
    ['singer','NN','sing'],
    ['for','IN','for'],
    ['many','JJ','many'],
    ['years','NNS','year'],
    ['she','PRP','she'],
    ['was','VBD','be'],
    ['eventually','RB','ev'],
    ['given','VBN','giv'],
    ['her','PRP$','her'],
    ['own','JJ','own'],
    ['recording','NN','record'],
    ['contract','NN','contract'],
    ['.','.','.']
  ]
},
{
  tag:'S',
  content:
  [
    {
      tag:'PERSON',
      content:
      [
        ['Shepard','NNP','shepard']
      ]
    },
    [''s','POS',''s'],
    ['first','JJ','first'],
    ['chart','NN','chart'],
    ['appearance','NN','appear'],
    ['was','VBD','be'],
    ['in','IN','in'],
    ['1987','CD','1987'],
    ['when','WRB','when'],
    ['she','PRP','she'],
    ['recorded','VBD','record'],
    ['a','DT','a'],
    ['duet','NN','duet'],
    ['with','IN','with'],
    {
      tag:'PERSON',
      content:
      [
        ['Dan','NNP','dan'],
        ['Hill','NNP','hil']
      ]
    },
    ['entitled','VBD','entitl'],
    ['``','``','``'],
    ['Ca','NNP','ca'],
    ['n't','RB','n't'],
    ['We','PRP','We'],
    ['Try','NNP','try'],
    ['''','''',''''],
    ['.','.','.']
  ]
},
{
  tag:'S',
  content:
  [
    ['Before','IN','Before'],
    ['this','DT','this'],
    ['she','PRP','she'],
    ['tried','VBD','try'],
    ['out','RP','out'],
    ['for','IN','for'],
    ['the','DT','the'],
    ['part','NN','part'],
    ['of','IN','of'],
    {
      tag:'PERSON',
      content:
      [
        ['Michael','NNP','michael']
      ]
    },
    ['J','NNP','j'],
    ['.','.','.']
  ]
},
{
  tag:'S',
  content:
  [
    {
      tag:'PERSON',
      content:
      [
        ['Fox','NNP','fox']
      ]
    },
    [''s','POS',''s'],
    ['sister','NN','sist'],
    ['in','IN','in'],
    {
      tag:'GPE',
      content:
      [
        ['Light','NNP','light']
      ]
    },
    ['of','IN','of'],
    ['Day','NNP','day'],
    ['but','CC','but'],
    ['lost','VBD','los'],
    ['the','DT','the'],
    ['part','NN','part'],
    ['to','TO','to'],
    {
      tag:'PERSON',
      content:
      [
        ['Joan','NNP','joan'],
        ['Jett','NNP','jet']
      ]
    },
    ['.','.','.']
  ]
},
{
  tag:'S',
  content:
  [
    ['She','PRP','She'],
    ['was','VBD','be'],
    ['also','RB','also'],
    ['poised','VBN','pois'],
    ['to','TO','to'],
    ['sing','NN','sing'],
    ['on','IN','on'],
    {
      tag:'PERSON',
      content:
      [
        ['Peter','NNP','pet'],
        ['Cetera','NNP','ceter']
      ]
    },
    [''s','POS',''s'],
    ['duet','NN','duet'],
    ['``','``','``'],
    ['The','DT','The'],
    {
      tag:'ORGANIZATION',
      content:
      [
        ['Next','JJ','next']
      ]
    },
    ['Time','NNP','tim'],
    ['I','PRP','I'],
    ['Fall','NNP','fal'],
    ['''','''',''''],
    ['but','CC','but'],
    ['he','PRP','he'],
    ['picked','VBD','pick'],
    {
      tag:'PERSON',
      content:
      [
        ['Amy','NNP','amy'],
        ['Grant','NNP','grant']
      ]
    },
    ['instead','RB','instead'],
    ['.','.','.']
  ]
},
{
  tag:'S',
  content:
  [
    ['She','PRP','She'],
    ['released','VBD','releas'],
    ['her','PRP$','her'],
    ['first','JJ','first'],
    ['self-titled','JJ','self-titled'],
    ['album','NN','alb'],
    ['in','IN','in'],
    ['1989','CD','1989'],
    ['with','IN','with'],
    ['little','JJ','littl'],
    ['fanfare','NN','fanf'],
    ['.','.','.']
  ]
},
{
  tag:'S',
  content:
  [
    ['The','DT','The'],
    ['album','NN','alb'],
    ['did','VBD','do'],
    ['yield','NN','yield'],
    ['one','CD','one'],
    ['chart','NN','chart'],
    ['single','JJ','singl'],
    [',',',',','],
    ['``','``','``'],
    ['Do','VBP','do'],
    ['n't','RB','n't'],
    {
      tag:'PERSON',
      content:
      [
        ['Cry','NNP','cry'],
        ['Ilene','NNP','il']
      ]
    },
    ['''','''',''''],
    [',',',',','],
    ['a','DT','a'],
    ['mid-tempo','JJ','mid-tempo'],
    [',',',',','],
    ['piano-driven','JJ','piano-driven'],
    ['jazz-R','JJ','jazz-r'],
    ['&','CC','&'],
    ['B','NNP','b'],
    ['flavored','VBD','flav'],
    ['song','JJ','song'],
    ['dealing','NN','deal'],
    ['with','IN','with'],
    ['the','DT','the'],
    ['break-up','JJ','break-up'],
    ['of','IN','of'],
    ['a','DT','a'],
    ['relationship','NN','rel'],
    ['between','IN','between'],
    ['a','DT','a'],
    ['black','JJ','black'],
    ['woman','NN','wom'],
    ['and','CC','and'],
    ['a','DT','a'],
    ['white','JJ','whit'],
    ['man','NN','man'],
    [',',',',','],
    ['arising','VBG','ar'],
    ['from','IN','from'],
    ['adult','NN','adult'],
    ['peer','NN','peer'],
    ['pressure','NN','press'],
    ['.','.','.']
  ]
},
{
  tag:'S',
  content:
  [
    ['The','DT','The'],
    ['track','NN','track'],
    ['is','VBZ','be'],
    ['sung','VBN','sing'],
    ['from','IN','from'],
    ['the','DT','the'],
    ['perspective','JJ','perspect'],
    ['of','IN','of'],
    ['the','DT','the'],
    ['woman','NN','wom'],
    [''s','POS',''s'],
    ['white','NN','whit'],
    ['female','NN','fem'],
    ['friend','NN','friend'],
    [',',',',','],
    ['who','WP','who'],
    ['harbors','NNS','harb'],
    ['a','DT','a'],
    ['desire','NN','desir'],
    ['to','TO','to'],
    ['have','VB','hav'],
    ['the','DT','the'],
    ['man','NN','man'],
    ['for','IN','for'],
    ['herself','PRP','herself'],
    [',',',',','],
    ['but','CC','but'],
    ['keeps','VBZ','keep'],
    ['her','PRP$','her'],
    ['distance','NN','dist'],
    ['out','RP','out'],
    ['of','IN','of'],
    ['respect','NN','respect'],
    ['for','IN','for'],
    ['her','PRP$','her'],
    ['friend','NN','friend'],
    ['.','.','.']
  ]
},
{
  tag:'S',
  content:
  [
    ['The','DT','The'],
    ['song','JJ','song'],
    ['peaked','JJ','peak'],
    ['at','IN','at'],
    ['Number','NNP','numb'],
    ['17','CD','17'],
    ['on','IN','on'],
    ['the','DT','the'],
    {
      tag:'ORGANIZATION',
      content:
      [
        ['Billboard','NNP','billboard'],
        ['Hot','NNP','hot'],
        ['Adult','NNP','adult']
      ]
    },
    ['Contemporary','NNP','contemp'],
    ['chart','NN','chart'],
    ['and','CC','and'],
    ['stayed','VBD','stay'],
    ['on','IN','on'],
    ['the','DT','the'],
    ['charts','NNS','chart'],
    ['for','IN','for'],
    ['12','CD','12'],
    ['weeks','NNS','week'],
    ['.','.','.']
  ]
},
{
  tag:'S',
  content:
  [
    ['After','IN','After'],
    ['her','PRP$','her'],
    ['third','JJ','third'],
    ['album','NN','alb'],
    [',',',',','],
    {
      tag:'PERSON',
      content:
      [
        ['Shepard','NNP','shepard']
      ]
    },
    ['was','VBD','be'],
    ['signed','VBN','sign'],
    ['up','RP','up'],
    ['to','TO','to'],
    ['appear','VB','appear'],
    ['on','IN','on'],
    {
      tag:'PERSON',
      content:
      [
        ['Ally','NNP','al'],
        ['McBeal','NNP','mcbeal']
      ]
    },
    ['after','IN','after'],
    ['being','VBG','be'],
    ['spotted','VBN','spot'],
    ['by','IN','by'],
    ['the','DT','the'],
    ['show','NN','show'],
    [''s','POS',''s'],
    ['creator','NN','cre'],
    {
      tag:'PERSON',
      content:
      [
        ['David','NNP','david'],
        ['E.','NNP','e.'],
        ['Kelley','NNP','kelley']
      ]
    },
    ['.','.','.']
  ]
},
{
  tag:'S',
  content:
  [
    ['While','IN','While'],
    ['on','IN','on'],
    ['the','DT','the'],
    ['show','NN','show'],
    ['she','PRP','she'],
    ['recorded','VBD','record'],
    ['two','CD','two'],
    ['full','JJ','ful'],
    ['soundtrack','NN','soundtrack'],
    ['albums','NNS','alb'],
    ['and','CC','and'],
    ['was','VBD','be'],
    ['featured','VBN','feat'],
    ['on','IN','on'],
    ['two','CD','two'],
    ['other','JJ','oth'],
    ['Ally','NNP','al'],
    ['McBeal','NNP','mcbeal'],
    ['compilations','NNS','compil'],
    ['.','.','.']
  ]
},
{
  tag:'S',
  content:
  [
    ['The','DT','The'],
    ['songs','NNS','song'],
    {
      tag:'PERSON',
      content:
      [
        ['Shepard','NNP','shepard']
      ]
    },
    ['recorded','VBD','record'],
    ['for','IN','for'],
    {
      tag:'PERSON',
      content:
      [
        ['Ally','NNP','al'],
        ['McBeal','NNP','mcbeal']
      ]
    },
    ['soundtrack','NN','soundtrack'],
    ['albums','NNS','alb'],
    ['were','VBD','be'],
    ['mainly','RB','main'],
    ['covers','NNS','cov'],
    ['of','IN','of'],
    ['old','JJ','old'],
    ['songs','NNS','song'],
    ['with','IN','with'],
    ['lyrics','NNS','lyr'],
    ['that','IN','that'],
    ['paralleled','VBN','parallel'],
    ['what','WP','what'],
    ['was','VBD','be'],
    ['happening','VBG','hap'],
    ['in','IN','in'],
    ['the','DT','the'],
    ['title','NN','titl'],
    ['character','NN','charact'],
    [''s','POS',''s'],
    ['life','NN','lif'],
    ['onscreen','IN','onscreen'],
    ['.','.','.']
  ]
},
{
  tag:'S',
  content:
  [
    ['However','RB','howev'],
    [',',',',','],
    ['the','DT','the'],
    ['album','NN','alb'],
    [''s','POS',''s'],
    ['biggest','JJS','big'],
    ['hit','NN','hit'],
    ['single','NN','singl'],
    [',',',',','],
    ['``','``','``'],
    ['Searchin','NNP','searchin'],
    [''','''','''],
    ['My','NNP','my'],
    ['Soul','NNP','soul'],
    ['''','''',''''],
    ['was','VBD','be'],
    ['an','DT','an'],
    ['original','JJ','origin'],
    ['penned','VBN','pen'],
    ['by','IN','by'],
    {
      tag:'ORGANIZATION',
      content:
      [
        ['Shepard','NNP','shepard']
      ]
    },
    ['and','CC','and'],
    {
      tag:'PERSON',
      content:
      [
        ['Paul','NNP','paul'],
        ['Gordon','NNP','gordon']
      ]
    },
    ['.','.','.']
  ]
},
{
  tag:'S',
  content:
  [
    ['Since','IN','Since'],
    ['appearing','VBG','appear'],
    ['in','IN','in'],
    ['the','DT','the'],
    ['show','NN','show'],
    [',',',',','],
    {
      tag:'PERSON',
      content:
      [
        ['Shepard','NNP','shepard']
      ]
    },
    ['has','VBZ','hav'],
    ['released','VBN','releas'],
    ['two','CD','two'],
    ['more','RBR','mor'],
    ['studio','NN','studio'],
    ['albums','NNS','alb'],
    ['and','CC','and'],
    ['a','DT','a'],
    ['live','JJ','liv'],
    ['album','NN','alb'],
    ['.','.','.']
  ]
},
{
  tag:'S',
  content:
  [
    {
      tag:'PERSON',
      content:
      [
        ['Shepard','NNP','shepard']
      ]
    },
    ['has','VBZ','hav'],
    ['been','VBN','be'],
    ['married','VBN','marry'],
    ['to','TO','to'],
    ['music','JJ','mus'],
    ['producer','NN','produc'],
    {
      tag:'ORGANIZATION',
      content:
      [
        ['Mitchell','NNP','mitchel'],
        ['Froom','NNP','froom']
      ]
    },
    ['since','IN','since'],
    ['2004','CD','2004'],
    [';',':',';'],
    ['they','PRP','they'],
    ['had','VBD','hav'],
    ['their','PRP$','their'],
    ['first','JJ','first'],
    ['child','NN','child'],
    [',',',',','],
    {
      tag:'PERSON',
      content:
      [
        ['Jack','NNP','jack'],
        ['Froom','NNP','froom']
      ]
    },
    [',',',',','],
    ['on','IN','on'],
    ['15','CD','15'],
    ['April','NNP','april'],
    ['2006','CD','2006'],
    ['.','.','.']
  ]
},
{
  tag:'S',
  content:
  [
    ['She','PRP','She'],
    ['is','VBZ','be'],
    ['also','RB','also'],
    ['the','DT','the'],
    ['stepmother','NN','stepmoth'],
    ['to','TO','to'],
    {
      tag:'PERSON',
      content:
      [
        ['Froom','NNP','froom']
      ]
    },
    [''s','POS',''s'],
    ['daughter','NN','daught'],
    [',',',',','],
    {
      tag:'PERSON',
      content:
      [
        ['Ruby','NNP','ruby']
      ]
    },
    [',',',',','],
    ['from','IN','from'],
    ['his','PRP$','his'],
    ['marriage','NN','marry'],
    ['to','TO','to'],
    {
      tag:'PERSON',
      content:
      [
        ['Suzanne','NNP','suzan'],
        ['Vega','NNP','veg']
      ]
    },
    ['.','.','.']
  ]
},
{
  tag:'S',
  content:
  [
    {
      tag:'PERSON',
      content:
      [
        ['Shepard','NNP','shepard']
      ]
    },
    ['recently','RB','rec'],
    ['provided','VBN','provid'],
    ['vocals','NNS','voc'],
    ['on','IN','on'],
    ['the','DT','the'],
    ['score','NN','scor'],
    ['by','IN','by'],
    {
      tag:'PERSON',
      content:
      [
        ['James','NNP','jam'],
        ['Newton','NNP','newton'],
        ['Howard','NNP','howard']
      ]
    },
    ['for','IN','for'],
    ['the','DT','the'],
    ['2010','CD','2010'],
    ['film','NN','film'],
    {
      tag:'PERSON',
      content:
      [
        ['Love','NNP','lov']
      ]
    },
    ['and','CC','and'],
    ['Other','JJ','oth'],
    ['Drugs','NNS','drug'],
    [',',',',','],
    ['starring','VBG','star'],
    {
      tag:'PERSON',
      content:
      [
        ['Jake','NNP','jak'],
        ['Gyllenhaal','NNP','gyllenha']
      ]
    },
    ['and','CC','and'],
    {
      tag:'PERSON',
      content:
      [
        ['Anne','NNP','an'],
        ['Hathaway','NNP','hathaway']
      ]
    },
    ['.','.','.']
  ]
},
{
  tag:'S',
  content:
  [
    ['==Discography==','NN','==discography=='],
    ['===Albums===','NN','===albums==='],
    ['*','-NONE-','*'],
    ['1989','CD','1989'],
    ['Vonda','NNP','vond'],
    ['Shepard','NNP','shepard'],
    ['*','-NONE-','*'],
    ['1992','CD','1992'],
    ['The','DT','The'],
    {
      tag:'ORGANIZATION',
      content:
      [
        ['Radical','NNP','rad'],
        ['Light','NNP','light']
      ]
    },
    ['*','-NONE-','*'],
    ['1996','CD','1996'],
    ['It','PRP','It'],
    [''s','VBZ',''s'],
    {
      tag:'PERSON',
      content:
      [
        ['Good','NNP','good']
      ]
    },
    [',',',',','],
    {
      tag:'PERSON',
      content:
      [
        ['Eve','NNP','ev']
      ]
    },
    ['*','-NONE-','*'],
    ['1998','CD','1998'],
    ['Songs','NNS','song'],
    ['from','IN','from'],
    {
      tag:'PERSON',
      content:
      [
        ['Ally','NNP','al'],
        ['McBeal','NNP','mcbeal']
      ]
    },
    ['*','-NONE-','*'],
    ['1999','CD','1999'],
    ['By','IN','By'],
    ['7:30','CD','7:30'],
    ['*','-NONE-','*'],
    ['1999','CD','1999'],
    ['Heart','NNP','heart'],
    ['and','CC','and'],
    {
      tag:'GPE',
      content:
      [
        ['Soul','NNP','soul']
      ]
    },
    [':',':',':'],
    ['New','NNP','new'],
    ['Songs','NNP','song'],
    ['from','IN','from'],
    {
      tag:'PERSON',
      content:
      [
        ['Ally','NNP','al'],
        ['McBeal','NNP','mcbeal']
      ]
    },
    ['*','-NONE-','*'],
    ['2000','CD','2000'],
    ['Ally','NNP','al'],
    ['McBeal','NNP','mcbeal'],
    [':',':',':'],
    ['A','DT','A'],
    {
      tag:'ORGANIZATION',
      content:
      [
        ['Very','NNP','very'],
        ['Ally','NNP','al']
      ]
    },
    ['Christmas','NNP','christmas'],
    ['*','-NONE-','*'],
    ['2002','CD','2002'],
    {
      tag:'GPE',
      content:
      [
        ['Chinatown','NNP','chinatown']
      ]
    },
    ['*','-NONE-','*'],
    ['2004','CD','2004'],
    ['Live','NNP','liv'],
    [':',':',':'],
    ['A','DT','A'],
    ['Retrospective','JJ','retrospect'],
    ['*','-NONE-','*'],
    ['2008','CD','2008'],
    ['From','IN','From'],
    ['the','DT','the'],
    {
      tag:'ORGANIZATION',
      content:
      [
        ['Sun','NNP','sun']
      ]
    },
    ['*','-NONE-','*'],
    ['2010','CD','2010'],
    ['From','IN','From'],
    ['the','DT','the'],
    {
      tag:'ORGANIZATION',
      content:
      [
        ['Sun','NNP','sun']
      ]
    },
    ['Tour','NNP','tour'],
    [':',':',':'],
    ['Live','JJ','liv'],
    ['In','IN','In'],
    {
      tag:'GPE',
      content:
      [
        ['San','NNP','san']
      ]
    },
    ['Javier','NNP','javy'],
    ['*','-NONE-','*'],
    ['2011','CD','2011'],
    ['Solo','NNP','solo'],
    ['===Compilation','NN','===compilation'],
    ['soundtracks===','-NONE-','soundtracks==='],
    ['*','-NONE-','*'],
    ['Ally','RB','al'],
    {
      tag:'ORGANIZATION',
      content:
      [
        ['McBeal','NNP','mcbeal']
      ]
    },
    [':',':',':'],
    ['A','DT','A'],
    {
      tag:'ORGANIZATION',
      content:
      [
        ['Very','NNP','very'],
        ['Ally','NNP','al']
      ]
    },
    ['Christmas','NNP','christmas'],
    ['2000','CD','2000'],
    ['US','NNP','us'],
    [':',':',':'],
    ['550','CD','550'],
    ['Music/Epic/SME','JJ','music/epic/sme'],
    ['Records','NNS','record'],
    ['/',':','/'],
    ['UK','NNP','uk'],
    [':',':',':'],
    {
      tag:'PERSON',
      content:
      [
        ['Epic','NNP','ep'],
        ['Records','NNP','record']
      ]
    },
    ['*','-NONE-','*'],
    ['Ally','RB','al'],
    {
      tag:'ORGANIZATION',
      content:
      [
        ['McBeal','NNP','mcbeal']
      ]
    },
    [':',':',':'],
    ['For','IN','For'],
    ['Once','NNP','ont'],
    ['in','IN','in'],
    ['My','NNP','my'],
    ['Life','NNP','lif'],
    ['Soundtrack','NNP','soundtrack'],
    ['2001','CD','2001'],
    ['US','NNP','us'],
    [':',':',':'],
    ['550','CD','550'],
    ['Music/Epic/SME','JJ','music/epic/sme'],
    ['Records','NNS','record'],
    ['/',':','/'],
    ['UK','NNP','uk'],
    [':',':',':'],
    {
      tag:'PERSON',
      content:
      [
        ['Epic','NNP','ep'],
        ['Records','NNP','record']
      ]
    },
    ['*','-NONE-','*'],
    ['The','DT','The'],
    ['Best','JJS','best'],
    ['of','IN','of'],
    {
      tag:'PERSON',
      content:
      [
        ['Ally','NNP','al'],
        ['McBeal','NNP','mcbeal']
      ]
    },
    ['–','NNP','–'],
    ['The','NNP','the'],
    ['Songs','NNP','song'],
    ['of','IN','of'],
    {
      tag:'PERSON',
      content:
      [
        ['Vonda','NNP','vond'],
        ['Shepard','NNP','shepard']
      ]
    },
    ['/','NNP','/'],
    {
      tag:'PERSON',
      content:
      [
        ['Sony','NNP','sony'],
        ['Legacy','NNP','leg']
      ]
    },
    ['/','NNP','/'],
    ['October','NNP','octob'],
    ['6','CD','6'],
    [',',',',','],
    ['2009','CD','2009'],
    ['===Singles===','-NONE-','===Singles==='],
    ['==References==','JJ','==references=='],
    ['==External','JJ','==external'],
    ['links==','NN','links=='],
    ['*Official','JJ','*official'],
    {
      tag:'PERSON',
      content:
      [
        ['Vonda','NNP','vond'],
        ['Shepard','NNP','shepard'],
        ['Website','NNP','websit']
      ]
    },
    ['*Old','NNP','*old'],
    ['Vonda','NNP','vond'],
    {
      tag:'PERSON',
      content:
      [
        ['Shepard','NNP','shepard'],
        ['Website','NNP','websit']
      ]
    },
    ['*Vonda','NNP','*vonda'],
    {
      tag:'PERSON',
      content:
      [
        ['Shepard','NNP','shepard'],
        ['Overview','NNP','overview']
      ]
    },
    ['web','NN','web'],
    ['page','NN','pag'],
    ['*','-NONE-','*']
  ]
}]