Alerts, NNP, alert
Newsletters, NNP, newslet
Directory, NNP, direct
Place, NNP, plac
Ad, NNP, ad
Books, NNP, book
HOME, NNP, hom
Breaking, NNP, break
Photos, NNP, photo
Crime, NNP, crim
Obituaries, NNPS, obitu
Weather, NNP, weath
L.A., NNP, l.a.
Now, NNP, now
Politics, NNP, polit
Crime, NNP, crim
Education, NNP, educ
O.C, NNP, o.c
Westside, NNP, westsid
Neighborhoods, NNP, neighb
Maps, NNP, map
Nation, NNP, nat
of, IN, of
the, DT, the
Ticket, NNP, ticket
World, NNP, world
World, NNP, world
Now, NNP, now
Afghanistan, NNP, afgh
war, NN, war
Africa, NNP, afric
Company, NNP, company
Sports, NNP, sport
now, RB, now
Lakers, NNP, lak
NFL, NNP, nfl
Kings, NNP, king
NHL/Ducks, NNP, nhl/ducks
USC, NNP, usc
UCLA, NNP, ucl
Preps, NNP, prep
Scores, NNP, scor
Envelope, NNP, envelop
TV, NNP, tv
Music, NNP, mus
Culture, NNP, cult
Picks, NNP, pick
Nutrition, NNP, nutrit
Body, NNP, body
L.A., NNP, l.a.
Affairs, NNP, affair
Comics, NNP, com
Reader, NNP, read
Photos, NNP, photo
SoCal, NNP, soc
Deal, NNP, deal
Op-Ed, NNP, op-ed
Letters, NNP, let
Opinion, NNP, opin
L.A., NNP, l.a.
Top, NNP, top
of, IN, of
the, DT, the
Ticket, NNP, ticket
Daily, NNP, dai
Offers, NNP, off
Weekly, NNP, week
Circulars, NNP, circul
Deals, NNP, deal
Member, NNP, memb
Center, NNP, cent
Alerts, NNP, alert
Newsletters, NNP, newslet
Directory, NNP, direct
Place, NNP, plac
Ad, NNP, ad
TRENDING, NNP, trend
NOW, NNP, now
Government, NNP, govern
shutdown, NN, shutdown
dodgers, NNS, dodg
iran, VBP, ir
dry, JJ, dry
ice, NN, ic
bombs, NNS, bomb
Earthquakes, VBZ, earthquak
maryville, JJ, maryvil
rape, NN, rap
/*OVERWRITES*/, NN, /*overwrites*/
.adv_search, NN, .adv_search
adv_search, NNP, adv_search
adv_search, NNP, adv_search
.adv_search_head, NNP, .adv_search_head
adv_help, NNP, adv_help
.adv_search_head, NNP, .adv_search_head
search_overlay, NNP, search_overlay
adv_keywords_head, NNP, adv_keywords_head
Advanced, NNP, adv
Sinatra, NNP, sinatr
Cold, NNP, cold
Comments, NNS, com
Esquire, NNP, esquir
's, POS, 's
80th, JJ, 80th
anniversary, NN, annivers
celebration, NN, celebr
last, JJ, last
month, NN, mon
in, IN, in
New, NNP, new
Frank, NNP, frank
Evan, NNP, ev
American, JJ, am
adults, NNS, adult
have, VBP, hav
low, JJ, low
Photos, NNP, photo
Nobel, NNP, nobel
in, IN, in
Literature, NNP, lit
winners, NNS, win
Who, WP, Who
will, MD, will
win, VB, win
the, DT, the
2013, CD, 2013
Nobel, NNP, nobel
Literature, NNP, lit
prize, NN, priz
Trapped, NNP, trap
in, IN, in
the, DT, the
web, NN, web
with, IN, with
Dave, NNP, dav
Carolyn, NNP, carolyn
October, NNP, octob
