Home, NN, hom
Artists, NNS, art
Register, NNP, reg
Contact, NNP, contact
Amsterdam, NNP, amsterdam
WHITE, NNP, whit
home, NN, hom
Rachel, NNP, rachel
19, CD, 19
November, NNP, novemb
2010, CD, 2010
Rachel, NNP, rachel
Stephen, NNP, steph
White, NNP, whit
KNEEBONE, NNP, kneebon
Lamentations, NNP, lam
2010, CD, 2010
19, CD, 19
Nov\u009722, -NONE-, Nov\u009722
Jan, NNP, jan
2011, CD, 2011
Hoxton, NNP, hoxton
White, NNP, whit
is, VBZ, be
pleased, VBN, pleas
to, TO, to
present, VB, pres
an, DT, an
exhibition, NN, exhibit
of, IN, of
new, JJ, new
work, NN, work
by, IN, by
Rachel, NNP, rachel
Kneebone, NNP, kneebon
has, VBZ, hav
created, VBN, cre
Kneebone, NNP, kneebon
started, VBD, start
with, IN, with
the, DT, the
theme, NN, them
of, IN, of
death, NN, dea
in, IN, in
the, DT, the
work, NN, work
Kneebone, NNP, kneebon
confronts, NNS, confront
grief, VBP, grief
by, IN, by
casting, NN, cast
Kneebone, NNP, kneebon
reworks, VBZ, rework
her, PRP, her
motifs, VBZ, mot
Discharge, NNP, discharg
Kneebone, NNP, kneebon
's, POS, 's
rearrangement, NN, rearrang
of, IN, of
body, NN, body
parts, NNS, part
utilises, NNS, util
the, DT, the
slippage, NN, slip
between, IN, between
abstraction, NN, abstract
and, CC, and
figuration, NN, fig
Kneebone, NNP, kneebon
's, POS, 's
practice, NN, pract
exhibits, NNS, exhibit
Ovid, NNP, ovid
to, TO, to
Cormac, NNP, cormac
's, POS, 's
'Blood, JJ, 'blood
Meridian, NNP, merid
Rodin, NNP, rodin
's, POS, 's
'The, NNP, 'the
Gates, NNP, gat
of, IN, of
Hell, NNP, hel
Michelangelo, NNP, michelangelo
's, POS, 's
'Pieta, NNP, 'pieta
Hans, NNP, han
's, POS, 's
dolls, NNS, dol
Born, NNP, born
in, IN, in
1973, CD, 1973
in, IN, in
Oxfordshire, NNP, oxfordshir
Rachel, NNP, rachel
lives, VBZ, liv
and, CC, and
works, NNS, work
in, IN, in
London, NNP, london
Kneebone, NNP, kneebon
was, VBD, be
nominated, VBN, nomin
for, IN, for
the, DT, the
MaxMara, NNP, maxmar
and, CC, and
in, IN, in
the, DT, the
same, JJ, sam
year, NN, year
she, PRP, she
was, VBD, be
commissioned, VBN, commit
by, IN, by
Mario, NNP, mario
to, TO, to
make, VB, mak
work, NN, work
for, IN, for
his, PRP$, his
exhibition, NN, exhibit
'Diana, NN, 'diana
Princess, NNP, princess
of, IN, of
Wales, NNP, wal
Kensington, NNP, kensington
Camden, NNP, camd
London, NNP, london
Project, NNP, project
176, CD, 176
London, NNP, london
Royal, NNP, roy
of, IN, of
Arts, NNPS, art
London, NNP, london
Sydney, NNP, sydney
Fellbach, NNP, fellbach
House, NNP, hous
Barbican, NNP, barb
London, NNP, london
Busan, NNP, bus
Biennale, NNP, bien
2010, CD, 2010
South, NNP, sou
David, NNP, david
and, CC, and
Elizabeth, NNP, elizabe
Select, NNP, select
CityHomeArtistsGalleriesExhibitionsAachenAalstAarauAarhusAdelaideAlmereAltkirchAmersfoortAmiensAmsterdamAndratxAngoulemeAntwerpArnhemArnsbergAspenAthensAtlantaAucklandAustinAvignonBaden-BadenBangaloreBangkokBarcelonaBaselBeijingBeirutBelfastBelgradeBergamoBergenBerline, NNP, cityhomeartistsgalleriesexhibitionsaachenaalstaarauaarhusadelaidealmerealtkirchamersfoortamiensamsterdamandratxangoulemeantwerparnhemarnsbergaspenathensatlantaaucklandaustinavignonbaden-badenbangalorebangkokbarcelonabaselbeijingbeirutbelfastbelgradebergamobergenberline
\u00fc, NNP, \u00fc
