Skip, NNP, skip
to, TO, to
Site, NNP, sit
to, TO, to
Search, NNP, search
World, NNP, world
USA, NNP, us
Commentary, NNP, com
Business, NNP, busy
Energy/Environment, NNP, energy/environment
Innovation, NNP, innov
Science, NNP, sci
Culture, NNP, cult
Books, NNP, book
All, NNP, al
Science, NNP, sci
Discoveries, NNPS, discovery
Sign, NNP, sign
up, IN, up
for, IN, for
FREE, NNP, fre
E-Newsletters, NNPS, e-newsletters
Daily, NNP, dai
Opinion, NNP, opin
Commentary, NNP, com
Science, NN, sci
and, CC, and
save, VB, sav
75, CD, 75
Pierre, NNP, pier
de, IN, de
Fermat, NNP, ferm
is, VBZ, be
the, DT, the
patron, NN, patron
saint, NN, saint
of, IN, of
unfinished, JJ, unfin
business, NN, busy
In, IN, In
1637, CD, 1637
French, JJ, french
mathematician, NN, mathem
Pierre, NNP, pier
de, IN, de
Fermat, NNP, ferm
jotted, VBD, jot
Fermat, NNP, ferm
's, POS, 's
birthday, NN, birthday
Google, NNP, googl
celebrates, VBZ, celebr
Fermat, NNP, ferm
's, POS, 's
Last, JJ, last
Theorem, NNP, theorem
Eoin, NNP, eoin
Staff, NNP, staff
Fermat, NNP, ferm
's, POS, 's
Last, JJ, last
Theorem, NNP, theorem
Greek, NNP, greek
mathematical, JJ, mathem
text, NN, text
by, IN, by
Pierre, NNP, pier
de, IN, de
Fermat, NNP, ferm
in, IN, in
1637, CD, 1637
World, NN, world
History, NN, hist
Archive/Newscom/File, JJ, archive/newscom/fil
Enlarge, NNP, enlarg
of, IN, of
history, NN, hist
's, POS, 's
great, JJ, gre
thinkers, NNS, think
are, VBP, be
remembered, VBN, rememb
for, IN, for
their, PRP$, their
completed, VBN, complet
works, NNS, work
Newton, NNP, newton
's, POS, 's
Principia, NNP, princip
Kant, NNP, kant
's, POS, 's
Critique, NNP, crit
of, IN, of
Pure, NNP, pur
Darwin, NNP, darwin
's, POS, 's
Origin, NNP, origin
of, IN, of
Species, NNPS, specy
Skip, NNP, skip
to, TO, to
next, JJ, next
paragraph, NN, paragraph
In, IN, In
Pictures, NNP, pict
Google, NNP, googl
Doodles, NNP, doodl
you, PRP, you
'll, MD, 'll
never, RB, nev
see, VB, see
Related, NNP, rel
stories, NNS, story
Why, WRB, Why
you, PRP, you
should, MD, should
care, VB, car
about, IN, about
Gregor, NNP, greg
Robert, NNP, robert
Google, NNP, googl
John, NNP, john
Google, NNP, googl
doodle, NN, doodl
Subscribe, NNP, subscrib
Today, NNP, today
to, TO, to
the, DT, the
Monitor, NNP, monit
Click, NNP, click
for, IN, for
your, PRP$, your
FREE, NNP, fre
30, CD, 30
DAYS, NNS, day
ofThe, NNP, ofth
MonitorWeekly, NNP, monitorweek
Digital, NNP, digit
Not, NNP, not
so, RB, so
for, IN, for
17th, JJ, 17th
century, NN, century
French, JJ, french
mathematician, NN, mathem
Pierre, NNP, pier
de, IN, de
Fermat, NNP, ferm
Fermat, NNP, ferm
accomplished, VBD, accompl
many, JJ, many
feats, NNS, feat
Frenchman, NNP, frenchm
Ren\u00e9, NNP, ren\u00e9
Descartes, NNP, descart
Fermat, NNP, ferm
is, VBZ, be
best, JJS, best
remembered, VBN, rememb
not, RB, not
for, IN, for
what, WP, what
he, PRP, he
did, VBD, do
Greek, NNP, greek
text, NN, text
by, IN, by
the, DT, the
3rd, JJ, 3rd
century, NN, century
mathematician, NN, mathem
Diophantus, NNP, diophant
Fermat, NNP, ferm
jotted, VBD, jot
Google, NNP, googl
you, PRP, you
'll, MD, 'll
never, RB, nev
seeFermat, NNP, seeferm
's, POS, 's
marginalia, NN, marginal
Latin, NNP, latin
and, CC, and
later, JJ, lat
discovered, VBN, discov
by, IN, by
his, PRP$, his
son, NN, son
after, IN, after
he, PRP, he
died, VBD, die
Fermat, NNP, ferm
never, RB, nev
got, VBD, get
around, IN, around
to, TO, to
sharing, NN, shar
his, PRP$, his
``, ``, ``
Fermat, NNP, ferm
himself, PRP, himself
had, VBD, hav
inadvertently, RB, inadvert
proved, VBN, prov
it, PRP, it
for, IN, for
French, JJ, french
mathematician, NN, mathem
Sophie, NNP, soph
proved, VBD, prov
it, PRP, it
for, IN, for
Sophie, NNP, soph
primes, VBZ, prim
Fermat, NNP, ferm
's, POS, 's
Last, JJ, last
Theorem, NNP, theorem
had, VBD, hav
been, VBN, be
solved, VBN, solv
for, IN, for
all, PDT, all
prime, JJ, prim
numbers, NNS, numb
less, RBR, less
than, IN, than
four, CD, four
million, CD, million
Fermat, NNP, ferm
's, POS, 's
conjecture, NN, conject
held, VBD, hold
Guinness, NNP, guin
of, IN, of
World, NNP, world
Records, NNP, record
as, IN, as
the, DT, the
World, NNP, world
's, POS, 's
Most, NNP, most
Difficult, NNP, difficult
Math, NNP, math
Problem, NNP, problem
British, NNP, brit
mathematician, JJ, mathem
Andrew, NNP, andrew
Wiles, NNS, wil
Fermat, NNP, ferm
took, VBD, tak
Fermat, NNP, ferm
had, VBD, hav
somehow, NN, somehow
managed, VBN, man
to, TO, to
publish, VB, publ
his, PRP$, his
proof, NN, proof
during, IN, during
his, PRP$, his
lifetime, NN, lifetim
Camaro, NNP, camaro
sitting, NN, sit
on, IN, on
blocks, NNS, block
on, IN, on
your, PRP$, your
lawn, NN, lawn
Fermat, NNP, ferm
PICTURES, NNP, pict
Google, NNP, googl
you, PRP, you
'll, MD, 'll
never, RB, nev
see, VB, see
Related, NNP, rel
stories, NNS, story
Why, WRB, Why
you, PRP, you
should, MD, should
care, VB, car
about, IN, about
Gregor, NNP, greg
Robert, NNP, robert
Google, NNP, googl
John, NNP, john
Google, NNP, googl
doodle, NN, doodl
About, IN, About
these, DT, these
ads, NNS, ad
Subscribe, NNP, subscrib
The, NNP, the
Christian, NNP, christian
Today, NNP, today
Read, NNP, read
Comments, NNP, com
reader, NN, read
comments, NNS, com
Please, NN, pleas
do, VBP, do
not, RB, not
post, VB, post
comments, NNS, com
that, WDT, that
are, VBP, be
commercial, JJ, commerc
in, IN, in
nature, NN, nat
or, CC, or
that, IN, that
violate, JJ, viol
any, DT, any
copyright, NN, copyright
FAQ, NNP, faq
page, NN, pag
Service, NNP, serv
