Welcome, NNP, welcom
Advanced, NNP, adv
Gift, NNP, gift
Digital, NNP, digit
by, IN, by
Zinio, NNP, zinio
Academic/Institutional, JJ, academic/institutional
Newsletters, NNS, newslet
Subscriber, NNP, subscrib
Alert, NNP, alert
NYRblog, NNP, nyrblog
NYRgallery, NNP, nyrgallery
50, CD, 50
Years, NNS, year
Events, NNS, ev
Print, NNP, print
Illustrations, NNP, illust
50, CD, 50
Years, NNS, year
Books, NNP, book
Gift, NNP, gift
Gift, NNP, gift
Digital, NNP, digit
by, IN, by
Zinio, NNP, zinio
Academic/Institutional, JJ, academic/institutional
Newsletters, NNS, newslet
Subscriber, NNP, subscrib
Alert, NNP, alert
NYRblog, NNP, nyrblog
NYRgallery, NNP, nyrgallery
50, CD, 50
Years, NNS, year
Events, NNS, ev
Print, NNP, print
November, NNP, novemb
Rudolf, NNP, rudolf
Kurt, NNP, kurt
In, NNP, in
response, NN, respons
to, TO, to
Nuclear, NNP, nuclear
Threat, NNP, threat
Kurt, NNP, kurt
and, CC, and
Robert, NNP, robert
address, NN, address
the, DT, the
question, NN, quest
of, IN, of
future, JJ, fut
nuclear, JJ, nuclear
policy, NN, policy
Soviet, NNP, soviet
Treaty, NNP, treaty
NPT, NNP, npt
NPT, NNP, npt
includes, VBZ, includ
Chinese, JJ, chines
nuclear, JJ, nuclear
attack, NN, attack
Indian, NNP, ind
nuclear, JJ, nuclear
weapons, NNS, weapon
Saddam, NNP, saddam
to, TO, to
work, VB, work
clandestinely, RB, clandestin
on, IN, on
some, DT, some
nuclear, JJ, nuclear
projects, NNS, project
Improved, NNP, improv
inspection, NN, inspect
may, MD, may
NPT, NNP, npt
UN, NNP, un
Charter, NNP, chart
Iraq, NNP, iraq
NPT, NNP, npt
European, NNP, europ
Community, NNP, commun
to, TO, to
withhold, VB, withhold
aid, NN, aid
from, IN, from
Yugoslavia, NNP, yugoslav
unless, IN, unless
the, DT, the
country, NN, country
accepted, VBD, acceiv
mediation, NN, medy
Such, JJ, such
interference, NN, interf
has, VBZ, hav
wide, JJ, wid
approval, NN, approv
Rudolf, NNP, rudolf
Peierls, NNP, peierl
England, NNP, england
and, CC, and
Robert, NNP, robert
Kurt, NNP, kurt
replies, VBZ, reply
Sir, NNP, sir
Peierls\u2019s, NNP, peierls\u2019
view, NN, view
that, IN, that
deep, NN, deep
reductions, NNS, reduc
by, IN, by
the, DT, the
nuclear, JJ, nuclear
powers, NNS, pow
will, MD, will
not, RB, not
Gordian, JJ, gord
is, VBZ, be
to, TO, to
be, VB, be
cut, VBN, cut
was, VBD, be
Peierls, NNP, peierl
seems, VBZ, seem
to, TO, to
be, VB, be
Rogue, NNP, rog
regimes, VBZ, regim
Iraq\u2019s, NNP, iraq\u2019s
India, NNP, ind
and, CC, and
Pakistan, NNP, pak
seem, VBP, seem
to, TO, to
illustrate, VB, illust
this, DT, this
syndrome, NN, syndrom
India, NNP, ind
might, MD, might
well, RB, wel
be, VB, be
swayed, VBN, sway
if, IN, if
the, DT, the
United, NNP, unit
and, CC, and
the, DT, the
Soviet, NNP, soviet
were, VBD, be
to, TO, to
make, VB, mak
deep, RP, deep
cuts, NNS, cut
China, NNP, chin
Treaty, NNP, treaty
and, CC, and
to, TO, to
agree, VB, agr
to, TO, to
the, DT, the
Comprehensive, NNP, comprehend
Ban\u2014in, NN, ban\u2014in
short, JJ, short
India, NNP, ind
follow, VB, follow
the, DT, the
example, NN, exampl
of, IN, of
South, NNP, sou
Pakistan, NNP, pak
would, MD, would
IAEA, NNP, iae
apparently, RB, app
had, VBD, hav
the, DT, the
authority, NN, auth
to, TO, to
carry, VB, carry
out, RP, out
\u201cspecial, JJ, \u201cspecial
inspections, NNS, inspect
UN, NNP, un
actions, NNS, act
in, IN, in
Iraq, NNP, iraq
Iraq, NNP, iraq
had, VBD, hav
US, NNP, us
intelligence, NN, intellig
Email, NNP, email
Print, NNP, print
Tweet, NNP, tweet
From, NNP, from
the, DT, the
Current, NNP, cur
\u2014\u2014, NNP, \u2014\u2014
October, NNP, octob
24, CD, 24
\u2014\u2014, CD, \u2014\u2014
Terror, NNP, ter
Hidden, NNP, hid
Ruthven, NNP, ruthv
John, NNP, john
Vivid, NNP, vivid
Robert, NNP, robert
of, IN, of
Our, NNP, our
David, NNP, david
and, CC, and
Lovisa, NNP, lovis
in, IN, in
the, DT, the
Digital, NNP, digit
J., NNP, j.
Hoberman, NNP, hoberm
Back, NNP, back
Door, NNP, door
Secession, NNP, secess
Garry, NNP, garry
from, IN, from
the, DT, the
NYRblog, NNP, nyrblog
of, IN, of
upcoming, VBG, upcom
issues, NNS, issu
Home, NN, hom
Contact, NN, contact
Subscribe, NNP, subscrib
Advertise, NNP, advert
University, NNP, univers
Press, NNP, press
Listing, NNP, list
Independent, NNP, independ
Press, NNP, press
Listing, NNP, list
Help/FAQ, NNP, help/faq
Books, NNP, book
of, IN, of
Service, NNP, serv
\u00a9, NNP, \u00a9
