Digital, NNP, digit
campaign, NN, campaign
Bar1, NNP, bar1
In, NNP, in
Register, NNP, reg
Now, NNP, now
Help, NNP, help
Home, NNP, hom
Page, NNP, pag
Today, NNP, today
's, POS, 's
Paper, NNP, pap
Edition, NNP, edit
U.S., NNP, u.s.
Global, NNP, glob
NYTimes.com, NNP, nytimes.com
Arts, NNPS, art
World, NNP, world
U.S., NNP, u.s.
N.Y., NNP, n.y.
DesignBooksDanceMoviesMusicTelevisionTheaterVideo, NNP, designbooksdancemoviesmusictelevisiontheatervideo
GamesEventsInternational, NNP, gameseventsintern
Arts, NNP, art
Style, NNP, styl
Travel, NNP, travel
DIANA, NNP, dian
ROSS, NNP, ross
SPREADING, NNP, spreading
HER, NNP, her
WINGS, NNP, wing
By, NNP, by
STEPHEN, NNP, steph
HOLDEN, NNP, hold
Published, NNP, publ
Diana, NNP, dian
's, POS, 's
concert, NN, concert
at, IN, at
the, DT, the
72,000-seat, JJ, 72,000-seat
Giants, NNS, giant
in, IN, in
the, DT, the
New, NNP, new
will, MD, will
be, VB, be
the, DT, the
first, JJ, first
nighttime, NN, nighttim
pop-music, JJ, pop-music
concert, NN, concert
in, IN, in
the, DT, the
history, NN, hist
of, IN, of
the, DT, the
stadium, NN, stad
United, NNP, unit
arena, NN, aren
Miss, NNP, miss
has, VBZ, hav
performed, VBN, perform
in, IN, in
since, IN, since
she, PRP, she
left, VBD, leav
the, DT, the
Supremes, NNP, suprem
12, CD, 12
years, NNS, year
ago, RB, ago
to, TO, to
pursue, VB, pursu
Miles, NNP, mil
and, CC, and
his, PRP$, his
group, NN, group
and, CC, and
the, DT, the
pop-soul, JJ, pop-soul
band, NN, band
Frankie, NNP, franky
with, IN, with
Maze, NNP, maz
Miss, NNP, miss
and, CC, and
her, PRP$, her
18-piece, JJ, 18-piece
band, NN, band
perform, NN, perform
in, IN, in
shows, NNS, show
at, IN, at
the, DT, the
Palais, NNP, pala
de, IN, de
Sports, NNPS, sport
in, IN, in
Paris, NNP, par
and, CC, and
London, NNP, london
's, POS, 's
Wembley, NNP, wembley
Giants, NNPS, giant
Miss, NNP, miss
's, POS, 's
backup, NN, backup
will, MD, will
be, VB, be
augmented, VBN, aug
by, IN, by
the, DT, the
horn, NN, horn
section, NN, sect
of, IN, of
the, DT, the
Asbury, NNP, asbury
New, NNP, new
rock, NN, rock
band, NN, band
George, NNP, georg
in, IN, in
conjunction, NN, conjunct
with, IN, with
Felix, NNP, felix
Miss, NNP, miss
Ross, NNP, ross
's, POS, 's
stadium, NN, stad
appearance, NN, appear
will, MD, will
include, VB, includ
Touch, NNP, touch
Hand, NNP, hand
Miss, NNP, miss
Diana, NNP, dian
music, NN, mus
Japan, NNP, jap
and, CC, and
Australia, NNP, austral
Miss, NNP, miss
Ross, NNP, ross
will, MD, will
continue, VB, continu
to, TO, to
play, VB, play
in, IN, in
major, JJ, maj
American, JJ, am
arenas, NNS, aren
through, IN, through
November, NNP, novemb
before, IN, before
going, VBG, go
abroad, RB, abroad
again, RB, again
Japan, NNP, jap
and, CC, and
Australia, NNP, austral
Miss, NNP, miss
to, TO, to
establish, VB, est
herself, PRP, herself
as, IN, as
an, DT, an
international, JJ, intern
star, NN, star
Miss, NNP, miss
Ross, NNP, ross
was, VBD, be
quick, JJ, quick
to, TO, to
point, NN, point
out, RP, out
that, IN, that
there, EX, there
is, VBZ, be
much, JJ, much
more, RBR, mor
to, TO, to
her, PRP$, her
professional, JJ, profess
life, NN, lif
than, IN, than
singing, VBG, sing
Diana, NNP, dian
Josephine, NNP, josephin
St., NNP, st.
Louis-born, NNP, louis-born
entertainer, NN, entertain
who, WP, who
became, VBD, becom
the, DT, the
toast, NN, toast
of, IN, of
Europe, NNP, europ
between, IN, between
the, DT, the
world, NN, world
wars, NNS, war
Paramount, NNP, paramount
Miss, NNP, miss
to, TO, to
Miss, NNP, miss
's, POS, 's
life, NN, lif
story, NN, story
was, VBD, be
Create, NNP, cre
Her, NNP, her
Own, NNP, own
World, NNP, world
Baker, NNP, bak
was, VBD, be
one, CD, one
of, IN, of
Miss, NNP, miss
said, VBD, say
American, JJ, am
in, IN, in
Europe, NNP, europ
European, JJ, europ
and, CC, and
American, NNP, am
blacks, NNS, black
Boss, NNP, boss
Diana, NNP, dian
back, RB, back
to, TO, to
the, DT, the
top, JJ, top
of, IN, of
the, DT, the
charts, NNS, chart
four, CD, four
years, NNS, year
ago, RB, ago
after, IN, after
Miss, NNP, miss
's, POS, 's
approach, NN, approach
to, TO, to
music, JJ, mus
these, DT, these
days, NNS, day
Nickolas, NNP, nickola
and, CC, and
Valerie, NNP, valery
Miss, NNP, miss
rebounded, VBD, rebound
with, IN, with
her, PRP$, her
most, RBS, most
robust, JJ, robust
performances, NNS, perform
in, IN, in
years, NNS, year
Miss, NNP, miss
Miss, NNP, miss
Ross, NNP, ross
followed, VBD, follow
''The, NNP, ''the
Boss, NNP, boss
'', '', ''
with, IN, with
the, DT, the
still-more, JJ, still-more
successful, JJ, success
''Diana, NN, ''diana
Bernard, NNP, bernard
and, CC, and
Nile, NNP, nil
Chic, NNP, chic
Miss, NNP, miss
to, TO, to
write, VB, writ
songs, NNS, song
''my, JJ, ''my
children, NNS, child
could, MD, could
sing, VBG, sing
Edward, NNP, edward
and, CC, and
Rodgers, NNP, rodg
team, NN, team
responded, VBD, respond
with, IN, with
''Upside, JJ, ''upside
Down, NNP, down
Jungle, NNP, jungl
physicality, NN, phys
in, IN, in
one, CD, one
of, IN, of
her, PRP$, her
most, RBS, most
critically, RB, crit
and, CC, and
commercially, RB, commerc
successful, JJ, success
albums, NNS, alb
Left, NNP, left
Motown, NNP, motown
Year, NNP, year
Last, NNP, last
year, NN, year
Miss, NNP, miss
left, VBD, leav
Motown, NNP, motown
RCA, NNP, rca
in, IN, in
the, DT, the
United, NNP, unit
and, CC, and
Canada, NNP, canad
and, CC, and
with, IN, with
EMI, NNP, em
abroad, RB, abroad
RCA, NNP, rca
album, NN, alb
Love, NNP, lov
Miss, NNP, miss
took, VBD, tak
full, JJ, ful
production, NN, produc
control, NN, control
Motown, NNP, motown
with, IN, with
Frankie, NNP, franky
and, CC, and
the, DT, the
Teenagers, NNPS, teen
Drifters, NNPS, drift
Miss, NNP, miss
said, VBD, say
Diana, NNP, dian
's, POS, 's
records, NNS, record
today, NN, today
with, IN, with
her, PRP$, her
1960, CD, 1960
's, POS, 's
hits, NNS, hit
with, IN, with
the, DT, the
Supremes, NNP, suprem
Love, NNP, lov
'', '', ''
was, VBD, be
sassy, JJ, sassy
and, CC, and
sexy, JJ, sexy
in, IN, in
Frankie, NNP, franky
Very, NNP, very
soon, RB, soon
Miss, NNP, miss
was, VBD, be
aiming, VBG, aim
for, IN, for
Supremes, NNP, suprem
recorded, VBD, record
an, DT, an
album, NN, alb
of, IN, of
Rodgers, NNP, rodg
and, CC, and
Hart, NNP, hart
songs, NNS, song
Ashford, NNP, ashford
and, CC, and
Simpson, NNP, simpson
's, POS, 's
''Ai, NNP, ''ai
n't, RB, n't
No, DT, No
Mountain, NNP, mountain
High, NNP, high
Enough, NNP, enough
Miss, NNP, miss
showed, VBD, show
her, PRP, her
full, JJ, ful
potential, JJ, pot
as, IN, as
Blues, NNP, blu
'', '', ''
soundtrack, NN, soundtrack
Billie, NNP, bil
Holiday, NNP, holiday
Miss, NNP, miss
Holiday, NNP, holiday
's, POS, 's
style, NN, styl
into, IN, into
her, PRP$, her
own, JJ, own
Miss, NNP, miss
also, RB, also
reached, VBD, reach
for, IN, for
the, DT, the
emotional, JJ, emot
drama, NN, dram
of, IN, of
sJudy, NNP, sjudy
or, CC, or
Barbra, NNP, barbr
Seen, NNP, seen
'Dreamgirls, NNP, 'dreamgirls
Love, NNP, lov
Miss, NNP, miss
's, POS, 's
second, JJ, second
RCA, NNP, rca
album, NN, alb
Michael, NNP, michael
Miss, NNP, miss
Ross, NNP, ross
said, VBD, say
she, PRP, she
had, VBD, hav
not, RB, not
seen, VBN, see
''Dreamgirls, NNS, ''dreamgirls
Broadway, NNP, broadway
musical, JJ, mus
whose, WP$, whose
central, JJ, cent
characters, NNS, charact
are, VBP, be
said, VBN, say
to, TO, to
bear, VB, bear
more, JJR, mor
than, IN, than
Supremes, NNP, suprem
Miss, NNP, miss
said, VBD, say
Tickets, NNPS, ticket
for, IN, for
Sunday, NNP, sunday
's, POS, 's
concert, NN, concert
are, VBP, be
Ticketron, NNP, ticketron
and, CC, and
at, IN, at
the, DT, the
Meadowlands, NNS, meadowland
Arena, NNP, aren
box, NN, box
office, NN, off
in, IN, in
East, JJ, east
N.J., NNP, n.j.
Capitol, NNP, capitol
Theater, NNP, the
box, NN, box
office, NN, off
in, IN, in
Passaic, NNP, passa
Miss, NNP, miss
's, POS, 's
performance, NN, perform
to, TO, to
begin, VB, begin
at, IN, at
Diana, NNP, dian
This, NNP, thi
week, NN, week
International, NNP, intern
The, NNP, the
first, JJ, first
computer, NN, comput
programmer, NN, program
was, VBD, be
Tech, NNP, tech
\u00bb, NNP, \u00bb
Apple, NNP, appl
to, TO, to
opt, VB, opt
out, RP, out
of, IN, of
Google, NNP, googl
's, POS, 's
plan, NN, plan
to, TO, to
use, VB, us
your, PRP$, your
name, NN, nam
and, CC, and
comments, NNS, com
in, IN, in
ads, NNS, ad
Inside, NNP, insid
NYTimes.com, NNP, nytimes.com
Theater, NNP, the
\u00bb, NNP, \u00bb
Model, NNP, model
Donald, NNP, donald
\u00bb, NNP, \u00bb
Rivalry, NNP, rivalry
Cleaves, NNP, cleav
City, NNP, city
\u00bb, NNP, \u00bb
Doctors, NNS, doct
Wine, NNP, win
\u00bb, NNP, \u00bb
Whiskey, NNP, whiskey
\u00bb, NNP, \u00bb
Beyond, NNP, beyond
Boehner\u2019s, NNP, boehner\u2019s
Reach, NNP, reach
When, NNP, when
freedom, NN, freedom
is, VBZ, be
outlawed, VBN, outlaw
Yosemite, NNP, yosemit
Muzzled, NNP, muzzl
Absent, NNP, abs
Speaks, NNP, speak
\u00bb, NNP, \u00bb
Murong, NNP, murong
Toe, NNP, toe
\u00bb, NNP, \u00bb
Second, NNP, second
Tragedy, NNP, tragedy
Dining, NNP, din
Wine, NNP, win
\u00bb, NNP, \u00bb
