English-, NN, english-
Language, NN, langu
World, NNP, world
Espa\u00f1ol, NNP, espa\u00f1ol
Estonian, NNP, eston
U.S.A.-, NNP, u.s.a.-
Country, NNP, country
World, NNP, world
A., NNP, a.
Latina, NNP, latin
Arabia, NNP, arab
Espa\u00f1a, NNP, espa\u00f1
Finland, NNP, finland
France, NNP, frant
Germany, NNP, germany
Hong, NNP, hong
Hungary, NNP, hung
India, NNP, ind
Indonesia, NNP, indones
Israel, NNP, israel
Italy, NNP, ita
New, NNP, new
Norway, NNP, norway
Philippines, NNP, philippin
U.K., NNP, u.k.
U.S.A., NNP, u.s.a.
Ukraine, NNP, ukrain
Web|Image|Shop|Video|News|Wmx|Mobile|, NNP, web|image|shop|video|news|wmx|mobile|
Wiki|Add, NNP, wiki|add
this, DT, this
Engine, NNP, engin
JungleKey.com, NNP, junglekey.com
Wiki, NNP, wik
Jefferson, NNP, jefferson
P\u00e9rez, NNP, p\u00e9rez
2010.1.10, CD, 2010.1.10
Vote, NNP, vot
P\u00e9rez, NNP, p\u00e9rez
Quezada, NNP, quezad
is, VBZ, be
Ecuadorian, JJ, ecuad
race, NN, rac
walker, NN, walk
Quito, NNP, quito
's, POS, 's
Franciscan, NNP, francisc
cathedral, JJ, cathedr
to, TO, to
his, PRP$, his
hometown, NN, hometown
of, IN, of
Cuenca.By, JJ, cuenca.by
JungleKey.com, NN, junglekey.com
's, POS, 's
Team, NNP, team
Ecuador, NNP, ecuad
Approved, NNP, approv
Comment, NNP, com
Add, NNP, ad
indexMore, NNP, indexm
about, IN, about
Jefferson, NNP, jefferson
P\u00e9rez, NNP, p\u00e9rez
with, IN, with
Images, NNPS, im
Web, NNP, web
Videos, NNP, video
and, CC, and
News, NNP, new
searches, NNS, search
Jefferson, NNP, jefferson
Oficial, NNP, of
P\u00e9rez, NNP, p\u00e9rez
was, VBD, be
one, CD, one
of, IN, of
the, DT, the
most, RBS, most
outstanding, JJ, outstand
figures, NNS, fig
in, IN, in
the, DT, the
ceremony, NN, ceremony
at, IN, at
the, DT, the
Bolivar, NNP, boliv
Theater, NNP, the
Jefferson, NNP, jefferson
is, VBZ, be
JP, NNP, jp
Marketing, NNP, market
All, NNP, al
..., :, ...
http, NN, http
Runner, NNP, run
's, POS, 's
Triathlete, NNP, triathlet
's, POS, 's
Web, NNP, web
Athletics, NNP, athlet
..., :, ...
Athletics, NNS, athlet
Latest, NNP, latest
World, NNP, world
Rankings, NNP, rank
..., :, ...
Ecuador, NNP, ecuad
's, POS, 's
Jefferson, NNP, jefferson
P\u00e9rez, NNP, p\u00e9rez
is, VBZ, be
also, RB, also
Race, NNP, rac
Event, NNP, ev
Ranking, NNP, rank
leader, NN, lead
Comments, NNS, com
Channel, NNP, channel
Web, NNP, web
Jefferson, NNP, jefferson
Oficial, NNP, of
Site.., NNP, site..
News, NNP, new
\u0095, NNP, \u0095
Jefferson, NNP, jefferson
P\u00e9rez, NNP, p\u00e9rez
400, CD, 400
Jefferson, NNP, jefferson
P\u00e9rez, NNP, p\u00e9rez
329, CD, 329
Jefferson, NNP, jefferson
P\u00e9rez, NNP, p\u00e9rez
536, CD, 536
JEFFERSON, NNP, jefferson
P\u00c9REZ, NNP, p\u00e9rez
621, CD, 621
Licence, NNP, lic
