Log, NNP, log
In, IN, In
Register, NNP, reg
Now, NNP, now
Help, NNP, help
Home, NNP, hom
Page, NNP, pag
Today, NNP, today
's, POS, 's
Paper, NNP, pap
Edition, NNP, edit
U.S., NNP, u.s.
Global, NNP, glob
NYTimes.com, NNP, nytimes.com
Sunday, NNP, sunday
Book, NNP, book
Review, NNP, review
World, NNP, world
U.S., NNP, u.s.
N.Y., NNP, n.y.
Travel, NNP, travel
Getting, NNP, get
to, TO, to
Know, NNP, know
Mulling, NNP, mul
the, DT, the
story, NN, story
of, IN, of
David, NNP, david
Called, NNP, cal
SIMON, NNP, simon
CALLOW, NNP, callow
Published, NNP, publ
Charles, NNP, charl
in, IN, in
an, DT, an
episode, NN, episod
of, IN, of
the, DT, the
British, JJ, brit
sci-fi, NN, sci-f
series, NNS, sery
\u201cDoctor, NN, \u201cdoctor
Who.\u201d, -NONE-, Who.\u201d
As, IN, As
the, DT, the
doctor, NN, doct
takes, VBZ, tak
his, PRP$, his
leave, NN, leav
of, IN, of
Earth, NNP, ear
Dickens, NNP, dick
asks, VBZ, ask
whether, IN, whether
his, PRP$, his
books, NNS, book
will, MD, will
still, RB, stil
be, VB, be
read, VBN, read
in, IN, in
the, DT, the
future, NN, fut
Dickens, NNP, dick
wants, VBZ, want
to, TO, to
know, VB, know
BOY, NNP, boy
CALLED, NNP, cal
DICKENS, NNP, dick
By, NNP, by
Deborah, NNP, deborah
Illustrated, NNP, illust
by, IN, by
John, NNP, john
40, CD, 40
pp, NN, pp
Schwartz, NNP, schwartz
Wade, NNP, wad
Picture, NN, pict
book, NN, book
CHARLES, NNP, charl
DICKENS, NNP, dick
Scenes, NNP, scen
From, NNP, from
an, DT, an
Extraordinary, NNP, extraordin
Life, NNP, lif
Written, NNP, writ
and, CC, and
illustrated, VBD, illust
by, IN, by
Mick, NNP, mick
and, CC, and
Brita, NNP, brit
Granstrom, NNP, granstrom
48, CD, 48
pp, NN, pp
Lincoln, NNP, lincoln
Middle, NNP, middl
grade, NN, grad
CHARLES, NNP, charl
DICKENS, NNP, dick
AND, NNP, and
THE, NNP, the
STREET, NNP, street
CHILDREN, NNP, childr
OF, NNP, of
LONDON, NNP, london
By, NNP, by
Andrea, NNP, andre
156, CD, 156
pp, NN, pp
Houghton, NNP, houghton
Mifflin, NNP, mifflin
Young, NNP, young
adult, NN, adult
DICKENS, NNP, dick
England\u2019s, NNP, england\u2019s
Most, NNP, most
Captivating, NNP, capt
Storyteller, NNP, storytel
By, NNP, by
Catherine, NNP, catherin
Wells-Cole, NNP, wells-cole
Illustrated, NNP, illust
Middle, NNP, middl
grade, NN, grad
Major, NNP, maj
biographies, NNS, biograph
follow, VBP, follow
one, CD, one
another, DT, another
in, IN, in
majestic, JJ, majest
procession, NN, process
Ackroyd, NNP, ackroyd
Slater, NNP, slat
Tomalin, NNP, tomalin
William, NNP, william
English, NNP, engl
literature, NN, lit
Dickens, NNPS, dick
is, VBZ, be
that, IN, that
unusual, JJ, unus
thing, NN, thing
Victorian, JJ, vict
England, NNP, england
was, VBD, be
profoundly, RB, profound
shocked, VBN, shock
to, TO, to
discover, RB, discov
that, IN, that
Dickens\u2019s, JJ, dickens\u2019
compassion, NN, compass
for, IN, for
the, DT, the
poor, JJ, poor
and, CC, and
the, DT, the
disadvantaged, JJ, disadv
sprang, NN, sprang
Christian, NNP, christian
kindness, NN, kind
Strand, NNP, strand
from, IN, from
the, DT, the
ages, NNS, ag
of, IN, of
12, CD, 12
to, TO, to
13, CD, 13
Dickens, NNP, dick
publishing, NN, publ
tsunami, NN, tsunam
which, WDT, which
next, JJ, next
year\u2019s, NNS, year\u2019s
bicentenary, JJ, bic
has, VBZ, hav
provoked, VBN, provok
Called, NNP, cal
Dickens.\u201d, NNP, dickens.\u201d
It, NNP, it
concentrates, VBZ, cont
entirely, RB, entir
on, IN, on
the, DT, the
novelist\u2019s, NNP, novelist\u2019s
time, NN, tim
at, IN, at
Warren\u2019s, JJ, warren\u2019s
Dickens, NNP, dick
went, VBD, go
to, TO, to
work, VB, work
making, VBG, mak
shoe, NN, sho
polish, NN, pol
to, TO, to
support, VB, support
his, PRP$, his
family, NN, famy
John, NNP, john
Hendrix\u2019s, NNP, hendrix\u2019s
illustrations, NNS, illust
of, IN, of
London, NNP, london
succeed, NN, success
better, JJR, good
than, IN, than
his, PRP$, his
figures, NNS, fig
Mick, NNP, mick
and, CC, and
Brita, NNP, brit
take, VB, tak
us, PRP, us
through, IN, through
the, DT, the
whole, JJ, whol
life, NN, lif
Dickens, NNP, dick
leaping, NN, leap
up, IN, up
from, IN, from
his, PRP$, his
writing, NN, writ
desk, NN, desk
to, TO, to
check, VB, check
the, DT, the
expressions, NNS, express
on, IN, on
his, PRP$, his
own, JJ, own
face, NN, fac
as, IN, as
he, PRP, he
wrote, VBD, writ
Dickens, NNP, dick
grew, VBD, grow
his, PRP$, his
beard, NN, beard
Dickens, NNP, dick
would, MD, would
gain, VB, gain
something, NN, someth
from, IN, from
this, DT, this
book, NN, book
Dickens, NNP, dick
is, VBZ, be
not, RB, not
dwelt, VBN, dwel
on, IN, on
nor, CC, nor
Dickens, NNP, dick
and, CC, and
the, DT, the
Street, NNP, street
of, IN, of
London, NNP, london
Andrea, NNP, andre
Warren\u2019s, NNP, warren\u2019s
study, NN, study
of, IN, of
the, DT, the
significance, NN, sign
of, IN, of
the, DT, the
city\u2019s, JJ, city\u2019s
street, NN, street
children, NNS, child
in, IN, in
Dickens\u2019s, JJ, dickens\u2019
life, NN, lif
and, CC, and
work, VB, work
Dickens, NNP, dick
did, VBD, do
for, IN, for
them, PRP, them
Warren, NNP, war
becomes, VBZ, becom
fascinated, VBN, fascin
by, IN, by
Thomas, NNP, thoma
Hospital, NNP, hospit
Hogarth, NNP, hogar
and, CC, and
Handel, NNP, handel
along, IN, along
the, DT, the
way, NN, way
Dickens, NNP, dick
knew, VBD, know
London, NNP, london
until, IN, until
the, DT, the
year, NN, year
of, IN, of
Dickens\u2019s, NNP, dickens\u2019
death, NN, dea
Charles, NNP, charl
Chatham, NNP, chatham
Catherine, NNP, catherin
was, VBD, be
not, RB, not
Dickens\u2019s, JJ, dickens\u2019
publisher\u2019s, NNS, publisher\u2019s
daughter, RBR, daught
Warren, NNP, war
is, VBZ, be
inclined, VBN, inclin
to, TO, to
put, VB, put
thoughts, NNS, thought
into, IN, into
Dickens\u2019s, JJ, dickens\u2019
head, NN, head
Dickens, NNP, dick
London, NNP, london
Christmas, NNP, christmas
and, CC, and
so, RB, so
forth, JJ, for
\u2014, NN, \u2014
Included, JJ, includ
is, VBZ, be
Dickens, NNP, dick
wrote, VBD, writ
to, TO, to
his, PRP$, his
former, JJ, form
girlfriend, NN, girlfriend
Maria, NNP, mar
Catherine, NNP, catherin
Wells-Cole, NNP, wells-cole
is, VBZ, be
sharp, JJ, sharp
and, CC, and
even, RB, ev
racy, NN, racy
Dickens, NNP, dick
novel, NN, novel
Doctor, NNP, doct
Who\u2019s, NNP, who\u2019s
prediction, NN, predict
remains, VBZ, remain
true, JJ, tru
Simon, NNP, simon
Callow, NNP, callow
is, VBZ, be
an, DT, an
actor, NN, act
and, CC, and
author, NN, auth
Pieces, NNP, piec
Dickens, NNP, dick
and, CC, and
the, DT, the
Great, NNP, gre
Theatre, NNP, the
of, IN, of
the, DT, the
World, NNP, world
BR20, NNP, br20
of, IN, of
the, DT, the
Sunday, NNP, sunday
Book, NNP, book
Review, NNP, review
with, IN, with
the, DT, the
headline, NN, headlin
Get, NN, get
Free, NNP, fre
E-mail, NNP, e-mail
Alerts, NNP, alert
on, IN, on
These, DT, These
Topics, NNP, top
Books, NNP, book
and, CC, and
Literature, NNP, lit
Charles, NNP, charl
Brita, NNP, brit
John, NNP, john
NYTimes.com, NNP, nytimes.com
Theater, NNP, the
\u00bb, NNP, \u00bb
Model, NNP, model
Donald, NNP, donald
\u00bb, NNP, \u00bb
Rivalry, NNP, rivalry
Cleaves, NNP, cleav
City, NNP, city
\u00bb, NNP, \u00bb
Doctors, NNS, doct
Wine, NNP, win
\u00bb, NNP, \u00bb
Whiskey, NNP, whiskey
\u00bb, NNP, \u00bb
Beyond, NNP, beyond
Boehner\u2019s, NNP, boehner\u2019s
Reach, NNP, reach
When, NNP, when
freedom, NN, freedom
is, VBZ, be
outlawed, VBN, outlaw
Yosemite, NNP, yosemit
Muzzled, NNP, muzzl
Absent, NNP, abs
Speaks, NNP, speak
\u00bb, NNP, \u00bb
Murong, NNP, murong
Toe, NNP, toe
\u00bb, NNP, \u00bb
Second, NNP, second
Tragedy, NNP, tragedy
Dining, NNP, din
Wine, NNP, win
\u00bb, NNP, \u00bb
Room, NNP, room
for, IN, for
Debate, NNP, deb
asks, VBZ, ask
Belafonte, NNP, belafont
of, IN, of
Martin, NNP, martin
King, NNP, king
Jr., NNP, jr.
\u00a9, NNP, \u00a9
New, NNP, new
Times, NNP, tim
Your, NNP, yo
Ad, NNP, ad
Choices, NNPS, cho
Advertise, NNP, advert
of, IN, of
Sale, NNP, sal
of, IN, of
Service, NNP, serv
With, NNP, with
Us, NNP, us
