Alerts, NNP, alert
Newsletters, NNP, newslet
Directory, NNP, direct
Place, NNP, plac
Ad, NNP, ad
Wednesday, NNP, wednesday
PDT, NNP, pdt
HOME, NNP, hom
Breaking, NNP, break
Photos, NNP, photo
Crime, NNP, crim
Obituaries, NNPS, obitu
Weather, NNP, weath
L.A., NNP, l.a.
Now, NNP, now
Politics, NNP, polit
Crime, NNP, crim
Education, NNP, educ
O.C, NNP, o.c
Westside, NNP, westsid
Neighborhoods, NNP, neighb
Maps, NNP, map
Nation, NNP, nat
of, IN, of
the, DT, the
Ticket, NNP, ticket
World, NNP, world
World, NNP, world
Now, NNP, now
Afghanistan, NNP, afgh
war, NN, war
Africa, NNP, afric
Company, NNP, company
Sports, NNP, sport
now, RB, now
Lakers, NNP, lak
NFL, NNP, nfl
Kings, NNP, king
NHL/Ducks, NNP, nhl/ducks
USC, NNP, usc
UCLA, NNP, ucl
Preps, NNP, prep
Scores, NNP, scor
Envelope, NNP, envelop
TV, NNP, tv
Music, NNP, mus
Culture, NNP, cult
Picks, NNP, pick
Nutrition, NNP, nutrit
Body, NNP, body
L.A., NNP, l.a.
Affairs, NNP, affair
Comics, NNP, com
Reader, NNP, read
Photos, NNP, photo
SoCal, NNP, soc
Deal, NNP, deal
Op-Ed, NNP, op-ed
Letters, NNP, let
Opinion, NNP, opin
L.A., NNP, l.a.
Top, NNP, top
of, IN, of
the, DT, the
Ticket, NNP, ticket
Daily, NNP, dai
Offers, NNP, off
Weekly, NNP, week
Circulars, NNP, circul
Deals, NNP, deal
Member, NNP, memb
Center, NNP, cent
Alerts, NNP, alert
Newsletters, NNP, newslet
Directory, NNP, direct
Place, NNP, plac
Ad, NNP, ad
TRENDING, NNP, trend
NOW, NNP, now
Government, NNP, govern
shutdown, NN, shutdown
dodgers, NNS, dodg
iran, VBP, ir
dry, JJ, dry
ice, NN, ic
bombs, NNS, bomb
Earthquakes, VBZ, earthquak
maryville, JJ, maryvil
rape, NN, rap
/*OVERWRITES*/, NN, /*overwrites*/
.adv_search, NN, .adv_search
adv_search, NNP, adv_search
adv_search, NNP, adv_search
.adv_search_head, NNP, .adv_search_head
adv_help, NNP, adv_help
.adv_search_head, NNP, .adv_search_head
search_overlay, NNP, search_overlay
adv_keywords_head, NNP, adv_keywords_head
Advanced, NNP, adv
Fermilab, NNP, fermilab
played, VBD, play
key, JJ, key
role, NN, rol
in, IN, in
Nobel, NNP, nobel
Prize-winning, JJ, prize-winning
discovery, NN, discovery
Comments, NNS, com
Tevatron, NNP, tevatron
accelerator, NN, accel
Fahrenheit, NN, fahrenheit
Higgs, NNP, hig
boson, NN, boson
and, CC, and
served, VBD, serv
as, IN, as
Large, NNP, larg
Collider, NNP, collid
where, WRB, where
the, DT, the
particle, NN, partic
was, VBD, be
eventually, RB, ev
discovered, VBN, discov
Fermi, NNP, ferm
Batavia, NNP, batav
Illinois, NNP, illino
Chicago, NNP, chicago
U.S., NNP, u.s.
Department, NNP, depart
of, IN, of
Energy, NNP, energy
national, JJ, nat
laboratory, NN, lab
specializing, VBG, spec
in, IN, in
high-energy, JJ, high-energy
particle, NN, partic
physics, NNS, phys
AFP, NNP, afp
PHOTO, NNP, photo
Stephanie, NNP, stephany
Chicago, NNP, chicago
Tribune, NNP, tribun
reporter, NN, report
October, NNP, octob
11, CD, 11
Particle, NNP, partic
physicists, NNS, phys
at, IN, at
the, DT, the
Fermi, NNP, ferm
Fermilab, NNP, fermilab
Higgs, NNP, hig
boson, NN, boson
Royal, NNP, roy
of, IN, of
Sciences, NNPS, sci
awarded, VBN, award
the, DT, the
Nobel, NNP, nobel
in, IN, in
physics, NN, phys
on, IN, on
Oct., NNP, oct.
Peter, NNP, pet
and, CC, and
Francois, NNP, franco
for, IN, for
their, PRP$, their
theory, NN, the
that, WDT, that
predicted, VBD, predict
the, DT, the
existence, NN, ex
of, IN, of
the, DT, the
particle, NN, partic
Higgs, NNP, hig
particle, NN, partic
at, IN, at
CERN, NNP, cern
European, NNP, europ
for, IN, for
Nuclear, NNP, nuclear
Swiss, NNP, swiss
facility, NN, facil
's, POS, 's
Large, NNP, larg
Fermilab, NNP, fermilab
U.S., NNP, u.s.
Department, NNP, depart
of, IN, of
Energy, NNP, energy
lab, NN, lab
located, VBD, loc
just, RB, just
outside, IN, outside
of, IN, of
Batavia, NNP, batav
CERN, NNP, cern
's, POS, 's
particle, NN, partic
collider, NN, collid
\u2014, :, \u2014
Higgs, NNP, hig
particle, NN, partic
U.S., NNP, u.s.
institutions, NNS, institut
U.S., NNP, u.s.
Department, NNP, depart
of, IN, of
Energy, NNP, energy
laboratories, NNS, lab
Fermilab, NNP, fermilab
press, NN, press
release, NN, releas
about, IN, about
the, DT, the
Nobel, NNP, nobel
Joel, NNP, joel
Fermilab, NNP, fermilab
and, CC, and
program, NN, program
manager, NN, man
for, IN, for
the, DT, the
U.S., NNP, u.s.
effort, NN, effort
in, IN, in
the, DT, the
Compact, NNP, compact
experiment, NN, expery
U.S., NNP, u.s.
feels, VBZ, feel
vested, VBN, vest
in, IN, in
this, DT, this
Higgs, NNP, hig
particle, NN, partic
was, VBD, be
discovered, VBN, discov
Fermilab, NNP, fermilab
was, VBD, be
also, RB, also
the, DT, the
main, JJ, main
U.S., NNP, u.s.
host, NN, host
for, IN, for
one, CD, one
of, IN, of
the, DT, the
two, CD, two
main, JJ, main
experiments, NNS, expery
done, NN, don
at, IN, at
CERN, NNP, cern
's, POS, 's
collider, NN, collid
and, CC, and
was, VBD, be
home, NN, hom
to, TO, to
the, DT, the
LHC, NNP, lhc
U.S., NNP, u.s.
physicists, NNS, phys
from, IN, from
U.S., NNP, u.s.
institutions, NNS, institut
LHC, NNP, lhc
U.S., NNP, u.s.
institutions, NNS, institut
Don, NNP, don
Fermilab, NNP, fermilab
Lincoln, NNP, lincoln
said, VBD, say
CMS, NNP, cms
have, VBP, hav
substantial, JJ, subst
contributions, NNS, contribut
by, IN, by
people, NNS, peopl
here, RB, her
Fermilab, NNP, fermilab
was, VBD, be
also, RB, also
one, CD, one
of, IN, of
the, DT, the
main, JJ, main
computing, NN, comput
centers, NNS, cent
in, IN, in
the, DT, the
United, NNP, unit
that, IN, that
stored, VBN, stor
CERN, NNP, cern
to, TO, to
other, JJ, oth
institutions, NNS, institut
worldwide, VBP, worldwid
United, NNP, unit
provided, VBD, provid
about, IN, about
40, CD, 40
percent, NN, perc
of, IN, of
the, DT, the
computing, NN, comput
power, NN, pow
for, IN, for
the, DT, the
experiment, NN, expery
and, CC, and
Fermilab, NNP, fermilab
's, POS, 's
system, NN, system
made, VBD, mak
up, RP, up
Lincoln, NNP, lincoln
said, VBD, say
CERN, NNP, cern
's, POS, 's
collider, NN, collid
Geneva, NNP, genev
in, IN, in
Fermilab, NNP, fermilab
had, VBD, hav
its, PRP$, its
own, JJ, own
accelerator, NN, accel
and, CC, and
it, PRP, it
Higgs, NNP, hig
particle, NN, partic
Lincoln, NNP, lincoln
said, VBD, say
two, CD, two
experiments, NNS, expery
conducted, VBN, conduc
at, IN, at
the, DT, the
lab, NN, lab
's, POS, 's
Tevatron, NNP, tevatron
accelerator, NN, accel
in, IN, in
the, DT, the
1980s, CD, 1980s
and, CC, and
1990s, CD, 1990s
served, VBD, serv
as, IN, as
Higgs, NNPS, hig
boson, NN, boson
Higgs, NNP, hig
boson, NN, boson
