Home, NN, hom
Luciano, NNP, luciano
Luciano, NNP, luciano
's, POS, 's
Widow, NNP, widow
Pictures, NNP, pict
Luciano, NNP, luciano
Luciano, NNP, luciano
's, POS, 's
Widow, NNP, widow
WENN, NNP, wen
Vittoria, NNP, vittor
sang, NN, sang
tribute, NN, tribut
to, TO, to
Luciano, NNP, luciano
The, NNP, the
32nd, CD, 32nd
Annual, NNP, an
NIAF, NNP, niaf
DC, NNP, dc
Luciano, NNP, luciano
has, VBZ, hav
finally, RB, fin
sold, VBN, sel
off, RP, off
one, CD, one
of, IN, of
the, DT, the
tenor, NN, ten
's, POS, 's
luxury, NN, luxury
New, NNP, new
apartments, NNS, apart
Hampshire, NNP, hampshir
building, NN, build
Central, NNP, cent
Nicoletta, NNP, nicolett
offloaded, VBD, offload
one, CD, one
of, IN, of
the, DT, the
one-bedroom, JJ, one-bedroom
properties, NNS, property
last, JJ, last
November, NNP, novemb
Pavarotti, NNP, pavarott
's, POS, 's
apartments, NNS, apart
for, IN, for
almost, RB, almost
the, DT, the
same, JJ, sam
fee, NN, fee
after, IN, after
Mantovani, NNP, mantovan
was, VBD, be
forced, VBN, forc
to, TO, to
lower, JJR, low
her, PRP$, her
initial, JJ, init
asking, NN, ask
price, NN, pric
of, IN, of
Pavarotti, NNP, pavarott
died, VBD, die
in, IN, in
2007, CD, 2007
following, VBG, follow
Luciano, NNP, luciano
From, NNP, from
Contactmusic.com, NNP, contactmusic.com
Luciano, NNP, luciano
's, POS, 's
Widow, NNP, widow
's, POS, 's
First, NNP, first
Ever, NNP, ev
Recording, NNP, record
To, NNP, to
Be, NNP, be
Released, NNP, releas
Luciano, NNP, luciano
's, POS, 's
Widow, NNP, widow
's, POS, 's
Widow, NNP, widow
's, POS, 's
Memoir, NNP, memoir
's, POS, 's
Widow, NNP, widow
's, POS, 's
First, NNP, first
Ever, NNP, ev
Recording, NNP, record
To, NNP, to
Be, NNP, be
Released, NNP, releas
Luciano, NNP, luciano
's, POS, 's
Widow, NNP, widow
's, POS, 's
Widow, NNP, widow
's, POS, 's
Memoir, NNP, memoir
Awards, NNP, award
2013, CD, 2013
With, NNP, with
Mastercard, NNP, mastercard
Luciano, NNP, luciano
..., :, ...
Classic, NNP, class
Awards, NNP, award
2013, CD, 2013
With, NNP, with
Mastercard, NNP, mastercard
Luciano, NNP, luciano
..., :, ...
Luciano, NNP, luciano
'50, NNP, '50
Shades, NNP, shad
of, IN, of
Grey, NNP, grey
Movie, NNP, movy
In, NNP, in
Turmoil, NNP, turmoil
After, NNP, aft
Charlie, NNP, char
's, POS, 's
Exit, NNP, exit
The, NNP, the
50, CD, 50
Shades, NNP, shad
of, IN, of
Grey, NNP, grey
movie, NN, movy
appears, VBZ, appear
to, TO, to
be, VB, be
in, IN, in
turmoil, NN, turmoil
with, IN, with
..., :, ...
Kendrick, NNP, kendrick
Every, NNP, every
BET, NNP, bet
Hip-Hop, NNP, hip-hop
Awards, NNP, award
Cypher, NNP, cyph
Kendrick, NNP, kendrick
was, VBD, be
always, RB, alway
going, VBG, go
to, TO, to
walk, VB, walk
away, RP, away
from, IN, from
the, DT, the
2013, CD, 2013
BET, NNP, bet
Hip-Hop, NNP, hip-hop
Awards, NNP, award
..., :, ...
Nivanna, NNP, nivann
Kiss, NNP, kiss
And, CC, And
LL, NNP, ll
Roll, NNP, rol
Roll, NNP, rol
hall, NN, hal
of, IN, of
fame, NN, fam
class, NN, class
of, IN, of
2014, CD, 2014
nominees, NNS, nomin
have, VBP, hav
been, VBN, be
announced, VBN, annount
Eleanor, NNP, el
Becomes, NNP, becom
The, NNP, the
Youngest, NNP, youngest
Person, NNP, person
Prize, NNP, priz
28, CD, 28
year-old, JJ, year-old
Eleanor, NNP, el
Cotton, NNP, cotton
won, VBD, win
the, DT, the
\u00a350,000, NN, \u00a350,000
Man, NNP, man
last, JJ, last
night, NN, night
Ashton, NNP, ashton
Tops, NNP, top
The, NNP, the
List, NNP, list
On, NNP, on
TV, NNP, tv
Ashton, NNP, ashton
may, MD, may
have, VB, hav
overseen, VBN, overs
Kris, NNP, kri
Kim, NNP, kim
's, POS, 's
Engagement, NNP, eng
Ring, NNP, ring
And, CC, And
Banks, NNP, bank
Kim, NNP, kim
as, IN, as
well, RB, wel
as, IN, as
making, VBG, mak
..., :, ...
The, DT, The
Golden, NNP, gold
Golden, NNP, gold
for, IN, for
More, NNP, mor
Tina, NNP, tin
Amy, NNP, amy
to, TO, to
Host, NNP, host
of, IN, of
the, DT, the
biggest, JJS, big
voices, NNS, voic
in, IN, in
modern, JJ, modern
comedy, NN, comedy
have, VBP, hav
landed, VBN, land
another, DT, another
two, CD, two
slots, NNS, slot
at, IN, at
..., :, ...
Paul, NNP, paul
's, POS, 's
Twerking, NNP, twerk
``, ``, ``
Check, NNP, check
'', '', ''
Yeah, NNP, yeah
Let\u2019s, NNP, let\u2019s
get, NN, get
straight, VBD, straight
to, TO, to
it, PRP, it
Paul, NNP, paul
watch, NN, watch
Miley, NNP, miley
Cyrus\u2019s, NNP, cyrus\u2019
\u2018twerking\u2019, NNP, \u2018twerking\u2019
\u201cas, NNP, \u201cas
an, DT, an
experiment, NN, expery
to, TO, to
check\u201d, NNP, check\u201d
..., :, ...
'Britney, NN, 'britney
Jean, NNP, jean
Spears, NNP, spear
's, POS, 's
New, NNP, new
'Britney, NNP, 'britney
Jean, NNP, jean
Britney, NNP, britney
Spears, NNP, spear
eighth, NN, eigh
album, NN, alb
Comments, NNS, com
name, NN, nam
Comment, NNP, com
Source, NNP, sourc
to, TO, to
this, DT, this
news, NN, new
alert, NN, alert
service, NN, serv
to, TO, to
receive, VB, receiv
news, NN, new
and, CC, and
reviews, NNS, review
on, IN, on
Luciano, NNP, luciano
