Skip, NNP, skip
to, TO, to
Main, NNP, main
search, NN, search
Stations, NNS, stat
Donate, NNP, don
In/Register, NNP, in/register
Logout, NNP, logout
Interviews, NNP, interview
Genres, NNP, genr
Art, NNP, art
Design, NNP, design
Entertainment, NNP, entertain
Memoir, NNP, memoir
Economy, NNP, econom
's, POS, 's
Books, NNP, book
Graphic, NNP, graph
Spirituality, NNP, spirit
Wine, NNP, win
Society, NNP, socy
Thrillers, NNP, thrillers
Families, NNP, famy
Public, NNP, publ
Fantasy, NNP, fantasy
Health, NNP, heal
Nonfiction, NNP, nonfict
Books, NNP, book
..., :, ...
PG-13, -NONE-, PG-13
Risky, NNP, risky
This, NNP, thi
Summer, NNP, sum
Books, NNP, book
of, IN, of
2012, CD, 2012
NPR, NNP, npr
Life, NNP, lif
Books, NNP, book
's, POS, 's
Qur'an, JJ, qur'an
Islam, NNP, islam
and, CC, and
the, DT, the
Founders, NNPS, found
by, IN, by
Denise, NNP, den
Random, NNP, random
List, NNP, list
Purchase, NNP, purchas
's, POS, 's
Qur'an, JJ, qur'an
Islam, NNP, islam
and, CC, and
the, DT, the
Founders, NNPS, found
A., NNP, a.
Spellberg, NNP, spellberg
Amazon, NNP, amazon
\u00bb, NNP, \u00bb
NPR, NNP, npr
Programming, NNP, program
Book, NNP, book
Summary, NNP, sum
Denise, NNP, den
reveals, NNS, rev
the, DT, the
influence, NN, influ
of, IN, of
Islam, NNP, islam
in, IN, in
the, DT, the
birth, NN, bir
of, IN, of
American, JJ, am
religious, JJ, religy
freedom, NN, freedom
Jefferson, NNP, jefferson
studied, VBD, study
the, DT, the
Qur'an, JJ, qur'an
because, IN, because
he, PRP, he
believed, VBD, believ
that, IN, that
Islam, NNP, islam
's, POS, 's
Enlightenment, NNP, enlight
ideals, NNS, id
could, MD, could
inform, VB, inform
the, DT, the
fledgling, NN, fledgl
country, NN, country
's, POS, 's
practical, JJ, pract
governance, NN, govern
Public, NNP, publ
History, NNP, hist
Society, NNP, socy
Spirituality, NNP, spirit
NPR, NNP, npr
Reviews, NNP, review
Interviews, NNP, interview
and, CC, and
More, NNP, mor
NPR, NNP, npr
stories, VBZ, story
about, IN, about
Thomas, NNP, thoma
's, POS, 's
Qur'an, JJ, qur'an
Author, NNP, auth
Story, NNP, story
Of, NNP, of
'Thomas, NNP, 'thomas
Jefferson, NNP, jefferson
's, POS, 's
Qur'an', NNP, qur'an'
by, IN, by
NPR, NNP, npr
Staff, NNP, staff
October, NNP, octob
12, CD, 12
Denise, NNP, den
's, POS, 's
book, NN, book
draws, NNS, draw
parallels, VBZ, parallel
between, IN, between
the, DT, the
beliefs, NNS, believ
of, IN, of
the, DT, the
founding, NN, found
father, NN, fath
and, CC, and
religious, JJ, religy
tolerance, NN, tol
in, IN, in
the, DT, the
United, NNP, unit
today, NN, today
Twitter, NNP, twit
Excerpt, NNP, excerpt
Thomas, NNP, thoma
's, POS, 's
Qur'an, JJ, qur'an
October, NNP, octob
08, CD, 08
Islam, NNP, islam
Thomas, NNP, thoma
imagined, VBD, imagin
Muslims, NNP, muslim
as, IN, as
future, JJ, fut
citizens, NNS, cit
of, IN, of
his, PRP$, his
new, JJ, new
nation, NN, nat
Independence, NNP, independ
Jefferson, NNP, jefferson
's, POS, 's
Qur'an, JJ, qur'an
survives, NNS, surv
still, RB, stil
in, IN, in
the, DT, the
Library, NNP, libr
of, IN, of
Congress, NNP, congress
America, NNP, americ
's, POS, 's
complex, JJ, complex
relationship, NN, rel
with, IN, with
Islam, NNP, islam
and, CC, and
its, PRP$, its
adherents, NNS, adh
Jefferson, NNP, jefferson
's, POS, 's
interest, NN, interest
in, IN, in
the, DT, the
Islamic, NNP, islam
religion, NN, relig
Muslims, NNP, muslim
Jefferson, NNP, jefferson
first, RB, first
read, VB, read
about, IN, about
Muslim, NNP, muslim
``, ``, ``
English, JJ, engl
philosopher, NN, philosoph
John, NNP, john
Locke, NNP, lock
had, VBD, hav
advocated, VBN, advoc
the, DT, the
toleration, NN, tol
of, IN, of
Muslims, NNP, muslim
\u2014, NNP, \u2014
Jews, NNP, jew
\u2014, NNP, \u2014
Europe, NNP, europ
who, WP, who
had, VBD, hav
considered, VBN, consid
the, DT, the
matter, NN, mat
for, IN, for
more, JJR, mor
than, IN, than
Jefferson, NNP, jefferson
's, POS, 's
ideas, NNS, ide
about, IN, about
Muslim, NNP, muslim
rights, NNS, right
must, MD, must
be, VB, be
understood, VBN, understand
within, IN, within
this, DT, this
older, NN, old
context, NN, context
Christian, JJ, christian
violence, NN, viol
in, IN, in
Europe, NNP, europ
Muslims, NNP, muslim
as, IN, as
the, DT, the
test, NN, test
case, NN, cas
for, IN, for
the, DT, the
demarcation, NN, demarc
of, IN, of
the, DT, the
theoretical, JJ, theoret
boundaries, NNS, bound
of, IN, of
their, PRP$, their
toleration, NN, tol
for, IN, for
all, DT, all
believers, NNS, believ
European, JJ, europ
precedents, NNS, prec
Muslims, NNP, muslim
also, RB, also
became, VBD, becom
American, NNP, am
debates, VBZ, deb
about, IN, about
religion, NN, relig
and, CC, and
the, DT, the
limits, NNS, limit
of, IN, of
citizenship, NN, cit
United, NNP, unit
American, NNP, am
Islam, NNP, islam
as, IN, as
they, PRP, they
contemplated, VBD, contempl
the, DT, the
proper, NN, prop
scope, NN, scop
of, IN, of
religious, JJ, religy
freedom, NN, freedom
and, CC, and
individual, JJ, individ
rights, NNS, right
among, IN, among
the, DT, the
nation, NN, nat
's, POS, 's
present, NN, pres
and, CC, and
potential, JJ, pot
inhabitants, NNS, inhabit
United, NNP, unit
should, MD, should
be, VB, be
exclusively, RB, exclud
Protestant, NNP, protest
or, CC, or
Muslims, NNP, muslim
as, IN, as
potential, JJ, pot
citizens, NNS, cit
of, IN, of
the, DT, the
United, NNP, unit
forced, VBD, forc
the, DT, the
Protestant, NNP, protest
majority, NN, maj
to, TO, to
imagine, VB, imagin
the, DT, the
parameters, NNS, paramet
of, IN, of
their, PRP$, their
new, JJ, new
society, NN, socy
beyond, IN, beyond
toleration, NN, tol
Protestant, NNP, protest
Christianity, NNP, christianity
Resistance, NN, resist
to, TO, to
the, DT, the
idea, NN, ide
of, IN, of
Muslim, NNP, muslim
citizenship, NN, cit
was, VBD, be
predictable, JJ, predict
in, IN, in
the, DT, the
eighteenth, NN, eighteen
century, NN, century
Americans, NNPS, am
had, VBD, hav
inherited, VBN, inherit
from, IN, from
Europe, NNP, europ
almost, RB, almost
Muslims, NNP, muslim
United, NNP, unit
American, JJ, am
egalitarian, JJ, egalit
defense, NN, defens
of, IN, of
Muslim, NNP, muslim
rights, NNS, right
was, VBD, be
the, DT, the
logical, JJ, log
extension, NN, extend
of, IN, of
European, JJ, europ
precedents, NNS, prec
already, RB, already
mentioned, VBN, ment
Atlantic, NNP, atl
Muslim, NNP, muslim
as, IN, as
Thomas, NNP, thoma
and, CC, and
European, JJ, europ
ideas, NNS, ide
about, IN, about
the, DT, the
toleration, NN, tol
of, IN, of
Muslims, NNP, muslim
Islam, NNP, islam
as, IN, as
American, JJ, am
Protestants, NNS, protest
Protestant, NNP, protest
status, NN, stat
quo, NN, quo
Protestant, NNP, protest
character, NN, charact
Protestant, NNP, protest
America, NNP, americ
Muslim, NNP, muslim
citizens, NNS, cit
America, NNP, americ
Jefferson, NNP, jefferson
and, CC, and
others, NNS, oth
defended, VBD, defend
Muslim, NNP, muslim
rights, NNS, right
for, IN, for
the, DT, the
sake, NN, sak
of, IN, of
``, ``, ``
Muslims, NNP, muslim
American, JJ, am
rights, NNS, right
Muslims, NNP, muslim
would, MD, would
also, RB, also
create, VB, cre
political, JJ, polit
room, NN, room
to, TO, to
consider, VB, consid
the, DT, the
rights, NNS, right
of, IN, of
other, JJ, oth
despised, VBN, desp
minorities, NNS, min
whose, WP$, whose
numbers, NNS, numb
in, IN, in
America, NNP, americ
Jews, NNP, jew
and, CC, and
Catholics, NNP, cathol
Muslims, NNP, muslim
who, WP, who
embodied, VBD, embody
the, DT, the
ideal, NN, id
of, IN, of
inclusion, NN, includ
Jews, NNP, jew
and, CC, and
Catholics, NNP, cathol
were, VBD, be
often, RB, oft
linked, VBN, link
to, TO, to
them, PRP, them
in, IN, in
early, JJ, ear
American, JJ, am
debates, NNS, deb
Jefferson, NNP, jefferson
and, CC, and
others, NNS, oth
fought, VBD, fight
for, IN, for
the, DT, the
rights, NNS, right
of, IN, of
all, DT, all
non-Protestants, NNS, non-protestants
Great, NNP, gre
George, NNP, georg
wrote, VBD, writ
to, TO, to
recent, JJ, rec
Irish, JJ, ir
Catholic, NNP, cathol
immigrants, NNS, immigr
in, IN, in
New, NNP, new
American, NNP, am
minority, NN, min
of, IN, of
roughly, RB, rough
twenty-five, JJ, twenty-five
thousand, NN, thousand
then, RB, then
had, VBD, hav
few, JJ, few
legal, JJ, leg
protections, NNS, protect
in, IN, in
any, DT, any
state, NN, stat
and, CC, and
New, NNP, new
Washington, NNP, washington
insisted, VBD, insist
that, IN, that
``, ``, ``
America, NNP, americ
'', '', ''
was, VBD, be
``, ``, ``
Religions, NNS, relig
Washington, NNP, washington
theoretically, RB, theoret
enfolded, VBD, enfold
Muslims, NNP, muslim
into, IN, into
his, PRP$, his
private, JJ, priv
world, NN, world
at, IN, at
Mount, NNP, mount
Virginia, NNP, virgin
home, NN, hom
Asia, NNP, as
Africa, NNP, afric
Europe, NNP, europ
Muslims, NNP, muslim
Jews, NNP, jew
or, CC, or
Christian, NNP, christian
of, IN, of
an, DT, an
Muslims, NNP, muslim
were, VBD, be
part, NN, part
of, IN, of
Washington, NNP, washington
's, POS, 's
understanding, NN, understand
of, IN, of
religious, JJ, religy
pluralism, NN, plur
\u2014, :, \u2014
Muslim, NNP, muslim
applicants, NNS, appl
America, NNP, americ
Founders, NNPS, found
and, CC, and
their, PRP$, their
generational, JJ, gen
peers, NNS, peer
never, RB, nev
knew, VBD, know
it, PRP, it
Muslim, NNP, muslim
constituency, NN, constitu
remained, VBD, remain
an, DT, an
imagined, VBN, imagin
Washington, NNP, washington
and, CC, and
Jefferson, NNP, jefferson
attached, VBD, attach
to, TO, to
it, PRP, it
such, JJ, such
symbolic, JJ, symbol
significance, NN, sign
is, VBZ, be
not, RB, not
accidental, JJ, accid
European, JJ, europ
traditions, NNS, tradit
Islam, NNP, islam
as, IN, as
the, DT, the
antithesis, NN, antithes
of, IN, of
the, DT, the
``, ``, ``
Protestant, NNP, protest
Muslims, NNP, muslim
\u2014, NNP, \u2014
Protestant, NNP, protest
society, NN, socy
\u2014, :, \u2014
Americans, NNPS, am
believed, VBD, believ
false, RB, fals
American, NNP, am
Protestant, NNP, protest
founding, NN, found
discourse, NN, discours
Islam, NNP, islam
American, NNP, am
ideas, NNS, ide
of, IN, of
liberty, NN, liberty
Jefferson, NNP, jefferson
and, CC, and
other, JJ, oth
supporters, NNS, support
of, IN, of
non-Protestant, JJ, non-protestant
citizenship, NN, cit
drew, NN, drew
upon, IN, upon
European, JJ, europ
thought, NN, thought
Muslims, NNP, muslim
as, IN, as
well, RB, wel
as, IN, as
Jews, NNP, jew
and, CC, and
Catholics, NNP, cathol
Catholic, NNP, cathol
and, CC, and
Protestant, NNP, protest
Europe, NNP, europ
included, VBD, includ
Catholic, NNP, cathol
and, CC, and
Protestant, NNP, protest
peasants, NNS, peas
Protestant, NNP, protest
scholars, NNS, scholar
of, IN, of
religion, NN, relig
and, CC, and
political, JJ, polit
theory, NN, the
Protestant, NNP, protest
dissenters, NNS, diss
Anglican, NNP, angl
establishment, NN, est
and, CC, and
Virginia, NNP, virgin
Jefferson, NNP, jefferson
represented, VBD, repres
Muslim, NNP, muslim
citizenship, NN, cit
demanded, VBD, demand
serious, JJ, sery
consideration, NN, consid
in, IN, in
Virginia, NNP, virgin
\u2014, NNP, \u2014
American, JJ, am
Protestants, NNS, protest
European, JJ, europ
thought, NN, thought
flow, NN, flow
into, IN, into
the, DT, the
mainstream, NN, mainstream
of, IN, of
American, JJ, am
political, JJ, polit
discourse, NN, discours
at, IN, at
its, PRP$, its
inception, NN, inceiv
Jefferson, NNP, jefferson
's, POS, 's
national, JJ, nat
reputation, NN, reput
would, MD, would
be, VB, be
attacked, VBN, attack
by, IN, by
his, PRP$, his
political, JJ, polit
opponents, NNS, oppon
for, IN, for
his, PRP$, his
insistence, NN, insist
that, IN, that
the, DT, the
rights, NNS, right
of, IN, of
all, DT, all
believers, NNS, believ
should, MD, should
be, VB, be
protected, VBN, protect
from, IN, from
government, NN, govern
interference, NN, interf
and, CC, and
persecution, NN, persecut
Anglicans, NNS, angl
Episcopalians, NNPS, episcop
American, JJ, am
citizens, NNS, cit
Muslim, NNP, muslim
rights, NNS, right
was, VBD, be
expressed, VBN, express
by, IN, by
some, DT, some
members, NNS, memb
of, IN, of
each, DT, each
Muslim, NNP, muslim
rights, NNS, right
were, VBD, be
proposing, VBG, propos
was, VBD, be
extraordinary, JJ, extraordin
even, RB, ev
at, IN, at
American, NNP, am
citizenship, NN, cit
\u2014, :, \u2014
Race, NN, rac
and, CC, and
gender, NN, gend
would, MD, would
continue, VB, continu
as, IN, as
barriers, NNS, barry
Legislation, NN, legisl
in, IN, in
Virginia, NNP, virgin
would, MD, would
be, VB, be
just, RB, just
the, DT, the
beginning, NN, begin
First, NNP, first
Amendment, NNP, amend
far, RB, far
from, IN, from
the, DT, the
end, NN, end
of, IN, of
the, DT, the
story, NN, story
Jefferson, NNP, jefferson
Washington, NNP, washington
James, NNP, jam
would, MD, would
work, VB, work
toward, IN, toward
this, DT, this
ideal, NN, id
of, IN, of
separation, NN, sep
throughout, IN, throughout
their, PRP$, their
entire, JJ, entir
political, JJ, polit
lives, NNS, lif
Jefferson, NNP, jefferson
and, CC, and
others, NNS, oth
Islam, NNP, islam
Muslims, NNP, muslim
and, CC, and
all, DT, all
non-Protestants, NNS, non-protestants
George, NNP, georg
signaled, VBD, sign
openness, NN, op
to, TO, to
Muslim, NNP, muslim
laborers, NNS, lab
in, IN, in
1784, CD, 1784
he, PRP, he
had, VBD, hav
listed, VBN, list
two, CD, two
slave, JJ, slav
women, NNS, wom
from, IN, from
West, NNP, west
among, IN, among
his, PRP$, his
taxable, JJ, tax
property, NN, property
Prophet, NNP, prophet
's, POS, 's
daughter, NN, daught
Fatima, NNP, fatim
Washington, NNP, washington
advocated, VBD, advoc
Muslim, NNP, muslim
rights, NNS, right
Muslims, NNP, muslim
in, IN, in
his, PRP$, his
own, JJ, own
midst, NN, midst
any, DT, any
rights, NNS, right
at, IN, at
all, DT, all
Jefferson, NNP, jefferson
and, CC, and
Madison, NNP, madison
West, NNP, west
American, NNP, am
may, MD, may
have, VB, hav
numbered, VBN, numb
in, IN, in
the, DT, the
tens, NNS, ten
of, IN, of
thousands, NNS, thousand
Catholics, NNP, cathol
Muslim, NNP, muslim
slaves, NNS, slav
may, MD, may
have, VB, hav
served, VBN, serv
in, IN, in
the, DT, the
Continental, NNP, contin
Islam, NNP, islam
and, CC, and
none, NN, non
that, IN, that
these, DT, these
individuals, NNS, individ
were, VBD, be
known, VBN, know
to, TO, to
the, DT, the
Founders, NNP, found
Muslim, NNP, muslim
citizenship, NN, cit
Jefferson, NNP, jefferson
Washington, NNP, washington
Madison, NNP, madison
defended, VBD, defend
America, NNP, americ
since, IN, since
the, DT, the
seventeenth, NN, seventeen
century, NN, century
Founders, NNP, found
imagined, VBD, imagin
future, JJ, fut
Muslim, NNP, muslim
citizens, NNS, cit
American, JJ, am
citizenship, NN, cit
could, MD, could
be, VB, be
claimed, VBN, claim
by, IN, by
any, DT, any
free, JJ, fre
Jefferson, NNP, jefferson
would, MD, would
wittingly, RB, wit
meet, VB, meet
during, IN, during
his, PRP$, his
lifetime, NN, lifetim
were, VBD, be
not, RB, not
black, JJ, black
West, JJ, west
slaves, NNS, slav
but, CC, but
North, NNP, nor
ambassadors, NNS, ambassad
of, IN, of
Turkish, NNP, turk
descent, NN, desc
Jefferson, NNP, jefferson
was, VBD, be
interested, JJ, interest
in, IN, in
neither, DT, neither
diplomat, NN, diplom
for, IN, for
reasons, NNS, reason
of, IN, of
religion, NN, relig
or, CC, or
race, NN, rac
Jefferson, NNP, jefferson
had, VBD, hav
never, RB, nev
perceived, VBN, perceiv
North, NNP, nor
powers, NNS, pow
American, JJ, am
shipping, NN, ship
in, IN, in
the, DT, the
Mediterranean, NNP, mediter
and, CC, and
eastern, VB, eastern
Atlantic, NNP, atl
Jefferson, NNP, jefferson
as, IN, as
president, NN, presid
would, MD, would
insist, VB, insist
to, TO, to
the, DT, the
rulers, NNS, rul
of, IN, of
Tripoli, NNP, tripol
and, CC, and
Tunis, NNP, tun
that, IN, that
his, PRP$, his
nation, NN, nat
harbored, VBD, harb
no, DT, no
anti-Islamic, JJ, anti-islamic
bias, NN, bia
Jefferson, NNP, jefferson
sought, VBD, seek
at, IN, at
home, NN, hom
was, VBD, be
the, DT, the
same, JJ, sam
one, CD, one
he, PRP, he
professed, VBD, profess
abroad, RB, abroad
Jefferson, NNP, jefferson
's, POS, 's
limited, JJ, limit
but, CC, but
unique, JJ, un
appreciation, NN, apprecy
for, IN, for
Islam, NNP, islam
appears, VBZ, appear
as, IN, as
North, NNP, nor
\u2014, NNP, \u2014
Unitarian, NNP, unit
beliefs, NNS, believ
Jefferson, NNP, jefferson
's, POS, 's
unsophisticated, VBN, unsoph
yet, RB, yet
effective, JJ, effect
understanding, NN, understand
of, IN, of
the, DT, the
Qur'an, JJ, qur'an
he, PRP, he
owned, VBD, own
Jefferson, NNP, jefferson
was, VBD, be
not, RB, not
immune, JJ, immun
to, TO, to
negative, JJ, neg
feelings, NNS, feel
about, IN, about
Islam, NNP, islam
Europe, NNP, europ
to, TO, to
drive, VB, driv
his, PRP$, his
early, JJ, ear
political, JJ, polit
arguments, NNS, argu
about, IN, about
the, DT, the
separation, NN, sep
of, IN, of
religion, NN, relig
from, IN, from
government, NN, govern
in, IN, in
Virginia, NNP, virgin
Jefferson, NNP, jefferson
and, CC, and
others, NNS, oth
not, RB, not
as, IN, as
well, RB, wel
known, VBN, know
were, VBD, be
still, RB, stil
able, JJ, abl
to, TO, to
divorce, VB, divorc
the, DT, the
idea, NN, ide
of, IN, of
Muslim, NNP, muslim
citizenship, NN, cit
from, IN, from
their, PRP$, their
dislike, NN, dislik
of, IN, of
Islam, NNP, islam
Jefferson, NNP, jefferson
himself, PRP, himself
overcame, VBD, overcom
in, IN, in
the, DT, the
eighteenth, NN, eighteen
and, CC, and
nineteenth, NN, nineteen
centuries, NNS, century
remains, VBZ, remain
United, NNP, unit
has, VBZ, hav
in, IN, in
fact, NN, fact
become, NN, becom
home, NN, hom
to, TO, to
American, JJ, am
citizenry, NN, citizenry
Jefferson, NNP, jefferson
's, POS, 's
time, NN, tim
organized, VBN, org
prejudice, NN, prejud
against, IN, against
Muslims, NNP, muslim
was, VBD, be
exercised, VBN, exerc
against, IN, against
an, DT, an
exclusively, RB, exclud
foreign, JJ, foreign
and, CC, and
imaginary, JJ, imagin
nonresident, NN, nonresid
population, NN, pop
American, NNP, am
citizens, VBZ, cit
Terror, NNP, ter
American, JJ, am
citizens, NNS, cit
of, IN, of
the, DT, the
full, JJ, ful
and, CC, and
equal, JJ, eq
exercise, NN, exerc
of, IN, of
their, PRP$, their
civil, JJ, civil
rights, NNS, right
Muslim, NNP, muslim
president, NN, presid
was, VBD, be
first, JJ, first
discussed, VBN, discuss
with, IN, with
vitriol, NN, vitriol
during, IN, during
debates, NNS, deb
involving, VBG, involv
America, NNP, americ
's, POS, 's
Founders, NNP, found
Thomas, NNP, thoma
Jefferson, NNP, jefferson
would, MD, would
be, VB, be
the, DT, the
first, JJ, first
in, IN, in
the, DT, the
history, NN, hist
of, IN, of
American, JJ, am
politics, NNS, polit
to, TO, to
suffer, VB, suff
the, DT, the
false, NN, fals
charge, NN, charg
of, IN, of
being, VBG, be
Muslim, NNP, muslim
Protestant, NNP, protest
slur, NN, slur
in, IN, in
the, DT, the
eighteenth, NN, eighteen
century, NN, century
American, JJ, am
candidate, NN, candid
's, POS, 's
potential, JJ, pot
for, IN, for
elected, VBN, elect
office, NN, off
Islam, NNP, islam
and, CC, and
Muslims, NNP, muslim
first, RB, first
entered, VBD, ent
American, NNP, am
consciousness, NN, conscy
and, CC, and
how, WRB, how
the, DT, the
rights, NNS, right
of, IN, of
Muslims, NNP, muslim
first, JJ, first
came, VBD, com
to, TO, to
be, VB, be
accepted, VBN, acceiv
as, IN, as
national, JJ, nat
ideals, NNS, id
Muslim, NNP, muslim
citizenship, NN, cit
in, IN, in
America, NNP, americ
today, NN, today
can, MD, can
not, RB, not
be, VB, be
properly, RB, prop
appreciated, VBN, apprecy
without, IN, without
establishing, NN, est
the, DT, the
historical, JJ, hist
context, NN, context
of, IN, of
its, PRP$, its
eighteenth-century, JJ, eighteenth-century
origins, NNS, origin
Muslim, NNP, muslim
American, NNP, am
rights, NNS, right
became, VBD, becom
John, NNP, john
Islam, NNP, islam
in, IN, in
contemporary, JJ, contemp
America, NNP, americ
Western, NNP, western
pluralism, NN, plur
Thomas, NNP, thoma
's, POS, 's
Qur'an, JJ, qur'an
documents, NNS, docu
the, DT, the
origins, NNS, origin
of, IN, of
such, JJ, such
pluralism, NN, plur
in, IN, in
the, DT, the
United, NNP, unit
in, IN, in
order, NN, ord
to, TO, to
illuminate, VB, illumin
where, WRB, where
Muslims, NNP, muslim
were, VBD, be
first, JJ, first
included, VBN, includ
in, IN, in
American, NNP, am
ideals, NNS, id
Muslims, NNP, muslim
represented, VBD, repres
nothing, NN, noth
more, JJR, mor
than, IN, than
the, DT, the
incarnated, VBN, incarn
antithesis, NN, antithes
of, IN, of
American, JJ, am
values, NNS, valu
Protestant, NNP, protest
Americans, NNPS, am
always, RB, alway
and, CC, and
uniformly, RB, uniform
defined, VBN, defin
both, DT, both
the, DT, the
religion, NN, relig
of, IN, of
Islam, NNP, islam
and, CC, and
its, PRP$, its
practitioners, NNS, practit
as, IN, as
inherently, RB, inh
un-American, JJ, un-americ
United, NNP, unit
as, IN, as
an, DT, an
ideological, JJ, ideolog
and, CC, and
political, JJ, polit
phenomenon, NN, phenomenon
occurred, VBD, occ
in, IN, in
opposition, NN, opposit
to, TO, to
eighteenth-century, JJ, eighteenth-century
concepts, NNS, conceiv
about, IN, about
Islam, NNP, islam
as, IN, as
American, JJ, am
religious, JJ, religy
polemic, JJ, polem
Islam, NNP, islam
and, CC, and
Muslims, NNP, muslim
that, IN, that
cast, JJ, cast
both, DT, both
in, IN, in
Muslims, NNP, muslim
as, IN, as
future, JJ, fut
American, JJ, am
citizens, NNS, cit
in, IN, in
important, JJ, import
founding, NN, found
debates, NNS, deb
about, IN, about
rights, NNS, right
American, NNP, am
Protestants, NNP, protest
did, VBD, do
not, RB, not
monolithically, RB, monolith
view, VB, view
Islam, NNP, islam
as, IN, as
``, ``, ``
Muslims, NNP, muslim
United, NNP, unit
since, IN, since
the, DT, the
country, NN, country
's, POS, 's
inception, NN, inceiv
Americans, NNPS, am
Jefferson, NNP, jefferson
's, POS, 's
views, NNS, view
of, IN, of
Islam, NNP, islam
Muslims, NNP, muslim
Islamic, NNP, islam
world, NN, world
John, NNP, john
and, CC, and
James, NNP, jam
Nor, NNP, nor
is, VBZ, be
it, PRP, it
limited, VBN, limit
to, TO, to
these, DT, these
key, JJ, key
Founders, NNS, found
Muslims, NNP, muslim
Baptist, NNP, bapt
protestors, NNS, protest
against, IN, against
Virginia, NNP, virgin
's, POS, 's
religious, JJ, religy
establishment, NN, est
Anglican, NNP, angl
lawyers, NNS, lawy
James, NNP, jam
and, CC, and
Samuel, NNP, samuel
in, IN, in
North, NNP, nor
Muslims, NNP, muslim
in, IN, in
their, PRP$, their
state, NN, stat
's, POS, 's
constitutional, JJ, constitut
ratifying, NN, rat
convention, NN, conv
John, NNP, john
Jefferson, NNP, jefferson
and, CC, and
Madison, NNP, madison
in, IN, in
Virginia, NNP, virgin
Connecticut, NNP, connecticut
and, CC, and
Massachusetts, NNP, massachuset
in, IN, in
support, NN, support
of, IN, of
Muslim, NNP, muslim
equality, NN, eq
First, NNP, first
American, JJ, am
slaves, VBZ, slav
of, IN, of
West, NNP, west
origin, NN, origin
Ibrahima, NNP, ibrahim
al-Rahman, NNP, al-rahman
and, CC, and
Omar, NNP, om
ibn, NN, ibn
Said, NNP, said
Arabic, NNP, arab
Muslim, NNP, muslim
slaves, NNS, slav
who, WP, who
had, VBD, hav
no, DT, no
rights, NNS, right
American, JJ, am
citizenship, NN, cit
in, IN, in
the, DT, the
midst, NN, midst
of, IN, of
these, DT, these
early, JJ, ear
discussions, NNS, discuss
about, IN, about
religious, JJ, religy
and, CC, and
political, JJ, polit
equality, NN, eq
for, IN, for
future, JJ, fut
Islam, NNP, islam
Imagined, NNP, imagin
Muslims, NNP, muslim
Catholics, NNP, cathol
America, NNP, americ
's, POS, 's
political, JJ, polit
discourse, NN, discours
at, IN, at
the, DT, the
founding, NN, found
Catholics, NNP, cathol
would, MD, would
struggle, VB, struggle
into, IN, into
the, DT, the
twentieth, NN, twentie
century, NN, century
to, TO, to
gain, VB, gain
in, IN, in
practice, NN, pract
the, DT, the
equal, JJ, eq
rights, NNS, right
assured, VBN, ass
them, PRP, them
in, IN, in
theory, NN, the
United, NNP, unit
Muslims, NNP, muslim
remain, NN, remain
the, DT, the
objects, NNS, object
of, IN, of
American, JJ, am
Muslims, NNP, muslim
back, RB, back
into, IN, into
our, PRP$, our
founding, JJ, found
narrative, JJ, nar
in, IN, in
the, DT, the
hope, NN, hop
of, IN, of
clarifying, VBG, clar
the, DT, the
importance, NN, import
of, IN, of
critical, JJ, crit
historical, JJ, hist
precedents, NNS, prec
at, IN, at
Muslim, NNP, muslim
as, IN, as
citizen, NN, cit
is, VBZ, be
Excerpted, NNP, excerpt
from, IN, from
Thomas, NNP, thoma
's, POS, 's
Qur'an, JJ, qur'an
by, IN, by
Denise, NNP, den
Denise, NNP, den
Excerpted, NNP, excerpt
by, IN, by
permission, NN, permit
of, IN, of
Knopf, NNP, knopf
Random, NNP, random
LLC, NNP, llc
Share, NN, shar
Google+, NNP, google+
Email, NNP, email
Comment, NNP, com
More, NNP, mor
From, NNP, from
Arts, NNPS, art
Life, NNP, lif
U.S., NNP, u.s.
Taxpayers, NNP, taxpay
Pay, NNP, pay
Help, NNP, help
Fast-Food, NNP, fast-food
Workers, NNP, work
Television, NNP, televid
'Burton, NNP, 'burton
And, CC, And
Taylor, NNP, tayl
Hollywood, NNP, hollywood
