Jump, NNP, jump
to, TO, to
Content, NNP, cont
to, TO, to
First, NNP, first
to, TO, to
Second, NNP, second
to, TO, to
Third, NNP, third
to, TO, to
Content, NNP, cont
to, TO, to
First, NNP, first
to, TO, to
Second, NNP, second
to, TO, to
Third, NNP, third
lifestyle/arts/visual-arts, NNP, lifestyle/arts/visual-arts
News, NNP, new
Sport, NNP, sport
Business, NNP, busy
What, NNP, what
's, POS, 's
On, NNP, on
Lifestyle, NNP, lifestyl
Jobs, NNP, job
Directory, NNP, direct
Motors, NNPS, mot
Property, NNP, property
Deals, NNPS, deal
More, NNP, mor
Announcements, NNP, annount
Dating, NNP, dat
Digital, NNP, digit
Evening, NNP, ev
News, NNP, new
Edinburgh, NNP, edinburgh
Festival, NNP, fest
Gaelic, NNP, gael
Notices, NNPS, not
Shop, NNP, shop
Register, NNP, reg
Log, NNP, log
out, IN, out
Log, NNP, log
out, IN, out
Why, NNP, why
Forgot, NNP, forgot
your, PRP$, your
password, NN, password
Customise, NNP, custom
daily, RB, dai
e-mail, JJ, e-mail
newsletters, NNS, newslet
Arrange, NNP, arrang
your, PRP$, your
newspaper/digital, JJ, newspaper/digital
subscriptions, NNS, subscrib
online, NN, onlin
Offers, NNS, off
CloseX, NNP, closex
Thursday, NNP, thursday
17, CD, 17
Oct, NNP, oct
Light, NNP, light
rain, NN, rain
Temp, NNP, temp
13\u00b0c, CD, 13\u00b0c
Low, NNP, low
9\u00b0c, CD, 9\u00b0c
Wind, NNP, wind
From, NNP, from
South, NNP, sou
west, NN, west
Speed, NNP, spee
Temp, NNP, temp
13\u00b0c, CD, 13\u00b0c
Low, NNP, low
11\u00b0c, CD, 11\u00b0c
Wind, NNP, wind
From, NNP, from
East, NNP, east
Speed, NNP, spee
14, CD, 14
mph, NN, mph
Saturday, NNP, saturday
19, CD, 19
Oct, NNP, oct
Light, NNP, light
showers, NNS, show
Temp, NNP, temp
15\u00b0c, CD, 15\u00b0c
Low, NNP, low
11\u00b0c, CD, 11\u00b0c
Wind, NNP, wind
From, NNP, from
South, NNP, sou
Speed, NNP, spee
Temp, NNP, temp
14\u00b0c, CD, 14\u00b0c
Low, NNP, low
10\u00b0c, CD, 10\u00b0c
Wind, NNP, wind
From, NNP, from
South, NNP, sou
Speed, NNP, spee
10, CD, 10
mph, NN, mph
Monday, NNP, monday
21, CD, 21
Oct, NNP, oct
Light, NNP, light
showers, NNS, show
Temp, NNP, temp
14\u00b0c, CD, 14\u00b0c
Low, NNP, low
11\u00b0c, CD, 11\u00b0c
Wind, NNP, wind
From, NNP, from
South, NNP, sou
Speed, NNP, spee
14, CD, 14
mph, NN, mph
Heritage, NNP, herit
Drink, NNP, drink
Gardens, NNP, gard
Fashion, NNP, fash
Games, NNP, gam
Features, NNP, feat
reviews, VBZ, review
Recipes, NNP, recip
Whisky, NNP, whisky
of, IN, of
the, DT, the
day, NN, day
Rangers, NNP, rang
Craig, NNP, craig
quits, VBZ, quit
to, TO, to
end, VB, end
\u2018hysteria\u2019, JJ, \u2018hysteria\u2019
Scotland, NNP, scotland
2-0, CD, 2-0
Croatia, NNP, croat
Great, NNP, gre
outclass, NN, outclass
Croatia, NNP, croat
experts, NNS, expert
to, TO, to
tackle, VB, tackl
football, NN, footbal
fans, NNS, fan
health, NN, heal
Fencibles, NNS, fenc
Scots, NNS, scot
army, VBP, army
sword, NN, sword
to, TO, to
be, VB, be
auctioned, VBN, auct
Fireball, NNP, firebal
meteor, NN, met
flies, VBZ, fly
through, IN, through
Northern, NNP, northern
Lights, NNP, light
Tennent\u2019s, NNP, tennent\u2019s
to, TO, to
make, VB, mak
craft, NN, craft
beer, NN, beer
in, IN, in
Glasgow, NNP, glasgow
Historic, NNP, hist
tours, NNS, tour
of, IN, of
Edinburgh, NNP, edinburgh
Just, NNP, just
\u00a312, -NONE-, \u00a312
Viewed, NNP, view
GTA, NNP, gta
Norway, NNP, norway
McLeish, NNP, mcleish
Scottish, NNP, scot
independence, NN, independ
SNP, NNP, snp
conference, NN, conf
Craig, NNP, craig
quits, VBZ, quit
to, TO, to
end, VB, end
\u2018hysteria\u2019, JJ, \u2018hysteria\u2019
SFA, NNP, sfa
moves, VBZ, mov
at, IN, at
AGM, NNP, agm
Scotland, NNP, scotland
Craig, NNP, craig
quits, VBZ, quit
to, TO, to
end, VB, end
\u2018hysteria\u2019, JJ, \u2018hysteria\u2019
Scottish, JJ, scot
independence, NN, independ
Norway, NNP, norway
McLeish, NNP, mcleish
Dave, NNP, dav
bids, NNS, bid
to, TO, to
be, VB, be
Rangers, NNP, rang
chairman, NN, chairm
Lustig, NNP, lustig
injury, NN, injury
Scotland, NNP, scotland
Croatia, NNP, croat
\u2018copy\u2019, NNP, \u2018copy\u2019
is, VBZ, be
really, RB, real
\u00a31m, JJ, \u00a31m
portrait, NN, portrait
by, IN, by
NICHOLAS, NNP, nichola
CHRISTIAN, NNP, christian
Published, NNP, publ
on, IN, on
the, DT, the
10, CD, 10
March, NNP, march
2013, CD, 2013
00:00, CD, 00:00
Published, NNP, publ
10/03/2013, CD, 10/03/2013
00:00, CD, 00:00
Van, NNP, van
\u2013, NNP, \u2013
Bowes, NNP, bow
in, IN, in
County, NNP, county
Durham.But, CC, Durham.But
it, PRP, it
was, VBD, be
photographed, VBN, photograph
for, IN, for
BBC, NNP, bbc
Your, NNP, yo
Paintings, NNP, paint
website, NN, websit
BBC, NNP, bbc
Two\u2019s, NNP, two\u2019s
The, NNP, the
Culture, NNP, cult
Show, NNP, show
Van, NNP, van
expert, NN, expert
Dr, NNP, dr
Christopher, NNP, christopher
Brown.Dr, NNP, brown.dr
Brown, NNP, brown
Ashmolean, NNP, ashmol
in, IN, in
Oxford, NNP, oxford
Culture, NNP, cult
that, IN, that
it, PRP, it
was, VBD, be
\u201ca, JJ, \u201ca
substantial, JJ, subst
discovery\u201d.\u201cIt\u2019s, NNS, discovery\u201d.\u201cit\u2019s
quite, RB, quit
clear, JJ, clear
that, IN, that
this, DT, this
is, VBZ, be
Van, NNP, van
Van, NNP, van
at, IN, at
his, PRP$, his
best.\u201dAnthony, JJ, best.\u201danthony
Van, NNP, van
Antwerp, NNP, antwerp
and, CC, and
became, VBD, becom
court, NN, court
artist, NN, art
for, IN, for
King, NNP, king
Charles, NNP, charl
London, NNP, london
in, IN, in
1632, CD, 1632
Olivia, NNP, oliv
Charles, NNP, charl
I\u2019s, NNP, i\u2019s
wife, NN, wif
Henrietta, NNP, henriett
Maria.The, NNP, maria.the
painting, NN, paint
