Variety, NN, vary
Today, NNP, today
Navigation, NN, navig
Menu, NNP, menu
TV, NNP, tv
Digital, NNP, digit
VScore, NNP, vscore
More, NNP, mor
Biz, NNP, biz
Music, NNP, mus
LAIR, NNP, lair
Real, NNP, real
Estate, NNP, est
Salinger, NNP, sal
Opens, NNP, op
in, IN, in
Never-Before-Seen, JJ, never-before-seen
Letter, NN, let
Email, NNP, email
6Talk, CD, 6Talk
+G+, -NONE-, +G+
+Tweets, NNS, +tweets
Share, NNP, shar
October, NNP, octob
Rye, NNP, rye
Ramin, NNP, ramin
New, NNP, new
Rihanna, NNP, rihann
and, CC, and
Other, JJ, oth
Artists, NNS, art
Who, WP, Who
Play, NNP, play
Feel, NNP, feel
the, DT, the
Pressure, NNP, press
Film, NNP, film
09:20, CD, 09:20
am, NN, am
Merzak, NNP, merzak
Middle, NNP, middl
Filmmaker, NNP, filmmak
of, IN, of
the, DT, the
Year, NN, year
09:15, CD, 09:15
am, NN, am
\u2018Gravity\u2019, -NONE-, \u2018Gravity\u2019
Repeat, NNP, rep
Viewing, NNP, view
Drives, NNP, driv
Box, NNP, box
Office, NNP, off
Into, NNP, into
Biz, NNP, biz
09:10, CD, 09:10
am, NN, am
Abu, NNP, abu
Festival, NNP, fest
to, TO, to
Nurture, NNP, nurt
Variety, NNP, vary
\u201cIf, NNP, \u201cif
there\u2019s, NNP, there\u2019s
one, CD, one
thing, NN, thing
Holden, NNP, hold
makes, VBZ, mak
that, IN, that
declaration, NN, decl
on, IN, on
the, DT, the
second, JJ, second
page, NN, pag
of, IN, of
\u201cThe, NNP, \u201cthe
Catcher, NNP, catch
in, IN, in
the, DT, the
Rye, NNP, rye
Salinger, NNP, sal
Shane, NNP, shan
Hollywood, NNP, hollywood
Salinger, NNP, sal
Salinger, NNP, sal
communicated, VBD, commun
cordially, RB, cord
with, IN, with
several, JJ, sev
Hollywood, NNP, hollywood
producers, NNS, produc
during, IN, during
the, DT, the
peak, NN, peak
of, IN, of
his, PRP$, his
career, NN, car
Hollywood, NNP, hollywood
and, CC, and
the, DT, the
movies, NNS, movy
is, VBZ, be
not, RB, not
true, JJ, tru
at, IN, at
all, DT, all
Salerno, NNP, salerno
says, VBZ, say
Frank, NNP, frank
Capra\u2019s, NNP, capra\u2019s
\u201cLost, NNP, \u201clost
Horizon, NNP, horizon
Cornish, NNP, corn
Matt, NNP, mat
Samuel, NNP, samuel
adapted, VBD, adapt
his, PRP$, his
New, NNP, new
story, NN, story
\u201cUncle, NN, \u201cuncle
Wiggily, NNP, wiggy
in, IN, in
Connecticut, NNP, connecticut
Foolish, JJ, fool
Heart.\u201d, NN, heart.\u201d
The, DT, The
movie, NN, movy
opened, VBD, op
to, TO, to
scathing, NN, scath
reviews, NNS, review
Hollywood, NNP, hollywood
called, VBD, cal
after, IN, after
that, DT, that
Salinger, NNP, sal
wouldn\u2019t, NNP, wouldn\u2019t
pick, NN, pick
up, RP, up
the, DT, the
phone, NN, phon
Billy, NNP, bil
to, TO, to
Jerry, NNP, jerry
Steven, NNP, stev
and, CC, and
Harvey, NNP, harvey
Salerno, NNP, salerno
makes, VBZ, mak
the, DT, the
argument, NN, argu
that, IN, that
Salinger\u2019s, JJ, salinger\u2019s
animosity, NN, animos
toward, IN, toward
Hollywood, NNP, hollywood
never, RB, nev
went, VBD, go
that, IN, that
deep, NN, deep
Salerno, NNP, salerno
co-wrote, NNP, co-wrote
with, IN, with
David, NNP, david
Salinger, NNP, sal
struck, NN, struck
with, IN, with
the, DT, the
late, JJ, lat
TV, NN, tv
producer, NN, produc
Peter, NNP, pet
Tewksbury, NNP, tewksbury
traveled, VBD, travel
to, TO, to
Cornish, NNP, corn
with, IN, with
his, PRP$, his
wife, NN, wif
Cielle, NNP, ciel
Salerno, NNP, salerno
Esme, NNP, esm
\u2014, NNP, \u2014
Salinger, NNP, sal
invited, VBD, invit
them, PRP, them
into, IN, into
his, PRP$, his
house, NN, hous
and, CC, and
the, DT, the
two, CD, two
men, NNS, men
hit, VBD, hit
it, PRP, it
off, IN, off
Salinger, NNP, sal
told, VBD, tel
Tewksbury, NNP, tewksbury
he, PRP, he
could, MD, could
make, VB, mak
the, DT, the
movie, NN, movy
Tewksbury, NNP, tewksbury
later, JJ, lat
sent, NN, sent
Salinger, NNP, sal
Salinger, NNP, sal
always, RB, alway
returned, VBD, return
with, IN, with
notes, NNS, not
that, IN, that
guided, JJ, guid
the, DT, the
screenplay, NN, screenplay
back, RB, back
to, TO, to
his, PRP$, his
original, JJ, origin
text, NN, text
Tewksbury, NNP, tewksbury
fi, NN, fi
nally, RB, nal
decided, VBD, decid
Salinger, NNP, sal
had, VBD, hav
set, VBN, set
was, VBD, be
that, IN, that
he, PRP, he
would, MD, would
cast, VB, cast
the, DT, the
young, JJ, young
girl, NN, girl
in, IN, in
the, DT, the
film, NN, film
New, NNP, new
writer, NN, writ
pal, NN, pal
Peter, NNP, pet
to, TO, to
play, VB, play
Esme, NNP, esm
Tewksbury, NNP, tewksbury
met, NN, met
with, IN, with
her, PRP$, her
Salinger, NNP, sal
with, IN, with
the, DT, the
disappointing, JJ, disappoint
news, NN, new
Salerno, NNP, salerno
also, RB, also
uncovered, VBD, uncov
Jerry, NNP, jerry
to, TO, to
Salinger\u2019s, NNP, salinger\u2019s
agent, NN, ag
H.N, -NONE-, H.N
Swanson, NNP, swanson
Wald, NNP, wald
wrote, VBD, writ
back, RP, back
to, TO, to
the, DT, the
legendary, JJ, legend
agent, NN, ag
that, WDT, that
he, PRP, he
didn\u2019t, VBP, didn\u2019t
think, VBP, think
there, RB, ther
was, VBD, be
enough, RB, enough
narrative, JJ, nar
to, TO, to
adapt, VB, adapt
the, DT, the
story, NN, story
Mr., NNP, mr.
that, IN, that
Click, NNP, click
here, RB, her
to, TO, to
view, VB, view
full-size, JJ, full-size
image, NN, im
Salinger, NNP, sal
once, RB, ont
reportedly, RB, report
said, VBD, say
the, DT, the
only, JJ, on
person, NN, person
who, WP, who
could, MD, could
play, VB, play
Holden, NNP, hold
was, VBD, be
Salinger, NNP, sal
Hollywood, NNP, hollywood
Salerno, NNP, salerno
believes, VBZ, believ
the, DT, the
real, JJ, real
issue, NN, issu
for, IN, for
Salinger, NNP, sal
was, VBD, be
the, DT, the
collaborative, JJ, collab
nature, NN, nat
of, IN, of
film, NN, film
Salerno, NNP, salerno
says, VBZ, say
Danish, NNP, dan
filmmaker, NN, filmmak
Henning, NNP, hen
wrote, VBD, writ
Salinger, NNP, sal
with, IN, with
yet, RB, yet
another, DT, another
request, NN, request
for, IN, for
\u201cThe, JJ, \u201cthe
Catcher, NNP, catch
in, IN, in
the, DT, the
Rye.\u201d, NN, rye.\u201d
Salinger, NNP, sal
wrote, VBD, writ
back, RP, back
on, IN, on
Dec., NNP, dec.
23, CD, 23
Hollywood, NNP, hollywood
Salerno, NNP, salerno
says, VBZ, say
Carlsen, NNP, carls
wrote, VBD, writ
back, RP, back
Salinger, NNP, sal
to, TO, to
at, IN, at
least, JJS, least
watch, NN, watch
his, PRP$, his
1966, CD, 1966
film, NN, film
\u201cHunger\u201d, -NONE-, \u201cHunger\u201d
before, IN, before
making, VBG, mak
Salinger, NNP, sal
responded, VBD, respond
with, IN, with
Caulfield, NNP, caulfield
says, VBZ, say
in, IN, in
\u201cCatcher, JJ, \u201ccatcher
in, IN, in
the, DT, the
Rye, NNP, rye
Filed, NNP, fil
RyeWeekly, NNP, ryeweek
and, CC, and
alerts, NNS, alert
free, JJ, fre
to, TO, to
your, PRP$, your
inbox, NN, inbox
Post, NNP, post
Brad, NNP, brad
Pitt\u2019s, NNP, pitt\u2019s
\u2018Fury\u2019, NNP, \u2018fury\u2019
Begin, NNP, begin
This, NNP, thi
Weekend, NNP, weekend
New, NNP, new
Series, NNP, sery
