VOASites, NNS, voasit
by, IN, by
Language, NNP, langu
WorldwideEnglishvoanews.comLearning, NNP, worldwideenglishvoanews.comlearning
Englishlearningenglish.voanews.comEastern, NNP, englishlearningenglish.voanews.comeastern
Central, NNP, cent
EuropeShqipZeriamerikes.comBosanskivijestiglasaamerike.com\u0395\u03bb\u03bb\u03b7\u03bd\u03b9\u03ba\u03acgr.voanews.com\u041c\u0430\u043a\u0435\u0434\u043e\u043d\u0441\u043a\u0438mk.voanews.comSrpskiglasamerike.net\u0423\u043a\u0440\u0430\u0457\u043d\u0441\u044c\u043a\u0430chastime.comEurasia\u0540\u0561\u0575\u0565\u0580\u0565\u0576amerikayidzayn.comAzerbaijaniamerikaninsesi.org\u10e5\u10d0\u10e0\u10d7\u10e3\u10da\u10d8amerikiskhma.com\u0420\u0443\u0441\u0441\u043a\u0438\u0439golos-ameriki.ruCentral, JJ, europeshqipzeriamerikes.combosanskivijestiglasaamerike.com\u03b5\u03bb\u03bb\u03b7\u03bd\u03b9\u03ba\u03acgr.voanews.com\u043c\u0430\u043a\u0435\u0434\u043e\u043d\u0441\u043a\u0438mk.voanews.comsrpskiglasamerike.net\u0443\u043a\u0440\u0430\u0457\u043d\u0441\u044c\u043a\u0430chastime.comeurasia\u0570\u0561\u0575\u0565\u0580\u0565\u0576amerikayidzayn.comazerbaijaniamerikaninsesi.org\u10e5\u10d0\u10e0\u10d7\u10e3\u10da\u10d8amerikiskhma.com\u0440\u0443\u0441\u0441\u043a\u0438\u0439golos-ameriki.rucentral
AsiaO\u2018zbekamerikaovozi.comEast, JJ, asiao\u2018zbekamerikaovozi.comeast
Southeast, NNP, southeast
AsiaBurmeseburmese.voanews.com\u7cb5\u8a9evoacantonese.com\u4e2d\u6587voachinese.comBahasa, NNP, asiaburmeseburmese.voanews.com\u7cb5\u8a9evoacantonese.com\u4e2d\u6587voachinese.combahasa
Indonesiavoaindonesia.com\u1781\u17d2\u1798\u17c2\u179akhmer.voanews.comKhmervoacambodia.com\ud55c\uad6d\uc5b4voakorea.com\u0ea5\u0eb2\u0ea7lao.voanews.com\u0e44\u0e17\u0e22voathai.com\u0f56\u0f7c\u0f51\u0f0b\u0f61\u0f72\u0f42voatibetan.comTibetanvoatibetanenglish.comTi\u1ebfng, NNP, indonesiavoaindonesia.com\u1781\u17d2\u1798\u17c2\u179akhmer.voanews.comkhmervoacambodia.com\ud55c\uad6d\uc5b4voakorea.com\u0ea5\u0eb2\u0ea7lao.voanews.com\u0e44\u0e17\u0e22voathai.com\u0f56\u0f7c\u0f51\u0f0b\u0f61\u0f72\u0f42voatibetan.comtibetanvoatibetanenglish.comti\u1ebfng
Vi\u1ec7tvoatiengviet.comSouth, NNP, vi\u1ec7tvoatiengviet.comsouth
Asia\u09ac\u09be\u0982\u09b2\u09bevoabangla.com\u062f\u0631\u06ccdarivoa.com\u067e\u069a\u062a\u0648pashtovoa.com\u0648\u06cc, NNP, asia\u09ac\u09be\u0982\u09b2\u09bevoabangla.com\u062f\u0631\u06ccdarivoa.com\u067e\u069a\u062a\u0648pashtovoa.com\u0648\u06cc
\u0627\u0648, NNP, \u0627\u0648
\u0627\u06d0, NNP, \u0627\u06d0
\u0689\u064a\u0648\u0647, NNP, \u0689\u064a\u0648\u0647
\u0631\u064a\u0689\u06cc\u0648voadeewaradio.com\u0627\u0631\u062f\u0648urduvoa.comAfricaAfaan, NNP, \u0631\u064a\u0689\u06cc\u0648voadeewaradio.com\u0627\u0631\u062f\u0648urduvoa.comafricaafaan
Oromoovoaafaanoromoo.com\u12a0\u121b\u122d\u129bamharic.voanews.comFran\u00e7aislavoixdelamerique.comHausavoahausa.comKinyarwandaradiyoyacuvoa.comKirundiradiyoyacuvoa.comNdebelevoandebele.comPortugu\u00easvoaportugues.comShonavoashona.comSoomaaligavoasomali.comKiswahilivoaswahili.com\u1275\u130d\u122d\u129btigrigna.voanews.comZimbabwevoazimbabwe.comMiddle, NNP, oromoovoaafaanoromoo.com\u12a0\u121b\u122d\u129bamharic.voanews.comfran\u00e7aislavoixdelamerique.comhausavoahausa.comkinyarwandaradiyoyacuvoa.comkirundiradiyoyacuvoa.comndebelevoandebele.comportugu\u00easvoaportugues.comshonavoashona.comsoomaaligavoasomali.comkiswahilivoaswahili.com\u1275\u130d\u122d\u129btigrigna.voanews.comzimbabwevoazimbabwe.commiddle
East, NNP, east
Sign, NNP, sign
up, IN, up
Log, NNP, log
out, IN, out
Home, NNP, hom
Tech, NNP, tech
\u2190, NNP, \u2190
Great, NNP, gre
Marathoners, NNPS, marathon
Newer, NNP, new
Joe, NNP, joe
\u2192, NNP, \u2192
German, NNP, germ
Bikila, NNP, bikil
November, NNP, novemb
4th, CD, 4th
German, JJ, germ
In, NNP, in
New, NNP, new
City\u2019s, NNP, city\u2019s
Central, NNP, cent
Park, NNP, park
Friday, NNP, friday
German, NNP, germ
was, VBD, be
presented, VBN, pres
with, IN, with
the, DT, the
Abebe, NNP, abeb
Ethiopian, NNP, ethiop
runner, NN, run
who, WP, who
won, NN, won
gold, VBD, gold
medals, NNS, med
in, IN, in
the, DT, the
marathon, NN, marathon
at, IN, at
the, DT, the
1960, CD, 1960
Olympics, NNP, olymp
in, IN, in
Rome, NNP, rom
and, CC, and
the, DT, the
1964, CD, 1964
Olympics, NNP, olymp
in, IN, in
Tokyo, NNP, tokyo
Abebe, NNP, abeb
Bikila, NNP, bikil
is, VBZ, be
an, DT, an
appropriate, JJ, appropry
place, NN, plac
for, IN, for
the, DT, the
43-year-old, JJ, 43-year-old
Silva, NNP, silv
to, TO, to
receive, VB, receiv
the, DT, the
honor, NN, hon
New, NNP, new
Mexican, NNP, mex
Silva, NNP, silv
rallied, VBD, ral
to, TO, to
beat, VB, beat
Paredes, NNP, par
by, IN, by
two, CD, two
seconds, NNS, second
Silva, NNP, silv
is, VBZ, be
known, VBN, know
for, IN, for
much, RB, much
more, JJR, mor
than, IN, than
making, VBG, mak
Abebe, NNP, abeb
New, NNP, new
Runners, NNP, run
Paul, NNP, paul
at, IN, at
VOA, NNP, voa
club, NN, club
Kenyan, NNP, keny
star, NN, star
Paul, NNP, paul
New, NNP, new
Marathon, NNP, marathon
and, CC, and
then, RB, then
America, NNP, americ
headquarters, NNS, headquart
here, RB, her
in, IN, in
Washington, NNP, washington
Tergat, NNP, terg
said, VBD, say
Abebe, NNP, abeb
Bikila\u2019s, NNP, bikila\u2019s
contribution, NN, contribut
German, NNP, germ
says, VBZ, say
he\u2019s, JJ, he\u2019s
dedicating, NN, ded
the, DT, the
award, NN, award
to, TO, to
his, PRP$, his
family, NN, famy
and, CC, and
all, DT, all
his, PRP$, his
Mexican, NNP, mex
friends, NNS, friend
Silva, NNP, silv
has, VBZ, hav
organized, VBN, org
running, VBG, run
events, NNS, ev
in, IN, in
small, JJ, smal
rural, JJ, rur
communities, NNS, commun
Mexico, NNP, mexico
Posted, NNP, post
in, IN, in
Uncategorized, NNP, uncateg
\u2190, NNP, \u2190
Great, NNP, gre
Marathoners, NNPS, marathon
Newer, NNP, new
Joe, NNP, joe
\u2192, NNP, \u2192
Click, NNP, click
here, RB, her
to, TO, to
cancel, VB, cancel
reply, RB, reply
Name, NNP, nam
Website, NNP, websit
Notify, NNP, not
me, PRP, me
of, IN, of
followup, NN, followup
comments, NNS, com
via, IN, via
e-mail, JJ, e-mail
About, IN, About
By, NNP, by
admin, NN, admin
on, IN, on
April, NNP, april
13, CD, 13
Sonny, NNP, sonny
of, IN, of
Sports, NNPS, sport
is, VBZ, be
an, DT, an
energetic, JJ, energet
and, CC, and
action-packed, JJ, action-packed
look, NN, look
at, IN, at
both, DT, both
world, NN, world
and, CC, and
African, NNP, afr
sports, NNS, sport
Sonny, NNP, sonny
has, VBZ, hav
delighted, VBN, delight
listeners, NNS, list
and, CC, and
viewers, NNS, view
with, IN, with
Africa, NNP, afric
and, CC, and
all, DT, all
over, IN, over
the, DT, the
globe, NN, glob
Sonny, NNP, sonny
of, IN, of
Sports, NNPS, sport
is, VBZ, be
broadcast, VBN, broadcast
Monday, NNP, monday
through, IN, through
Friday, NNP, friday
at, IN, at
1630, CD, 1630
and, CC, and
1830, CD, 1830
UTC/GMT, JJ, utc/gmt
Sonny, NNP, sonny
has, VBZ, hav
an, DT, an
expanded, VBN, expand
30-minute, JJ, 30-minute
sports, NNS, sport
show, VBP, show
Brighten, NNP, bright
your, PRP$, your
day, NN, day
by, IN, by
tuning, NN, tun
in, IN, in
the, DT, the
Sonny, NNP, sonny
of, IN, of
Sports, NNPS, sport
Facebook, NNP, facebook
E-mail, NNP, e-mail
sonny, NN, sonny
Telephone, NNP, telephon
+1.202.205.9942, NNP, +1.202.205.9942
When, NNP, when
you, PRP, you
hear, VBP, hear
the, DT, the
VOA, NNP, voa
identification, NN, id
press, NN, press
60, CD, 60
Postal, NNP, post
Voice, NNP, voic
of, IN, of
America, NNP, americ
Room, NNP, room
1613, CD, 1613
330, CD, 330
Independence, NNP, independ
SW, NNP, sw
USA, NNP, us
VOA, NNP, voa
BlogsAfrican, NNP, blogsafr
Music, NNP, mus
Astrit, NNP, astrit
Lulushi\u2019s, NNP, lulushi\u2019s
Blog, NNP, blog
China, NNP, chin
Wangre, NNP, wangr
Cambodia, NNP, cambod
Photos, NNP, photo
Photos, NNP, photo
Photos, NNP, photo
Photos, NNP, photo
Photos, NNP, photo
Photos, NNP, photo
Photos, NNP, photo
Photos, NNP, photo
Photos, NNP, photo
Photos, NNP, photo
Digital, NNP, digit
Frontiers, NNP, fronty
FOTO, NNP, foto
Georgian, JJ, georg
FOTOLARI, NNP, fotolar
Egitim, NNP, egitim
Inside, NNP, insid
Iran, NNP, ir
behind, IN, behind
the, DT, the
Curtain, NNP, curtain
Jazz, NNP, jazz
Kontes, NNS, kont
Green, NNP, green
USA, NNP, us
Modern, NNP, modern
Motosikletli, NNP, motosikletl
Cambodia, NNP, cambod
America, NNP, americ
Brief, NNP, brief
Photos, NNP, photo
Pojokan, NNP, pojok
Russia, NNP, russ
Russia, NNP, russ
Sonny, NNP, sonny
of, IN, of
Sports, NNPS, sport
Affairs, NNP, affair
Fabrikasi, NNP, fabrikas
America, NNP, americ
Learning, NNP, learn
with, IN, with
Steve, NNP, stev
USA, NNP, us
Vatan, NNP, vat
VOA, NNP, voa
Breaking, NNP, break
News, NNP, new
VOA, NNP, voa
VOA, NNP, voa
Washigntonname, NNP, washigntonnam
Washington, NNP, washington
Notlar\u0131, NNP, notlar\u0131
Yeni, NNP, yen
Yuridik, NNP, yuridik
Ziman, NNP, zim
\u00fb, :, \u00fb
