Squabbles, NNP, squabbl
Bernoulli, NNP, bernoull
Johann, NNP, johan
Daniel, NNP, daniel
Bernoulli, NNP, bernoull
family, NN, famy
may, MD, may
sound, VB, sound
like, IN, like
Europe, NNP, europ
Bale, NNP, bal
Switzerland, NNP, switzerland
Bernoulli, NNP, bernoull
family, NN, famy
was, VBD, be
originally, RB, origin
from, IN, from
Holland, NNP, holland
with, IN, with
strong, JJ, strong
Calvinism, NNP, calvin
religion, NN, relig
Spanish, JJ, span
religious, JJ, religy
persecution, NN, persecut
Switzerland, NNP, switzerland
Nicholas, NNP, nichola
Bernoulli, NNP, bernoull
brought, VBD, bring
the, DT, the
family, NN, famy
to, TO, to
Switzerland, NNP, switzerland
Bale, NNP, bal
Jacob, NNP, jacob
Jacques, NNP, jacqu
Bale, NNP, bal
Switzerland, NNP, switzerland
Bernoulli, NNP, bernoull
Bernoulli, NNP, bernoull
to, TO, to
be, VB, be
recognized, VBN, recogn
as, IN, as
Johann, NNP, johan
or, CC, or
John, NNP, john
Bale, NNP, bal
University, NNP, univers
of, IN, of
Bale, NNP, bal
and, CC, and
studied, VBD, study
medicine, NN, medicin
Jacob, NNP, jacob
Jacob, NNP, jacob
was, VBD, be
Jacob, NNP, jacob
's, POS, 's
tutelage, NN, tutel
Johann, NNP, johan
was, VBD, be
his, PRP$, his
equal, JJ, eq
Jacob, NNP, jacob
had, VBD, hav
no, DT, no
problem, NN, problem
teaching, NN, teach
his, PRP$, his
little, JJ, littl
brother, NN, broth
Johann, NNP, johan
Bernoulli, NNP, bernoull
blood, NN, blood
began, VBD, begin
to, TO, to
boil, NN, boil
Johann, NNP, johan
's, POS, 's
ego, NN, ego
was, VBD, be
getting, VBG, get
larger, JJR, larg
which, WDT, which
he, PRP, he
began, VBD, begin
to, TO, to
brag, VB, brag
about, IN, about
his, PRP$, his
work, NN, work
and, CC, and
at, IN, at
the, DT, the
same, JJ, sam
time, NN, tim
he, PRP, he
belittled, VBD, belittl
his, PRP$, his
brother, NN, broth
Jacob, NNP, jacob
was, VBD, be
so, RB, so
angry, JJ, angry
he, PRP, he
made, VBD, mak
crude, JJ, crud
comments, NNS, com
about, IN, about
Johann, NNP, johan
's, POS, 's
abilities, NNS, abl
Jacob, NNP, jacob
refer, VBP, ref
to, TO, to
him, PRP, him
as, IN, as
Jacob, NNP, jacob
and, CC, and
Johann, NNP, johan
went, VBD, go
back, RB, back
and, CC, and
forth, JJ, for
with, IN, with
comments, NNS, com
in, IN, in
the, DT, the
academic, JJ, academ
community, NN, commun
which, WDT, which
developed, VBD, develop
Johann, NNP, johan
was, VBD, be
Newton, NNP, newton
failed, VBD, fail
to, TO, to
solve, VB, solv
in, IN, in
the, DT, the
laws, NNS, law
of, IN, of
gravitaiton, NN, gravitaiton
Jacob, NNP, jacob
was, VBD, be
the, DT, the
chair, NN, chair
of, IN, of
mathematics, NNS, mathem
in, IN, in
Bale, NNP, bal
Johann, NNP, johan
wanted, VBD, want
that, IN, that
chair, NN, chair
Holland, NNP, holland
Bale, NNP, bal
Johann, NNP, johan
's, POS, 's
father-in-law, NN, father-in-law
was, VBD, be
dying, VBG, die
and, CC, and
asking, VBG, ask
for, IN, for
his, PRP$, his
daughter, NN, daught
and, CC, and
grandchildren, NNS, grandchild
Johann, NNP, johan
came, VBD, com
back, RP, back
to, TO, to
Bale, NNP, bal
Jacob, NNP, jacob
Johann, NNP, johan
took, VBD, tak
his, PRP$, his
chair, NN, chair
Johann, NNP, johan
had, VBD, hav
three, CD, three
sons, NNS, son
and, CC, and
one, CD, one
of, IN, of
his, PRP$, his
sons, NNS, son
became, VBD, becom
Daniel, NNP, daniel
Bale, NNP, bal
Johann, NNP, johan
was, VBD, be
determined, VBN, determin
to, TO, to
make, VB, mak
Daniel, NNP, daniel
Bernoulli, NNP, bernoull
Daniel, NNP, daniel
did, VBD, do
not, RB, not
want, VB, want
to, TO, to
learn, VB, learn
the, DT, the
business, NN, busy
Johann, NNP, johan
's, POS, 's
stubborness, NN, stub
made, VBD, mak
Daniel, NNP, daniel
to, TO, to
study, VB, study
medicine, NN, medicin
Daniel, NNP, daniel
that, IN, that
there, EX, there
is, VBZ, be
no, DT, no
money, NN, money
in, IN, in
mathematics, NN, mathem
Daniel, NNP, daniel
did, VBD, do
study, NN, study
medicine, NN, medicin
and, CC, and
applied, VBD, apply
mathematical, JJ, mathem
physics, NN, phys
to, TO, to
it, PRP, it
Daniel, NNP, daniel
Bernoulli, NNP, bernoull
was, VBD, be
natural, JJ, nat
philosopher, NN, philosoph
who, WP, who
applied, VBD, apply
mathematics, NNS, mathem
in, IN, in
his, PRP$, his
work, NN, work
Daniel, NNP, daniel
was, VBD, be
Daniel, NNP, daniel
travel, NN, travel
to, TO, to
Danzig, NNP, danzig
Hamburg, NNP, hamburg
Holland, NNP, holland
Paris, NNP, par
Venice, NNP, ven
and, CC, and
St., NNP, st.
mostly, RB, most
Leonard, NNP, leonard
Daniel, NNP, daniel
and, CC, and
Euler, NNP, eul
worked, VBD, work
in, IN, in
St., NNP, st.
on, IN, on
the, DT, the
vibration, NN, vibr
and, CC, and
frequency, NN, frequ
of, IN, of
sounds, NNS, sound
by, IN, by
using, VBG, us
musical, JJ, mus
instruments, NNS, instru
Bale, NNP, bal
and, CC, and
entered, VBD, ent
Paris, NNP, par
Academy, NNP, academy
for, IN, for
his, PRP$, his
ideas, NNS, ide
of, IN, of
astronomy, NN, astronom
Grand, NNP, grand
Johann, NNP, johan
's, POS, 's
ego, NN, ego
could, MD, could
not, RB, not
stand, VB, stand
being, VBG, be
pronounced, VBN, pronount
as, IN, as
an, DT, an
equal, JJ, eq
to, TO, to
his, PRP$, his
son, NN, son
Daniel, NNP, daniel
from, IN, from
his, PRP$, his
house, NN, hous
Johann, NNP, johan
went, VBD, go
so, RB, so
far, RB, far
as, IN, as
stole, JJ, stol
one, CD, one
of, IN, of
Daniel, NNP, daniel
's, POS, 's
papers, NNS, pap
and, CC, and
submit, VB, submit
his, PRP$, his
name, NN, nam
to, TO, to
it, PRP, it
Bernoulli, NNP, bernoull
blood, NN, blood
may, MD, may
be, VB, be
filled, VBN, fil
with, IN, with
fire, NN, fir
Contributed, NNP, contribut
by, IN, by
Tina, NNP, tin
References, NNPS, ref
Golba, NNP, golb
Johan, NNP, joh
Bernoulli, NNP, bernoull
Online, NNP, onlin
Kline, NNP, klin
New, NNP, new
Sighn, NNP, sighn
Fermat, NNP, ferm
's, POS, 's
enigma, NN, enigm
New, NNP, new
University, NNP, univers
of, IN, of
St., NNP, st.
Andrews, NNP, andrew
School, NNP, school
of, IN, of
Mathematics, NNP, mathem
and, CC, and
Statistics, NNP, stat
Daniel, NNP, daniel
Bernoulli, NNP, bernoull
Online, NNP, onlin
University, NNP, univers
of, IN, of
St., NNP, st.
Andrews, NNP, andrew
School, NNP, school
of, IN, of
Mathematics, NNP, mathem
and, CC, and
Statistics, NNP, stat
Jacob, NNP, jacob
Bernoulli, NNP, bernoull
Online, NNP, onlin
University, NNP, univers
of, IN, of
St., NNP, st.
Andrews, NNP, andrew
School, NNP, school
of, IN, of
Mathematics, NNP, mathem
and, CC, and
Statistics, NNP, stat
Johann, NNP, johan
Bernoulli, NNP, bernoull
Online, NNP, onlin
Weissten, NNP, weisst
Bernoulli, NNP, bernoull
Jakob, NNP, jakob
Online, NNP, onlin
Home, NN, hom
Topics, NNP, top
