SEARCH, NN, search
register, NN, reg
Home, NNP, hom
to, TO, to
the, DT, the
Editor, NNP, edit
Comments, NNP, com
Columns, NNP, column
Then, NNP, then
There, NNP, ther
's, POS, 's
This, DT, This
News, NN, new
Listings, NNS, list
Food-o-File, NNP, food-o-file
Reviews, NNP, review
Food, NNP, food
Issue, NNP, issu
ACL, NNP, ac
Music, NNP, mus
Arts, NNPS, art
Blog, NNP, blog
Story, NNP, story
Contest, NNP, contest
Books, NNP, book
Design, NNP, design
Gay, NNP, gay
Place, NNP, plac
Calendar, NNP, calend
an, DT, an
Event, NNP, ev
Special, NNP, spec
Special, NNP, spec
Issues, NNPS, issu
Best, NNP, best
of, IN, of
Austin, NNP, austin
First, NNP, first
Plates, NNP, plat
Restaurant, NNP, resta
Poll, NNP, pol
SXSW, NNP, sxsw
Austin, NNP, austin
Story, NNP, story
Contest, NNP, contest
Promotions, NNP, promot
Featured, NNP, feat
Events, NNP, ev
Chron2, NNP, chron2
Advertise, NNP, advert
With, NNP, with
Us, NNP, us
E-Edition, NNP, e-edition
Classifieds, NNP, class
Jobs, NNP, job
Housing, NNP, hous
Buy/Sell, NNP, buy/sell
Services, NNPS, serv
Licensed, NNP, licens
Massage, NNP, mass
an, DT, an
Ad, NNP, ad
Dating, NNP, dat
Chronicle, NNP, chronicle
Dating, NNP, dat
Shot, NNP, shot
in, IN, in
the, DT, the
Dark, NNP, dark
ACL, NNP, ac
Music, NNP, mus
Austin, NNP, austin
Master, NNP, mast
Young, NNP, young
foodWheatsville, NNP, foodwheatsvil
Cooperative, NNP, coop
Mission, NNP, miss
musicPour, NNP, musicpo
Yourself, NNP, yourself
Cool, NNP, cool
of, IN, of
White, NNP, whit
\u2018Lemonade\u2019, NNP, \u2018lemonade\u2019
screensDeep-Seated, NNP, screensdeep-seated
Divans, NNP, div
and, CC, and
Homo, NNP, homo
artsLife, NNP, artsl
From, NNP, from
the, DT, the
Mortuary, NNP, mortu
to, TO, to
the, DT, the
Theatre, NNP, the
earache, NN, earach
Luis, NNP, lui
Miguel, NNP, miguel
\u2013, NNP, \u2013
Otra, NNP, otr
Crooner, NNP, croon
dazzles, NNS, dazzl
the, DT, the
Frank, NNP, frank
Center, NNP, cent
By, NNP, by
Nina, NNP, nin
Thu, NNP, thu
Frank, NNP, frank
Rick, NNP, rick
After, NNP, aft
performing, VBG, perform
for, IN, for
more, JJR, mor
than, IN, than
30, CD, 30
years, NNS, year
Luis, NNP, lui
needs, VBZ, nee
no, DT, no
introduction, NN, introduc
Erwin, NNP, erwin
Miguel, NNP, miguel
Couples, NNS, coupl
took, VBD, tak
selfies, NNS, selfy
seats, NNS, seat
Spanish, NNP, span
in, IN, in
seats, NNS, seat
next, IN, next
to, TO, to
their, PRP$, their
mothers, NNS, moth
and, CC, and
grandmothers, NNS, grandmoth
Miguel, NNP, miguel
appeared, VBD, appear
UT, NNP, ut
concert, NN, concert
drum, NN, drum
broke, NN, brok
out, IN, out
the, DT, the
chorus, NN, chor
to, TO, to
\u201cSuave, JJ, \u201csuave
Miguel, NNP, miguel
recorded, VBD, record
20, CD, 20
years, NNS, year
ago, RB, ago
San, NNP, san
Puerto, NNP, puerto
Rico-born, NNP, rico-born
crooner, NN, croon
stopped, VBD, stop
to, TO, to
take, VB, tak
Miguel, NNP, miguel
made, VBD, mak
his, PRP$, his
way, NN, way
through, IN, through
the, DT, the
story, NN, story
of, IN, of
his, PRP$, his
life, NN, lif
Miguel, NNP, miguel
Miguel, NNP, miguel
still, RB, stil
wiggles, VBZ, wiggl
his, PRP$, his
hips, NNS, hip
Miguel, NNP, miguel
prefers, NNS, pref
singing, VBG, sing
to, TO, to
stage, NN, stag
banter, NN, bant
Miguel, NNP, miguel
gestured, VBD, gest
to, TO, to
them, PRP, them
Miguel, NNP, miguel
collaborated, VBD, collab
with, IN, with
Frank, NNP, frank
on, IN, on
1994\u2019s, CD, 1994\u2019s
Duets, NNS, duet
II, NNP, ii
Miguel, NNP, miguel
threw, VBD, throw
his, PRP$, his
arm, NN, arm
around, IN, around
one, CD, one
violin, NN, violin
player, NN, play
Miguel, NNP, miguel
threw, VBD, throw
white, JJ, whit
flowers, NNS, flow
into, IN, into
the, DT, the
audience, NN, audy
C8C8C8, NNP, c8c8c8
C8C8C8, NNP, c8c8c8
