RSS, NN, rss
FEED, VBD, fee
Advertising, NNP, advert
Contact, NNP, contact
About, NNP, about
English, NNP, engl
Armenian, NNP, arm
International, NNP, intern
Culture, NNP, cult
Places, NNP, plac
Turn, NNP, turn
is, VBZ, be
Armen, NNP, arm
in, IN, in
Armenia, NNP, armen
's, POS, 's
Corner, NNP, corn
Links, NNP, link
2013, CD, 2013
Special, NNP, spec
Issue, NNP, issu
Videos, NNP, video
Tuesday, NNP, tuesday
Contributor, NNP, contribut
in, IN, in
DenmarkThe, NNP, denmarkth
Library, NNP, libr
ISTANBUL, NNP, istanb
Armenian, NNP, arm
Royal, NNP, roy
of, IN, of
Denmark, NNP, denmark
has, VBZ, hav
agreed, VBN, agr
\u201cto, -NONE-, \u201cto
balance\u201d, -NONE-, balance\u201d
an, DT, an
Armenian, JJ, arm
Genocide, NNP, genocid
exhibition, NN, exhibit
by, IN, by
allowing, NN, allow
the, DT, the
Turkish, NNP, turk
government, NN, govern
to, TO, to
mount, VB, mount
its, PRP$, its
own, JJ, own
\u201calternative\u201d, NN, \u201calternative\u201d
exhibit, NN, exhibit
Turkish, JJ, turk
citizens\u2013including, JJ, citizens\u2013including
academics, NNS, academ
Royal, NNP, roy
Denmark, NNP, denmark
on, IN, on
the, DT, the
matter, NN, mat
Danish, NNP, dan
for, IN, for
International, NNP, intern
Studies\u2019, NNP, studies\u2019
Holocaust, NNP, holocaust
and, CC, and
Genocide, NNP, genocid
Don\u2019t, NNP, don\u2019t
Stand, NNP, stand
Against, NNP, against
Turkey\u2019s, NNP, turkey\u2019s
Democratization, NNP, democr
and, CC, and
Confrontation, NNP, confront
with, IN, with
its, PRP$, its
History, NNP, hist
Royal, NNP, roy
of, IN, of
Denmark, NNP, denmark
has, VBZ, hav
given, VBN, giv
the, DT, the
Turkish, NNP, turk
government, NN, govern
the, DT, the
opportunity, NN, opportun
to, TO, to
present, VB, pres
an, DT, an
\u201calternative, JJ, \u201calternative
exhibit\u201d, NN, exhibit\u201d
in, IN, in
response, NN, respons
to, TO, to
the, DT, the
Armenian, NNP, arm
exhibition, NN, exhibit
Turkish, NNP, turk
government, NN, govern
Turkish, NNP, turk
government, NN, govern
has, VBZ, hav
been, VBN, be
suppressing, VBG, suppress
historic, JJ, hist
truths, NNS, tru
and, CC, and
following, VBG, follow
Hrant, NNP, hrant
in, IN, in
2007, CD, 2007
European, JJ, europ
of, IN, of
Human, NNP, hum
has, VBZ, hav
ruled, VBN, rul
in, IN, in
several, JJ, sev
cases, NNS, cas
on, IN, on
this, DT, this
subject, NN, subject
against, IN, against
Turkey\u2019s, JJ, turkey\u2019s
position, NN, posit
and, CC, and
actions, NNS, act
Turkish, JJ, turk
government, NN, govern
the, DT, the
opportunity, NN, opportun
to, TO, to
present, VB, pres
an, DT, an
\u201calternative, JJ, \u201calternative
exhibit, NN, exhibit
Turkey, NNP, turkey
today, NN, today
Peace, NN, peac
Middle, NNP, middl
will, MD, will
only, RB, on
come, VB, com
about, IN, about
through, IN, through
regimes, NNS, regim
that, WDT, that
are, VBP, be
willing, JJ, wil
to, TO, to
confront, VB, confront
history, NN, hist
honestly, RB, honest
Turkey, NNP, turkey
represents, VBZ, repres
an, DT, an
obstacle, NN, obstac
to, TO, to
the, DT, the
development, NN, develop
of, IN, of
peace, NN, peac
Middle, NNP, middl
Turkey, NNP, turkey
Turkish, NNP, turk
government, NN, govern
the, DT, the
opportunity, NN, opportun
to, TO, to
present, VB, pres
an, DT, an
\u201calternative, JJ, \u201calternative
exhibit\u201d, NN, exhibit\u201d
and, CC, and
withdraw, NN, withdraw
the, DT, the
offer, NN, off
immediately, RB, immedy
Turkey, NNP, turkey
confront, NN, confront
its, PRP$, its
history, NN, hist
honestly, RB, honest
Fikret, NNP, fikret
Adan\u0131r, NNP, adan\u0131r
Taner, NNP, tan
Ak\u00e7am, NNP, ak\u00e7am
Ayhan, NNP, ayh
Cengiz, NNP, ceng
Cengiz, NNP, ceng
DurDe, NNP, durd
civic, JJ, civ
initiative, NN, in
Ahmet, NNP, ahmet
Taraf, NNP, taraf
newspaper, NN, newspap
Maya, NNP, may
Oya, NNP, oy
Yavuz, NNP, yavuz
Todays, NNP, today
newspaper, NN, newspap
Osman, NNP, osm
Murat, NNP, mur
Halil, NNP, halil
Hamit, NNP, hamit
Oral, NNP, or
\u00c7al\u0131\u015flar, JJ, \u00e7al\u0131\u015fl
Radikal, NNP, radik
newspaper, NN, newspap
Editor, NNP, edit
webnews, VBZ, webnew
Fatma, NNP, fatm
M\u00fcge, NNP, m\u00fcge
G\u00f6\u00e7ek, NNP, g\u00f6\u00e7ek
Ahmet, NNP, ahmet
\u0130nsel, NNP, insel
Kaya, NNP, kay
Birikim, NNP, birikim
Roni, NNP, ron
Cem, NNP, cem
German, NNP, germ
Esra, NNP, esr
Tanbay, NNP, tanbay
Zeynep, NNP, zeynep
Turgut, NNP, turgut
Ufuk, NNP, ufuk
MP, NNP, mp
Yurdatapan, NNP, yurdatap
Freedom, NNP, freedom
of, IN, of
Expression, NNP, express
Discussion, NN, discuss
Policy, NN, policy
Comments, VBZ, com
are, VBP, be
welcomed, VBN, welcom
and, CC, and
encouraged, VBD, enco
Sign, NNP, sign
in, IN, in
Denmark\u201d, NNP, denmark\u201d
MGL, NNP, mgl
says, VBZ, say
Great, NNP, gre
to, TO, to
see, VB, see
so, RB, so
many, JJ, many
great, JJ, gre
and, CC, and
brave, VB, brav
Turks, NNP, turk
Zohrab, NNP, zohrab
says, VBZ, say
Turkey, NNP, turkey
Tsoghig, NNP, tsoghig
says, VBZ, say
Turks, NNP, turk
that, IN, that
are, VBP, be
not, RB, not
afraid, JJ, afraid
to, TO, to
stand, VB, stand
by, IN, by
the, DT, the
truth, NN, tru
Armenian, NNP, arm
genocide, NN, genocid
is, VBZ, be
to, TO, to
blame, VB, blam
the, DT, the
victims, NNS, victim
by, IN, by
using, VBG, us
distractions, NNS, distract
and, CC, and
distortions, NNS, distort
THE, DT, THE
ARMENIAN, NNP, arm
GENOCIDE, NNP, genocid
WAS, NNP, was
PLANNED, NNP, plan
BY, NNP, by
THEIR, NNP, their
ANCESTORS, NNP, ancest
THE, NNP, the
WHOLE, NNP, whol
WORLD, NNP, world
KNOWS, NNP, know
ALSO, NNP, also
MANY, NNP, many
MANY, NNP, many
TURKS, NNP, turk
KNOW, NNP, know
THAT, NNP, that
THE, NNP, the
GENOCIDE, NNP, genocid
WAS, NNP, was
ORGANIZED, NNP, org
BY, NNP, by
THE, NNP, the
TURKISH, NNP, turk
LEADERS, NNP, lead
AND, NNP, and
GOVERNMENT, NNP, govern
BY, NNP, by
MURDERING, NNP, murd
THE, NNP, the
ARMENIANS, NNP, arm
STEALING, NNP, ste
THEIR, NNP, their
CHILDREN, NNP, childr
WOMEN, NNP, wom
LAND, NNP, land
WEALTH, NNP, weal
AND, NNP, and
DESTROYING, NNP, destroy
THEIR, NNP, their
CHURCHS, NNP, church
ECT, NNP, ect
TURKEY, NNP, turkey
WILL, NNP, wil
NEVER, NNP, nev
BE, NNP, be
ALLOWED, NNP, allow
TO, NNP, to
GET, NNP, get
AWAY, NNP, away
WITH, NNP, with
WHOLESALE, NNP, wholes
SLAUGHTER, NNP, slaught
TIME, NNP, tim
TURKEY, NNP, turkey
TO, NNP, to
JOIN, NNP, join
THE, NNP, the
CIVILIZED, NNP, civil
WORLD, NNP, world
AND, NNP, and
RECOGNIZE, NNP, recogn
THE, NNP, the
ARMENIAN, NNP, arm
GENOCIDE, NNP, genocid
AS, NNP, as
TRUE, NNP, tru
FACT, NNP, fact
Garen, NNP, gar
says, VBZ, say
Beautiful, NNP, beauty
Turkish, NNP, turk
nation, NN, nat
that, WDT, that
can, MD, can
save, VB, sav
Turkish, JJ, turk
honor, NN, hon
for, IN, for
eternity, NN, etern
to, TO, to
come, VB, com
Jimbo, NNP, jimbo
says, VBZ, say
Turkey, NNP, turkey
to, TO, to
be, VB, be
controlled, VBN, control
by, IN, by
the, DT, the
High-Tax, JJ, high-tax
Communist, NNP, commun
EUSSR, NNP, eussr
when, WRB, when
the, DT, the
Right-Wingers, NNS, right-wingers
in, IN, in
Europe, NNP, europ
think, NN, think
Muslims, NNP, muslim
are, VBP, be
lower, JJR, low
then, RB, then
apes, VBZ, ap
and, CC, and
pigs, NNS, pig
Turkey, NNP, turkey
normalize, VB, norm
relation\u2019s, JJ, relation\u2019s
with, IN, with
it\u2019s, JJ, it\u2019s
neighbors, NNS, neighb
PKK, NNP, pkk
terrorists\u201d, NNP, terrorists\u201d
are, VBP, be
just, RB, just
trying, VBG, try
to, TO, to
form, NN, form
Turkey, NNP, turkey
and, CC, and
they, PRP, they
know, VBP, know
it, PRP, it
Turkish, NNP, turk
diasporan, NN, diasp
activists, NNS, act
should, MD, should
not, RB, not
be, VB, be
silenced, VBN, sil
and, CC, and
free, JJ, fre
speech, NN, speech
and, CC, and
1st, CD, 1st
amendment, NN, amend
rights, NNS, right
should, MD, should
not, RB, not
be, VB, be
supressed, VBN, supress
