Accessibility, NN, access
links, NNS, link
Skip, NNP, skip
to, TO, to
article, VB, artic
Skip, NNP, skip
to, TO, to
navigation, NN, navig
Advertisement, NNP, advert
Telegraph.co.uk, NNP, telegraph.co.uk
Wednesday, NNP, wednesday
16, CD, 16
October, NNP, octob
2013, CD, 2013
Home, NNP, hom
News, NNP, new
World, NNP, world
Sport, NNP, sport
Finance, NNP, fin
Comment, NNP, com
Culture, NNP, cult
Travel, NNP, travel
Offers, NNP, off
Jobs, NNP, job
Film, NNP, film
Music, NNP, mus
TV, NNP, tv
and, CC, and
Radio, NNP, radio
Home\u00bb, NNP, home\u00bb
Culture\u00bb, NNP, culture\u00bb
Theatre\u00bb, NNP, theatre\u00bb
Dance, NNP, dant
Mikhail, NNP, mikhail
Russia, NNP, russ
is, VBZ, be
Mikhail, NNP, mikhail
Sarah, NNP, sarah
about, IN, about
performing, VBG, perform
for, IN, for
Nureyev, NNP, nureyev
Sarah, NNP, sarah
\u2013, NNP, \u2013
Beethoven, NNP, beethov
of, IN, of
the, DT, the
body, NN, body
Baryshnikov, NNP, baryshnikov
Willem, NNP, willem
Lucie, NNP, lucy
Sarah, NNP, sarah
7:00AM, CD, 7:00AM
BST, NNP, bst
03, CD, 03
Jul, NNP, jul
2013, CD, 2013
Follow, NNP, follow
Comments, NNP, com
Mikhail, NNP, mikhail
walks, VBZ, walk
into, IN, into
the, DT, the
Teatro, NNP, teatro
in, IN, in
Spoleto, NNP, spoleto
Umbria, NNP, umbr
Outside, JJ, outsid
Jerome, NNP, jerom
\u2013, NNP, \u2013
American, NNP, am
choreographer, NN, choreograph
who, WP, who
inspired, VBN, inspir
Baryshnikov, NNP, baryshnikov
and, CC, and
was, VBD, be
in, IN, in
turn, NN, turn
inspired, VBD, inspir
by, IN, by
him, PRP, him
after, IN, after
his, PRP$, his
dramatic, JJ, dram
defection, NN, defect
from, IN, from
Russia, NNP, russ
to, TO, to
the, DT, the
United, NNP, unit
in, IN, in
1974, CD, 1974
Baryshnikov, NNP, baryshnikov
has, VBZ, hav
been, VBN, be
the, DT, the
yardstick, NN, yardstick
against, IN, against
which, WDT, which
all, DT, all
other, JJ, oth
dancers, NNS, dant
are, VBP, be
measured, VBN, meas
Kirov, NNP, kirov
Mariinsky, NNP, mariinsky
St, NNP, st
to, TO, to
become, VB, becom
Russian, JJ, russ
ballet\u2019s, NNS, ballet\u2019s
third, JJ, third
great, JJ, gre
defector, NN, defect
Nureyev, NNP, nureyev
and, CC, and
Natalia, NNP, natal
in, IN, in
flight, NN, flight
from, IN, from
the, DT, the
creative, JJ, cre
strictures, NNS, stricture
of, IN, of
the, DT, the
Communist, NNP, commun
system, NN, system
George, NNP, georg
and, CC, and
Frederick, NNP, frederick
Paul, NNP, paul
Twyla, NNP, twyl
and, CC, and
Mark, NNP, mark
Russian, NNP, russ
type-casting, NNP, type-casting
that, IN, that
saw, NN, saw
him, PRP, him
\u2013, :, \u2013
Prince, NNP, print
Spoleto, NNP, spoleto
where, WRB, where
Related, JJ, rel
Articles, NNS, artic
The, DT, The
Bolshoi, NNP, bolsho
's, POS, 's
tipping, NN, tip
pointe, NN, point
08, CD, 08
Jul, NNP, jul
2013, CD, 2013
The, NNP, the
Old, NNP, old
Playhouse, NNP, playh
25, CD, 25
Aug, NNP, aug
2013, CD, 2013
'I, NNP, 'i
hate, NN, hat
authority, NN, auth
\u2013, :, \u2013
Old, NNP, old
Russian, NNP, russ
writer, NN, writ
Daniil, NNP, daniil
Stalin, NNP, stalin
in, IN, in
1941, CD, 1941
and, CC, and
died, VBD, die
in, IN, in
Communist, NNP, commun
state, NN, stat
Baryshnikov, NNP, baryshnikov
American, NNP, am
director, NN, direct
Robert, NNP, robert
Baryshnikov, NNP, baryshnikov
together, RB, togeth
with, IN, with
the, DT, the
actor, NN, act
Willem, NNP, willem
Baryshnikov, NNP, baryshnikov
Bob, NNP, bob
just, RB, just
cracks, VBZ, crack
the, DT, the
whip, NN, whip
and, CC, and
asks, VBZ, ask
Willem, NNP, willem
and, CC, and
me, PRP, me
to, TO, to
do, VB, do
things, NNS, thing
Baryshnikov, NNP, baryshnikov
may, MD, may
sound, VB, sound
as, IN, as
if, IN, if
he, PRP, he
is, VBZ, be
moaning, VBG, moan
Old, NNP, old
Manchester, NNP, manchest
next, JJ, next
month, NN, mon
before, IN, before
going, VBG, go
to, TO, to
Spoleto, NNP, spoleto
for, IN, for
the, DT, the
town\u2019s, JJ, town\u2019s
own, NN, own
famous, JJ, fam
festival, NN, fest
Russian, JJ, russ
Sergei, NNP, serge
Alexei, NNP, alexe
Bolshoi, NNP, bolsho
for, IN, for
New, NNP, new
in, IN, in
2009, CD, 2009
Ratmansky, NNP, ratmansky
took, VBD, tak
over, RP, over
that, IN, that
company, NN, company
Russia, NNP, russ
Baryshnikov, NNP, baryshnikov
Ratmansky, NNP, ratmansky
\u2013, :, \u2013
Russia, NNP, russ
never, RB, nev
had, VBD, hav
anybody, NN, anybody
better\u201d, -NONE-, better\u201d
\u2013, ., \u2013
Bolshoi, NNP, bolsho
Filin, NNP, filin
Baryshnikov, NNP, baryshnikov
is, VBZ, be
cautious, JJ, cauty
but, CC, but
clear, JJ, clear
Russia, NNP, russ
Baryshnikov, NNP, baryshnikov
has, VBZ, hav
been, VBN, be
the, DT, the
artistic, JJ, art
director, NN, direct
of, IN, of
the, DT, the
Baryshnikov, NNP, baryshnikov
in, IN, in
New, NNP, new
Russian, JJ, russ
culture, NN, cult
Russian, JJ, russ
theatre, NN, the
companies, NNS, company
US, NNP, us
Giselle, NNP, gisel
until, IN, until
America, NNP, americ
and, CC, and
Europe, NNP, europ
New, NNP, new
company, NN, company
Apollo, NNP, apollo
and, CC, and
The, DT, The
Prodigal, NNP, prodig
York, NNP, york
is, VBZ, be
still, RB, stil
much, JJ, much
more, JJR, mor
my, PRP$, my
home, NN, hom
than, IN, than
American, JJ, am
Theatre.\u201d, NNP, theatre.\u201d
Since, NNP, sint
he, PRP, he
ran, VBD, run
ABT, NNP, abt
from, IN, from
1980, CD, 1980
to, TO, to
1989, CD, 1989
that, IN, that
is, VBZ, be
quite, RB, quit
an, DT, an
admission, NN, admit
ABT, NNP, abt
was, VBD, be
followed, VBN, follow
by, IN, by
one, CD, one
of, IN, of
the, DT, the
most, RBS, most
productive, JJ, produc
\u2013, NN, \u2013
White, NNP, whit
Mark, NNP, mark
Wooden, NNP, wood
set, VBD, set
to, TO, to
music, JJ, mus
by, IN, by
Ivor, NNP, iv
America, NNP, americ
Baryshnikov, NNP, baryshnikov
Baryshnikov, NNP, baryshnikov
as, IN, as
\u201cthe, NNP, \u201cthe
Beethoven, NNP, beethov
of, IN, of
the, DT, the
body\u201d, JJ, body\u201d
Rudolf, NNP, rudolf
Marat, NNP, mar
Baryshnikov, NNP, baryshnikov
did, VBD, do
not, RB, not
like, IN, like
dancing, VBG, dant
in, IN, in
Nureyev\u2019s, JJ, nureyev\u2019s
productions, NNS, produc
of, IN, of
classics, NNS, class
such, JJ, such
as, IN, as
Raymonda, NNP, raymond
Natalia, NNP, natal
and, CC, and
Gelsey, NNP, gelsey
\u2013, NNP, \u2013
Baryshnikov, NNP, baryshnikov
Lisa, NNP, lis
Italian, JJ, it
square, NN, squ
Joseph, NNP, joseph
once, RB, ont
said, VBD, say
to, TO, to
him, PRP, him
Sarah, NNP, sarah
Parker\u2019s, NNP, parker\u2019s
Russian, NNP, russ
lover, NN, lov
in, IN, in
Sex, NNP, sex
and, CC, and
the, DT, the
City, NNP, city
Alexander, NNP, alexand
Petrovsky.\u201d, NNP, petrovsky.\u201d
But, CC, But
watching, VBG, watch
him, PRP, him
rehearse, RB, rehears
on, IN, on
stage, NN, stag
Brodsky, NNP, brodsky
had, VBD, hav
this, DT, this
favourite, NN, favourit
expression, NN, express
Good, NNP, good
Mikhail, NNP, mikhail
has, VBZ, hav
always, RB, alway
been, VBN, be
Old, NNP, old
Woman, NNP, wom
is, VBZ, be
at, IN, at
the, DT, the
Manchester, NNP, manchest
from, IN, from
July, NNP, july
4-6, CD, 4-6
Follow, NNP, follow
on, IN, on
Twitter, NNP, twit
\u00bb, NNP, \u00bb
Sarah, NNP, sarah
\u00bb, NNP, \u00bb
Pina, NNP, pin
Advertisement, NNP, advert
How, NNP, how
we, PRP, we
moderate, VBP, mod
Our, NNP, our
new, JJ, new
look, NN, look
telegraphuk, NN, telegraphuk
Please, NNP, pleas
enable, JJ, en
JavaScript, NNP, javascrib
to, TO, to
view, VB, view
the, DT, the
comments, NNS, com
powered, VBD, pow
by, IN, by
Disqus, NNP, disq
