Manage, NN, man
Account, NNP, account
Yahoo, NNP, yahoo
SEARCH, NN, search
Knoxville, NNP, knoxvil
Sentinel, NNP, sentinel
Today, NNP, today
Local, NNP, loc
Obituaries, NNPS, obitu
Community, NNP, commun
GoVolsXtra, NNP, govolsxtr
PrepXtra, NNP, prepxtr
Business, NNP, busy
Local, NNP, loc
business, NN, busy
Business, NNP, busy
of, IN, of
Lists, NNPS, list
Today, NNP, today
's, POS, 's
editorial, NN, edit
Entertainment, NNP, entertain
Events, NNP, ev
Movies, NNPS, movy
Music, NNP, mus
Celebrities, NNPS, celebr
Visitor, NNP, visit
's, POS, 's
Guide, NNP, guid
Values, NNP, valu
Garden, NNP, gard
Style, NNP, styl
Galleries, NNPS, gallery
Videos, NNP, video
im.knoxnews.com, NNP, im.knoxnews.com
Jobs, NNP, job
Homes, NNP, hom
Cars, NNP, car
knoxnews.com, NNP, knoxnews.com
blogs, NNS, blog
\u00bb, :, \u00bb
Frank, NNP, frank
's, POS, 's
Atomic, NNP, atom
ORNL, NNP, ornl
Plummer, NNP, plum
's, POS, 's
Oak, NNP, oak
research, NN, research
takes, VBZ, tak
place, NN, plac
at, IN, at
the, DT, the
Center, NNP, cent
for, IN, for
Nanophase, NNP, nanophas
Linda, NNP, lind
Plummer, NNP, plum
would, MD, would
continue, VB, continu
to, TO, to
have, VB, hav
an, DT, an
office, NN, off
at, IN, at
CNMS, NNP, cnms
and, CC, and
be, VB, be
Ward, NNP, ward
Ward, NNP, ward
is, VBZ, be
very, RB, very
unhappy, JJ, unhappy
DOE, NNP, doe
is, VBZ, be
going, VBG, go
with, IN, with
use-inspired, JJ, use-inspired
research, NN, research
since, IN, since
he, PRP, he
is, VBZ, be
very, RB, very
focused, VBN, foc
on, IN, on
discovery, NN, discovery
Horton, NNP, horton
said, VBD, say
she, PRP, she
had, VBD, hav
already, RB, already
talked, VBN, talk
with, IN, with
Plummer, NNP, plum
about, IN, about
serving, VBG, serv
as, IN, as
CNMS, NNP, cnms
and, CC, and
providing, VBG, provid
guidance, NN, guid
Ward, NNP, ward
and, CC, and
his, PRP$, his
science, NN, sci
Michelle, NNP, michel
Horton, NNP, horton
both, DT, both
said, VBD, say
they, PRP, they
did, VBD, do
n't, RB, n't
think, VB, think
the, DT, the
decision, NN, decid
to, TO, to
end, VB, end
Plummer, NNP, plum
's, POS, 's
contract, NN, contract
would, MD, would
affect, VB, affect
the, DT, the
UT-ORNL, JJ, ut-ornl
Science, NN, sci
Alliance, NNP, al
and, CC, and
the, DT, the
Distinguished, NNP, distinct
Buchanan, NNP, buch
said, VBD, say
Jim, NNP, jim
Roberto, NNP, roberto
ORNL, NNP, ornl
's, POS, 's
deputy, NN, deputy
lab, NN, lab
director, NN, direct
for, IN, for
science, NN, sci
and, CC, and
technology, NN, technolog
Plummer, NNP, plum
situation, NN, situ
Roberto, NNP, roberto
then, RB, then
loosened, VBD, loos
up, RP, up
Plummer, NNP, plum
situation, NN, situ
would, MD, would
have, VB, hav
Roberto, NNP, roberto
said, VBD, say
situations, NNS, situ
evolve, VBP, evolv
sometimes, RB, sometim
where, WRB, where
Plummer, NNP, plum
said, VBD, say
he, PRP, he
learned, VBD, learn
of, IN, of
the, DT, the
situation, NN, situ
when, WRB, when
Roberto, NNP, roberto
invited, VBD, invit
him, PRP, him
to, TO, to
his, PRP$, his
office, NN, off
for, IN, for
Ward, NNP, ward
is, VBZ, be
happy, JJ, happy
with, IN, with
this, DT, this
arrangement, NN, arrang
Roberto, NNP, roberto
said, VBD, say
he, PRP, he
'd, MD, 'd
been, VB, be
told, VBN, tel
by, IN, by
UT, NNP, ut
officials, NNS, off
they, PRP, they
they, PRP, they
intended, VBD, intend
to, TO, to
pick, VB, pick
up, RP, up
the, DT, the
full, JJ, ful
cost, NN, cost
of, IN, of
Plummer, NNP, plum
's, POS, 's
salary, NN, sal
and, CC, and
benefits, NNS, benefit
under, IN, under
the, DT, the
Distinguished, NNP, distinct
UT, NNP, ut
's, POS, 's
Tom, NNP, tom
confirmed, VBD, confirm
that, IN, that
Plummer, NNP, plum
said, VBD, say
this, DT, this
morning, NN, morn
he, PRP, he
had, VBD, hav
not, RB, not
been, VBN, be
told, VBN, tel
that, IN, that
officially, RB, off
and, CC, and
said, VBD, say
he, PRP, he
potentially, RB, pot
stood, VBD, stand
to, TO, to
lose, VB, los
money, NN, money
in, IN, in
the, DT, the
transition, NN, transit
DOE, NNP, doe
lab, NN, lab
in, IN, in
Oak, NNP, oak
Ridge, NNP, ridg
is, VBZ, be
heading, VBG, head
towards, NNS, toward
Plummer, NNP, plum
said, VBD, say
in, IN, in
some, DT, some
ways, NNS, way
it, PRP, it
may, MD, may
become, VB, becom
easier, JJR, easy
for, IN, for
him, PRP, him
to, TO, to
use, VB, us
the, DT, the
Oak, NNP, oak
research, NN, research
facilities, NNS, facil
as, IN, as
an, DT, an
outside, JJ, outsid
user, NN, us
ORNL, NNP, ornl
piece, NN, piec
of, IN, of
his, PRP$, his
joint, JJ, joint
appointment, NN, appoint
will, MD, will
send, VB, send
Distinguished, NNP, distinct
or, CC, or
Governor, NNP, govern
's, POS, 's
Chair, NNP, chair
when, WRB, when
the, DT, the
piece, NN, piec
of, IN, of
paper, NN, pap
is, VBZ, be
n't, RB, n't
worth, JJ, wor
the, DT, the
paper, NN, pap
it, PRP, it
's, VBZ, 's
written, VBN, writ
on, IN, on
Plummer, NNP, plum
said, VBD, say
Oak, NNP, oak
can, MD, can
just, RB, just
ignore, VB, ign
it, PRP, it
ORNL, NNP, ornl
continues, NNS, continu
to, TO, to
rise, VB, ris
ORNL, NNP, ornl
may, MD, may
now, RB, now
be, VB, be
more, RBR, mor
expensive, JJ, expend
to, TO, to
do, VB, do
work, NN, work
than, IN, than
Los, NNP, los
Posted, NNP, post
by, IN, by
Frank, NNP, frank
on, IN, on
June, NNP, jun
Email, NNP, email
Senior, NNP, seny
covers, VBZ, cov
the, DT, the
Dept, NNP, dept
Energy, NNP, energy
's, POS, 's
Oak, NNP, oak
Ridge, NNP, ridg
facilities, NNS, facil
and, CC, and
many, JJ, many
related, JJ, rel
topics, NNS, top
\u2014, :, \u2014
Atomic, JJ, atom
City, NNP, city
is, VBZ, be
Contact, NN, contact
Frank, NNP, frank
Categories, NNPS, categ
recent, JJ, rec
entries, NNS, entry
Oak, NNP, oak
per, IN, per
diem, NN, diem
to, TO, to
stick, VB, stick
at, IN, at
Poneman, NNP, ponem
Mason, NNP, mason
speaks, VBZ, speak
at, IN, at
energy, NN, energy
gathering, VBG, gath
KC, NNP, kc
Chu, NNP, chu
's, POS, 's
speech, NN, speech
in, IN, in
Vienna, NNP, vienn
Chu, NNP, chu
Poneman, NNP, ponem
IAEA, NNP, iae
Linton, NNP, linton
remembers, NNS, rememb
the, DT, the
summer, NN, sum
of, IN, of
1991, CD, 1991
Oak, NNP, oak
security, NN, sec
officer, NN, off
struck, NN, struck
by, IN, by
bullet, NN, bullet
fragments, NNS, frag
when, WRB, when
Gatling, NNP, gatl
gun, NN, gun
malfunctions, NNS, malfunct
ORAU, NNP, orau
ORNL, NNP, ornl
Scripps, NNP, scripps
\u00a9, NNP, \u00a9
