EA4A12, NNP, ea4a12
Houston, NNP, houston
Houston, NNP, houston
Chron.com, NNP, chron.com
Web, NNP, web
Search, NNP, search
by, IN, by
YAHOO, NNP, yahoo
Local, JJ, loc
Directory, NNP, direct
In, NNP, in
Local, NNP, loc
Neighborhoods, NNP, neighb
Houston, NNP, houston
Texas, NNP, texa
Policy, NNP, policy
Obituaries, NNPS, obitu
Staff, NNP, staff
Blogs, NNP, blog
Editorials, NNP, edit
Top, NNP, top
in, IN, in
Local, NNP, loc
someone, NN, someon
die, VB, die
in, IN, in
your, PRP$, your
house, NN, hous
Honk, NNP, honk
if, IN, if
you, PRP, you
like, VBP, lik
this, DT, this
protest, NN, protest
Houston, NNP, houston
's, POS, 's
worst, JJS, bad
commutes, NNS, commut
Neighborhoods, NNS, neighb
Bay, NNP, bay
Cy-Fair, NNP, cy-fair
Fort, NNP, fort
Bend, NNP, bend
Heights, NNP, height
Katy, NNP, katy
Kingwood, NNP, kingwood
Memorial, NNP, mem
Pearland, NNP, pearland
Spring, NNP, spring
The, NNP, the
Woodlands, NNP, woodland
's, POS, 's
Weather, NNP, weath
Policy, NNP, policy
Editorials, NNP, edit
Letters, NNP, let
to, TO, to
the, DT, the
Editor, NNP, edit
Bill, NNP, bil
Recommendations, NNP, recommend
2013, CD, 2013
US, NNP, us
Americas, NNP, america
Weird, NNP, weird
This, NNP, thi
sea, NN, sea
monster, NN, monst
is, VBZ, be
just, RB, just
Top, NNP, top
in, IN, in
US, NNP, us
Colorado, NNP, colorado
theater, NN, the
shooting, VBG, shoot
More, JJR, mor
patrols, NNS, patrol
on, IN, on
watch, NN, watch
at, IN, at
LAX, NNP, lax
after, IN, after
dry, JJ, dry
ice, NN, ic
blasts, NNS, blast
UT, NNP, ut
grants, NNS, grant
Jimmy, NNP, jimmy
top, JJ, top
alumni, NN, alumn
award, NN, award
amid, IN, amid
probe, NN, prob
Sports, NNS, sport
In, IN, In
Sports, NNS, sport
school, NN, school
Colleges, NNS, colleg
UH, NNP, uh
UT, NNP, ut
Tickets, NNPS, ticket
John, NNP, john
McClain\u2019s, NNP, mcclain\u2019s
Week, NNP, week
Top, NNP, top
in, IN, in
Sports, NNP, sport
NBA, NNP, nba
owner, NN, own
challenges, NNS, challeng
Michael, NNP, michael
to, TO, to
game, VB, gam
of, IN, of
1-on-1, CD, 1-on-1
Texans, NNS, tex
place, NN, plac
two, CD, two
defensive, JJ, defend
playe, NN, play
