ChowMathematics, NNP, chowmathem
professorWei-Liang, NNP, professorwei-liang
Chow, NNP, chow
Johns, NNP, john
mathematics, NN, mathem
professor, NN, profess
Parkville, NNP, parkvil
after, IN, after
several, JJ, sev
strokes, NNS, stroke
Shanghai, NNP, shangha
China, NNP, chin
United, NNP, unit
when, WRB, when
he, PRP, he
was, VBD, be
16, CD, 16
to, TO, to
study, NN, study
at, IN, at
several, JJ, sev
colleges, NNS, colleg
University, NNP, univers
of, IN, of
Chicago, NNP, chicago
where, WRB, where
he, PRP, he
received, VBD, receiv
bachelor, NN, bachel
's, POS, 's
and, CC, and
master, NN, mast
's, POS, 's
degrees, NNS, degr
University, NNP, univers
of, IN, of
Leipzig, NNP, leipzig
Germany, NNP, germany
China, NNP, chin
United, NNP, unit
with, IN, with
his, PRP$, his
wife, NN, wif
Margot, NNP, margot
Hopkins, NNP, hopkin
in, IN, in
the, DT, the
late, JJ, lat
1940s, CD, 1940s
Mathematics, NNP, mathem
for, IN, for
10, CD, 10
years, NNS, year
and, CC, and
retired, VBD, retir
in, IN, in
1975.An, CD, 1975.An
avid, JJ, avid
stamp, NN, stamp
collector, NN, collect
Shanghai, NNP, shangha
stamps.In, NNP, stamps.in
addition, NN, addit
to, TO, to
his, PRP$, his
wife, NN, wif
of, IN, of
59, CD, 59
years, NNS, year
Marian, NNP, mar
of, IN, of
Kingsville, NNP, kingsvil
Margaret, NNP, margaret
of, IN, of
New, NNP, new
and, CC, and
Barbara, NNP, barbar
of, IN, of
Wayne, NNP, wayn
Pa., NNP, pa.
China, NNP, chin
Jean, NNP, jean
Baltimore, NNP, baltim
and, CC, and
Washington, NNP, washington
Bethesda, NNP, bethesd
Gibson, NNP, gibson
Island.Born, NNP, island.born
in, IN, in
Rochester, NNP, rochest
N.Y., NNP, n.y.
Parker, NNP, park
worked, VBD, work
during, IN, during
the, DT, the
1930s, CD, 1930s
as, IN, as
Enoch, NNP, enoch
Library, NNP, libr
in, IN, in
Baltimore, NNP, baltim
and, CC, and
at, IN, at
the, DT, the
National, NNP, nat
in, IN, in
Washington, NNP, washington
James, NNP, jam
National, NNP, nat
of, IN, of
the, DT, the
Colonial, NNP, colon
Dames.A, NNP, dames.a
memorial, JJ, mem
service, NN, serv
was, VBD, be
to, TO, to
be, VB, be
held, VBN, hold
at, IN, at
2:30, CD, 2:30
p.m., NNP, p.m.
today, NN, today
at, IN, at
St., NNP, st.
's, POS, 's
by-the-Sea, NNP, by-the-sea
on, IN, on
Gibson, NNP, gibson
Island.She, NNP, island.she
is, VBZ, be
survived, VBN, surv
by, IN, by
Jonathan, NNP, jonath
of, IN, of
Chevy, NNP, chevy
Cynthia, NNP, cynth
and, CC, and
Jean, NNP, jean
New, NNP, new
Featured, NNP, feat
ArticlesJoe, NNP, articlesjo
's, POS, 's
amazing, NN, amaz
wedding, NN, wed
photos, NNS, photo
are, VBP, be
out, IN, out
on, IN, on
the, DT, the
InternetHit, NNP, internethit
on, IN, on
Packers, NNP, pack
Randall, NNP, randal
sparks, VBZ, spark
conversation, NN, convers
on, IN, on
narrowing, NN, narrow
targets, NNS, target
for, IN, for
defensive, JJ, defend
players'The, JJ, players'the
Walking, NNP, walk
Dead, NNP, dead
Air, NNP, air
coach, NN, coach
Seremet, NNP, seremet
's, POS, 's
wife, NN, wif
killed, VBD, kil
in, IN, in
car, NN, car
accidentWoman, NN, accidentwom
guilty, NN, guil
of, IN, of
'96, NNP, '96
murderRay, NNP, murderray
Rice, NNP, ric
designs, VBZ, design
T-shirts, NNS, t-shirts
for, IN, for
anti-bullying, JJ, anti-bullying
campaignWinning, NN, campaignwin
MarylandSilk, NNP, marylandsilk
arrest, NN, arrest
exposes, NNS, expos
InternetHere, NNP, interneth
's, POS, 's
some, DT, some
actual, JJ, act
reporting, NN, report
Cards, NNS, card
Related, NNP, rel
William, NNP, william
Sr., NNP, sr.
Gene, NNP, gen
..., :, ...
April, NNP, april
15, CD, 15
Johnson, NNP, johnson
lastAugust, NNP, lastaugust
20, CD, 20
ServicePlease, NNP, servicepleas
note, NN, not
the, DT, the
green-lined, JJ, green-lined
linked, VBN, link
article, NN, artic
text, NN, text
has, VBZ, hav
been, VBN, be
applied, VBN, apply
commercially, RB, commerc
without, IN, without
any, DT, any
involvement, NN, involv
from, IN, from
our, PRP$, our
newsroom, NN, newsroom
editors, NNS, edit
