Bernoulli, NNP, bernoull
and, CC, and
the, DT, the
Foundations, NNPS, found
of, IN, of
Statistics, NNP, stat
Author, NNP, auth
Julian, JJ, jul
is, VBZ, be
not, RB, not
Out, NNP, out
From, NNP, from
the, DT, the
Evidence.\u2019, NNP, evidence.\u2019
But, CC, But
it, PRP, it
is, VBZ, be
worth, JJ, wor
statisticians, NNS, stat
celebrating, VBG, celebr
it, PRP, it
Jacob, NNP, jacob
Bernouilli, NNP, bernouill
was, VBD, be
one, CD, one
of, IN, of
Bernoullis, NNP, bernoul
Daniel, NNP, daniel
Jacob, NNP, jacob
Bernoulli, NNP, bernoull
Johann, NNP, johan
made, VBD, mak
important, JJ, import
advances, NNS, adv
in, IN, in
mathematical, JJ, mathem
calculus, NN, calcul
Johann, NNP, johan
fell, VBD, fel
out, RP, out
with, IN, with
his, PRP$, his
fluid-dynamics, NNS, fluid-dynamics
son, NN, son
Daniel, NNP, daniel
Bernoulli, NNP, bernoull
is, VBZ, be
Jacob, NNP, jacob
Bernoulli, NNP, bernoull
numbers, NNS, numb
Bernoulli, NNP, bernoull
put, VBD, put
it, PRP, it
Title, NNP, titl
page, NN, pag
Courtesy, NNP, courtesy
Gonville, NNP, gonvil
and, CC, and
Caius, NNP, cai
Cambridge, NNP, cambridg
Bernoulli, NNP, bernoull
showed, VBD, show
it, PRP, it
was, VBD, be
more, JJR, mor
than, IN, than
Golden, NNP, gold
Theorem, NNP, theorem
as, IN, as
it, PRP, it
was, VBD, be
the, DT, the
crown, NN, crown
of, IN, of
his, PRP$, his
life\u2019s, JJ, life\u2019s
work, NN, work
Ars, NNP, ar
in, IN, in
our, PRP$, our
June, NNP, jun
issue, NN, issu
Jacob, NNP, jacob
got, VBD, get
wrong, JJ, wrong
Professor, NNP, profess
Problem, NNP, problem
in, IN, in
Part, NNP, part
III, NNP, ii
of, IN, of
Bernoulli\u2019s, NNP, bernoulli\u2019s
book, NN, book
Bernoulli, NNP, bernoull
Bernoulli, NNP, bernoull
's, POS, 's
Ars, NNP, ar
In, NNP, in
Bernoulli, NNP, bernoull
gives, VBZ, giv
\u2013, :, \u2013
Bernoulli, NNP, bernoull
gives, VBZ, giv
in, IN, in
the, DT, the
book, NN, book
is, VBZ, be
Comment, NNP, com
on, IN, on
this, DT, this
article, NN, artic
Submit, NNP, submit
your, PRP$, your
comment, NN, com
Name, NNP, nam
Unique, NNP, un
digits, VBZ, digit
Simon, NNP, simon
sure, NN, sur
how, WRB, how
old, JJ, old
this, DT, this
is, VBZ, be
but, CC, but
my, PRP$, my
results, NNS, result
concur, VBP, cont
with, IN, with
James, NNP, jam
Bernoulli, NNP, bernoull
's, POS, 's
result, NN, result
still, RB, stil
stands, VBZ, stand
Someone, NN, someon
also, RB, also
mentioned, VBD, ment
about, IN, about
order, NN, ord
for, IN, for
this, DT, this
problem, NN, problem
Bernoulli, NNP, bernoull
has, VBZ, hav
done, VBN, do
Hope, NNP, hop
that, IN, that
did, VBD, do
n't, RB, n't
come, VBN, com
across, IN, across
as, IN, as
too, RB, too
teacherish, JJ, teach
Karl, NNP, karl
the, DT, the
shape, NN, shap
of, IN, of
the, DT, the
roulette, NN, roulet
wheel, NN, wheel
matter, NN, mat
at, IN, at
all, DT, all
in, IN, in
the, DT, the
calculations, NNS, calc
Bernoulli, NNP, bernoull
made, VBD, mak
would, MD, would
assume, VB, assum
that, IN, that
each, DT, each
of, IN, of
the, DT, the
32, CD, 32
slots, NNS, slot
are, VBP, be
unique, JJ, un
and, CC, and
that, IN, that
the, DT, the
roulette, NN, roulet
wheel, NN, wheel
would, MD, would
not, RB, not
rotate, VB, rot
Bernoulli, NNP, bernoull
counts, VBZ, count
that, IN, that
there, EX, there
are, VBP, be
16, CD, 16
ways, NNS, way
to, TO, to
sum, VB, sum
up, RP, up
to, TO, to
five, CD, five
Karl, NNP, karl
Karl, NNP, karl
looks, VBZ, look
like, IN, like
to, TO, to
me, PRP, me
that, IN, that
Bernoulli, NNP, bernoull
incorrectly, RB, incorrect
calculated, VBN, calc
the, DT, the
frequencies, NNS, frequ
of, IN, of
each, DT, each
sum, NN, sum
Bernoulli, NNP, bernoull
's, POS, 's
calculation, NN, calc
of, IN, of
the, DT, the
expected, VBN, expect
value, NN, valu
is, VBZ, be
correct, JJ, correct
James, NNP, jam
At, NNP, at
the, DT, the
end, NN, end
of, IN, of
the, DT, the
June, NNP, jun
10, CD, 10
web, NN, web
item, NN, item
entitled, VBD, entitl
'Can, JJ, 'can
you, PRP, you
correct, VBP, correct
Bernoulli, NNP, bernoull
Edwards, NNP, edward
Edwards, NNPS, edward
had, VBD, hav
disagreed, VBN, disagr
with, IN, with
Bernoulli, NNP, bernoull
not, RB, not
on, IN, on
his, PRP$, his
arithmetic, JJ, arithmet
Bernoulli, NNP, bernoull
Significance, NNP, sign
site, NN, sit
Bernoulli, NNP, bernoull
's, POS, 's
29, CD, 29
winning, NN, win
amounts, NNS, amount
and, CC, and
29, CD, 29
corresponding, VBG, correspond
frequencies, NNS, frequ
Google, NNP, googl
digitization, NN, digit
Bernoulli, NNP, bernoull
described, VBD, describ
this, DT, this
source, NN, sourc
table, NN, tabl
Latin, NNP, latin
Sylla, NNP, syll
and, CC, and
then, RB, then
happened, VBD, hap
upon, IN, upon
Edwards, NNP, edward
Bernoulli, NNP, bernoull
's, POS, 's
arithmetic, JJ, arithmet
only, RB, on
to, TO, to
disagree, VB, disagr
with, IN, with
his, PRP$, his
answer, NN, answ
'', '', ''
Bernoulli, NNP, bernoull
had, VBD, hav
calculated, VBN, calc
Edwards, NNS, edward
made, VBD, mak
the, DT, the
slip, NN, slip
at, IN, at
the, DT, the
step, NN, step
where, WRB, where
the, DT, the
winning, JJ, win
amount, NN, amount
of, IN, of
Edwards, NNS, edward
has, VBZ, hav
since, IN, since
told, NN, told
me, PRP, me
that, IN, that
he, PRP, he
expects, VBZ, expect
that, IN, that
when, WRB, when
he, PRP, he
gets, VBZ, get
Bernoulli, NNP, bernoull
told, VBD, tel
us, PRP, us
to, TO, to
'', '', ''
multiply, RB, multiply
Bernoulli, NNP, bernoull
's, POS, 's
arithmetic, JJ, arithmet
Edwards, NNP, edward
Bernoulli, NNP, bernoull
's, POS, 's
expectation, NN, expect
contains, VBZ, contain
an, DT, an
error, NN, er
that, IN, that
went, NN, went
unnoticed, VBD, unnot
for, IN, for
300, CD, 300
years, NNS, year
Editor, NNP, edit
was, VBD, be
not, RB, not
quite, RB, quit
as, IN, as
sure, JJ, sur
as, IN, as
his, PRP$, his
headline, NN, headlin
suggested, VBD, suggest
Professor, NNP, profess
for, IN, for
taking, VBG, tak
us, PRP, us
on, IN, on
this, DT, this
trip, NN, trip
back, RB, back
in, IN, in
time, NN, tim
Editor, NNP, edit
this, DT, this
simple, NN, simpl
exercise, NN, exerc
in, IN, in
schoolboy, NN, schoolboy
probability, NN, prob
Bernoulli, NNP, bernoull
's, POS, 's
Bernoulli, NNP, bernoull
's, POS, 's
calculation, NN, calc
Hugh, NNP, hugh
answer, NN, answ
is, VBZ, be
5+428/3596=5.1190, CD, 5+428/3596=5.1190
reply, RB, reply
to, TO, to
this, DT, this
comment, NN, com
Gary, NNP, gary
is, VBZ, be
correct, JJ, correct
Mark, NNP, mark
numbers, NNS, numb
in, IN, in
Bernoulli, NNP, bernoull
's, POS, 's
table, JJ, tabl
are, VBP, be
all, DT, all
correct, JJ, correct
Graham, NNP, graham
Bernoulli, NNP, bernoull
's, POS, 's
table, JJ, tabl
Will, NNP, wil
have, VBP, hav
another, DT, another
go, NN, go
at, IN, at
this, DT, this
Site, NNP, sit
to, TO, to
Main, NNP, main
Navigation, NNP, navig
Browse, NNP, brows
Nature, NNP, nat
Economy, NNP, econom
Drink, NNP, drink
Medicine, NNP, medicin
Technology, NNP, technolog
of, IN, of
Science, NNP, sci
Statistics, NNP, stat
to, TO, to
you, PRP, you
by, IN, by
American, NNP, am
back, RB, back
to, TO, to
Significance, NNP, sign
Statistics, NNP, stat
making, NN, mak
sense, NN, sens
Home, NN, hom
to, TO, to
Content, NNP, cont
Site, NNP, sit
Site, NNP, sit
Footer, NNP, foot
by, IN, by
Blackwell, NNP, blackwel
John, NNP, john
Sons, NNP, son
Conditions, NNP, condit
