HomeMoviesTVComic, NNP, homemoviestvcom
BooksVideo, NNP, booksvideo
GamesBooksScience, NNP, gamesbooksscy
TechAboutContact, NNP, techaboutcontact
\u2018Doctor, NNP, \u2018doctor
Who\u2019, NNP, who\u2019
in, IN, in
Real, NNP, real
Life, NNP, lif
Ninth, NNP, nin
David, NNP, david
BohmPosted, NNP, bohmpost
Monday, NNP, monday
GMT, NNP, gmt
-4, -NONE-, -4
by, IN, by
Alison, NNP, alison
``, ``, ``
Doctor, NNP, doct
exists, VBZ, ex
and, CC, and
walks, NNS, walk
among, IN, among
us, PRP, us
Doctor, NNP, doct
is, VBZ, be
Eighth, NNP, eigh
was, VBD, be
in, IN, in
real, JJ, real
life, NN, lif
Well, NNP, wel
David, NNP, david
all, DT, all
the, DT, the
Doctors, NNP, doct
American, JJ, am
culture, NN, cult
recognizes, VBZ, recogn
seem, NN, seem
to, TO, to
be, VB, be
cut, VBN, cut
of, IN, of
one, CD, one
specific, JJ, spec
cultural, JJ, cult
Therefore, NNP, theref
Doctor, NNP, doct
was, VBD, be
difficult.And, JJ, difficult.and
so, RB, so
it, PRP, it
was, VBD, be
that, IN, that
David, NNP, david
David, NNP, david
was, VBD, be
the, DT, the
protege, NN, proteg
of, IN, of
Albert, NNP, albert
freaking, NN, freak
Einstien, NNP, einsty
Ninth, NNP, nin
Doctor.So, NNP, doctor.so
NUWho, NNP, nuwho
as, IN, as
being, VBG, be
Classic, NNP, class
David, NNP, david
to, TO, to
be, VB, be
Doctor, NNP, doct
was, VBD, be
also, RB, also
considered, VBN, consid
somewhat, RB, somewh
unorthodox, JJ, unorthodox
Doctor, NNP, doct
to, TO, to
not, RB, not
have, VB, hav
Ninth, NNP, nin
Doctor, NNP, doct
truly, RB, tru
followed, VBD, follow
in, IN, in
the, DT, the
footsteps, NNS, footstep
of, IN, of
\u2018Doctor, NN, \u2018doctor
Who\u2019, NN, who\u2019
or, CC, or
not, RB, not
Rose, NNP, ros
and, CC, and
her, PRP$, her
background, NN, background
are, VBP, be
true, JJ, tru
to, TO, to
former, JJ, form
conceptions, NNS, conceiv
of, IN, of
companions.In, JJ, companions.in
any, DT, any
case, NN, cas
Bohm, NNP, bohm
lead, NN, lead
an, DT, an
interesting, JJ, interest
life, NN, lif
WWII, NNP, wwi
Project, NNP, project
despite, IN, despite
Oppenheimer\u2019s, NNP, oppenheimer\u2019s
expressed, VBD, express
desire, NN, desir
Albert, NNP, albert
Bohm, NNP, bohm
became, VBD, becom
McCarthyism, NNP, mccarthyism
Brazil, NNP, brazil
Doctor, NNP, doct
David, NNP, david
with, IN, with
one, CD, one
of, IN, of
his, PRP$, his
most, RBS, most
Doctor-like, JJ, doctor-like
traits, NNS, trait
Bohm, NNP, bohm
David, NNP, david
is, VBZ, be
an, DT, an
interesting, JJ, interest
character, NN, charact
Related, JJ, rel
Posts, NNS, post
Porn, NNP, porn
TrailerJessica, NNP, trailerjessic
Looking, NNP, look
To, NNP, to
Exit, NNP, exit
\u2018American, NNP, \u2018american
Horror, NNP, hor
Story\u2019, NNP, story\u2019
And, CC, And
Acting, NNP, act
In, NNP, in
GeneralGeorge, NNP, generalgeorg
R.R, NNP, r.r
Martin, NNP, martin
Teases, NNP, teas
\u201cPurple, NNP, \u201cpurple
Wedding\u201d, NNP, wedding\u201d
In, NNP, in
\u2018Game, NNP, \u2018game
of, IN, of
Thrones\u2019, NNP, thrones\u2019
Season, NNP, season
4\u2018Pacific, NNP, 4\u2018pacific
Rim\u2019, NNP, rim\u2019
Grossed, NNP, gross
More, NNP, mor
Than, NNP, than
Any, NNP, any
Other, NNP, oth
Original, NNP, origin
Live-Action, NNP, live-action
Film, NNP, film
This, NNP, thi
Year, NNP, year
So, NNP, so
FarThe, NNP, farth
of, IN, of
\u2018Pacific, NNP, \u2018pacific
Rim\u2019s, NNP, rim\u2019s
Box, NNP, box
Office, NNP, off
PerformanceThe, NNP, performanceth
Deeper, NNP, deep
of, IN, of
\u2018Pacific, NNP, \u2018pacific
Rim\u2019s, NNP, rim\u2019s
Box, NNP, box
Office, NNP, off
PerformanceHungry, NNP, performancehungry
For, NNP, for
\u2018Game, NNP, \u2018game
Of, NNP, of
Thrones\u2019, NNP, thrones\u2019
Season, NNP, season
Khaleesi, NNP, khalees
Your, NNP, yo
Appetite\u2018Dexter\u2019, NNP, appetite\u2018dexter\u2019
Is, NNP, is
Over, NNP, ov
And, CC, And
The, DT, The
Current, NNP, cur
Showrunnners, NNP, showrunn
Talk, NNP, talk
About, NNP, about
Its, NNP, it
FinaleJessica, NNP, finalejessic
Lange, NNP, lang
\u2018American, NNP, \u2018american
Horror, NNP, hor
Story\u2019, NNP, story\u2019
And, CC, And
Acting, NNP, act
In, NNP, in
GeneralJoseph, NNP, generaljoseph
Gordon-Levitt, NNP, gordon-levitt
As, NNP, as
Quill, NNP, quil
\u2018Guardians, NNP, \u2018guardians
Of, NNP, of
The, NNP, the
Galaxy\u2019, NNP, galaxy\u2019
Boom, NNP, boom
Thrones, NNP, thrones
was, VBD, be
already, RB, already
Queens, NNS, queen
Kings, NNP, king
Allan, NNP, al
said, VBD, say
BBC, NNP, bbc
through, IN, through
the, DT, the
licence, NN, lic
fee, NN, fee
Comic, NNP, com
however, RB, howev
at, IN, at
the, DT, the
time, NN, tim
True, NNP, tru
BBC, NNP, bbc
is, VBZ, be
Copyright, NNP, copyright
\u00a92013, NNP, \u00a92013
Science, NNP, sci
Fiction, NNP, fict
ReservedWebsite, NNP, reservedwebsit
Design, NNP, design
and, CC, and
Hosting, NNP, host
by, IN, by
iDevGuy, NNP, idevguy
LLC, NNP, llc
