Asia, NNP, as
Europe, NNP, europ
World, NNP, world
World, NNP, world
Business, NNP, busy
Technology, NNP, technolog
Entertainment, NNP, entertain
World, NNP, world
Sport, NNP, sport
Travel, NNP, travel
TV, NNP, tv
Video, NNP, video
iReport, NNP, ireport
CNN, NNP, cnn
Mobile, NNP, mobl
More, NNP, mor
in, IN, in
World, NNP, world
Sport, NNP, sport
\u00bb, NNP, \u00bb
U.S., NNP, u.s.
Arabic, NNP, arab
Set, NNP, set
/*, NNP, /*
SELF-CONTAINED, NNP, self-contained
CSS, NNP, css
SNIPPET, NNP, snippet
INTENDED, NNP, intend
TO, NNP, to
ALLOW, NNP, allow
OLDER, NNP, old
PAGES, NNP, pag
TO, NNP, to
USE, NNP, us
THE, NNP, the
3.0, CD, 3.0
BREAKING, NNP, break
NEWS, NNP, new
BANNER, NNP, ban
*/, NNP, */
.cnn_dynone, NNP, .cnn_dynone
cnn_bnbcntr, NNP, cnn_bnbcntr
cnn_bnblft, NNP, cnn_bnblft
cnn_bnbrgt1, NNP, cnn_bnbrgt1
cnn_bnbrgt1, NNP, cnn_bnbrgt1
div, NN, div
cnn_bnbrgt3, NNP, cnn_bnbrgt3
ca0002, NNP, ca0002
cnn_bnbrgt2, NNP, cnn_bnbrgt2
cnn_bnbrgt4, NNP, cnn_bnbrgt4
