Christopher, NNP, christopher
From, NNP, from
Wikipedia, NNP, wikiped
Jump, NNP, jump
to, TO, to
Americas, NNP, america
'', '', ''
and, CC, and
``, ``, ``
America, NNP, americ
'', '', ''
redirect, NN, redirect
here, RB, her
Discovery, NNP, discovery
of, IN, of
the, DT, the
Americas, NNP, america
Christopher, NNP, christopher
of, IN, of
Columbus, NNP, columb
Between, NNP, between
1492, CD, 1492
and, CC, and
1500, CD, 1500
Location, NNP, loc
Americas, NNP, america
Participants, NNP, particip
Christopher, NNP, christopher
Columbus, NNP, columb
and, CC, and
castilian, JJ, castil
crew, NN, crew
Outcome, NNP, outcom
exploration, NN, expl
of, IN, of
the, DT, the
Americas, NNP, america
In, NNP, in
the, DT, the
early, JJ, ear
modern, NN, modern
period, NN, period
Columbus, NNP, columb
initiated, VBD, in
European, NNP, europ
exploration, NN, expl
and, CC, and
colonization, NN, colon
of, IN, of
the, DT, the
American, NNP, am
continents, NNS, contin
Christopher, NNP, christopher
Columbus, NNP, columb
was, VBD, be
Castile, NNP, castil
Spain, NNP, spain
Americas, NNP, america
Discovery, NNP, discovery
of, IN, of
America, NNP, americ
from, IN, from
European, JJ, europ
point, NN, point
of, IN, of
view, NN, view
America, NNP, americ
has, VBZ, hav
variously, RB, vary
been, VBN, be
attributed, VBN, attribut
to, TO, to
others, NNS, oth
Asians, NNP, as
migrated, VBD, migr
across, IN, across
the, DT, the
Bering, NNP, ber
to, TO, to
North, NNP, nor
between, IN, between
12,000, CD, 12,000
and, CC, and
42,000, CD, 42,000
years, NNS, year
ago, RB, ago
and, CC, and
the, DT, the
Vikings, NNP, vik
Newfoundland, NNP, newfoundland
Columbus, NNP, columb
was, VBD, be
not, RB, not
the, DT, the
first, JJ, first
European, JJ, europ
to, TO, to
voyage, NN, voy
to, TO, to
the, DT, the
New, NNP, new
and, CC, and
did, VBD, do
not, RB, not
actually, RB, act
reach, VBP, reach
the, DT, the
mainland, NN, mainland
until, IN, until
his, PRP$, his
third, JJ, third
voyage, NN, voy
in, IN, in
1498, CD, 1498
South, NNP, sou
Central, NNP, cent
European, JJ, europ
sea, NN, sea
powers, NNS, pow
sending, VBG, send
expeditions, NNS, expedit
to, TO, to
the, DT, the
New, NNP, new
World, NNP, world
to, TO, to
build, VB, build
trade, NN, trad
networks, NNS, network
and, CC, and
colonies, NNS, colony
and, CC, and
to, TO, to
convert, VB, convert
the, DT, the
native, JJ, nat
people, NNS, peopl
to, TO, to
Christianity, NNP, christianity
Castilian, NNP, castil
Earth, NNP, ear
and, CC, and
travel, NN, travel
distance, NN, dist
estimates, NNS, estim
1.2.1.1, CD, 1.2.1.1
Trade, NNP, trad
winds, NNS, wind
Magnetic, NNP, magnet
declination, NN, declin
2.1.2, CD, 2.1.2
Discovery, NNP, discovery
and, CC, and
exploration, NN, expl
2.1.3, CD, 2.1.3
First, NNP, first
return, NN, return
2.1.4, CD, 2.1.4
Papal, NNP, pap
decree, CD, decree
2.2, CD, 2.2
Second, NNP, second
voyage, NN, voy
2.2.1, CD, 2.2.1
Caribbean, NNP, carib
exploration, NN, expl
2.2.2, CD, 2.2.2
Hispaniola, NNP, hispaniol
and, CC, and
Haiti, NNP, hait
2.2.3, CD, 2.2.3
Slavery, NNP, slavery
Fourth, NNP, four
voyage, NN, voy
3.4.1, CD, 3.4.1
Fourth, NNP, four
exploration, NN, expl
3.4.2, CD, 3.4.2
Stranded, NNP, stranded
and, CC, and
rescue, VB, rescu
3.5, CD, 3.5
Aftermath, NNP, afterma
Background, NNP, background
Virgin, NNP, virgin
of, IN, of
the, DT, the
Navigators, NNP, navig
by, IN, by
Alejo, NNP, alejo
Americas, NNP, america
Portugal, NNP, portug
's, POS, 's
rival, NN, riv
Castile, NNP, castil
Spain, NNP, spain
Atlantic, NNP, atl
Castile, NNP, castil
and, CC, and
Aragon, NNP, aragon
and, CC, and
the, DT, the
completion, NN, complet
of, IN, of
the, DT, the
reconquista, NN, reconquist
that, IN, that
Spain, NNP, spain
emerged, VBD, emerg
and, CC, and
became, VBD, becom
fully, RB, ful
committed, VBN, commit
to, TO, to
looking, VBG, look
for, IN, for
new, JJ, new
trade, NN, trad
routes, NNS, rout
and, CC, and
colonies, NNS, colony
overseas, RB, oversea
Moorish, NNP, moor
kingdom, NN, kingdom
of, IN, of
Granada, NNP, granad
Castile, NNP, castil
with, IN, with
African, NNP, afr
goods, NNS, good
through, IN, through
tribute, JJ, tribut
Christopher, NNP, christopher
Portugal, NNP, portug
's, POS, 's
lock, NN, lock
on, IN, on
Africa, NNP, afric
and, CC, and
the, DT, the
Indian, NNP, ind
reaching, NN, reach
Asia, NNP, as
by, IN, by
travelling, NN, travel
west, NN, west
Columbus, NNP, columb
presented, VBD, pres
his, PRP$, his
plans, NNS, plan
to, TO, to
John, NNP, john
of, IN, of
Portugal, NNP, portug
Portugal, NNP, portug
Atlantic, NNP, atl
Orient, NNP, ory
Columbus, NNP, columb
also, RB, also
requested, VBD, request
he, PRP, he
be, VB, be
made, VBN, mak
``, ``, ``
Admiral, NNP, admir
of, IN, of
the, DT, the
Ocean, NNP, oc
'', '', ''
Ocean, NNP, oc
Columbus, NNP, columb
Columbus, NNP, columb
appealed, VBD, ap
to, TO, to
the, DT, the
court, NN, court
of, IN, of
Portugal, NNP, portug
once, RB, ont
again, RB, again
John, NNP, john
invited, VBD, invit
him, PRP, him
to, TO, to
an, DT, an
audience, NN, audy
Bartolomeu, NNP, bartolomeu
returned, VBD, return
to, TO, to
Portugal, NNP, portug
following, VBG, follow
Africa, NNP, afric
Portugal, NNP, portug
was, VBD, be
no, DT, no
longer, NN, long
interested, VBD, interest
in, IN, in
trailblazing, NN, trailblaz
Asia, NNP, as
Columbus, NNP, columb
traveled, VBD, travel
from, IN, from
Portugal, NNP, portug
to, TO, to
both, DT, both
Genoa, NNP, geno
and, CC, and
Venice, NNP, ven
Henry, NNP, henry
of, IN, of
England, NNP, england
English, NNP, engl
monarch, NN, monarch
might, MD, might
not, RB, not
be, VB, be
more, RBR, mor
amenable, JJ, am
to, TO, to
Columbus, NNP, columb
Henry, NNP, henry
's, POS, 's
invitation, NN, invit
came, VBD, com
too, RB, too
late, JJ, lat
Columbus, NNP, columb
had, VBD, hav
already, RB, already
committed, VBN, commit
himself, PRP, himself
to, TO, to
the, DT, the
Kingdom, NNP, kingdom
of, IN, of
Castile, NNP, castil
in, IN, in
present, NN, pres
day, NN, day
Spain, NNP, spain
Castilian, JJ, castil
Spanish, NNP, span
Please, NN, pleas
help, NN, help
improve, VB, improv
this, DT, this
article, NN, artic
by, IN, by
adding, NN, ad
citations, NNS, cit
to, TO, to
reliable, JJ, rely
sources, NNS, sourc
Unsourced, NNP, unsourc
material, NN, mat
may, MD, may
be, VB, be
challenged, VBN, challeng
and, CC, and
removed, VBD, remov
Ferdinand, NNP, ferdinand
of, IN, of
Aragon, NNP, aragon
and, CC, and
Queen, NNP, queen
Castile, NNP, castil
Spain, NNP, spain
through, IN, through
marriage, NN, marry
Columbus, NNP, columb
presented, VBD, pres
his, PRP$, his
plans, NNS, plan
to, TO, to
Queen, NNP, queen
Castile, NNP, castil
Portugal, NNP, portug
Columbus, NNP, columb
had, VBD, hav
judged, VBN, judg
the, DT, the
distance, NN, dist
to, TO, to
Asia, NNP, as
much, RB, much
too, RB, too
short, JJ, short
Royal, NNP, roy
to, TO, to
pass, VB, pass
on, IN, on
the, DT, the
proposed, VBN, propos
venture, NN, vent
Columbus, NNP, columb
from, IN, from
taking, VBG, tak
his, PRP$, his
ideas, NNS, ide
everywhere, RB, everywh
Queen, NNP, queen
gave, VBD, giv
him, PRP, him
an, DT, an
annual, JJ, an
allowance, NN, allow
of, IN, of
12,000, CD, 12,000
maravedis, NNS, marav
and, CC, and
in, IN, in
1489, CD, 1489
furnished, VBN, furn
him, PRP, him
with, IN, with
Castilian, NNP, castil
cities, NNS, city
and, CC, and
towns, NNS, town
to, TO, to
provide, VB, provid
him, PRP, him
food, NN, food
and, CC, and
lodging, VBG, lodg
at, IN, at
no, DT, no
cost, NN, cost
Columbus, NNP, columb
and, CC, and
Queen, NNP, queen
Detail, NNP, detail
of, IN, of
the, DT, the
Columbus, NNP, columb
monument, NN, monu
in, IN, in
Madrid, NNP, madrid
Royal, NNP, roy
court, NN, court
and, CC, and
two, CD, two
years, NNS, year
of, IN, of
negotiations, NNS, negoty
Queen, NNP, queen
Isabella, NNP, isabell
's, POS, 's
forces, NNS, forc
had, VBD, hav
just, RB, just
conquered, VBN, conqu
the, DT, the
Moorish, NNP, moor
of, IN, of
Granada, NNP, granad
Muslim, NNP, muslim
stronghold, NN, stronghold
of, IN, of
Al-Andalus, JJ, al-andalus
on, IN, on
the, DT, the
Iberian, NNP, ib
peninsula, NN, peninsul
Isabella, NNP, isabell
and, CC, and
Ferdinand, NNP, ferdinand
received, VBD, receiv
Columbus, NNP, columb
in, IN, in
the, DT, the
Alc\u00e1zar, JJ, alc\u00e1z
Italian, JJ, it
investors, NNS, invest
Columbus, NNP, columb
had, VBD, hav
already, RB, already
lined, VBN, lin
up, RP, up
Granada, NNP, granad
campaign, NN, campaign
Columbus, NNP, columb
was, VBD, be
to, TO, to
be, VB, be
made, VBN, mak
``, ``, ``
Seas, NNP, sea
'', '', ''
and, CC, and
would, MD, would
receive, VB, receiv
Columbus, NNP, columb
Queen, NNP, queen
for, IN, for
Castile, NNP, castil
Columbus, NNP, columb
claimed, VBD, claim
any, DT, any
new, JJ, new
islands, NNS, island
or, CC, or
mainland, VBP, mainland
for, IN, for
the, DT, the
Crown, NNP, crown
Admiral, NNP, admir
of, IN, of
the, DT, the
Ocean, NNP, oc
and, CC, and
appointed, VBD, appoint
Viceroy, NNP, viceroy
and, CC, and
Governor, NNP, govern
of, IN, of
all, DT, all
the, DT, the
newly, RB, new
colonised, VBN, colon
lands, NNS, land
Europe, NNP, europ
had, VBD, hav
long, RB, long
enjoyed, VBN, enjoy
China, NNP, chin
and, CC, and
India\u2014sources, NNS, india\u2014sources
of, IN, of
valued, VBN, valu
goods, NNS, good
such, JJ, such
as, IN, as
silk, NN, silk
Mongol, NNP, mongol
Pax, NNP, pax
Mongol, NNP, mongol
peace, NN, peac
Fall, NNP, fal
of, IN, of
Constantinople, NNP, constantinopl
to, TO, to
the, DT, the
Turkish, NNP, turk
Ottoman, NNP, ottom
Empire, NNP, empir
in, IN, in
1453, CD, 1453
Asia, NNP, as
became, VBD, becom
more, JJR, mor
difficult, JJ, difficult
Columbus, NNP, columb
brothers, NNS, broth
had, VBD, hav
Indies, NNPS, indy
Asia, NNP, as
Ocean, JJ, oc
Atlantic, NNP, atl
Washington, NNP, washington
Irving, NNP, irv
's, POS, 's
1828, CD, 1828
biography, NN, biograph
of, IN, of
Columbus, NNP, columb
popularized, VBD, popul
the, DT, the
idea, NN, ide
that, IN, that
Columbus, NNP, columb
had, VBD, hav
difficulty, NN, difficul
obtaining, VBG, obtain
support, NN, support
for, IN, for
his, PRP$, his
plan, NN, plan
because, IN, because
Europeans, NNPS, europ
thought, VBD, think
the, DT, the
Earth, NNP, ear
was, VBD, be
flat, JJ, flat
Earth, NNP, ear
Earth, NNP, ear
was, VBD, be
spherical, JJ, spherical
was, VBD, be
widespread, JJ, widespread
Earth, NNP, ear
and, CC, and
travel, NN, travel
distance, NN, dist
estimates, NNS, estim
Columbus, NNP, columb
's, POS, 's
geographical, JJ, geograph
conceptions, NNS, conceiv
This, DT, This
section, NN, sect
needs, VBZ, nee
additional, JJ, addit
citations, NNS, cit
for, IN, for
verification, NN, ver
Please, NN, pleas
help, NN, help
improve, VB, improv
this, DT, this
article, NN, artic
by, IN, by
adding, NN, ad
citations, NNS, cit
to, TO, to
reliable, JJ, rely
sources, NNS, sourc
Unsourced, NNP, unsourc
material, NN, mat
may, MD, may
be, VB, be
challenged, VBN, challeng
and, CC, and
removed, VBD, remov
Earth, NNP, ear
had, VBD, hav
been, VBN, be
the, DT, the
general, JJ, gen
opinion, NN, opin
of, IN, of
Ancient, NNP, ant
science, NN, sci
Middle, NNP, middl
Bede, NNP, bed
mentions, NNS, ment
it, PRP, it
in, IN, in
The, DT, The
Reckoning, NNP, reckon
of, IN, of
Time, NNP, tim
Eratosthenes, NNS, eratosth
had, VBD, hav
measured, VBN, meas
the, DT, the
diameter, NN, diamet
of, IN, of
the, DT, the
Earth, NNP, ear
with, IN, with
good, JJ, good
precision, NN, precid
in, IN, in
the, DT, the
2nd, JJ, 2nd
century, NN, century
BC, NNP, bc
Columbus, NNP, columb
did, VBD, do
differ, NN, diff
from, IN, from
the, DT, the
generally, RB, gen
accepted, VBN, acceiv
view, NN, view
of, IN, of
his, PRP$, his
time, NN, tim
was, VBD, be
in, IN, in
his, PRP$, his
Earth, NNP, ear
Asia, NNP, as
could, MD, could
be, VB, be
easily, RB, easy
reached, VBN, reach
by, IN, by
sailing, NN, sail
west, NN, west
across, IN, across
the, DT, the
Atlantic, NNP, atl
Ptolemy, NNP, ptolemy
's, POS, 's
correct, NN, correct
assessment, NN, assess
that, WDT, that
the, DT, the
terrestrial, JJ, terrest
landmass, NN, landmass
Eurasia, NNP, euras
and, CC, and
Africa, NNP, afric
Columbus, NNP, columb
Earth, NNP, ear
was, VBD, be
much, JJ, much
smaller, NN, smal
Asia, NNP, as
was, VBD, be
only, RB, on
Europe, NNP, europ
Columbus, NNP, columb
Columbus, NNP, columb
map, NN, map
'', '', ''
was, VBD, be
drawn, VBN, draw
circa, NN, circ
1490, CD, 1490
in, IN, in
the, DT, the
workshop, NN, workshop
of, IN, of
Bartolomeo, NNP, bartolomeo
and, CC, and
Christopher, NNP, christopher
in, IN, in
Lisbon, NNP, lisbon
Christopher, NNP, christopher
on, IN, on
the, DT, the
Latin, NNP, latin
edition, NN, edit
of, IN, of
Marco, NNP, marco
's, POS, 's
Le, NNP, le
livre, NN, livr
des, VBZ, des
merveilles, NNS, merveil
Columbus, NNP, columb
believed, VBD, believ
the, DT, the
Marinus, NNP, marin
of, IN, of
Tyre, NNP, tyr
Columbus, NNP, columb
believed, VBD, believ
that, IN, that
one, CD, one
degree, NN, degr
represented, VBD, repres
Earth, NNP, ear
's, POS, 's
surface, NN, surfac
than, IN, than
was, VBD, be
actually, RB, act
the, DT, the
case, NN, cas
Italian, JJ, it
miles, NNS, mil
Alfraganus, NNP, alfragan
Earth, NNP, ear
as, IN, as
25,255, CD, 25,255
kilometers, NNS, kilomet
at, IN, at
most, JJS, most
Canary, NNP, can
to, TO, to
Japan, NNP, jap
as, IN, as
Italian, JJ, it
miles, NNS, mil
Columbus, NNP, columb
did, VBD, do
not, RB, not
realize, VB, real
Alfraganus, NNP, alfragan
used, VBN, us
the, DT, the
much, JJ, much
longer, NN, long
Arabic, NNP, arab
mile, NN, mil
Earth, NNP, ear
is, VBZ, be
about, IN, about
40,000, CD, 40,000
km, NN, km
Eratosthenes, NNP, eratosth
in, IN, in
the, DT, the
2nd, JJ, 2nd
century, NN, century
BC, NNP, bc
Canary, NNP, can
to, TO, to
Japan, NNP, jap
19,600, CD, 19,600
km, NN, km
European, JJ, europ
sailors, NNS, sail
and, CC, and
navigators, NNS, navig
concluded, VBD, conclud
Europe, NNP, europ
to, TO, to
Asia, NNP, as
non-stop, NNP, non-stop
would, MD, would
die, VB, die
of, IN, of
thirst, JJ, thirst
Spain, NNP, spain
European, JJ, europ
countries, NNS, country
in, IN, in
trade, NN, trad
with, IN, with
the, DT, the
East, NNP, east
Columbus, NNP, columb
promised, VBD, prom
such, JJ, such
an, DT, an
advantage, NN, adv
Europe, NNP, europ
and, CC, and
Asia, NNP, as
was, VBD, be
uninterrupted, VBN, uninterrupt
American, NNP, am
continent, NN, contin
about, IN, about
Vinland, NNP, vinland
were, VBD, be
already, RB, already
surfacing, VBG, surfac
in, IN, in
Europe, NNP, europ
Columbus, NNP, columb
calculated, VBD, calc
Canary, NNP, can
to, TO, to
Japan, NNP, jap
by, IN, by
the, DT, the
standards, NNS, standard
of, IN, of
his, PRP$, his
peers, NNS, peer
Columbus, NNP, columb
Columbus, NNP, columb
Trade, NNP, trad
Santa, NNP, sant
La, NNP, la
La, NNP, la
for, IN, for
five, CD, five
weeks, NNS, week
from, IN, from
the, DT, the
Canary, NNP, can
off, IN, off
Africa, NNP, afric
Spain, NNP, spain
eastward, NN, eastward
against, IN, against
this, DT, this
prevailing, NN, prevail
wind, NN, wind
would, MD, would
have, VB, hav
required, VBN, requir
several, JJ, sev
months, NNS, mon
of, IN, of
an, DT, an
arduous, JJ, ardu
sailing, NN, sail
technique, NN, techn
upwind, NN, upwind
Columbus, NNP, columb
returned, VBD, return
home, NN, hom
by, IN, by
following, VBG, follow
prevailing, VBG, prevail
winds, NNS, wind
northeastward, IN, northeastward
from, IN, from
the, DT, the
southern, NN, southern
zone, NN, zon
of, IN, of
the, DT, the
North, NNP, nor
to, TO, to
the, DT, the
middle, NN, middl
latitudes, VBZ, latitud
of, IN, of
the, DT, the
North, NNP, nor
Western, JJ, western
Iberian, NNP, ib
North, NNP, nor
's, POS, 's
great, JJ, gre
circular, NN, circul
wind, NN, wind
pattern, NN, pattern
Columbus, NNP, columb
was, VBD, be
given, VBN, giv
the, DT, the
title, NN, titl
\u201cAdmiral, JJ, \u201cadmiral
of, IN, of
the, DT, the
Ocean, NNP, oc
Sea\u201d, NNP, sea\u201d
in, IN, in
April, NNP, april
1492, CD, 1492
Columbus, NNP, columb
departed, VBD, depart
from, IN, from
Castilian, NNP, castil
de, IN, de
la, DT, la
Frontera, NNP, fronter
with, IN, with
three, CD, three
ships, NNS, ship
Pinta, NNP, pint
Santa, NNP, sant
Juan, NNP, juan
de, IN, de
la, DT, la
Cosa, NNP, cos
and, CC, and
the, DT, the
Pinz\u00f3n, JJ, pinz\u00f3n
brothers, NNS, broth
Alonso, NNP, alonso
Pinz\u00f3n, NNP, pinz\u00f3n
and, CC, and
Vicente, NNP, vic
Y\u00e1\u00f1ez, NNP, y\u00e1\u00f1ez
Pinz\u00f3n, NNP, pinz\u00f3n
Palos, NNP, palo
de, IN, de
la, DT, la
Frontera, NNP, fronter
inhabitants, NNS, inhabit
to, TO, to
contribute, VB, contribut
to, TO, to
the, DT, the
expedition, NN, expedit
Columbus, NNP, columb
first, RB, first
sailed, VBD, sail
to, TO, to
the, DT, the
Canary, NNP, can
in, IN, in
the, DT, the
Atlantic, NNP, atl
off, IN, off
the, DT, the
coast, JJ, coast
of, IN, of
Africa, NNP, afric
Castile, NNP, castil
La, NNP, la
Columbus, NNP, columb
received, VBD, receiv
word, NN, word
that, IN, that
three, CD, three
Portuguese, NNP, portugues
caravels, NNS, caravel
had, VBD, hav
been, VBN, be
seen, VBN, see
hovering, VBG, hov
near, IN, near
the, DT, the
island, NN, island
of, IN, of
El, NNP, el
Hierro, NNP, hierro
with, IN, with
the, DT, the
supposed, VBN, suppos
intention, NN, int
of, IN, of
capturing, VBG, capt
him, PRP, him
San, NNP, san
de, IN, de
la, DT, la
Gomera, NNP, gomer
for, IN, for
what, WP, what
turned, VBN, turn
out, RP, out
to, TO, to
be, VB, be
