Turn, NNP, turn
autoplay, NN, autoplay
off, IN, off
Turn, NNP, turn
autoplay, NN, autoplay
on, IN, on
Please, NNP, pleas
activate, NN, act
cookies, NNS, cooky
in, IN, in
order, NN, ord
to, TO, to
turn, VB, turn
autoplay, NN, autoplay
off, IN, off
Jump, NNP, jump
to, TO, to
content, VB, cont
Jump, NNP, jump
to, TO, to
site, VB, sit
navigation, NN, navig
Guardian, NNP, guard
readers, NNS, read
Digital, NNP, digit
archive, JJ, arch
Digital, NNP, digit
edition, NN, edit
Guardian, NNP, guard
and, CC, and
Observer, NNP, observ
photos, NNS, photo
Today, NNP, today
's, POS, 's
paper, NN, pap
Main, NNP, main
section, NN, sect
G2, NNP, g2
features, NNS, feat
Comment, NNP, com
and, CC, and
debate, NN, deb
Editorials, NNS, edit
Sport, NNP, sport
.gsc-control-cse, NNP, .gsc-control-cse
BDBDBD, NNP, bdbdbd
BDBDBD, NNP, bdbdbd
Travel, NNP, travel
TV, NNP, tv
Video, NNP, video
Dating, NNP, dat
Offers, NNP, off
Jobs, NNP, job
Sport, NNP, sport
World, NNP, world
Athletics, NNP, athlet
Championships, NNP, champ
2013, CD, 2013
Sally, NNP, sal
confident, NN, confid
before, IN, before
world, NN, world
championships, NNS, champ
in, IN, in
Moscow, NNP, moscow
\u2022, NNP, \u2022
US, NNP, us
athletes, VBZ, athlet
Share, NNP, shar
this, DT, this
Email, NNP, email
AAP, NNP, aap
theguardian.com, NNP, theguardian.com
BST, NNP, bst
London, NNP, london
Photograph, NN, photograph
Paul, NNP, paul
Hackett/Reuters, NNS, hackett/reuters
After, IN, After
having, VBG, hav
her, PRP$, her
aura, NN, aur
of, IN, of
invincibility, NN, invinc
sorely, RB, sor
tested, VBN, test
during, IN, during
Sally, NNP, sal
is, VBZ, be
feeling, VBG, feel
like, IN, like
her, PRP$, her
old, JJ, old
self, NN, self
again.Two, CD, again.Two
hamstring, VBG, hamst
injuries, NNS, injury
meant, JJ, meant
Pearson, NNP, pearson
was, VBD, be
n't, RB, n't
able, JJ, abl
to, TO, to
start, VB, start
her, PRP$, her
2013, CD, 2013
racing, VBG, rac
program, NN, program
until, IN, until
June.The, NNP, june.th
first, JJ, first
five, CD, five
of, IN, of
her, PRP$, her
meets, NNS, meet
produced, VBN, produc
several, JJ, sev
uncharacteristic, JJ, uncharact
losses, NNS, loss
and, CC, and
some, DT, some
poor, JJ, poor
times, NNS, tim
London, NNP, london
Olympic, NNP, olymp
stadium, NN, stad
\u2013, :, \u2013
Pearson, NNP, pearson
Pearson, NNP, pearson
American, JJ, am
110m, CD, 110m
hurdler, NN, hurdl
Aries, NNS, ary
Merritt, NNP, merrit
in, IN, in
the, DT, the
wake, NN, wak
of, IN, of
her, PRP$, her
most, RBS, most
disappointing, JJ, disappoint
run, NN, run
of, IN, of
the, DT, the
year, NN, year
Monaco, NNP, monaco
meet.Like, NNP, meet.like
the, DT, the
Australian, JJ, aust
Merritt, NNP, merrit
was, VBD, be
also, RB, also
hampered, VBN, hamp
by, IN, by
injury, NN, injury
after, IN, after
winning, VBG, win
the, DT, the
London, NNP, london
Olympic, NNP, olymp
title, NN, titl
Pearson, NNP, pearson
Pearson, NNP, pearson
's, POS, 's
long-time, JJ, long-time
coach, NN, coach
Sharon, NNP, sharon
saw, VBD, saw
clear, JJ, clear
improvement, NN, improv
in, IN, in
her, PRP$, her
star, NN, star
charge, NN, charg
during, IN, during
the, DT, the
London, NNP, london
win, NN, win
Australian, JJ, aust
team, NN, team
camp, NN, camp
in, IN, in
the, DT, the
English, NNP, engl
town, NN, town
of, IN, of
Tonbridge, NNP, tonbridg
Hannan, NNP, han
Sal, NNP, sal
because, IN, because
putting, VBG, put
that, IN, that
sort, NN, sort
of, IN, of
speed, NN, spee
over, IN, over
hurdles, NNS, hurdl
has, VBZ, hav
always, RB, alway
been, VBN, be
US, NNP, us
challenge, NN, challeng
in, IN, in
Moscow, NNP, moscow
will, MD, will
be, VB, be
led, VBN, lead
by, IN, by
rising, VBG, ris
star, NN, star
Brianna, NNP, briann
Pearson, NNP, pearson
to, TO, to
equal, JJ, eq
third, JJ, third
on, IN, on
the, DT, the
all-time, JJ, all-time
list, NN, list
with, IN, with
her, PRP$, her
blistering, NN, blist
time, NN, tim
of, IN, of
12.26sec, CD, 12.26sec
at, IN, at
the, DT, the
US, NNP, us
trials, NNS, tri
in, IN, in
June.Rollins, NNS, june.rollins
has, VBZ, hav
deliberately, RB, delib
avoided, VBN, avoid
racing, VBG, rac
against, IN, against
Pearson, NNP, pearson
in, IN, in
the, DT, the
intervening, NN, interv
couple, NN, coupl
of, IN, of
months, NNS, mon
Australian, NNP, aust
head, NN, head
coach, NN, coach
Eric, NNP, er
Hollingsworth.The, NNP, hollingsworth.the
other, JJ, oth
American, JJ, am
big, JJ, big
gun, NN, gun
is, VBZ, be
Dawn, NNP, dawn
Pearson, NNP, pearson
in, IN, in
2008, CD, 2008
Australian, JJ, aust
to, TO, to
reverse, VB, revers
the, DT, the
result, NN, result
four, CD, four
years, NNS, year
later, RBR, lat
in, IN, in
London.The, NNP, london.the
remaining, VBG, remain
two, CD, two
US, NNP, us
representatives, NNS, repres
Queen, NNP, queen
and, CC, and
Nia, NNP, nia
Pearson, NNP, pearson
is, VBZ, be
back, RB, back
in, IN, in
equal, JJ, eq
10th, JJ, 10th
Guardian, NNP, guard
Today, NNP, today
Our, NNP, our
editors, NNS, edit
Sender, NNP, send
's, POS, 's
name, NN, nam
Recipient, NNP, recipy
's, POS, 's
email, NN, email
address, NN, address
Your, NNP, yo
IP, NNP, ip
address, NN, address
will, MD, will
be, VB, be
logged, VBN, log
Share, NNP, shar
link, NN, link
for, IN, for
this, DT, this
page, NN, pag
StumbleUpon, NNP, stumbleupon
reddit, NN, reddit
Tumblr, NNP, tumblr
del.icio.us, NNP, del.icio.us
livejournal, JJ, livejourn
Facebook, NNP, facebook
Contact, NNP, contact
us, PRP, us
Contact, NNP, contact
the, DT, the
Sport, NNP, sport
editorsport, NN, editorsport
Guardian, NNP, guard
and, CC, and
Observer, NNP, observ
switchboard, NN, switchboard
Article, NNP, artic
history, NN, hist
About, IN, About
this, DT, this
article, NN, artic
Sally, RB, sal
Pearson, NNP, pearson
confident, NN, confid
before, IN, before
world, NN, world
championships, NNS, champ
in, IN, in
Moscow, NNP, moscow
This, DT, This
article, NN, artic
was, VBD, be
published, VBN, publ
on, IN, on
the, DT, the
Guardian, NNP, guard
website, NN, websit
at, IN, at
23.34, CD, 23.34
BST, NNP, bst
on, IN, on
Wednesday, NNP, wednesday
Sport, NNP, sport
World, NNP, world
Athletics, NNP, athlet
Championships, NNP, champ
2013, CD, 2013
\u00b7, CD, \u00b7
Australia, NNP, austral
sport, NN, sport
More, NNP, mor
news, NN, new
