newspaper, NN, newspap
archives, NNS, arch
Home, NNP, hom
by, IN, by
Date, NNP, dat
Vassar, NNP, vass
News, NNP, new
10, CD, 10
December, NNP, decemb
1947, CD, 1947
Vassar, NNP, vass
Volume, NNP, volum
Article, NNP, artic
an, DT, an
article, NN, artic
in, IN, in
the, DT, the
document, NN, docu
viewer, NN, view
Text, NNP, text
Issue, NNP, issu
