US, PRP, US
World, NNP, world
Politics, NNP, polit
Business, NNP, busy
Tech, NNP, tech
Science, NNP, sci
Health, NNP, heal
Investigations, NNPS, investig
Entertainment, NNP, entertain
Sports, NNP, sport
Travel, NNP, travel
Meet, NNP, meet
the, DT, the
Press, NNP, press
Dateline, NNP, datelin
TODAY, NNP, today
msnbc, NN, msnbc
NBCNews.com, NN, nbcnews.com
msn, NN, msn
Nbc, NNP, nbc
follow, NN, follow
us, PRP, us
Facebook, NNP, facebook
RSS, NNP, rss
SHOW, NNP, show
ME, NNP, me
Space, NNP, spac
Innovation, NNP, innov
Weird, NNP, weird
science, NN, sci
Weird, NNP, weird
science, NN, sci
Worm, NNP, worm
named, VBD, nam
after, IN, after
physicist, NN, phys
Max, NNP, max
--, :, --
and, CC, and
that, IN, that
's, VBZ, 's
an, DT, an
honor, NN, hon
Ardnamurchan, NNP, ardnamurch
volcano, NN, volcano
Famous, NNP, fam
volcano, NN, volcano
has, VBZ, hav
only, RB, on
one, CD, one
'heart, NN, 'heart
Fossil, NNP, fossil
shows, VBZ, show
ancient, JJ, ant
'mega-clawed, JJ, 'mega-clawed
Supernova, NNP, supernov
of, IN, of
mysterious, JJ, mystery
superbright, NN, superbright
supernovas, NNS, supernov
possibly, RB, poss
discovered, VBN, discov
Russian, JJ, russ
meteor, NN, met
explosion, NN, explod
Oops, NNS, oop
Russian, JJ, russ
meteorite, NN, meteorit
breaks, NNS, break
after, IN, after
it, PRP, it
's, VBZ, 's
pulled, VBN, pul
out, RP, out
of, IN, of
lake, NN, lak
Black, NNP, black
holes, NNS, hol
'Black, -NONE-, 'Black
hole, JJ, hol
indigestion, NN, indigest
Russia, NNP, russ
may, MD, may
team, VB, team
up, RP, up
to, TO, to
use, VB, us
nuclear, JJ, nuclear
weapons, NNS, weapon
against, IN, against
asteroids, NNS, asteroid
Brain, NNP, brain
being, VBG, be
born, NN, born
triggers, NNS, trig
development, NN, develop
of, IN, of
senses, NNS, sen
in, IN, in
brain, NN, brain
Herod, NNP, herod
the, DT, the
Great, NNP, gre
Secret, NNP, secret
location, NN, loc
of, IN, of
King, NNP, king
Herod, NNP, herod
's, POS, 's
tomb, NN, tomb
remains, VBZ, remain
buried, VBN, bury
in, IN, in
history, NN, hist
Curiosity, NN, curios
One, CD, One
red, VBN, red
cent, NN, cent
Mars, NNP, mar
18-foot, CD, 18-foot
'sea, NNP, 'sea
monster, NN, monst
Cosmic, NNP, cosm
photographer, NN, photograph
captures, NNS, capt
elephants, NNS, eleph
\u2014, VBP, \u2014
Dream, NNP, dream
space, NN, spac
plane, NN, plan
to, TO, to
list, NN, list
of, IN, of
shutdown, NN, shutdown
casualties, NNS, casual
Philippines, NNPS, philippin
of, IN, of
deadly, RB, dead
Philippines, NNPS, philippin
quake, VBP, quak
likely, JJ, lik
the, DT, the
East, NNP, east
Fault, NNP, fault
cave, VBD, cav
prints, NNS, print
show, VBP, show
most, JJS, most
early, JJ, ear
artists, NNS, art
were, VBD, be
women, NNS, wom
Earthworms, NNP, earthworm
earthworms, VBZ, earthworm
cut, VBN, cut
their, PRP$, their
carbon, NN, carbon
footprint, NN, footprint
--, :, --
even, JJ, ev
though, IN, though
they, PRP, they
have, VBP, hav
no, DT, no
feet, NN, foot
Amazon, NNP, amazon
fish, NN, fish
wears, NNS, wear
armor, NN, arm
to, TO, to
repel, VB, repel
vicious, JJ, vicy
piranha, NN, piranh
bites, NNS, bit
Skywatching, VBG, skywatch
Minor, NNP, min
'penumbral, JJ, 'penumbral
Pandas, NNP, panda
panda, NN, pand
Tian, NNP, tian
loses, VBZ, los
pregnancy, NN, pregn
at, IN, at
Edinburgh, NNP, edinburgh
Advertise, NNP, advert
Advertise, NNP, advert
Weird, NNP, weird
science, NN, sci
Worm, NNP, worm
named, VBD, nam
after, IN, after
physicist, NN, phys
Max, NNP, max
--, :, --
and, CC, and
that, IN, that
's, VBZ, 's
an, DT, an
honor, NN, hon
Megan, NNP, meg
LiveScience, NNP, livescy
Facebook, NNP, facebook
Share, NNP, shar
on, IN, on
Facebook, NNP, facebook
GooglePlus, NNP, googlepl
July, NNP, july
11, CD, 11
Berger, NNP, berg
Developmental, NNP, develop
The, NNP, the
nematode, NN, nematod
Pristionchus, NNP, pristionch
maxplancki, NN, maxplanck
can, MD, can
change, VB, chang
the, DT, the
shape, NN, shap
of, IN, of
its, PRP$, its
mouth, NN, mou
depending, VBG, depend
on, IN, on
the, DT, the
form, NN, form
of, IN, of
its, PRP$, its
nourishment, NN, nour
Max, NNP, max
is, VBZ, be
getting, VBG, get
another, DT, another
posthumous, JJ, posthum
accolade, NN, accolad
Pristionchus, NNP, pristionch
maxplancki, NN, maxplanck
German, NNP, germ
scientist, NN, sci
Fukushima, NNP, fukushim
province, NN, provint
Japan, NNP, jap
Max, NNP, max
for, IN, for
Developmental, NNP, develop
Biology.Pristionchus, NNP, biology.pristionchus
worms, VBZ, worm
latch, NN, latch
onto, IN, onto
beetles, NNS, beetl
and, CC, and
put, VBD, put
their, PRP$, their
lives, NNS, lif
on, IN, on
pause, NN, paus
Max, NNP, max
constantly, RB, const
emphasised, VBD, emphas
the, DT, the
importance, NN, import
of, IN, of
exact, JJ, exact
observations, NNS, observ
and, CC, and
precise, VB, prec
inspection, NN, inspect
as, IN, as
the, DT, the
actual, JJ, act
core, NN, cor
of, IN, of
scientific, JJ, sci
work, NN, work
Max, NNP, max
Germany, NNP, germany
Zoological, NNP, zoolog
Science.Follow, NNP, science.follow
Megan, NNP, meg
Gannon, NNP, gannon
on, IN, on
Twitter, NNP, twit
and, CC, and
Google+.Follow, JJ, google+.follow
us, PRP, us
Facebook, NNP, facebook
and, CC, and
Google+, NNP, google+
Original, NNP, origin
article, NN, artic
on, IN, on
LiveScience.com.StarStruck, JJ, livescience.com.starstruck
After, NNP, aft
Species, NNPS, specy
Discovered, NNP, discov
in, IN, in
MuseumsImage, NNP, museumsim
Gallery, NNP, gallery
Link, NNP, link
2013, CD, 2013
LiveScience, NNP, livescy
TechMediaNetwork, NNP, techmedianetwork
company, NN, company
Weird, NNP, weird
science, NN, sci
Share, NN, shar
on, IN, on
Facebook, NNP, facebook
About, NNP, about
us, PRP, us
Mobile, NNP, mobl
site, VBP, sit
US, NNP, us
World, NNP, world
Politics, NNP, polit
Business, NNP, busy
Tech, NNP, tech
Science, NNP, sci
Health, NNP, heal
Investigations, NNPS, investig
Entertainment, NNP, entertain
Sports, NNP, sport
Travel, NNP, travel
Meet, NNP, meet
the, DT, the
Press, NNP, press
Dateline, NNP, datelin
TODAY, NNP, today
msnbc, NN, msnbc
\u00a92013, -NONE-, \u00a92013
NBCNews.comNBCNews.com, JJ, nbcnews.comnbcnews.com
About, IN, About
us, PRP, us
Contact, NNP, contact
Help, NNP, help
Site, NNP, sit
map, VB, map
Careers, NNP, car
and, CC, and
conditions, NNS, condit
Newsletter, NNP, newslet
policy, NN, policy
Advertise, NNP, advert
