Search, NNP, search
Search, NNP, search
..., :, ...
Go, NNP, go
Home, NNP, hom
Who, NNP, who
we, PRP, we
are, VBP, be
Adverstising, VBG, adverst
Privacy, NNP, priv
Contacts, NNP, contact
you, PRP, you
are, VBP, be
reading, VBG, read
..., :, ...
news, NN, new
news, NN, new
Interview, NNP, interview
with, IN, with
Jairo, NNP, jairo
Duendeviajero, NNP, duendeviajero
\u22c5, NNP, \u22c5
Miguel, NNP, miguel
Zambon, NNP, zambon
as, IN, as
El, NNP, el
baile, NN, bail
de, IN, de
Jairo, NNP, jairo
Entrevista, NNP, entrevist
Interview, NNP, interview
with, IN, with
Jairo, NNP, jairo
Jairo, NNP, jairo
Duendeviajero, NNP, duendeviajero
Ramon, NNP, ramon
Tony, NNP, tony
and, CC, and
great, JJ, gre
great, NN, gre
nephew, NN, nephew
of, IN, of
Diego, NNP, diego
del, NN, del
Gastor, NNP, gast
Santa, NNP, sant
area, NN, are
in, IN, in
Seville, NNP, sevil
and, CC, and
Ramon, NNP, ramon
Los, NNP, los
and, CC, and
he, PRP, he
would, MD, would
bring, VB, bring
me, PRP, me
out, RP, out
to, TO, to
dance, VB, dant
at, IN, at
the, DT, the
end, NN, end
in, IN, in
the, DT, the
fin, NN, fin
de, IN, de
fiesta, NN, fiest
Miguel, NNP, miguel
If, NNP, if
you, PRP, you
hadn\u2019t, VBP, hadn\u2019t
have, VBP, hav
been, VBN, be
Concha, NNP, conch
and, CC, and
Curro, NNP, curro
in, IN, in
the, DT, the
flamenco, NN, flamenco
\u2018Almoraima\u2019, NN, \u2018almoraima\u2019
in, IN, in
the, DT, the
south, NN, sou
of, IN, of
Germany, NNP, germany
Fernandez, NNP, fernandez
and, CC, and
Concha, NNP, conch
Vargas\u2019, NNP, vargas\u2019
family, NN, famy
have, VBP, hav
been, VBN, be
friends, NNS, friend
for, IN, for
as, RB, as
long, JJ, long
as, IN, as
Concha, NNP, conch
Curro, NNP, curro
was, VBD, be
always, RB, alway
looking, VBG, look
out, RP, out
for, IN, for
me, PRP, me
as, IN, as
Photo, NNP, photo
Miguel, NNP, miguel
is, VBZ, be
German, NNP, germ
flamenco, NN, flamenco
fans, NNS, fan
and, CC, and
is, VBZ, be
there, RB, ther
something, NN, someth
they, PRP, they
have, VBP, hav
that, IN, that
the, DT, the
Andaluces, NNPS, andaluc
don\u2019t, JJ, don\u2019t
Well, NNP, wel
Germany, NNP, germany
is, VBZ, be
Germany, NNP, germany
and, CC, and
work, VB, work
there, EX, there
as, IN, as
flamenco, NN, flamenco
artists, NNS, art
Seville, NNP, sevil
Concha, NNP, conch
Vargas\u201d, NNP, vargas\u201d
Photo, NNP, photo
Miguel, NNP, miguel
or, CC, or
expressiveness, NN, express
Sebastien, NNP, sebasty
Jairo, NNP, jairo
Ole, NNP, ol
Photo, NNP, photo
Jairo, NNP, jairo
's, POS, 's
Facebook, NNP, facebook
page, NN, pag
Discussion, NNP, discuss
for, IN, for
\u201cInterview, JJ, \u201cinterview
with, IN, with
Jairo, NNP, jairo
Comment, NNP, com
clic, JJ, clic
qui, NN, qui
per, IN, per
annullare, NN, annull
la, NN, la
risposta, NN, rispost
Name, NNP, nam
Website, NNP, websit
here, RB, her
your, PRP$, your
comment, NN, com
Categories, NNS, categ
Cajon, NNP, cajon
corner, NN, corn
Concerts, NNS, concert
Dance, NNP, dant
corner, NN, corn
Festivals, NNS, fest
corner, NN, corn
News, NNP, new
\u00a9, NNP, \u00a9
