Oregon, NNP, oregon
Music, NNP, mus
Previews, NNP, preview
Festivals, NNP, fest
Waterfront, NNP, waterfront
Blues, NNP, blu
2013, CD, 2013
Soul, NNP, soul
'd, NNP, 'd
Out, NNP, out
Music, NNP, mus
2013, CD, 2013
Portland, NNP, portland
Jazz, NNP, jazz
Festival, NNP, fest
2013, CD, 2013
Reel, NNP, reel
Music, NNP, mus
2012, CD, 2012
Waterfront, NNP, waterfront
Festival, NNP, fest
2012, CD, 2012
Soul, NNP, soul
'd, NNP, 'd
Out, NNP, out
Music, NNP, mus
2012, CD, 2012
Silverton, NNP, silverton
and, CC, and
Jazz, NNP, jazz
2012, CD, 2012
Portland, NNP, portland
Jazz, NNP, jazz
Festival, NNP, fest
2012, CD, 2012
PDX, NNP, pdx
Now, NNP, now
Waterfront, NNP, waterfront
Festival, NNP, fest
2011, CD, 2011
Silverton, NNP, silverton
and, CC, and
Jazz, NNP, jazz
2011, CD, 2011
Sould, NNP, sould
Out, NNP, out
Music, NNP, mus
2011, CD, 2011
Portland, NNP, portland
Jazz, NNP, jazz
Festival, NNP, fest
2011, CD, 2011
Reel, NNP, reel
Music, NNP, mus
2011, CD, 2011
MusicfestNW, NNP, musicfestnw
2010, CD, 2010
PICA, NNP, pic
Time-Based, JJ, time-based
Art, NNP, art
2010, CD, 2010
Portland, NNP, portland
Folk, NNP, folk
Festival, NNP, fest
2010, CD, 2010
PDX, NNP, pdx
Now, NNP, now
Mississippi, NNP, mississipp
Fair, NNP, fair
2010, CD, 2010
Waterfront, NNP, waterfront
Festival, NNP, fest
2010, CD, 2010
Sasquatch, NNP, sasquatch
Music, NNP, mus
2010, CD, 2010
Silverton, NNP, silverton
Jazz, NNP, jazz
2010, CD, 2010
Sould, NNP, sould
Out, NNP, out
Music, NNP, mus
2010, CD, 2010
Portland, NNP, portland
Jazz, NNP, jazz
Festival, NNP, fest
2010, CD, 2010
Media, NNP, med
MP3, NNP, mp3
Photo, NNP, photo
Galleries, NNPS, gallery
In-Store, JJ, in-store
Performances, NNS, perform
Podcasts, NNS, podcast
About, IN, About
Subscribe, NNP, subscrib
Jazz/Blues, NNP, jazz/blues
Rock/Roots, NNP, rock/roots
Acoustic, NNP, acoust
Indie, NNP, indy
DJ/Electro, NNP, dj/electro
Soul/Hip-Hop, NNP, soul/hip-hop
Melting, NNP, melt
Pot, NNP, pot
Jacob-Avshalomov, NNP, jacob-avshalomov
by, IN, by
James, NNP, jam
on, IN, on
April, NNP, april
26, CD, 26
Denise, NNP, den
says, VBZ, say
Mr., NNP, mr.
PJS, NNP, pjs
1969-1974, CD, 1969-1974
Mr., NNP, mr.
David, NNP, david
and, CC, and
Mrs., NNP, mrs.
Mr., NNP, mr.
Bernstein, NNP, bernstein
and, CC, and
Gershwin, NNP, gershwin
Avshalomov, NNP, avshalomov
family, NN, famy
for, IN, for
sharing, NN, shar
their, PRP$, their
time, NN, tim
and, CC, and
home, NN, hom
with, IN, with
us, PRP, us
that, IN, that
day, NN, day
Mr., NNP, mr.
Avshalomov, NNP, avshalomov
family, NN, famy
for, IN, for
their, PRP$, their
loss, NN, loss
Mr., NNP, mr.
Denise, NNP, den
says, VBZ, say
PYP, NNP, pyp
my, PRP$, my
senior, JJ, seny
year, NN, year
in, IN, in
90\u2032/91\u2032, CD, 90\u2032/91\u2032
Mr., NNP, mr.
Mr., NNP, mr.
Mr., NNP, mr.
Lisa, NNP, lis
Hammond, NNP, hammond
Leave, NNP, leav
Comment, NNP, com
here, RB, her
to, TO, to
cancel, VB, cancel
reply, RB, reply
Name, NNP, nam
Website, NNP, websit
writes, VBZ, writ
articles, NNS, artic
for, IN, for
Opera, NNP, oper
Open, NNP, op
Opera, NNP, oper
MUSO, NNP, muso
International, NNP, intern
American, NNP, am
Record, NNP, record
Guide, NNP, guid
Symphony, NNP, symphony
Opera, NNP, oper
PSU, NNP, psu
Crosscut, NNP, crosscut
San, NNP, san
Seattle, NNP, seattl
Post-Intelligencer, NNP, post-intelligencer
The, NNP, the
The, NNP, the
The, NNP, the
The, NNP, the
Register-Guard, NNP, register-guard
Willamette, NNP, willamet
James, NNP, jam
has, VBZ, hav
also, RB, also
written, VBN, writ
Oregon, NNP, oregon
and, CC, and
contributed, VBD, contribut
articles, NNS, artic
to, TO, to
the, DT, the
2nd, CD, 2nd
edition, NN, edit
of, IN, of
the, DT, the
Grove, NNP, grov
of, IN, of
American, NNP, am
James, NNP, jam
was, VBD, be
NEA, NNP, nea
for, IN, for
Classical, NNP, class
and, CC, and
Opera, NNP, oper
Music, NNP, mus
of, IN, of
North, NNP, nor
Portland, NNP, portland
Oregon, NNP, oregon
with, IN, with
his, PRP$, his
wife, NN, wif
Kathy, NNP, kathy
TOP, NNP, top
STORIES, NNP, story
Monday, NNP, monday
Music, NNP, mus
director, NN, direct
David, NNP, david
discusses, VBZ, discuss
the, DT, the
upcoming, NN, upcom
season, NN, season
for, IN, for
the, DT, the
Portland, NNP, portland
Youth, NNP, you
Philharmonic, NNP, philharmon
by, IN, by
James, NNP, jam
Tuesday, NNP, tuesday
Video, NNP, video
Frank, NNP, frank
Sinatra\u2019s, NNP, sinatra\u2019s
most, RBS, most
famous, JJ, fam
recordings, NNS, record
by, IN, by
Tom, NNP, tom
D\u2019Antoni, NNP, d\u2019antoni
Wednesday, NNP, wednesday
Chris, NNP, chris
Thursday, NNP, thursday
OMN, NNP, omn
Stories, NNP, story
with, IN, with
our, PRP$, our
weekend, NN, weekend
roundup, NN, roundup
LAST, JJ, last
WEEK\u2019S, NNS, week\u2019s
TOP, NNP, top
STORIES, NNP, story
Classical, NNP, class
\u2013Q, NNP, \u2013q
Kronos, NNP, krono
founder, NN, found
David, NNP, david
on, IN, on
the, DT, the
group\u2019s, NNP, group\u2019s
success, NN, success
and, CC, and
its, PRP$, its
upcoming, NN, upcom
Portland, NNP, portland
concert, NN, concert
by, IN, by
Holly, NNP, hol
\u2013, NNP, \u2013
BodyVox, NNP, bodyvox
\u2013, NNP, \u2013
Ryan, NNP, ryan
Jazz/Blues, NNP, jazz/blues
\u2014, NNP, \u2014
Dave, NNP, dav
talks, VBZ, talk
about, IN, about
his, PRP$, his
50th, JJ, 50th
birthday, NN, birthday
box, NN, box
set, NN, set
and, CC, and
tour, PRP$, tour
by, IN, by
Tom, NNP, tom
D\u2019Antoni, NNP, d\u2019antoni
Get, NNP, get
Out, NNP, out
PDX, NNP, pdx
to, TO, to
SFO, NNP, sfo
Treasure, NNP, treas
2013, CD, 2013
by, IN, by
Chris, NNP, chris
Soul/Hip-Hop, NNP, soul/hip-hop
\u201315, NNP, \u201315
minutes, VBZ, minut
with, IN, with
King, NNP, king
Cervante, NNP, cerv
RECENTLY, NNP, rec
Classical, NNP, class
\u2013Best, NNP, \u2013best
of, IN, of
Bash, NNP, bash
Sarah, NNP, sarah
and, CC, and
Vali, NNP, val
talk, NN, talk
about, IN, about
playing, VBG, play
with, IN, with
the, DT, the
Oregon, NNP, oregon
by, IN, by
James, NNP, jam
Jazz/Blues, NNP, jazz/blues
\u2014, NNP, \u2014
Bernard, NNP, bernard
Tom, NNP, tom
D\u2019Antoni, NNP, d\u2019antoni
Indie, NNP, indy
\u2014, NNP, \u2014
Mees, NNS, mee
Loving, NNP, lov
Empire-keeping, NNP, empire-keeping
the, DT, the
spirit, NN, spirit
of, IN, of
mix, NN, mix
tapes, NNS, tap
alive, JJ, al
by, IN, by
Ryan, NNP, ryan
OMN, NNP, omn
guide, NN, guid
to, TO, to
Northwest, NNP, northwest
Film, NNP, film
Center\u2019s, NNP, center\u2019s
Reel, NNP, reel
Music, NNP, mus
2013, CD, 2013
Classical, NNP, class
\u2014, NNP, \u2014
Nicholas, NNP, nichola
joins, VBZ, join
Portland, NNP, portland
Opera, NNP, oper
as, IN, as
the, DT, the
company\u2019s, NNP, company\u2019s
new, JJ, new
Assistant, NNP, assist
Conductor, NNP, conduc
and, CC, and
Chorus, NNP, chor
by, IN, by
Holly, NNP, hol
Jazz/Blues, NNP, jazz/blues
\u2014, NNP, \u2014
Galen, NNP, gal
on, IN, on
Trio, NNP, trio
Subtonic\u2019s, NNP, subtonic\u2019s
new, JJ, new
album, NN, alb
by, IN, by
Tom, NNP, tom
D\u2019Antoni, NNP, d\u2019antoni
OMN, NNP, omn
announces, NNS, annount
our, PRP$, our
4th, JJ, 4th
Anniversary, NNP, annivers
Party, NNP, party
at, IN, at
Secret, NNP, secret
Pop, NNP, pop
\u2014, :, \u2014
Matthew, NNP, matthew
Rock/Roots, NNP, rock/roots
\u2014, NNP, \u2014
Nigel, NNP, nigel
America, NNP, americ
Voodoo, NNP, voodoo
and, CC, and
\u2018Sacrifice\u2019, NNP, \u2018sacrifice\u2019
by, IN, by
Ruben, NNP, rub
Recent, NNP, rec
Comments, NNP, com
Georgia, NNP, georg
on, IN, on
Seventeen, NNP, seventeen
Years, NNP, year
of, IN, of
Sing-Along, JJ, sing-along
MessiahBarf, NNP, messiahbarf
on, IN, on
NWFC, NNP, nwfc
Festival, NNP, fest
2013, CD, 2013
Kowalczyk, NNP, kowalczyk
on, IN, on
KZME, NNP, kzme
hosts, NNS, host
their, PRP$, their
first, JJ, first
annual, JJ, an
Stumptown, NNP, stumptown
Billy, NNP, bil
on, IN, on
BendBroadband, NNP, bendbroadband
at, IN, at
the, DT, the
Oxford, NNP, oxford
2013-2014, CD, 2013-2014
season, NN, season
lineup, NN, lineup
announced, VBD, annount
OMN, NNP, omn
by, IN, by
Concert, NNP, concert
Co-Op, NNP, co-op
Find, NNP, find
more, JJR, mor
events, NNS, ev
on, IN, on
our, PRP$, our
calendar, NN, calend
Subscribe, NNP, subscrib
Venues, NNP, venu
Previews, NNP, preview
Festivals, NNP, fest
Waterfront, NNP, waterfront
Blues, NNP, blu
2013, CD, 2013
Soul, NNP, soul
'd, NNP, 'd
Out, NNP, out
Music, NNP, mus
2013, CD, 2013
Portland, NNP, portland
Jazz, NNP, jazz
Festival, NNP, fest
2013, CD, 2013
Reel, NNP, reel
Music, NNP, mus
2012, CD, 2012
Waterfront, NNP, waterfront
Festival, NNP, fest
2012, CD, 2012
Soul, NNP, soul
'd, NNP, 'd
Out, NNP, out
Music, NNP, mus
2012, CD, 2012
Silverton, NNP, silverton
and, CC, and
Jazz, NNP, jazz
2012, CD, 2012
Portland, NNP, portland
Jazz, NNP, jazz
Festival, NNP, fest
2012, CD, 2012
PDX, NNP, pdx
Now, NNP, now
Waterfront, NNP, waterfront
Festival, NNP, fest
2011, CD, 2011
Silverton, NNP, silverton
and, CC, and
Jazz, NNP, jazz
2011, CD, 2011
Sould, NNP, sould
Out, NNP, out
Music, NNP, mus
2011, CD, 2011
Portland, NNP, portland
Jazz, NNP, jazz
Festival, NNP, fest
2011, CD, 2011
Reel, NNP, reel
Music, NNP, mus
2011, CD, 2011
MusicfestNW, NNP, musicfestnw
2010, CD, 2010
PICA, NNP, pic
Time-Based, JJ, time-based
Art, NNP, art
2010, CD, 2010
Portland, NNP, portland
Folk, NNP, folk
Festival, NNP, fest
2010, CD, 2010
PDX, NNP, pdx
Now, NNP, now
Mississippi, NNP, mississipp
Fair, NNP, fair
2010, CD, 2010
Waterfront, NNP, waterfront
Festival, NNP, fest
2010, CD, 2010
Sasquatch, NNP, sasquatch
Music, NNP, mus
2010, CD, 2010
Silverton, NNP, silverton
Jazz, NNP, jazz
2010, CD, 2010
Sould, NNP, sould
Out, NNP, out
Music, NNP, mus
2010, CD, 2010
Portland, NNP, portland
Jazz, NNP, jazz
Festival, NNP, fest
2010, CD, 2010
Media, NNP, med
MP3, NNP, mp3
Photo, NNP, photo
Galleries, NNPS, gallery
In-Store, JJ, in-store
Performances, NNS, perform
Podcasts, NNS, podcast
About, IN, About
Subscribe, NNP, subscrib
