Forward, NNP, forward
Association, NNP, assocy
Page, NNP, pag
Events, NNP, ev
Donate, NNP, don
About, NNP, about
Masthead, NNP, masthead
History, NNP, hist
Employment, NNP, employ
Contact, NNP, contact
Advertising, NNP, advert
Subscriptions, NNP, subscrib
Editorial, NNP, edit
Free, NNP, fre
Newsletter, NNP, newslet
News, NNP, new
Culture, NNP, cult
to, TO, to
the, DT, the
Editor, NNP, edit
The, NNP, the
Yiddish, NNP, yid
J.J., NNP, j.j.
Goldberg, NNP, goldberg
Forward, NNP, forward
Thinking, NNP, think
The, NNP, the
Sisterhood, NNP, sist
Married, NNP, marry
The, NNP, the
Arty, NNP, arty
Jew, NNP, jew
Shmooze, NNP, shmooze
Reporters, NNP, report
Roundtable, NNP, roundt
Interview, NNP, interview
Series, NNP, sery
Yiddish, NNP, yid
Radio, NNP, radio
Hour, NNP, hour
Yiddish, NNP, yid
The, NNP, the
Yiddish, NNP, yid
Looking, NNP, look
Back, NNP, back
Yiddish, NNP, yid
Radio, NNP, radio
Hour, NNP, hour
Yiddish, NNP, yid
Video, NNP, video
Channel, NNP, channel
Arts, NNP, art
Culture, NNP, cult
Second, NNP, second
Look, NNP, look
Three, NNP, three
Forgotten, NNP, forgot
Jewish, NNP, jew
Women, NNP, wom
Made, NNP, mad
Commons, NNP, common
The, NNP, the
impressionist, NN, impress
artist, NN, art
Tina, NNP, tin
was, VBD, be
known, VBN, know
for, IN, for
her, PRP$, her
idyllic, JJ, idyl
landscapes, NNS, landscap
Benjamin, NNP, benjamin
January, NNP, janu
12, CD, 12
Print, NNP, print
Email, NNP, email
When, NNP, when
writing, VBG, writ
of, IN, of
great, JJ, gre
Viennese, JJ, viennes
artists, NNS, art
Carl, NNP, carl
in, IN, in
his, PRP$, his
landmark, NN, landmark
\u201cFin-de-si\u00e8cle, NN, \u201cfin-de-si\u00e8cle
Vienna, NNP, vienn
Teresa, NNP, teres
Impressionist, NNP, impress
landscape, NN, landscap
painter, NN, paint
Tina, NNP, tin
Bronica, NNP, bronic
Forgotten, NNP, forgot
of, IN, of
Vienna, NNP, vienn
1900\u201d, CD, 1900\u201d
author, NN, auth
Julie, NNP, july
makes, VBZ, mak
Johnson, NNP, johnson
University, NNP, univers
of, IN, of
Texas, NNP, texa
art, NN, art
historian, NN, hist
Ries, NNPS, rie
was, VBD, be
expelled, VBN, expel
from, IN, from
the, DT, the
Moscow, NNP, moscow
of, IN, of
Fine, NNP, fin
for, IN, for
scolding, VBG, scold
Vienna, NNP, vienn
Ries, NNP, rie
\u2014, NNP, \u2014
Stefan, NNP, stef
and, CC, and
Mark, NNP, mark
Stone, NNP, ston
Ries, NNP, rie
dismissed, VBD, dismiss
critics, NNS, crit
and, CC, and
museum-goers, NNS, museum-goers
who, WP, who
claimed, VBN, claim
that, IN, that
her, PRP$, her
heroic, JJ, hero
Auguste, NNP, august
Europeans, NNPS, europ
Vienna, NNP, vienn
Stone, NNP, ston
Eve, NNP, ev
Blau, NNP, blau
Vienna, NNP, vienn
parks, NNS, park
brought, VBD, bring
Old, NNP, old
fashion, NN, fash
by, IN, by
contemporary, JJ, contemp
male, JJ, mal
painters, NNS, paint
Ries, NNPS, rie
Auguste, NNP, august
Blau, NNP, blau
wrote, VBD, writ
Vienna, NNP, vienn
Paris, NNP, par
and, CC, and
Munich, NNP, munich
Blau, NNP, blau
specified, VBD, spec
that, IN, that
she, PRP, she
had, VBD, hav
never, RB, nev
been, VBN, be
granted, VBN, grant
any, DT, any
major, JJ, maj
public, JJ, publ
commissions, NNS, commit
Prater, NNP, prat
Blau, NNP, blau
informed, VBD, inform
Schaeffer, NNP, schaeffer
Prater, NNP, prat
Viennese, NNP, viennes
kitsch, NN, kitsch
sensibility, NN, sens
Koller, NNP, kol
Pierre, NNP, pier
or, CC, or
Edouard, NNP, edouard
were, VBD, be
painting, VBG, paint
house-husbands, NNS, house-husbands
Egon, NNP, egon
and, CC, and
Gustav, NNP, gustav
Koller, NNP, kol
won, VBD, win
rave, NN, rav
reviews, NNS, review
from, IN, from
the, DT, the
noted, JJ, not
critic, JJ, crit
Berta, NNP, bert
Vienna, NNP, vienn
of, IN, of
Galician, NNP, gal
Jewish, NNP, jew
origin, NN, origin
Koller, NNP, kol
painted, VBD, paint
Emilie, NNP, emy
Austrian, JJ, aust
composer, NN, compos
Julius, NNP, juli
Gustav, NNP, gustav
Bittner, NNP, bittn
expresses, NNS, express
Gertrude, NNP, gertrud
Stein-like, NNP, stein-like
sedentary, NN, sed
solidity, NN, solid
Austrian, JJ, aust
Jewish, JJ, jew
woman, NN, wom
defined, VBD, defin
by, IN, by
labor, NN, lab
Koller, NNP, kol
imaginatively, RB, imagin
renewed, VBD, renew
another, DT, another
traditional, JJ, tradit
genre, NN, genr
in, IN, in
Fruit, NNP, fruit
and, CC, and
Parrot\u201d, NNP, parrot\u201d
which, WDT, which
mixes, NNS, mix
inanimate, VBP, inanim
objects, NNS, object
Koller, NNP, kol
died, VBD, die
of, IN, of
ovarian, JJ, ov
cancer, NN, cant
in, IN, in
1934, CD, 1934
Peace, NN, peac
and, CC, and
quiet, JJ, quiet
surround, NN, surround
me, PRP, me
here, RB, her
Anschluss, NNP, anschluss
destroyed, VBD, destroy
any, DT, any
such, JJ, such
sacred, JJ, sacr
tranquility, NN, tranquil
Koller, NNP, kol
and, CC, and
Blau, NNP, blau
were, VBD, be
already, RB, already
dead, VBN, dead
Ries, NNPS, rie
had, VBD, hav
fled, VBN, fle
to, TO, to
Lugano, NNP, lugano
Switzerland, NNP, switzerland
where, WRB, where
she, PRP, she
survived, VBD, surv
the, DT, the
war, NN, war
but, CC, but
never, RB, nev
again, RB, again
returned, VBN, return
to, TO, to
Austria, NNP, austr
Nazis, NNP, naz
eliminated, VBD, elimin
all, DT, all
evidence, NN, evid
of, IN, of
Jewish, NNP, jew
creativity, NN, cre
Johnson, NNP, johnson
cogently, RB, cog
points, VBZ, point
out, RP, out
Otto, NNP, otto
Weininger\u2019s, NNP, weininger\u2019s
\u2018Sex, NNP, \u2018sex
and, CC, and
Character, NNP, charact
Ries, NNPS, rie
Blau, NNP, blau
Koller, NNP, kol
Benjamin, NNP, benjamin
Ivry, NNP, ivry
is, VBZ, be
Forward, NNP, forward
Print, NNP, print
Email, NNP, email
Hands, NNPS, hand
Off, NNP, off
Theater, NNP, the
Button, NNP, button
as, IN, as
Bagels, NNP, bagel
and, CC, and
Lox, NNP, lox
The, NNP, the
Forward, NNP, forward
welcomes, VBZ, welcom
reader, NN, read
comments, NNS, com
in, IN, in
order, NN, ord
to, TO, to
promote, VB, promot
thoughtful, JJ, thought
discussion, NN, discuss
on, IN, on
issues, NNS, issu
of, IN, of
importance, NN, import
to, TO, to
the, DT, the
Jewish, NNP, jew
community, NN, commun
Forward, NNP, forward
requires, VBZ, requir
that, IN, that
all, DT, all
commenters, NNS, com
be, VB, be
appropriately, RB, appropry
respectful, JJ, respect
toward, IN, toward
our, PRP$, our
writers, NNS, writ
Vigorous, JJ, vig
debate, NN, deb
and, CC, and
reasoned, VBD, reason
critique, NN, crit
are, VBP, be
welcome, VBN, welcom
Forward, NNP, forward
reserves, VBZ, reserv
the, DT, the
right, NN, right
to, TO, to
remove, VB, remov
comments, NNS, com
for, IN, for
any, DT, any
reason, NN, reason
Lost, NNP, lost
Reconnect, NNP, reconnect
70, CD, 70
Years, NNS, year
Later, RBR, lat
After, NNP, aft
Letters, NNP, let
Found, NNP, found
on, IN, on
Tel, NNP, tel
William, NNP, william
's, POS, 's
Empire, NNP, empir
at, IN, at
Met, NNP, met
Stands, NNP, stand
By, NNP, by
Sweeping, NNP, sweep
Findings, NNP, find
on, IN, on
Face, NNP, fac
of, IN, of
Criticism, NNP, crit
And, CC, And
Now, NNP, now
for, IN, for
Some, DT, Some
Good, NNP, good
About, NNP, about
the, DT, the
Pew, NNP, pew
Survey, NNP, survey
Meet, NNP, meet
the, DT, the
Jewish, NNP, jew
Teen, NNP, teen
Who, NNP, who
Helped, NNP, help
