io9, NNP, io9
CMorning, NNP, cmorn
SpoilersCObservation, NNP, spoilerscobserv
DeckCSpaceCUpgrade, NNP, deckcspacecupgrad
KinjaDeadspinGawkerGizmodoio9JalopnikJezebelKotakuLifehackerPOS, NNP, kinjadeadspingawkergizmodoio9jalopnikjezebelkotakulifehackerpos
SAdvancedInclude, NNP, sadvancedinclud
UnpublishedInclude, NNP, unpublishedinclud
RepliesInclude, NNP, repliesinclud
only, RB, on
posts, VBZ, post
that, IN, that
have, VBP, hav
..., :, ...
ImagesVideoMarked, NNP, imagesvideomark
as, IN, as
Spam11EjiGeEdit, NNP, spam11ejigeedit
BPromote, NNP, bpromote
Science, NNP, sci
and, CC, and
entertainment, NN, entertain
from, IN, from
the, DT, the
world, NN, world
of, IN, of
tomorrow, NN, tomorrow
Science, NN, sci
\u00b7, ``, \u00b7
Books, NNP, book
\u00b7, NNP, \u00b7
Patton, NNP, patton
's, POS, 's
TED, NNP, ted
is, VBZ, be
true, JJ, tru
geniusStop, NNP, geniusstop
working, NN, work
and, CC, and
watch, NN, watch
this, DT, this
Game, NNP, gam
of, IN, of
Thrones, NNP, thrones
bad, JJ, bad
lip, NN, lip
reading, NN, read
NOWThe, NNP, nowth
Top, NNP, top
50, CD, 50
Scariest, NNP, scariest
of, IN, of
All, NNP, al
Part, NNP, part
1This, CD, 1This
map, NN, map
of, IN, of
gender, NN, gend
segregation, NN, segreg
shows, VBZ, show
how, WRB, how
New, NNP, new
live, VBP, liv
and, CC, and
dieThe, NNP, dieth
Thing, NNP, thing
Julianne, NNP, julian
Moore, NNP, moor
in, IN, in
the, DT, the
Carrie, NNP, carry
RemakeWhat, NNP, remakewh
is, VBZ, be
going, VBG, go
on, IN, on
in, IN, in
these, DT, these
horrifying, NN, horr
Game, NNP, gam
of, IN, of
Thrones, NNP, thrones
set, NN, set
photos, NNS, photo
Tetanus, NNP, tetan
actually, RB, act
lock, NN, lock
your, PRP$, your
jaw, NN, jaw
together, RB, togeth
Honest, NNP, honest
for, IN, for
The, DT, The
Walking, NNP, walk
Dead, NNP, dead
is, VBZ, be
dead, JJ, dead
onVin, NNP, onvin
will, MD, will
only, RB, on
have, VB, hav
one, CD, one
line, NN, lin
in, IN, in
Guardians, NNP, guard
of, IN, of
the, DT, the
GalaxyThese, NNP, galaxythes
images, VBZ, im
show, NN, show
just, RB, just
how, WRB, how
differently, RB, diff
cats, VBZ, cat
and, CC, and
humans, NNS, hum
see, VBP, see
the, DT, the
worldThis, NNP, worldth
trailer, NN, trail
for, IN, for
Blade, NNP, blad
as, IN, as
geniusHow, NNP, geniushow
to, TO, to
Win, NNP, win
InternetWatch, NNP, internetwatch
this, DT, this
amazing, NN, amaz
short, NN, short
film, NN, film
celebrating, VBG, celebr
Superman\u2019s, NNS, superman\u2019s
75th, CD, 75th
anniversaryWhat, WDT, anniversaryWhat
book, NN, book
would, MD, would
you, PRP, you
give, VB, giv
someone, NN, someon
you, PRP, you
wanted, VBD, want
to, TO, to
have, VB, hav
terrible, JJ, terr
dreams, NNS, dream
Pull, NNP, pul
From, NNP, from
Lake, NNP, lak
Promptly, NNP, prompt
ItWhat, NNP, itwh
if, IN, if
the, DT, the
Moon, NNP, moon
was, VBD, be
as, IN, as
close, JJ, clos
as, IN, as
the, DT, the
International, NNP, intern
Nobel, NNP, nobel
prize, NN, priz
winners, NNS, win
shows, VBZ, show
inequalityI, NNP, inequality
ca, MD, ca
n't, RB, n't
stop, VB, stop
watching, VBG, watch
this, DT, this
video, NN, video
of, IN, of
landingSomebody, NNP, landingsomebody
help, NN, help
\u2013, :, \u2013
gifsChristopher, NNP, gifschristoph
freaks, VBZ, freak
us, PRP, us
out, IN, out
in, IN, in
his, PRP$, his
first, JJ, first
Thor, NNP, thor
Click, NNP, click
here, RB, her
to, TO, to
continue, VB, continu
reading, NN, read
..., :, ...
XPlease, NNP, xplease
update, NN, upd
your, PRP$, your
browser, NN, brows
for, IN, for
Esther, NNP, esth
Inglis-Arkell, NNP, inglis-arkell
mad, VBD, mad
science, NN, sci
graphene, NN, graph
Nanotechnology, NNP, nanotechnolog
Top, NNP, top
4/04/11, CD, 4/04/11
7:00am, CD, 7:00am
4/04/11, CD, 4/04/11
7:00am, CD, 7:00am
Edit9,987g11, -NONE-, Edit9,987g11
