Search, NNP, search
Career, NNP, car
Education, NNP, educ
Cars, NNP, car
CarsIreland.ie, NNP, carsireland.ie
Used, NNP, us
Car, NNP, car
Search, NNP, search
Car, NNP, car
Dealers, NNP, deal
Homes, NNP, hom
Globrix.ie, NNP, globrix.ie
Buy, NNP, buy
Property, NNP, property
Rent, NNP, rent
Property, NNP, property
Advertise, NNP, advert
Properties, NNP, property
Deals, NNP, deal
Grabone.ie, NNP, grabone.i
Dublin, NNP, dublin
GrabOne, NNP, grabon
Escapes, NNP, escap
TheMeetingPoint.ie, NNP, themeetingpoint.ie
Mature, NNP, mat
Gay, NNP, gay
Death, NNP, dea
Notices, NNPS, not
Announcement.ie, NNP, announcement.ie
Deaths, NNP, death
In, NNP, in
Memoriam, NNP, memoriam
Book, NNP, book
Online, NNP, onlin
Wednesday, NNP, wednesday
16, CD, 16
October, NNP, octob
2013, CD, 2013
Hi, NNP, hi
\u00b0C, NNP, \u00b0c
Bray, NNP, bray
GAA, NNP, gaa
Other, NNP, oth
Sports, NNP, sport
Scoreline, NNP, scorelin
flatters, NNS, flat
visitors, NNS, visit
as, IN, as
seconds, NNS, second
win, VBP, win
DUNDALK, NNP, dundalk
seconds, NNS, second
claimed, VBD, claim
their, PRP$, their
second, JJ, second
league, NN, leagu
victory, NN, vict
of, IN, of
the, DT, the
year, NN, year
with, IN, with
Cill, NNP, cil
Ratoath, NNP, ratoa
travelled, VBD, travel
to, TO, to
Ratoath, NNP, ratoa
on, IN, on
Saturday, NNP, saturday
with, IN, with
Brave, NNP, brav
Redeemer, NNP, redeem
have, VBP, hav
no, DT, no
answer, NN, answ
Shane, NNP, shan
club, NN, club
night, NN, night
Local, NNP, loc
Independent.ie\u203a, NNP, independent.ie\u203a
Regionals\u203a, NNP, regionals\u203a
The, NNP, the
Argus\u203a, NNP, argus\u203a
News\u203a, NNP, news\u203a
Documentary, NNP, docu
exploration, NN, expl
LOCAL, NNP, loc
POLAR, NNP, pol
ADVENTURER, NNP, adv
Comments, NNP, com
Email, NNP, email
Print, NNP, print
Font, NNP, font
Size, NNP, siz
.indo_survey, NNP, .indo_survey
FFFFFF, NNP, ffffff
FFFFFF, NNP, ffffff
Anne, NNP, an
\u2013, NNP, \u2013
FFFFFF, NNP, ffffff
Francis, NNP, frant
McClintock, NNP, mcclintock
from, IN, from
Dundalk, NNP, dundalk
features, NNS, feat
in, IN, in
Irish, NNP, ir
polar, NN, pol
explorers, NNS, expl
Louth, NNP, lou
's, POS, 's
worst, JJS, bad
estate, NN, est
FFFFFF, NNP, ffffff
Dublin, NNP, dublin
's, POS, 's
documentary, JJ, docu
production, NN, produc
team, NN, team
and, CC, and
will, MD, will
be, VB, be
aired, VBN, air
on, IN, on
Dublin, NNP, dublin
network, NN, network
and, CC, and
various, JJ, vary
other, JJ, oth
stations, NNS, stat
throughout, IN, throughout
Ireland, NNP, ireland
including, VBG, includ
Dundalk, NNP, dundalk
FM, NNP, fm
100, CD, 100
Community, NNP, commun
FFFFFF, NNP, ffffff
Irish, JJ, ir
people, NNS, peopl
that, WDT, that
the, DT, the
great, JJ, gre
Irish, NNP, ir
polar, NN, pol
explorers, NNS, expl
are, VBP, be
Ernest, NNP, ernest
Tom, NNP, tom
and, CC, and
that, IN, that
's, VBZ, 's
it, PRP, it
Paul, NNP, paul
Francis, NNP, frant
McClintock, NNP, mcclintock
from, IN, from
Dundalk, NNP, dundalk
who, WP, who
accomplished, VBD, accompl
colossal, JJ, coloss
feats, NNS, feat
of, IN, of
discovery, NN, discovery
in, IN, in
the, DT, the
polar, JJ, pol
regions, NNS, reg
FFFFFF, NNP, ffffff
Arctic, JJ, arct
sledge, NN, sledg
travel, NN, travel
Franklin, NNP, franklin
expedition, NN, expedit
McClintock, NNP, mcclintock
joined, VBD, join
the, DT, the
navy, NN, navy
at, IN, at
the, DT, the
age, NN, ag
of, IN, of
11, CD, 11
years, NNS, year
and, CC, and
also, RB, also
explain, VB, explain
how, WRB, how
Gorgon, NNP, gorgon
which, WDT, which
had, VBD, hav
been, VBN, be
thrown, VBN, throw
1000, CD, 1000
yards, NNS, yard
onto, IN, onto
the, DT, the
Brazilian, JJ, brazil
shore, NN, shor
by, IN, by
Arctic, NNP, arct
exploration, NN, expl
Franklin, NNP, franklin
expedition, NN, expedit
in, IN, in
the, DT, the
Canadian, JJ, canad
Arctic, NNP, arct
FFFFFF, NNP, ffffff
McClintock, NNP, mcclintock
first, JJ, first
made, NN, mad
his, PRP$, his
mark, NN, mark
in, IN, in
polar, JJ, pol
exploration, NN, expl
Arctic, NNP, arct
sledge, NN, sledg
travel, NN, travel
McClintock, NNP, mcclintock
was, VBD, be
the, DT, the
man, NN, man
who, WP, who
invented, VBN, inv
it, PRP, it
McClintock, NNP, mcclintock
was, VBD, be
able, JJ, abl
to, TO, to
travel, NN, travel
colossal, NN, coloss
distances, NNS, dist
in, IN, in
the, DT, the
Arctic, NNP, arct
Local, JJ, loc
historian, JJ, hist
Pat, NNP, pat
O'Neill, NNP, o'neill
and, CC, and
the, DT, the
County, NNP, county
's, POS, 's
Brian, NNP, bri
contributed, VBD, contribut
to, TO, to
the, DT, the
McClintock, NNP, mcclintock
programmes, VBZ, program
Irish, NNP, ir
Polar, NNP, pol
Histories, NNPS, hist
documentary, JJ, docu
series, NN, sery
will, MD, will
broadcast, VB, broadcast
on, IN, on
Dundalk, NNP, dundalk
FM, NNP, fm
100, CD, 100
every, DT, every
Saturday, NNP, saturday
at, IN, at
1pm, CD, 1pm
beginning, NN, begin
August, NNP, august
8th, CD, 8th
for, IN, for
ten, CD, ten
weeks, NNS, week
FFFFFF, NNP, ffffff
McClintock, NNP, mcclintock
will, MD, will
broadcast, VB, broadcast
at, IN, at
1pm, CD, 1pm
on, IN, on
September, NNP, septemb
26th, CD, 26th
FFFFFF, NNP, ffffff
FFFFFF, NNP, ffffff
Android, NNP, android
in, IN, in
News, NNP, new
Read, NNP, read
in, IN, in
this, DT, this
Section, NN, sect
Tributes, VBZ, tribut
paid, VBN, pay
to, TO, to
talented, VBN, tal
actor, NN, act
Gerry, NNP, gerry
funeral, JJ, fun
of, IN, of
Dundalk-born, JJ, dundalk-born
actor, NN, act
Gerry, NNP, gerry
Dublin, NNP, dublin
as, IN, as
tributes, NNS, tribut
to, TO, to
the, DT, the
47-year-old, JJ, 47-year-old
poured, VBN, pour
in, IN, in
from, IN, from
family, NN, famy
and, CC, and
friends, NNS, friend
in, IN, in
the, DT, the
acting, JJ, act
community, NN, commun
PayPal, NNP, payp
seeks, VBZ, seek
further, JJ, furth
staff, NN, staff
PAYPAL, NNP, payp
are, VBP, be
seeking, VBG, seek
more, JJR, mor
staff, NN, staff
for, IN, for
their, PRP$, their
seater, NN, seat
Dundalk, NNP, dundalk
operations, NNS, op
Argus, NNP, arg
has, VBZ, hav
learned, VBN, learn
Call, NNP, cal
for, IN, for
CCTV, NNP, cctv
at, IN, at
Row, NNP, row
to, TO, to
end, VB, end
dumping, NN, dump
issue, NN, issu
CCTV, NNP, cctv
should, MD, should
be, VB, be
implemented, VBN, impl
at, IN, at
Defenders, NNPS, defend
to, TO, to
curb, VB, curb
the, DT, the
high, JJ, high
level, NN, level
of, IN, of
rubbish, JJ, rub
being, VBG, be
dumped, VBN, dump
in, IN, in
the, DT, the
area, NN, are
Dundalk, NNP, dundalk
heard, NN, heard
at, IN, at
their, PRP$, their
recent, JJ, rec
meeting, NN, meet
Real, NNP, real
IRA, NNP, ir
freed, VBD, fre
from, IN, from
Lithuanian, NNP, lithu
jail, NN, jail
Company, NNP, company
pleads, VBZ, plead
guilty, NN, guil
in, IN, in
case, NN, cas
linked, VBN, link
to, TO, to
fatal, JJ, fat
accident, NN, accid
Former, NNP, form
brother, NN, broth
jailed, VBD, jail
for, IN, for
abuse, NN, abus
Over, IN, Over
crimes, NNS, crim
dealt, VBD, deal
with, IN, with
at, IN, at
Dundalk, NNP, dundalk
Station, NNP, stat
last, JJ, last
year, NN, year
Court, NNP, court
hears, VBZ, hear
schoolgirls, NNS, schoolgirl
were, VBD, be
offered, VBN, off
cash, NN, cash
to, TO, to
sleep, VB, sleep
with, IN, with
man, NN, man
Classifieds, NNS, class
Any, NNP, any
Aston, NNP, aston
Audi, NNP, aud
Austin, NNP, austin
Bentley, NNP, bentley
BMW, NNP, bmw
Chevrolet, NNP, chevrolet
Chrysler, NNP, chrysler
Citroen, NNP, citro
Daewoo, NNP, daewoo
DAF, NNP, daf
Daimler, NNP, daiml
Ferrari, NNP, ferrar
Honda, NNP, hond
Hyundai, NNP, hyunda
Jaguar, NNP, jagu
Lancia, NNP, lanc
Land, NNP, land
LDV, NNP, ldv
