Spanish, JJ, span
Wednesday, NNP, wednesday
Economy, NNP, econom
Envt, NNP, envt
Archive, NNP, arch
Articles, NNP, artic
Ukrainian, NNP, ukrain
Bohdan, NNP, bohd
Essa, NNP, ess
was, VBD, be
fine, NN, fin
Bondarenko, NNP, bondarenko
is, VBZ, be
today, NN, today
the, DT, the
best, JJS, best
jumper, NN, jump
in, IN, in
the, DT, the
world, NN, world
and, CC, and
could, MD, could
surpass, VB, surpass
that, IN, that
level, NN, level
Sotomayor, NNP, sotomay
acknowledged, VBD, acknowledg
in, IN, in
an, DT, an
interview, NN, interview
published, VBD, publ
on, IN, on
Monday, NNP, monday
in, IN, in
Granma, NNP, granm
newspaper, NN, newspap
Cuban, NNP, cub
athtle, NN, athtl
Ukranian, NNP, ukr
champion, NN, champ
was, VBD, be
close, JJ, clos
to, TO, to
exceed, VB, excess
two, CD, two
meters, NNS, met
and, CC, and
46, CD, 46
centimeters, NNS, centimet
in, IN, in
its, PRP$, its
second, JJ, second
of, IN, of
three, CD, three
attempts, NNS, attempt
for, IN, for
the, DT, the
final, JJ, fin
phase, NN, phas
of, IN, of
the, DT, the
specialty, NN, special
in, IN, in
the, DT, the
Moscow, NNP, moscow
Bondarenko, NNP, bondarenko
Lausanne, NNP, lausan
Sotomayor, NNP, sotomay
Stuttgart, NNP, stuttgart
Ukranian, NNP, ukr
also, RB, also
wanted, VBD, want
to, TO, to
shatter, VB, shat
the, DT, the
all-time, JJ, all-time
record, NN, record
of, IN, of
the, DT, the
Cuban, NNP, cub
Spanish, NNP, span
city, NN, city
of, IN, of
Salamanca, NNP, salamanc
20, CD, 20
years, NNS, year
ago, RB, ago
Essa, NNP, ess
Canadian, JJ, canad
Derek, NNP, derek
Prensa, NNP, prens
Cuban, NNP, cub
vaulter, NN, vault
wins, VBZ, win
bronze, NN, bronz
in, IN, in
Diamond, NNP, diamond
LeagueJamaica, NNP, leaguejamaic
Caribbean, NNP, carib
in, IN, in
MoscowAthletics, NNP, moscowathlet
Cuban, NNP, cub
HurdlerCuban, NNP, hurdlercub
Triple, NNP, tripl
Jumper, NNP, jump
Gets, NNPS, get
to, TO, to
the, DT, the
Finals, NNS, fin
in, IN, in
MoscowCuban, NNP, moscowcub
for, IN, for
Medal, NNP, med
at, IN, at
Moscow, NNP, moscow
ChampionshipCuban, NNP, championshipcub
Pole, NNP, pol
vaulter, NN, vault
Yarisley, NNP, yarisley
Got, NNP, got
the, DT, the
Bronze, NNP, bronz
at, IN, at
World, NNP, world
ChampionshipCuban, NNP, championshipcub
Sets, NNPS, set
the, DT, the
Year, NNP, year
World, NNP, world
Mark, NNP, mark
in, IN, in
400-m, CD, 400-m
Hurdles, NNS, hurdl
in, IN, in
MoscowCuban, NNP, moscowcub
another, DT, another
Title, NNP, titl
at, IN, at
French, NNP, french
TournamentAthletics, NNP, tournamentathlet
Central, NNP, cent
TournamentCuban, NNP, tournamentcub
Trio, NNP, trio
to, TO, to
Attend, NNP, attend
the, DT, the
Ostrava, NNP, ostrav
Meeting, NNP, meet
TodayCuban, NNP, todaycub
Pole, NNP, pol
Vaulter, NNP, vault
Lazaro, NNP, lazaro
Borges, NNP, borg
in, IN, in
World, NNP, world
ChampionshipsUsain, NNP, championshipsusain
Bolt, NNP, bolt
to, TO, to
Face, NNP, fac
to, TO, to
Classify, NNP, class
to, TO, to
World, NNP, world
ContestsFive, NNP, contestsf
Cubans, NNP, cub
to, TO, to
Be, VB, be
Present, NNP, pres
Today, NNP, today
in, IN, in
Rome, NNP, rom
Athletics, NNP, athlet
Diamond, NNP, diamond
Gets, NNPS, get
Bronze, NNP, bronz
in, IN, in
Diamond, NNP, diamond
Latest, NNP, latest
..., :, ...
It, PRP, It
's, VBZ, 's
Hard, NNP, hard
to, TO, to
Recall, NNP, recal
behind, IN, behind
Bars, NNP, bar
on, IN, on
his, PRP$, his
55, CD, 55
BirthdayGrowing, NNP, birthdaygrow
Public, NNP, publ
Support, NNP, support
for, IN, for
Health, NNP, heal
of, IN, of
Argentina, NNP, argentin
's, POS, 's
President, NNP, presid
FAO, NNP, fao
's, POS, 's
Food, NNP, food
Security, NNP, sec
Efforts, NNP, effort
India, NNP, ind
Concerned, NNP, concern
about, IN, about
Chinese, JJ, chines
Sale, NNP, sal
of, IN, of
Nuclear, NNP, nuclear
to, TO, to
Pakistan, NNP, pak
Camerata, NNP, camerat
Chamber, NNP, chamb
Music, NNP, mus
in, IN, in
Camag\u00fceyHavana, NNP, camag\u00fceyhavan
Hosts, NNPS, host
International, NNP, intern
on, IN, on
Current, NNP, cur
World, NNP, world
viewed, VBD, view
..., :, ...
Cuba, NNP, cub
in, IN, in
the, DT, the
International, NNP, intern
MarketCuba, NNP, marketcub
for, IN, for
Fight, NNP, fight
against, IN, against
Poverty, NNP, poverty
to, TO, to
Eradicate, NNP, erad
LaborBrazilian, NNP, laborbrazil
in, IN, in
Cuban, NNP, cub
AgribusinessChe\u2019s, NNP, agribusinessche\u2019s
Ideas, NNP, idea
Play, NNP, play
Crucial, NNP, cruc
Role, NNP, rol
in, IN, in
Updating, NNP, upd
Cuba\u2019s, NNP, cuba\u2019s
Socio-economic, JJ, socio-economic
ModelThe, NNP, modelth
FAO, NNP, fao
Acknowledges, NNP, acknowledg
Cuba\u2019s, NNP, cuba\u2019s
Contribution, NNP, contribut
to, TO, to
South-South, NNP, south-sou
CooperationCuba, NNP, cooperationcub
and, CC, and
Brazil, NNP, brazil
to, TO, to
Hold, NNP, hold
on, IN, on
Sugar, NNP, sug
..., :, ...
October, NNP, octob
2013, CD, 2013
SuMoTuWeThFrSa, NNP, sumotuwethfrs
12345, CD, 12345
6789101112, CD, 6789101112
13141516171819, CD, 13141516171819
20212223242526, CD, 20212223242526
2728293031, CD, 2728293031
Home, NNP, hom
Economy, NNP, econom
Envt, NNP, envt
Archive, NNP, arch
Cadena, NNP, caden
http, NN, http
