Merkel, NNP, merkel
's, POS, 's
big, JJ, big
victory, NN, vict
proving, VBG, prov
German, NN, germ
government, NN, govern
Christian, NNP, christian
Angela, NNP, angel
Germany, NNP, germany
's, POS, 's
general, JJ, gen
elections, NNS, elect
on, IN, on
Sept., NNP, sept.
22, CD, 22
Christian, NNP, christian
CDU, NNP, cdu
CDU, NNP, cdu
for, IN, for
fear, NN, fear
of, IN, of
being, VBG, be
marginalized.To, JJ, marginalized.to
form, NN, form
CDU, NNP, cdu
and, CC, and
its, PRP$, its
center-left, JJ, center-left
rival, NN, riv
Social, NNP, soc
SPD, NNP, spd
CDU, NNP, cdu
will, MD, will
not, RB, not
come, VB, com
back, RB, back
to, TO, to
bite, VB, bit
them, PRP, them
Europe, NNP, europ
Berlin, NNP, berlin
for, IN, for
CDU, NNP, cdu
's, POS, 's
former, JJ, form
junior, NN, juny
partner, NN, partn
Free, NNP, fre
Bundestag, NNP, bundest
German, NNP, germ
parliament, NN, parlia
Left, NNP, left
Merkel, NNP, merkel
with, IN, with
two, CD, two
potential, JJ, pot
candidates, NNS, candid
Green, NNP, green
or, CC, or
the, DT, the
SPD, NNP, spd
Germany, NNP, germany
and, CC, and
the, DT, the
counterweight, NN, counterweight
to, TO, to
the, DT, the
Christian, NNP, christian
Democrats, NNPS, democr
.Neither, JJ, .neither
of, IN, of
the, DT, the
two, CD, two
seems, VBZ, seem
too, RB, too
eager, JJR, eag
to, TO, to
join, VB, join
up, RP, up
with, IN, with
the, DT, the
Christian, NNP, christian
Democrats.\u201cIt, NN, democrats.\u201cit
would, MD, would
be, VB, be
bad, JJ, bad
for, IN, for
the, DT, the
country, NN, country
and, CC, and
bad, JJ, bad
for, IN, for
the, DT, the
party, NN, party
Social, JJ, soc
member, NN, memb
Myriam, NNP, myriam
says, VBZ, say
CDU, NNP, cdu
Social, NNP, soc
German, NNP, germ
public, NN, publ
Social, NNP, soc
Social, NNP, soc
lost, VBD, los
Merkel, NNP, merkel
formed, VBD, form
Free, NNP, fre
Riedel, NNP, riedel
says, VBZ, say
Free, NNP, fre
seems, VBZ, seem
to, TO, to
suggest, VB, suggest
that, IN, that
whoever, JJR, whoev
surrenders, NNS, surrend
to, TO, to
Merkel\u2019s, NNS, merkel\u2019s
powerful, JJ, pow
embrace, NN, embrac
finds, NNS, find
themselves, PRP, themselves
crushed, VBD, crush
Green, NNP, green
do, VBP, do
not, RB, not
want, VB, want
to, TO, to
make.\u201cWe, JJ, make.\u201cw
are, VBP, be
very, RB, very
skeptical, JJ, skept
if, IN, if
there, EX, there
is, VBZ, be
enough, RB, enough
common, JJ, common
ground, NN, ground
for, IN, for
our, PRP$, our
two, CD, two
parties, NNS, party
to, TO, to
form, NN, form
Green, NNP, green
party, NN, party
member, NN, memb
Lisa, NNP, lis
says.Two, NNP, says.two
decades, VBZ, decad
ago, RB, ago
even, RB, ev
the, DT, the
thought, NN, thought
of, IN, of
such, JJ, such
Greens, NNP, green
have, VBP, hav
broadened, VBN, broad
their, PRP$, their
program, NN, program
considerably, RB, consid
beyond, IN, beyond
ecological, JJ, ecolog
issues, NNS, issu
SPD, NNP, spd
Paus, NNP, pau
says, VBZ, say
Merkel, NNP, merkel
is, VBZ, be
smart, NN, smart
enough, RB, enough
to, TO, to
know, VB, know
that.\u201dTHE, JJ, that.\u201dthe
OBVIOUS, NNP, obvy
CHOICEFor, NNP, choicef
many, JJ, many
observers, NNS, observ
though, IN, though
Alan, NNP, al
Europe, NNP, europ
Mr., NNP, mr.
says, VBZ, say
Social, NNP, soc
Michael, NNP, michael
H\u00fcther, NNP, h\u00fcther
Cologne, NNP, cologn
for, IN, for
Economic, NNP, econom
Research.\u201cThe, NNP, research.\u201cthe
Social, NNP, soc
will, MD, will
get, VB, get
on, IN, on
board, NN, board
Merkel, NNP, merkel
is, VBZ, be
going, VBG, go
to, TO, to
give, VB, giv
it, PRP, it
to, TO, to
them.\u201d, VB, them.\u201d
Related, NNP, rel
stories, NNS, story
Think, NNP, think
you, PRP, you
know, VBP, know
Europe, NNP, europ
Angela, NNP, angel
's, POS, 's
back, NN, back
for, IN, for
Germany, NNP, germany
Europe, NNP, europ
csmonitor.com, NNP, csmonitor.com
Become, NNP, becom
Subscribe, NNP, subscrib
to, TO, to
our, PRP$, our
RSS, NNP, rss
feeds, NNS, fee
Merkel, NNP, merkel
's, POS, 's
personal, JJ, person
victory, NN, vict
was, VBD, be
at, IN, at
the, DT, the
expense, NN, expens
of, IN, of
the, DT, the
other, JJ, oth
conservative, JJ, conserv
parties, NNS, party
Social, JJ, soc
lost, VBD, los
votes, NNS, vot
also, RB, also
Merkel, NNP, merkel
German, JJ, germ
socialism, NN, soc
is, VBZ, be
more, RBR, mor
fragmented, VBN, frag
Patrick, NNP, patrick
Merkel, NNP, merkel
Washington, NNP, washington
have, VBP, hav
no, DT, no
clue, NN, clu
Merkel, NNP, merkel
brought, VBD, bring
Germany, NNP, germany
out, IN, out
of, IN, of
the, DT, the
recession, NN, recess
and, CC, and
in, IN, in
to, TO, to
Euro, NNP, euro
budged, VBD, budg
Germany, NNP, germany
was, VBD, be
worst, JJ, bad
off, NN, off
then, RB, then
our, PRP$, our
Country, NNP, country
is, VBZ, be
now, RB, now
Party, NNP, party
's, POS, 's
work, NN, work
with, IN, with
each, DT, each
other, JJ, oth
Fletcher, NNP, fletch
was, VBD, be
Lady, NNP, lady
Merkel, NNP, merkel
is, VBZ, be
toping, VBG, top
that, IN, that
record, NN, record
Tex_21, NNP, tex_21
Merkel, NNP, merkel
has, VBZ, hav
Merkel, NNP, merkel
and, CC, and
CDU/CSU, NNP, cdu/csu
are, VBP, be
running, VBG, run
their, PRP$, their
party, NN, party
as, IN, as
well, RB, wel
Merkel, NNP, merkel
ruthless, NN, ruthless
filched, VBD, filch
votes, NNS, vot
from, IN, from
the, DT, the
FDP, NNP, fdp
in, IN, in
this, DT, this
last, JJ, last
election, NN, elect
in, IN, in
order, NN, ord
to, TO, to
get, VB, get
the, DT, the
most, JJS, most
possible, JJ, poss
votes, NNS, vot
for, IN, for
the, DT, the
CDU/CSU, NNP, cdu/csu
FDP, NNP, fdp
below, IN, below
the, DT, the
threshold, NN, threshold
and, CC, and
now, RB, now
they, PRP, they
are, VBP, be
not, RB, not
an, DT, an
option, NN, opt
for, IN, for
coalition, NN, coalit
partners, NNS, partn
SPD, NNP, spd
has, VBZ, hav
to, TO, to
decide, VB, decid
how, WRB, how
badly, RB, bad
they, PRP, they
want, VBP, want
to, TO, to
be, VB, be
in, IN, in
government, NN, govern
considering, VBG, consid
how, WRB, how
badly, RB, bad
burned, VBN, burn
they, PRP, they
were, VBD, be
the, DT, the
last, JJ, last
time, NN, tim
they, PRP, they
were, VBD, be
in, IN, in
coalition, NN, coalit
with, IN, with
the, DT, the
CDU, NNP, cdu
Merkel, NNP, merkel
*really*, -NONE-, *really*
willing, VBG, wil
to, TO, to
cut, VB, cut
deals, NNS, deal
Spain, NNP, spain
Itary, NNP, it
and, CC, and
Greece, NNP, greec
in, IN, in
EU, NNP, eu
at, IN, at
one, CD, one
gulp, NN, gulp
Bill, NNP, bil
SPD, NNP, spd
can, MD, can
join, VB, join
Greens, NNP, green
can, MD, can
join, VB, join
and, CC, and
be, VB, be
happy, JJ, happy
to, TO, to
be, VB, be
given, VBN, giv
ONLY, RB, on
portfolios, VBZ, portfolio
they, PRP, they
're, VBP, 're
suited, VBN, suit
for, IN, for
Defense, NNP, defens
DB, NNP, db
wo, MD, wo
n't, RB, n't
have, VB, hav
it, PRP, it
Try, NNP, try
to, TO, to
beat, VB, beat
Merkel, NNP, merkel
again, RB, again
commentsNews, NNP, commentsnew
HomeU.S.WorldTechPoliticsScienceHealthBlogsSet, NNP, homeu.s.worldtechpoliticssciencehealthblogsset
My, NNP, my
LocationSign, NNP, locationsign
inSettings, NNP, inset
