HuffPost, NNP, huffpost
's, POS, 's
QuickRead, NNP, quickread
..., :, ...
Loading, NNP, load
..., :, ...
HuffPost, NNP, huffpost
's, POS, 's
QuickRead, NNP, quickread
..., :, ...
Loading, NNP, load
..., :, ...
Movies, NNPS, movy
iOS, NNP, io
app, NN, ap
Android, NNP, android
app, NN, ap
More, NNP, mor
in, IN, in
Create, NNP, cre
Profile, NNP, profil
Settings, NNP, set
Logout, NNP, logout
topnav_margin_btm, NNP, topnav_margin_btm
U.S., NNP, u.s.
CA, NNP, ca
Canada, NNP, canad
Espa\u00f1a, NNP, espa\u00f1
FR, NNP, fr
France, NNP, frant
IT, NNP, it
Italia, NNP, ital
\u65e5\u672c, NNP, \u65e5\u672c
Japan, NNP, jap
Maghreb, NNP, maghreb
States, NNPS, stat
FRONT, NNP, front
PAGE, NNP, pag
Entertainment, NNP, entertain
Paul, NNP, paul
Cyrus312, NNP, cyrus312
Joseph, NNP, joseph
Gordon-Levitt, NNP, gordon-levitt
Denies, NNPS, deny
He, NNP, he
's, POS, 's
Playing, NNP, play
'Ant-Man'72, NNP, 'ant-man'72
If, NNP, if
The, NNP, the
Plastics, NNP, plast
Had, NNP, had
iPhones, NNP, iphon
Like, NNP, lik
's, POS, 's
Chief, NNP, chief
Of, NNP, of
Dies52, NNP, dies52
Rock, NNP, rock
Hall, NNP, hal
Of, NNP, of
Fame, NNP, fam
Nominees, NNP, nomin
Announced859, NNP, announced859
Go, NNP, go
to, TO, to
Entertainment, NNP, entertain
More, NNP, mor
in, IN, in
Entertainment, NNP, entertain
Celebrity, NNP, celebr
TV, NNP, tv
You, NNP, you
might, MD, might
also, RB, also
like, VB, lik
Comedy, NNP, comedy
Moviefone, NNP, moviefon
TV, NNP, tv
The, NNP, the
Highest, NNP, highest
TV, NNP, tv
Actors, NNP, act
Are, NNP, ar
..., :, ...
381, CD, 381
Anthony, NNP, anthony
Awesome, NNP, awesom
'Breaking, NNP, 'breaking
Bad'822, NNP, bad'822
Who, NNP, who
Was, NNP, was
Eliminated, NNP, elimin
On, NNP, on
'DWTS, NNP, 'dwts
Photos, NNP, photo
Best44, NNP, best44
Season, NNP, season
Replay, NNP, replay
TV, NNP, tv
Spoilers, NNP, spoil
Maureen, NNP, maureen
might, MD, might
also, RB, also
like, VB, lik
Celebrity, NNP, celebr
In, NNP, in
Press, NNP, press
Chuck, NNP, chuck
BLOWS, NNP, blow
UP, NNP, up
At, NNP, at
Ted, NNP, ted
Cruz2.1k, NNP, cruz2.1k
SORRY, NNP, sorry
Glenn, NNP, glen
Leaving, NNP, leav
The, NNP, the
Guardian, NNP, guard
Venture1.1k, NNP, venture1.1k
'The, NNP, 'the
View, NNP, view
Denies, NNPS, deny
Rumor68, NNP, rumor68
to, TO, to
Media, NNP, med
in, IN, in
Media, NNP, med
Eat, NNP, eat
The, NNP, the
Press, NNP, press
Calderone, NNP, calderon
Backstory, NNP, backst
You, NNP, you
might, MD, might
also, RB, also
like, VB, lik
Entertainment, NNP, entertain
TV, NNP, tv
Comedy, NNP, comedy
Arts, NNP, art
Books, NNP, book
Comedy, NNP, comedy
17, CD, 17
Actually, NNP, act
Clever, NNP, clev
Halloween, NNP, halloween
Costumes261, NNP, costumes261
The, NNP, the
Meanest, NNP, meanest
Cats, NNPS, cat
Do, NNP, do
To, NNP, to
Dogs113, NNP, dogs113
n't, RB, n't
Know, VB, know
This, DT, This
MAJOR, NNP, maj
Fact1k, NNP, fact1k
Bill, NNP, bil
's, POS, 's
New, NNP, new
John, NNP, john
's, POS, 's
Lack, NNP, lack
Diversity292, NNP, diversity292
Go, NNP, go
to, TO, to
Comedy, NNP, comedy
in, IN, in
Comedy, NNP, comedy
Political, NNP, polit
Humor, NNP, hum
Original, NNP, origin
Video, NNP, video
Crossing, NNP, cross
The, NNP, the
Line, NNP, lin
might, MD, might
also, RB, also
like, VB, lik
Entertainment, NNP, entertain
TV, NNP, tv
