Site, NNP, sit
Blogs, NNP, blog
Places, NNPS, plac
Events, NNP, ev
Music, NNP, mus
Movies, NNPS, movy
Phoenix, NNP, phoenix
NewsLocal, NNP, newsloc
BlogFeathered, NNP, blogfeath
BastardSpecial, NNP, bastardspec
ReportsAsk, NNP, reportsask
MexicanArchives, NNP, mexicanarch
SearchWeekly, NNP, searchweek
NewsletterGet, NNP, newsletterget
Mobile, NNP, mobl
ARCHIVES, NNP, arch
Phoenix, NNP, phoenix
PicksSubmit, NNP, pickssubmit
an, DT, an
EventEvents, NNP, eventev
NewsletterGet, NNP, newsletterget
MobileEntertainment, NNP, mobileentertain
AdsTickets, NNP, adsticket
MusicMusic, NNP, musicmus
BlogConcert, NNP, blogconcert
CalendarPhoenix, NNP, calendarphoenix
NightlifeSubmit, NNP, nightlifesubmit
an, DT, an
EventMusic, NNP, eventmus
NewsletterGet, NNP, newsletterget
Mobile, NNP, mobl
ARCHIVES, NNP, arch
Phoenix, NNP, phoenix
BlogRestaurant, NNP, blogresta
ReviewsFind, NNP, reviewsfind
RestaurantHappy, NNP, restauranthappy
HoursDealsDining, NNP, hoursdealsdin
NewsletterGet, NNP, newsletterget
MobileRestaurant, NNP, mobileresta
Ads, NNP, ad
ARCHIVES, NNP, arch
Phoenix, NNP, phoenix
BlogPhoenix, NNP, blogphoenix
TheaterBig, NNP, theaterbig
Brain, NNP, brain
GoddessArts, NNP, goddessart
NewsletterGet, NNP, newsletterget
MobileEntertainment, NNP, mobileentertain
Ads, NNP, ad
ARCHIVES, NNP, arch
Phoenix, NNP, phoenix
TrailersPodcastFilm, NNP, trailerspodcastfilm
NewsletterGet, NNP, newsletterget
MobileFree, NNP, mobilefr
Stuff, NNP, stuff
Things, NNP, thing
to, TO, to
do, VB, do
in, IN, in
Phoenix2013201220112010Best, NNP, phoenix2013201220112010best
NewsletterGet, NNP, newsletterget
MobileBest, NNP, mobilebest
Of, NNP, of
AdsBest, NNP, adsbest
of, IN, of
Phoenix, NNP, phoenix
A'fare, JJ, a'fare
Phoenix, NNP, phoenix
PromotionsPromotional, NNP, promotionspromot
EventsStreet, NNP, eventsstreet
TeamFree, NNP, teamfr
StuffPromotions, NNP, stuffpromot
NewsletterGet, NNP, newsletterget
MobileDealsTicketsBest, NNP, mobiledealsticketsbest
of, IN, of
Phoenix, NNP, phoenix
A'fare, JJ, a'fare
Phoenix, NNP, phoenix
ClassifiedsJobsLiving, NNP, classifiedsjobsl
SpacesAlternative, NNP, spacesaltern
LifestyleAdvertiser, NNP, lifestyleadvert
IndexDeals, NNP, indexd
NewsletterDealsThe, NNP, newsletterdealsth
Bulletin, NNP, bulletin
BoardCirculation, NNP, boardcirc
Locations, NNP, loc
Top, NNP, top
blog, NN, blog
Stories, NNPS, story
Six, NNP, six
Reasons, NNPS, reason
Dance, NNP, dant
at, IN, at
Your, PRP$, Your
Wedding, NNP, wed
By, NNP, by
Drew, NNP, drew
Compliment, NNP, comply
River, NNP, riv
Stage, NNP, stag
Like, NNP, lik
Derek, NNP, derek
's, POS, 's
Metal, NNP, met
By, NNP, by
Benjamin, NNP, benjamin
of, IN, of
The, DT, The
..., :, ...
By, NNP, by
Mike, NNP, mik
Must-See, NNP, must-see
Phoenix, NNP, phoenix
This, NNP, thi
Week, NNP, week
By, NNP, by
Phoenix, NNP, phoenix
at, IN, at
Ovations, NNPS, ov
PHOTOS, NNP, photo
Anthony, NNP, anthony
Andrew, NNP, andrew
Hip-Hop, NNP, hip-hop
By, NNP, by
Nicki, NNP, nick
This, NNP, thi
World, NNP, world
--, :, --
..., :, ...
By, IN, By
Troy, NNP, troy
Preview, NNP, preview
Why, NNP, why
Buckethead, NNP, buckethead
's, POS, 's
Better, NNP, bet
than, IN, than
in, IN, in
Guns, NNP, gun
'N, NNP, 'n
Roses, NNP, ros
D'Andrea, NNP, d'andrea
Wed., NNP, wed.
Jun, NNP, jun
Show, NNP, show
CommonsBuckethead\u200bVirtuoso, NNP, commonsbuckethead\u200bvirtuoso
Brian, NNP, bri
Buckethead, NNP, buckethead
Jordan, NNP, jord
'', '', ''
contains, VBZ, contain
some, DT, some
of, IN, of
the, DT, the
most, RBS, most
infectiously, RB, infecty
fuzzy, JJ, fuzzy
guitar, NN, guit
riffs, NNS, riff
Frozen, NNP, froz
'', '', ''
includes, VBZ, includ
an, DT, an
eerie, NN, eery
Buckethead, NNP, buckethead
creates, VBZ, cre
--, :, --
whatever, IN, whatever
you, PRP, you
expect, VBP, expect
Frank, NNP, frank
Buckethead, NNP, buckethead
's, POS, 's
solo, NN, solo
works, NNS, work
Guns, NNP, gun
Roses, NNP, ros
Guns, NNP, gun
Roses, NNP, ros
Buckethead, NNP, buckethead
continues, VBZ, continu
to, TO, to
actively, RB, act
record, VB, record
and, CC, and
tour, PRP$, tour
The, DT, The
Theater, NNP, the
in, IN, in
Mesa, NNP, mes
on, IN, on
Friday, NNP, friday
Guns, NNP, gun
Roses, NNP, ros
released, VBD, releas
this, DT, this
statement, NN, stat
after, IN, after
Buckethead, NNP, buckethead
's, POS, 's
departure, NN, depart
from, IN, from
the, DT, the
band, NN, band
in, IN, in
2004, CD, 2004
Buckethead, NNP, buckethead
has, VBZ, hav
been, VBN, be
inconsistent, JJ, inconsist
and, CC, and
erratic, JJ, er
in, IN, in
both, DT, both
his, PRP$, his
behavior, NN, behavy
and, CC, and
his, PRP$, his
commitment, NN, commit
Axl, NNP, axl
Rose, NNP, ros
insists, NNS, insist
on, IN, on
being, VBG, be
that, IN, that
sole, JJ, sol
star, NN, star
Buckethead, NNP, buckethead
--, :, --
not, RB, not
even, RB, ev
Rose.If, JJ, rose.if
Buckethead, NNP, buckethead
had, VBD, hav
stayed, VBN, stay
in, IN, in
Guns, NNP, gun
'N, NNP, 'n
Roses, NNP, ros
and, CC, and
ignored, VBD, ign
his, PRP$, his
solo, NN, solo
projects, NNS, project
'N, NNP, 'n
's, POS, 's
Chinese, JJ, chines
was, VBD, be
continually, RB, contin
delayed, VBN, delay
Rose, NNP, ros
kept, VBD, keep
himself, PRP, himself
busy, RB, busy
suing, VBG, sue
people, NNS, peopl
Geffen, NNP, geff
and, CC, and
former, JJ, form
Irving, NNP, irv
Roses, NNP, ros
album, NN, alb
ever, RB, ev
Buckethead, NNP, buckethead
had, VBD, hav
held, VBN, hold
