IN, IN, IN
YOUR, PRP$, YOUR
COMMUNITY, NN, commun
Cars, NNP, car
Find, NNP, find
Dealer, NNP, deal
\u00bb, NNP, \u00bb
Rentals, NNP, rent
Communities, NNP, commun
\u00bb, NNP, \u00bb
Garage, NNP, gar
Celebrations, NNPS, celebr
Autos, NNP, auto
an, DT, an
Ad, NNP, ad
Obituaries, NNPS, obitu
Obituaries, NNP, obitu
FIND, NNP, find
SAVE, NNP, sav
Find, NNP, find
Medicine, NNP, medicin
Your, NNP, yo
Business, NNP, busy
More, NNP, mor
\u00bb, NNP, \u00bb
Traffic, NNP, traff
RSS, NNP, rss
Sign, NNP, sign
in, IN, in
Satellite, NNP, satellit
OregonLive.com, NNP, oregonlive.com
Sign, NNP, sign
in, IN, in
News, NNP, new
Follow, NNP, follow
us, PRP, us
Twitter, NNP, twit
RSS, NNP, rss
Loading, NNP, load
headlines, VBZ, headlin
..., :, ...
News, NNP, new
\u00bb, NNP, \u00bb
Fitness, NNP, fit
The, NNP, the
Hillsboro, NNP, hillsboro
Oregonian, NNP, oregon
Weather, NNP, weath
Business, NNP, busy
Business, NNP, busy
Follow, NNP, follow
us, PRP, us
Twitter, NNP, twit
RSS, NNP, rss
Loading, NNP, load
headlines, VBZ, headlin
..., :, ...
Business, NNP, busy
\u00bb, NNP, \u00bb
Business, NNP, busy
Profits, NNP, profit
Desk, NNP, desk
Silicon, NNP, silicon
News, NNP, new
It, NNP, it
's, POS, 's
Only, NNP, on
Blog, NNP, blog
US, NNP, us
Twitter, NNP, twit
RSS, NNP, rss
Loading, NNP, load
headlines, VBZ, headlin
..., :, ...
Sports, NNS, sport
Home, NNP, hom
\u00bb, :, \u00bb
Featured, NNP, feat
headlines, VBZ, headlin
..., :, ...
All, DT, All
Sports, NNS, sport
Topics, NNP, top
\u00bb, NNP, \u00bb
Blazers, NNPS, blaz
NCAA, NNP, nca
Pac-12, NNP, pac-12
Beavers, NNP, beav
Pilots, NNP, pilot
MLB, NNP, mlb
Track, NNP, track
Field, NNP, field
NFL, NNP, nfl
Winterhawks, NNP, winterhawk
H.S, NNP, h.s
High, JJ, high
Follow, NNP, follow
us, PRP, us
Twitter, NNP, twit
RSS, NNP, rss
Loading, NNP, load
headlines, VBZ, headlin
..., :, ...
High, JJ, high
School, NNP, school
\u00bb, NNP, \u00bb
School, NNP, school
\u00bbAll, NNP, \u00bball
High, NNP, high
School, NNP, school
\u00bb, NNP, \u00bb
Football, NNP, footbal
your, PRP$, your
school, NN, school
Boys, NNP, boy
news, NN, new
Girls, NNS, girl
Basketball, NNP, basketbal
Recruiting, NNP, recruit
Track, NNP, track
Field, NNP, field
Follow, NNP, follow
us, PRP, us
Twitter, NNP, twit
RSS, NNP, rss
Loading, NNP, load
headlines, VBZ, headlin
..., :, ...
Entertainment, NNP, entertain
Home, NNP, hom
\u00bb, NNP, \u00bb
Books, NNP, book
Puzzles, NNP, puzzl
Recipes, NNP, recip
Gardens, NNP, gard
2013, CD, 2013
Outdoors, NNP, outdo
Events, NNP, ev
Parenting, NNP, par
Music, NNP, mus
Pets, NNPS, pet
Performance, NNP, perform
Travel, NNP, travel
TV, NNP, tv
Movies, NNP, movy
us, PRP, us
Twitter, NNP, twit
RSS, NNP, rss
Clackamas, NNP, clackama
County, NNP, county
Happy, NNP, happy
Valley, NNP, valley
Washington, NNP, washington
County, NNP, county
Aloha, NNP, aloh
North, NNP, nor
of, IN, of
26, CD, 26
Beaverton, NNP, beaverton
TV, NNP, tv
Movies, NNP, movy
Recipes, NNP, recip
Gardens, NNP, gard
Pets, NNPS, pet
more, RBR, mor
Sign, NNP, sign
in, IN, in
to, TO, to
OregonLive.com, NNP, oregonlive.com
