HuffPost, NNP, huffpost
's, POS, 's
QuickRead, NNP, quickread
..., :, ...
Loading, NNP, load
..., :, ...
HuffPost, NNP, huffpost
's, POS, 's
QuickRead, NNP, quickread
..., :, ...
Loading, NNP, load
..., :, ...
Halloween, NNP, halloween
iOS, NNP, io
app, NN, ap
Android, NNP, android
app, NN, ap
Log, NNP, log
in, IN, in
Create, NNP, cre
Profile, NNP, profil
Settings, NNP, set
Logout, NNP, logout
topnav_margin_btm, NNP, topnav_margin_btm
U.S., NNP, u.s.
CA, NNP, ca
Canada, NNP, canad
Espa\u00f1a, NNP, espa\u00f1
FR, NNP, fr
France, NNP, frant
IT, NNP, it
Italia, NNP, ital
\u65e5\u672c, NNP, \u65e5\u672c
Japan, NNP, jap
Maghreb, NNP, maghreb
States, NNPS, stat
FRONT, NNP, front
PAGE, NNP, pag
Style, NNP, styl
We, NNP, we
Ca, NNP, ca
n't, RB, n't
Believe, NNP, believ
Ever, NNP, ev
Thought, NNP, thought
These, NNP, thes
Glasses, NNP, glass
Were, NNP, wer
Cool619, NNP, cool619
Plus-Size, NNP, plus-size
Model, NNP, model
Robyn, NNP, robyn
In, NNP, in
The, NNP, the
Sexy, NNP, sexy
We, NNP, we
've, NNP, 've
Been, NNP, been
Waiting, NNP, wait
For875, NNP, for875
Why, NNP, why
Your, NNP, yo
Thong, NNP, thong
May, NNP, may
Be, NNP, be
Bad, NNP, bad
For, NNP, for
Your, NNP, yo
Health868, NNP, health868
The, NNP, the
Worst, NNP, worst
Sexy, NNP, sexy
Halloween, NNP, halloween
Costume, NNP, costum
Is, NNP, is
..., :, ...
21, CD, 21
Beauty, NNP, beauty
Swear, NNP, swear
By, NNP, by
Go, NNP, go
to, TO, to
Style, NNP, styl
in, IN, in
Style, NNP, styl
The, NNP, the
Beauty, NNP, beauty
Page, NNP, pag
Fashion, NNP, fash
Trends, NNPS, trend
Celebrity, NNP, celebr
Style, NNP, styl
You, NNP, you
might, MD, might
also, RB, also
like, VB, lik
Home, NNP, hom
Post, NNP, post
50, CD, 50
Healthy, NNP, healthy
Living, NNP, liv
Desiree, NNP, desir
Lost, NNP, lost
230, CD, 230
Pounds, NNS, pound
Deodorant324, NNP, deodorant324
Quick, NNP, quick
N.J., NNP, n.j.
Sixth-Grader, NNP, sixth-grader
Her, NNP, her
Vision60, NNP, vision60
The, NNP, the
Happiness, NNP, happy
You, NNP, you
're, NNP, 're
Probably, NNP, prob
Making17, NNP, making17
Go, NNP, go
to, TO, to
Healthy, NNP, healthy
in, IN, in
Healthy, NNP, healthy
Living, NNP, liv
GPS, NNP, gps
for, IN, for
the, DT, the
Soul, NNP, soul
Becoming, NNP, becom
Fearless, NNP, fearless
Sleep, NNP, sleep
You, NNP, you
might, MD, might
also, RB, also
like, VB, lik
Food, NNP, food
50, CD, 50
Taste, NNP, tast
Religion, NNP, relig
OWN, NNP, own
Taste, NNP, tast
Completely, NNP, complet
Iron, NNP, iron
LOOK, NNP, look
Food67, NNP, food67
29, CD, 29
Pumpkin, NNP, pumpkin
These, NNP, thes
Are, NNP, ar
America, NNP, americ
's, POS, 's
Best, NNP, best
Beers257, NNP, beers257
Go, NNP, go
to, TO, to
Taste, NNP, tast
in, IN, in
Taste, NNP, tast
Recipes, NNP, recip
Baking, NNP, bak
Entertaining, NNP, entertain
Healthy, NNP, healthy
Eating, NNP, eat
Taste, NNP, tast
Tests, NNP, test
Thanksgiving, NNP, thanksg
You, NNP, you
might, MD, might
also, RB, also
like, VB, lik
Food, NNP, food
's, POS, 's
Unexpected, NNP, unexpect
9/11, CD, 9/11
Tribute92, NNP, tribute92
LOOK, NNP, look
Sexy, NNP, sexy
Exhibition, NNP, exhibit
Focuses, NNP, focus
's, POS, 's
Obsession, NNP, obsess
With, NNP, with
'Hot, JJ, 'hot
Ginger, NNP, ging
Men'96, NNP, men'96
Will, NNP, wil
Survivors160, NNP, survivors160
Finally, NNP, fin
First, NNP, first
NPH, NNP, nph
's, POS, 's
New, NNP, new
Role10, NNP, role10
This, NNP, thi
Is, VBZ, is
What, WP, What
The, DT, The
'Gravity, NN, 'gravity
Movie, NNP, movy
Like31, NNP, like31
Go, NNP, go
to, TO, to
Arts, NNP, art
in, IN, in
Arts, NNP, art
Painting, NNP, paint
Film, NNP, film
Design, NNP, design
Photography, NNP, photograph
Theater, NNP, the
Architecture, NNP, architect
You, NNP, you
might, MD, might
also, RB, also
like, VB, lik
Books, NNP, book
