Bornrich, NNP, bornrich
Richfiles, NNP, richfil
of, IN, of
luxury, NN, luxury
Explore, NNP, expl
Mansions, NNP, mand
Private, NNP, priv
Holiday, NNP, holiday
Destinations, NNP, destin
Maps, NNP, map
Richlist, NNP, richl
Homes, NNP, hom
Private, NNP, priv
jets, NNS, jet
Hobbies, NNPS, hobby
and, CC, and
Cars, NNP, car
Holiday, NNP, holiday
Destinations, NNP, destin
Cause, NNP, caus
on, IN, on
Ireland, NNP, ireland
status, NN, stat
Singer, NNP, sing
U2, NNP, u2
could, MD, could
be, VB, be
now, RB, now
the, DT, the
richest, JJS, rich
musician, JJ, mus
in, IN, in
the, DT, the
world, NN, world
Facebook, NNP, facebook
Elevation, NNP, elev
Facebook, NNP, facebook
IPO, NNP, ipo
Paul, NNP, paul
David, NNP, david
Dublin, NNP, dublin
based, VBN, bas
rock, NN, rock
band, NN, band
U2, NNP, u2
Bono, NNP, bono
has, VBZ, hav
won, VBN, win
record, NN, record
number, NN, numb
of, IN, of
awards, NNS, award
which, WDT, which
includes, VBZ, includ
22, CD, 22
Grammy, NNP, grammy
awards, NNS, award
from, IN, from
34, CD, 34
nominations, NNS, nomin
Golden, NNP, gold
award, NN, award
for, IN, for
best, JJS, best
original, JJ, origin
song, NN, song
Nobel, NNP, nobel
in, IN, in
2003, CD, 2003
Person, NNP, person
of, IN, of
the, DT, the
Year, NN, year
by, IN, by
``, ``, ``
Al, NNP, al
'', '', ''
John, NNP, john
'', '', ''
Philanthropist, NNP, philanthrop
Lennon, NNP, lennon
Louis, NNP, lou
to, TO, to
do, VB, do
Dublin, NNP, dublin
Distance, NNP, dist
does, VBZ, do
not, RB, not
decide, VB, decid
who, WP, who
is, VBZ, be
your, PRP$, your
brother, NN, broth
and, CC, and
who, WP, who
is, VBZ, be
not, RB, not
Music, NNP, mus
can, MD, can
change, VB, chang
the, DT, the
world, NN, world
because, IN, because
it, PRP, it
can, MD, can
change, VB, chang
people, NNS, peopl
Riches, NNP, rich
but, CC, but
You, NNP, you
should, MD, should
see, VB, see
Where, WRB, Where
God, NNP, god
Burma, NNP, burm
this, DT, this
very, RB, very
week, NN, week
Greatest, NNP, greatest
Britons, NNP, briton
'', '', ''
in, IN, in
Irish, JJ, ir
Nationality, NNP, nat
Bono, NNP, bono
and, CC, and
his, PRP$, his
U2, NNP, u2
bandmates, VBZ, bandm
were, VBD, be
nominated, VBN, nomin
for, IN, for
Built, NNP, built
'', '', ''
New, NNP, new
'', '', ''
Eminem, NNP, eminem
's, POS, 's
``, ``, ``
Lose, NNP, los
'', '', ''
Bruce, NNP, bruc
Johnny, NNP, johnny
Jennifer, NNP, jen
Frank, NNP, frank
Luciano, NNP, luciano
Bono, NNP, bono
has, VBZ, hav
enjoyed, VBN, enjoy
several, JJ, sev
forays, NNS, foray
into, IN, into
acting, VBG, act
--, :, --
he, PRP, he
had, VBD, hav
small, JJ, smal
roles, NNS, rol
in, IN, in
``, ``, ``
Million, NNP, mil
'', '', ''
and, CC, and
``, ``, ``
Universe, NNP, univers
Jack, NNP, jack
or, CC, or
tea, NN, tea
Aids, NNP, aid
in, IN, in
Africa, NNP, afric
earned, VBD, earn
him, PRP, him
the, DT, the
Man, NNP, man
of, IN, of
Peace, NNP, peac
title, NN, titl
in, IN, in
2008, CD, 2008
Nobel, NNP, nobel
in, IN, in
2003, CD, 2003
Bono, NNP, bono
and, CC, and
his, PRP$, his
fellow, NN, fellow
U2, NNP, u2
band, NN, band
members, NNS, memb
appeared, VBD, appear
on, IN, on
postage, NN, post
stamps, NNS, stamp
in, IN, in
Ireland, NNP, ireland
Jordan, NNP, jord
English, NNP, engl
Italian, NNP, it
Spanish, NNP, span
and, CC, and
also, RB, also
knows, VBZ, know
some, DT, some
Gaelic, NNP, gael
Bono, NNP, bono
helps, NNS, help
his, PRP$, his
wife, NN, wif
Alison, NNP, alison
's, POS, 's
design, NN, design
clothing, NN, cloth
called, VBN, cal
EDUN, NNP, edun
Bono, NNP, bono
's, POS, 's
onstage, NN, onst
alter-egos, NNS, alter-egos
included, VBD, includ
The, DT, The
Fly, NNP, fly
Mirror, NNP, mir
Mr., NNP, mr.
Bono, NNP, bono
is, VBZ, be
Paul, NNP, paul
Hewson\u2019s, NNP, hewson\u2019s
nickname, VBD, nicknam
Bono, NNP, bono
Latin, NNP, latin
word, NN, word
meaning, VBG, mean
\u2018good, NN, \u2018good
voice\u2019, -NONE-, voice\u2019
Was, NNP, was
invited, VBD, invit
to, TO, to
meet, VB, meet
with, IN, with
Pope, NNP, pop
Sistine, NNP, sistin
Chapel, NNP, chapel
in, IN, in
the, DT, the
Vatican, NNP, vat
on, IN, on
November, NNP, novemb
21, CD, 21
Bono, NNP, bono
and, CC, and
his, PRP$, his
friends, NNS, friend
were, VBD, be
part, NN, part
of, IN, of
Lypton, NNP, lypton
'', '', ''
Pablo, NNP, pablo
Presidential, NNP, presid
Medal, NNP, med
of, IN, of
Honour, NNP, hono
from, IN, from
the, DT, the
Government, NNP, govern
of, IN, of
Chile, NNP, chil
in, IN, in
2004, CD, 2004
IRA, NNP, ir
Irish, NNP, ir
Republican, NNP, republ
Bono, NNP, bono
IRA, NNP, ir
supporters, NNS, support
also, RB, also
attacked, VBD, attack
