Home, NN, hom
Blogs, NNS, blog
Directory, NNP, direct
Travel, NNP, travel
Enter, NNP, ent
your, PRP$, your
search, NN, search
terms, NNS, term
Submit, NNP, submit
search, NN, search
form, NN, form
Web, NNP, web
nazret.com, NNP, nazret.com
nazret.comSportAddisFerengiCommentaryUraelPiazzaMerkatoBulletinworld, NNP, nazret.comsportaddisferengicommentaryuraelpiazzamerkatobulletinworld
nazret.comThe, NNP, nazret.comthe
first, RB, first
Ethiopian, JJ, ethiop
Business, NNP, busy
Sports, NNP, sport
and, CC, and
Style, NNP, styl
in, IN, in
\u00ab, NNP, \u00ab
Gebre, NNP, gebr
elected, VBD, elect
executive, JJ, execut
vice, NN, vic
president, NN, presid
of, IN, of
A.F.L.-C.I.O.Man, JJ, a.f.l.-c.i.o.man
killed, VBN, kil
in, IN, in
Shoreview, NNP, shoreview
had, VBD, hav
been, VBN, be
robbed, VBN, rob
earlier, JJR, ear
in, IN, in
St., NNP, st.
Paul, NNP, paul
\u00bb, NNP, \u00bb
Kenenisa, NNP, kenenis
too, RB, too
much, JJ, much
for, IN, for
Mo, NNP, mo
advertisement, NN, advert
09/15/13, CD, 09/15/13
08:17:39, CD, 08:17:39
pm, NN, pm
nazret.com, NNP, nazret.com
Athletics, NNP, athlet
's, POS, 's
Kenenisa, NNP, kenenis
too, RB, too
much, JJ, much
for, IN, for
Mo, NNP, mo
fulfils, VBZ, fulfil
Farah, NNP, farah
promise, NN, prom
and, CC, and
comes, VBZ, com
back, RP, back
to, TO, to
beat, VB, beat
Mo, NNP, mo
by, IN, by
Ethiopian, NNP, ethiop
legend, NN, legend
stunned, VBD, stun
the, DT, the
home, NN, hom
crowd, NN, crowd
as, IN, as
he, PRP, he
pipped, VBD, pip
Mo, NNP, mo
in, IN, in
the, DT, the
world, NN, world
's, POS, 's
biggest, JJS, big
half, NN, half
marathon, NN, marathon
He, PRP, He
warned, VBD, warn
Mo, NNP, mo
he, PRP, he
would, MD, would
come, VB, com
back, RB, back
to, TO, to
haunt, VB, haunt
him, PRP, him
Kenenisa, NNP, kenenis
made, VBD, mak
good, JJ, good
his, PRP$, his
threat, NN, threat
yesterday, NN, yesterday
Bupa, NNP, bup
Ethiopian, NNP, ethiop
legend, NN, legend
ambushed, VBD, ambush
Farah, NNP, farah
to, TO, to
win, VB, win
the, DT, the
clash, NN, clash
of, IN, of
the, DT, the
titans, NNS, tit
with, IN, with
Farah, NNP, farah
responded, VBD, respond
by, IN, by
challenging, NN, challeng
his, PRP$, his
African, NNP, afr
rival, NN, riv
to, TO, to
London, NNP, london
London, NNP, london
Farah, NNP, farah
Bekele, NNP, bekel
Read, NNP, read
More, NNP, mor
..., :, ...
Tags, NNS, tag
Permalink34, NNP, permalink34
comments, NNS, com
\u00bb, :, \u00bb
