Accessibility, NN, access
links, NNS, link
Skip, NNP, skip
to, TO, to
content, VB, cont
Skip, NNP, skip
to, TO, to
local, JJ, loc
navigation, NN, navig
Accessibility, NNP, access
Help, NNP, help
bbc.co.uk, NNP, bbc.co.uk
navigation, NN, navig
News, NNP, new
TV, NNP, tv
Radio, NNP, radio
More\u2026, NNP, more\u2026
Search, NNP, search
term, NN, term
Arts, NNP, art
UK, NNP, uk
Africa, NNP, afric
Mid-East, NNP, mid-east
US, NNP, us
Canada, NNP, canad
Sci/Environment, NNP, sci/environment
Tech, NNP, tech
Entertainment, NNP, entertain
Video, NNP, video
Delicious, NNP, delicy
reddit, NN, reddit
StumbleUpon, NNP, stumbleupon
back, RB, back
on, IN, on
stage, NN, stag
with, IN, with
Willem, NNP, willem
reporter, NN, report
BBC, NNP, bbc
Mikhail, NNP, mikhail
in, IN, in
The, DT, The
Old, NNP, old
Woman, NNP, wom
Continue, NNP, continu
reading, NN, read
the, DT, the
main, JJ, main
story, NN, story
Related, NNP, rel
