Try, NNP, try
Digital, NNP, digit
campaign, NN, campaign
Bar1, NNP, bar1
In, NNP, in
Register, NNP, reg
Now, NNP, now
Help, NNP, help
Home, NNP, hom
Page, NNP, pag
Today, NNP, today
's, POS, 's
Paper, NNP, pap
Edition, NNP, edit
U.S., NNP, u.s.
Global, NNP, glob
NYTimes.com, NNP, nytimes.com
Sports, NNPS, sport
World, NNP, world
U.S., NNP, u.s.
N.Y., NNP, n.y.
SportsBuy, NNP, sportsbuy
on, IN, on
NYTimes.com, NNP, nytimes.com
SPORTS, NNP, sport
OF, NNP, of
THE, NNP, the
TIMES, NNP, tim
SPORTS, NNP, sport
OF, NNP, of
THE, NNP, the
TIMES, NNP, tim
EDWIN, NNP, edwin
MOSES, NNP, mos
CASE, NNP, cas
By, NNP, by
Ira, NNP, ir
Morehead, NNP, morehead
Edwin, NNP, edwin
Moses, NNP, mos
International, NNP, intern
Olympic, NNP, olymp
Committee, NNP, commit
and, CC, and
the, DT, the
United, NNP, unit
Olympic, NNP, olymp
Committee, NNP, commit
United, NNP, unit
and, CC, and
the, DT, the
American, NNP, am
and, CC, and
numerous, JJ, num
commercial, JJ, commerc
enterprises, NNS, enterpr
Edwin, NNP, edwin
has, VBZ, hav
been, VBN, be
shown, VBN, show
to, TO, to
be, VB, be
vulnerable, JJ, vuln
Moses, NNS, mos
fell, VBD, fel
down, IN, down
at, IN, at
the, DT, the
job, NN, job
of, IN, of
tying, VBG, tie
his, PRP$, his
shoelace, NN, shoelac
Helsinki, NNP, helsink
Finland, NNP, finland
Los, NNP, los
and, CC, and
for, IN, for
an, DT, an
international, JJ, intern
television, NN, televid
audience, NN, audy
of, IN, of
nearly, RB, near
Part, NN, part
way, NN, way
through, IN, through
the, DT, the
43-word, JJ, 43-word
oath, NN, oa
that, WDT, that
he, PRP, he
had, VBD, hav
memorized, VBN, mem
Moses, NNS, mos
Paavo, NNP, paavo
Moses, NNS, mos
's, POS, 's
current, JJ, cur
winning, NN, win
streak, NN, streak
is, VBZ, be
believed, VBN, believ
to, TO, to
be, VB, be
Edwin, NNP, edwin
had, VBD, hav
continued, VBN, continu
to, TO, to
go, VB, go
about, IN, about
his, PRP$, his
business, NN, busy
Dayton, NNP, dayton
Ohio, NNP, ohio
Edwin, NNP, edwin
Moses, NNP, mos
was, VBD, be
Sullivan, NNP, sul
for, IN, for
amateur, NN, am
athlete, NN, athlet
of, IN, of
the, DT, the
year, NN, year
Sports, NNS, sport
's, POS, 's
Sportsman, NNP, sportsm
of, IN, of
the, DT, the
Year, NN, year
and, CC, and
ABC, NNP, abc
's, POS, 's
''Wide, JJ, ''wide
World, NN, world
of, IN, of
Sports, NNS, sport
'', '', ''
Athlete, NNP, athlet
of, IN, of
the, DT, the
Year, NN, year
Edwin, NNP, edwin
collapsed, VBD, collaps
Los, NNP, los
Moses, NNP, mos
Sunset, NNP, sunset
and, CC, and
Genessee, NNP, geness
Moses, NNP, mos
was, VBD, be
hardly, RB, hard
incognito, RB, incognito
Los, NNP, los
area, NN, are
Moses, NNP, mos
Lieut, NNP, lieut
Dan, NNP, dan
Cook, NNP, cook
Los, NNP, los
Police, NNP, pol
Department, NNP, depart
Edwin, NNP, edwin
Gordon, NNP, gordon
Moses, NNP, mos
's, POS, 's
business, NN, busy
manager, NN, man
Lieutenant, NNP, lieut
says, VBZ, say
he, PRP, he
has, VBZ, hav
no, DT, no
idea, NN, ide
how, WRB, how
Lieutenant, NNP, lieut
Moses, NNP, mos
called, VBD, cal
his, PRP$, his
wife, NN, wif
Myrella, NNP, myrell
Baskin, NNP, baskin
Peter, NNP, pet
Los, NNP, los
Olympic, NNP, olymp
Organizing, NNP, org
Committee, NNP, commit
and, CC, and
now, RB, now
the, DT, the
baseball, NN, basebal
commissioner, NN, commit
Ueberroth, NNP, ueberro
New, NNP, new
Los, NNP, los
Moses, NNP, mos
goes, VBZ, go
to, TO, to
trial, NN, tri
Feb., NNP, feb.
Moses, NNP, mos
said, VBD, say
Sunday, NNP, sunday
Sports, NNPS, sport
Edwin, NNP, edwin
This, NNP, thi
week, NN, week
International, NNP, intern
on, IN, on
NYTimes.com, NNP, nytimes.com
From, NNP, from
Herm\u00e8s, NNP, herm\u00e8
\u00bb, NNP, \u00bb
Europe, NNP, europ
's, POS, 's
latest, JJS, lat
urban, NN, urb
success, NN, success
story, NN, story
Sourcing, NNP, sourc
Ralph, NNP, ralph
's, POS, 's
home, NN, hom
collection, NN, collect
Inside, NNP, insid
NYTimes.com, NNP, nytimes.com
Theater, NNP, the
\u00bb, NNP, \u00bb
Model, NNP, model
Donald, NNP, donald
\u00bb, NNP, \u00bb
Rivalry, NNP, rivalry
Cleaves, NNP, cleav
City, NNP, city
\u00bb, NNP, \u00bb
Doctors, NNS, doct
Wine, NNP, win
\u00bb, NNP, \u00bb
Whiskey, NNP, whiskey
\u00bb, NNP, \u00bb
Beyond, NNP, beyond
Boehner\u2019s, NNP, boehner\u2019s
Reach, NNP, reach
When, NNP, when
freedom, NN, freedom
is, VBZ, be
outlawed, VBN, outlaw
Yosemite, NNP, yosemit
Muzzled, NNP, muzzl
Absent, NNP, abs
Speaks, NNP, speak
\u00bb, NNP, \u00bb
Murong, NNP, murong
Toe, NNP, toe
\u00bb, NNP, \u00bb
