Real, NNP, real
Estate, NNP, est
Today, NNP, today
's, POS, 's
Paper, NNP, pap
Save, NNP, sav
PostTV, NNP, posttv
In, NNP, in
PostTV, NNP, posttv
Politics, NNP, polit
In, NNP, in
Politics, NNP, polit
Congress, NNP, congress
Fed, NNP, fed
Health, NNP, heal
Care, NNP, car
White, NNP, whit
GovBeat, NNP, govb
Md, NNP, md
Columns, NNP, column
concedes, VBZ, cont
\u2018we, JJ, \u2018we
just, RB, just
didn\u2019t, JJ, didn\u2019t
win\u2019, NN, win\u2019
Post, NNP, post
Aaron, NNP, aaron
New, NNP, new
Fix, NNP, fix
Sullivan, NNP, sul
Overcoming, NNP, overcom
the, DT, the
violence, NN, viol
of, IN, of
faction, NN, fact
The, DT, The
Monkey, NNP, monkey
Andrew, NNP, andrew
could, MD, could
become, VB, becom
the, DT, the
last, JJ, last
Midwestern, NNP, midwestern
state, NN, stat
to, TO, to
join, VB, join
the, DT, the
70, CD, 70
mph, NN, mph
club, NN, club
GovBeat, NNP, govb
Senate, NNP, sen
shutdown, NN, shutdown
deal, NN, deal
includes, VBZ, includ
furlough, JJ, furlough
pay, NN, pay
The, DT, The
Federal, NNP, fed
Hicks, NNP, hick
In, NNP, in
Opinions, NNP, opin
Toles, NNP, tol
Animations, NNP, anim
The, NNP, the
Post, NNP, post
's, POS, 's
View, NNP, view
Left-Leaning, NNP, left-leaning
Right-Leaning, NNP, right-leaning
Local, NNP, loc
Opinions, NNP, opin
Columnist, NNP, column
Index, NNP, index
Featured, NNP, feat
Blogs, NNP, blog
It\u2019s, NNP, it\u2019s
always, RB, alway
the, DT, the
end, NN, end
of, IN, of
the, DT, the
world, NN, world
as, IN, as
we, PRP, we
know, VBP, know
it, PRP, it
ComPost, NNP, compost
Alexandra, NNP, alexandr
will, MD, will
try, VB, try
all, DT, all
of, IN, of
this, DT, this
again, NN, again
Will, NNP, wil
John, NNP, john
let, VBD, let
him, PRP, him
Plum, NNP, plum
Sargent, NNP, sarg
Milbank, NNP, milbank
and, CC, and
the, DT, the
GOP\u2019s, NNP, gop\u2019s
dead, NN, dead
end, NN, end
PostPartisan, NNP, postpart
Rachel, NNP, rachel
stalls, VBZ, stal
Right, NNP, right
Rubin, NNP, rubin
Crime, NNP, crim
Education, NNP, educ
Obituaries, NNP, obitu
Transportation, NNP, transport
Weather, NNP, weath
Blogs, NNP, blog
Columns, NNP, column
Columns, NNP, column
autumn, NN, autumn
cold, VBD, cold
blast, JJ, blast
possible, JJ, poss
for, IN, for
eastern, NN, eastern
U.S., NNP, u.s.
D.C., NNP, d.c.
in, IN, in
8-10, CD, 8-10
days, NNS, day
Capital, NNP, capit
Jason, NNP, jason
D.C.\u2019s, NNP, d.c.\u2019s
burger, NN, burg
scene, NN, scen
through, IN, through
the, DT, the
lens, NNS, len
of, IN, of
public, JJ, publ
television, NN, televid
Going, NNP, going
Out, NNP, out
Guide, NNP, guid
Margaret, NNP, margaret
hospitalized, VBD, hospit
after, IN, after
fall, NN, fal
from, IN, from
roadway, NN, roadway
at, IN, at
Reagan, NNP, reag
Dr, NNP, dr
Gridlock, NNP, gridlock
Lori, NNP, lor
Redskins/NFL, NNP, redskins/nfl
Capitals/NHL, NNP, capitals/nhl
Wizards/NBA, NNP, wizards/nba
Nationals/MLB, NNP, nationals/mlb
D.C., NNP, d.c.
United/Soccer, NNP, united/soccer
Colleges, NNP, colleg
AllMetSports, NNP, allmetsport
Blogs, NNP, blog
Columns, NNP, column
Other, NNP, oth
Sports, NNP, sport
Blogs, NNP, blog
Columns, NNP, column
want, NN, want
to, TO, to
put, VB, put
Rangers, NNS, rang
on, IN, on
heels, NNS, heel
early, RB, ear
Capitals, NNS, capit
Insider, NNP, insid
Katie, NNP, katy
and, CC, and
Cooley, NNP, cooley
fry, NN, fry
potatoes, VBZ, potato
DC, NNP, dc
Sarah, NNP, sarah
Insider, NNP, insid
Mike, NNP, mik
Journal, NNP, journ
James, NNP, jam
Environment, NNP, environ
Science, NNP, sci
Giving, NNP, giv
Corrections, NNP, correct
Blogs, NNP, blog
Columns, NNP, column
federal, JJ, fed
workers, NNS, work
engaged, VBD, eng
On, IN, On
Leadership, NNP, lead
Tom, NNP, tom
companies, NNS, company
must, MD, must
fix, VB, fix
the, DT, the
gender, NN, gend
imbalance, NN, imb
Innovations, NNS, innov
Vivek, NNP, vivek
flag, NN, flag
in, IN, in
front, NN, front
of, IN, of
White, NNP, whit
Faith, NNP, fai
Susan, NNP, sus
Thistlethwaite, NNP, thistlethwait
S.D.\u2019s, NNP, s.d.\u2019s
Noem, NNP, noem
wants, VBZ, want
FEMA\u2019s, JJ, fema\u2019s
help, NN, help
after, IN, after
blizzard, NN, blizzard
People, NNP, peopl
Joann, NNP, joan
World, NNP, world
In, NNP, in
World, NNP, world
Africa, NNP, afric
The, NNP, the
Americas, NNP, america
Pacific, NNP, pac
Security, NNP, sec
War, NNP, war
Zones, NNP, zon
