Digital, NNP, digit
campaign, NN, campaign
Bar1, NNP, bar1
In, NNP, in
Register, NNP, reg
Now, NNP, now
Help, NNP, help
Home, NNP, hom
Page, NNP, pag
Today, NNP, today
's, POS, 's
Paper, NNP, pap
Edition, NNP, edit
U.S., NNP, u.s.
Global, NNP, glob
NYTimes.com, NNP, nytimes.com
U.S., NNP, u.s.
World, NNP, world
U.S., NNP, u.s.
PoliticsEducationTexas, NNP, politicseducationtexa
N.Y., NNP, n.y.
Travel, NNP, travel
F.B.I, NNP, f.b.i
KEPT, NNP, kept
WATCH, NNP, watch
ON, NNP, on
HENRY, NNP, henry
WALLACE, NNP, wallac
AP, NNP, ap
Published, NNP, publ
Henry, NNP, henry
was, VBD, be
watched, VBN, watch
by, IN, by
the, DT, the
Federal, NNP, fed
of, IN, of
Investigation, NNP, investig
while, IN, while
he, PRP, he
was, VBD, be
Vice, NNP, vic
President, NNP, presid
under, IN, under
Franklin, NNP, franklin
and, CC, and
Secretary, NNP, secret
of, IN, of
Commerce, NNP, commerc
for, IN, for
Harry, NNP, harry
Wallace, NNP, wallac
's, POS, 's
mail, NN, mail
Communist, NNP, commun
or, CC, or
pro-Soviet, JJ, pro-soviet
ties, NNS, tie
Moines, NNP, moin
Sunday, NNP, sunday
Register, NNP, reg
reported, VBD, report
Bureau, NNP, bureau
records, NNS, record
show, VBP, show
what, WP, what
historians, NNS, hist
have, VBP, hav
long, RB, long
suspected, VBN, suspect
Wallace, NNP, wallac
Truman, NNP, trum
White, NNP, whit
State, NNP, stat
and, CC, and
the, DT, the
Attorney, NNP, attorney
General, NNP, gen
's, POS, 's
office, NN, off
also, RB, also
were, VBD, be
involved, VBN, involv
in, IN, in
the, DT, the
surveillance, NN, surveil
Wallace, NNP, wallac
's, POS, 's
1948, CD, 1948
Presidential, NNP, presid
campaign, NN, campaign
on, IN, on
the, DT, the
Progressive, NNP, progress
ticket, NN, ticket
against, IN, against
Truman, NNP, trum
and, CC, and
Thomas, NNP, thoma
Republican, NNP, republ
nominee, NN, nomin
Attorney, NNP, attorney
ordered, VBD, ord
Soviet, NNP, soviet
Secret, NNP, secret
Documents, NNP, docu
The, NNP, the
extent, NN, ext
of, IN, of
the, DT, the
surveillance, NN, surveil
was, VBD, be
disclosed, VBN, disclos
in, IN, in
539, CD, 539
pages, NNS, pag
of, IN, of
documents, NNS, docu
released, VBN, releas
last, JJ, last
week, NN, week
under, IN, under
Information, NNP, inform
request, NN, request
Richard, NNP, richard
Henry, NNP, henry
scholar, NN, scholar
at, IN, at
Iowa, NNP, iow
State, NNP, stat
University, NNP, univers
in, IN, in
Ames, NNP, am
Truman, NNP, trum
people, NNS, peopl
saw, VBD, saw
Wallace, NNP, wallac
as, IN, as
such, JJ, such
Mr., NNP, mr.
said, VBD, say
Wallace, NNP, wallac
's, POS, 's
brother, NN, broth
James, NNP, jam
Communist, NNP, commun
Wallace, NNP, wallac
New, NNP, new
agricultural, JJ, agricult
policies, NNS, policy
while, IN, while
Agriculture, NNP, agricult
Secretary, NNP, secret
from, IN, from
1933, CD, 1933
to, TO, to
1940, CD, 1940
Soviet, NNP, soviet
Commerce, NNP, commerc
Secretary, NNP, secret
for, IN, for
Truman, NNP, trum
briefly, RB, brief
before, IN, before
leaving, VBG, leav
Government, NNP, govern
in, IN, in
1946, CD, 1946
Bolivia, NNP, boliv
The, NNP, the
Federal, NNP, fed
of, IN, of
Investigation, NNP, investig
's, POS, 's
inquiry, NN, inquiry
of, IN, of
Wallace, NNP, wallac
was, VBD, be
under, IN, under
way, NN, way
by, IN, by
early, JJ, ear
1943, CD, 1943
South, NNP, sou
Wallace, NNP, wallac
was, VBD, be
being, VBG, be
influenced, VBN, influ
by, IN, by
''Bolivian, JJ, ''bolivian
Communists, NNS, commun
State, NNP, stat
asked, VBD, ask
the, DT, the
bureau, NN, bureau
to, TO, to
open, VB, op
and, CC, and
photocopy, VB, photocop
the, DT, the
contents, NNS, cont
of, IN, of
an, DT, an
envelope, NN, envelop
addressed, VBN, address
to, TO, to
Wallace, NNP, wallac
Hoover, NNP, hoov
kept, VBD, keep
Truman, NNP, trum
informed, VBD, inform
of, IN, of
Wallace, NNP, wallac
's, POS, 's
activities, NNS, act
Wallace, NNP, wallac
said, VBD, say
the, DT, the
bureau, NN, bureau
was, VBD, be
''conducting, JJ, ''conducting
Mr., NNP, mr.
's, POS, 's
statement, NN, stat
with, IN, with
any, DT, any
comment, NN, com
Henry, NNP, henry
This, NNP, thi
week, NN, week
International, NNP, intern
The, NNP, the
first, JJ, first
computer, NN, comput
programmer, NN, program
was, VBD, be
Tech, NNP, tech
\u00bb, NNP, \u00bb
Apple, NNP, appl
to, TO, to
opt, VB, opt
out, RP, out
of, IN, of
Google, NNP, googl
's, POS, 's
plan, NN, plan
to, TO, to
use, VB, us
your, PRP$, your
name, NN, nam
and, CC, and
comments, NNS, com
in, IN, in
ads, NNS, ad
Inside, NNP, insid
NYTimes.com, NNP, nytimes.com
Theater, NNP, the
\u00bb, NNP, \u00bb
Model, NNP, model
Donald, NNP, donald
\u00bb, NNP, \u00bb
Rivalry, NNP, rivalry
Cleaves, NNP, cleav
City, NNP, city
\u00bb, NNP, \u00bb
Doctors, NNS, doct
Wine, NNP, win
\u00bb, NNP, \u00bb
Whiskey, NNP, whiskey
\u00bb, NNP, \u00bb
Beyond, NNP, beyond
Boehner\u2019s, NNP, boehner\u2019s
Reach, NNP, reach
When, NNP, when
freedom, NN, freedom
is, VBZ, be
outlawed, VBN, outlaw
Yosemite, NNP, yosemit
Muzzled, NNP, muzzl
Absent, NNP, abs
Speaks, NNP, speak
\u00bb, NNP, \u00bb
Murong, NNP, murong
Toe, NNP, toe
\u00bb, NNP, \u00bb
Second, NNP, second
Tragedy, NNP, tragedy
Dining, NNP, din
Wine, NNP, win
\u00bb, NNP, \u00bb
Room, NNP, room
for, IN, for
Debate, NNP, deb
asks, VBZ, ask
Belafonte, NNP, belafont
of, IN, of
Martin, NNP, martin
King, NNP, king
Jr., NNP, jr.
\u00a9, NNP, \u00a9
New, NNP, new
Times, NNP, tim
Your, NNP, yo
Ad, NNP, ad
Choices, NNPS, cho
Advertise, NNP, advert
of, IN, of
Sale, NNP, sal
of, IN, of
Service, NNP, serv
With, NNP, with
Us, NNP, us
