US, PRP, US
News, VBZ, new
Opinion, NNP, opin
STEM, NNP, stem
Jobs, NNP, job
in, IN, in
2020, CD, 2020
How, WRB, How
to, TO, to
Live, NNP, liv
to, TO, to
100, CD, 100
Cybersecurity, NNP, cybersec
Hospital, NNP, hospit
of, IN, of
Tomorrow, NNP, tomorrow
TJS, NNP, tjs
Politics, NNP, polit
Blog, NNP, blog
World, NNP, world
Report, NNP, report
Economic, NNP, econom
Intelligence, NNP, intellig
Robert, NNP, robert
Franklin, NNP, franklin
and, CC, and
World, NNP, world
War, NNP, war
II, NNP, ii
Led, NNP, led
America, NNP, americ
to, TO, to
Global, NNP, glob
's, POS, 's
Unconventional, NNP, unconv
Diplomacy, NNP, diplom
The, NNP, the
personalities, NNS, person
behind, IN, behind
America, NNP, americ
's, POS, 's
path, NN, path
to, TO, to
global, JJ, glob
power, NN, pow
By, IN, By
Happy, NNP, happy
August, NNP, august
22, CD, 22
RSS, NNP, rss
America, NNP, americ
's, POS, 's
status, NN, stat
as, IN, as
Franklin, NNP, franklin
's, POS, 's
tactics, NNS, tact
as, IN, as
Michael, NNP, michael
Lowy, NNP, lowy
for, IN, for
International, NNP, intern
in, IN, in
Sydney, NNP, sydney
Australia, NNP, austral
Destiny, NNP, destiny
Franklin, NNP, franklin
and, CC, and
Five, NNP, fiv
into, IN, into
the, DT, the
War, NNP, war
and, CC, and
into, IN, into
the, DT, the
World, NNP, world
America, NNP, americ
's, POS, 's
role, NN, rol
in, IN, in
the, DT, the
war, NN, war
through, IN, through
the, DT, the
missions, NNS, miss
of, IN, of
Roosevelt, NNP, roosevelt
's, POS, 's
personal, JJ, person
envoys, NNS, envoy
Fullilove, NNP, fullilov
recently, RB, rec
spoke, VBD, speak
with, IN, with
U.S., NNP, u.s.
about, IN, about
how, WRB, how
these, DT, these
sometimes, RB, sometim
unofficial, JJ, unoff
diplomats, NNS, diplom
set, VBD, set
the, DT, the
world, NN, world
on, IN, on
American, JJ, am
century, NN, century
Roosevelt, NNP, roosevelt
's, POS, 's
personality, NN, person
impact, NN, impact
the, DT, the
entry, NN, entry
of, IN, of
the, DT, the
U.S., NNP, u.s.
into, IN, into
World, NNP, world
War, NNP, war
II, NNP, ii
European, JJ, europ
war, NN, war
in, IN, in
September, NNP, septemb
1939, CD, 1939
and, CC, and
the, DT, the
American, NNP, am
entry, NN, entry
into, IN, into
the, DT, the
war, NN, war
in, IN, in
December, NNP, decemb
1941, CD, 1941
America, NNP, americ
on, IN, on
America, NNP, americ
into, IN, into
the, DT, the
war, NN, war
Roosevelt, NNP, roosevelt
pick, NN, pick
his, PRP$, his
personal, JJ, person
envoys, NNS, envoy
Sumner, NNP, sumn
No, NNP, no
State, NNP, stat
Roosevelt, NNP, roosevelt
increasingly, RB, increas
relied, VBD, rely
on, IN, on
him, PRP, him
Harry, NNP, harry
Hopkins, NNP, hopkin
White, NNP, whit
in, IN, in
1940, CD, 1940
and, CC, and
ended, VBD, end
up, RP, up
living, VBG, liv
there, RB, ther
for, IN, for
over, IN, over
three, CD, three
and, CC, and
Roosevelt, NNP, roosevelt
ended, VBD, end
up, RP, up
using, VBG, us
him, PRP, him
as, IN, as
his, PRP$, his
closest, NN, closest
confidant, NN, confid
FDR, NNP, fdr
's, POS, 's
character, NN, charact
was, VBD, be
his, PRP$, his
ability, NN, abl
to, TO, to
put, VB, put
almost, RB, almost
anybody, NN, anybody
to, TO, to
work, VB, work
for, IN, for
his, PRP$, his
purposes, NNS, purpos
Check, NNP, check
out, IN, out
U.S., NNP, u.s.
News, NNP, new
Weekly, NNP, week
Harry, NNP, harry
Averell, NNP, averel
's, POS, 's
job, NN, job
Bill, NNP, bil
Senate, NNP, sen
Roosevelt, NNP, roosevelt
did, VBD, do
n't, RB, n't
like, VB, lik
them, PRP, them
for, IN, for
one, CD, one
reason, NN, reason
or, CC, or
another, DT, another
John, NNP, john
appointed, VBD, appoint
Martin, NNP, martin
as, IN, as
the, DT, the
special, JJ, spec
envoy, NN, envoy
for, IN, for
Roosevelt, NNP, roosevelt
America, NNP, americ
was, VBD, be
transformed, VBN, transform
from, IN, from
American, NNP, am
century, NN, century
in, IN, in
which, WDT, which
we, PRP, we
're, VBP, 're
still, RB, stil
living, VBG, liv
America, NNP, americ
turned, VBD, turn
in, IN, in
these, DT, these
two, CD, two
years, NNS, year
Roosevelt, NNP, roosevelt
Roosevelt, NNP, roosevelt
's, POS, 's
leadership, NN, lead
style, NN, styl
differ, NN, diff
from, IN, from
other, JJ, oth
wartime, NN, wartim
presidents, NNS, presid
American, NNP, am
entry, NN, entry
into, IN, into
the, DT, the
war, NN, war
until, IN, until
there, EX, there
was, VBD, be
public, JJ, publ
support, NN, support
Britain, NNP, britain
and, CC, and
France, NNP, frant
as, IN, as
proxies, NNS, proxy
until, IN, until
America, NNP, americ
could, MD, could
enter, VB, ent
the, DT, the
war, NN, war
American, NNP, am
opinion, NN, opin
America, NNP, americ
's, POS, 's
involvement, NN, involv
in, IN, in
the, DT, the
war, NN, war
American, JJ, am
democracy, NN, democr
together, RB, togeth
during, IN, during
the, DT, the
Depression, NNP, depress
Read, NNP, read
Stephen, NNP, steph
Vladimir, NNP, vladimir
to, TO, to
Revive, NNP, rev
Russia\u2019s, NNP, russia\u2019s
Soviet, NNP, soviet
Did, NNP, did
's, POS, 's
Muslim, NNP, muslim
Check, NNP, check
out, IN, out
U.S., NNP, u.s.
News, NNP, new
Weekly, NNP, week
iPad, NNP, ipad
You, NNP, you
might, MD, might
be, VB, be
interested, JJ, interest
in, IN, in
..., :, ...
President, NNP, presid
Obama, NNP, obam
Franklin, NNP, franklin
Reader, NNP, read
NSA, NNP, nsa
Check, NNP, check
out, IN, out
cartoons, NNS, cartoon
on, IN, on
Barack, NNP, barack
See, NNP, see
cartoons, NNS, cartoon
on, IN, on
Congress, NNP, congress
Follow, NNP, follow
News, NNP, new
CCC, NNP, ccc
Us, NNP, us
Should, NNP, should
the, DT, the
Plan, NNP, plan
Pill, NNP, pil
to, TO, to
15-Year-Olds, CD, 15-Year-Olds
Obama, NNP, obam
in, IN, in
Syria, NNP, syr
Latest, NNP, latest
the, DT, the
National, NNP, nat
and, CC, and
Undermining, NNP, undermin
Education, NNP, educ
The, NNP, the
nation, NN, nat
needs, VBZ, nee
to, TO, to
start, VB, start
asking, VBG, ask
the, DT, the
Baby, NNP, baby
generation, NN, gen
to, TO, to
pay, VB, pay
it, PRP, it
forward, RB, forward
Shutdown, NNP, shutdown
Ceiling, NNP, ceil
Deal, NNP, deal
Sows, NNP, sow
the, DT, the
Seeds, NNP, see
of, IN, of
the, DT, the
Next, JJ, next
may, MD, may
reign, VB, reign
for, IN, for
New, NNP, new
House, NNP, hous
of, IN, of
Hypocrisy, NNP, hypocrisy
the, DT, the
Shutdown, NNP, shutdown
and, CC, and
Debt, NNP, debt
Let\u2019s, NNP, let\u2019s
hope, NN, hop
voters, NNS, vot
remember, NN, rememb
this, DT, this
about, IN, about
the, DT, the
Republican, NNP, republ
come, NN, com
the, DT, the
next, JJ, next
elections, NNS, elect
Obamacare, NNP, obamac
the, DT, the
Economy, NNP, econom
If, NNP, if
people, NNS, peopl
can, MD, can
not, RB, not
pay, VB, pay
for, IN, for
the, DT, the
bare, NN, bar
necessities, NNS, necess
themselves, PRP, themselves
Debt, NNP, debt
Default-Deniers, NNP, default-deniers
Like, NNP, lik
Ted, NNP, ted
Yoho, NNP, yoho
Someone, NNP, someon
needs, VBZ, nee
Fitch, NN, fitch
Puts, NNS, put
the, DT, the
Lie, NNP, lie
to, TO, to
the, DT, the
Debt, NNP, debt
Default-Deniers\u2019, NNP, default-deniers\u2019
Oddest, NNP, oddest
failing, VBG, fail
to, TO, to
raise, VB, rais
the, DT, the
debt, NN, debt
ceiling, NN, ceil
put, VBD, put
our, PRP$, our
creditors\u2019, NN, creditors\u2019
minds, NNS, mind
at, IN, at
ease, NN, eas
House, NNP, hous
GOP, NNP, gop
to, TO, to
Keep, NNP, keep
the, DT, the
Government, NNP, govern
Shut, NNP, shut
They, NNP, they
changed, VBD, chang
the, DT, the
rules, NNS, rul
to, TO, to
keep, VB, keep
the, DT, the
government, NN, govern
shut, NN, shut
and, CC, and
are, VBP, be
rejecting, VBG, reject
Lost, NNP, lost
for, IN, for
Republicans, NNPS, republ
to, TO, to
Talk, NNP, talk
About, IN, About
Immigration, NNP, immigr
Republicans, NNPS, republ
missed, VBD, miss
another, DT, another
opportunity, NN, opportun
to, TO, to
reposition, NN, reposit
themselves, PRP, themselves
as, IN, as
welcoming, VBG, welcom
to, TO, to
immigrants, NNS, immigr
Honor, NNP, hon
Tummy, NNP, tummy
Common, NNP, common
Digestive, NNP, digest
Problems, NNP, problem
and, CC, and
How, NNP, how
to, TO, to
End, NNP, end
Places, NNPS, plac
to, TO, to
Retire, NNP, retir
for, IN, for
Under, NNP, und
Greek, NNP, greek
Yogurt, NNP, yogurt
Vs, NNP, vs
Regular, JJ, regul
Yogurt, NNP, yogurt
Which, NNP, which
Subscribe, NNP, subscrib
U.S., NNP, u.s.
insider, NN, insid
's, POS, 's
guide, NN, guid
to, TO, to
politics, NNS, polit
and, CC, and
policy, NN, policy
iPad, NNP, ipad
or, CC, or
as, IN, as
PDF, NNP, pdf
download, NN, download
Subscribe, NNP, subscrib
today, NN, today
Photo, NNP, photo
of, IN, of
the, DT, the
Day, NNP, day
The, NNP, the
White, NNP, whit
\u00bb, NNP, \u00bb
Obama, NNP, obam
Congress, NNP, congress
\u00bb, :, \u00bb
Wrong, NNP, wrong
Congress, NNP, congress
\u00bb, NNP, \u00bb
Ranked, NNP, rank
\u00bb5, NNP, \u00bb5
U.S., NNP, u.s.
Bombings, NNP, bomb
Political, NNP, polit
Cartoons, NNP, cartoon
\u00bb, NNP, \u00bb
Daily, NNP, dai
From, NNP, from
Illustrators, NNP, illust
Margaret, NNP, margaret
\u00bb, NNP, \u00bb
Margaret, NNP, margaret
Thatcher, NNP, thatch
Gun, NNP, gun
Debate, NNP, deb
\u00bb, NNP, \u00bb
Subscribe, NNP, subscrib
\u00bb, :, \u00bb
U.S., NNP, u.s.
News, NNP, new
Weekly, NNP, week
The, NNP, the
Home, NNP, hom
Front, NNP, front
\u00bb, NNP, \u00bb
Faith, NNP, fai
