Skip, NNP, skip
Navigation, NNP, navig
Campus, NNP, camp
Calendar, NNP, calend
H., NNP, h.
Fogler, NNP, fogl
to, TO, to
UMaine, NNP, umain
Emergency, NNP, emerg
Norman, NNP, norm
collection, NN, collect
Summary, NNP, sum
Norman, NNP, norm
Collection, NNP, collect
number, NN, numb
Collection, NNP, collect
Administrative, NNP, admin
Information, NNP, inform
Maida, NNP, maid
Norman, NNP, norm
Special, NNP, spec
Raymond, NNP, raymond
University, NNP, univers
of, IN, of
Maine, NNP, main
Contact, NNP, contact
department, NN, depart
for, IN, for
copyright, NN, copyright
information, NN, inform
For, IN, For
Additional, NNP, addit
Information, NNP, inform
University, NNP, univers
of, IN, of
Maine, NNP, main
5729, CD, 5729
Fogler, NNP, fogl
Norman, NNP, norm
New, NNP, new
City, NNP, city
he, PRP, he
studied, VBD, study
at, IN, at
several, JJ, sev
colleges, NNS, colleg
Julliard, NNP, julliard
of, IN, of
Music, NNP, mus
New, NNP, new
Harvard, NNP, harvard
Julliard, NNP, julliard
of, IN, of
Music, NNP, mus
Vassar, NNP, vass
Peabody, NNP, peabody
University, NNP, univers
of, IN, of
Michigan, NNP, michig
University, NNP, univers
of, IN, of
Illinois, NNP, illino
University, NNP, univers
of, IN, of
Maine, NNP, main
Stephen, NNP, steph
Sandy, NNP, sandy
about, IN, about
Cazden, NNP, cazd
Organization, NN, org
of, IN, of
Collection, NNP, collect
Sandy, NNP, sandy
about, IN, about
Cazden, NNP, cazd
362, CD, 362
Jacobs, NNP, jacob
and, CC, and
Diane, NNP, dian
Box, NNP, box
362, CD, 362
Michigan, NNP, michig
notes-1949-50, NNP, notes-1949-50
Box, NNP, box
362, CD, 362
Illinois, NNP, illino
notes, VBZ, not
1950-53, CD, 1950-53
Box, NNP, box
362, CD, 362
Cazdens, NNP, cazd
recordings, NNS, record
Box, NNP, box
362, CD, 362
Cazden, NNP, cazd
Cazden, NNP, cazd
362, CD, 362
Cazden, NNP, cazd
published, VBD, publ
in, IN, in
the, DT, the
U.S.S.R, JJ, u.s.s.r
Box, NNP, box
362, CD, 362
Music, NNP, mus
362, CD, 362
Music, NNP, mus
362, CD, 362
Graduate, NNP, gradu
in, IN, in
Music, NNP, mus
1977, CD, 1977
Box, NNP, box
362, CD, 362
Harmony, NNP, harmony
Box, NNP, box
362, CD, 362
Piano, NNP, piano
Conference, NNP, conf
Box, NNP, box
362, CD, 362
Century, NNP, century
Box, NNP, box
362, CD, 362
Music, NNP, mus
362a, CD, 362a
Box, NNP, box
362a, CD, 362a
Musical, NNP, mus
arranged, VBD, arrang
by, IN, by
Cazden-, NN, cazden-
Dances, NNS, dant
from, IN, from
Woodland, NNP, woodland
Box, NNP, box
362a, CD, 362a
Musical, NNP, mus
written, RB, writ
by, IN, by
Cazden-, JJ, cazden-
Twenty-three, JJ, twenty-three
Studies, NNS, study
for, IN, for
Piano, NNP, piano
362a, CD, 362a
Musical, NNP, mus
written, RB, writ
by, IN, by
Cazden-, JJ, cazden-
music, NN, mus
for, IN, for
study-, NN, study-
Piano, NNP, piano
OPUS, NNP, op
11, CD, 11
Box, NNP, box
362a, CD, 362a
Musical, NNP, mus
written, RB, writ
by, IN, by
Cazden-music, JJ, cazden-music
for, IN, for
study-, JJ, study-
Good, NNP, good
for, IN, for
Piano, NNP, piano
OPUS, NNP, op
64, CD, 64
Box, NNP, box
362a, CD, 362a
f5, NNP, f5
Musical, NNP, mus
written, RB, writ
by, IN, by
Cazden-, JJ, cazden-
Crabs, NNP, crab
and, CC, and
Mirrors, NNP, mir
for, IN, for
Piano, NNP, piano
OPUS, NNP, op
79, CD, 79
Box, NNP, box
362a, CD, 362a
f6, NNP, f6
Musical, NNP, mus
written, RB, writ
by, IN, by
Cazden-music, JJ, cazden-music
for, IN, for
study-First, JJ, study-first
Steps, NNPS, step
for, IN, for
Piano, NNP, piano
OPUS, NNP, op
80, CD, 80
Box, NNP, box
362a, CD, 362a
Musical, NNP, mus
written, RB, writ
by, IN, by
Cazden-, JJ, cazden-
music, NN, mus
for, IN, for
study-for, JJ, study-for
Woodwinds, NNPS, woodwind
OPUS, NNP, op
81, CD, 81
Musical, NNP, mus
written, RB, writ
by, IN, by
Cazden-, JJ, cazden-
First, NNP, first
Studies, NNP, study
for, IN, for
Piano, NNP, piano
OPUS, NNP, op
100, CD, 100
Musical, NNP, mus
written, RB, writ
by, IN, by
Cazden-The, NNP, cazden-the
new, JJ, new
Recreations, NNS, recr
of, IN, of
Carl, NNP, carl
OPUS, NNP, op
599, CD, 599
Musical, NNP, mus
written, RB, writ
by, IN, by
Cazden-, JJ, cazden-
Sonata, NNP, sonat
for, IN, for
Piano, NNP, piano
OPUS, NNP, op
12, CD, 12
Box, NNP, box
362a, CD, 362a
Musical, NNP, mus
written, RB, writ
by, IN, by
Cazden-, JJ, cazden-
On, NNP, on
the, DT, the
Death, NNP, dea
of, IN, of
Spanish, NNP, span
Child-, NNP, child-
for, IN, for
Symponic, NNP, sympon
OPUS, NNP, op
20, CD, 20
Box, NNP, box
362a, CD, 362a
Musical, NNP, mus
written, RB, writ
by, IN, by
Cazden-, JJ, cazden-
Six, CD, Six
definitions, NNS, definit
for, IN, for
Instrument, NNP, instru
OPUS, NNP, op
25, CD, 25
Box, NNP, box
362a, CD, 362a
Musical, NNP, mus
written, RB, writ
by, IN, by
Cazden-, JJ, cazden-
Ten, NNP, ten
Conversations, NNP, convers
for, IN, for
two, CD, two
clarinets, NNS, clarinet
OPUS, NNP, op
34, CD, 34
Box, NNP, box
362a, CD, 362a
Musical, NNP, mus
written, RB, writ
by, IN, by
Cazden-, JJ, cazden-
Twelve, NNP, twelv
studies, NNS, study
for, IN, for
Piano, NNP, piano
OPUS, NNP, op
37, CD, 37
Box, NNP, box
362a, CD, 362a
Musical, NNP, mus
written, RB, writ
by, IN, by
Cazden-, JJ, cazden-
Three, CD, Three
Directions, NNS, direct
for, IN, for
Brass, NNP, brass
OPUS, NNP, op
39, CD, 39
Box, NNP, box
362a, CD, 362a
Musical, NNP, mus
written, RB, writ
by, IN, by
Cazden-, JJ, cazden-
Six, CD, Six
discussiona, NN, discussion
for, IN, for
Woodwinds, NNS, woodwind
OPUS, NNP, op
40, CD, 40
Box, NNP, box
362a, CD, 362a
Musical, NNP, mus
written, RB, writ
by, IN, by
Cazden-, JJ, cazden-
Stony, NNP, stony
for, IN, for
Pianos, NNP, piano
OPUS, NNP, op
47, CD, 47
Box, NNP, box
362a, CD, 362a
Musical, NNP, mus
written, RB, writ
by, IN, by
Cazden-, JJ, cazden-
542, CD, 542
Dance, NNP, dant
tunes, NNS, tun
for, IN, for
Violin, NNP, violin
and, CC, and
Piano, NNP, piano
OPUS, NNP, op
50, CD, 50
Musical, NNP, mus
written, RB, writ
by, IN, by
Cazden-, JJ, cazden-
Sing, NNP, sing
Learn, NNP, learn
and, CC, and
Play, NNP, play
for, IN, for
Piano, NNP, piano
OPUS, NNP, op
60, CD, 60
Box, NNP, box
362a, CD, 362a
Musical, NNP, mus
written, RB, writ
by, IN, by
Cazden-, JJ, cazden-
Musical, NNP, mus
written, RB, writ
by, IN, by
Cazden-, JJ, cazden-
Quintet, NNP, quintet
for, IN, for
Oboe, NNP, obo
and, CC, and
Strings, NNP, strings
OPUS, NNP, op
74, CD, 74
Box, NNP, box
362a, CD, 362a
Musical, NNP, mus
written, RB, writ
by, IN, by
Cazden-Sixteen, JJ, cazden-sixteen
short, JJ, short
solos, NNS, solo
for, IN, for
Alto, NNP, alto
Oboe, NNP, obo
or, CC, or
Flute, NNP, flut
OPUS, NNP, op
82, CD, 82
Box, NNP, box
362a, CD, 362a
Musical, NNP, mus
written, RB, writ
by, IN, by
Cazden-, JJ, cazden-
New, NNP, new
for, IN, for
Piano, NNP, piano
OPUS, NNP, op
95, CD, 95
Box, NNP, box
362a, CD, 362a
Musical, NNP, mus
written, RB, writ
by, IN, by
Cazden-, JJ, cazden-
Trumpet, NNP, trumpet
OPUS, NNP, op
99, CD, 99
Box, NNP, box
362a, CD, 362a
Musical, NNP, mus
written, RB, writ
by, IN, by
Cazden-, JJ, cazden-
Six, CD, Six
Sennets, NNS, sennet
for, IN, for
Trombone, NNP, trombon
OPUS, NNP, op
100, CD, 100
Box, NNP, box
362a, CD, 362a
Musical, NNP, mus
written, RB, writ
by, IN, by
Cazden-, JJ, cazden-
Sonata, NNP, sonat
for, IN, for
Violincello, NNP, violincello
and, CC, and
Piano, NNP, piano
OPUS, NNP, op
102a, CD, 102a
Box, NNP, box
362a, CD, 362a
Musical, NNP, mus
written, RB, writ
by, IN, by
Cazden-, JJ, cazden-
Sonata, NNP, sonat
for, IN, for
English, NNP, engl
and, CC, and
Piano, NNP, piano
OPUS, NNP, op
104, CD, 104
Box, NNP, box
362a, CD, 362a
Musical, NNP, mus
written, RB, writ
by, IN, by
Cazden-, JJ, cazden-
Sonata, NNP, sonat
for, IN, for
Viola, NNP, viol
and, CC, and
Piano, NNP, piano
OPUS, NNP, op
104a, CD, 104a
Box, NNP, box
362a, CD, 362a
Musical, NNP, mus
written, RB, writ
by, IN, by
Cazden-, JJ, cazden-
Sonata, NNP, sonat
for, IN, for
Calrinat, NNP, calrin
and, CC, and
Piano, NNP, piano
OPUS, NNP, op
104b, CD, 104b
Box, NNP, box
362a, CD, 362a
Musical, NNP, mus
written, RB, writ
by, IN, by
Cazden-, JJ, cazden-
Sonata, NNP, sonat
for, IN, for
Tuba, NNP, tub
and, CC, and
Piano, NNP, piano
OPUS, NNP, op
105, CD, 105
Box, NNP, box
362a, CD, 362a
Musical, NNP, mus
written, RB, writ
by, IN, by
Cazden-, JJ, cazden-
Sonata, NNP, sonat
for, IN, for
Double, NNP, doubl
and, CC, and
Piano, NNP, piano
OPUS, NNP, op
105a, CD, 105a
Box, NNP, box
362a, CD, 362a
Musical, NNP, mus
written, RB, writ
by, IN, by
Cazden-, JJ, cazden-
Six, CD, Six
Preludes, NNP, prelud
and, CC, and
Fuges, NNP, fug
for, IN, for
Piano, NNP, piano
OPUS, NNP, op
106, CD, 106
Box, NNP, box
362a, CD, 362a
Piano, NNP, piano
used, VBD, us
by, IN, by
Cazden, NNP, cazd
362b, CD, 362b
Series, NNP, sery
Cazden, NNP, cazd
and, CC, and
Performances, NNPS, perform
Cassette, NNP, casset
Side, NNP, sid
Side, NNP, sid
Side, NNP, sid
Side, NNP, sid
Reel, NNP, reel
has, VBZ, hav
Sticky, NNP, sticky
tape, NN, tap
Syndrome, NNP, syndrom
See, NNP, see
OPUS, NNP, op
61, CD, 61
Side, NNP, sid
Side, NNP, sid
Side, NNP, sid
Side, NNP, sid
Side, NNP, sid
Blank, NNP, blank
Reel-, NNP, reel-
Not, NNP, not
Dubbed, NNP, dub
Side, NNP, sid
Cassette11, NNP, cassette11
Side, NNP, sid
Side, NNP, sid
Cassette12, NNP, cassette12
Side, NNP, sid
Violin, NNP, violin
and, CC, and
Piano, NNP, piano
Side, NNP, sid
Tempest, NNP, tempest
Lexington, NNP, lexington
High, JJ, high
Elfterios, NNP, elfterio
Side, NNP, sid
Cordwood, NNP, cordwood
Cutter, NNP, cut
Old, NNP, old
Side, NNP, sid
Cassette14, NNP, cassette14
Side, NNP, sid
Side, NNP, sid
Cassette15, NNP, cassette15
Side, NNP, sid
Side, NNP, sid
Cassette16, NNP, cassette16
Side, NNP, sid
Hazel, NNP, hazel
Norman, NNP, norm
Bach, NNP, bach
Schumann, NNP, schumann
Side, NNP, sid
Music, NNP, mus
Motorola, NNP, motorol
George, NNP, georg
Side, NNP, sid
John, NNP, john
Putney, NNP, putney
Saation, NNP, saat
Mumma, NNP, mumm
Norman, NNP, norm
Leo, NNP, leo
LP, NNP, lp
discs, NNS, disc
and, CC, and
from, IN, from
tapes, NNS, tap
Includes, NNP, includ
pieces, NNS, piec
by, IN, by
Robert, NNP, robert
Gordon, NNP, gordon
Hayim, NNP, hayim
John, NNP, john
Milton, NNP, milton
Side, NNP, sid
Coopertive, NNP, coopert
Ann, NNP, an
Michigan, NNP, michig
Gordon, NNP, gordon
Gordon, NNP, gordon
Side, NNP, sid
Psychology, NNP, psycholog
of, IN, of
Music/, NNP, music/
The, NNP, the
Theory, NNP, the
and, CC, and
Practice, NNP, pract
of, IN, of
Just, NNP, just
Intonation/, NNP, intonation/
Tape, NNP, tap
Side, NNP, sid
Music, NNP, mus
Practice, NNP, pract
of, IN, of
Just, NNP, just
Intonation/, NNP, intonation/
Tape, NNP, tap
Side, NNP, sid
August, NNP, august
HAM, NNP, ham
HAM, NNP, ham
HAM, NNP, ham
HAM, NNP, ham
HAM, NNP, ham
HAM, NNP, ham
Cazden, NNP, cazd
622/, CD, 622/
Monteverdi, NNP, monteverd
Tape, NNP, tap
42, CD, 42
Cazden, NNP, cazd
630/, CD, 630/
The, NNP, the
Ancestors, NNP, ancest
of, IN, of
the, DT, the
pianoforte, NN, pianofort
Tape, NNP, tap
43, CD, 43
French, NNP, french
ars, NNS, ar
Antiqua/, -NONE-, Antiqua/
Central, NNP, cent
Tape, NNP, tap
44, CD, 44
History, NNP, hist
of, IN, of
Music, NNP, mus
in, IN, in
Sound, NNP, sound
Middle, NNP, middl
Trouvere, NNP, trouv
Tape, NNP, tap
46, CD, 46
Music, NNP, mus
of, IN, of
the, DT, the
Early, NNP, ear
Tape, NNP, tap
47, CD, 47
English, NNP, engl
Virginal, NNP, virgin
Music, NNP, mus
48, CD, 48
14th, CD, 14th
and, CC, and
Early, NNP, ear
15th, CD, 15th
Century, NNP, century
Polyphony, NNP, polyphony
Tape, NNP, tap
49, CD, 49
William, NNP, william
Music, NNP, mus
50, CD, 50
Baroque, NNP, baroqu
Scarlatti, NNP, scarlatt
Bach, NNP, bach
Corelli, NNP, corell
McH1, NNP, mch1
Music, NNP, mus
Hocket, NNP, hocket
Motet, NNP, motet
55, CD, 55
First, NNP, first
Delphic, NNP, delph
Chant, NNP, chant
56, CD, 56
Organum, NNP, organ
Tape, NNP, tap
57, CD, 57
Dances, NNS, dant
13th, CD, 13th
-14th, JJ, -14th
Century, NNP, century
Tape, NNP, tap
58, CD, 58
Chant, NNP, chant
Mozarabic, NNP, mozarab
Byzantine, NNP, byzantin
Hebaric, NNP, heb
Trouveres, NNP, trouv
62, CD, 62
saetas-alegrias, NNP, saetas-alegria
Tape, NNP, tap
63, CD, 63
Robin, NNP, robin
and, CC, and
Marion, NNP, mar
/Play, NNP, /play
of, IN, of
Daniel, NNP, daniel
64, CD, 64
Monteverdi-Zefiro, -NONE-, Monteverdi-Zefiro
Torna, NNP, torn
65, CD, 65
Moulins, NNP, moulin
Mass, NNP, mass
Tape, NNP, tap
68, CD, 68
Ravel, NNP, ravel
Anacreon, NNP, anacreon
in, IN, in
Heaven, NNP, heav
Tape, NNP, tap
70, CD, 70
Cazden, NNP, cazd
70/, CD, 70/
Russian, NNP, russ
composers, NNS, compos
Mossolov, NNP, mossolov
Meytuss, NNP, meytuss
Cazden, NNP, cazd
28/, CD, 28/
Varese, NNP, vares
Gabrielli, NNP, gabriell
72, CD, 72
Cazden, NNP, cazd
508/, CD, 508/
\u0093, CD, \u0093
New, NNP, new
sound, NN, sound
for, IN, for
Woodwinds\u0094, NN, woodwinds\u0094
Bruno, NNP, bruno
Cazden, NNP, cazd
517/, CD, 517/
Piano, NNP, piano
fo, NN, fo
Henry, NNP, henry
Tape, NNP, tap
74, CD, 74
Cazden, NNP, cazd
520/, CD, 520/
Josquin, NNP, josquin
des, VBZ, des
Prez, NNP, prez
75, CD, 75
Cazden, NNP, cazd
524/, CD, 524/
Guided, NNP, guid
Tour, NNP, tour
Cazden, NNP, cazd
530/, CD, 530/
The, NNP, the
Renaissance, NNP, renaiss
Band, NNP, band
New, NNP, new
Pro, NNP, pro
Musica, NNP, music
directed, VBD, direct
by, IN, by
NoahGreenberg, NNP, noahgreenberg
Wesleyan, NNP, wesley
collection, NN, collect
Voice, NNP, voic
Tape, NNP, tap
79, CD, 79
Lumberman\u0092s, NNS, lumberman\u0092s
Alphabet, NNP, alphabet
80, CD, 80
Pi-Li, NNP, pi-l
Gamelan, NNP, gamel
Tape, NNP, tap
82, CD, 82
Gerkina, NNP, gerkin
Tape, NNP, tap
83, CD, 83
Gaika, NNP, gaik
Medley, NNP, medley
84, CD, 84
Eastern, NNP, eastern
Musical, NNP, mus
written, RB, writ
by, IN, by
Cazden-, JJ, cazden-
Musical, NNP, mus
written, RB, writ
by, IN, by
Cazden-, JJ, cazden-
Quartet, NNP, quartet
for, IN, for
Violin, NNP, violin
Clarinet, NNP, clarinet
Musical, NNP, mus
written, RB, writ
by, IN, by
Cazden-, JJ, cazden-
Musical, NNP, mus
written, RB, writ
by, IN, by
Cazden-, JJ, cazden-
Quintet, NNP, quintet
for, IN, for
Musical, NNP, mus
written, RB, writ
by, IN, by
Cazden-, JJ, cazden-
Sonata, NNP, sonat
for, IN, for
Horn, NNP, horn
and, CC, and
Piano-, NNP, piano-
OPUS, NNP, op
33, CD, 33
Box, NNP, box
362d, CD, 362d
Musical, NNP, mus
written, RB, writ
by, IN, by
Cazden-, JJ, cazden-
Sonata, NNP, sonat
for, IN, for
Flute, NNP, flut
and, CC, and
piano/harpsichord, NNP, piano/harpsichord
OPUS, NNP, op
36, CD, 36
Box, NNP, box
362d, CD, 362d
Musical, NNP, mus
written, RB, writ
by, IN, by
Cazden-, JJ, cazden-
Suite, NNP, suit
for, IN, for
violin, NN, violin
and, CC, and
piano, NN, piano
OPUS, NNP, op
43, CD, 43
Box, NNP, box
362d, CD, 362d
Musical, NNP, mus
written, RB, writ
by, IN, by
Cazden-, JJ, cazden-
Musical, NNP, mus
written, RB, writ
by, IN, by
Cazden-, JJ, cazden-
Songs, NNS, song
from, IN, from
the, DT, the
Catskills, NNP, catskil
for, IN, for
Symphonic, NNP, symphon
wind, NN, wind
ensembles, NNS, ensembl
OPUS, NNP, op
54, CD, 54
Box, NNP, box
362df10, CD, 362df10
Musical, NNP, mus
written, RB, writ
by, IN, by
Cazden-, JJ, cazden-
The, NNP, the
Claricin, NNP, claricin
of, IN, of
Freedom, NNP, freedom
OPUS, NNP, op
70, CD, 70
Box, NNP, box
362df11, CD, 362df11
Musical, NNP, mus
arranged, VBD, arrang
by, IN, by
Cazden-, NN, cazden-
Robert, NNP, robert
transcribed, VBD, transcrib
for, IN, for
violin, NN, violin
Pianoforte, NNP, pianofort
OPUS, NNP, op
82, CD, 82
Box, NNP, box
362df12, CD, 362df12
Musical, NNP, mus
written, RB, writ
by, IN, by
Cazden-, JJ, cazden-
Orchestra, NNP, orchestr
OPUS, NNP, op
87, CD, 87
Box, NNP, box
362df13, CD, 362df13
Musical, NNP, mus
written, RB, writ
by, IN, by
Cazden-, JJ, cazden-
Elizabethan, NNP, elizabeth
String, NNP, string
OPUS, NNP, op
92, CD, 92
Box, NNP, box
362df14, CD, 362df14
Musical, NNP, mus
written, RB, writ
by, IN, by
Cazden-, JJ, cazden-
Elizabethan, NNP, elizabeth
Recorders, NNP, record
OPUS, NNP, op
93, CD, 93
Box, NNP, box
362df15, CD, 362df15
Musical, NNP, mus
written, RB, writ
by, IN, by
Cazden-, JJ, cazden-
Quintet, NNP, quintet
for, IN, for
flute, NN, flut
Musical, NNP, mus
written, RB, writ
by, IN, by
Cazden-, JJ, cazden-
Trio, NNP, trio
for, IN, for
violin, NN, violin
OPUS, NNP, op
97, CD, 97
Box, NNP, box
362df17, CD, 362df17
Musical, NNP, mus
written, RB, writ
by, IN, by
Cazden-, JJ, cazden-
Intonation, NNP, inton
Rcorder, NNP, rcord
Musical, NNP, mus
written, RB, writ
by, IN, by
Cazden-First, JJ, cazden-first
studies, NNS, study
for, IN, for
Piano, NNP, piano
OPUS, NNP, op
100, CD, 100
Box, NNP, box
362df19, CD, 362df19
Musical, NNP, mus
arranged, VBD, arrang
by, IN, by
Cazden-, NN, cazden-
New, NNP, new
recreations, NNS, recr
fo, VBP, fo
Carl, NNP, carl
for, IN, for
Piano, NNP, piano
OPUS, NNP, op
599a, CD, 599a
Finding, NNP, find
Aids, NNP, aid
for, IN, for
selected, VBN, select
manuscript, NN, manuscrib
collections, NNS, collect
in, IN, in
the, DT, the
Special, JJ, spec
at, IN, at
Fogler, NNP, fogl
Library, NNP, libr
are, VBP, be
accessible, JJ, access
online, NN, onlin
in, IN, in
URSUS, NNP, urs
Manuscript, NNP, manuscrib
Please, NN, pleas
contact, NN, contact
Special, NNP, spec
at, IN, at
spc, NN, spc
Return, NNP, return
to, TO, to
top, VB, top
level, NN, level
page, NN, pag
Special, NNP, spec
Staff, NNP, staff
Fogler, NNP, fogl
of, IN, of
Maine, NNP, main
University, NNP, univers
of, IN, of
Maine, NNP, main
