HTML, NNP, html
PUBLIC, NNP, publ
``, ``, ``
American, NNP, am
Association, NNP, assocy
of, IN, of
Physics, NNP, phys
to, TO, to
content, VB, cont
Skip, NNP, skip
to, TO, to
navigation, NN, navig
Skip, NNP, skip
to, TO, to
local, JJ, loc
navigation, NN, navig
Sign, NNP, sign
In, NNP, in
Join, NNP, join
Renew, NNP, renew
Organization, NNP, org
Committees, NNP, commit
Report, NNP, report
Contact, NNP, contact
Marketing, NNP, market
Opportunities, NNPS, opportun
Conferences, NNP, conf
Conference, NNP, conf
Proceedings, NNP, process
2014, CD, 2014
Winter, NNP, wint
Meeting, NNP, meet
Orlando, NNP, orlando
Scholarships, NNP, scholarships
Medals, NNP, med
Competitions, NNP, competit
Projects, NNP, project
U.S., NNP, u.s.
Physics, NNP, phys
Team, NNP, team
New, NNP, new
Faculty, NNP, facul
Programs, NNP, program
Publications, NNP, publ
American, NNP, am
of, IN, of
Physics, NNP, phys
The, NNP, the
Physics, NNP, phys
Research, NNP, research
The, NNP, the
Physics, NNP, phys
Information, NNP, inform
Membership, NNP, memb
Joining, NNP, join
AAPT, NNP, aapt
Renew, NNP, renew
your, PRP$, your
membership, NN, memb
View, NNP, view
or, CC, or
update, VB, upd
your, PRP$, your
profile, NN, profil
Member, NNP, memb
Directories, NNP, direct
Member, NNP, memb
Benefits, NNP, benefit
How, NNP, how
to, TO, to
Get, NNP, get
with, IN, with
AAPT, NNP, aapt
In, NNP, in
Memoriam, NNP, memoriam
Testimonials, NNP, testimon
Sections, NNP, sect
Resources, NNPS, resourc
Teaching, NNP, teach
Sustainability, NNP, sustain
in, IN, in
Physics, NNP, phys
Students, NNP, stud
Colleges, NNP, colleg
and, CC, and
Universities, NNPS, univers
AAPT, NNP, aapt
Career, NNP, car
Board, NNP, board
Legislation, NNP, legisl
AAPT, NNP, aapt
eMentoring, NNP, em
Committees, NNP, commit
PERTG, NNP, pertg
PERLOC, NNP, perloc
