Accessibility, NN, access
links, NNS, link
Skip, NNP, skip
to, TO, to
article, VB, artic
Skip, NNP, skip
to, TO, to
navigation, NN, navig
Advertisement, NNP, advert
Telegraph.co.uk, NNP, telegraph.co.uk
Wednesday, NNP, wednesday
16, CD, 16
October, NNP, octob
2013, CD, 2013
Home, NNP, hom
News, NNP, new
World, NNP, world
Sport, NNP, sport
Finance, NNP, fin
Comment, NNP, com
Culture, NNP, cult
Travel, NNP, travel
Offers, NNP, off
Jobs, NNP, job
Politics, NNP, polit
Obits, NNP, obit
Education, NNP, educ
Earth, NNP, ear
Science, NNP, sci
Defence, NNP, def
Health, NNP, heal
Scotland, NNP, scotland
Royal, NNP, roy
Celebrities, NNP, celebr
Weird, NNP, weird
Spending, NNP, spend
Review, NNP, review
G8, NNP, g8
Conservatives, NNP, conserv
Liberal, NNP, lib
Home\u00bb, NNP, home\u00bb
News\u00bb, NNP, news\u00bb
Politics\u00bb, NNP, politics\u00bb
Labour, NNP, labo
Gordon, NNP, gordon
mud-slingers, NNP, mud-slingers
eat, NN, eat
humble, JJ, humbl
pie, NN, pie
Ed, NNP, ed
is, VBZ, be
turning, VBG, turn
to, TO, to
the, DT, the
once-reviled, JJ, once-reviled
figure, NN, fig
of, IN, of
Robert, NNP, robert
in, IN, in
an, DT, an
effort, NN, effort
to, TO, to
win, VB, win
back, RB, back
public, JJ, publ
trust, NN, trust
for, IN, for
his, PRP$, his
fiscal, JJ, fisc
plans, NNS, plan
Ed, NNP, ed
wants, VBZ, want
his, PRP$, his
sums, NNS, sum
vetted, VBD, vet
by, IN, by
Robert, NNP, robert
and, CC, and
the, DT, the
OBR, NNP, obr
because, IN, because
it, PRP, it
would, MD, would
give, VB, giv
his, PRP$, his
proposals, NNS, propos
greater, JJR, gre
credibility, NN, cred
and, CC, and
so, RB, so
help, VB, help
to, TO, to
restore, VB, rest
public, JJ, publ
trust, NN, trust
Photo, NNP, photo
Martin, NNP, martin
7:53PM, CD, 7:53PM
BST, NNP, bst
09, CD, 09
Oct, NNP, oct
2013, CD, 2013
Comments, NNS, com
When, WRB, When
it, PRP, it
comes, VBZ, com
to, TO, to
deciding, VBG, decid
which, WDT, which
set, NN, set
of, IN, of
politicians, NNS, polit
to, TO, to
trust, VB, trust
on, IN, on
the, DT, the
economy, NN, econom
Treasury, NNP, treasury
Ed, NNP, ed
Budget, NNP, budget
Robert, NNP, robert
Balls, NNP, bal
wants, VBZ, want
his, PRP$, his
sums, NNS, sum
vetted, VBD, vet
by, IN, by
the, DT, the
OBR, NNP, obr
because, IN, because
it, PRP, it
would, MD, would
give, VB, giv
his, PRP$, his
proposals, NNS, propos
greater, JJR, gre
credibility, NN, cred
and, CC, and
so, RB, so
help, VB, help
to, TO, to
restore, VB, rest
public, JJ, publ
trust, NN, trust
\u2013, :, \u2013
Labour, NNP, labo
and, CC, and
the, DT, the
OBR, NNP, obr
is, VBZ, be
that, IN, that
on, IN, on
the, DT, the
loathing, NN, loath
and, CC, and
bad-mouthing, JJ, bad-mouthing
front, NN, front
Balls, NNP, bal
has, VBZ, hav
form, NN, form
when, WRB, when
it, PRP, it
comes, VBZ, com
to, TO, to
Mr, NNP, mr
Chote, NNP, chot
Treasury, NNP, treasury
team, NN, team
under, IN, under
the, DT, the
then, RB, then
chancellor, NN, chancel
Gordon, NNP, gordon
\u2013, NNP, \u2013
Financial, NNP, fin
Prospect, NNP, prospect
magazine, NN, magazin
Ed, NNP, ed
\u2013, NNP, \u2013
Brown, NNP, brown
was, VBD, be
\u201ca, NNP, \u201ca
mixture, NN, mixt
of, IN, of
arrogance, NN, arrog
and, CC, and
intellectual, JJ, intellect
insecurity\u201d, NN, insecurity\u201d
Labour, NNP, labo
in, IN, in
power, NN, pow
for, IN, for
less, JJR, less
than, IN, than
Treasury, NNP, treasury
Brownites, NNPS, brownit
hated, VBD, hat
him, PRP, him
for, IN, for
it, PRP, it
Related, JJ, rel
Articles, NNS, artic
firms, NNS, firm
hit, VBP, hit
growth, NN, grow
more, RBR, mor
than, IN, than
austerity, NN, aust
09, CD, 09
Oct, NNP, oct
2013, CD, 2013
Osborne, NNP, osborn
and, CC, and
Chote, NNP, chot
questioned, VBD, quest
by, IN, by
MPs, NNP, mps
Cameron, NNP, cameron
rebuked, VBD, rebuk
by, IN, by
head, NN, head
of, IN, of
watchdog, NN, watchdog
over, IN, over
austerity, NN, aust
claims, NNS, claim
08, CD, 08
Mar, NNP, mar
2013, CD, 2013
Ed, NNP, ed
Balls, NNP, bal
Labour, NNP, labo
happy, NN, happy
to, TO, to
be, VB, be
called, VBN, cal
socialists, NNS, soc
23, CD, 23
Sep, NNP, sep
2013, CD, 2013
Ed, NNP, ed
Miliband, NNP, miliband
axes, VBZ, ax
Blairites, NNP, blairit
from, IN, from
his, PRP$, his
shadow, NN, shadow
cabinet, NN, cabinet
07, CD, 07
Oct, NNP, oct
2013, CD, 2013
IMF, NNP, imf
upgrades, VBZ, upgrad
UK, NNP, uk
growth, NN, grow
in, IN, in
embarrassing, JJ, embarrass
about-turn, NN, about-turn
08, CD, 08
Oct, NNP, oct
2013, CD, 2013
Labour, NNP, labo
Matthew, NNP, matthew
d\u2019Ancona, NNP, d\u2019ancona
Coalition, NNP, coalit
Steve, NNP, stev
David, NNP, david
Sir, NNP, sir
Civil, NNP, civil
OBR, NNP, obr
was, VBD, be
set, VBN, set
up, RP, up
by, IN, by
the, DT, the
Coalition, NNP, coalit
in, IN, in
2010, CD, 2010
precisely, RB, prec
to, TO, to
ensure, VB, ens
that, IN, that
politicians, NNS, polit
\u2013, VBP, \u2013
Messrs, NNP, messr
and, CC, and
Balls, NNP, bal
\u2013, NNP, \u2013
Treasury, NNP, treasury
forecasts, NNS, forecast
on, IN, on
which, WDT, which
economic, JJ, econom
policy, NN, policy
hangs, NNS, hang
Gordon, NNP, gordon
of, IN, of
cooking, VBG, cook
the, DT, the
books, NNS, book
Brown, NNP, brown
team, NN, team
at, IN, at
three, CD, three
o\u2019clock, JJ, o\u2019clock
in, IN, in
the, DT, the
morning, NN, morn
on, IN, on
the, DT, the
day, NN, day
of, IN, of
the, DT, the
Budget.\u201d, JJ, budget.\u201d
Labour\u2019s, NNS, labour\u2019s
Alistair, NNP, alistair
Brink, NNP, brink
Brown, NNP, brown
over, IN, over
the, DT, the
forecasts, NNS, forecast
Gordon, NNP, gordon
thought, VBD, think
OBR, NNP, obr
is, VBZ, be
Balls, NNP, bal
ran, VBD, run
the, DT, the
Treasury, NNP, treasury
OBR, NNP, obr
look, NN, look
at, IN, at
Labour\u2019s, JJ, labour\u2019s
policy, NN, policy
costings, NNS, cost
in, IN, in
the, DT, the
same, JJ, sam
way, NN, way
it, PRP, it
looks, VBZ, look
at, IN, at
those, DT, those
of, IN, of
the, DT, the
Government, NNP, govern
Institute, NNP, institut
for, IN, for
Government, NNP, govern
that, WDT, that
he, PRP, he
thought, VBD, think
it, PRP, it
would, MD, would
be, VB, be
\u201cgood, JJ, \u201cgood
for, IN, for
politics\u201d, JJ, politics\u201d
OBR, NNP, obr
has, VBZ, hav
17, CD, 17
people, NNS, peopl
Holland, NNP, holland
has, VBZ, hav
150, CD, 150
US, NNP, us
Office, NNP, off
has, VBZ, hav
nearly, RB, near
250, CD, 250
Parliament, NNP, parlia
reviews, NNS, review
the, DT, the
OBR, NNP, obr
in, IN, in
2015, CD, 2015
\u2013, CD, \u2013
Labour, NNP, labo
Lord, NNP, lord
in, IN, in
health, NN, heal
Admiral, NNP, admir
in, IN, in
defence, NN, def
Lord, NNP, lord
in, IN, in
foreign, JJ, foreign
affairs, NNS, affair
IMF, NNP, imf
was, VBD, be
forced, VBN, forc
to, TO, to
double, JJ, doubl
its, PRP$, its
growth, NN, grow
forecasts, NNS, forecast
for, IN, for
the, DT, the
UK, NNP, uk
\u2013, NNP, \u2013
George, NNP, georg
and, CC, and
the, DT, the
Coalition, NNP, coalit
Blame, NNP, blam
bad, JJ, bad
parents, NNS, par
for, IN, for
Britain\u2019s, NNS, britain\u2019s
ills, NNS, il
In, IN, In
Labour, NNP, labo
Labour, NNP, labo
Conference, NNP, conf
2013, CD, 2013
James, NNP, jam
's, POS, 's
analysis, NN, analys
Michael, NNP, michael
's, POS, 's
sketch, NN, sketch
Balls, NNS, bal
Miliband, NNP, miliband
grills, NNS, gril
PM, NNP, pm
over, IN, over
EU, NNP, eu
vote, NN, vot
Advertisement, NNP, advert
How, NNP, how
we, PRP, we
moderate, VBP, mod
Our, NNP, our
new, JJ, new
look, NN, look
telegraphuk, NN, telegraphuk
Please, NNP, pleas
enable, JJ, en
JavaScript, NNP, javascrib
to, TO, to
view, VB, view
the, DT, the
comments, NNS, com
powered, VBD, pow
by, IN, by
Disqus, NNP, disq
Disqus, NNP, disq
up, IN, up
to, TO, to
James, NNP, jam
's, POS, 's
Evening, NNP, ev
Briefing, NNP, brief
Sign, NNP, sign
up, IN, up
to, TO, to
Benedict, NNP, benedict
's, POS, 's
Morning, NNP, morn
Briefing, NNP, brief
Vote, NNP, vot
2015, CD, 2015
Nazi, NNP, naz
salute, NN, salut
Blame, NNP, blam
bad, JJ, bad
parents, NNS, par
for, IN, for
Britain\u2019s, NNS, britain\u2019s
ills, NNS, il
Sir, NNP, sir
McCann, NNP, mccann
Discipline, NNP, disciplin
police, NN, pol
and, CC, and
say, VB, say
sorry, JJ, sorry
to, TO, to
Andrew, NNP, andrew
Theresa, NNP, theres
tells, VBZ, tel
forces, NNS, forc
Kate, NNP, kat
McCann, NNP, mccann
refused, VBD, refus
to, TO, to
answer, VB, answ
48, CD, 48
questions, NNS, quest
Royal, NNP, roy
train, NN, train
may, MD, may
hit, VB, hit
the, DT, the
buffers, NNS, buff
after, IN, after
Queen, NNP, queen
's, POS, 's
treasurer, NN, treas
says, VBZ, say
cost, NN, cost
of, IN, of
replacing, VBG, replac
it, PRP, it
is, VBZ, be
'stagger, JJ, 'stagger
