[
{
  tag:'S',
  content:
  [
    {
      tag:'PERSON',
      content:
      [
        ['Email','NNP','email']
      ]
    },
    {
      tag:'ORGANIZATION',
      content:
      [
        ['Password','NNP','password']
      ]
    },
    ['Remember','NNP','rememb'],
    ['meForgot','NNP','meforgot'],
    ['password','NN','password'],
    ['?','.','?']
  ]
},
{
  tag:'S',
  content:
  [
    {
      tag:'GPE',
      content:
      [
        ['Log','NNP','log']
      ]
    },
    ['in','IN','in'],
    ['with','IN','with'],
    {
      tag:'PERSON',
      content:
      [
        ['Facebook','NNP','facebook'],
        ['Log','NNP','log']
      ]
    },
    ['in','IN','in'],
    ['with','IN','with'],
    {
      tag:'PERSON',
      content:
      [
        ['Twitter','NNP','twit'],
        ['Connect','NNP','connect']
      ]
    },
    ['your','PRP$','your'],
    {
      tag:'ORGANIZATION',
      content:
      [
        ['Digital','NNP','digit'],
        ['Journal','NNP','journ']
      ]
    },
    ['account','NN','account'],
    ['with','IN','with'],
    {
      tag:'PERSON',
      content:
      [
        ['Facebook','NNP','facebook']
      ]
    },
    ['or','CC','or'],
    ['Twitter','NNP','twit'],
    ['to','TO','to'],
    ['use','VB','us'],
    ['this','DT','this'],
    ['feature','NN','feat'],
    ['.','.','.']
  ]
},
{
  tag:'S',
  content:
  [
    {
      tag:'PERSON',
      content:
      [
        ['Connect','NNP','connect']
      ]
    },
    {
      tag:'ORGANIZATION',
      content:
      [
        ['Log','NNP','log']
      ]
    },
    ['In','NNP','in'],
    ['Sign','NNP','sign'],
    ['Up','NNP','up'],
    ['CONTRIBUTE','NNP','contribut'],
    ['15','CD','15'],
    ['must','MD','must'],
    ['read','VB','read'],
    ['articles','NNS','artic'],
    ['news','NN','new'],
    ['tech','NN','tech'],
    ['driving','VBG','driv'],
    ['entertainment','NN','entertain'],
    ['life','NN','lif'],
    ['sports','NNS','sport'],
    ['biz','VBP','biz'],
    ['money','NN','money'],
    {
      tag:'ORGANIZATION',
      content:
      [
        ['TRENDING','NNP','trend']
      ]
    },
    ['NOW','NNP','now'],
    ['Spain','NNP','spain'],
    ['franco','NN','franco'],
    ['orr','NN','or'],
    ['Congo','NNP','congo'],
    ['frogs','NNS','frog'],
    ['legs','NNS','leg'],
    {
      tag:'PERSON',
      content:
      [
        ['Dana','NNP','dan'],
        ['Cummings','NNP','cum']
      ]
    },
    ['Internet','NNP','internet'],
    ['Safety','NNP','saf'],
    ['In','NNP','in'],
    ['the','DT','the'],
    {
      tag:'GPE',
      content:
      [
        ['Flesh','NNP','flesh']
      ]
    },
    ['government','NN','govern'],
    ['shutdown','NN','shutdown'],
    ['common','JJ','common'],
    ['core','NN','cor'],
    ['Hungary','NNP','hung'],
    ['.pressrelease','NN','.pressrelease'],
    ['.body','NN','.body'],
    ['{',':','{'],
    ['font-family','JJ','font-family'],
    [':',':',':'],
    ['arial','JJ','ar'],
    [',',',',','],
    {
      tag:'GPE',
      content:
      [
        ['sans-serif','JJ','sans-serif']
      ]
    },
    [';',':',';'],
    ['}',':','}'],
    ['.pressrelease','NN','.pressrelease'],
    ['.body','NN','.body'],
    ['pre','NN','pre'],
    ['{',':','{'],
    ['font-family','JJ','font-family'],
    [':',':',':'],
    ['courier','JJR','coury'],
    ['new','JJ','new'],
    [',',',',','],
    ['monospace','NN','monospac'],
    [';',':',';'],
    ['font-size:12px','JJ','font-size:12px'],
    [';',':',';'],
    ['}',':','}'],
    ['More','JJR','mor'],
    ['press','NN','press'],
    ['releases»','-NONE-','releases»'],
    ['Press','NNP','press'],
    ['Release','NNP','releas'],
    ['BandagedEar.com','NNP','bandagedear.com'],
    ['Expands','NNPS','expand'],
    ['Inventory','NNP','inv'],
    ['of','IN','of'],
    {
      tag:'PERSON',
      content:
      [
        ['Paul','NNP','paul'],
        ['Cézanne','NNP','cézanne'],
        ['Art','NNP','art'],
        ['Prints','NNP','print']
      ]
    },
    ['>','NNP','>'],
    ['PRWEB.COM','NNP','prweb.com'],
    ['Newswire','NNP','newswir'],
    {
      tag:'PERSON',
      content:
      [
        ['Delray','NNP','delray'],
        ['Beach','NNP','beach']
      ]
    },
    [',',',',','],
    {
      tag:'ORGANIZATION',
      content:
      [
        ['FL','NNP','fl']
      ]
    },
    ['(','NNP','('],
    ['PRWEB','NNP','prweb'],
    [')','NNP',')'],
    ['October','NNP','octob'],
    ['11','CD','11'],
    [',',',',','],
    ['2013','CD','2013'],
    ['BandagedEar.com','JJ','bandagedear.com'],
    [',',',',','],
    ['an','DT','an'],
    ['online','NN','onlin'],
    ['art','NN','art'],
    ['gallery','NN','gallery'],
    ['and','CC','and'],
    ['art','NN','art'],
    ['print','NN','print'],
    ['retailer','NN','retail'],
    [',',',',','],
    ['added','VBD','ad'],
    ['new','JJ','new'],
    {
      tag:'PERSON',
      content:
      [
        ['Paul','NNP','paul'],
        ['Cezanne','NNP','cezan']
      ]
    },
    ['art','NN','art'],
    ['prints','NNS','print'],
    ['to','TO','to'],
    ['its','PRP$','its'],
    ['inventory','NN','inv'],
    ['.','.','.']
  ]
},
{
  tag:'S',
  content:
  [
    {
      tag:'GPE',
      content:
      [
        ['Cezanne','NNP','cezan']
      ]
    },
    ['is','VBZ','be'],
    ['known','VBN','know'],
    ['for','IN','for'],
    ['leading','VBG','lead'],
    ['the','DT','the'],
    ['way','NN','way'],
    ['to','TO','to'],
    ['future','VB','fut'],
    ['art','NN','art'],
    ['movements','NNS','mov'],
    [',',',',','],
    ['such','JJ','such'],
    ['as','IN','as'],
    {
      tag:'GPE',
      content:
      [
        ['Cubism','NNP','cub']
      ]
    },
    ['.','.','.']
  ]
},
{
  tag:'S',
  content:
  [
    ['Both','DT','Both'],
    {
      tag:'PERSON',
      content:
      [
        ['Henri','NNP','henr'],
        ['Matisse','NNP','matiss']
      ]
    },
    ['and','CC','and'],
    {
      tag:'PERSON',
      content:
      [
        ['Pablo','NNP','pablo'],
        ['Picasso','NNP','picasso']
      ]
    },
    ['are','VBP','be'],
    ['known','VBN','know'],
    ['for','IN','for'],
    ['the','DT','the'],
    ['quote','NN','quot'],
    ['that','IN','that'],
    ['Cézanne','JJ','cézanne'],
    ['“is','NNS','“is'],
    ['the','DT','the'],
    ['father','NN','fath'],
    ['of','IN','of'],
    ['us','PRP','us'],
    ['all.”','-NONE-','all.”'],
    ['In','IN','In'],
    ['addition','NN','addit'],
    ['to','TO','to'],
    ['some','DT','some'],
    ['of','IN','of'],
    ['his','PRP$','his'],
    ['most','RBS','most'],
    ['famous','JJ','fam'],
    ['paintings','NNS','paint'],
    [',',',',','],
    ['such','JJ','such'],
    ['as','IN','as'],
    ['“The','JJ','“the'],
    {
      tag:'PERSON',
      content:
      [
        ['Card','NNP','card']
      ]
    },
    ['Players”','NNP','players”'],
    ['and','CC','and'],
    ['“Turn','JJ','“turn'],
    ['in','IN','in'],
    ['the','DT','the'],
    {
      tag:'ORGANIZATION',
      content:
      [
        ['Road','NNP','road']
      ]
    },
    [',',',',','],
    ['”','NNP','”'],
    ['BandagedEar.com','NNP','bandagedear.com'],
    ['added','VBD','ad'],
    ['additional','JJ','addit'],
    ['art','NN','art'],
    ['prints','NNS','print'],
    [',',',',','],
    ['such','JJ','such'],
    ['as','IN','as'],
    ['“The','JJ','“the'],
    ['Temptation','NNP','tempt'],
    ['of','IN','of'],
    {
      tag:'GPE',
      content:
      [
        ['St.','NNP','st.']
      ]
    },
    ['Anthony”','NNP','anthony”'],
    ['and','CC','and'],
    ['“Dejeuner','NNP','“dejeuner'],
    ['Sur','NNP','sur'],
    ['l'Herbe.”','NNP','l'herbe.”'],
    {
      tag:'PERSON',
      content:
      [
        ['Vanessa','NNP','vaness'],
        ['Smith','NNP','smi']
      ]
    },
    [',',',',','],
    ['marketing','NN','market'],
    ['director','NN','direct'],
    ['at','IN','at'],
    {
      tag:'ORGANIZATION',
      content:
      [
        ['BandagedEar.com','NNP','bandagedear.com']
      ]
    },
    [',',',',','],
    ['said','VBD','say'],
    [',',',',','],
    ['“Paul','JJ','“paul'],
    ['Cezanne','NNP','cezan'],
    ['art','NN','art'],
    ['prints','NNS','print'],
    ['are','VBP','be'],
    ['timeless','RB','timeless'],
    ['and','CC','and'],
    ['coordinate','VB','coordin'],
    ['with','IN','with'],
    ['transitional','JJ','transit'],
    ['and','CC','and'],
    ['traditional','JJ','tradit'],
    ['room','NN','room'],
    ['decor','NN','dec'],
    ['.','.','.']
  ]
},
{
  tag:'S',
  content:
  [
    ['The','DT','The'],
    ['vivid','NN','vivid'],
    ['colors','NNS','col'],
    ['and','CC','and'],
    ['geometric','JJ','geomet'],
    ['shapes','NNS','shap'],
    ['in','IN','in'],
    {
      tag:'GPE',
      content:
      [
        ['Cezanne','NNP','cezan']
      ]
    },
    ['art','NN','art'],
    ['prints','NNS','print'],
    ['create','VBP','cre'],
    ['a','DT','a'],
    ['conversation','NN','convers'],
    ['piece','NN','piec'],
    ['in','IN','in'],
    ['any','DT','any'],
    ['room.”','NN','room.”'],
    ['In','IN','In'],
    ['addition','NN','addit'],
    ['to','TO','to'],
    ['selling','VBG','sel'],
    ['prints','NNS','print'],
    [',',',',','],
    {
      tag:'ORGANIZATION',
      content:
      [
        ['BandagedEar.com','NNP','bandagedear.com']
      ]
    },
    ['also','RB','also'],
    ['frames','VBZ','fram'],
    ['art','NN','art'],
    ['prints','NNS','print'],
    ['at','IN','at'],
    ['a','DT','a'],
    ['fraction','NN','fract'],
    ['of','IN','of'],
    ['the','DT','the'],
    ['cost','NN','cost'],
    ['when','WRB','when'],
    ['compared','VBN','comp'],
    ['to','TO','to'],
    ['local','JJ','loc'],
    ['frame','NN','fram'],
    ['shops','NNS','shop'],
    ['.','.','.']
  ]
},
{
  tag:'S',
  content:
  [
    ['All','DT','All'],
    ['of','IN','of'],
    ['the','DT','the'],
    ['new','JJ','new'],
    {
      tag:'PERSON',
      content:
      [
        ['Paul','NNP','paul'],
        ['Cezanne','NNP','cezan']
      ]
    },
    ['art','NN','art'],
    ['prints','NNS','print'],
    ['are','VBP','be'],
    ['available','JJ','avail'],
    ['with','IN','with'],
    ['framing','NN','fram'],
    ['options','NNS','opt'],
    ['.','.','.']
  ]
},
{
  tag:'S',
  content:
  [
    ['All','DT','All'],
    ['art','NN','art'],
    ['prints','NNS','print'],
    ['are','VBP','be'],
    ['framed','VBN','fram'],
    ['in','IN','in'],
    ['the','DT','the'],
    {
      tag:'GPE',
      content:
      [
        ['United','NNP','unit'],
        ['States','NNPS','stat']
      ]
    },
    ['using','VBG','us'],
    ['high-quality','NN','high-quality'],
    ['materials','NNS','mat'],
    ['.','.','.']
  ]
},
{
  tag:'S',
  content:
  [
    ['About','IN','About'],
    {
      tag:'ORGANIZATION',
      content:
      [
        ['BandagedEar','NNP','bandagedear']
      ]
    },
    ['BandagedEar.com','NNP','bandagedear.com'],
    ['is','VBZ','be'],
    ['an','DT','an'],
    ['extensive','JJ','extend'],
    ['online','NN','onlin'],
    ['wall','NN','wal'],
    ['art','NN','art'],
    ['gallery','NN','gallery'],
    ['and','CC','and'],
    ['community','NN','commun'],
    ['site','NN','sit'],
    ['where','WRB','where'],
    ['art','NN','art'],
    ['lovers','NNS','lov'],
    ['can','MD','can'],
    ['shop','VB','shop'],
    ['from','IN','from'],
    ['among','IN','among'],
    ['thousands','NNS','thousand'],
    ['of','IN','of'],
    ['carefully','RB','car'],
    ['selected','VBN','select'],
    ['art','NN','art'],
    ['prints','NNS','print'],
    ['and','CC','and'],
    ['posters','NNS','post'],
    ['.','.','.']
  ]
},
{
  tag:'S',
  content:
  [
    ['In','IN','In'],
    ['addition','NN','addit'],
    ['to','TO','to'],
    ['high-quality','JJ','high-quality'],
    ['art','NN','art'],
    ['prints','NNS','print'],
    [',',',',','],
    {
      tag:'ORGANIZATION',
      content:
      [
        ['BandagedEar.com','NNP','bandagedear.com']
      ]
    },
    ['offers','VBZ','off'],
    ['free','JJ','fre'],
    ['tools','NNS','tool'],
    ['to','TO','to'],
    ['help','VB','help'],
    ['customers','NNS','custom'],
    ['discover','VB','discov'],
    ['new','JJ','new'],
    ['art','NN','art'],
    ['and','CC','and'],
    ['artists','NNS','art'],
    ['.','.','.']
  ]
},
{
  tag:'S',
  content:
  [
    ['A','DT','A'],
    ['custom','NN','custom'],
    ['frame','NN','fram'],
    ['shop','NN','shop'],
    ['allows','VBZ','allow'],
    ['customers','NNS','custom'],
    ['to','TO','to'],
    ['choose','VB','choos'],
    ['a','DT','a'],
    ['high-quality','NN','high-quality'],
    ['custom','NN','custom'],
    ['frame','NN','fram'],
    [',',',',','],
    ['which','WDT','which'],
    ['typically','RB','typ'],
    ['costs','VBZ','cost'],
    ['less','JJR','less'],
    ['than','IN','than'],
    ['local','JJ','loc'],
    ['frame','NN','fram'],
    ['shops','NNS','shop'],
    ['.','.','.']
  ]
},
{
  tag:'S',
  content:
  [
    {
      tag:'GPE',
      content:
      [
        ['Choose','NNP','choos']
      ]
    },
    ['from','IN','from'],
    ['among','IN','among'],
    ['millions','NNS','mil'],
    ['of','IN','of'],
    ['different','JJ','diff'],
    ['configurations','NNS','config'],
    ['by','IN','by'],
    ['specifying','VBG','spec'],
    ['the','DT','the'],
    ['frame','NN','fram'],
    [',',',',','],
    ['matting','VBG','mat'],
    [',',',',','],
    ['cropping','VBG','crop'],
    ['and','CC','and'],
    ['glazing','VBG','glaz'],
    ['.','.','.']
  ]
},
{
  tag:'S',
  content:
  [
    ['All','DT','All'],
    ['purchases','NNS','purchas'],
    ['are','VBP','be'],
    ['backed','VBN','back'],
    ['by','IN','by'],
    ['a','DT','a'],
    ['100','CD','100'],
    ['%','NN','%'],
    ['satisfaction','NN','satisfact'],
    ['guarantee','NN','guar'],
    ['.','.','.']
  ]
},
{
  tag:'S',
  content:
  [
    {
      tag:'GPE',
      content:
      [
        ['Please','NN','pleas']
      ]
    },
    ['visit','NN','visit'],
    ['http','NN','http'],
    [':',':',':'],
    ['//www.bandagedear.com','JJ','//www.bandagedear.com'],
    ['for','IN','for'],
    ['more','RBR','mor'],
    ['information','NN','inform'],
    ['.','.','.']
  ]
},
{
  tag:'S',
  content:
  [
    ['Read','NNP','read'],
    ['the','DT','the'],
    ['full','JJ','ful'],
    ['story','NN','story'],
    ['at','IN','at'],
    ['http','NN','http'],
    [':',':',':'],
    ['//www.prweb.com/releases/2013/10/prweb11205798.htm','JJ','//www.prweb.com/releases/2013/10/prweb11205798.htm'],
    {
      tag:'ORGANIZATION',
      content:
      [
        ['Latest','NNP','latest'],
        ['News','NNP','new'],
        ['Top','NNP','top'],
        ['News','NNP','new'],
        ['Harry','NNP','harry'],
        ['Belafonte','NNP','belafont']
      ]
    },
    ['sues','VBZ','sue'],
    {
      tag:'PERSON',
      content:
      [
        ['Martin','NNP','martin'],
        ['Luther','NNP','luth']
      ]
    },
    ['King','NNP','king'],
    ['Jr','NNP','jr'],
    [''s','POS',''s'],
    ['heirs','NNS','heir'],
    {
      tag:'ORGANIZATION',
      content:
      [
        ['Nazi','NNP','naz']
      ]
    },
    ['war','NN','war'],
    ['criminal','JJ','crimin'],
    {
      tag:'PERSON',
      content:
      [
        ['Erich','NNP','erich'],
        ['Priebke','NNP','priebk']
      ]
    },
    [''s','POS',''s'],
    ['funeral','JJ','fun'],
    ['halted','VBN','halt'],
    [',',',',','],
    ['hearse','NN','hears'],
    ['kicked','VBD','kick'],
    {
      tag:'PERSON',
      content:
      [
        ['Wine','NNP','win']
      ]
    },
    ['for','IN','for'],
    ['cats','NNS','cat'],
    ['premieres','NNS','premy'],
    ['in','IN','in'],
    {
      tag:'GPE',
      content:
      [
        ['Japan','NNP','jap']
      ]
    },
    ['Sony','NNP','sony'],
    ['allowing','VBG','allow'],
    ['Playstation','NNP','playst'],
    ['4','CD','4'],
    ['pre-orders','NNS','pre-orders'],
    ['through','IN','through'],
    {
      tag:'ORGANIZATION',
      content:
      [
        ['PS3','NNP','ps3']
      ]
    },
    ['dashboard','NN','dashboard'],
    {
      tag:'GSP',
      content:
      [
        ['US','NNP','us']
      ]
    },
    ['surpasses','NNS','surpass'],
    {
      tag:'GPE',
      content:
      [
        ['Saudi','NNP','saud'],
        ['Arabia','NNP','arab']
      ]
    },
    ['as','IN','as'],
    ['world’s','NNP','world’s'],
    ['top','NN','top'],
    ['energy','NN','energy'],
    ['producer','NN','produc'],
    {
      tag:'PERSON',
      content:
      [
        ['Libertarian','NNP','libert'],
        ['Party','NNP','party']
      ]
    },
    ['of','IN','of'],
    {
      tag:'GPE',
      content:
      [
        ['Florida','NNP','florid']
      ]
    },
    ['Chair','NNP','chair'],
    ['discusses','VBZ','discuss'],
    ['her','PRP','her'],
    ['party','NN','party'],
    ['Special','NNP','spec'],
    ['B.C','NNP','b.c'],
    ['.','.','.']
  ]
},
{
  tag:'S',
  content:
  [
    ['man','NN','man'],
    ['sentenced','VBD','sent'],
    ['to','TO','to'],
    ['18','CD','18'],
    ['months','NNS','mon'],
    ['for','IN','for'],
    ['human','NN','hum'],
    ['trafficking','VBG','traff'],
    ['of','IN','of'],
    ['nanny','JJ','nanny'],
    ['Analysts','NNS','analyst'],
    ['claim','VBP','claim'],
    {
      tag:'GPE',
      content:
      [
        ['Canadian','JJ','canad']
      ]
    },
    ['dollar','NN','doll'],
    ['overvalued','VBD','overvalu'],
    ['by','IN','by'],
    ['over','IN','over'],
    ['10','CD','10'],
    ['%','NN','%'],
    {
      tag:'PERSON',
      content:
      [
        ['Arrest','NNP','arrest']
      ]
    },
    [',',',',','],
    ['not','RB','not'],
    ['stardom','VB','stardom'],
    ['for','IN','for'],
    {
      tag:'GPE',
      content:
      [
        ['Somali','NNP','somal']
      ]
    },
    ['pirate','NN','pir'],
    ['nabbed','VBD','nab'],
    ['in','IN','in'],
    ['fake','NN','fak'],
    ['movie','NN','movy'],
    ['sting','VBG','sting'],
    {
      tag:'GPE',
      content:
      [
        ['New','NNP','new']
      ]
    },
    ['find','NN','find'],
    [':',':',':'],
    ['The','DT','The'],
    {
      tag:'GPE',
      content:
      [
        ['British','JJ','brit']
      ]
    },
    ['ate','NN','at'],
    ['frogs','NNS','frog'],
    [''','POS','''],
    ['legs','NNS','leg'],
    ['before','IN','before'],
    ['the','DT','the'],
    {
      tag:'GPE',
      content:
      [
        ['French','JJ','french']
      ]
    },
    ['Study','NNP','study'],
    ['suggests','VBZ','suggest'],
    {
      tag:'PERSON',
      content:
      [
        ['Oreos','NNP','oreo']
      ]
    },
    ['are','VBP','be'],
    ['as','RB','as'],
    ['addicting','VBG','addict'],
    ['as','IN','as'],
    ['crack','NN','crack'],
    ['cocaine','NN','cocain'],
    {
      tag:'GPE',
      content:
      [
        ['Brazilian','JJ','brazil']
      ]
    },
    ['crime','NN','crim'],
    ['gang','NN','gang'],
    ['threatens','VBZ','threaten'],
    ['terror','NN','ter'],
    ['attacks','NNS','attack'],
    ['at','IN','at'],
    ['soccer','NN','socc'],
    ['World','NNP','world'],
    ['Cup','NNP','cup'],
    ['Arnold','NNP','arnold'],
    ['Swartzenegger','NNP','swartzeneg'],
    ['visits','VBZ','visit'],
    {
      tag:'PERSON',
      content:
      [
        ['Franco','NNP','franco']
      ]
    },
    [''s','POS',''s'],
    ['monument','NN','monu'],
    ['in','IN','in'],
    {
      tag:'GPE',
      content:
      [
        ['Madrid','NNP','madrid']
      ]
    },
    [',',',',','],
    {
      tag:'GPE',
      content:
      [
        ['Spain','NNP','spain']
      ]
    },
    ['Op-Ed','JJ','op-ed'],
    [':',':',':'],
    ['How','WRB','How'],
    ['the','DT','the'],
    {
      tag:'ORGANIZATION',
      content:
      [
        ['Obama','NNP','obam']
      ]
    },
    ['administration','NN','admin'],
    ['will','MD','will'],
    ['cripple','VB','crippl'],
    ['education','NN','educ'],
    {
      tag:'GPE',
      content:
      [
        ['U.S.','NNP','u.s.']
      ]
    },
    {
      tag:'ORGANIZATION',
      content:
      [
        ['Senate','NNP','sen']
      ]
    },
    ['bi-partisan','NNP','bi-partisan'],
    ['deal','NN','deal'],
    ['prepares','NNS','prep'],
    ['for','IN','for'],
    ['vote','NN','vot'],
    ['to','TO','to'],
    ['end','VB','end'],
    ['shutdown','RP','shutdown'],
    ['Op-Ed','JJ','op-ed'],
    [':',':',':'],
    ['Hatred','JJ','hat'],
    ['of','IN','of'],
    {
      tag:'ORGANIZATION',
      content:
      [
        ['ObamaCare','NNP','obamac']
      ]
    },
    ['leads','NNS','lead'],
    {
      tag:'PERSON',
      content:
      [
        ['Tea','NNP','tea'],
        ['Party','NNP','party']
      ]
    },
    ['to','TO','to'],
    ['brink','VB','brink'],
    ['of','IN','of'],
    ['disaster','JJR','disast'],
    {
      tag:'GPE',
      content:
      [
        ['Spanish','JJ','span']
      ]
    },
    ['woman','NN','wom'],
    ['kept','VBD','keep'],
    ['her','PRP','her'],
    ['father','RB','fath'],
    [''s','VBZ',''s'],
    ['corpse','NN','corps'],
    ['at','IN','at'],
    ['home','NN','hom'],
    ['for','IN','for'],
    ['over','IN','over'],
    ['a','DT','a'],
    ['year','NN','year'],
    ['Hungary','NNP','hung'],
    ['charges','VBZ','charg'],
    ['former','JJ','form'],
    ['Communist','NNP','commun'],
    ['minister','NN','min'],
    ['with','IN','with'],
    ['war','NN','war'],
    ['crimes','NNS','crim'],
    ['‘Sherlock','JJ','‘sherlock'],
    ['Forever’','NN','forever’'],
    ['and','CC','and'],
    ['rumours','NNS','rumo'],
    ['persist','VBP','persist'],
    ['of','IN','of'],
    ['a','DT','a'],
    ['Christmas','NNP','christmas'],
    ['special','JJ','spec'],
    ['Op-Ed','JJ','op-ed'],
    [':',':',':'],
    ['Lt','NNP','lt'],
    ['Governor’s','NNP','governor’s'],
    ['call','NN','cal'],
    ['for','IN','for'],
    ['grand','NN','grand'],
    ['jury','NN','jury'],
    ['signals','NNS','sign'],
    ['win','VBP','win'],
    ['for','IN','for'],
    {
      tag:'ORGANIZATION',
      content:
      [
        ['Anonymous','JJ','anonym']
      ]
    },
    ['Special','JJ','spec'],
    ['Op-Ed','JJ','op-ed'],
    [':',':',':'],
    ['Fraud','NNP','fraud'],
    ['in','IN','in'],
    {
      tag:'GPE',
      content:
      [
        ['Science','NNP','sci']
      ]
    },
    ['Review','NNP','review'],
    [':',':',':'],
    ['How','WRB','How'],
    ['is','VBZ','be'],
    ['it','PRP','it'],
    ['that','IN','that'],
    ['one','CD','one'],
    ['of','IN','of'],
    ['the','DT','the'],
    ['world','NN','world'],
    [''s','POS',''s'],
    ['richest','NN','richest'],
    ['nations','NNS','nat'],
    ['is','VBZ','be'],
    ['the','DT','the'],
    ['poorest','JJS','poor'],
    ['?','.','?']
  ]
},
{
  tag:'S',
  content:
  [
    {
      tag:'PERSON',
      content:
      [
        ['Super','NNP','sup']
      ]
    },
    ['yeast','VBD','yeast'],
    ['increases','NNS','increas'],
    ['ethanol','NN','ethanol'],
    ['yield','NN','yield'],
    {
      tag:'GPE',
      content:
      [
        ['American','JJ','am']
      ]
    },
    ['who','WP','who'],
    ['robbed','VBN','rob'],
    ['a','DT','a'],
    {
      tag:'GPE',
      content:
      [
        ['Canadian','JJ','canad']
      ]
    },
    ['bank','NN','bank'],
    ['dressed','VBD','dress'],
    ['as','IN','as'],
    ['clown','NN','clown'],
    ['gets','NNS','get'],
    ['8','CD','8'],
    ['years','NNS','year'],
    {
      tag:'GPE',
      content:
      [
        ['Syrian','JJ','syr']
      ]
    },
    ['army','NN','army'],
    ['captures','NNS','capt'],
    ['town','IN','town'],
    ['near','IN','near'],
    {
      tag:'PERSON',
      content:
      [
        ['Damascus','NNP','damasc'],
        ['California','NNP','californ'],
        ['Bar','NNP','bar'],
        ['Assoc','NNP','assoc']
      ]
    },
    ['.','.','.']
  ]
},
{
  tag:'S',
  content:
  [
    ['—','NN','—'],
    ['US','PRP','US'],
    ['leaders','NNS','lead'],
    [',',',',','],
    ['courts','NNS','court'],
    ['stop','VBP','stop'],
    ['breaking','VBG','break'],
    ['the','DT','the'],
    ['law','NN','law'],
    {
      tag:'PERSON',
      content:
      [
        ['Special','NNP','spec'],
        ['Disney','NNP','disney']
      ]
    },
    [''s','POS',''s'],
    ['futuristic','JJ','fut'],
    ['e-books','NNS','e-books'],
    ['powered','VBN','pow'],
    ['by','IN','by'],
    ['paper','NN','pap'],
    ['In','IN','In'],
    ['the','DT','the'],
    ['Flesh','NNP','flesh'],
    [':',':',':'],
    ['Filming','NNP','film'],
    ['begins','VBZ','begin'],
    ['on','IN','on'],
    ['season','NN','season'],
    ['2','CD','2'],
    ['Op-Ed','JJ','op-ed'],
    [':',':',':'],
    ['What','WP','What'],
    ['privacy','NN','priv'],
    ['rights','NNS','right'],
    ['do','VBP','do'],
    ['you','PRP','you'],
    ['have','VB','hav'],
    ['online','NN','onlin'],
    ['?','.','?']
  ]
},
{
  tag:'S',
  content:
  [
    {
      tag:'GPE',
      content:
      [
        ['Bipartisan','NNP','bipart']
      ]
    },
    ['debt','NN','debt'],
    ['crisis','NN','cris'],
    ['settlement','NN','settl'],
    ['reached','VBD','reach'],
    {
      tag:'PERSON',
      content:
      [
        ['Social','NNP','soc'],
        ['Engage','NNP','eng'],
        ['Buy','NNP','buy']
      ]
    },
    ['an','DT','an'],
    ['ad','NN','ad'],
    ['on','IN','on'],
    ['DigitalJournal.com','NNP','digitaljournal.com'],
    ['Corporate','NNP','corp'],
    ['Contact','NNP','contact'],
    ['Us','NNP','us'],
    ['About','NNP','about'],
    ['Us','NNP','us'],
    ['Jobs','NNP','job'],
    ['Media','NNP','med'],
    ['Center','NNP','cent'],
    ['Advertise','NNP','advert'],
    ['Leaderboard','NNP','leaderboard'],
    ['&','CC','&'],
    {
      tag:'PERSON',
      content:
      [
        ['Achievements','NNP','achiev'],
        ['Investors','NNP','invest']
      ]
    },
    ['&','CC','&'],
    {
      tag:'ORGANIZATION',
      content:
      [
        ['Partners','NNP','partn'],
        ['Board','NNP','board']
      ]
    },
    ['of','IN','of'],
    {
      tag:'ORGANIZATION',
      content:
      [
        ['Advisers','NNP','adv'],
        ['Help','NNP','help']
      ]
    },
    ['&','CC','&'],
    {
      tag:'PERSON',
      content:
      [
        ['Support','NNP','support'],
        ['Help','NNP','help'],
        ['Center','NNP','cent'],
        ['Frequently','NNP','frequ'],
        ['Asked','NNP','ask'],
        ['Questions','NNP','quest'],
        ['Editorial','NNP','edit'],
        ['Guidelines','NNP','guidelin'],
        ['Terms','NNP','term']
      ]
    },
    ['of','IN','of'],
    {
      tag:'ORGANIZATION',
      content:
      [
        ['Use','NNP','us'],
        ['Privacy','NNP','priv'],
        ['Policy','NNP','policy'],
        ['Code','NNP','cod']
      ]
    },
    ['of','IN','of'],
    {
      tag:'ORGANIZATION',
      content:
      [
        ['Conduct','NNP','conduc'],
        ['News','NNP','new'],
        ['Links','NNP','link'],
        ['Latest','NNP','latest'],
        ['News','NNP','new'],
        ['Live','NNP','liv']
      ]
    },
    ['Events','NNP','ev'],
    ['News','NNP','new'],
    {
      tag:'PERSON',
      content:
      [
        ['Alerts','NNP','alert'],
        ['Digital','NNP','digit'],
        ['Journal','NNP','journ'],
        ['Mobile','NNP','mobl'],
        ['Global','NNP','glob']
      ]
    },
    ['Press','NNP','press'],
    ['Releases','NNP','releas'],
    ['24-7PressRelease.com','CD','24-7PressRelease.com'],
    ['copyright','NN','copyright'],
    ['©',':','©'],
    ['2013','CD','2013'],
    ['digitaljournal.com','JJ','digitaljournal.com'],
    ['|','NN','|'],
    ['powered','VBD','pow'],
    ['by','IN','by'],
    ['dell','NN','del'],
    ['servers','NNS','serv']
  ]
}]