[
{
  tag:'S',
  content:
  [
    ['This','DT','This'],
    ['site','NN','sit'],
    ['requires','VBZ','requir'],
    {
      tag:'ORGANIZATION',
      content:
      [
        ['JavaScript','NNP','javascrib']
      ]
    },
    ['and','CC','and'],
    ['Cookies','NNPS','cooky'],
    ['to','TO','to'],
    ['be','VB','be'],
    ['enabled','VBN','en'],
    ['.','.','.']
  ]
},
{
  tag:'S',
  content:
  [
    {
      tag:'GPE',
      content:
      [
        ['Please','NN','pleas']
      ]
    },
    ['change','NN','chang'],
    ['your','PRP$','your'],
    ['browser','NN','brows'],
    ['settings','NNS','set'],
    ['or','CC','or'],
    ['upgrade','VB','upgrad'],
    ['your','PRP$','your'],
    ['browser','NN','brows'],
    ['.','.','.']
  ]
}]