[
{
  tag:'S',
  content:
  [
    ['Science/AAAS','JJ','science/aaas'],
    ['AAAS.ORG','JJ','aaas.org'],
    ['Feedback','NNP','feedback'],
    ['Help','NNP','help'],
    ['Librarians','NNP','libr'],
    ['All','NNP','al'],
    ['Science','NNP','sci'],
    ['Journals','NNPS','journ'],
    {
      tag:'ORGANIZATION',
      content:
      [
        ['Science','NNP','sci'],
        ['Magazine','NNP','magazin'],
        ['Daily','NNP','dai'],
        ['News','NNP','new'],
        ['Science','NNP','sci']
      ]
    },
    ['Signaling','NNP','sign'],
    ['Science','NNP','sci'],
    ['Translational','NNP','transl'],
    {
      tag:'PERSON',
      content:
      [
        ['Medicine','NNP','medicin']
      ]
    },
    ['SAGE','NNP','sag'],
    ['KE','NNP','ke'],
    ['Science','NNP','sci'],
    ['Careers','NNP','car'],
    ['All','NNP','al'],
    ['HighWire','NNP','highwir'],
    ['JournalsAdvanced','NNP','journalsadv'],
    ['Guest','NNP','guest'],
    {
      tag:'PERSON',
      content:
      [
        ['Alerts','NNP','alert'],
        ['Access','NNP','access'],
        ['Rights','NNP','right'],
        ['My','NNP','my'],
        ['Account','NNP','account'],
        ['Sign','NNP','sign']
      ]
    },
    ['In','NNP','in'],
    ['News','NNP','new'],
    ['Science','NNP','sci'],
    ['Journals','NNPS','journ'],
    {
      tag:'PERSON',
      content:
      [
        ['Careers','NNP','car'],
        ['Multimedia','NNP','multimed'],
        ['Topics','NNP','top'],
        ['Subscribe','NNP','subscrib'],
        ['Science','NNP','sci'],
        ['Home','NNP','hom'],
        ['Current','NNP','cur'],
        ['Issue','NNP','issu'],
        ['Previous','NNP','prevy']
      ]
    },
    {
      tag:'PERSON',
      content:
      [
        ['Issues','NNPS','issu'],
        ['Science','NNP','sci'],
        ['Express','NNP','express'],
        ['Science','NNP','sci']
      ]
    },
    ['Products','NNPS','produc'],
    ['My','NNP','my'],
    ['Science','NNP','sci'],
    ['About','NNP','about'],
    ['the','DT','the'],
    {
      tag:'ORGANIZATION',
      content:
      [
        ['Journal','NNP','journ'],
        ['Home','NNP','hom']
      ]
    },
    ['>','NNP','>'],
    ['Science','NNP','sci'],
    {
      tag:'PERSON',
      content:
      [
        ['Magazine','NNP','magazin']
      ]
    },
    ['>','NNP','>'],
    ['6','CD','6'],
    ['December','NNP','decemb'],
    ['2002','CD','2002'],
    ['>','CD','>'],
    ['Devlin','NNP','devlin'],
    [',',',',','],
    ['298','CD','298'],
    ['(',':','('],
    ['5600','CD','5600'],
    [')','CD',')'],
    [':',':',':'],
    ['1899-1900','CD','1899-1900'],
    ['Prev','NNP','prev'],
    ['|','NNP','|'],
    ['Table','NNP','tabl'],
    ['of','IN','of'],
    {
      tag:'ORGANIZATION',
      content:
      [
        ['Contents','NNP','cont']
      ]
    },
    ['|','NNP','|'],
    ['Next','NNP','next'],
    ['Science','NNP','sci'],
    ['6','CD','6'],
    ['December','NNP','decemb'],
    ['2002','CD','2002'],
    [':',':',':'],
    ['Vol','NNP','vol'],
    ['.','.','.']
  ]
},
{
  tag:'S',
  content:
  [
    ['298','CD','298'],
    ['no','DT','no'],
    ['.','.','.']
  ]
},
{
  tag:'S',
  content:
  [
    ['5600','CD','5600'],
    ['pp','NN','pp'],
    ['.','.','.']
  ]
},
{
  tag:'S',
  content:
  [
    ['1899-1900','CD','1899-1900'],
    ['DOI','NNP','doi'],
    [':',':',':'],
    ['10.1126/science.1079622','CD','10.1126/science.1079622'],
    ['Essays','NNS','essay'],
    ['on','IN','on'],
    {
      tag:'GPE',
      content:
      [
        ['Science','NNP','sci']
      ]
    },
    ['and','CC','and'],
    {
      tag:'PERSON',
      content:
      [
        ['Society','NNP','socy'],
        ['PORTRAITS','NNP','portrait'],
        ['OF','NNP','of']
      ]
    },
    ['SCIENCEKurt','NNP','sciencekurt'],
    ['Gödel','NNP','gödel'],
    ['--',':','--'],
    ['Separating','NNP','sep'],
    ['Truth','NNP','tru'],
    ['from','IN','from'],
    {
      tag:'GPE',
      content:
      [
        ['Proof','NNP','proof']
      ]
    },
    ['in','IN','in'],
    {
      tag:'GPE',
      content:
      [
        ['Mathematics','NNP','mathem']
      ]
    },
    ['Keith','NNP','kei'],
    ['Devlin*','-NONE-','Devlin*'],
    ['K.','NNP','k.'],
    ['Devlin','NNP','devlin'],
    ['is','VBZ','be'],
    ['executive','JJ','execut'],
    ['director','NN','direct'],
    ['of','IN','of'],
    {
      tag:'ORGANIZATION',
      content:
      [
        ['Stanford','NNP','stanford'],
        ['University','NNP','univers']
      ]
    },
    [''s','POS',''s'],
    {
      tag:'ORGANIZATION',
      content:
      [
        ['Center','NNP','cent']
      ]
    },
    ['for','IN','for'],
    ['the','DT','the'],
    ['Study','NNP','study'],
    ['of','IN','of'],
    {
      tag:'GPE',
      content:
      [
        ['Language','NNP','langu']
      ]
    },
    ['and','CC','and'],
    {
      tag:'ORGANIZATION',
      content:
      [
        ['Information','NNP','inform']
      ]
    },
    ['and','CC','and'],
    ['a','DT','a'],
    ['consulting','NN','consult'],
    ['professor','NN','profess'],
    ['of','IN','of'],
    {
      tag:'GPE',
      content:
      [
        ['Mathematics','NNP','mathem']
      ]
    },
    ['at','IN','at'],
    {
      tag:'ORGANIZATION',
      content:
      [
        ['Stanford','NNP','stanford'],
        ['University','NNP','univers']
      ]
    },
    [',',',',','],
    {
      tag:'PERSON',
      content:
      [
        ['Stanford','NNP','stanford']
      ]
    },
    [',',',',','],
    ['CA','NNP','ca'],
    ['94305-4115','CD','94305-4115'],
    [',',',',','],
    {
      tag:'ORGANIZATION',
      content:
      [
        ['USA','NNP','us']
      ]
    },
    ['.','.','.']
  ]
},
{
  tag:'S',
  content:
  [
    ['E-mail','JJ','e-mail'],
    [':',':',':'],
    ['devlin','NN','devlin'],
    ['{',':','{'],
    ['at','IN','at'],
    ['}','CD','}'],
    ['csli.stanford.edu','JJ','csli.stanford.edu'],
    ['In','IN','In'],
    ['1931','CD','1931'],
    [',',',',','],
    ['a','DT','a'],
    ['young','JJ','young'],
    {
      tag:'GPE',
      content:
      [
        ['Austrian','JJ','aust']
      ]
    },
    ['mathematician','NN','mathem'],
    ['published','VBD','publ'],
    ['a','DT','a'],
    ['paper','NN','pap'],
    ['that','WDT','that'],
    ['sent','NN','sent'],
    ['shock','NN','shock'],
    ['waves','NNS','wav'],
    ['through','IN','through'],
    ['the','DT','the'],
    ['mathematical','JJ','mathem'],
    ['community','NN','commun'],
    ['and','CC','and'],
    ['forced','VBD','forc'],
    ['mathematicians','NNS','mathem'],
    ['to','TO','to'],
    ['take','VB','tak'],
    ['a','DT','a'],
    ['fresh','JJ','fresh'],
    ['look','NN','look'],
    ['at','IN','at'],
    ['their','PRP$','their'],
    ['discipline','NN','disciplin'],
    ['.','.','.']
  ]
},
{
  tag:'S',
  content:
  [
    ['The','DT','The'],
    ['mathematician','JJ','mathem'],
    ['was','VBD','be'],
    {
      tag:'PERSON',
      content:
      [
        ['Kurt','NNP','kurt'],
        ['Gödel','NNP','gödel']
      ]
    },
    [',',',',','],
    ['and','CC','and'],
    ['the','DT','the'],
    ['result','NN','result'],
    ['proved','VBD','prov'],
    ['in','IN','in'],
    ['his','PRP$','his'],
    ['paper','NN','pap'],
    ['became','VBD','becom'],
    ['known','VBN','know'],
    ['as','IN','as'],
    ['the','DT','the'],
    ['Gödel','NNP','gödel'],
    ['Incompleteness','NNP','incomplet'],
    ['Theorem','NNP','theorem'],
    [',',',',','],
    ['or','CC','or'],
    ['more','JJR','mor'],
    ['simply','RB','simply'],
    ['Gödel','JJ','gödel'],
    [''s','POS',''s'],
    ['Theorem—although','JJ','theorem—although'],
    ['it','PRP','it'],
    ['was','VBD','be'],
    ['by','IN','by'],
    ['no','DT','no'],
    ['means','NNS','mean'],
    ['the','DT','the'],
    ['only','JJ','on'],
    ['major','JJ','maj'],
    ['theorem','NN','theorem'],
    ['he','PRP','he'],
    ['proved','VBD','prov'],
    ['during','IN','during'],
    ['his','PRP$','his'],
    ['highly','RB','high'],
    ['successful','JJ','success'],
    ['career','NN','car'],
    ['.','.','.']
  ]
},
{
  tag:'S',
  content:
  [
    ['He','PRP','He'],
    ['is','VBZ','be'],
    ['also','RB','also'],
    ['known','VBN','know'],
    ['as','IN','as'],
    ['one','CD','one'],
    ['of','IN','of'],
    ['the','DT','the'],
    ['inventors','NNS','inv'],
    ['of','IN','of'],
    ['the','DT','the'],
    ['theory','NN','the'],
    ['of','IN','of'],
    ['recursive','JJ','recurs'],
    ['functions','NNS','funct'],
    ['(',':','('],
    ['which','WDT','which'],
    ['formed','VBN','form'],
    ['part','NN','part'],
    ['of','IN','of'],
    ['the','DT','the'],
    ['foundation','NN','found'],
    ['for','IN','for'],
    ['computers','NNS','comput'],
    [')',':',')'],
    ['.','.','.']
  ]
},
{
  tag:'S',
  content:
  [
    ['Gödel','JJ','gödel'],
    ['was','VBD','be'],
    ['born','VBN','bear'],
    ['on','IN','on'],
    ['28','CD','28'],
    ['April','NNP','april'],
    ['1906','CD','1906'],
    [',',',',','],
    ['in','IN','in'],
    ['what','WP','what'],
    ['was','VBD','be'],
    ['then','RB','then'],
    ['Brünn','JJ','brünn'],
    ['in','IN','in'],
    {
      tag:'GPE',
      content:
      [
        ['Austria','NNP','austr']
      ]
    },
    [',',',',','],
    ['now','RB','now'],
    ['Brno','NNP','brno'],
    ['in','IN','in'],
    ['the','DT','the'],
    {
      tag:'ORGANIZATION',
      content:
      [
        ['Czech','JJ','czech'],
        ['Republic','NNP','republ']
      ]
    },
    ['.','.','.']
  ]
},
{
  tag:'S',
  content:
  [
    ['By','IN','By'],
    ['all','DT','all'],
    ['accounts','NNS','account'],
    ['he','PRP','he'],
    ['was','VBD','be'],
    ['an','DT','an'],
    ['outstanding','JJ','outstand'],
    ['pupil','NN','pupil'],
    ['in','IN','in'],
    ['high','JJ','high'],
    ['school','NN','school'],
    ['and','CC','and'],
    ['a','DT','a'],
    ['star','NN','star'],
    ['student','NN','stud'],
    ['at','IN','at'],
    ['the','DT','the'],
    {
      tag:'ORGANIZATION',
      content:
      [
        ['University','NNP','univers']
      ]
    },
    ['of','IN','of'],
    {
      tag:'GSP',
      content:
      [
        ['Vienna','NNP','vienn']
      ]
    },
    [',',',',','],
    ['where','WRB','where'],
    ['he','PRP','he'],
    ['continued','VBD','continu'],
    ['after','IN','after'],
    ['graduation','NN','gradu'],
    ['to','TO','to'],
    ['obtain','VB','obtain'],
    ['a','DT','a'],
    ['doctoral','JJ','doct'],
    ['degree','NN','degr'],
    ['in','IN','in'],
    ['1929','CD','1929'],
    ['.','.','.']
  ]
},
{
  tag:'S',
  content:
  [
    ['He','PRP','He'],
    ['went','VBD','go'],
    ['straight','RB','straight'],
    ['to','TO','to'],
    ['a','DT','a'],
    ['faculty','NN','facul'],
    ['position','NN','posit'],
    ['in','IN','in'],
    {
      tag:'GSP',
      content:
      [
        ['Vienna','NNP','vienn']
      ]
    },
    [',',',',','],
    ['and','CC','and'],
    ['it','PRP','it'],
    ['was','VBD','be'],
    ['there','RB','ther'],
    ['that','IN','that'],
    ['he','PRP','he'],
    ['proved','VBD','prov'],
    ['his','PRP$','his'],
    {
      tag:'ORGANIZATION',
      content:
      [
        ['Incompleteness','NNP','incomplet'],
        ['Theorem','NNP','theorem']
      ]
    },
    ['.','.','.']
  ]
},
{
  tag:'S',
  content:
  [
    ['Gödel','JJ','gödel'],
    ['remained','VBD','remain'],
    ['in','IN','in'],
    {
      tag:'GSP',
      content:
      [
        ['Vienna','NNP','vienn']
      ]
    },
    ['until','IN','until'],
    ['1940','CD','1940'],
    [',',',',','],
    ['when','WRB','when'],
    ['he','PRP','he'],
    ['fled','VBD','fle'],
    ['the','DT','the'],
    ['worsening','NN','wors'],
    {
      tag:'ORGANIZATION',
      content:
      [
        ['Nazi','NNP','naz']
      ]
    },
    ['atrocities','NNS','atroc'],
    ['to','TO','to'],
    ['take','VB','tak'],
    ['up','RP','up'],
    ['a','DT','a'],
    ['position','NN','posit'],
    ['at','IN','at'],
    ['the','DT','the'],
    {
      tag:'ORGANIZATION',
      content:
      [
        ['Institute','NNP','institut']
      ]
    },
    ['for','IN','for'],
    {
      tag:'PERSON',
      content:
      [
        ['Advanced','NNP','adv'],
        ['Study','NNP','study']
      ]
    },
    ['in','IN','in'],
    {
      tag:'GPE',
      content:
      [
        ['Princeton','NNP','princeton']
      ]
    },
    [',',',',','],
    ['which','WDT','which'],
    ['he','PRP','he'],
    ['had','VBD','hav'],
    ['already','RB','already'],
    ['visited','VBN','visit'],
    ['in','IN','in'],
    ['1934','CD','1934'],
    ['.','.','.']
  ]
},
{
  tag:'S',
  content:
  [
    ['He','PRP','He'],
    ['remained','VBD','remain'],
    ['at','IN','at'],
    {
      tag:'ORGANIZATION',
      content:
      [
        ['Princeton','NNP','princeton']
      ]
    },
    ['until','IN','until'],
    ['his','PRP$','his'],
    ['death','NN','dea'],
    ['on','IN','on'],
    ['14','CD','14'],
    ['January','NNP','janu'],
    ['1978','CD','1978'],
    ['.','.','.']
  ]
},
{
  tag:'S',
  content:
  [
    ['It','PRP','It'],
    ['was','VBD','be'],
    ['an','DT','an'],
    ['unlikely','RB','unlik'],
    ['death','NN','dea'],
    ['for','IN','for'],
    ['the','DT','the'],
    ['man','NN','man'],
    ['who','WP','who'],
    ['was','VBD','be'],
    ['arguably','RB','argu'],
    ['the','DT','the'],
    ['world','NN','world'],
    [''s','POS',''s'],
    ['foremost','NN','foremost'],
    ['expert','NN','expert'],
    ['in','IN','in'],
    ['logic','NN','log'],
    ['.','.','.']
  ]
},
{
  tag:'S',
  content:
  [
    ['A','DT','A'],
    ['hypochondriac','NN','hypochondriac'],
    ['for','IN','for'],
    ['much','RB','much'],
    ['of','IN','of'],
    ['his','PRP$','his'],
    ['adult','NN','adult'],
    ['life','NN','lif'],
    [',',',',','],
    ['as','IN','as'],
    ['he','PRP','he'],
    ['grew','VBD','grow'],
    ['older','JJR','old'],
    [',',',',','],
    ['Gödel','JJ','gödel'],
    ['became','NN','becam'],
    ['convinced','VBD','convint'],
    ['that','IN','that'],
    ['he','PRP','he'],
    ['was','VBD','be'],
    ['being','VBG','be'],
    ['poisoned','VBN','poison'],
    ['.','.','.']
  ]
},
{
  tag:'S',
  content:
  [
    ['He','PRP','He'],
    ['eventually','RB','ev'],
    ['stopped','VBD','stop'],
    ['eating','VBG','eat'],
    ['altogether','RB','altogeth'],
    [',',',',','],
    ['and','CC','and'],
    ['starved','VBD','starv'],
    ['to','TO','to'],
    ['death','NN','dea'],
    ['.','.','.']
  ]
},
{
  tag:'S',
  content:
  [
    ['Gödel','JJ','gödel'],
    [''s','POS',''s'],
    ['decidedly','RB','decid'],
    ['illogical','JJ','illog'],
    ['end','NN','end'],
    ['did','VBD','do'],
    ['nothing','NN','noth'],
    ['to','TO','to'],
    ['diminish','VB','dimin'],
    ['his','PRP$','his'],
    ['reputation','NN','reput'],
    ['.','.','.']
  ]
},
{
  tag:'S',
  content:
  [
    ['When','WRB','When'],
    {
      tag:'PERSON',
      content:
      [
        ['Time','NNP','tim']
      ]
    },
    ['magazine','NN','magazin'],
    ['conducted','VBD','conduc'],
    ['a','DT','a'],
    ['poll','NN','pol'],
    ['2','CD','2'],
    ['years','NNS','year'],
    ['ago','RB','ago'],
    ['to','TO','to'],
    ['determine','VB','determin'],
    ['the','DT','the'],
    ['most','JJS','most'],
    ['influential','JJ','influ'],
    ['thinkers','NNS','think'],
    ['of','IN','of'],
    ['the','DT','the'],
    ['20th','JJ','20th'],
    ['century','NN','century'],
    [',',',',','],
    {
      tag:'PERSON',
      content:
      [
        ['Gödel','NNP','gödel']
      ]
    },
    ['was','VBD','be'],
    ['one','CD','one'],
    ['of','IN','of'],
    ['just','RB','just'],
    ['two','CD','two'],
    ['mathematicians','NNS','mathem'],
    ['who','WP','who'],
    ['made','VBN','mak'],
    ['the','DT','the'],
    ['top','JJ','top'],
    ['20','CD','20'],
    [',',',',','],
    ['along','IN','along'],
    ['with','IN','with'],
    {
      tag:'PERSON',
      content:
      [
        ['Alan','NNP','al'],
        ['Turing','NNP','tur']
      ]
    },
    ['.','.','.']
  ]
},
{
  tag:'S',
  content:
  [
    ['The','DT','The'],
    {
      tag:'ORGANIZATION',
      content:
      [
        ['Incompleteness','NNP','incomplet']
      ]
    },
    ['Theorem','NNP','theorem'],
    ['forced','VBD','forc'],
    ['mathematicians','NNS','mathem'],
    ['to','TO','to'],
    ['question','NN','quest'],
    ['what','WP','what'],
    ['it','PRP','it'],
    ['means','VBZ','mean'],
    ['to','TO','to'],
    ['say','VB','say'],
    ['something','NN','someth'],
    ['is','VBZ','be'],
    ['true','JJ','tru'],
    ['in','IN','in'],
    ['mathematics','NN','mathem'],
    ['.','.','.']
  ]
},
{
  tag:'S',
  content:
  [
    ['The','DT','The'],
    ['resulting','VBG','result'],
    ['change','NN','chang'],
    ['in','IN','in'],
    ['our','PRP$','our'],
    ['understanding','NN','understand'],
    ['of','IN','of'],
    ['mathematics','NNS','mathem'],
    ['was','VBD','be'],
    ['every','DT','every'],
    ['bit','NN','bit'],
    ['as','IN','as'],
    ['dramatic','JJ','dram'],
    ['as','IN','as'],
    ['the','DT','the'],
    ['change','NN','chang'],
    ['in','IN','in'],
    ['our','PRP$','our'],
    ['conception','NN','conceiv'],
    ['of','IN','of'],
    ['geometry','NN','geometry'],
    ['that','IN','that'],
    ['followed','VBN','follow'],
    ['the','DT','the'],
    ['discovery','NN','discovery'],
    ['of','IN','of'],
    ['non-Euclidean','JJ','non-euclide'],
    ['geometries','NNS','geometry'],
    ['in','IN','in'],
    ['the','DT','the'],
    ['19th','JJ','19th'],
    ['century','NN','century'],
    ['.','.','.']
  ]
},
{
  tag:'S',
  content:
  [
    ['Both','DT','Both'],
    ['of','IN','of'],
    ['these','DT','these'],
    ['major','JJ','maj'],
    ['discoveries','NNS','discovery'],
    ['involved','VBN','involv'],
    ['axiomatic','JJ','axiom'],
    ['systems','NNS','system'],
    [',',',',','],
    ['and','CC','and'],
    ['neither','DT','neither'],
    ['can','MD','can'],
    ['be','VB','be'],
    ['properly','RB','prop'],
    ['understood','VBN','understand'],
    ['without','IN','without'],
    ['an','DT','an'],
    ['appreciation','NN','apprecy'],
    ['of','IN','of'],
    ['what','WP','what'],
    ['mathematicians','NNS','mathem'],
    ['means','VBZ','mean'],
    ['by','IN','by'],
    ['the','DT','the'],
    ['word','NN','word'],
    ['“axiom”','NN','“axiom”'],
    ['and','CC','and'],
    ['the','DT','the'],
    ['role','NN','rol'],
    ['axioms','NNS','axiom'],
    ['play','VBP','play'],
    ['in','IN','in'],
    ['mathematics','NNS','mathem'],
    ['.','.','.']
  ]
},
{
  tag:'S',
  content:
  [
    ['A','DT','A'],
    ['misunderstanding','NN','misunderstand'],
    ['of','IN','of'],
    ['the','DT','the'],
    ['nature','NN','nat'],
    ['of','IN','of'],
    ['axioms','NNS','axiom'],
    ['is','VBZ','be'],
    ['what','WP','what'],
    ['lies','NNS','lie'],
    ['behind','VBP','behind'],
    ['a','DT','a'],
    ['significant','JJ','sign'],
    ['amount','NN','amount'],
    ['of','IN','of'],
    ['nonsense','NN','nonsens'],
    ['that','IN','that'],
    ['has','VBZ','hav'],
    ['been','VBN','be'],
    ['written','VBN','writ'],
    ['about','IN','about'],
    ['Gödel','NNP','gödel'],
    [''s','POS',''s'],
    ['Theorem','NNP','theorem'],
    ['over','IN','over'],
    ['the','DT','the'],
    ['years','NNS','year'],
    ['.','.','.']
  ]
},
{
  tag:'S',
  content:
  [
    ['In','IN','In'],
    ['brief','JJ','brief'],
    [',',',',','],
    ['Gödel','NNP','gödel'],
    [''s','POS',''s'],
    ['Theorem','NNP','theorem'],
    ['says','VBZ','say'],
    ['that','IN','that'],
    ['in','IN','in'],
    ['any','DT','any'],
    ['axiomatic','JJ','axiom'],
    ['mathematical','JJ','mathem'],
    ['system','NN','system'],
    ['that','WDT','that'],
    ['is','VBZ','be'],
    ['sufficiently','RB','sufficy'],
    ['rich','JJ','rich'],
    ['to','TO','to'],
    ['do','VB','do'],
    ['elementary','JJ','el'],
    ['arithmetic','JJ','arithmet'],
    [',',',',','],
    ['there','EX','there'],
    ['will','MD','will'],
    ['be','VB','be'],
    ['some','DT','some'],
    ['statements','NNS','stat'],
    ['that','WDT','that'],
    ['are','VBP','be'],
    ['true','JJ','tru'],
    ['but','CC','but'],
    ['can','MD','can'],
    ['not','RB','not'],
    ['be','VB','be'],
    ['proved','VBN','prov'],
    ['(','-NONE-','('],
    ['from','IN','from'],
    ['the','DT','the'],
    ['axioms','NNS','axiom'],
    [')',':',')'],
    ['.','.','.']
  ]
},
{
  tag:'S',
  content:
  [
    ['In','IN','In'],
    ['technical','JJ','techn'],
    ['terminology','NN','terminolog'],
    [',',',',','],
    ['the','DT','the'],
    ['axiom','NN','axiom'],
    ['system','NN','system'],
    ['must','MD','must'],
    ['be','VB','be'],
    ['incomplete','JJ','incomplet'],
    ['.','.','.']
  ]
},
{
  tag:'S',
  content:
  [
    ['View','NNP','view'],
    ['larger','JJR','larg'],
    ['version','NN','vert'],
    [':',':',':'],
    ['In','IN','In'],
    ['this','DT','this'],
    ['window','NN','window'],
    ['In','IN','In'],
    ['a','DT','a'],
    ['new','JJ','new'],
    ['window','NN','window'],
    {
      tag:'PERSON',
      content:
      [
        ['Kurt','NNP','kurt']
      ]
    },
    ['Gödel','NNP','gödel'],
    ['(','NNP','('],
    ['1906–1978','CD','1906–1978'],
    [')','CD',')'],
    ['CREDIT','NN','credit'],
    [':',':',':'],
    {
      tag:'ORGANIZATION',
      content:
      [
        ['INSTITUTE','NNP','institut'],
        ['FOR','NNP','for']
      ]
    },
    ['ADVANCED','NNP','adv'],
    ['STUDY','NNP','study'],
    [',',',',','],
    {
      tag:'ORGANIZATION',
      content:
      [
        ['PRINCETON','NNP','princeton']
      ]
    },
    [',',',',','],
    {
      tag:'ORGANIZATION',
      content:
      [
        ['NJ','NNP','nj']
      ]
    },
    ['At','NNP','at'],
    ['the','DT','the'],
    ['time','NN','tim'],
    ['Gödel','NNP','gödel'],
    ['proved','VBD','prov'],
    ['this','DT','this'],
    ['theorem','NN','theorem'],
    [',',',',','],
    ['it','PRP','it'],
    ['was','VBD','be'],
    ['widely','RB','wid'],
    ['believed','VBN','believ'],
    ['that','IN','that'],
    [',',',',','],
    ['with','IN','with'],
    ['sufficient','JJ','sufficy'],
    ['effort','NN','effort'],
    [',',',',','],
    ['mathematicians','NNS','mathem'],
    ['would','MD','would'],
    ['eventually','RB','ev'],
    ['be','VB','be'],
    ['able','JJ','abl'],
    ['to','TO','to'],
    ['formulate','VB','form'],
    ['axioms','NNS','axiom'],
    ['to','TO','to'],
    ['support','VB','support'],
    ['all','DT','all'],
    ['of','IN','of'],
    ['mathematics','NNS','mathem'],
    ['.','.','.']
  ]
},
{
  tag:'S',
  content:
  [
    ['The','DT','The'],
    {
      tag:'ORGANIZATION',
      content:
      [
        ['Incompleteness','NNP','incomplet']
      ]
    },
    ['Theorem','NNP','theorem'],
    ['flew','VBD','fly'],
    ['in','IN','in'],
    ['the','DT','the'],
    ['face','NN','fac'],
    ['of','IN','of'],
    ['this','DT','this'],
    ['expectation','NN','expect'],
    [',',',',','],
    ['and','CC','and'],
    ['many','JJ','many'],
    ['took','VBD','tak'],
    ['it','PRP','it'],
    ['to','TO','to'],
    ['imply','RB','imply'],
    ['that','IN','that'],
    ['there','EX','there'],
    ['is','VBZ','be'],
    ['a','DT','a'],
    ['limit','NN','limit'],
    ['to','TO','to'],
    ['the','DT','the'],
    ['mathematical','JJ','mathem'],
    ['knowledge','NN','knowledg'],
    ['we','PRP','we'],
    ['may','MD','may'],
    ['acquire','VB','acquir'],
    ['.','.','.']
  ]
},
{
  tag:'S',
  content:
  [
    ['Few','JJ','few'],
    ['mathematicians','NNS','mathem'],
    ['think','VBP','think'],
    ['that','IN','that'],
    ['way','NN','way'],
    ['now','RB','now'],
    [',',',',','],
    ['however','RB','howev'],
    ['.','.','.']
  ]
},
{
  tag:'S',
  content:
  [
    ['The','DT','The'],
    ['change','NN','chang'],
    ['in','IN','in'],
    ['our','PRP$','our'],
    ['conception','NN','conceiv'],
    ['of','IN','of'],
    ['mathematical','JJ','mathem'],
    ['truth','NN','tru'],
    ['that','WDT','that'],
    {
      tag:'PERSON',
      content:
      [
        ['Godel','NNP','godel']
      ]
    },
    [''s','POS',''s'],
    ['theorem','NN','theorem'],
    ['brought','VBD','bring'],
    ['about','IN','about'],
    ['was','VBD','be'],
    ['so','RB','so'],
    ['complete','JJ','complet'],
    [',',',',','],
    ['that','IN','that'],
    ['today','NN','today'],
    ['most','RBS','most'],
    ['of','IN','of'],
    ['us','PRP','us'],
    ['view','VBP','view'],
    ['the','DT','the'],
    ['result','NN','result'],
    ['itself','PRP','itself'],
    ['as','IN','as'],
    ['merely','RB','mer'],
    ['a','DT','a'],
    ['technical','JJ','techn'],
    ['observation','NN','observ'],
    ['about','IN','about'],
    ['the','DT','the'],
    ['limitations','NNS','limit'],
    ['of','IN','of'],
    ['axiom','NN','axiom'],
    ['systems','NNS','system'],
    ['.','.','.']
  ]
},
{
  tag:'S',
  content:
  [
    ['To','TO','To'],
    ['appreciate','VB','apprecy'],
    ['the','DT','the'],
    ['initial','JJ','init'],
    ['impact','NN','impact'],
    ['of','IN','of'],
    ['Gödel','NNP','gödel'],
    [''s','POS',''s'],
    ['Theorem','NNP','theorem'],
    [',',',',','],
    ['you','PRP','you'],
    ['have','VBP','hav'],
    ['to','TO','to'],
    ['adopt','VB','adopt'],
    ['the','DT','the'],
    ['mind-set','JJ','mind-set'],
    ['of','IN','of'],
    ['the','DT','the'],
    ['time','NN','tim'],
    ['.','.','.']
  ]
},
{
  tag:'S',
  content:
  [
    ['During','IN','During'],
    ['the','DT','the'],
    ['19th','JJ','19th'],
    ['century','NN','century'],
    [',',',',','],
    ['mathematicians','NNS','mathem'],
    ['learned','VBD','learn'],
    ['that','IN','that'],
    ['many','JJ','many'],
    ['seemingly','RB','seem'],
    ['intuitive','JJ','intuit'],
    ['concepts','NNS','conceiv'],
    ['were','VBD','be'],
    ['problematic','JJ','problem'],
    [',',',',','],
    ['among','IN','among'],
    ['them','PRP','them'],
    [',',',',','],
    ['the','DT','the'],
    ['structure','NN','structure'],
    ['of','IN','of'],
    ['the','DT','the'],
    ['real','JJ','real'],
    ['continuum','NN','continu'],
    ['and','CC','and'],
    ['the','DT','the'],
    ['nature','NN','nat'],
    ['of','IN','of'],
    ['continuous','JJ','continu'],
    ['functions','NNS','funct'],
    ['.','.','.']
  ]
},
{
  tag:'S',
  content:
  [
    ['To','TO','To'],
    ['avoid','VBD','avoid'],
    ['what','WP','what'],
    ['could','MD','could'],
    ['be','VB','be'],
    ['a','DT','a'],
    ['misleading','NN','mislead'],
    ['dependency','NN','depend'],
    ['on','IN','on'],
    ['unreliable','JJ','unrely'],
    ['assumptions','NNS','assum'],
    ['and','CC','and'],
    ['intuitions','NNS','intuit'],
    [',',',',','],
    ['they','PRP','they'],
    ['began','VBD','begin'],
    ['to','TO','to'],
    ['put','VB','put'],
    ['greater','JJR','gre'],
    ['emphasis','NN','emphas'],
    ['on','IN','on'],
    ['a','DT','a'],
    ['mode','NN','mod'],
    ['of','IN','of'],
    ['doing','VBG','do'],
    ['mathematics','NNS','mathem'],
    ['introduced','VBN','introduc'],
    ['by','IN','by'],
    ['the','DT','the'],
    ['ancient','JJ','ant'],
    {
      tag:'GPE',
      content:
      [
        ['Greeks','NNP','greek']
      ]
    },
    [',',',',','],
    ['but','CC','but'],
    ['which','WDT','which'],
    ['had','VBD','hav'],
    ['been','VBN','be'],
    ['left','VBN','leav'],
    ['largely','RB','larg'],
    ['on','IN','on'],
    ['the','DT','the'],
    ['sidelines','NNS','sidelin'],
    ['ever','RB','ev'],
    ['since','IN','since'],
    ['then','RB','then'],
    [':',':',':'],
    ['the','DT','the'],
    ['axiomatic','JJ','axiom'],
    ['method','NN','method'],
    ['.','.','.']
  ]
},
{
  tag:'S',
  content:
  [
    ['Here','RB','her'],
    [',',',',','],
    ['the','DT','the'],
    ['idea','NN','ide'],
    ['is','VBZ','be'],
    ['to','TO','to'],
    ['begin','VB','begin'],
    ['by','IN','by'],
    ['writing','NN','writ'],
    ['down','IN','down'],
    [',',',',','],
    ['precisely','RB','prec'],
    [',',',',','],
    ['an','DT','an'],
    ['initial','JJ','init'],
    ['set','NN','set'],
    ['of','IN','of'],
    ['assumptions—or','JJ','assumptions—or'],
    ['axioms','NNS','axiom'],
    ['(',':','('],
    ['from','IN','from'],
    ['the','DT','the'],
    {
      tag:'GPE',
      content:
      [
        ['Greek','NNP','greek']
      ]
    },
    ['word','NN','word'],
    ['axioma','NN','axiom'],
    [')',':',')'],
    ['—that','JJ','—that'],
    ['you','PRP','you'],
    ['believe','VBP','believ'],
    ['to','TO','to'],
    ['capture','VB','capt'],
    ['the','DT','the'],
    ['concept','NN','conceiv'],
    ['or','CC','or'],
    ['system','NN','system'],
    ['you','PRP','you'],
    ['are','VBP','be'],
    ['interested','JJ','interest'],
    ['in','IN','in'],
    ['.','.','.']
  ]
},
{
  tag:'S',
  content:
  [
    ['You','PRP','You'],
    ['then','RB','then'],
    ['proceed','VBD','process'],
    ['to','TO','to'],
    ['establish','VB','est'],
    ['truths','NNS','tru'],
    ['about','IN','about'],
    ['that','DT','that'],
    ['concept','NN','conceiv'],
    ['or','CC','or'],
    ['system','NN','system'],
    ['by','IN','by'],
    ['means','NNS','mean'],
    ['of','IN','of'],
    ['logical','JJ','log'],
    ['deduction','NN','deduc'],
    ['from','IN','from'],
    ['those','DT','those'],
    ['axioms','NNS','axiom'],
    ['.','.','.']
  ]
},
{
  tag:'S',
  content:
  [
    ['The','DT','The'],
    ['most','RBS','most'],
    ['familiar','JJ','famili'],
    ['examples','NNS','exampl'],
    ['of','IN','of'],
    ['this','DT','this'],
    ['approach','NN','approach'],
    ['are','VBP','be'],
    {
      tag:'PERSON',
      content:
      [
        ['Euclid','NNP','euclid']
      ]
    },
    [''s','POS',''s'],
    ['axioms','NNS','axiom'],
    ['for','IN','for'],
    ['geometry','NN','geometry'],
    ['.','.','.']
  ]
},
{
  tag:'S',
  content:
  [
    ['In','IN','In'],
    ['his','PRP$','his'],
    ['mammoth','NN','mammo'],
    ['work','NN','work'],
    ['Elements','NNS','el'],
    [',',',',','],
    {
      tag:'PERSON',
      content:
      [
        ['Euclid','NNP','euclid']
      ]
    },
    ['began','VBD','begin'],
    ['by','IN','by'],
    ['listing','NN','list'],
    ['five','CD','five'],
    ['principles','NNS','principl'],
    ['from','IN','from'],
    ['which','WDT','which'],
    ['all','DT','all'],
    ['truths','NNS','tru'],
    ['about','IN','about'],
    ['plane','NN','plan'],
    ['geometry','NN','geometry'],
    ['were','VBD','be'],
    ['supposed','VBN','suppos'],
    ['to','TO','to'],
    ['be','VB','be'],
    ['deduced','VBN','deduc'],
    ['.','.','.']
  ]
},
{
  tag:'S',
  content:
  [
    ['Because','IN','Because'],
    ['axioms','NNS','axiom'],
    ['are','VBP','be'],
    ['intended','VBN','intend'],
    ['to','TO','to'],
    ['be','VB','be'],
    ['the','DT','the'],
    ['starting','NN','start'],
    ['point','NN','point'],
    ['of','IN','of'],
    ['a','DT','a'],
    ['quest','NN','quest'],
    ['for','IN','for'],
    ['truth','NN','tru'],
    [',',',',','],
    ['their','PRP$','their'],
    ['own','JJ','own'],
    ['validity','NN','valid'],
    ['should','MD','should'],
    ['not','RB','not'],
    ['be','VB','be'],
    ['in','IN','in'],
    ['any','DT','any'],
    ['doubt','NN','doubt'],
    [',',',',','],
    ['of','IN','of'],
    ['course','NN','cours'],
    ['.','.','.']
  ]
},
{
  tag:'S',
  content:
  [
    ['The','DT','The'],
    ['axioms','NNS','axiom'],
    ['should','MD','should'],
    ['be','VB','be'],
    ['simple','JJ','simpl'],
    ['assertions','NNS','assert'],
    ['that','WDT','that'],
    ['are','VBP','be'],
    ['self-evident','JJ','self-evident'],
    ['.','.','.']
  ]
},
{
  tag:'S',
  content:
  [
    ['The','DT','The'],
    ['fifth','JJ','fif'],
    ['of','IN','of'],
    {
      tag:'GPE',
      content:
      [
        ['Euclid','NNP','euclid']
      ]
    },
    [''s','POS',''s'],
    ['five','CD','five'],
    ['axioms','NNS','axiom'],
    ['states','NNS','stat'],
    ['that','WDT','that'],
    ['“For','-NONE-','“For'],
    ['every','DT','every'],
    ['line','NN','lin'],
    ['l','NN','l'],
    ['and','CC','and'],
    ['for','IN','for'],
    ['every','DT','every'],
    ['point','NN','point'],
    ['P','NNP','p'],
    ['that','IN','that'],
    ['does','VBZ','do'],
    ['not','RB','not'],
    ['lie','VB','lie'],
    ['on','IN','on'],
    ['l','NN','l'],
    [',',',',','],
    ['there','EX','there'],
    ['exists','NNS','ex'],
    ['a','DT','a'],
    ['unique','JJ','un'],
    ['line','NN','lin'],
    ['m','NN','m'],
    ['through','IN','through'],
    ['P','NNP','p'],
    ['that','IN','that'],
    ['is','VBZ','be'],
    ['parallel','JJ','parallel'],
    ['to','TO','to'],
    ['l.”','NNP','l.”'],
    ['Questions','NNPS','quest'],
    ['about','IN','about'],
    ['this','DT','this'],
    {
      tag:'ORGANIZATION',
      content:
      [
        ['Parallel','NNP','parallel'],
        ['Postulate','NNP','post']
      ]
    },
    ['dogged','VBD','dog'],
    {
      tag:'GPE',
      content:
      [
        ['Euclidean','NNP','euclid']
      ]
    },
    ['geometry','NN','geometry'],
    ['for','IN','for'],
    ['hundreds','NNS','hundr'],
    ['of','IN','of'],
    ['years','NNS','year'],
    ['.','.','.']
  ]
},
{
  tag:'S',
  content:
  [
    ['The','DT','The'],
    ['axiom','NN','axiom'],
    ['was','VBD','be'],
    ['in','IN','in'],
    ['doubt','NN','doubt'],
    ['because','IN','because'],
    ['it','PRP','it'],
    ['was','VBD','be'],
    ['far','RB','far'],
    ['more','RBR','mor'],
    ['difficult','JJ','difficult'],
    ['to','TO','to'],
    ['state','NN','stat'],
    ['than','IN','than'],
    ['the','DT','the'],
    ['other','JJ','oth'],
    ['four','CD','four'],
    ['.','.','.']
  ]
},
{
  tag:'S',
  content:
  [
    ['Attempts','NNS','attempt'],
    ['to','TO','to'],
    ['resolve','VB','resolv'],
    ['the','DT','the'],
    ['issue','NN','issu'],
    ['by','IN','by'],
    ['deducing','NN','deduc'],
    ['it','PRP','it'],
    ['from','IN','from'],
    ['simpler','JJR','simpl'],
    ['assumptions','NNS','assum'],
    ['continued','VBD','continu'],
    ['in','IN','in'],
    ['vain','NN','vain'],
    [',',',',','],
    ['until','IN','until'],
    ['the','DT','the'],
    ['shocking','NN','shock'],
    ['discovery','NN','discovery'],
    ['that','WDT','that'],
    ['its','PRP$','its'],
    ['inclusion—while','JJ','inclusion—while'],
    ['arguably','RB','argu'],
    ['in','IN','in'],
    ['line','NN','lin'],
    ['with','IN','with'],
    ['a','DT','a'],
    ['natural','JJ','nat'],
    ['human','NN','hum'],
    ['intuition','NN','intuit'],
    ['about','IN','about'],
    ['parallel','JJ','parallel'],
    ['lines—was','NNS','lines—wa'],
    ['entirely','RB','entir'],
    ['arbitrary','JJ','arbit'],
    ['.','.','.']
  ]
},
{
  tag:'S',
  content:
  [
    ['The','DT','The'],
    ['familiar','JJ','famili'],
    ['geometry','NN','geometry'],
    ['of','IN','of'],
    {
      tag:'GPE',
      content:
      [
        ['Euclid','NNP','euclid']
      ]
    },
    [',',',',','],
    ['in','IN','in'],
    ['which','WDT','which'],
    ['the','DT','the'],
    {
      tag:'ORGANIZATION',
      content:
      [
        ['Parallel','NNP','parallel'],
        ['Postulate','NNP','post']
      ]
    },
    ['was','VBD','be'],
    ['taken','VBN','tak'],
    ['as','RB','as'],
    ['an','DT','an'],
    ['axiom','NN','axiom'],
    [',',',',','],
    ['was','VBD','be'],
    ['just','RB','just'],
    ['one','CD','one'],
    ['of','IN','of'],
    ['a','DT','a'],
    ['number','NN','numb'],
    ['of','IN','of'],
    ['possible','JJ','poss'],
    ['geometries','NNS','geometry'],
    ['.','.','.']
  ]
},
{
  tag:'S',
  content:
  [
    ['Deciding','VBG','decid'],
    ['between','IN','between'],
    ['them','PRP','them'],
    ['was','VBD','be'],
    ['purely','RB','pur'],
    ['a','DT','a'],
    ['matter','NN','mat'],
    ['of','IN','of'],
    ['taste','NN','tast'],
    ['or','CC','or'],
    ['of','IN','of'],
    ['intended','VBN','intend'],
    ['application','NN','apply'],
    ['.','.','.']
  ]
},
{
  tag:'S',
  content:
  [
    ['In','IN','In'],
    ['fact','NN','fact'],
    [',',',',','],
    ['there','EX','there'],
    ['was','VBD','be'],
    ['a','DT','a'],
    ['far','RB','far'],
    ['greater','JJR','gre'],
    ['problem','NN','problem'],
    ['with','IN','with'],
    {
      tag:'PERSON',
      content:
      [
        ['Euclid','NNP','euclid']
      ]
    },
    [''s','POS',''s'],
    ['axioms','NNS','axiom'],
    ['than','IN','than'],
    ['his','PRP$','his'],
    ['inclusion','NN','includ'],
    ['of','IN','of'],
    ['the','DT','the'],
    {
      tag:'ORGANIZATION',
      content:
      [
        ['Parallel','NNP','parallel'],
        ['Postulate','NNP','post']
      ]
    },
    ['.','.','.']
  ]
},
{
  tag:'S',
  content:
  [
    ['His','PRP$','His'],
    ['axiom','NN','axiom'],
    ['system','NN','system'],
    ['omitted','VBD','omit'],
    ['many','JJ','many'],
    ['basic','JJ','bas'],
    ['assumptions','NNS','assum'],
    ['that','WDT','that'],
    ['he','PRP','he'],
    [',',',',','],
    ['and','CC','and'],
    ['generations','NNS','gen'],
    ['of','IN','of'],
    ['subsequent','JJ','subsequ'],
    ['scholars','NNS','scholar'],
    [',',',',','],
    ['unconsciously','RB','unconscy'],
    ['used','VBN','us'],
    ['in','IN','in'],
    ['deriving','NN','der'],
    ['the','DT','the'],
    ['theorems','NNS','theorem'],
    ['that','WDT','that'],
    ['supposedly','RB','suppos'],
    ['followed','VBD','follow'],
    ['from','IN','from'],
    ['the','DT','the'],
    ['axioms','NNS','axiom'],
    ['.','.','.']
  ]
},
{
  tag:'S',
  content:
  [
    ['It','PRP','It'],
    ['was','VBD','be'],
    ['left','VBN','leav'],
    ['to','TO','to'],
    ['the','DT','the'],
    {
      tag:'GPE',
      content:
      [
        ['German','NNP','germ']
      ]
    },
    ['mathematician','NN','mathem'],
    {
      tag:'PERSON',
      content:
      [
        ['David','NNP','david'],
        ['Hilbert','NNP','hilbert']
      ]
    },
    ['to','TO','to'],
    ['set','VB','set'],
    ['the','DT','the'],
    ['record','NN','record'],
    ['straight','VBD','straight'],
    ['in','IN','in'],
    ['the','DT','the'],
    ['late','JJ','lat'],
    ['19th','CD','19th'],
    ['century','NN','century'],
    [',',',',','],
    ['by','IN','by'],
    ['writing','NN','writ'],
    ['down','IN','down'],
    ['those','DT','those'],
    ['crucial','JJ','cruc'],
    ['missing','NN','miss'],
    ['axioms','NNS','axiom'],
    ['.','.','.']
  ]
},
{
  tag:'S',
  content:
  [
    ['To','TO','To'],
    ['give','VB','giv'],
    ['some','DT','some'],
    ['idea','NN','ide'],
    ['of','IN','of'],
    ['the','DT','the'],
    ['kind','NN','kind'],
    ['of','IN','of'],
    ['problem','NN','problem'],
    ['that','IN','that'],
    {
      tag:'PERSON',
      content:
      [
        ['Hilbert','NNP','hilbert']
      ]
    },
    ['noticed','VBD','not'],
    [',',',',','],
    ['consider','NN','consid'],
    ['one','CD','one'],
    ['of','IN','of'],
    {
      tag:'GPE',
      content:
      [
        ['Euclid','NNP','euclid']
      ]
    },
    [''s','POS',''s'],
    ['most','JJS','most'],
    ['elementary','JJ','el'],
    ['ruler-and-compass','NN','ruler-and-compass'],
    ['constructions','NNS','construct'],
    [',',',',','],
    ['that','IN','that'],
    ['of','IN','of'],
    ['an','DT','an'],
    ['equilateral','JJ','equil'],
    ['triangle','NN','triangl'],
    ['.','.','.']
  ]
},
{
  tag:'S',
  content:
  [
    ['You','PRP','You'],
    ['begin','VBP','begin'],
    ['with','IN','with'],
    ['a','DT','a'],
    ['straight','JJ','straight'],
    ['line','NN','lin'],
    [',',',',','],
    ['and','CC','and'],
    ['then','RB','then'],
    ['draw','VB','draw'],
    ['arcs','NNS','arc'],
    ['from','IN','from'],
    ['the','DT','the'],
    ['ends','NNS','end'],
    ['of','IN','of'],
    ['the','DT','the'],
    ['line','NN','lin'],
    [',',',',','],
    ['with','IN','with'],
    ['radius','NN','radi'],
    ['set','NN','set'],
    ['equal','JJ','eq'],
    ['to','TO','to'],
    ['the','DT','the'],
    ['line','NN','lin'],
    ['.','.','.']
  ]
},
{
  tag:'S',
  content:
  [
    ['The','DT','The'],
    ['point','NN','point'],
    ['where','WRB','where'],
    ['the','DT','the'],
    ['arcs','NNS','arc'],
    ['intersect','VBP','intersect'],
    ['marks','NNS','mark'],
    ['the','DT','the'],
    ['third','JJ','third'],
    ['vertex','NN','vertex'],
    ['of','IN','of'],
    ['your','PRP$','your'],
    ['equilateral','JJ','equil'],
    ['triangle','NN','triangl'],
    ['.','.','.']
  ]
},
{
  tag:'S',
  content:
  [
    ['It','PRP','It'],
    ['all','DT','all'],
    ['seems','VBZ','seem'],
    ['fairly','RB','fair'],
    ['sound','IN','sound'],
    ['.','.','.']
  ]
},
{
  tag:'S',
  content:
  [
    ['You','PRP','You'],
    ['can','MD','can'],
    [',',',',','],
    ['after','IN','after'],
    ['all','DT','all'],
    [',',',',','],
    ['carry','VBP','carry'],
    ['out','RP','out'],
    ['these','DT','these'],
    ['steps','NNS','step'],
    ['and','CC','and'],
    ['draw','VB','draw'],
    ['an','DT','an'],
    ['equilateral','JJ','equil'],
    ['triangle','NN','triangl'],
    ['.','.','.']
  ]
},
{
  tag:'S',
  content:
  [
    ['But','CC','But'],
    ['as','IN','as'],
    {
      tag:'PERSON',
      content:
      [
        ['Hilbert','NNP','hilbert']
      ]
    },
    ['observed','VBN','observ'],
    [',',',',','],
    ['how','WRB','how'],
    ['can','MD','can'],
    ['you','PRP','you'],
    ['be','VB','be'],
    ['sure','JJ','sur'],
    ['that','IN','that'],
    ['the','DT','the'],
    ['two','CD','two'],
    ['arcs','NNS','arc'],
    ['really','RB','real'],
    ['do','VBP','do'],
    ['intersect','JJ','intersect'],
    ['?','.','?']
  ]
},
{
  tag:'S',
  content:
  [
    ['That','DT','That'],
    ['is','VBZ','be'],
    [',',',',','],
    ['how','WRB','how'],
    ['do','VBP','do'],
    ['you','PRP','you'],
    ['know','VB','know'],
    ['they','PRP','they'],
    ['have','VBP','hav'],
    ['a','DT','a'],
    ['point','NN','point'],
    ['in','IN','in'],
    ['common','JJ','common'],
    ['?','.','?']
  ]
},
{
  tag:'S',
  content:
  [
    ['Just','RB','just'],
    ['because','IN','because'],
    ['the','DT','the'],
    ['arcs','NNS','arc'],
    ['you','PRP','you'],
    ['draw','VBP','draw'],
    ['on','IN','on'],
    ['a','DT','a'],
    ['sheet','NN','sheet'],
    ['of','IN','of'],
    ['paper','NN','pap'],
    ['look','NN','look'],
    ['as','IN','as'],
    ['though','IN','though'],
    ['they','PRP','they'],
    ['meet','VBP','meet'],
    [',',',',','],
    ['that','IN','that'],
    ['does','VBZ','do'],
    ['not','RB','not'],
    ['guarantee','VB','guar'],
    ['that','IN','that'],
    ['there','EX','there'],
    ['really','RB','real'],
    ['is','VBZ','be'],
    ['a','DT','a'],
    ['point','NN','point'],
    ['of','IN','of'],
    ['intersection','NN','intersect'],
    ['.','.','.']
  ]
},
{
  tag:'S',
  content:
  [
    ['After','IN','After'],
    ['all','DT','all'],
    [',',',',','],
    ['unlike','IN','unlike'],
    ['the','DT','the'],
    ['pencil','NN','pencil'],
    ['lines','NNS','lin'],
    ['you','PRP','you'],
    ['actually','RB','act'],
    ['draw','VBP','draw'],
    [',',',',','],
    ['the','DT','the'],
    ['idealized','JJ','id'],
    ['lines','NNS','lin'],
    ['and','CC','and'],
    ['arcs','NNS','arc'],
    ['of','IN','of'],
    ['geometry','NN','geometry'],
    ['have','VBP','hav'],
    ['no','DT','no'],
    ['thickness','NN','thick'],
    ['.','.','.']
  ]
},
{
  tag:'S',
  content:
  [
    ['How','WRB','How'],
    ['can','MD','can'],
    ['you','PRP','you'],
    ['be','VB','be'],
    ['sure','JJ','sur'],
    ['that','IN','that'],
    ['two','CD','two'],
    ['arcs','NNS','arc'],
    ['having','VBG','hav'],
    ['no','DT','no'],
    ['thickness','NN','thick'],
    ['have','VBP','hav'],
    ['a','DT','a'],
    ['point','NN','point'],
    ['in','IN','in'],
    ['common','JJ','common'],
    ['?','.','?']
  ]
},
{
  tag:'S',
  content:
  [
    ['The','DT','The'],
    ['answer','NN','answ'],
    ['is','VBZ','be'],
    ['that','IN','that'],
    ['you','PRP','you'],
    ['can','MD','can'],
    ['not','RB','not'],
    ['.','.','.']
  ]
},
{
  tag:'S',
  content:
  [
    ['If','IN','If'],
    ['you','PRP','you'],
    ['want','VBP','want'],
    ['the','DT','the'],
    ['two','CD','two'],
    ['arcs','NNS','arc'],
    ['to','TO','to'],
    ['intersect','VB','intersect'],
    [',',',',','],
    ['you','PRP','you'],
    ['need','VBP','nee'],
    ['to','TO','to'],
    ['have','VB','hav'],
    ['an','DT','an'],
    ['axiom','NN','axiom'],
    ['that','IN','that'],
    ['implies','NNS','imply'],
    ['that','WDT','that'],
    ['they','PRP','they'],
    ['do','VBP','do'],
    ['.','.','.']
  ]
},
{
  tag:'S',
  content:
  [
    ['It','PRP','It'],
    ['is','VBZ','be'],
    ['a','DT','a'],
    ['reasonable','JJ','reason'],
    ['axiom','NN','axiom'],
    [',',',',','],
    ['completely','RB','complet'],
    ['in','IN','in'],
    ['line','NN','lin'],
    ['with','IN','with'],
    ['our','PRP$','our'],
    ['intuitions','NNS','intuit'],
    ['about','IN','about'],
    ['drawing','VBG','draw'],
    ['arcs','NNS','arc'],
    ['.','.','.']
  ]
},
{
  tag:'S',
  content:
  [
    ['But','CC','But'],
    ['its','PRP$','its'],
    ['status','NN','stat'],
    ['is','VBZ','be'],
    ['that','IN','that'],
    ['of','IN','of'],
    ['an','DT','an'],
    ['assumption','NN','assum'],
    [',',',',','],
    ['not','RB','not'],
    ['something','NN','someth'],
    ['that','WDT','that'],
    ['can','MD','can'],
    ['be','VB','be'],
    ['proved','VBN','prov'],
    ['.','.','.']
  ]
},
{
  tag:'S',
  content:
  [
    ['View','NNP','view'],
    ['larger','JJR','larg'],
    ['version','NN','vert'],
    [':',':',':'],
    ['In','IN','In'],
    ['this','DT','this'],
    ['window','NN','window'],
    ['In','IN','In'],
    ['a','DT','a'],
    ['new','JJ','new'],
    ['window','NN','window'],
    {
      tag:'ORGANIZATION',
      content:
      [
        ['CREDIT','NN','credit']
      ]
    },
    [':',':',':'],
    {
      tag:'ORGANIZATION',
      content:
      [
        ['JOE','NNP','joe']
      ]
    },
    ['SUTLIFF','NNP','sutliff'],
    ['The','NNP','the'],
    ['lesson','NN','lesson'],
    ['to','TO','to'],
    ['be','VB','be'],
    ['learned','VBN','learn'],
    ['from','IN','from'],
    {
      tag:'PERSON',
      content:
      [
        ['Hilbert','NNP','hilbert']
      ]
    },
    [''s','POS',''s'],
    ['work','NN','work'],
    ['is','VBZ','be'],
    ['that','IN','that'],
    ['it','PRP','it'],
    ['can','MD','can'],
    ['be','VB','be'],
    ['extremely','RB','extrem'],
    ['difficult','JJ','difficult'],
    ['to','TO','to'],
    ['identify','VB','ident'],
    ['all','DT','all'],
    ['the','DT','the'],
    ['assumptions','NNS','assum'],
    ['that','WDT','that'],
    ['are','VBP','be'],
    ['used','VBN','us'],
    ['in','IN','in'],
    ['any','DT','any'],
    ['branch','NN','branch'],
    ['of','IN','of'],
    ['mathematics','NNS','mathem'],
    ['.','.','.']
  ]
},
{
  tag:'S',
  content:
  [
    ['Following','VBG','follow'],
    ['his','PRP$','his'],
    ['work','NN','work'],
    ['on','IN','on'],
    ['the','DT','the'],
    ['axioms','NNS','axiom'],
    ['for','IN','for'],
    ['geometry','NN','geometry'],
    [',',',',','],
    {
      tag:'PERSON',
      content:
      [
        ['Hilbert','NNP','hilbert']
      ]
    },
    ['put','VBD','put'],
    ['forward','RB','forward'],
    ['a','DT','a'],
    ['view','NN','view'],
    ['of','IN','of'],
    ['mathematics','NNS','mathem'],
    ['that','WDT','that'],
    ['was','VBD','be'],
    ['to','TO','to'],
    ['gain','VB','gain'],
    ['considerable','JJ','consid'],
    ['acceptance','NN','acceiv'],
    ['.','.','.']
  ]
},
{
  tag:'S',
  content:
  [
    ['According','VBG','accord'],
    ['to','TO','to'],
    ['this','DT','this'],
    ['view','NN','view'],
    [',',',',','],
    ['which','WDT','which'],
    ['became','VBD','becom'],
    ['known','VBN','know'],
    ['as','IN','as'],
    ['formalism','NN','form'],
    [',',',',','],
    ['mathematics','NNS','mathem'],
    ['should','MD','should'],
    ['be','VB','be'],
    ['regarded','VBN','regard'],
    ['as','IN','as'],
    ['being','VBG','be'],
    [',',',',','],
    ['at','IN','at'],
    ['heart','NN','heart'],
    [',',',',','],
    ['nothing','NN','noth'],
    ['other','JJ','oth'],
    ['than','IN','than'],
    ['a','DT','a'],
    ['collection','NN','collect'],
    ['of','IN','of'],
    ['formal','JJ','form'],
    ['games','NNS','gam'],
    [',',',',','],
    ['each','DT','each'],
    ['one','CD','one'],
    ['played','VBN','play'],
    ['according','VBG','accord'],
    ['to','TO','to'],
    ['completely','RB','complet'],
    ['specified','VBN','spec'],
    ['rules','NNS','rul'],
    ['.','.','.']
  ]
},
{
  tag:'S',
  content:
  [
    ['To','TO','To'],
    ['do','VB','do'],
    {
      tag:'GPE',
      content:
      [
        ['Euclidean','NNP','euclid']
      ]
    },
    ['geometry','NN','geometry'],
    [',',',',','],
    ['for','IN','for'],
    ['instance','NN','inst'],
    [',',',',','],
    ['was','VBD','be'],
    ['to','TO','to'],
    ['play','VB','play'],
    ['the','DT','the'],
    {
      tag:'GPE',
      content:
      [
        ['Euclidean','NNP','euclid']
      ]
    },
    ['geometry','NN','geometry'],
    ['game','NN','gam'],
    ['.','.','.']
  ]
},
{
  tag:'S',
  content:
  [
    ['In','IN','In'],
    ['that','DT','that'],
    ['game','NN','gam'],
    [',',',',','],
    ['you','PRP','you'],
    ['start','VBP','start'],
    ['with','IN','with'],
    ['the','DT','the'],
    ['axioms','NNS','axiom'],
    ['for','IN','for'],
    {
      tag:'GPE',
      content:
      [
        ['Euclidean','NNP','euclid']
      ]
    },
    ['geometry','NN','geometry'],
    ['and','CC','and'],
    ['then','RB','then'],
    ['deduce','VB','deduc'],
    ['all','DT','all'],
    ['the','DT','the'],
    ['truths','NNS','tru'],
    ['of','IN','of'],
    {
      tag:'GPE',
      content:
      [
        ['Euclidean','NNP','euclid']
      ]
    },
    ['geometry','NN','geometry'],
    ['by','IN','by'],
    ['means','NNS','mean'],
    ['of','IN','of'],
    ['mechanistic','JJ','mech'],
    ['manipulations','NNS','manip'],
    ['of','IN','of'],
    ['symbols','NNS','symbol'],
    ['according','VBG','accord'],
    ['to','TO','to'],
    ['totally','RB','tot'],
    ['specified','VBN','spec'],
    ['rules','NNS','rul'],
    ['.','.','.']
  ]
},
{
  tag:'S',
  content:
  [
    ['Nothing','NN','noth'],
    ['could','MD','could'],
    ['be','VB','be'],
    ['used','VBN','us'],
    ['that','IN','that'],
    ['was','VBD','be'],
    ['not','RB','not'],
    ['specified','VBN','spec'],
    ['by','IN','by'],
    ['the','DT','the'],
    ['axioms','NNS','axiom'],
    ['or','CC','or'],
    ['the','DT','the'],
    ['manipulation','NN','manip'],
    ['rules','NNS','rul'],
    ['.','.','.']
  ]
},
{
  tag:'S',
  content:
  [
    ['In','IN','In'],
    ['particular','JJ','particul'],
    [',',',',','],
    ['no','DT','no'],
    ['intuition','NN','intuit'],
    ['about','IN','about'],
    ['the','DT','the'],
    ['nature','NN','nat'],
    ['of','IN','of'],
    ['points','NNS','point'],
    ['or','CC','or'],
    ['lines','NNS','lin'],
    ['could','MD','could'],
    ['or','CC','or'],
    ['should','MD','should'],
    ['be','VB','be'],
    ['used','VBN','us'],
    ['.','.','.']
  ]
},
{
  tag:'S',
  content:
  [
    ['As','IN','As'],
    {
      tag:'PERSON',
      content:
      [
        ['Hilbert','NNP','hilbert']
      ]
    },
    ['himself','PRP','himself'],
    ['remarked','VBD','remark'],
    [',',',',','],
    ['you','PRP','you'],
    ['could','MD','could'],
    ['replace','VB','replac'],
    ['all','DT','all'],
    ['talk','NN','talk'],
    ['about','IN','about'],
    ['points','NNS','point'],
    ['and','CC','and'],
    ['lines','NNS','lin'],
    ['by','IN','by'],
    ['reference','NN','ref'],
    ['to','TO','to'],
    ['beer','NN','beer'],
    ['mugs','NNS','mug'],
    ['and','CC','and'],
    ['bar','NN','bar'],
    ['tables','NNS','tabl'],
    [',',',',','],
    ['provided','VBN','provid'],
    ['you','PRP','you'],
    ['formulated','VBD','form'],
    ['the','DT','the'],
    ['axioms','NNS','axiom'],
    ['in','IN','in'],
    ['terms','NNS','term'],
    ['of','IN','of'],
    ['those','DT','those'],
    ['objects','NNS','object'],
    [',',',',','],
    ['and','CC','and'],
    ['the','DT','the'],
    ['resulting','VBG','result'],
    ['theory','NN','the'],
    ['would','MD','would'],
    ['be','VB','be'],
    ['identical','JJ','id'],
    ['in','IN','in'],
    ['all','DT','all'],
    ['respects','NNS','respect'],
    ['except','IN','except'],
    ['for','IN','for'],
    ['the','DT','the'],
    ['actual','JJ','act'],
    ['words','NNS','word'],
    ['being','VBG','be'],
    ['used','VBN','us'],
    ['.','.','.']
  ]
},
{
  tag:'S',
  content:
  [
    ['By','IN','By'],
    ['removing','NN','remov'],
    ['all','DT','all'],
    ['intuitions','NNS','intuit'],
    ['so','RB','so'],
    ['that','IN','that'],
    ['points','NNS','point'],
    ['and','CC','and'],
    ['lines','NNS','lin'],
    ['are','VBP','be'],
    ['no','DT','no'],
    ['different','JJ','diff'],
    ['from','IN','from'],
    ['beer','NN','beer'],
    ['mugs','NNS','mug'],
    ['and','CC','and'],
    ['bar','NN','bar'],
    ['tables','NNS','tabl'],
    [',',',',','],
    ['the','DT','the'],
    ['reasoning','NN','reason'],
    ['went','VBD','go'],
    [',',',',','],
    ['mathematics','NNS','mathem'],
    ['would','MD','would'],
    ['be','VB','be'],
    ['forever','RB','forev'],
    ['free','JJ','fre'],
    ['from','IN','from'],
    ['the','DT','the'],
    ['dangers','NNS','dang'],
    ['of','IN','of'],
    ['unrecognized','JJ','unrecogn'],
    ['and','CC','and'],
    ['possibly','RB','poss'],
    ['misleading','VBG','mislead'],
    ['assumptions','NNS','assum'],
    ['.','.','.']
  ]
},
{
  tag:'S',
  content:
  [
    ['It','PRP','It'],
    ['would','MD','would'],
    [',',',',','],
    ['in','IN','in'],
    ['principle','NN','principl'],
    [',',',',','],
    ['be','VB','be'],
    ['possible','JJ','poss'],
    ['to','TO','to'],
    ['design','NN','design'],
    ['mechanical','JJ','mech'],
    ['devices—which','JJ','devices—which'],
    [',',',',','],
    ['of','IN','of'],
    ['course','NN','cours'],
    [',',',',','],
    ['have','VBP','hav'],
    ['no','DT','no'],
    ['intuitions—to','JJ','intuitions—to'],
    ['follow','NN','follow'],
    ['the','DT','the'],
    ['rules','NNS','rul'],
    ['and','CC','and'],
    ['deduce','VB','deduc'],
    ['all','DT','all'],
    ['the','DT','the'],
    ['truths','NNS','tru'],
    ['for','IN','for'],
    ['you','PRP','you'],
    ['.','.','.']
  ]
},
{
  tag:'S',
  content:
  [
    ['(','NN','('],
    ['This','DT','This'],
    [',',',',','],
    ['remember','NN','rememb'],
    [',',',',','],
    ['was','VBD','be'],
    ['before','IN','before'],
    ['computers','NNS','comput'],
    ['were','VBD','be'],
    ['invented','VBN','inv'],
    ['.','.','.']
  ]
},
{
  tag:'S',
  content:
  [
    [')','NN',')'],
    ['This','DT','This'],
    ['approach','NN','approach'],
    ['to','TO','to'],
    ['mathematics','NNS','mathem'],
    [',',',',','],
    ['to','TO','to'],
    ['formulate','VB','form'],
    ['all','DT','all'],
    ['the','DT','the'],
    ['axioms','NNS','axiom'],
    ['you','PRP','you'],
    ['need','VBP','nee'],
    ['to','TO','to'],
    ['deduce','VB','deduc'],
    ['all','DT','all'],
    ['the','DT','the'],
    ['truths','NNS','tru'],
    ['in','IN','in'],
    ['a','DT','a'],
    ['particular','JJ','particul'],
    ['branch','NN','branch'],
    ['of','IN','of'],
    ['mathematics','NNS','mathem'],
    ['mechanistically','RB','mech'],
    [',',',',','],
    ['became','VBD','becom'],
    ['known','VBN','know'],
    ['as','IN','as'],
    ['the','DT','the'],
    {
      tag:'PERSON',
      content:
      [
        ['Hilbert','NNP','hilbert'],
        ['Program','NNP','program']
      ]
    },
    ['.','.','.']
  ]
},
{
  tag:'S',
  content:
  [
    ['For','IN','For'],
    ['many','JJ','many'],
    [',',',',','],
    ['the','DT','the'],
    ['search','NN','search'],
    ['for','IN','for'],
    ['axioms','NNS','axiom'],
    ['became','VBD','becom'],
    ['something','NN','someth'],
    ['of','IN','of'],
    ['a','DT','a'],
    {
      tag:'ORGANIZATION',
      content:
      [
        ['Holy','NNP','holy'],
        ['Grail','NNP','grail']
      ]
    },
    [',',',',','],
    ['although','IN','although'],
    {
      tag:'PERSON',
      content:
      [
        ['Hilbert','NNP','hilbert']
      ]
    },
    [',',',',','],
    ['who','WP','who'],
    ['had','VBD','hav'],
    ['great','JJ','gre'],
    ['respect','NN','respect'],
    ['for','IN','for'],
    ['the','DT','the'],
    ['role','NN','rol'],
    ['played','VBD','play'],
    ['by','IN','by'],
    ['human','NN','hum'],
    ['intuition','NN','intuit'],
    ['in','IN','in'],
    ['the','DT','the'],
    ['practice','NN','pract'],
    ['of','IN','of'],
    ['mathematics','NNS','mathem'],
    [',',',',','],
    ['was','VBD','be'],
    ['not','RB','not'],
    ['one','CD','one'],
    ['of','IN','of'],
    ['them','PRP','them'],
    [',',',',','],
    ['and','CC','and'],
    ['never','RB','nev'],
    ['himself','PRP','himself'],
    ['proposed','VBD','propos'],
    ['that','IN','that'],
    ['the','DT','the'],
    ['program','NN','program'],
    ['to','TO','to'],
    ['which','WDT','which'],
    ['others','NNS','oth'],
    ['attached','VBD','attach'],
    ['his','PRP$','his'],
    ['name','NN','nam'],
    ['should','MD','should'],
    ['be','VB','be'],
    ['carried','VBN','carry'],
    ['out','RP','out'],
    ['.','.','.']
  ]
},
{
  tag:'S',
  content:
  [
    ['One','CD','One'],
    ['of','IN','of'],
    ['the','DT','the'],
    ['most','RBS','most'],
    ['sustained','VBN','sustain'],
    ['efforts','NNS','effort'],
    ['to','TO','to'],
    ['carry','VB','carry'],
    ['out','RP','out'],
    ['the','DT','the'],
    {
      tag:'PERSON',
      content:
      [
        ['Hilbert','NNP','hilbert'],
        ['Program','NNP','program']
      ]
    },
    ['was','VBD','be'],
    ['made','VBN','mak'],
    ['by','IN','by'],
    ['the','DT','the'],
    {
      tag:'GPE',
      content:
      [
        ['English','NNP','engl']
      ]
    },
    ['philosophers','NNS','philosoph'],
    {
      tag:'PERSON',
      content:
      [
        ['Bertrand','NNP','bertrand'],
        ['Russell','NNP','russel']
      ]
    },
    ['and','CC','and'],
    {
      tag:'PERSON',
      content:
      [
        ['Alfred','NNP','alfr'],
        ['North','NNP','nor'],
        ['Whitehead','NNP','whitehead']
      ]
    },
    ['.','.','.']
  ]
},
{
  tag:'S',
  content:
  [
    ['Their','PRP$','Their'],
    ['mammoth','NN','mammo'],
    [',',',',','],
    ['three-volume','JJ','three-volume'],
    ['work','NN','work'],
    [',',',',','],
    {
      tag:'PERSON',
      content:
      [
        ['Principia','NNP','princip'],
        ['Mathematica','NNP','mathematic']
      ]
    },
    [',',',',','],
    ['published','VBD','publ'],
    ['from','IN','from'],
    ['1910','CD','1910'],
    ['to','TO','to'],
    ['1913','CD','1913'],
    [',',',',','],
    ['was','VBD','be'],
    ['an','DT','an'],
    ['attempt','NN','attempt'],
    ['to','TO','to'],
    ['develop','VB','develop'],
    ['basic','JJ','bas'],
    ['arithmetic','JJ','arithmet'],
    ['and','CC','and'],
    ['logical','JJ','log'],
    ['reasoning','NN','reason'],
    ['itself','PRP','itself'],
    ['from','IN','from'],
    ['axioms','NNS','axiom'],
    ['.','.','.']
  ]
},
{
  tag:'S',
  content:
  [
    ['It','PRP','It'],
    ['was','VBD','be'],
    ['the','DT','the'],
    ['axiom','NN','axiom'],
    ['system','NN','system'],
    ['in','IN','in'],
    {
      tag:'GPE',
      content:
      [
        ['Principia','NNP','princip']
      ]
    },
    ['Mathematica','NNP','mathematic'],
    ['that','IN','that'],
    {
      tag:'PERSON',
      content:
      [
        ['Gödel','NNP','gödel']
      ]
    },
    ['took','VBD','tak'],
    [',',',',','],
    ['by','IN','by'],
    ['way','NN','way'],
    ['of','IN','of'],
    ['an','DT','an'],
    ['exemplar','JJ','exempl'],
    [',',',',','],
    ['to','TO','to'],
    ['demonstrate','VB','demonst'],
    ['beyond','IN','beyond'],
    ['any','DT','any'],
    ['doubt','NN','doubt'],
    ['that','IN','that'],
    ['the','DT','the'],
    ['goal','NN','goal'],
    ['of','IN','of'],
    ['the','DT','the'],
    {
      tag:'PERSON',
      content:
      [
        ['Hilbert','NNP','hilbert'],
        ['Program','NNP','program']
      ]
    },
    ['was','VBD','be'],
    ['unattainable','JJ','unattain'],
    ['.','.','.']
  ]
},
{
  tag:'S',
  content:
  [
    ['He','PRP','He'],
    ['called','VBD','cal'],
    ['his','PRP$','his'],
    ['dramatic','JJ','dram'],
    ['paper','NN','pap'],
    ['“On','JJ','“on'],
    ['formal','JJ','form'],
    ['undecidable','JJ','undecid'],
    ['statements','NNS','stat'],
    ['of','IN','of'],
    {
      tag:'ORGANIZATION',
      content:
      [
        ['Principia','NNP','princip'],
        ['Mathematica','NNP','mathematic']
      ]
    },
    ['and','CC','and'],
    ['related','VBD','rel'],
    ['systems.”','JJ','systems.”'],
    ['At','IN','At'],
    ['the','DT','the'],
    ['time','NN','tim'],
    ['that','IN','that'],
    ['Gödel','JJ','gödel'],
    ['proved','JJ','prov'],
    ['it','PRP','it'],
    [',',',',','],
    ['the','DT','the'],
    {
      tag:'ORGANIZATION',
      content:
      [
        ['Incompleteness','NNP','incomplet']
      ]
    },
    ['Theorem','NNP','theorem'],
    ['gained','VBD','gain'],
    ['a','DT','a'],
    ['reputation','NN','reput'],
    ['of','IN','of'],
    ['being','VBG','be'],
    ['difficult','JJ','difficult'],
    ['to','TO','to'],
    ['follow','VB','follow'],
    ['.','.','.']
  ]
},
{
  tag:'S',
  content:
  [
    ['But','CC','But'],
    ['that','DT','that'],
    ['has','VBZ','hav'],
    ['long','RB','long'],
    ['ago','RB','ago'],
    ['given','VBN','giv'],
    ['way','NN','way'],
    ['to','TO','to'],
    ['a','DT','a'],
    ['realization','NN','real'],
    ['that','WDT','that'],
    ['it','PRP','it'],
    ['is','VBZ','be'],
    ['really','RB','real'],
    ['a','DT','a'],
    ['rather','RB','rath'],
    ['simple','JJ','simpl'],
    ['result','NN','result'],
    ['.','.','.']
  ]
},
{
  tag:'S',
  content:
  [
    ['The','DT','The'],
    ['complexities','NNS','complex'],
    ['of','IN','of'],
    ['Gödel','JJ','gödel'],
    [''s','POS',''s'],
    ['original','JJ','origin'],
    ['proof','NN','proof'],
    ['are','VBP','be'],
    ['largely','RB','larg'],
    ['irrelevant','JJ','irrelev'],
    [',',',',','],
    ['a','DT','a'],
    ['consequence','NN','consequ'],
    ['of','IN','of'],
    ['the','DT','the'],
    ['particular','JJ','particul'],
    ['way','NN','way'],
    ['he','PRP','he'],
    ['presented','VBD','pres'],
    ['the','DT','the'],
    ['argument','NN','argu'],
    ['.','.','.']
  ]
},
{
  tag:'S',
  content:
  [
    ['In','IN','In'],
    ['essence','NN','ess'],
    [',',',',','],
    {
      tag:'PERSON',
      content:
      [
        ['Gödel','NNP','gödel']
      ]
    },
    ['took','VBD','tak'],
    ['the','DT','the'],
    ['familiar','JJ','famili'],
    {
      tag:'PERSON',
      content:
      [
        ['Liar','NNP','liar'],
        ['Paradox','NNP','paradox']
      ]
    },
    ['and','CC','and'],
    ['showed','VBD','show'],
    ['how','WRB','how'],
    ['to','TO','to'],
    ['reproduce','VB','reproduc'],
    ['it','PRP','it'],
    ['within','IN','within'],
    ['any','DT','any'],
    ['axiom','NN','axiom'],
    ['system','NN','system'],
    ['that','WDT','that'],
    ['supported','VBD','support'],
    ['arithmetic','JJ','arithmet'],
    ['.','.','.']
  ]
},
{
  tag:'S',
  content:
  [
    ['The','DT','The'],
    {
      tag:'ORGANIZATION',
      content:
      [
        ['Liar','NNP','liar'],
        ['Paradox','NNP','paradox']
      ]
    },
    [',',',',','],
    ['which','WDT','which'],
    ['goes','VBZ','go'],
    ['back','RB','back'],
    ['to','TO','to'],
    ['ancient','VB','ant'],
    {
      tag:'GPE',
      content:
      [
        ['Greece','NNP','greec']
      ]
    },
    [',',',',','],
    ['arises','VBZ','ar'],
    ['when','WRB','when'],
    ['a','DT','a'],
    ['person','NN','person'],
    ['stands','VBZ','stand'],
    ['up','IN','up'],
    ['and','CC','and'],
    ['says','VBZ','say'],
    ['“I','NNP','“i'],
    ['am','NN','am'],
    ['lying.”','-NONE-','lying.”'],
    ['If','IN','If'],
    ['the','DT','the'],
    ['person','NN','person'],
    ['is','VBZ','be'],
    ['lying','VBG','lie'],
    [',',',',','],
    ['then','RB','then'],
    ['the','DT','the'],
    ['statement','NN','stat'],
    ['is','VBZ','be'],
    ['true','JJ','tru'],
    [',',',',','],
    ['so','RB','so'],
    ['they','PRP','they'],
    ['are','VBP','be'],
    ['not','RB','not'],
    ['lying','VBG','lie'],
    [';',':',';'],
    ['and','CC','and'],
    ['if','IN','if'],
    ['they','PRP','they'],
    ['are','VBP','be'],
    ['not','RB','not'],
    ['lying','VBG','lie'],
    [',',',',','],
    ['the','DT','the'],
    ['statement','NN','stat'],
    ['is','VBZ','be'],
    ['false','NN','fals'],
    [',',',',','],
    ['so','RB','so'],
    ['they','PRP','they'],
    ['are','VBP','be'],
    ['lying','VBG','lie'],
    ['.','.','.']
  ]
},
{
  tag:'S',
  content:
  [
    ['This','DT','This'],
    ['is','VBZ','be'],
    ['a','DT','a'],
    ['seemingly','RB','seem'],
    ['inescapable','JJ','inescap'],
    ['paradox','NN','paradox'],
    ['.','.','.']
  ]
},
{
  tag:'S',
  content:
  [
    ['Gödel','JJ','gödel'],
    ['took','VBD','tak'],
    ['a','DT','a'],
    ['similar','JJ','simil'],
    ['statement','NN','stat'],
    [',',',',','],
    ['“This','NNP','“this'],
    ['statement','NN','stat'],
    ['is','VBZ','be'],
    ['not','RB','not'],
    ['provable','JJ','prov'],
    [',',',',','],
    ['”',':','”'],
    ['and','CC','and'],
    ['showed','VBD','show'],
    ['how','WRB','how'],
    ['it','PRP','it'],
    ['could','MD','could'],
    ['be','VB','be'],
    ['formulated','VBN','form'],
    ['as','IN','as'],
    ['a','DT','a'],
    ['mathematical','JJ','mathem'],
    ['formula','NN','formul'],
    ['within','IN','within'],
    ['arithmetic','JJ','arithmet'],
    ['.','.','.']
  ]
},
{
  tag:'S',
  content:
  [
    ['This','DT','This'],
    ['required','VBN','requir'],
    [',',',',','],
    ['first','JJ','first'],
    ['of','IN','of'],
    ['all','DT','all'],
    [',',',',','],
    ['coding','VBG','cod'],
    ['statements','NNS','stat'],
    ['as','IN','as'],
    ['numbers—a','NNP','numbers—a'],
    ['process','NN','process'],
    ['known','VBN','know'],
    ['as','IN','as'],
    ['Gödel','NNP','gödel'],
    ['numbering','NN','numb'],
    ['.','.','.']
  ]
},
{
  tag:'S',
  content:
  [
    ['At','IN','At'],
    ['the','DT','the'],
    ['time','NN','tim'],
    [',',',',','],
    ['this','DT','this'],
    ['was','VBD','be'],
    ['regarded','VBN','regard'],
    ['as','IN','as'],
    ['a','DT','a'],
    ['deep','NN','deep'],
    ['and','CC','and'],
    ['difficult','JJ','difficult'],
    ['step','NN','step'],
    [',',',',','],
    ['but','CC','but'],
    ['today','NN','today'],
    ['any','DT','any'],
    ['number','NN','numb'],
    ['of','IN','of'],
    ['spy','NN','spy'],
    ['movies','NNS','movy'],
    ['have','VBP','hav'],
    ['depicted','VBN','depict'],
    ['the','DT','the'],
    ['way','NN','way'],
    ['in','IN','in'],
    ['which','WDT','which'],
    {
      tag:'GPE',
      content:
      [
        ['English','NNP','engl']
      ]
    },
    ['words','VBZ','word'],
    ['and','CC','and'],
    ['sentences','NNS','sent'],
    ['can','MD','can'],
    ['be','VB','be'],
    ['encoded','VBN','encod'],
    ['as','IN','as'],
    ['sequences','NNS','sequ'],
    ['of','IN','of'],
    ['numbers','NNS','numb'],
    [',',',',','],
    ['often','RB','oft'],
    ['as','IN','as'],
    ['part','NN','part'],
    ['of','IN','of'],
    ['the','DT','the'],
    ['process','NN','process'],
    ['of','IN','of'],
    ['encrypting','VBG','encrypt'],
    ['messages','NNS','mess'],
    ['.','.','.']
  ]
},
{
  tag:'S',
  content:
  [
    ['Gödel','JJ','gödel'],
    [''s','POS',''s'],
    ['next','JJ','next'],
    ['step','NN','step'],
    ['was','VBD','be'],
    ['to','TO','to'],
    ['show','VB','show'],
    ['how','WRB','how'],
    ['the','DT','the'],
    ['concept','NN','conceiv'],
    ['of','IN','of'],
    ['provability','NN','prov'],
    ['could','MD','could'],
    ['be','VB','be'],
    ['captured','VBN','capt'],
    ['within','IN','within'],
    ['arithmetic','JJ','arithmet'],
    ['.','.','.']
  ]
},
{
  tag:'S',
  content:
  [
    ['This','DT','This'],
    ['was','VBD','be'],
    ['a','DT','a'],
    ['somewhat','RB','somewh'],
    ['deeper','JJ','deep'],
    ['move','NN','mov'],
    [',',',',','],
    ['but','CC','but'],
    ['to','TO','to'],
    ['today','NN','today'],
    [''s','POS',''s'],
    ['mathematicians','NNS','mathem'],
    ['it','PRP','it'],
    ['too','RB','too'],
    ['seems','VBZ','seem'],
    ['fairly','RB','fair'],
    ['routine','JJ','routin'],
    ['.','.','.']
  ]
},
{
  tag:'S',
  content:
  [
    ['Once','RB','ont'],
    ['the','DT','the'],
    ['coding','NN','cod'],
    ['had','VBD','hav'],
    ['been','VBN','be'],
    ['completed','VBN','complet'],
    [',',',',','],
    ['the','DT','the'],
    ['noose','NN','noos'],
    ['was','VBD','be'],
    ['tight','JJ','tight'],
    ['.','.','.']
  ]
},
{
  tag:'S',
  content:
  [
    ['If','IN','If'],
    ['one','CD','one'],
    ['assumed','VBN','assum'],
    ['that','IN','that'],
    ['the','DT','the'],
    ['axiom','NN','axiom'],
    ['systems','NNS','system'],
    ['were','VBD','be'],
    ['consistent','JJ','consist'],
    ['(','NN','('],
    ['that','WDT','that'],
    ['is','VBZ','be'],
    [',',',',','],
    ['they','PRP','they'],
    ['did','VBD','do'],
    ['not','RB','not'],
    ['lead','VB','lead'],
    ['to','TO','to'],
    ['any','DT','any'],
    ['internal','JJ','intern'],
    ['contradictions','NNS','contradict'],
    [')',':',')'],
    [',',',',','],
    ['the','DT','the'],
    ['statement','NN','stat'],
    ['clearly','RB','clear'],
    ['could','MD','could'],
    ['not','RB','not'],
    ['be','VB','be'],
    ['provable','JJ','prov'],
    ['(','NN','('],
    ['since','IN','since'],
    ['it','PRP','it'],
    ['declared','VBD','decl'],
    ['its','PRP$','its'],
    ['own','JJ','own'],
    ['unprovability','NN','unprov'],
    [')',':',')'],
    ['.','.','.']
  ]
},
{
  tag:'S',
  content:
  [
    ['Hence','NN','hent'],
    ['it','PRP','it'],
    ['was','VBD','be'],
    ['true—but','JJ','true—but'],
    ['unprovable','JJ','unprov'],
    ['.','.','.']
  ]
},
{
  tag:'S',
  content:
  [
    ['To','TO','To'],
    ['those','DT','those'],
    ['mathematicians','NNS','mathem'],
    ['(','VBP','('],
    ['the','DT','the'],
    ['formalists','NNS','form'],
    [')',':',')'],
    ['who','WP','who'],
    ['believed','VBD','believ'],
    ['that','IN','that'],
    ['mathematical','JJ','mathem'],
    ['truth','NN','tru'],
    ['was','VBD','be'],
    ['the','DT','the'],
    ['same','JJ','sam'],
    ['as','IN','as'],
    ['provability—that','JJ','provability—that'],
    ['the','DT','the'],
    ['true','JJ','tru'],
    ['statements','NNS','stat'],
    ['of','IN','of'],
    ['mathematics','NNS','mathem'],
    ['are','VBP','be'],
    ['precisely','RB','prec'],
    ['the','DT','the'],
    ['ones','NNS','on'],
    ['you','PRP','you'],
    ['can','MD','can'],
    ['prove','VB','prov'],
    ['from','IN','from'],
    ['the','DT','the'],
    ['axioms','NNS','axiom'],
    ['once','RB','ont'],
    ['you','PRP','you'],
    ['have','VB','hav'],
    ['formulated','VBN','form'],
    ['them','PRP','them'],
    ['all','DT','all'],
    ['properly—Gödel','NNP','properly—gödel'],
    [''s','POS',''s'],
    ['theorem','NN','theorem'],
    ['was','VBD','be'],
    ['devastating','VBG','devast'],
    ['.','.','.']
  ]
},
{
  tag:'S',
  content:
  [
    ['Today','NN','today'],
    [',',',',','],
    ['however','RB','howev'],
    [',',',',','],
    ['as','IN','as'],
    ['I','PRP','I'],
    ['remarked','VBD','remark'],
    ['earlier','JJR','ear'],
    [',',',',','],
    ['mathematicians','NNS','mathem'],
    ['regard','VBP','regard'],
    ['it','PRP','it'],
    ['simply','RB','simply'],
    ['as','IN','as'],
    ['confirming','VBG','confirm'],
    ['the','DT','the'],
    ['limitations','NNS','limit'],
    ['of','IN','of'],
    ['what','WP','what'],
    ['can','MD','can'],
    ['be','VB','be'],
    ['achieved','VBN','achiev'],
    ['with','IN','with'],
    ['axiom','NN','axiom'],
    ['systems','NNS','system'],
    ['.','.','.']
  ]
},
{
  tag:'S',
  content:
  [
    ['But','CC','But'],
    ['they','PRP','they'],
    ['are','VBP','be'],
    ['able','JJ','abl'],
    ['to','TO','to'],
    ['do','VB','do'],
    ['so','RB','so'],
    ['only','RB','on'],
    ['because','IN','because'],
    ['contemporary','JJ','contemp'],
    ['mathematics','NNS','mathem'],
    ['has','VBZ','hav'],
    ['learned','VBN','learn'],
    ['the','DT','the'],
    ['lesson','NN','lesson'],
    ['that','IN','that'],
    ['Gödel','JJ','gödel'],
    [''s','POS',''s'],
    ['Theorem','NNP','theorem'],
    ['taught','VBD','teach'],
    ['us','PRP','us'],
    ['.','.','.']
  ]
},
{
  tag:'S',
  content:
  [
    ['Gödel's','NNS','gödel's'],
    ['result','VBD','result'],
    ['may','MD','may'],
    ['not','RB','not'],
    ['have','VB','hav'],
    ['changed','VBN','chang'],
    ['mathematics','NNS','mathem'],
    ['very','RB','very'],
    ['much','RB','much'],
    ['.','.','.']
  ]
},
{
  tag:'S',
  content:
  [
    ['But','CC','But'],
    ['it','PRP','it'],
    ['changed','VBD','chang'],
    ['the','DT','the'],
    ['way','NN','way'],
    ['we','PRP','we'],
    ['view','VBP','view'],
    ['it','PRP','it'],
    ['.','.','.']
  ]
},
{
  tag:'S',
  content:
  [
    ['His','PRP$','His'],
    ['selection','NN','select'],
    ['as','IN','as'],
    ['one','CD','one'],
    ['of','IN','of'],
    ['the','DT','the'],
    ['most','RBS','most'],
    ['influential','JJ','influ'],
    ['thinkers','NNS','think'],
    ['of','IN','of'],
    ['the','DT','the'],
    ['20th','JJ','20th'],
    ['century','NN','century'],
    ['is','VBZ','be'],
    ['undoubtedly','RB','undoubt'],
    ['well','RB','wel'],
    ['deserved','VBN','deserv'],
    ['.','.','.']
  ]
},
{
  tag:'S',
  content:
  [
    ['Responses','NNS','respons'],
    ['to','TO','to'],
    ['this','DT','this'],
    ['article','NN','artic'],
    {
      tag:'PERSON',
      content:
      [
        ['Godel','NNP','godel']
      ]
    },
    [''s','POS',''s'],
    ['illness','NN','il'],
    {
      tag:'PERSON',
      content:
      [
        ['Robert','NNP','robert'],
        ['L.','NNP','l.'],
        ['Marcus','NNP','marc'],
        ['Science','NNP','sci']
      ]
    },
    ['published','VBD','publ'],
    ['online','NN','onlin'],
    ['29','CD','29'],
    ['January','NNP','janu'],
    ['2003','CD','2003'],
    ['Full','NNP','ful'],
    ['Text','NNP','text'],
    {
      tag:'PERSON',
      content:
      [
        ['Article','NNP','artic'],
        ['Views','NNP','view'],
        ['Summary','NNP','sum'],
        ['Full','NNP','ful'],
        ['Text','NNP','text'],
        ['Full','NNP','ful'],
        ['Text','NNP','text']
      ]
    },
    ['(','NNP','('],
    {
      tag:'ORGANIZATION',
      content:
      [
        ['PDF','NNP','pdf']
      ]
    },
    [')','NNP',')'],
    {
      tag:'PERSON',
      content:
      [
        ['Article','NNP','artic'],
        ['Tools','NNP','tool'],
        ['Save','NNP','sav']
      ]
    },
    ['to','TO','to'],
    ['My','NNP','my'],
    ['Folders','NNP','fold'],
    ['Download','NNP','download'],
    ['Citation','NNP','cit'],
    {
      tag:'PERSON',
      content:
      [
        ['Alert','NNP','alert'],
        ['Me','NNP','me']
      ]
    },
    ['When','NNP','when'],
    {
      tag:'PERSON',
      content:
      [
        ['Article','NNP','artic']
      ]
    },
    ['is','VBZ','be'],
    {
      tag:'PERSON',
      content:
      [
        ['Cited','NNP','cit'],
        ['Post','NNP','post']
      ]
    },
    ['to','TO','to'],
    {
      tag:'ORGANIZATION',
      content:
      [
        ['CiteULike','NNP','citeulik'],
        ['What','NNP','what']
      ]
    },
    [''s','POS',''s'],
    ['this','DT','this'],
    ['?','.','?']
  ]
},
{
  tag:'S',
  content:
  [
    ['E-mail','JJ','e-mail'],
    ['This','DT','This'],
    ['Page','NNP','pag'],
    ['Read','NNP','read'],
    ['E-Letters','NNP','e-letters'],
    ['(','NNP','('],
    ['1','CD','1'],
    [')','CD',')'],
    ['Rights','NNS','right'],
    ['&','CC','&'],
    ['Permissions','NNS','permit'],
    {
      tag:'ORGANIZATION',
      content:
      [
        ['Commercial','JJ','commerc'],
        ['Reprints','NNS','reprint']
      ]
    },
    ['and','CC','and'],
    ['E-Prints','NNS','e-prints'],
    {
      tag:'PERSON',
      content:
      [
        ['View','NNP','view'],
        ['PubMed','NNP','pubm'],
        ['Citation','NNP','cit'],
        ['Related','NNP','rel'],
        ['Content','NNP','cont'],
        ['Load','NNP','load']
      ]
    },
    ['related','VBD','rel'],
    ['web','NN','web'],
    ['site','NN','sit'],
    ['information','NN','inform'],
    ['Similar','JJ','simil'],
    ['Articles','NNS','artic'],
    ['In','IN','In'],
    [':',':',':'],
    ['Science','NN','sci'],
    {
      tag:'PERSON',
      content:
      [
        ['Magazine','NN','magazin'],
        ['Web','NNP','web']
      ]
    },
    ['of','IN','of'],
    {
      tag:'ORGANIZATION',
      content:
      [
        ['Science','NNP','sci']
      ]
    },
    ['PubMed','NNP','pubm'],
    ['Search','NNP','search'],
    ['Google','NNP','googl'],
    ['Scholar','NNP','scholar'],
    ['for','IN','for'],
    [':',':',':'],
    ['Articles','NNPS','artic'],
    ['by','IN','by'],
    {
      tag:'PERSON',
      content:
      [
        ['Devlin','NNP','devlin']
      ]
    },
    [',',',',','],
    ['K.','NNP','k.'],
    ['Search','NNP','search'],
    ['PubMed','NNP','pubm'],
    ['for','IN','for'],
    [':',':',':'],
    ['Articles','NNPS','artic'],
    ['by','IN','by'],
    {
      tag:'PERSON',
      content:
      [
        ['Devlin','NNP','devlin']
      ]
    },
    [',',',',','],
    ['K.','NNP','k.'],
    ['Find','NNP','find'],
    ['Citing','NNP','cit'],
    ['Articles','NNP','artic'],
    ['in','IN','in'],
    [':',':',':'],
    ['Web','NNP','web'],
    ['of','IN','of'],
    {
      tag:'ORGANIZATION',
      content:
      [
        ['Science','NNP','sci'],
        ['Load','NNP','load']
      ]
    },
    ['citing','NN','cit'],
    ['article','NN','artic'],
    ['information','NN','inform'],
    {
      tag:'ORGANIZATION',
      content:
      [
        ['CrossRef','NNP','crossref'],
        ['Google','NNP','googl'],
        ['Scholar','NNP','scholar']
      ]
    },
    ['Citing','NNP','cit'],
    ['articles','VBZ','artic'],
    ['via','IN','via'],
    {
      tag:'PERSON',
      content:
      [
        ['Scopus','NNP','scop'],
        ['My','NNP','my'],
        ['Science','NNP','sci'],
        ['My','NNP','my'],
        ['Folders','NNP','fold'],
        ['My','NNP','my'],
        ['Alerts','NNP','alert'],
        ['My','NNP','my'],
        ['Saved','NNP','sav'],
        ['Searches','NNP','search'],
        ['Sign','NNP','sign']
      ]
    },
    ['In','NNP','in'],
    ['More','NNP','mor'],
    ['Information','NNP','inform'],
    ['More','NNP','mor'],
    ['in','IN','in'],
    {
      tag:'GPE',
      content:
      [
        ['Collections','NNP','collect']
      ]
    },
    ['Computers','NNP','comput'],
    [',',',',','],
    {
      tag:'PERSON',
      content:
      [
        ['Mathematics','NNP','mathem'],
        ['Essays','NNP','essay'],
        ['Related','NNP','rel'],
        ['Jobs','NNP','job']
      ]
    },
    ['from','IN','from'],
    {
      tag:'ORGANIZATION',
      content:
      [
        ['ScienceCareers','NNP','sciencec'],
        ['Computer','NNP','comput'],
        ['Science','NNP','sci'],
        ['Informatics','NNP','inform'],
        ['Mathematics','NNP','mathem'],
        ['To','NNP','to'],
        ['Advertise','NNP','advert']
      ]
    },
    ['|','NNP','|'],
    ['Find','NNP','find'],
    ['Products','NNPS','produc'],
    {
      tag:'ORGANIZATION',
      content:
      [
        ['ADVERTISEMENT','NNP','advert'],
        ['Headline','NNP','headlin'],
        ['Jobs','NNP','job'],
        ['Science','NNP','sci']
      ]
    },
    ['.','.','.']
  ]
},
{
  tag:'S',
  content:
  [
    ['ISSN','NNP','issn'],
    ['0036-8075','CD','0036-8075'],
    ['(','CD','('],
    ['print','NN','print'],
    [')',':',')'],
    [',',',',','],
    ['1095-9203','CD','1095-9203'],
    ['(',':','('],
    ['online','NN','onlin'],
    [')',':',')'],
    ['News','NNP','new'],
    ['|',':','|'],
    {
      tag:'ORGANIZATION',
      content:
      [
        ['Science','NNP','sci'],
        ['Journals','NNPS','journ']
      ]
    },
    ['|','NNP','|'],
    ['Careers','NNP','car'],
    ['|','NNP','|'],
    ['Multimedia','NNP','multimed'],
    ['|','NNP','|'],
    ['Collections','NNP','collect'],
    ['|','NNP','|'],
    ['Help','NNP','help'],
    ['|','NNP','|'],
    ['Site','NNP','sit'],
    ['Map','NNP','map'],
    ['|','NNP','|'],
    ['RSS','NNP','rss']
  ]
}]