[
{
  tag:'S',
  content:
  [
    {
      tag:'PERSON',
      content:
      [
        ['Contact','NN','contact'],
        ['Us','NNP','us'],
        ['Site','NNP','sit'],
        ['Web','NNP','web'],
        ['Search','NNP','search']
      ]
    },
    ['by','IN','by'],
    {
      tag:'ORGANIZATION',
      content:
      [
        ['YAHOO','NNP','yahoo']
      ]
    },
    ['!','.','!']
  ]
},
{
  tag:'S',
  content:
  [
    ['Businesses','NNS','busy'],
    ['PR','VBP','pr'],
    {
      tag:'ORGANIZATION',
      content:
      [
        ['HomeArlington','NNP','homearlington'],
        ['Clay','NNP','clay'],
        ['Mandarin','NNP','mandarin'],
        ['Nassau','NNP','nassau'],
        ['Northside','NNP','northsid'],
        ['Riverside','NNP','riversid'],
        ['Westside','NNP','westsid'],
        ['Beaches','NNP','beach'],
        ['South','NNP','sou'],
        ['Georgia','NNP','georg'],
        ['Southside','NNP','southsid'],
        ['St.','NNP','st.'],
        ['Johns','NNP','john'],
        ['Florida','NNP','florid'],
        ['Nation','NNP','nat']
      ]
    },
    ['World','NNP','world'],
    ['NewsLocal','NNP','newsloc'],
    ['Crime','NNP','crim'],
    ['Databases','NNP','databas'],
    ['Health','NNP','heal'],
    ['&','CC','&'],
    {
      tag:'ORGANIZATION',
      content:
      [
        ['Fitness','NNP','fit'],
        ['Military','NNP','milit'],
        ['Obituaries','NNPS','obitu'],
        ['Pets','NNPS','pet'],
        ['Politics','NNP','polit']
      ]
    },
    ['&','CC','&'],
    ['Government','NNP','govern'],
    {
      tag:'PERSON',
      content:
      [
        ['Schools','NNP','schools'],
        ['Transportation','NNP','transport'],
        ['Values','NNP','valu']
      ]
    },
    ['&','CC','&'],
    {
      tag:'ORGANIZATION',
      content:
      [
        ['Religion','NNP','relig']
      ]
    },
    ['SportsJaguars','NNP','sportsjagu'],
    ['UF','NNP','uf'],
    ['Gators','NNP','gat'],
    ['UGa','NNP','ug'],
    ['Bulldogs','NNP','bulldog'],
    ['FSU','NNP','fsu'],
    {
      tag:'PERSON',
      content:
      [
        ['Seminoles','NNP','seminol'],
        ['UNF','NNP','unf'],
        ['Ospreys','NNP','osprey'],
        ['JU','NNP','ju'],
        ['Dolphins','NNP','dolphin'],
        ['High','NNP','high'],
        ['Schools','NNP','schools'],
        ['Running','NNP','run'],
        ['Golf','NNP','golf'],
        ['Suns','NNP','sun'],
        ['Outdoors','NNP','outdo'],
        ['Auto','NNP','auto'],
        ['Racing','NNP','rac']
      ]
    },
    {
      tag:'ORGANIZATION',
      content:
      [
        ['MoneyBlogs','NNP','moneyblog'],
        ['Real','NNP','real'],
        ['Estate','NNP','est'],
        ['Small','NNP','smal'],
        ['Business','NNP','busy'],
        ['Submit','NNP','submit'],
        ['News','NNP','new'],
        ['Personal','NNP','person'],
        ['Finance','NNP','fin']
      ]
    },
    ['EntertainmentArts','NNP','entertainmentart'],
    ['Comics','NNP','com'],
    ['Contests','NNP','contest'],
    ['De','NNP','de'],
    ['Paseo','NNP','paseo'],
    ['Food','NNP','food'],
    ['&','CC','&'],
    ['Dining','NNP','din'],
    ['Games','NNP','gam'],
    ['Home','NNP','hom'],
    ['&','CC','&'],
    {
      tag:'PERSON',
      content:
      [
        ['Garden','NNP','gard'],
        ['Horoscopes','NNP','horoscop'],
        ['Lottery','NNP','lottery']
      ]
    },
    ['Movies','NNPS','movy'],
    ['Relationships','NNP','rel'],
    ['Events','NNP','ev'],
    ['TV','NNP','tv'],
    ['OpinionEditorials','NNP','opinionedit'],
    ['Columnists','NNP','column'],
    ['(','NNP','('],
    ['members','NNS','memb'],
    ['only','RB','on'],
    [')','VBP',')'],
    ['Forums','NNS','forum'],
    ['Letters','NNS','let'],
    ['from','IN','from'],
    {
      tag:'ORGANIZATION',
      content:
      [
        ['Readers','NNP','read'],
        ['Opinion','NNP','opin'],
        ['Page','NNP','pag'],
        ['Blog','NNP','blog'],
        ['Rants','NNP','rant']
      ]
    },
    ['&','CC','&'],
    {
      tag:'PERSON',
      content:
      [
        ['Raves','NNP','rav'],
        ['Savvy','NNP','savvy'],
        ['Citizen','NNP','cit'],
        ['Site','NNP','sit'],
        ['Help','NNP','help'],
        ['Photos','NNP','photo'],
        ['Photos','NNP','photo'],
        ['Blog','NNP','blog'],
        ['Entertainment','NNP','entertain'],
        ['Sports','NNP','sport'],
        ['News','NNP','new'],
        ['Share','NNP','shar'],
        ['Areas','NNP','area']
      ]
    },
    ['of','IN','of'],
    {
      tag:'PERSON',
      content:
      [
        ['Town','NNP','town']
      ]
    },
    ['T-U','NNP','t-u'],
    ['Photographers','NNP','photograph'],
    ['Community','NNP','commun'],
    ['Photographers','NNP','photograph'],
    ['Groups','NNP','group'],
    ['Most','NNP','most'],
    ['Recent','NNP','rec'],
    ['VideoNews','NNP','videonew'],
    ['Entertainment','NNP','entertain'],
    ['Sports','NNP','sport'],
    {
      tag:'PERSON',
      content:
      [
        ['Jaguars','NNP','jagu']
      ]
    },
    ['Florida/Nation/World','NNP','florida/nation/world'],
    ['Great','NNP','gre'],
    {
      tag:'PERSON',
      content:
      [
        ['Parks','NNP','park'],
        ['MATTaboutJAX','NNP','mattaboutjax'],
        ['Community','NNP','commun'],
        ['Video','NNP','video']
      ]
    },
    ['ClassifiedsPlace','NNP','classifiedsplac'],
    ['an','DT','an'],
    ['Ad','NNP','ad'],
    ['Homes','NNP','hom'],
    ['Autos','NNP','auto'],
    ['Merchandise','NNP','merchand'],
    ['Garage','NNP','gar'],
    ['Sales','NNP','sal'],
    ['Pets','NNPS','pet'],
    {
      tag:'ORGANIZATION',
      content:
      [
        ['Announcements','NNP','annount'],
        ['Services','NNPS','serv'],
        ['Legals','NNP','leg']
      ]
    },
    ['YouPayHalf','NNP','youpayhalf'],
    ['CarsFind','NNP','carsfind'],
    ['a','DT','a'],
    {
      tag:'ORGANIZATION',
      content:
      [
        ['Vehicle','NNP','vehic']
      ]
    },
    ['Find','NNP','find'],
    ['a','DT','a'],
    {
      tag:'ORGANIZATION',
      content:
      [
        ['Dealer','NNP','deal']
      ]
    },
    ['Under','NNP','und'],
    ['$','$','$'],
    ['9,999','CD','9,999'],
    ['Research','NNP','research'],
    {
      tag:'PERSON',
      content:
      [
        ['Vehicles','NNP','vehic'],
        ['Compare','NNP','comp'],
        ['Cars','NNP','car'],
        ['Search','NNP','search']
      ]
    },
    ['by','IN','by'],
    {
      tag:'PERSON',
      content:
      [
        ['Lifestyle','NNP','lifestyl'],
        ['New','NNP','new']
      ]
    },
    ['on','IN','on'],
    ['the','DT','the'],
    {
      tag:'ORGANIZATION',
      content:
      [
        ['Lot','NNP','lot'],
        ['Pod','NNP','pod'],
        ['Rods','NNP','rod']
      ]
    },
    ['First','NNP','first'],
    ['Coast','NNP','coast'],
    {
      tag:'PERSON',
      content:
      [
        ['Gears','NNP','gear'],
        ['Jobs','NNP','job'],
        ['Top','NNP','top'],
        ['Jobs','NNP','job'],
        ['Advertise','NNP','advert']
      ]
    },
    ['with','IN','with'],
    {
      tag:'PERSON',
      content:
      [
        ['Us','NNP','us'],
        ['Contact','NNP','contact'],
        ['Us','NNP','us'],
        ['Virtual','NNP','virt'],
        ['Career','NNP','car'],
        ['Fair','NNP','fair'],
        ['Homes','NNP','hom']
      ]
    },
    {
      tag:'ORGANIZATION',
      content:
      [
        ['DealsDaily','NNP','dealsday'],
        ['Deal','NNP','deal']
      ]
    },
    ['Your','NNP','yo'],
    ['Money','NNP','money'],
    ['Deals','NNP','deal'],
    ['from','IN','from'],
    ['the','DT','the'],
    ['Web','NNP','web'],
    ['Grocery','NNP','grocery'],
    ['Coupons','NNP','coupon'],
    ['Couponing','NNP','coupon'],
    ['Tips','NNP','tip'],
    ['Find','NNP','find'],
    {
      tag:'PERSON',
      content:
      [
        ['Cheap','NNP','cheap'],
        ['Gas','NNP','gas']
      ]
    },
    ['81°','CD','81°'],
    {
      tag:'GPE',
      content:
      [
        ['Broken','NNP','brok']
      ]
    },
    ['clouds','NNS','cloud'],
    ['More','JJR','mor'],
    {
      tag:'PERSON',
      content:
      [
        ['Weather','NNP','weath'],
        ['Blogs','NNP','blog']
      ]
    },
    ['/','NNP','/'],
    ['The','NNP','the'],
    {
      tag:'PERSON',
      content:
      [
        ['Stew','NNP','stew']
      ]
    },
    ['/','NNP','/'],
    {
      tag:'PERSON',
      content:
      [
        ['Werner','NNP','wern'],
        ['Heisenberg','NNP','heisenberg']
      ]
    },
    ['and','CC','and'],
    {
      tag:'PERSON',
      content:
      [
        ['Bernhard','NNP','bernhard'],
        ['Riemann','NNP','rieman'],
        ['Werner','NNP','wern'],
        ['Heisenberg','NNP','heisenberg']
      ]
    },
    ['and','CC','and'],
    {
      tag:'PERSON',
      content:
      [
        ['Bernhard','NNP','bernhard'],
        ['Riemann','NNP','rieman'],
        ['Submitted','NNP','submit']
      ]
    },
    ['by','IN','by'],
    {
      tag:'PERSON',
      content:
      [
        ['Wyman','NNP','wym'],
        ['Stewart','NNP','stewart']
      ]
    },
    ['on','IN','on'],
    ['August','NNP','august'],
    ['19','CD','19'],
    [',',',',','],
    ['2009','CD','2009'],
    ['-',':','-'],
    ['1:16am','CD','1:16am'],
    ['The','DT','The'],
    {
      tag:'ORGANIZATION',
      content:
      [
        ['Stew','NNP','stew'],
        ['Sorry','NNP','sorry']
      ]
    },
    [',',',',','],
    ['circumstances','NNS','circumst'],
    ['have','VBP','hav'],
    ['forced','VBN','forc'],
    ['me','PRP','me'],
    ['to','TO','to'],
    ['stay','VB','stay'],
    ['away','RP','away'],
    ['from','IN','from'],
    ['blogging','VBG','blog'],
    ['for','IN','for'],
    ['a','DT','a'],
    ['time','NN','tim'],
    ['.','.','.']
  ]
},
{
  tag:'S',
  content:
  [
    ['Here','RB','her'],
    ['is','VBZ','be'],
    ['a','DT','a'],
    ['quick','JJ','quick'],
    ['review','NN','review'],
    ['of','IN','of'],
    ['two','CD','two'],
    ['books','NNS','book'],
    ['I','PRP','I'],
    ['am','VBP','be'],
    ['reading','VBG','read'],
    ['.','.','.']
  ]
},
{
  tag:'S',
  content:
  [
    ['The','DT','The'],
    ['first','JJ','first'],
    ['is','VBZ','be'],
    {
      tag:'PERSON',
      content:
      [
        ['Beyond','NNP','beyond'],
        ['Uncertainty','NNP','uncertainty']
      ]
    },
    [':',':',':'],
    {
      tag:'PERSON',
      content:
      [
        ['Heisenberg','NNP','heisenberg']
      ]
    },
    [',',',',','],
    {
      tag:'PERSON',
      content:
      [
        ['Quantum','NNP','quant'],
        ['Physics','NNP','phys']
      ]
    },
    [',',',',','],
    ['and','CC','and'],
    ['The','DT','The'],
    ['Bomb','NNP','bomb'],
    ['by','IN','by'],
    {
      tag:'PERSON',
      content:
      [
        ['David','NNP','david'],
        ['C.','NNP','c.'],
        ['Cassidy','NNP','cassidy']
      ]
    },
    ['.','.','.']
  ]
},
{
  tag:'S',
  content:
  [
    ['Despite','IN','Despite'],
    ['the','DT','the'],
    ['long','JJ','long'],
    ['title','NN','titl'],
    [',',',',','],
    ['this','DT','this'],
    ['book','NN','book'],
    ['is','VBZ','be'],
    ['a','DT','a'],
    ['biography','NN','biograph'],
    ['of','IN','of'],
    ['the','DT','the'],
    ['famous','JJ','fam'],
    {
      tag:'PERSON',
      content:
      [
        ['German','NNP','germ'],
        ['Nobel','NNP','nobel']
      ]
    },
    ['scientist','NN','sci'],
    [',',',',','],
    {
      tag:'PERSON',
      content:
      [
        ['Werner','NNP','wern'],
        ['Heisenberg','NNP','heisenberg']
      ]
    },
    ['.','.','.']
  ]
},
{
  tag:'S',
  content:
  [
    ['The','DT','The'],
    ['book','NN','book'],
    ['is','VBZ','be'],
    ['not','RB','not'],
    ['only','RB','on'],
    ['a','DT','a'],
    ['great','JJ','gre'],
    ['biography','NN','biograph'],
    [',',',',','],
    ['the','DT','the'],
    ['science','NN','sci'],
    ['presented','VBD','pres'],
    ['(','CD','('],
    ['written','VBN','writ'],
    ['for','IN','for'],
    ['the','DT','the'],
    ['general','JJ','gen'],
    ['reader','NN','read'],
    [')',':',')'],
    ['affects','NNS','affect'],
    ['our','PRP$','our'],
    ['lives','NNS','lif'],
    ['in','IN','in'],
    ['many','JJ','many'],
    ['ways','NNS','way'],
    ['today','NN','today'],
    [',',',',','],
    ['and','CC','and'],
    ['there','EX','there'],
    ['are','VBP','be'],
    ['excellent','NN','excel'],
    ['insights','NNS','insight'],
    ['into','IN','into'],
    ['the','DT','the'],
    {
      tag:'GPE',
      content:
      [
        ['German','NNP','germ']
      ]
    },
    ['history','NN','hist'],
    ['that','WDT','that'],
    ['gave','VBD','giv'],
    ['rise','VBP','ris'],
    ['to','TO','to'],
    {
      tag:'PERSON',
      content:
      [
        ['Hitler','NNP','hitl']
      ]
    },
    ['and','CC','and'],
    {
      tag:'PERSON',
      content:
      [
        ['Nazism','NNP','naz']
      ]
    },
    [',',',',','],
    ['as','IN','as'],
    ['well','RB','wel'],
    ['as','IN','as'],
    [',',',',','],
    ['some','DT','some'],
    ['aspects','NNS','aspect'],
    ['of','IN','of'],
    ['the','DT','the'],
    ['rebuilding','NN','rebuild'],
    ['of','IN','of'],
    ['post','NN','post'],
    ['war','NN','war'],
    {
      tag:'GPE',
      content:
      [
        ['Germany','NNP','germany']
      ]
    },
    ['.','.','.']
  ]
},
{
  tag:'S',
  content:
  [
    ['These','DT','These'],
    ['historical','JJ','hist'],
    ['elements','NNS','el'],
    ['intertwine','VBP','intertwin'],
    ['and','CC','and'],
    ['are','VBP','be'],
    ['deftly','RB','deft'],
    ['weaved','VBN','weav'],
    ['together','RP','together'],
    ['by','IN','by'],
    {
      tag:'PERSON',
      content:
      [
        ['David','NNP','david'],
        ['C.','NNP','c.'],
        ['Cassidy','NNP','cassidy']
      ]
    },
    ['--',':','--'],
    ['no','DT','no'],
    ['kin','NN','kin'],
    ['to','TO','to'],
    ['the','DT','the'],
    ['one','CD','one'],
    ['who','WP','who'],
    ['sings','NNS','sing'],
    [',',',',','],
    ['for','IN','for'],
    ['those','DT','those'],
    ['old','JJ','old'],
    ['enough','RB','enough'],
    ['to','TO','to'],
    ['ask','VB','ask'],
    ['that','IN','that'],
    ['question','NN','quest'],
    ['.','.','.']
  ]
},
{
  tag:'S',
  content:
  [
    ['You','PRP','You'],
    ['should','MD','should'],
    ['easily','RB','easy'],
    ['find','VB','find'],
    ['this','DT','this'],
    ['book','NN','book'],
    ['at','IN','at'],
    ['your','PRP$','your'],
    ['favorite','JJ','favorit'],
    ['bookstore','NN','bookst'],
    ['or','CC','or'],
    ['your','PRP$','your'],
    ['favorite','JJ','favorit'],
    ['online','NN','onlin'],
    ['book','NN','book'],
    ['website','NN','websit'],
    ['.','.','.']
  ]
},
{
  tag:'S',
  content:
  [
    ['The','DT','The'],
    ['book','NN','book'],
    ['was','VBD','be'],
    ['published','VBN','publ'],
    ['in','IN','in'],
    ['2009','CD','2009'],
    ['by','IN','by'],
    {
      tag:'ORGANIZATION',
      content:
      [
        ['Bellevue','NNP','bellevu']
      ]
    },
    ['Literary','NNP','lit'],
    ['Press','NNP','press'],
    ['.','.','.']
  ]
},
{
  tag:'S',
  content:
  [
    ['Another','DT','Another'],
    ['book','NN','book'],
    ['I','PRP','I'],
    ['am','VBP','be'],
    ['delving','VBG','delv'],
    ['into','IN','into'],
    ['is','VBZ','be'],
    ['called','VBN','cal'],
    ['Prime','NNP','prim'],
    ['Obsession','NNP','obsess'],
    ['by','IN','by'],
    {
      tag:'PERSON',
      content:
      [
        ['Englishman','NNP','englishm']
      ]
    },
    ['and','CC','and'],
    {
      tag:'GPE',
      content:
      [
        ['American','NNP','am']
      ]
    },
    ['resident','NN','resid'],
    [',',',',','],
    {
      tag:'PERSON',
      content:
      [
        ['John','NNP','john'],
        ['Derbyshire','NNP','derbyshir']
      ]
    },
    ['.','.','.']
  ]
},
{
  tag:'S',
  content:
  [
    ['This','DT','This'],
    ['is','VBZ','be'],
    ['a','DT','a'],
    ['well-written','JJ','well-written'],
    ['book','NN','book'],
    ['about','IN','about'],
    ['the','DT','the'],
    ['famous','JJ','fam'],
    {
      tag:'PERSON',
      content:
      [
        ['Riemann','NNP','rieman'],
        ['Hypothesis','NNP','hypothes']
      ]
    },
    [',',',',','],
    ['proposed','VBD','propos'],
    ['by','IN','by'],
    {
      tag:'PERSON',
      content:
      [
        ['Bernhard','NNP','bernhard'],
        ['Riemann','NNP','rieman']
      ]
    },
    [',',',',','],
    ['a','DT','a'],
    ['brilliant','JJ','bril'],
    {
      tag:'GPE',
      content:
      [
        ['Mathematician','JJ','mathem']
      ]
    },
    ['.','.','.']
  ]
},
{
  tag:'S',
  content:
  [
    ['If','IN','If'],
    ['you','PRP','you'],
    ['are','VBP','be'],
    ['into','IN','into'],
    {
      tag:'GPE',
      content:
      [
        ['Mathematics','NNP','mathem']
      ]
    },
    [',',',',','],
    ['have','VBP','hav'],
    ['a','DT','a'],
    ['family','NN','famy'],
    ['member','NN','memb'],
    ['or','CC','or'],
    ['relative','JJ','rel'],
    ['who','WP','who'],
    ['is','VBZ','be'],
    ['into','IN','into'],
    {
      tag:'GPE',
      content:
      [
        ['Mathematics','NNP','mathem']
      ]
    },
    [',',',',','],
    ['this','DT','this'],
    ['is','VBZ','be'],
    ['a','DT','a'],
    ['great','JJ','gre'],
    ['purchase','NN','purchas'],
    ['for','IN','for'],
    ['yourself','PRP','yourself'],
    ['or','CC','or'],
    ['as','IN','as'],
    ['a','DT','a'],
    ['gift','NN','gift'],
    ['.','.','.']
  ]
},
{
  tag:'S',
  content:
  [
    ['I','PRP','I'],
    ['am','VBP','be'],
    ['no','DT','no'],
    ['math','NN','math'],
    ['wizard','NN','wizard'],
    ['and','CC','and'],
    ['I','PRP','I'],
    ['am','VBP','be'],
    ['reading','VBG','read'],
    ['the','DT','the'],
    ['easy','JJ','easy'],
    ['chapters','NNS','chapt'],
    ['(',':','('],
    ['history','NN','hist'],
    ['chapters','NNS','chapt'],
    [')',':',')'],
    ['first','JJ','first'],
    [',',',',','],
    ['but','CC','but'],
    ['this','DT','this'],
    ['book','NN','book'],
    ['appears','VBZ','appear'],
    ['to','TO','to'],
    ['be','VB','be'],
    ['understandable','JJ','understand'],
    ['for','IN','for'],
    ['anyone','NN','anyon'],
    ['who','WP','who'],
    ['has','VBZ','hav'],
    ['a','DT','a'],
    ['solid','JJ','solid'],
    ['high','NN','high'],
    ['school','NN','school'],
    ['Mathematics','NNP','mathem'],
    ['background','NN','background'],
    ['.','.','.']
  ]
},
{
  tag:'S',
  content:
  [
    ['I','PRP','I'],
    ['do','VBP','do'],
    ['squirm','JJ','squirm'],
    ['when','WRB','when'],
    {
      tag:'PERSON',
      content:
      [
        ['John','NNP','john'],
        ['Derbyshire','NNP','derbyshir']
      ]
    },
    ['speaks','VBZ','speak'],
    ['of','IN','of'],
    ['a','DT','a'],
    ['touch','JJ','touch'],
    ['of','IN','of'],
    {
      tag:'GPE',
      content:
      [
        ['Calculus','NNP','calcul']
      ]
    },
    ['being','VBG','be'],
    ['the','DT','the'],
    ['hardest','JJS','hard'],
    ['mathematics','NNS','mathem'],
    [',',',',','],
    ['and','CC','and'],
    ['is','VBZ','be'],
    ['not','RB','not'],
    ['excludable','JJ','exclud'],
    [',',',',','],
    ['once','RB','ont'],
    ['you','PRP','you'],
    ['are','VBP','be'],
    ['deep','JJ','deep'],
    ['into','IN','into'],
    ['the','DT','the'],
    ['book','NN','book'],
    ['.','.','.']
  ]
},
{
  tag:'S',
  content:
  [
    ['Prime','NNP','prim'],
    ['Obsession','NNP','obsess'],
    ['was','VBD','be'],
    ['originally','RB','origin'],
    ['published','VBN','publ'],
    ['in','IN','in'],
    ['2003','CD','2003'],
    ['by','IN','by'],
    {
      tag:'PERSON',
      content:
      [
        ['Joseph','NNP','joseph'],
        ['Henry','NNP','henry']
      ]
    },
    ['Press','NNP','press'],
    ['.','.','.']
  ]
},
{
  tag:'S',
  content:
  [
    ['Your','PRP$','Your'],
    ['favorite','JJ','favorit'],
    ['bookstore','NN','bookst'],
    ['should','MD','should'],
    ['be','VB','be'],
    ['able','JJ','abl'],
    ['to','TO','to'],
    ['order','NN','ord'],
    ['this','DT','this'],
    ['book','NN','book'],
    [',',',',','],
    ['if','IN','if'],
    ['they','PRP','they'],
    ['do','VBP','do'],
    ['not','RB','not'],
    ['have','VB','hav'],
    ['it','PRP','it'],
    ['in','IN','in'],
    ['stock','NN','stock'],
    ['.','.','.']
  ]
},
{
  tag:'S',
  content:
  [
    ['My','PRP$','My'],
    ['copy','NN','cop'],
    ['is','VBZ','be'],
    ['the','DT','the'],
    ['9th','JJ','9th'],
    ['.','.','.']
  ]
},
{
  tag:'S',
  content:
  [
    ['printing','VBG','print'],
    ['of','IN','of'],
    ['the','DT','the'],
    ['book','NN','book'],
    [',',',',','],
    ['which','WDT','which'],
    ['was','VBD','be'],
    ['in','IN','in'],
    ['2006','CD','2006'],
    ['.','.','.']
  ]
},
{
  tag:'S',
  content:
  [
    ['Finding','VBG','find'],
    ['the','DT','the'],
    ['book','NN','book'],
    ['online','NN','onlin'],
    ['should','MD','should'],
    ['be','VB','be'],
    ['easy','JJ','easy'],
    [',',',',','],
    ['as','IN','as'],
    ['well','RB','wel'],
    ['.','.','.']
  ]
},
{
  tag:'S',
  content:
  [
    [':',':',':'],
    ['-',':','-'],
    [')',':',')'],
    ['Maybe','NNP','mayb'],
    ['I','PRP','I'],
    ['am','VBP','be'],
    ['warping','VBG','warp'],
    ['my','PRP$','my'],
    ['brain','NN','brain'],
    ['by','IN','by'],
    ['reading','NN','read'],
    ['such','JJ','such'],
    ['books','NNS','book'],
    ['.','.','.']
  ]
},
{
  tag:'S',
  content:
  [
    ['I','PRP','I'],
    ['hope','VBP','hop'],
    ['to','TO','to'],
    ['be','VB','be'],
    ['back','RB','back'],
    ['to','TO','to'],
    ['blogging','VBG','blog'],
    ['regularly','RB','regul'],
    ['soon','RB','soon'],
    ['.','.','.']
  ]
},
{
  tag:'S',
  content:
  [
    ['I','PRP','I'],
    ['may','MD','may'],
    ['go','VB','go'],
    ['into','IN','into'],
    ['more','JJR','mor'],
    ['depth','JJ','dep'],
    ['about','IN','about'],
    ['these','DT','these'],
    ['two','CD','two'],
    ['books','NNS','book'],
    ['in','IN','in'],
    ['a','DT','a'],
    ['future','NN','fut'],
    ['blogpost','NN','blogpost'],
    ['.','.','.']
  ]
},
{
  tag:'S',
  content:
  [
    ['Right','RB','right'],
    ['now','RB','now'],
    [',',',',','],
    ['I','PRP','I'],
    ['am','VBP','be'],
    ['letting','VBG','let'],
    ['you','PRP','you'],
    ['know','VBP','know'],
    ['I','PRP','I'],
    ['am','VBP','be'],
    ['still','RB','stil'],
    ['around','IN','around'],
    ['and','CC','and'],
    ['I','PRP','I'],
    ['expect','VBP','expect'],
    ['to','TO','to'],
    ['be','VB','be'],
    ['posting','VBG','post'],
    ['more','JJR','mor'],
    ['soon','RB','soon'],
    ['.','.','.']
  ]
},
{
  tag:'S',
  content:
  [
    ['Thanks','NNS','thank'],
    ['for','IN','for'],
    ['reading','NN','read'],
    ['and','CC','and'],
    ['feel','NN','feel'],
    ['free','JJ','fre'],
    ['to','TO','to'],
    ['comment','VB','com'],
    ['.','.','.']
  ]
},
{
  tag:'S',
  content:
  [
    ['As','IN','As'],
    ['the','DT','the'],
    {
      tag:'ORGANIZATION',
      content:
      [
        ['Beatles','NNP','beatl']
      ]
    },
    ['might','MD','might'],
    ['have','VB','hav'],
    ['said','VBN','say'],
    [',',',',','],
    ['``','``','``'],
    ['All','DT','All'],
    ['I','PRP','I'],
    ['need','VBP','nee'],
    ['is','VBZ','be'],
    ['readers','NNS','read'],
    [';',':',';'],
    ['readers','NNS','read'],
    ['is','VBZ','be'],
    ['all','DT','all'],
    ['I','PRP','I'],
    ['need','VBP','nee'],
    ['.','.','.']
  ]
},
{
  tag:'S',
  content:
  [
    ['``','``','``'],
    ['«','``','«'],
    {
      tag:'PERSON',
      content:
      [
        ['Peter','NNP','pet'],
        ['Noone','NNP','noon']
      ]
    },
    [''s','POS',''s'],
    ['Tremblers','NNP','trembl'],
    ['4','CD','4'],
    ['of','IN','of'],
    ['51','CD','51'],
    ['Jacksonville.com','JJ','jacksonville.com'],
    ['Down','NNP','down'],
    [':',':',':'],
    ['It','PRP','It'],
    [''s','VBZ',''s'],
    ['My','NNP','my'],
    ['Fault','NNP','fault'],
    ['»','NNP','»'],
    ['More','NNP','mor'],
    ['from','IN','from'],
    ['this','DT','this'],
    ['blog','NN','blog'],
    ['ANOTHER','DT','ANOTHER'],
    {
      tag:'ORGANIZATION',
      content:
      [
        ['JAGUAR','NNP','jagu']
      ]
    },
    ['SUNDAY','NNP','sunday'],
    ['HEAR','NNP','hear'],
    ['3','CD','3'],
    ['NIGHTS','NNS','night'],
    ['OF','IN','OF'],
    {
      tag:'ORGANIZATION',
      content:
      [
        ['HALLOWEEN','NNP','halloween']
      ]
    },
    ['MUSIC','NNP','mus'],
    ['STICK','NNP','stick'],
    ['A','NNP','a'],
    ['FORK','NNP','fork'],
    ['IN','NNP','in'],
    [''EM','NNP',''em'],
    ['AN','NNP','an'],
    ['OPEN','NNP','op'],
    ['POST','NNP','post'],
    ['TO','NNP','to'],
    {
      tag:'ORGANIZATION',
      content:
      [
        ['SHAHID','NNP','shahid']
      ]
    },
    ['KAHN','NNP','kahn'],
    ['ROCKANDROLLHEAVEN.NET','JJ','rockandrollheaven.net'],
    [':',':',':'],
    ['Try','NNP','try'],
    ['It','PRP','It'],
    [';',':',';'],
    ['You','PRP','You'],
    [''ll','MD',''ll'],
    ['Like','VB','lik'],
    ['It','PRP','It'],
    ['Most','JJS','most'],
    ['Popular','JJ','popul'],
    ['Blogs','NNS','blog'],
    {
      tag:'PERSON',
      content:
      [
        ['Folio','NNP','folio'],
        ['Weekly','NNP','week']
      ]
    },
    ['names','VBZ','nam'],
    ['Best','NNP','best'],
    ['of','IN','of'],
    {
      tag:'ORGANIZATION',
      content:
      [
        ['Jax','NNP','jax']
      ]
    },
    ['restaurant','NN','resta'],
    ['winners','NNS','win'],
    ['Today','NNP','today'],
    ['In','NNP','in'],
    ['Florida','NNP','florid'],
    ['History','NNP','hist'],
    ['Oct.','NNP','oct.'],
    ['16-17th','CD','16-17th'],
    ['The','NNP','the'],
    {
      tag:'PERSON',
      content:
      [
        ['Lady','NNP','lady'],
        ['Bikers','NNP','bik'],
        ['United','NNP','unit'],
        ['Presents','NNP','pres']
      ]
    },
    ['-',':','-'],
    {
      tag:'GPE',
      content:
      [
        ['Bikers','NNP','bik']
      ]
    },
    ['for','IN','for'],
    {
      tag:'ORGANIZATION',
      content:
      [
        ['Boobies','NNPS','booby'],
        ['Caring','NNP','car'],
        ['Chefs','NNP','chef']
      ]
    },
    ['food','NN','food'],
    [',',',',','],
    ['wine','NN','win'],
    ['event','NN','ev'],
    ['set','NN','set'],
    ['for','IN','for'],
    ['Oct.','NNP','oct.'],
    ['27','CD','27'],
    ['Jaguars','NNS','jagu'],
    ['locker','NN','lock'],
    ['room','NN','room'],
    ['update','NN','upd'],
    ['Related','NNP','rel'],
    ['terms','NNS','term'],
    [':',':',':'],
    ['biography','NN','biograph'],
    {
      tag:'PERSON',
      content:
      [
        ['David','NNP','david'],
        ['Cassidy','NNP','cassidy'],
        ['Heisenberg','NNP','heisenberg'],
        ['Mathematics','NNP','mathem'],
        ['Quantum','NNP','quant'],
        ['Physics','NNP','phys']
      ]
    },
    ['reading','NN','read'],
    {
      tag:'PERSON',
      content:
      [
        ['Riemann','NNP','rieman'],
        ['Science','NNP','sci'],
        ['Flag','NNP','flag']
      ]
    },
    ['as','IN','as'],
    ['offensive','JJ','offend'],
    ['Login','NNP','login'],
    ['or','CC','or'],
    ['register','JJR','reg'],
    ['to','TO','to'],
    ['post','VB','post'],
    ['comments','NNS','com'],
    {
      tag:'PERSON',
      content:
      [
        ['Flag','NNP','flag']
      ]
    },
    ['for','IN','for'],
    ['review','NN','review'],
    ['The','DT','The'],
    ['Stew','NNP','stew'],
    ['a','DT','a'],
    [':',':',':'],
    ['link','NN','link'],
    ['{',':','{'],
    ['border:0','-NONE-','border:0'],
    [';',':',';'],
    ['}',':','}'],
    ['/*','-NONE-','/*'],
    ['unvisited','VBN','unvisit'],
    ['link','NN','link'],
    ['*/',':','*/'],
    ['a','DT','a'],
    [':',':',':'],
    ['visited','VBN','visit'],
    ['{','-NONE-','{'],
    ['border:0','-NONE-','border:0'],
    [';',':',';'],
    ['}',':','}'],
    ['/*','-NONE-','/*'],
    ['visited','VBN','visit'],
    ['link','NN','link'],
    ['*/',':','*/'],
    ['a','DT','a'],
    [':',':',':'],
    ['hover','NN','hov'],
    ['{',':','{'],
    ['border:0','-NONE-','border:0'],
    [';',':',';'],
    ['}',':','}'],
    ['/*','-NONE-','/*'],
    ['mouse','VBP','mous'],
    ['over','IN','over'],
    ['link','NN','link'],
    ['*/',':','*/'],
    ['a','DT','a'],
    [':',':',':'],
    ['active','JJ','act'],
    ['{','NN','{'],
    ['border:0','-NONE-','border:0'],
    [';',':',';'],
    ['}',':','}'],
    ['#','#','#'],
    {
      tag:'ORGANIZATION',
      content:
      [
        ['containerDeal','NNP','containerd']
      ]
    },
    ['{','NNP','{'],
    ['margin','NN','margin'],
    [':',':',':'],
    ['10px','CD','10px'],
    ['0px','CD','0px'],
    ['5px','CD','5px'],
    ['3px','CD','3px'],
    [';',':',';'],
    ['width:300px','JJ','width:300px'],
    [';',':',';'],
    ['height','NN','height'],
    [':',':',':'],
    ['200px','CD','200px'],
    [';',':',';'],
    ['background-image','JJ','background-image'],
    [':',':',':'],
    ['url','NN','url'],
    ['(',':','('],
    ['http','NN','http'],
    [':',':',':'],
    ['//jacksonville.com/ads/dd2013logo/png3.png','JJ','//jacksonville.com/ads/dd2013logo/png3.png'],
    [')','NN',')'],
    [';',':',';'],
    ['background-position','NN','background-position'],
    [':',':',':'],
    ['0px','CD','0px'],
    ['-148px','JJ','-148px'],
    [';',':',';'],
    ['}',':','}'],
    ['#','#','#'],
    ['containerDeal','NNP','containerd'],
    ['a','DT','a'],
    [':',':',':'],
    ['link','NN','link'],
    ['{',':','{'],
    ['color','NN','col'],
    [':',':',':'],
    ['#','#','#'],
    ['0F4B6A','CD','0F4B6A'],
    [';',':',';'],
    ['text-decoration','NN','text-decoration'],
    [':',':',':'],
    ['none','NN','non'],
    [';',':',';'],
    ['}',':','}'],
    ['/*','-NONE-','/*'],
    ['unvisited','VBN','unvisit'],
    ['link','NN','link'],
    ['*/',':','*/'],
    ['#','#','#'],
    ['containerDeal','NNP','containerd'],
    ['a','DT','a'],
    [':',':',':'],
    ['visited','VBN','visit'],
    ['{','-NONE-','{'],
    ['color','NN','col'],
    [':',':',':'],
    ['#','#','#'],
    ['0F4B6A','CD','0F4B6A'],
    [';',':',';'],
    ['}',':','}'],
    ['/*','-NONE-','/*'],
    ['visited','VBN','visit'],
    ['link','NN','link'],
    ['*/',':','*/'],
    ['#','#','#'],
    ['containerDeal','NNP','containerd'],
    ['a','DT','a'],
    [':',':',':'],
    ['hover','NN','hov'],
    ['{',':','{'],
    ['color','NN','col'],
    [':',':',':'],
    ['#','#','#'],
    ['0F4B6A','CD','0F4B6A'],
    [';',':',';'],
    ['}',':','}'],
    ['/*','-NONE-','/*'],
    ['mouse','VBP','mous'],
    ['over','IN','over'],
    ['link','NN','link'],
    ['*/',':','*/'],
    ['#','#','#'],
    ['containerDeal','NNP','containerd'],
    ['a','DT','a'],
    [':',':',':'],
    ['active','JJ','act'],
    ['{','NN','{'],
    ['color','NN','col'],
    [':',':',':'],
    ['#','#','#'],
    ['0F4B6A','CD','0F4B6A'],
    [';',':',';'],
    ['}',':','}'],
    ['/*','-NONE-','/*'],
    ['selected','VBN','select'],
    ['link','NN','link'],
    ['*/',':','*/'],
    ['.sidedealtitle','JJ','.sidedealtitle'],
    ['{','NN','{'],
    ['font-family','RB','font-family'],
    [':',':',':'],
    ['Arial','JJ','ar'],
    [',',',',','],
    {
      tag:'PERSON',
      content:
      [
        ['Helvetica','NNP','helvetic']
      ]
    },
    [',',',',','],
    {
      tag:'GPE',
      content:
      [
        ['sans-serif','JJ','sans-serif']
      ]
    },
    [';',':',';'],
    ['font-weight','JJ','font-weight'],
    [':',':',':'],
    ['bold','JJ','bold'],
    [';',':',';'],
    ['font-size','JJ','font-size'],
    [':',':',':'],
    ['12px','CD','12px'],
    [';',':',';'],
    ['color','NN','col'],
    [':',':',':'],
    ['#','#','#'],
    ['0F4B6A','CD','0F4B6A'],
    [';',':',';'],
    ['display','NN','display'],
    [':',':',':'],
    ['inline-block','JJ','inline-block'],
    [';',':',';'],
    ['width','NN','wid'],
    [':',':',':'],
    ['275px','CD','275px'],
    [';',':',';'],
    ['text-align','JJ','text-align'],
    [':',':',':'],
    ['center','NN','cent'],
    [';',':',';'],
    ['padding','VBG','pad'],
    [':',':',':'],
    ['10px','CD','10px'],
    ['17px','CD','17px'],
    ['0px','CD','0px'],
    ['10px','CD','10px'],
    [';',':',';'],
    ['}',':','}'],
    ['.logoimage','NN','.logoimage'],
    ['{',':','{'],
    ['height','NN','height'],
    [':',':',':'],
    ['123px','CD','123px'],
    [';',':',';'],
    ['width','NN','wid'],
    [':',':',':'],
    ['135px','CD','135px'],
    [';',':',';'],
    ['float','JJ','flo'],
    [':',':',':'],
    ['left','VBN','leav'],
    [';',':',';'],
    ['padding','VBG','pad'],
    [':',':',':'],
    ['4px','CD','4px'],
    ['0px','CD','0px'],
    ['0px','CD','0px'],
    ['4px','CD','4px'],
    [';',':',';'],
    ['}',':','}'],
    ['.logoimage','NN','.logoimage'],
    ['img','NN','img'],
    ['{',':','{'],
    ['height','NN','height'],
    [':',':',':'],
    ['auto','NN','auto'],
    [';',':',';'],
    ['width','NN','wid'],
    [':',':',':'],
    ['159px','CD','159px'],
    [';',':',';'],
    ['}',':','}'],
    ['.sidedealimage','NN','.sidedealimage'],
    ['{',':','{'],
    ['height','NN','height'],
    [':',':',':'],
    ['123px','CD','123px'],
    [';',':',';'],
    ['width','NN','wid'],
    [':',':',':'],
    ['135px','CD','135px'],
    [';',':',';'],
    ['float','JJ','flo'],
    [':',':',':'],
    ['right','JJ','right'],
    [';',':',';'],
    ['overflow','JJ','overflow'],
    [':',':',':'],
    ['hidden','JJ','hid'],
    [';',':',';'],
    ['padding','VBG','pad'],
    [':',':',':'],
    ['4px','CD','4px'],
    ['0px','CD','0px'],
    ['0px','CD','0px'],
    ['10px','CD','10px'],
    [';',':',';'],
    ['margin-right','JJ','margin-right'],
    [':',':',':'],
    ['6px','CD','6px'],
    [';',':',';'],
    ['}',':','}'],
    ['.sidedealimage','NN','.sidedealimage'],
    ['img','NN','img'],
    ['{',':','{'],
    ['width:100','-NONE-','width:100'],
    ['%','NN','%'],
    [';',':',';'],
    ['height:100','-NONE-','height:100'],
    ['%','NN','%'],
    [';',':',';'],
    ['}','CD','}'],
    ['Most','NNP','most'],
    ['Viewed','NNP','view'],
    ['StoriesMost','NNP','storiesmost'],
    ['Commented','NNP','com'],
    ['2','CD','2'],
    ['arrests','NNS','arrest'],
    ['made','VBN','mak'],
    ['in','IN','in'],
    ['death','NN','dea'],
    ['of','IN','of'],
    ['bullied','JJ','bul'],
    {
      tag:'GPE',
      content:
      [
        ['Florida','NNP','florid']
      ]
    },
    ['girl','NN','girl'],
    ['(',':','('],
    ['19','CD','19'],
    ['comments','NNS','com'],
    [')',':',')'],
    ['Mix','NNP','mix'],
    ['105.3','CD','105.3'],
    ['FM','NNP','fm'],
    ['no','DT','no'],
    ['longer','NN','long'],
    ['broadcasting','VBG','broadcast'],
    ['hits','NNS','hit'],
    [',',',',','],
    ['few','JJ','few'],
    ['details','NNS','detail'],
    ['on','IN','on'],
    {
      tag:'GPE',
      content:
      [
        ['Jacksonville','NNP','jacksonvil']
      ]
    },
    ['radio','NN','radio'],
    ['station','NN','stat'],
    [''s','POS',''s'],
    ['change','NN','chang'],
    ['(',':','('],
    ['10','CD','10'],
    ['comments','NNS','com'],
    [')',':',')'],
    ['Law','NN','law'],
    ['&','CC','&'],
    {
      tag:'PERSON',
      content:
      [
        ['Disorder','NNP','disord']
      ]
    },
    [':',':',':'],
    ['Woman','NNP','wom'],
    ['gets','NNS','get'],
    ['45','CD','45'],
    ['years','NNS','year'],
    ['for','IN','for'],
    ['killing','VBG','kil'],
    ['friend','NN','friend'],
    ['(',':','('],
    ['1','CD','1'],
    ['comments','NNS','com'],
    [')',':',')'],
    ['Clay','NNP','clay'],
    ['superintendent','NN','superintend'],
    [',',',',','],
    {
      tag:'PERSON',
      content:
      [
        ['School','NNP','school'],
        ['Board','NNP','board']
      ]
    },
    ['members','NNS','memb'],
    ['clash','VBP','clash'],
    ['over','IN','over'],
    {
      tag:'GPE',
      content:
      [
        ['American','NNP','am']
      ]
    },
    ['Exceptionalism','NNP','exceiv'],
    ['conference','NN','conf'],
    ['(',':','('],
    ['14','CD','14'],
    ['comments','NNS','com'],
    [')',':',')'],
    ['Jurors','NNS','jur'],
    ['see','VBP','see'],
    ['grisly','RB','gris'],
    ['photos','NNS','photo'],
    ['of','IN','of'],
    ['8','CD','8'],
    ['beating','VBG','beat'],
    ['deaths','NNS','dea'],
    ['as','IN','as'],
    {
      tag:'PERSON',
      content:
      [
        ['Guy','NNP','guy'],
        ['Heinze','NNP','heinz']
      ]
    },
    ['Jr.','NNP','jr.'],
    [''s','POS',''s'],
    ['death','NN','dea'],
    ['penalty','NN','penal'],
    ['murder','NN','murd'],
    ['trial','NN','tri'],
    ['opens','VBZ','op'],
    ['(',':','('],
    ['7','CD','7'],
    ['comments','NNS','com'],
    [')',':',')'],
    {
      tag:'ORGANIZATION',
      content:
      [
        ['House','NNP','hous']
      ]
    },
    ['GOP','NNP','gop'],
    ['unveils','VBZ','unveil'],
    ['bill','NN','bil'],
    ['to','TO','to'],
    ['counter','VB','count'],
    {
      tag:'ORGANIZATION',
      content:
      [
        ['Senate','NNP','sen']
      ]
    },
    ['debt','NN','debt'],
    ['plan','NN','plan'],
    ['(',':','('],
    ['20','CD','20'],
    ['comments','NNS','com'],
    [')',':',')'],
    ['Senators','NNS','sen'],
    ['closing','VBG','clos'],
    ['in','IN','in'],
    ['on','IN','on'],
    ['deal','NN','deal'],
    ['to','TO','to'],
    ['reopen','VB','reop'],
    ['government','NN','govern'],
    ['(',':','('],
    ['19','CD','19'],
    ['comments','NNS','com'],
    [')',':',')'],
    ['2','CD','2'],
    ['arrests','NNS','arrest'],
    ['made','VBN','mak'],
    ['in','IN','in'],
    ['death','NN','dea'],
    ['of','IN','of'],
    ['bullied','JJ','bul'],
    {
      tag:'GPE',
      content:
      [
        ['Florida','NNP','florid']
      ]
    },
    ['girl','NN','girl'],
    ['(',':','('],
    ['19','CD','19'],
    ['comments','NNS','com'],
    [')',':',')'],
    ['Senator','NNP','sen'],
    [':',':',':'],
    ['Deal','NNP','deal'],
    ['to','TO','to'],
    ['avoid','VB','avoid'],
    ['default','NN','default'],
    ['and','CC','and'],
    ['open','JJ','op'],
    ['government','NN','govern'],
    ['(','NN','('],
    ['15','CD','15'],
    ['comments','NNS','com'],
    [')',':',')']
  ]
}]