[
{
  tag:'S',
  content:
  [
    {
      tag:'GPE',
      content:
      [
        ['Skip','NNP','skip']
      ]
    },
    ['to','TO','to'],
    [':',':',':'],
    {
      tag:'PERSON',
      content:
      [
        ['Main','NNP','main'],
        ['Content','NNP','cont'],
        ['Site','NNP','sit']
      ]
    },
    ['Navigation','NNP','navig'],
    ['Site','NNP','sit'],
    ['Footer','NNP','foot'],
    ['Site','NNP','sit'],
    ['Search','NNP','search'],
    ['Site','NNP','sit'],
    ['Map','NNP','map'],
    {
      tag:'PERSON',
      content:
      [
        ['Network','NNP','network'],
        ['Navigation','NNP','navig']
      ]
    },
    ['(','NNP','('],
    ['other','JJ','oth'],
    ['sites','NNS','sit'],
    [')',':',')'],
    {
      tag:'PERSON',
      content:
      [
        ['Login','NNP','login'],
        ['Sign','NNP','sign'],
        ['Up','NNP','up'],
        ['Login','NNP','login']
      ]
    },
    ['using','VBG','us'],
    ['your','PRP$','your'],
    ['social','JJ','soc'],
    ['network','NN','network'],
    {
      tag:'PERSON',
      content:
      [
        ['Social','NNP','soc'],
        ['Login','NNP','login'],
        ['Social','NNP','soc'],
        ['Network','NNP','network']
      ]
    },
    ['*','-NONE-','*'],
    ['Login','NNP','login'],
    ['with','IN','with'],
    {
      tag:'PERSON',
      content:
      [
        ['Facebook','NNP','facebook'],
        ['Login','NNP','login']
      ]
    },
    ['with','IN','with'],
    {
      tag:'PERSON',
      content:
      [
        ['Twitter','NNP','twit'],
        ['Login','NNP','login']
      ]
    },
    ['with','IN','with'],
    {
      tag:'ORGANIZATION',
      content:
      [
        ['LinkedIn','NNP','linkedin'],
        ['Login','NNP','login']
      ]
    },
    ['with','IN','with'],
    {
      tag:'PERSON',
      content:
      [
        ['Google','NNP','googl'],
        ['Login','NNP','login'],
        ['Login','NNP','login']
      ]
    },
    ['using','VBG','us'],
    ['your','PRP$','your'],
    {
      tag:'ORGANIZATION',
      content:
      [
        ['Newspass','NNP','newspass']
      ]
    },
    ['account','NN','account'],
    {
      tag:'PERSON',
      content:
      [
        ['User','NNP','us'],
        ['Login','NNP','login'],
        ['Username','NNP','usernam']
      ]
    },
    ['*','-NONE-','*'],
    ['Password','NNP','password'],
    ['*','-NONE-','*'],
    ['Remember','VB','rememb'],
    ['me','PRP','me'],
    {
      tag:'PERSON',
      content:
      [
        ['Login','NNP','login'],
        ['Forgot','NNP','forgot']
      ]
    },
    ['your','PRP$','your'],
    ['password','NN','password'],
    ['?','.','?']
  ]
},
{
  tag:'S',
  content:
  [
    {
      tag:'GPE',
      content:
      [
        ['Subscribe','NNP','subscrib']
      ]
    },
    ['now','RB','now'],
    ['for','IN','for'],
    ['full','JJ','ful'],
    ['access','NN','access'],
    {
      tag:'PERSON',
      content:
      [
        ['Subscribe','NNP','subscrib']
      ]
    },
    ['News.com.au','NNP','news.com.au'],
    {
      tag:'PERSON',
      content:
      [
        ['Foxsports','NNP','foxsport'],
        ['CareerOne','NNP','careeron']
      ]
    },
    ['CarsGuide','NNP','carsguid'],
    ['Realestate','NNP','realest'],
    {
      tag:'PERSON',
      content:
      [
        ['Network','NNP','network']
      ]
    },
    ['thetelegraph.com.au','NNP','thetelegraph.com.au'],
    ['News','NNP','new'],
    ['Sport','NNP','sport'],
    ['Entertainment','NNP','entertain'],
    ['Business','NNP','busy'],
    ['Lifestyle','NNP','lifestyl'],
    ['Video','NNP','video'],
    ['Classifieds','NNP','class'],
    ['Sydney','NNP','sydney'],
    ['Confidential','NNP','confid'],
    ['Celebrity','NNP','celebr'],
    ['Photos','NNP','photo'],
    ['Movies','NNPS','movy'],
    {
      tag:'ORGANIZATION',
      content:
      [
        ['Television','NNP','televid'],
        ['Arts','NNP','art'],
        ['Music','NNP','mus'],
        ['Books','NNP','book'],
        ['Competitions','NNP','competit']
      ]
    },
    ['Last','NNP','last'],
    ['Updated','NNP','upd'],
    [':',':',':'],
    ['October','NNP','octob'],
    ['17','CD','17'],
    [',',',',','],
    ['2013','CD','2013'],
    ['Weather','NNP','weath'],
    [':',':',':'],
    ['Sydney','NNP','sydney'],
    ['18°C','CD','18°C'],
    ['-',':','-'],
    ['34°C','CD','34°C'],
    ['.','.','.']
  ]
},
{
  tag:'S',
  content:
  [
    ['Becoming','VBG','becom'],
    ['windy','NN','windy'],
    ['.','.','.']
  ]
},
{
  tag:'S',
  content:
  [
    ['Partly','RB','part'],
    ['cloudy','NN','cloudy'],
    ['.','.','.']
  ]
},
{
  tag:'S',
  content:
  [
    ['Entertainment','NNP','entertain'],
    ['Entertainment','NNP','entertain'],
    {
      tag:'PERSON',
      content:
      [
        ['Roxette','NNP','roxet']
      ]
    },
    [''s','POS',''s'],
    {
      tag:'PERSON',
      content:
      [
        ['Marie','NNP','mary'],
        ['Fredriksson','NNP','fredriksson']
      ]
    },
    ['and','CC','and'],
    {
      tag:'PERSON',
      content:
      [
        ['Per','NNP','per'],
        ['Gessle','NNP','gessl']
      ]
    },
    ['deliver','NN','del'],
    ['to','TO','to'],
    ['the','DT','the'],
    ['adoration','NN','ad'],
    ['of','IN','of'],
    ['a','DT','a'],
    ['sold-out','JJ','sold-out'],
    {
      tag:'ORGANIZATION',
      content:
      [
        ['Sydney','NNP','sydney'],
        ['Entertainment','NNP','entertain'],
        ['Centre','NNP','cent']
      ]
    },
    ['crowd','NN','crowd'],
    ['by','IN','by'],
    [':',':',':'],
    {
      tag:'PERSON',
      content:
      [
        ['Kathy','NNP','kathy'],
        ['McCabe','NNP','mccabe']
      ]
    },
    [',',',',','],
    {
      tag:'PERSON',
      content:
      [
        ['Music','NNP','mus'],
        ['Editor','NNP','edit']
      ]
    },
    ['From','NNP','from'],
    [':',':',':'],
    ['The','DT','The'],
    {
      tag:'ORGANIZATION',
      content:
      [
        ['Daily','NNP','dai'],
        ['Telegraph','NNP','telegraph']
      ]
    },
    ['February','NNP','febru'],
    ['17','CD','17'],
    [',',',',','],
    ['2012','CD','2012'],
    ['12:00AM','CD','12:00AM'],
    ['Increase','NNP','increas'],
    ['Text','NNP','text'],
    ['Size','NNP','siz'],
    ['Decrease','NNP','decreas'],
    ['Text','NNP','text'],
    ['Size','NNP','siz'],
    ['Print','NNP','print'],
    ['Email','NNP','email'],
    {
      tag:'PERSON',
      content:
      [
        ['Share','NNP','shar'],
        ['Add','NNP','ad']
      ]
    },
    ['to','TO','to'],
    {
      tag:'ORGANIZATION',
      content:
      [
        ['Digg','NNP','dig'],
        ['Add','NNP','ad']
      ]
    },
    ['to','TO','to'],
    ['del.icio.us','JJ','del.icio.us'],
    ['Add','NNP','ad'],
    ['to','TO','to'],
    {
      tag:'PERSON',
      content:
      [
        ['Facebook','NNP','facebook'],
        ['Add','NNP','ad']
      ]
    },
    ['to','TO','to'],
    {
      tag:'PERSON',
      content:
      [
        ['Kwoff','NNP','kwoff'],
        ['Add','NNP','ad']
      ]
    },
    ['to','TO','to'],
    {
      tag:'PERSON',
      content:
      [
        ['Myspace','NNP','myspac'],
        ['Add','NNP','ad']
      ]
    },
    ['to','TO','to'],
    {
      tag:'GPE',
      content:
      [
        ['Newsvine','NNP','newsvin']
      ]
    },
    ['What','NNP','what'],
    ['are','VBP','be'],
    ['these','DT','these'],
    ['?','.','?']
  ]
},
{
  tag:'S',
  content:
  [
    ['First','NNP','first'],
    ['tour','PRP$','tour'],
    ['since','IN','since'],
    ['1995','CD','1995'],
    ['...',':','...'],
    {
      tag:'PERSON',
      content:
      [
        ['Roxette','NNP','roxet']
      ]
    },
    [''s','POS',''s'],
    {
      tag:'PERSON',
      content:
      [
        ['Marie','NNP','mary'],
        ['Fredriksson','NNP','fredriksson']
      ]
    },
    ['is','VBZ','be'],
    ['delighted','VBN','delight'],
    ['with','IN','with'],
    ['the','DT','the'],
    ['adoration','NN','ad'],
    ['the','DT','the'],
    ['band','NN','band'],
    ['received','VBD','receiv'],
    ['at','IN','at'],
    {
      tag:'ORGANIZATION',
      content:
      [
        ['Sydney','NNP','sydney'],
        ['Entertainment','NNP','entertain'],
        ['Centre','NNP','cent']
      ]
    },
    ['.','.','.']
  ]
},
{
  tag:'S',
  content:
  [
    {
      tag:'GPE',
      content:
      [
        ['Picture','NN','pict']
      ]
    },
    [':',':',':'],
    {
      tag:'PERSON',
      content:
      [
        ['Noel','NNP','noel'],
        ['Kessel','NNP','kessel'],
        ['Source','NNP','sourc']
      ]
    },
    [':',':',':'],
    ['The','DT','The'],
    {
      tag:'ORGANIZATION',
      content:
      [
        ['Daily','NNP','dai'],
        ['Telegraph','NNP','telegraph']
      ]
    },
    ['EVERYONE','NNP','everyon'],
    ['has','VBZ','hav'],
    ['been','VBN','be'],
    ['scratching','VBG','scratch'],
    ['their','PRP$','their'],
    ['head','NN','head'],
    ['since','IN','since'],
    ['the','DT','the'],
    ['tour','NN','tour'],
    ['was','VBD','be'],
    ['announced','VBN','annount'],
    ['-',':','-'],
    ['how','WRB','how'],
    ['the','DT','the'],
    ['hell','NN','hel'],
    ['have','VBP','hav'],
    ['90s','CD','90s'],
    {
      tag:'GPE',
      content:
      [
        ['Swedish','NNP','swed']
      ]
    },
    ['pop','NN','pop'],
    ['act','NN','act'],
    {
      tag:'PERSON',
      content:
      [
        ['Roxette','NNP','roxet']
      ]
    },
    ['sold','VBD','sel'],
    ['out','RP','out'],
    ['so','RB','so'],
    ['many','JJ','many'],
    ['concerts','NNS','concert'],
    ['in','IN','in'],
    {
      tag:'GPE',
      content:
      [
        ['Australia','NNP','austral']
      ]
    },
    ['in','IN','in'],
    ['2012','CD','2012'],
    ['?','.','?']
  ]
},
{
  tag:'S',
  content:
  [
    ['The','DT','The'],
    ['answer','NN','answ'],
    ['was','VBD','be'],
    ['abundantly','RB','abund'],
    ['clear','JJ','clear'],
    ['at','IN','at'],
    ['their','PRP$','their'],
    ['opening','VBG','op'],
    ['show','NN','show'],
    ['of','IN','of'],
    ['three','CD','three'],
    ['gigs','NNS','gig'],
    ['at','IN','at'],
    ['the','DT','the'],
    {
      tag:'ORGANIZATION',
      content:
      [
        ['Sydney','NNP','sydney'],
        ['Entertainment','NNP','entertain'],
        ['Centre','NNP','cent']
      ]
    },
    ['last','JJ','last'],
    ['night.It','NN','night.it'],
    ['was','VBD','be'],
    ['no','DT','no'],
    ['big','JJ','big'],
    ['mystery','NN','mystery'],
    ['.','.','.']
  ]
},
{
  tag:'S',
  content:
  [
    {
      tag:'GPE',
      content:
      [
        ['Scandanavian','JJ','scandanav']
      ]
    },
    ['pop','NN','pop'],
    ['acts','NNS','act'],
    ['have','VBP','hav'],
    ['an','DT','an'],
    ['illustrious','JJ','illustry'],
    ['chart','NN','chart'],
    ['history','NN','hist'],
    ['here.From','NN','here.from'],
    {
      tag:'ORGANIZATION',
      content:
      [
        ['ABBA','NNP','abb']
      ]
    },
    ['to','TO','to'],
    {
      tag:'GPE',
      content:
      [
        ['Aqua','NNP','aqu']
      ]
    },
    [',',',',','],
    {
      tag:'GPE',
      content:
      [
        ['Australians','NNP','aust']
      ]
    },
    ['have','VBP','hav'],
    ['embraced','VBN','embrac'],
    ['them','PRP','them'],
    ['with','IN','with'],
    ['a','DT','a'],
    ['passion','NN','pass'],
    ['that','WDT','that'],
    ['still','RB','stil'],
    ['confounds','VBZ','confound'],
    ['critics','NNS','crit'],
    ['and','CC','and'],
    ['those','DT','those'],
    ['who','WP','who'],
    ['wish','NN','wish'],
    ['for','IN','for'],
    ['a','DT','a'],
    ['return','NN','return'],
    ['to','TO','to'],
    ['the','DT','the'],
    ['halcyon','NN','halcyon'],
    ['pub','NN','pub'],
    ['rock','NN','rock'],
    ['era.For','NN','era.for'],
    ['the','DT','the'],
    ['tens','NNS','ten'],
    ['of','IN','of'],
    ['thousands','NNS','thousand'],
    ['who','WP','who'],
    ['will','MD','will'],
    ['see','VB','see'],
    {
      tag:'PERSON',
      content:
      [
        ['Roxette','NNP','roxet']
      ]
    },
    ['on','IN','on'],
    ['their','PRP$','their'],
    ['first','JJ','first'],
    ['tour','NN','tour'],
    ['here','RB','her'],
    ['since','IN','since'],
    ['1995','CD','1995'],
    [',',',',','],
    ['this','DT','this'],
    ['is','VBZ','be'],
    ['a','DT','a'],
    ['chance','NN','chant'],
    ['to','TO','to'],
    ['relive','VB','rel'],
    ['their','PRP$','their'],
    ['favourite','JJ','favourit'],
    ['era','NN','er'],
    [',',',',','],
    ['to','TO','to'],
    ['reclaim','VB','reclaim'],
    ['the','DT','the'],
    ['soundtrack','NN','soundtrack'],
    ['of','IN','of'],
    ['their','PRP$','their'],
    ['teen','JJ','teen'],
    ['and','CC','and'],
    ['tween','JJ','tween'],
    ['years.And','NN','years.and'],
    ['geez','NN','geez'],
    [',',',',','],
    ['do','VBP','do'],
    ['they','PRP','they'],
    ['love','VBP','lov'],
    ['it.Pictures','NNS','it.pictures'],
    [':',':',':'],
    {
      tag:'PERSON',
      content:
      [
        ['Roxette','NNP','roxet']
      ]
    },
    ['rock','NN','rock'],
    {
      tag:'PERSON',
      content:
      [
        ['Sydney','NNP','sydney'],
        ['Entertainment','NNP','entertain'],
        ['Centre','NNP','cent']
      ]
    },
    ['The','NNP','the'],
    ['screams','NNS','scream'],
    ['which','WDT','which'],
    ['greeted','VBN','greet'],
    ['their','PRP$','their'],
    ['arrival','NN','ar'],
    ['on','IN','on'],
    ['stage','NN','stag'],
    ['and','CC','and'],
    ['opening','VBG','op'],
    ['track','NN','track'],
    {
      tag:'PERSON',
      content:
      [
        ['Dressed','NNP','dress'],
        ['For','NNP','for'],
        ['Success','NNP','success']
      ]
    },
    ['had','VBD','hav'],
    ['me','PRP','me'],
    ['contemplating','VBG','contempl'],
    ['ear','JJ','ear'],
    ['plugs','NNS','plug'],
    ['.','.','.']
  ]
},
{
  tag:'S',
  content:
  [
    ['They','PRP','They'],
    ['were','VBD','be'],
    ['piercing','VBG','pierc'],
    ['and','CC','and'],
    ['ecstatic.Roxette','JJ','ecstatic.roxette'],
    [''s','POS',''s'],
    {
      tag:'PERSON',
      content:
      [
        ['Marie','NNP','mary'],
        ['Fredriksson','NNP','fredriksson']
      ]
    },
    ['and','CC','and'],
    {
      tag:'PERSON',
      content:
      [
        ['Per','NNP','per'],
        ['Gessle','NNP','gessl']
      ]
    },
    ['deliver','NN','del'],
    ['more','JJR','mor'],
    ['of','IN','of'],
    ['a','DT','a'],
    ['rock','NN','rock'],
    ['show','NN','show'],
    ['than','IN','than'],
    ['their','PRP$','their'],
    ['pop','NN','pop'],
    ['peers.Neither','-NONE-','peers.Neither'],
    ['of','IN','of'],
    ['them','PRP','them'],
    ['have','VBP','hav'],
    ['a','DT','a'],
    ['perfect','NN','perfect'],
    ['nor','CC','nor'],
    ['powerful','JJ','pow'],
    ['voice','NN','voic'],
    ['but','CC','but'],
    ['they','PRP','they'],
    ['have','VBP','hav'],
    ['an','DT','an'],
    ['infectious','JJ','infecty'],
    ['passion','NN','pass'],
    ['for','IN','for'],
    ['what','WP','what'],
    ['they','PRP','they'],
    ['do','VBP','do'],
    ['and','CC','and'],
    ['hits','NNS','hit'],
    ['for','IN','for'],
    ['days.Sleeping','JJ','days.sleeping'],
    ['In','NNP','in'],
    ['My','NNP','my'],
    ['Car','NNP','car'],
    [',',',',','],
    {
      tag:'ORGANIZATION',
      content:
      [
        ['The','NNP','the'],
        ['Big','NNP','big']
      ]
    },
    ['L','NNP','l'],
    [',',',',','],
    {
      tag:'GPE',
      content:
      [
        ['Joyride','NNP','joyrid']
      ]
    },
    [',',',',','],
    {
      tag:'GPE',
      content:
      [
        ['Listen','NNP','list']
      ]
    },
    ['To','TO','To'],
    ['Your','NNP','yo'],
    ['Heart','NNP','heart'],
    [',',',',','],
    {
      tag:'PERSON',
      content:
      [
        ['Dangerous','NNP','dang']
      ]
    },
    [',',',',','],
    {
      tag:'ORGANIZATION',
      content:
      [
        ['The','NNP','the'],
        ['Look','NNP','look']
      ]
    },
    [',',',',','],
    {
      tag:'PERSON',
      content:
      [
        ['Fading','NNP','fad'],
        ['Like','NNP','lik']
      ]
    },
    ['A','NNP','a'],
    ['Flower','NNP','flow'],
    ['and','CC','and'],
    ['how','WRB','how'],
    ['could','MD','could'],
    ['we','VB','we'],
    ['ever','RB','ev'],
    ['forget','VB','forget'],
    ['the','DT','the'],
    ['Pretty','NNP','pretty'],
    {
      tag:'PERSON',
      content:
      [
        ['Woman','NNP','wom']
      ]
    },
    ['ballad','VBD','ballad'],
    ['It','PRP','It'],
    ['Must','NNP','must'],
    ['Have','NNP','hav'],
    ['Been','NNP','been'],
    ['Love.They','NNP','love.they'],
    ['graciously','RB','gracy'],
    ['let','VB','let'],
    ['the','DT','the'],
    ['crowd','NN','crowd'],
    ['have','VBP','hav'],
    ['their','PRP$','their'],
    ['full-throated','JJ','full-throated'],
    ['karaoke','NN','karaok'],
    ['moment','NN','mom'],
    ['on','IN','on'],
    ['that','DT','that'],
    ['one.Like','JJ','one.lik'],
    ['most','JJS','most'],
    ['concerts','NNS','concert'],
    [',',',',','],
    ['the','DT','the'],
    ['fans','NNS','fan'],
    ['were','VBD','be'],
    ['respectful','JJ','respect'],
    ['during','IN','during'],
    ['the','DT','the'],
    ['more','RBR','mor'],
    ['recent','JJ','rec'],
    ['tunes','NNS','tun'],
    ['from','IN','from'],
    ['their','PRP$','their'],
    ['Charm','NNP','charm'],
    ['School','NNP','school'],
    ['comeback','NN','comeback'],
    ['albumbut','VBD','albumbut'],
    ['it','PRP','it'],
    ['was','VBD','be'],
    ['the','DT','the'],
    ['old','JJ','old'],
    ['faithfuls','NNS','faith'],
    ['which','WDT','which'],
    ['had','VBD','hav'],
    ['them','PRP','them'],
    ['on','IN','on'],
    ['their','PRP$','their'],
    ['feet','NN','foot'],
    ['and','CC','and'],
    ['singing','VBG','sing'],
    ['with','IN','with'],
    ['their','PRP$','their'],
    ['mates','NNS','mat'],
    ['like','IN','like'],
    ['it','PRP','it'],
    ['was','VBD','be'],
    ['1995','CD','1995'],
    ['again.Roxette','JJ','again.roxette'],
    ['perform','NN','perform'],
    ['again','RB','again'],
    ['at','IN','at'],
    ['the','DT','the'],
    {
      tag:'ORGANIZATION',
      content:
      [
        ['Entertainment','NNP','entertain'],
        ['Centre','NNP','cent']
      ]
    },
    ['tonight','VBD','tonight'],
    ['(','NNP','('],
    ['sold','VBD','sel'],
    ['out','RP','out'],
    [')','CD',')'],
    ['and','CC','and'],
    ['on','IN','on'],
    ['Saturday','NNP','saturday'],
    [',',',',','],
    ['February','NNP','febru'],
    ['25','CD','25'],
    ['.','.','.']
  ]
},
{
  tag:'S',
  content:
  [
    {
      tag:'PERSON',
      content:
      [
        ['Increase','NN','increas']
      ]
    },
    {
      tag:'PERSON',
      content:
      [
        ['Text','NNP','text'],
        ['Size','NNP','siz'],
        ['Decrease','NNP','decreas'],
        ['Text','NNP','text'],
        ['Size','NNP','siz'],
        ['Print','NNP','print']
      ]
    }
  ]
}]