[
{
  tag:'S',
  content:
  [
    {
      tag:'GPE',
      content:
      [
        ['Home','NN','hom']
      ]
    },
    {
      tag:'ORGANIZATION',
      content:
      [
        ['Artists','NNS','art'],
        ['Exhibitions','NNS','exhibit'],
        ['News','NNP','new'],
        ['Events','NNP','ev']
      ]
    },
    ['Channel','NNP','channel'],
    ['Shop','NNP','shop'],
    ['Contact','NNP','contact'],
    ['About','NNP','about'],
    ['Search','NNP','search'],
    ['Back','NNP','back'],
    ['to','TO','to'],
    {
      tag:'PERSON',
      content:
      [
        ['Artists','NNP','art'],
        ['Rachel','NNP','rachel'],
        ['Kneebone','NNP','kneebon'],
        ['All','NNP','al'],
        ['Artists','NNP','art'],
        ['Franz','NNP','franz'],
        ['Ackermann','NNP','ackerman'],
        ['Darren','NNP','dar'],
        ['Almond','NNP','almond'],
        ['Ellen','NNP','el'],
        ['Altfest','NNP','altfest'],
        ['Miroslaw','NNP','miroslaw'],
        ['Balka','NNP','balk'],
        ['Georg','NNP','georg'],
        ['Baselitz','NNP','baselitz'],
        ['Ashley','NNP','ashley'],
        ['Bickerton','NNP','bickerton'],
        ['Mark','NNP','mark'],
        ['Bradford','NNP','bradford'],
        ['Candice','NNP','cand'],
        ['Breitz','NNP','breitz'],
        ['Jake','NNP','jak']
      ]
    },
    ['&','CC','&'],
    {
      tag:'PERSON',
      content:
      [
        ['Dinos','NNP','dino'],
        ['Chapman','NNP','chapm'],
        ['Chuck','NNP','chuck'],
        ['Close','NNP','clos'],
        ['Gregory','NNP','greg'],
        ['Crewdson','NNP','crewdson'],
        ['Tracey','NNP','tracey'],
        ['Emin','NNP','emin'],
        ['Katharina','NNP','katharin'],
        ['Fritsch','NNP','fritsch']
      ]
    },
    ['Theaster','NNP','theast'],
    ['Gates','NNP','gat'],
    ['Gilbert','NNP','gilbert'],
    ['&','CC','&'],
    {
      tag:'PERSON',
      content:
      [
        ['George','NNP','georg'],
        ['Antony','NNP','antony'],
        ['Gormley','NNP','gormley'],
        ['Andreas','NNP','andrea'],
        ['Gursky','NNP','gursky'],
        ['Mona','NNP','mon'],
        ['Hatoum','NNP','hato'],
        ['Eberhard','NNP','eberhard'],
        ['Havekost','NNP','havekost'],
        ['Damien','NNP','damy'],
        ['Hirst','NNP','hirst']
      ]
    },
    ['Gary','NNP','gary'],
    ['Hume','NNP','hum'],
    ['Runa','NNP','run'],
    {
      tag:'PERSON',
      content:
      [
        ['Islam','NNP','islam'],
        ['Sergej','NNP','serges'],
        ['Jensen','NNP','jens'],
        ['Anselm','NNP','anselm'],
        ['Kiefer','NNP','kief'],
        ['Rachel','NNP','rachel'],
        ['Kneebone','NNP','kneebon'],
        ['Friedrich','NNP','friedrich'],
        ['Kunath','NNP','kuna'],
        ['Elad','NNP','elad'],
        ['Lassry','NNP','lassry'],
        ['Jac','NNP','jac'],
        ['Leirner','NNP','leirn'],
        ['Liu','NNP','liu'],
        ['Wei','NNP','wei'],
        ['Liza','NNP','liz'],
        ['Lou','NNP','lou'],
        ['Christian','NNP','christian'],
        ['Marclay','NNP','marclay'],
        ['Kris','NNP','kri'],
        ['Martin','NNP','martin'],
        ['Josiah','NNP','josiah'],
        ['McElheny','NNP','mcelheny'],
        ['Julie','NNP','july'],
        ['Mehretu','NNP','mehretu'],
        ['Harland','NNP','harland']
      ]
    },
    {
      tag:'PERSON',
      content:
      [
        ['Miller','NNP','mil'],
        ['Sarah','NNP','sarah'],
        ['Morris','NNP','mor'],
        ['Gabriel','NNP','gabriel'],
        ['Orozco','NNP','orozco']
      ]
    },
    ['Damián','NNP','damián'],
    ['Ortega','NNP','orteg'],
    ['Eddie','NNP','eddy'],
    ['Peake','NNP','peak'],
    {
      tag:'PERSON',
      content:
      [
        ['Richard','NNP','richard'],
        ['Phillips','NNP','phillip'],
        ['Magnus','NNP','magn'],
        ['Plessen','NNP','pless'],
        ['Marc','NNP','marc'],
        ['Quinn','NNP','quin'],
        ['Jessica','NNP','jessic'],
        ['Rankin','NNP','rankin'],
        ['Robin','NNP','robin'],
        ['Rhode','NNP','rhod'],
        ['Doris','NNP','dor'],
        ['Salcedo','NNP','salcedo'],
        ['Raqib','NNP','raqib'],
        ['Shaw','NNP','shaw'],
        ['Haim','NNP','haim'],
        ['Steinbach','NNP','steinbach'],
        ['Neal','NNP','neal'],
        ['Tait','NNP','tait'],
        ['Sam','NNP','sam']
      ]
    },
    ['Taylor-Johnson','NNP','taylor-johnson'],
    ['Fred','NNP','fred'],
    {
      tag:'PERSON',
      content:
      [
        ['Tomaselli','NNP','tomasell'],
        ['Jeff','NNP','jeff'],
        ['Wall','NNP','wal'],
        ['Cerith','NNP','ceri'],
        ['Wyn','NNP','wyn'],
        ['Evans','NNP','ev'],
        ['Zhang','NNP','zhang'],
        ['Huan','NNP','huan'],
        ['Rachel','NNP','rachel']
      ]
    },
    ['Kneebone’s','NNP','kneebone’s'],
    ['finely','RB','fin'],
    ['sculpted','VBD','sculpt'],
    ['porcelain','NN','porcelain'],
    ['works','NNS','work'],
    ['erupt','VBD','erupt'],
    ['with','IN','with'],
    ['a','DT','a'],
    ['bacchanal','JJ','bacch'],
    ['of','IN','of'],
    ['contorted','JJ','contort'],
    ['bodies','NNS','body'],
    [',',',',','],
    ['limbs','NNS','limb'],
    ['and','CC','and'],
    ['slumped','VBD','slump'],
    ['phallic','JJ','phal'],
    ['tendrils','NNS','tendril'],
    ['that','WDT','that'],
    ['emerge','NN','emerg'],
    ['from','IN','from'],
    ['amorphous','JJ','amorph'],
    ['properties','NNS','property'],
    ['of','IN','of'],
    ['the','DT','the'],
    ['material','NN','mat'],
    ['.','.','.']
  ]
},
{
  tag:'S',
  content:
  [
    ['Sharing','VBG','shar'],
    ['the','DT','the'],
    ['characteristics','NNS','charact'],
    ['of','IN','of'],
    {
      tag:'GPE',
      content:
      [
        ['Hellenistic','NNP','hel']
      ]
    },
    ['sculpture','NN','sculpt'],
    [',',',',','],
    {
      tag:'PERSON',
      content:
      [
        ['Kneebone','NNP','kneebon']
      ]
    },
    ['retains','VBZ','retain'],
    ['the','DT','the'],
    ['purity','NN','pur'],
    ['of','IN','of'],
    ['the','DT','the'],
    ['glazed','JJ','glaz'],
    ['white','JJ','whit'],
    ['surface','NN','surfac'],
    ['while','IN','while'],
    ['the','DT','the'],
    ['tonal','JJ','ton'],
    ['chiaroscuro','NN','chiaroscuro'],
    ['enhances','NNS','enh'],
    ['the','DT','the'],
    ['intricately','RB','int'],
    ['modeled','VBD','model'],
    ['ruptures','NNS','rupt'],
    ['and','CC','and'],
    ['crevices','NNS','crev'],
    ['that','WDT','that'],
    ['inject','NN','inject'],
    ['this','DT','this'],
    ['conventional','JJ','conv'],
    ['material','NN','mat'],
    ['with','IN','with'],
    ['a','DT','a'],
    ['sensual','JJ','sens'],
    ['physicality','NN','phys'],
    ['and','CC','and'],
    ['unique','JJ','un'],
    ['energy.Inspired','JJ','energy.inspired'],
    ['by','IN','by'],
    ['Ovid’s','JJ','ovid’s'],
    ['great','JJ','gre'],
    ['poem','NN','poem'],
    ['‘Metamorphosis’','NN','‘metamorphosis’'],
    ['where','WRB','where'],
    ['humans','NNS','hum'],
    ['migrate','VBP','migr'],
    ['into','IN','into'],
    ['a','DT','a'],
    ['myriad','JJ','myriad'],
    ['of','IN','of'],
    ['forms','NNS','form'],
    [',',',',','],
    {
      tag:'GPE',
      content:
      [
        ['Kneebone','NNP','kneebon']
      ]
    },
    ['depicts','NNS','depict'],
    ['an','DT','an'],
    ['erotic','JJ','erot'],
    ['state','NN','stat'],
    ['of','IN','of'],
    ['flux','NN','flux'],
    [',',',',','],
    ['suspended','VBN','suspend'],
    ['mid-transition','NN','mid-transition'],
    [',',',',','],
    ['divulging','VBG','divulg'],
    ['part','NN','part'],
    ['figurative','JJ','fig'],
    ['and','CC','and'],
    ['fragmentary','JJ','frag'],
    ['motifs','NNS','mot'],
    ['.','.','.']
  ]
},
{
  tag:'S',
  content:
  [
    ['Kneebone’s','NNS','kneebone’s'],
    ['eclectic','JJ','eclect'],
    ['vision','NN','vis'],
    ['relishes','NNS','rel'],
    ['in','IN','in'],
    ['the','DT','the'],
    ['angst','NN','angst'],
    ['of','IN','of'],
    ['both','DT','both'],
    {
      tag:'GPE',
      content:
      [
        ['Greek','NNP','greek']
      ]
    },
    ['tragedies','NNS','tragedy'],
    ['and','CC','and'],
    {
      tag:'PERSON',
      content:
      [
        ['Bernini','NNP','bernin']
      ]
    },
    [',',',',','],
    ['the','DT','the'],
    ['hybrid','NN','hybrid'],
    ['creatures','NNS','cre'],
    ['of','IN','of'],
    {
      tag:'GPE',
      content:
      [
        ['Bosch','NNP','bosch']
      ]
    },
    [',',',',','],
    ['and','CC','and'],
    ['the','DT','the'],
    ['‘erotic','JJ','‘erotic'],
    ['gaze’','NN','gaze’'],
    ['of','IN','of'],
    {
      tag:'GPE',
      content:
      [
        ['Batialle','NNP','batial']
      ]
    },
    ['and','CC','and'],
    {
      tag:'GPE',
      content:
      [
        ['Bellmer','NNP','bellm']
      ]
    },
    ['.','.','.']
  ]
},
{
  tag:'S',
  content:
  [
    ['A','DT','A'],
    ['more','RBR','mor'],
    ['direct','JJ','direct'],
    ['comparison','NN','comparison'],
    ['is','VBZ','be'],
    ['with','IN','with'],
    ['the','DT','the'],
    ['eighteenth','NN','eighteen'],
    ['century','NN','century'],
    {
      tag:'PERSON',
      content:
      [
        ['Meissen','NNP','meiss']
      ]
    },
    ['porcelain','NN','porcelain'],
    ['tableaux','NN','tableau'],
    [',',',',','],
    ['some','DT','some'],
    ['of','IN','of'],
    ['which','WDT','which'],
    ['were','VBD','be'],
    ['copied','VBN','cop'],
    ['from','IN','from'],
    ['idyllic','JJ','idyl'],
    ['pastoral','JJ','past'],
    ['paintings','NNS','paint'],
    ['and','CC','and'],
    ['odalisques','NNS','odalisqu'],
    ['by','IN','by'],
    {
      tag:'PERSON',
      content:
      [
        ['Watteau','NNP','watteau']
      ]
    },
    ['and','CC','and'],
    {
      tag:'PERSON',
      content:
      [
        ['Boucher','NNP','bouch']
      ]
    },
    ['.','.','.']
  ]
},
{
  tag:'S',
  content:
  [
    ['Yet','CC','Yet'],
    ['Kneebone','NNP','kneebon'],
    ['manages','NNS','man'],
    ['to','TO','to'],
    ['decant','VB','dec'],
    ['all','DT','all'],
    ['these','DT','these'],
    ['influences','NNS','influ'],
    ['into','IN','into'],
    ['her','PRP$','her'],
    ['own','JJ','own'],
    ['highly','RB','high'],
    ['distinct','JJ','distinct'],
    ['rhetoric','NN','rhet'],
    [',',',',','],
    ['celebrating','VBG','celebr'],
    ['forms','NNS','form'],
    ['of','IN','of'],
    ['transgression','NN','transgress'],
    [',',',',','],
    ['beauty','NN','beauty'],
    ['and','CC','and'],
    ['seduction.Kneebones','NNS','seduction.kneebones'],
    ['sculptures','NNS','sculpt'],
    ['are','VBP','be'],
    ['themselves','PRP','themselves'],
    ['in','IN','in'],
    ['an','DT','an'],
    ['ongoing','JJ','ongo'],
    ['metamorphosis','NN','metamorphos'],
    ['from','IN','from'],
    ['the','DT','the'],
    ['small-scale','JJ','small-scale'],
    ['classical','JJ','class'],
    ['plinths','NNS','plin'],
    ['based','VBN','bas'],
    ['on','IN','on'],
    ['Watteau’s','NNP','watteau’s'],
    ['‘Pilgrimage','NNP','‘pilgrimage'],
    ['to','TO','to'],
    ['Cythera’','NNP','cythera’'],
    ['(','NNP','('],
    ['2005','CD','2005'],
    [')','CD',')'],
    ['mounted','VBN','mount'],
    ['on','IN','on'],
    ['sarcophagus-like','JJ','sarcophagus-like'],
    ['podiums','NNS','pod'],
    [',',',',','],
    ['through','IN','through'],
    ['to','TO','to'],
    ['the','DT','the'],
    ['fourteen','NN','fourteen'],
    ['‘Stations','NNS','‘stations'],
    ['of','IN','of'],
    ['the','DT','the'],
    ['Cross’','JJ','cross’'],
    ['(','NN','('],
    ['2007','CD','2007'],
    [')','CD',')'],
    [';',':',';'],
    ['here','RB','her'],
    [',',',',','],
    ['a','DT','a'],
    ['splitting','NN','splitting'],
    [',',',',','],
    ['fertile','JJ','fertil'],
    ['bodyform','NN','bodyform'],
    ['is','VBZ','be'],
    ['hung','VBN','hang'],
    ['on','IN','on'],
    ['a','DT','a'],
    ['crucifix','NN','crucifix'],
    ['of','IN','of'],
    ['stems','NNS','stem'],
    ['while','IN','while'],
    ['other','JJ','oth'],
    ['scenes','NNS','scen'],
    ['are','VBP','be'],
    ['more','RBR','mor'],
    ['abstract','JJ','abstract'],
    ['congregations','NNS','congreg'],
    ['of','IN','of'],
    ['figures','NNS','fig'],
    ['.','.','.']
  ]
},
{
  tag:'S',
  content:
  [
    ['In','IN','In'],
    {
      tag:'GPE',
      content:
      [
        ['‘Trilogy’','JJ','‘trilogy’']
      ]
    },
    ['(','NN','('],
    ['2007','CD','2007'],
    [')','CD',')'],
    [',',',',','],
    {
      tag:'GPE',
      content:
      [
        ['Kneebone','NNP','kneebon']
      ]
    },
    ['increases','NNS','increas'],
    ['the','DT','the'],
    ['scale','NN','scal'],
    ['and','CC','and'],
    ['complexity','NN','complex'],
    ['of','IN','of'],
    ['her','PRP$','her'],
    ['sculptures','NNS','sculpt'],
    ['heightening','VBG','height'],
    ['the','DT','the'],
    ['risk','NN','risk'],
    ['of','IN','of'],
    ['possible','JJ','poss'],
    ['collapse','NN','collaps'],
    ['due','JJ','due'],
    ['to','TO','to'],
    ['the','DT','the'],
    ['vulnerability','NN','vuln'],
    ['of','IN','of'],
    ['the','DT','the'],
    ['material','NN','mat'],
    ['during','IN','during'],
    ['firing','VBG','fir'],
    ['.','.','.']
  ]
},
{
  tag:'S',
  content:
  [
    ['Purposefully','RB','purpos'],
    {
      tag:'ORGANIZATION',
      content:
      [
        ['Kneebone','NNP','kneebon']
      ]
    },
    ['leaves','VBZ','leav'],
    ['cracks','NNS','crack'],
    ['evident','NN','evid'],
    ['in','IN','in'],
    ['the','DT','the'],
    ['foundations','NNS','found'],
    ['of','IN','of'],
    ['her','PRP$','her'],
    ['sculptures','NNS','sculpt'],
    ['to','TO','to'],
    ['further','RBR','far'],
    ['imply','RB','imply'],
    ['a','DT','a'],
    ['sense','NN','sens'],
    ['of','IN','of'],
    ['apprehension','NN','apprehend'],
    [',',',',','],
    ['time','NN','tim'],
    ['and','CC','and'],
    ['evolving','VBG','evolv'],
    ['transformation.Rachel','JJ','transformation.rachel'],
    {
      tag:'PERSON',
      content:
      [
        ['Kneebone','NNP','kneebon']
      ]
    },
    ['was','VBD','be'],
    ['born','VBN','bear'],
    ['in','IN','in'],
    ['1973','CD','1973'],
    ['in','IN','in'],
    {
      tag:'GPE',
      content:
      [
        ['Oxfordshire','NNP','oxfordshir']
      ]
    },
    [';',':',';'],
    ['she','PRP','she'],
    ['lives','VBZ','liv'],
    ['and','CC','and'],
    ['works','NNS','work'],
    ['in','IN','in'],
    {
      tag:'GPE',
      content:
      [
        ['London','NNP','london']
      ]
    },
    ['.','.','.']
  ]
},
{
  tag:'S',
  content:
  [
    ['Recent','JJ','rec'],
    ['solo','NN','solo'],
    ['exhibitions','NNS','exhibit'],
    ['include','VBP','includ'],
    ['‘Regarding','JJ','‘regarding'],
    ['Rodin’','NN','rodin’'],
    ['at','IN','at'],
    ['the','DT','the'],
    {
      tag:'ORGANIZATION',
      content:
      [
        ['Brooklyn','NNP','brooklyn'],
        ['Museum','NNP','muse']
      ]
    },
    [',',',',','],
    {
      tag:'GPE',
      content:
      [
        ['New','NNP','new'],
        ['York','NNP','york']
      ]
    },
    ['(','NNP','('],
    ['2012','CD','2012'],
    [')','CD',')'],
    ['and','CC','and'],
    [''Lamentations','NNS',''lamentations'],
    [''','POS','''],
    [',',',',','],
    {
      tag:'FACILITY',
      content:
      [
        ['White','NNP','whit'],
        ['Cube','NNP','cub']
      ]
    },
    [',',',',','],
    {
      tag:'GPE',
      content:
      [
        ['London','NNP','london']
      ]
    },
    ['(',':','('],
    ['2010','CD','2010'],
    [')','CD',')'],
    ['.','.','.']
  ]
},
{
  tag:'S',
  content:
  [
    ['Recent','JJ','rec'],
    ['group','NN','group'],
    ['exhibitions','NNS','exhibit'],
    ['include','VBP','includ'],
    [''The','JJ',''the'],
    ['Best','NNP','best'],
    ['of','IN','of'],
    {
      tag:'GPE',
      content:
      [
        ['Times','NNP','tim']
      ]
    },
    [',',',',','],
    {
      tag:'ORGANIZATION',
      content:
      [
        ['The','NNP','the'],
        ['Worst','NNP','worst']
      ]
    },
    ['of','IN','of'],
    {
      tag:'GPE',
      content:
      [
        ['Times','NNP','tim']
      ]
    },
    ['.','.','.']
  ]
},
{
  tag:'S',
  content:
  [
    {
      tag:'GPE',
      content:
      [
        ['Rebirth','NNP','rebir']
      ]
    },
    ['and','CC','and'],
    {
      tag:'ORGANIZATION',
      content:
      [
        ['Apocalypse','NNP','apocalyps']
      ]
    },
    ['in','IN','in'],
    ['Contemporary','NNP','contemp'],
    ['Art','NNP','art'],
    [''','POS','''],
    [',',',',','],
    ['1st','CD','1st'],
    ['Kiev','NNP','kiev'],
    ['Biennale','NNP','bien'],
    ['Arsenale','NNP','ars'],
    ['(','NNP','('],
    ['2012','CD','2012'],
    [')','CD',')'],
    [',',',',','],
    [''Living','JJ',''living'],
    ['in','IN','in'],
    {
      tag:'GPE',
      content:
      [
        ['Evolution','NNP','evolv']
      ]
    },
    [''','POS','''],
    [',',',',','],
    {
      tag:'PERSON',
      content:
      [
        ['Busan','NNP','bus'],
        ['Biennale','NNP','bien']
      ]
    },
    [',',',',','],
    {
      tag:'GPE',
      content:
      [
        ['Busan','NNP','bus']
      ]
    },
    [',',',',','],
    [''The','NNP',''the'],
    ['Surreal','NNP','sur'],
    {
      tag:'ORGANIZATION',
      content:
      [
        ['House','NNP','hous']
      ]
    },
    [''','POS','''],
    [',',',',','],
    {
      tag:'PERSON',
      content:
      [
        ['Barbican','NNP','barb'],
        ['Centre','NNP','cent']
      ]
    },
    [',',',',','],
    {
      tag:'GPE',
      content:
      [
        ['London','NNP','london']
      ]
    },
    [',',',',','],
    [''The','NNP',''the'],
    ['Beauty','NNP','beauty'],
    ['of','IN','of'],
    {
      tag:'GPE',
      content:
      [
        ['Distance','NNP','dist']
      ]
    },
    [''','POS','''],
    [',',',',','],
    ['17th','CD','17th'],
    ['Biennale','NNP','bien'],
    ['of','IN','of'],
    {
      tag:'GPE',
      content:
      [
        ['Sydney','NNP','sydney']
      ]
    },
    [',',',',','],
    {
      tag:'GPE',
      content:
      [
        ['Sydney','NNP','sydney']
      ]
    },
    ['(','NNP','('],
    ['all','DT','all'],
    ['2010','CD','2010'],
    [')','CD',')'],
    [',',',',','],
    ['‘Summer','JJ','‘summer'],
    ['Exhibition’','NN','exhibition’'],
    [',',',',','],
    ['curated','VBD','cur'],
    ['by','IN','by'],
    {
      tag:'PERSON',
      content:
      [
        ['Tracey','NNP','tracey'],
        ['Emin','NNP','emin']
      ]
    },
    [',',',',','],
    {
      tag:'PERSON',
      content:
      [
        ['Royal','NNP','roy'],
        ['Academy','NNP','academy']
      ]
    },
    ['of','IN','of'],
    {
      tag:'GPE',
      content:
      [
        ['Arts','NNPS','art']
      ]
    },
    [',',',',','],
    {
      tag:'GPE',
      content:
      [
        ['London','NNP','london']
      ]
    },
    ['(',':','('],
    ['2008','CD','2008'],
    [')','CD',')'],
    [',',',',','],
    ['‘Mario','NNP','‘mario'],
    ['Testino','NNP','testino'],
    ['at','IN','at'],
    ['home’','NNP','home’'],
    [',',',',','],
    {
      tag:'PERSON',
      content:
      [
        ['Yvon','NNP','yvon'],
        ['Lambert','NNP','lambert']
      ]
    },
    [',',',',','],
    {
      tag:'GPE',
      content:
      [
        ['New','NNP','new'],
        ['York','NNP','york']
      ]
    },
    ['(','NNP','('],
    ['2007','CD','2007'],
    [')','CD',')'],
    ['and','CC','and'],
    ['‘The','NNP','‘the'],
    ['Way','NNP','way'],
    ['We','NNP','we'],
    ['Work’','NNP','work’'],
    [',',',',','],
    {
      tag:'PERSON',
      content:
      [
        ['Camden','NNP','camd'],
        ['Arts','NNP','art'],
        ['Centre','NNP','cent']
      ]
    },
    [',',',',','],
    {
      tag:'GPE',
      content:
      [
        ['London','NNP','london']
      ]
    },
    ['(',':','('],
    ['2005','CD','2005'],
    [')','CD',')'],
    ['.','.','.']
  ]
},
{
  tag:'S',
  content:
  [
    ['In','IN','In'],
    ['2005','CD','2005'],
    [',',',',','],
    {
      tag:'PERSON',
      content:
      [
        ['Kneebone','NNP','kneebon']
      ]
    },
    ['was','VBD','be'],
    ['nominated','VBN','nomin'],
    ['for','IN','for'],
    ['the','DT','the'],
    {
      tag:'ORGANIZATION',
      content:
      [
        ['MaxMara','NNP','maxmar'],
        ['Art','NNP','art'],
        ['Prize','NNP','priz']
      ]
    },
    ['and','CC','and'],
    ['in','IN','in'],
    ['the','DT','the'],
    ['same','JJ','sam'],
    ['year','NN','year'],
    ['she','PRP','she'],
    ['was','VBD','be'],
    ['commissioned','VBN','commit'],
    ['by','IN','by'],
    {
      tag:'PERSON',
      content:
      [
        ['Mario','NNP','mario'],
        ['Testino','NNP','testino']
      ]
    },
    ['to','TO','to'],
    ['make','VB','mak'],
    ['work','NN','work'],
    ['for','IN','for'],
    ['his','PRP$','his'],
    ['‘Diana','NN','‘diana'],
    [',',',',','],
    {
      tag:'ORGANIZATION',
      content:
      [
        ['Princess','NNP','princess']
      ]
    },
    ['of','IN','of'],
    ['Wales’','NNP','wales’'],
    ['exhibition','NN','exhibit'],
    ['at','IN','at'],
    {
      tag:'FACILITY',
      content:
      [
        ['Kensington','NNP','kensington'],
        ['Palace','NNP','palac']
      ]
    },
    ['.','.','.']
  ]
},
{
  tag:'S',
  content:
  [
    ['Artworks','NNS','artwork'],
    ['The','DT','The'],
    ['Descent','NNP','desc'],
    ['2008','CD','2008'],
    ['Approx','NNP','approx'],
    ['.','.','.']
  ]
},
{
  tag:'S',
  content:
  [
    ['3.5m','CD','3.5m'],
    ['wide','JJ','wid'],
    ['(','NN','('],
    ['to','TO','to'],
    ['edge','VB','edg'],
    ['of','IN','of'],
    ['viewing','VBG','view'],
    ['ledge','NN','ledg'],
    [')',':',')'],
    ['x','NN','x'],
    ['1.5m','CD','1.5m'],
    ['high','JJ','high'],
    ['PorcelainPhoto','NNP','porcelainphoto'],
    [':',':',':'],
    {
      tag:'PERSON',
      content:
      [
        ['Stephen','NNP','steph']
      ]
    },
    {
      tag:'FACILITY',
      content:
      [
        ['White','NNP','whit'],
        ['The','NNP','the'],
        ['Descent','NNP','desc']
      ]
    },
    ['(','NNP','('],
    ['detail','NN','detail'],
    [')',':',')'],
    ['2008','CD','2008'],
    ['Approx','NNP','approx'],
    ['.','.','.']
  ]
},
{
  tag:'S',
  content:
  [
    ['3.5m','CD','3.5m'],
    ['wide','JJ','wid'],
    ['(','NN','('],
    ['to','TO','to'],
    ['edge','VB','edg'],
    ['of','IN','of'],
    ['viewing','VBG','view'],
    ['ledge','NN','ledg'],
    [')',':',')'],
    ['x','NN','x'],
    ['1.5m','CD','1.5m'],
    ['high','JJ','high'],
    ['PorcelainPhoto','NNP','porcelainphoto'],
    [':',':',':'],
    {
      tag:'PERSON',
      content:
      [
        ['Stephen','NNP','steph']
      ]
    },
    {
      tag:'FACILITY',
      content:
      [
        ['White','NNP','whit'],
        ['The','NNP','the'],
        ['Descent','NNP','desc']
      ]
    },
    ['(','NNP','('],
    ['detail','NN','detail'],
    [')',':',')'],
    ['2008','CD','2008'],
    ['Approx','NNP','approx'],
    ['.','.','.']
  ]
},
{
  tag:'S',
  content:
  [
    ['3.5m','CD','3.5m'],
    ['wide','JJ','wid'],
    ['(','NN','('],
    ['to','TO','to'],
    ['edge','VB','edg'],
    ['of','IN','of'],
    ['viewing','VBG','view'],
    ['ledge','NN','ledg'],
    [')',':',')'],
    ['x','NN','x'],
    ['1.5m','CD','1.5m'],
    ['high','JJ','high'],
    ['PorcelainPhoto','NNP','porcelainphoto'],
    [':',':',':'],
    {
      tag:'PERSON',
      content:
      [
        ['Stephen','NNP','steph']
      ]
    },
    {
      tag:'FACILITY',
      content:
      [
        ['White','NNP','whit']
      ]
    },
    ['All','NNP','al'],
    ['we','PRP','we'],
    ['need','VBP','nee'],
    ['to','TO','to'],
    ['begin','VB','begin'],
    ['again','RB','again'],
    ['is','VBZ','be'],
    ['our','PRP$','our'],
    ['lives','NNS','lif'],
    ['2012','CD','2012'],
    ['27','CD','27'],
    ['15/16','CD','15/16'],
    ['x','NN','x'],
    ['21','CD','21'],
    ['1/16','CD','1/16'],
    ['x','NN','x'],
    ['23','CD','23'],
    ['1/16','CD','1/16'],
    ['in','IN','in'],
    ['.','.','.']
  ]
},
{
  tag:'S',
  content:
  [
    ['(','NN','('],
    ['71','CD','71'],
    ['x','NN','x'],
    ['53.5','CD','53.5'],
    ['x','NN','x'],
    ['58.5','CD','58.5'],
    ['cm','NN','cm'],
    [')',':',')'],
    ['PorcelainPhoto','NNP','porcelainphoto'],
    [':',':',':'],
    {
      tag:'PERSON',
      content:
      [
        ['Ben','NNP','ben'],
        ['Westoby','NNP','westoby']
      ]
    },
    ['All','NNP','al'],
    ['we','PRP','we'],
    ['need','VBP','nee'],
    ['to','TO','to'],
    ['begin','VB','begin'],
    ['again','RB','again'],
    ['is','VBZ','be'],
    ['our','PRP$','our'],
    ['lives','NNS','lif'],
    ['2012','CD','2012'],
    ['27','CD','27'],
    ['15/16','CD','15/16'],
    ['x','NN','x'],
    ['21','CD','21'],
    ['1/16','CD','1/16'],
    ['x','NN','x'],
    ['23','CD','23'],
    ['1/16','CD','1/16'],
    ['in','IN','in'],
    ['.','.','.']
  ]
},
{
  tag:'S',
  content:
  [
    ['(','NN','('],
    ['71','CD','71'],
    ['x','NN','x'],
    ['53.5','CD','53.5'],
    ['x','NN','x'],
    ['58.5','CD','58.5'],
    ['cm','NN','cm'],
    [')',':',')'],
    ['PorcelainPhoto','NNP','porcelainphoto'],
    [':',':',':'],
    {
      tag:'PERSON',
      content:
      [
        ['Ben','NNP','ben'],
        ['Westoby','NNP','westoby']
      ]
    },
    ['All','NNP','al'],
    ['we','PRP','we'],
    ['need','VBP','nee'],
    ['to','TO','to'],
    ['begin','VB','begin'],
    ['again','RB','again'],
    ['is','VBZ','be'],
    ['our','PRP$','our'],
    ['lives','NNS','lif'],
    ['(',':','('],
    ['detail','NN','detail'],
    [')',':',')'],
    ['2012','CD','2012'],
    ['27','CD','27'],
    ['15/16','CD','15/16'],
    ['x','NN','x'],
    ['21','CD','21'],
    ['1/16','CD','1/16'],
    ['x','NN','x'],
    ['23','CD','23'],
    ['1/16','CD','1/16'],
    ['in','IN','in'],
    ['.','.','.']
  ]
},
{
  tag:'S',
  content:
  [
    ['(','NN','('],
    ['71','CD','71'],
    ['x','NN','x'],
    ['53.5','CD','53.5'],
    ['x','NN','x'],
    ['58.5','CD','58.5'],
    ['cm','NN','cm'],
    [')',':',')'],
    ['PorcelainPhoto','NNP','porcelainphoto'],
    [':',':',':'],
    {
      tag:'PERSON',
      content:
      [
        ['Ben','NNP','ben'],
        ['Westoby','NNP','westoby']
      ]
    },
    ['All','NNP','al'],
    ['we','PRP','we'],
    ['need','VBP','nee'],
    ['to','TO','to'],
    ['begin','VB','begin'],
    ['again','RB','again'],
    ['is','VBZ','be'],
    ['our','PRP$','our'],
    ['lives','NNS','lif'],
    ['(',':','('],
    ['detail','NN','detail'],
    [')',':',')'],
    ['2012','CD','2012'],
    ['27','CD','27'],
    ['15/16','CD','15/16'],
    ['x','NN','x'],
    ['21','CD','21'],
    ['1/16','CD','1/16'],
    ['x','NN','x'],
    ['23','CD','23'],
    ['1/16','CD','1/16'],
    ['in','IN','in'],
    ['.','.','.']
  ]
},
{
  tag:'S',
  content:
  [
    ['(','NN','('],
    ['71','CD','71'],
    ['x','NN','x'],
    ['53.5','CD','53.5'],
    ['x','NN','x'],
    ['58.5','CD','58.5'],
    ['cm','NN','cm'],
    [')',':',')'],
    {
      tag:'PERSON',
      content:
      [
        ['Porcelain','NNP','porcelain'],
        ['Veiled','NNP','veil']
      ]
    },
    ['and','CC','and'],
    {
      tag:'PERSON',
      content:
      [
        ['Masked','NNP','mask'],
        ['Dancer','NNP','dant']
      ]
    },
    ['2012','CD','2012'],
    ['27','CD','27'],
    ['3/16','CD','3/16'],
    ['x','NN','x'],
    ['15','CD','15'],
    ['3/8','CD','3/8'],
    ['x','NN','x'],
    ['19','CD','19'],
    ['11/16','CD','11/16'],
    ['in','IN','in'],
    ['.','.','.']
  ]
},
{
  tag:'S',
  content:
  [
    ['(','NN','('],
    ['69','CD','69'],
    ['x','NN','x'],
    ['39','CD','39'],
    ['x','NN','x'],
    ['50','CD','50'],
    ['cm','NN','cm'],
    [')',':',')'],
    ['PorcelainPhoto','NNP','porcelainphoto'],
    [':',':',':'],
    {
      tag:'PERSON',
      content:
      [
        ['Ben','NNP','ben'],
        ['Westoby','NNP','westoby'],
        ['Veiled','NNP','veil']
      ]
    },
    ['and','CC','and'],
    {
      tag:'PERSON',
      content:
      [
        ['Masked','NNP','mask'],
        ['Dancer','NNP','dant']
      ]
    },
    ['2012','CD','2012'],
    ['27','CD','27'],
    ['3/16','CD','3/16'],
    ['x','NN','x'],
    ['15','CD','15'],
    ['3/8','CD','3/8'],
    ['x','NN','x'],
    ['19','CD','19'],
    ['11/16','CD','11/16'],
    ['in','IN','in'],
    ['.','.','.']
  ]
},
{
  tag:'S',
  content:
  [
    ['(','NN','('],
    ['69','CD','69'],
    ['x','NN','x'],
    ['39','CD','39'],
    ['x','NN','x'],
    ['50','CD','50'],
    ['cm','NN','cm'],
    [')',':',')'],
    ['PorcelainPhoto','NNP','porcelainphoto'],
    [':',':',':'],
    {
      tag:'PERSON',
      content:
      [
        ['Ben','NNP','ben'],
        ['Westoby','NNP','westoby'],
        ['Veiled','NNP','veil']
      ]
    },
    ['and','CC','and'],
    {
      tag:'PERSON',
      content:
      [
        ['Masked','NNP','mask'],
        ['Dancer','NNP','dant']
      ]
    },
    ['(','NNP','('],
    ['detail','NN','detail'],
    [')',':',')'],
    ['2012','CD','2012'],
    ['27','CD','27'],
    ['3/16','CD','3/16'],
    ['x','NN','x'],
    ['15','CD','15'],
    ['3/8','CD','3/8'],
    ['x','NN','x'],
    ['19','CD','19'],
    ['11/16','CD','11/16'],
    ['in','IN','in'],
    ['.','.','.']
  ]
},
{
  tag:'S',
  content:
  [
    ['(','NN','('],
    ['69','CD','69'],
    ['x','NN','x'],
    ['39','CD','39'],
    ['x','NN','x'],
    ['50','CD','50'],
    ['cm','NN','cm'],
    [')',':',')'],
    ['PorcelainPhoto','NNP','porcelainphoto'],
    [':',':',':'],
    {
      tag:'PERSON',
      content:
      [
        ['Ben','NNP','ben'],
        ['Westoby','NNP','westoby']
      ]
    },
    ['Still','NNP','stil'],
    ['Life','NNP','lif'],
    ['Triptych','NNP','triptych'],
    ['2011','CD','2011'],
    ['24','CD','24'],
    ['7/16','CD','7/16'],
    ['x','NN','x'],
    ['57','CD','57'],
    ['1/16','CD','1/16'],
    ['x','NN','x'],
    ['18','CD','18'],
    ['1/2','CD','1/2'],
    ['in','IN','in'],
    ['.','.','.']
  ]
},
{
  tag:'S',
  content:
  [
    ['(','NN','('],
    ['62','CD','62'],
    ['x','NN','x'],
    ['145','CD','145'],
    ['x','NN','x'],
    ['47','CD','47'],
    ['cm','NN','cm'],
    [')',':',')'],
    ['PorcelainPhoto','NNP','porcelainphoto'],
    [':',':',':'],
    {
      tag:'PERSON',
      content:
      [
        ['Stephen','NNP','steph']
      ]
    },
    {
      tag:'FACILITY',
      content:
      [
        ['White','NNP','whit'],
        ['Still','NNP','stil'],
        ['Life','NNP','lif'],
        ['Triptych','NNP','triptych']
      ]
    },
    ['(','NNP','('],
    ['detail','NN','detail'],
    [')',':',')'],
    ['2011','CD','2011'],
    ['24','CD','24'],
    ['7/16','CD','7/16'],
    ['x','NN','x'],
    ['57','CD','57'],
    ['1/16','CD','1/16'],
    ['x','NN','x'],
    ['18','CD','18'],
    ['1/2','CD','1/2'],
    ['in','IN','in'],
    ['.','.','.']
  ]
},
{
  tag:'S',
  content:
  [
    ['(','NN','('],
    ['62','CD','62'],
    ['x','NN','x'],
    ['145','CD','145'],
    ['x','NN','x'],
    ['47','CD','47'],
    ['cm','NN','cm'],
    [')',':',')'],
    ['PorcelainPhoto','NNP','porcelainphoto'],
    [':',':',':'],
    {
      tag:'PERSON',
      content:
      [
        ['Stephen','NNP','steph']
      ]
    },
    {
      tag:'FACILITY',
      content:
      [
        ['White','NNP','whit'],
        ['Still','NNP','stil'],
        ['Life','NNP','lif'],
        ['Triptych','NNP','triptych']
      ]
    },
    ['(','NNP','('],
    ['detail','NN','detail'],
    [')',':',')'],
    ['2011','CD','2011'],
    ['24','CD','24'],
    ['7/16','CD','7/16'],
    ['x','NN','x'],
    ['57','CD','57'],
    ['1/16','CD','1/16'],
    ['x','NN','x'],
    ['18','CD','18'],
    ['1/2','CD','1/2'],
    ['in','IN','in'],
    ['.','.','.']
  ]
},
{
  tag:'S',
  content:
  [
    ['(','NN','('],
    ['62','CD','62'],
    ['x','NN','x'],
    ['145','CD','145'],
    ['x','NN','x'],
    ['47','CD','47'],
    ['cm','NN','cm'],
    [')',':',')'],
    ['PorcelainPhoto','NNP','porcelainphoto'],
    [':',':',':'],
    {
      tag:'PERSON',
      content:
      [
        ['Stephen','NNP','steph']
      ]
    },
    {
      tag:'FACILITY',
      content:
      [
        ['White','NNP','whit'],
        ['Still','NNP','stil'],
        ['Life','NNP','lif'],
        ['Triptych','NNP','triptych']
      ]
    },
    ['(','NNP','('],
    ['detail','NN','detail'],
    [')',':',')'],
    ['2011','CD','2011'],
    ['24','CD','24'],
    ['7/16','CD','7/16'],
    ['x','NN','x'],
    ['57','CD','57'],
    ['1/16','CD','1/16'],
    ['x','NN','x'],
    ['18','CD','18'],
    ['1/2','CD','1/2'],
    ['in','IN','in'],
    ['.','.','.']
  ]
},
{
  tag:'S',
  content:
  [
    ['(','NN','('],
    ['62','CD','62'],
    ['x','NN','x'],
    ['145','CD','145'],
    ['x','NN','x'],
    ['47','CD','47'],
    ['cm','NN','cm'],
    [')',':',')'],
    ['PorcelainPhoto','NNP','porcelainphoto'],
    [':',':',':'],
    {
      tag:'PERSON',
      content:
      [
        ['Stephen','NNP','steph']
      ]
    },
    {
      tag:'FACILITY',
      content:
      [
        ['White','NNP','whit'],
        ['Still','NNP','stil'],
        ['Life','NNP','lif'],
        ['Triptych','NNP','triptych']
      ]
    },
    ['(','NNP','('],
    ['detail','NN','detail'],
    [')',':',')'],
    ['2011','CD','2011'],
    ['24','CD','24'],
    ['7/16','CD','7/16'],
    ['x','NN','x'],
    ['57','CD','57'],
    ['1/16','CD','1/16'],
    ['x','NN','x'],
    ['18','CD','18'],
    ['1/2','CD','1/2'],
    ['in','IN','in'],
    ['.','.','.']
  ]
},
{
  tag:'S',
  content:
  [
    ['(','NN','('],
    ['62','CD','62'],
    ['x','NN','x'],
    ['145','CD','145'],
    ['x','NN','x'],
    ['47','CD','47'],
    ['cm','NN','cm'],
    [')',':',')'],
    ['PorcelainPhoto','NNP','porcelainphoto'],
    [':',':',':'],
    {
      tag:'PERSON',
      content:
      [
        ['Stephen','NNP','steph']
      ]
    },
    {
      tag:'FACILITY',
      content:
      [
        ['White','NNP','whit']
      ]
    },
    ['The','NNP','the'],
    ['black','NN','black'],
    ['shadow','NN','shadow'],
    ['projected','VBD','project'],
    ['on','IN','on'],
    ['me','PRP','me'],
    ['appeared','VBD','appear'],
    ['to','TO','to'],
    ['elect','VB','elect'],
    ['it','PRP','it'],
    [''s','VBZ',''s'],
    ['prey','NN','prey'],
    ['2012','CD','2012'],
    ['27','CD','27'],
    ['3/16','CD','3/16'],
    ['x','NN','x'],
    ['16','CD','16'],
    ['3/4','CD','3/4'],
    ['in','IN','in'],
    ['.','.','.']
  ]
},
{
  tag:'S',
  content:
  [
    ['(','NN','('],
    ['69','CD','69'],
    ['x','NN','x'],
    ['42.5','CD','42.5'],
    ['cm','NN','cm'],
    [')',':',')'],
    ['PorcelainPhoto','NNP','porcelainphoto'],
    [':',':',':'],
    {
      tag:'PERSON',
      content:
      [
        ['Ben','NNP','ben'],
        ['Westoby','NNP','westoby']
      ]
    },
    ['The','NNP','the'],
    ['black','NN','black'],
    ['shadow','NN','shadow'],
    ['projected','VBD','project'],
    ['on','IN','on'],
    ['me','PRP','me'],
    ['appeared','VBD','appear'],
    ['to','TO','to'],
    ['elect','VB','elect'],
    ['it','PRP','it'],
    [''s','VBZ',''s'],
    ['prey','NN','prey'],
    ['2012','CD','2012'],
    ['27','CD','27'],
    ['3/16','CD','3/16'],
    ['x','NN','x'],
    ['16','CD','16'],
    ['3/4','CD','3/4'],
    ['in','IN','in'],
    ['.','.','.']
  ]
},
{
  tag:'S',
  content:
  [
    ['(','NN','('],
    ['69','CD','69'],
    ['x','NN','x'],
    ['42.5','CD','42.5'],
    ['cm','NN','cm'],
    [')',':',')'],
    ['PorcelainPhoto','NNP','porcelainphoto'],
    [':',':',':'],
    {
      tag:'PERSON',
      content:
      [
        ['Ben','NNP','ben'],
        ['Westoby','NNP','westoby']
      ]
    },
    ['The','NNP','the'],
    ['black','NN','black'],
    ['shadow','NN','shadow'],
    ['projected','VBD','project'],
    ['on','IN','on'],
    ['me','PRP','me'],
    ['appeared','VBD','appear'],
    ['to','TO','to'],
    ['elect','VB','elect'],
    ['it','PRP','it'],
    [''s','VBZ',''s'],
    ['prey','NN','prey'],
    ['(',':','('],
    ['detail','NN','detail'],
    [')',':',')'],
    ['2012','CD','2012'],
    ['27','CD','27'],
    ['3/16','CD','3/16'],
    ['x','NN','x'],
    ['16','CD','16'],
    ['3/4','CD','3/4'],
    ['in','IN','in'],
    ['.','.','.']
  ]
},
{
  tag:'S',
  content:
  [
    ['(','NN','('],
    ['69','CD','69'],
    ['x','NN','x'],
    ['42.5','CD','42.5'],
    ['cm','NN','cm'],
    [')',':',')'],
    {
      tag:'PERSON',
      content:
      [
        ['Porcelain','NNP','porcelain'],
        ['For','NNP','for'],
        ['Beauty','NNP','beauty']
      ]
    },
    [''s','POS',''s'],
    ['nothing','NN','noth'],
    ['but','CC','but'],
    ['beginning','NN','begin'],
    ['of','IN','of'],
    ['Terror','NNP','ter'],
    ['we','PRP','we'],
    [''re','VBP',''re'],
    ['still','RB','stil'],
    ['just','RB','just'],
    ['able','JJ','abl'],
    ['to','TO','to'],
    ['bear','VB','bear'],
    ['2011','CD','2011'],
    ['57','CD','57'],
    ['1/2','CD','1/2'],
    ['x','NN','x'],
    ['22','CD','22'],
    ['13/16','CD','13/16'],
    ['x','NN','x'],
    ['24','CD','24'],
    ['13/16','CD','13/16'],
    ['in','IN','in'],
    ['.','.','.']
  ]
},
{
  tag:'S',
  content:
  [
    ['(','NN','('],
    ['146','CD','146'],
    ['x','NN','x'],
    ['58','CD','58'],
    ['x','NN','x'],
    ['63','CD','63'],
    ['cm','NN','cm'],
    [')',':',')'],
    ['PorcelainPhoto','NNP','porcelainphoto'],
    [':',':',':'],
    {
      tag:'PERSON',
      content:
      [
        ['Stephen','NNP','steph']
      ]
    },
    {
      tag:'FACILITY',
      content:
      [
        ['White','NNP','whit'],
        ['For','NNP','for'],
        ['Beauty','NNP','beauty']
      ]
    },
    [''s','POS',''s'],
    ['nothing','NN','noth'],
    ['but','CC','but'],
    ['beginning','NN','begin'],
    ['of','IN','of'],
    ['Terror','NNP','ter'],
    ['we','PRP','we'],
    [''re','VBP',''re'],
    ['still','RB','stil'],
    ['just','RB','just'],
    ['able','JJ','abl'],
    ['to','TO','to'],
    ['bear','VB','bear'],
    ['2011','CD','2011'],
    ['57','CD','57'],
    ['1/2','CD','1/2'],
    ['x','NN','x'],
    ['22','CD','22'],
    ['13/16','CD','13/16'],
    ['x','NN','x'],
    ['24','CD','24'],
    ['13/16','CD','13/16'],
    ['in','IN','in'],
    ['.','.','.']
  ]
},
{
  tag:'S',
  content:
  [
    ['(','NN','('],
    ['146','CD','146'],
    ['x','NN','x'],
    ['58','CD','58'],
    ['x','NN','x'],
    ['63','CD','63'],
    ['cm','NN','cm'],
    [')',':',')'],
    ['PorcelainPhoto','NNP','porcelainphoto'],
    [':',':',':'],
    {
      tag:'PERSON',
      content:
      [
        ['Stephen','NNP','steph']
      ]
    },
    {
      tag:'FACILITY',
      content:
      [
        ['White','NNP','whit'],
        ['For','NNP','for'],
        ['Beauty','NNP','beauty']
      ]
    },
    [''s','POS',''s'],
    ['nothing','NN','noth'],
    ['but','CC','but'],
    ['beginning','NN','begin'],
    ['of','IN','of'],
    ['Terror','NNP','ter'],
    ['we','PRP','we'],
    [''re','VBP',''re'],
    ['still','RB','stil'],
    ['just','RB','just'],
    ['able','JJ','abl'],
    ['to','TO','to'],
    ['bear','VB','bear'],
    ['(',':','('],
    ['detail','NN','detail'],
    [')',':',')'],
    ['2011','CD','2011'],
    ['57','CD','57'],
    ['1/2','CD','1/2'],
    ['x','NN','x'],
    ['22','CD','22'],
    ['13/16','CD','13/16'],
    ['x','NN','x'],
    ['24','CD','24'],
    ['13/16','CD','13/16'],
    ['in','IN','in'],
    ['.','.','.']
  ]
},
{
  tag:'S',
  content:
  [
    ['(','NN','('],
    ['146','CD','146'],
    ['x','NN','x'],
    ['58','CD','58'],
    ['x','NN','x'],
    ['63','CD','63'],
    ['cm','NN','cm'],
    [')',':',')'],
    ['PorcelainPhoto','NNP','porcelainphoto'],
    [':',':',':'],
    {
      tag:'PERSON',
      content:
      [
        ['Stephen','NNP','steph']
      ]
    },
    {
      tag:'FACILITY',
      content:
      [
        ['White','NNP','whit'],
        ['For','NNP','for'],
        ['Beauty','NNP','beauty']
      ]
    },
    [''s','POS',''s'],
    ['nothing','NN','noth'],
    ['but','CC','but'],
    ['beginning','NN','begin'],
    ['of','IN','of'],
    ['Terror','NNP','ter'],
    ['we','PRP','we'],
    [''re','VBP',''re'],
    ['still','RB','stil'],
    ['just','RB','just'],
    ['able','JJ','abl'],
    ['to','TO','to'],
    ['bear','VB','bear'],
    ['(',':','('],
    ['detail','NN','detail'],
    [')',':',')'],
    ['2011','CD','2011'],
    ['57','CD','57'],
    ['1/2','CD','1/2'],
    ['x','NN','x'],
    ['22','CD','22'],
    ['13/16','CD','13/16'],
    ['x','NN','x'],
    ['24','CD','24'],
    ['13/16','CD','13/16'],
    ['in','IN','in'],
    ['.','.','.']
  ]
},
{
  tag:'S',
  content:
  [
    ['(','NN','('],
    ['146','CD','146'],
    ['x','NN','x'],
    ['58','CD','58'],
    ['x','NN','x'],
    ['63','CD','63'],
    ['cm','NN','cm'],
    [')',':',')'],
    ['PorcelainPhoto','NNP','porcelainphoto'],
    [':',':',':'],
    {
      tag:'PERSON',
      content:
      [
        ['Stephen','NNP','steph']
      ]
    },
    {
      tag:'FACILITY',
      content:
      [
        ['White','NNP','whit'],
        ['The','NNP','the'],
        ['Paradise','NNP','parad']
      ]
    },
    ['of','IN','of'],
    ['Despair','NNP','despair'],
    ['2011','CD','2011'],
    ['37','CD','37'],
    ['3/8','CD','3/8'],
    ['x','NN','x'],
    ['23','CD','23'],
    ['5/8','CD','5/8'],
    ['x','NN','x'],
    ['24','CD','24'],
    ['7/16','CD','7/16'],
    ['in','IN','in'],
    ['.','.','.']
  ]
},
{
  tag:'S',
  content:
  [
    ['(','NN','('],
    ['95','CD','95'],
    ['x','NN','x'],
    ['60','CD','60'],
    ['x','NN','x'],
    ['62','CD','62'],
    ['cm','NN','cm'],
    [')',':',')'],
    ['PorcelainPhoto','NNP','porcelainphoto'],
    [':',':',':'],
    {
      tag:'PERSON',
      content:
      [
        ['Stephen','NNP','steph']
      ]
    },
    {
      tag:'FACILITY',
      content:
      [
        ['White','NNP','whit'],
        ['The','NNP','the'],
        ['Paradise','NNP','parad']
      ]
    },
    ['of','IN','of'],
    ['Despair','NNP','despair'],
    ['2011','CD','2011'],
    ['37','CD','37'],
    ['3/8','CD','3/8'],
    ['x','NN','x'],
    ['23','CD','23'],
    ['5/8','CD','5/8'],
    ['x','NN','x'],
    ['24','CD','24'],
    ['7/16','CD','7/16'],
    ['in','IN','in'],
    ['.','.','.']
  ]
},
{
  tag:'S',
  content:
  [
    ['(','NN','('],
    ['95','CD','95'],
    ['x','NN','x'],
    ['60','CD','60'],
    ['x','NN','x'],
    ['62','CD','62'],
    ['cm','NN','cm'],
    [')',':',')'],
    ['PorcelainPhoto','NNP','porcelainphoto'],
    [':',':',':'],
    {
      tag:'PERSON',
      content:
      [
        ['Stephen','NNP','steph']
      ]
    },
    {
      tag:'FACILITY',
      content:
      [
        ['White','NNP','whit'],
        ['The','NNP','the'],
        ['Paradise','NNP','parad']
      ]
    },
    ['of','IN','of'],
    {
      tag:'GPE',
      content:
      [
        ['Despair','NNP','despair']
      ]
    },
    ['(','NNP','('],
    ['detail','NN','detail'],
    [')',':',')'],
    ['2011','CD','2011'],
    ['37','CD','37'],
    ['3/8','CD','3/8'],
    ['x','NN','x'],
    ['23','CD','23'],
    ['5/8','CD','5/8'],
    ['x','NN','x'],
    ['24','CD','24'],
    ['7/16','CD','7/16'],
    ['in','IN','in'],
    ['.','.','.']
  ]
},
{
  tag:'S',
  content:
  [
    ['(','NN','('],
    ['95','CD','95'],
    ['x','NN','x'],
    ['60','CD','60'],
    ['x','NN','x'],
    ['62','CD','62'],
    ['cm','NN','cm'],
    [')',':',')'],
    ['PorcelainPhoto','NNP','porcelainphoto'],
    [':',':',':'],
    {
      tag:'PERSON',
      content:
      [
        ['Stephen','NNP','steph']
      ]
    },
    {
      tag:'FACILITY',
      content:
      [
        ['White','NNP','whit'],
        ['The','NNP','the'],
        ['Paradise','NNP','parad']
      ]
    },
    ['of','IN','of'],
    {
      tag:'GPE',
      content:
      [
        ['Despair','NNP','despair']
      ]
    },
    ['(','NNP','('],
    ['detail','NN','detail'],
    [')',':',')'],
    ['2011','CD','2011'],
    ['37','CD','37'],
    ['3/8','CD','3/8'],
    ['x','NN','x'],
    ['23','CD','23'],
    ['5/8','CD','5/8'],
    ['x','NN','x'],
    ['24','CD','24'],
    ['7/16','CD','7/16'],
    ['in','IN','in'],
    ['.','.','.']
  ]
},
{
  tag:'S',
  content:
  [
    ['(','NN','('],
    ['95','CD','95'],
    ['x','NN','x'],
    ['60','CD','60'],
    ['x','NN','x'],
    ['62','CD','62'],
    ['cm','NN','cm'],
    [')',':',')'],
    ['PorcelainPhoto','NNP','porcelainphoto'],
    [':',':',':'],
    {
      tag:'PERSON',
      content:
      [
        ['Stephen','NNP','steph']
      ]
    },
    {
      tag:'FACILITY',
      content:
      [
        ['White','NNP','whit']
      ]
    },
    ['At','NNP','at'],
    ['the','DT','the'],
    ['edge','NN','edg'],
    ['of','IN','of'],
    ['dawn','NN','dawn'],
    ['and','CC','and'],
    ['darkness','NN','dark'],
    ['2009','CD','2009'],
    ['Height','NNP','height'],
    [':',':',':'],
    ['22','CD','22'],
    ['1/2','CD','1/2'],
    ['x','NN','x'],
    ['20','CD','20'],
    ['1/16','CD','1/16'],
    ['in','IN','in'],
    ['.','.','.']
  ]
},
{
  tag:'S',
  content:
  [
    ['(','NN','('],
    {
      tag:'PERSON',
      content:
      [
        ['Height','NNP','height']
      ]
    },
    [':',':',':'],
    ['57.2','CD','57.2'],
    ['x','NN','x'],
    ['51','CD','51'],
    ['cm','NN','cm'],
    [')',':',')'],
    ['PorcelainPhoto','NNP','porcelainphoto'],
    [':',':',':'],
    {
      tag:'PERSON',
      content:
      [
        ['Stephen','NNP','steph']
      ]
    },
    {
      tag:'FACILITY',
      content:
      [
        ['White','NNP','whit']
      ]
    },
    ['At','NNP','at'],
    ['the','DT','the'],
    ['edge','NN','edg'],
    ['of','IN','of'],
    ['dawn','NN','dawn'],
    ['and','CC','and'],
    ['darkness','NN','dark'],
    ['2009','CD','2009'],
    ['Height','NNP','height'],
    [':',':',':'],
    ['22','CD','22'],
    ['1/2','CD','1/2'],
    ['x','NN','x'],
    ['20','CD','20'],
    ['1/16','CD','1/16'],
    ['in','IN','in'],
    ['.','.','.']
  ]
},
{
  tag:'S',
  content:
  [
    ['(','NN','('],
    {
      tag:'PERSON',
      content:
      [
        ['Height','NNP','height']
      ]
    },
    [':',':',':'],
    ['57.2','CD','57.2'],
    ['x','NN','x'],
    ['51','CD','51'],
    ['cm','NN','cm'],
    [')',':',')'],
    ['PorcelainPhoto','NNP','porcelainphoto'],
    [':',':',':'],
    {
      tag:'PERSON',
      content:
      [
        ['Stephen','NNP','steph']
      ]
    },
    {
      tag:'FACILITY',
      content:
      [
        ['White','NNP','whit']
      ]
    },
    ['At','NNP','at'],
    ['the','DT','the'],
    ['edge','NN','edg'],
    ['of','IN','of'],
    ['dawn','NN','dawn'],
    ['and','CC','and'],
    ['darkness','NN','dark'],
    ['(',':','('],
    ['detail','NN','detail'],
    [')',':',')'],
    ['2009','CD','2009'],
    ['Height','NNP','height'],
    [':',':',':'],
    ['22','CD','22'],
    ['1/2','CD','1/2'],
    ['x','NN','x'],
    ['20','CD','20'],
    ['1/16','CD','1/16'],
    ['in','IN','in'],
    ['.','.','.']
  ]
},
{
  tag:'S',
  content:
  [
    ['(','NN','('],
    {
      tag:'PERSON',
      content:
      [
        ['Height','NNP','height']
      ]
    },
    [':',':',':'],
    ['57.2','CD','57.2'],
    ['x','NN','x'],
    ['51','CD','51'],
    ['cm','NN','cm'],
    [')',':',')'],
    ['PorcelainPhoto','NNP','porcelainphoto'],
    [':',':',':'],
    {
      tag:'PERSON',
      content:
      [
        ['Stephen','NNP','steph']
      ]
    },
    {
      tag:'FACILITY',
      content:
      [
        ['White','NNP','whit']
      ]
    },
    ['At','NNP','at'],
    ['the','DT','the'],
    ['edge','NN','edg'],
    ['of','IN','of'],
    ['dawn','NN','dawn'],
    ['and','CC','and'],
    ['darkness','NN','dark'],
    ['(',':','('],
    ['detail','NN','detail'],
    [')',':',')'],
    ['2009','CD','2009'],
    ['Height','NNP','height'],
    [':',':',':'],
    ['22','CD','22'],
    ['1/2','CD','1/2'],
    ['x','NN','x'],
    ['20','CD','20'],
    ['1/16','CD','1/16'],
    ['in','IN','in'],
    ['.','.','.']
  ]
},
{
  tag:'S',
  content:
  [
    ['(','NN','('],
    {
      tag:'PERSON',
      content:
      [
        ['Height','NNP','height']
      ]
    },
    [':',':',':'],
    ['57.2','CD','57.2'],
    ['x','NN','x'],
    ['51','CD','51'],
    ['cm','NN','cm'],
    [')',':',')'],
    ['PorcelainPhoto','NNP','porcelainphoto'],
    [':',':',':'],
    {
      tag:'PERSON',
      content:
      [
        ['Stephen','NNP','steph']
      ]
    },
    {
      tag:'FACILITY',
      content:
      [
        ['White','NNP','whit'],
        ['As','NNP','as']
      ]
    },
    ['long','RB','long'],
    ['as','IN','as'],
    ['I','PRP','I'],
    ['hope','VBP','hop'],
    ['my','PRP$','my'],
    ['phantoms','NNS','phantom'],
    ['will','MD','will'],
    ['vanish','VB','van'],
    ['2008','CD','2008'],
    ['11','CD','11'],
    ['7/16','CD','7/16'],
    ['x','NN','x'],
    ['18','CD','18'],
    ['11/16','CD','11/16'],
    ['x','NN','x'],
    ['18','CD','18'],
    ['11/16','CD','11/16'],
    ['in','IN','in'],
    ['.','.','.']
  ]
},
{
  tag:'S',
  content:
  [
    ['(','NN','('],
    ['29','CD','29'],
    ['x','NN','x'],
    ['47.5','CD','47.5'],
    ['x','NN','x'],
    ['47.5','CD','47.5'],
    ['cm','NN','cm'],
    [')',':',')'],
    ['PorcelainPhoto','NNP','porcelainphoto'],
    [':',':',':'],
    {
      tag:'PERSON',
      content:
      [
        ['Stephen','NNP','steph']
      ]
    },
    {
      tag:'FACILITY',
      content:
      [
        ['White','NNP','whit'],
        ['As','NNP','as']
      ]
    },
    ['long','RB','long'],
    ['as','IN','as'],
    ['I','PRP','I'],
    ['hope','VBP','hop'],
    ['my','PRP$','my'],
    ['phantoms','NNS','phantom'],
    ['will','MD','will'],
    ['vanish','VB','van'],
    ['2008','CD','2008'],
    ['11','CD','11'],
    ['7/16','CD','7/16'],
    ['x','NN','x'],
    ['18','CD','18'],
    ['11/16','CD','11/16'],
    ['x','NN','x'],
    ['18','CD','18'],
    ['11/16','CD','11/16'],
    ['in','IN','in'],
    ['.','.','.']
  ]
},
{
  tag:'S',
  content:
  [
    ['(','NN','('],
    ['29','CD','29'],
    ['x','NN','x'],
    ['47.5','CD','47.5'],
    ['x','NN','x'],
    ['47.5','CD','47.5'],
    ['cm','NN','cm'],
    [')',':',')'],
    ['PorcelainPhoto','NNP','porcelainphoto'],
    [':',':',':'],
    {
      tag:'PERSON',
      content:
      [
        ['Stephen','NNP','steph']
      ]
    },
    {
      tag:'FACILITY',
      content:
      [
        ['White','NNP','whit'],
        ['As','NNP','as']
      ]
    },
    ['long','RB','long'],
    ['as','IN','as'],
    ['I','PRP','I'],
    ['hope','VBP','hop'],
    ['my','PRP$','my'],
    ['phantoms','NNS','phantom'],
    ['will','MD','will'],
    ['vanish','VB','van'],
    ['(',':','('],
    ['detail','NN','detail'],
    [')',':',')'],
    ['2008','CD','2008'],
    ['11','CD','11'],
    ['7/16','CD','7/16'],
    ['x','NN','x'],
    ['18','CD','18'],
    ['11/16','CD','11/16'],
    ['x','NN','x'],
    ['18','CD','18'],
    ['11/16','CD','11/16'],
    ['in','IN','in'],
    ['.','.','.']
  ]
},
{
  tag:'S',
  content:
  [
    ['(','NN','('],
    ['29','CD','29'],
    ['x','NN','x'],
    ['47.5','CD','47.5'],
    ['x','NN','x'],
    ['47.5','CD','47.5'],
    ['cm','NN','cm'],
    [')',':',')'],
    ['PorcelainPhoto','NNP','porcelainphoto'],
    [':',':',':'],
    {
      tag:'PERSON',
      content:
      [
        ['Stephen','NNP','steph']
      ]
    },
    {
      tag:'FACILITY',
      content:
      [
        ['White','NNP','whit'],
        ['Bewitching','NNP','bewitch'],
        ['Balls','NNP','bal']
      ]
    },
    ['Triptych','NNP','triptych'],
    ['2011','CD','2011'],
    ['14','CD','14'],
    ['3/16','CD','3/16'],
    ['x','NN','x'],
    ['27','CD','27'],
    ['15/16','CD','15/16'],
    ['x','NN','x'],
    ['9','CD','9'],
    ['1/4','CD','1/4'],
    ['in','IN','in'],
    ['.','.','.']
  ]
},
{
  tag:'S',
  content:
  [
    ['(','NN','('],
    ['36','CD','36'],
    ['x','NN','x'],
    ['71','CD','71'],
    ['x','NN','x'],
    ['23.5','CD','23.5'],
    ['cm','NN','cm'],
    [')',':',')'],
    ['PorcelainPhoto','NNP','porcelainphoto'],
    [':',':',':'],
    {
      tag:'PERSON',
      content:
      [
        ['Stephen','NNP','steph']
      ]
    },
    {
      tag:'FACILITY',
      content:
      [
        ['White','NNP','whit'],
        ['Bewitching','NNP','bewitch'],
        ['Balls','NNP','bal'],
        ['Triptych','NNP','triptych']
      ]
    },
    ['(','NNP','('],
    ['detail','NN','detail'],
    [')',':',')'],
    ['2011','CD','2011'],
    ['14','CD','14'],
    ['3/16','CD','3/16'],
    ['x','NN','x'],
    ['27','CD','27'],
    ['15/16','CD','15/16'],
    ['x','NN','x'],
    ['9','CD','9'],
    ['1/4','CD','1/4'],
    ['in','IN','in'],
    ['.','.','.']
  ]
},
{
  tag:'S',
  content:
  [
    ['(','NN','('],
    ['36','CD','36'],
    ['x','NN','x'],
    ['71','CD','71'],
    ['x','NN','x'],
    ['23.5','CD','23.5'],
    ['cm','NN','cm'],
    [')',':',')'],
    ['PorcelainPhoto','NNP','porcelainphoto'],
    [':',':',':'],
    {
      tag:'PERSON',
      content:
      [
        ['Stephen','NNP','steph']
      ]
    },
    {
      tag:'FACILITY',
      content:
      [
        ['White','NNP','whit'],
        ['Bewitching','NNP','bewitch'],
        ['Balls','NNP','bal'],
        ['Triptych','NNP','triptych']
      ]
    },
    ['(','NNP','('],
    ['detail','NN','detail'],
    [')',':',')'],
    ['2011','CD','2011'],
    ['14','CD','14'],
    ['3/16','CD','3/16'],
    ['x','NN','x'],
    ['27','CD','27'],
    ['15/16','CD','15/16'],
    ['x','NN','x'],
    ['9','CD','9'],
    ['1/4','CD','1/4'],
    ['in','IN','in'],
    ['.','.','.']
  ]
},
{
  tag:'S',
  content:
  [
    ['(','NN','('],
    ['36','CD','36'],
    ['x','NN','x'],
    ['71','CD','71'],
    ['x','NN','x'],
    ['23.5','CD','23.5'],
    ['cm','NN','cm'],
    [')',':',')'],
    ['PorcelainPhoto','NNP','porcelainphoto'],
    [':',':',':'],
    {
      tag:'PERSON',
      content:
      [
        ['Stephen','NNP','steph']
      ]
    },
    {
      tag:'FACILITY',
      content:
      [
        ['White','NNP','whit'],
        ['Stations','NNP','stat']
      ]
    },
    ['2007','CD','2007'],
    ['Dimensions','NNS','dimend'],
    ['variable','JJ','vary'],
    ['PorcelainPhoto','NNP','porcelainphoto'],
    [':',':',':'],
    {
      tag:'PERSON',
      content:
      [
        ['Stephen','NNP','steph']
      ]
    },
    {
      tag:'FACILITY',
      content:
      [
        ['White','NNP','whit'],
        ['Stations','NNP','stat']
      ]
    },
    ['(','NNP','('],
    ['detail','NN','detail'],
    [')',':',')'],
    ['2007','CD','2007'],
    ['Dimensions','NNS','dimend'],
    ['variable','JJ','vary'],
    ['PorcelainPhoto','NNP','porcelainphoto'],
    [':',':',':'],
    {
      tag:'PERSON',
      content:
      [
        ['Stephen','NNP','steph']
      ]
    },
    {
      tag:'FACILITY',
      content:
      [
        ['White','NNP','whit'],
        ['Stations','NNP','stat']
      ]
    },
    ['(','NNP','('],
    ['detail','NN','detail'],
    [')',':',')'],
    ['2007','CD','2007'],
    ['Dimensions','NNS','dimend'],
    ['variable','JJ','vary'],
    ['PorcelainPhoto','NNP','porcelainphoto'],
    [':',':',':'],
    {
      tag:'PERSON',
      content:
      [
        ['Stephen','NNP','steph']
      ]
    },
    {
      tag:'FACILITY',
      content:
      [
        ['White','NNP','whit'],
        ['Stations','NNP','stat']
      ]
    },
    ['(','NNP','('],
    ['detail','NN','detail'],
    [')',':',')'],
    ['2007','CD','2007'],
    ['Dimensions','NNS','dimend'],
    ['variable','JJ','vary'],
    ['PorcelainPhoto','NNP','porcelainphoto'],
    [':',':',':'],
    {
      tag:'PERSON',
      content:
      [
        ['Stephen','NNP','steph']
      ]
    },
    {
      tag:'FACILITY',
      content:
      [
        ['White','NNP','whit'],
        ['Stations','NNP','stat']
      ]
    },
    ['(','NNP','('],
    ['detail','NN','detail'],
    [')',':',')'],
    ['2007','CD','2007'],
    ['Dimensions','NNS','dimend'],
    ['variable','JJ','vary'],
    ['PorcelainPhoto','NNP','porcelainphoto'],
    [':',':',':'],
    {
      tag:'PERSON',
      content:
      [
        ['Stephen','NNP','steph']
      ]
    },
    {
      tag:'FACILITY',
      content:
      [
        ['White','NNP','whit'],
        ['Stations','NNP','stat']
      ]
    },
    ['(','NNP','('],
    ['detail','NN','detail'],
    [')',':',')'],
    ['2007','CD','2007'],
    ['Dimensions','NNS','dimend'],
    ['variable','JJ','vary'],
    ['PorcelainPhoto','NNP','porcelainphoto'],
    [':',':',':'],
    {
      tag:'PERSON',
      content:
      [
        ['Stephen','NNP','steph']
      ]
    },
    {
      tag:'FACILITY',
      content:
      [
        ['White','NNP','whit'],
        ['Stations','NNP','stat']
      ]
    },
    ['(','NNP','('],
    ['detail','NN','detail'],
    [')',':',')'],
    ['2007','CD','2007'],
    ['Dimensions','NNS','dimend'],
    ['variable','JJ','vary'],
    ['PorcelainPhoto','NNP','porcelainphoto'],
    [':',':',':'],
    {
      tag:'PERSON',
      content:
      [
        ['Stephen','NNP','steph']
      ]
    },
    {
      tag:'FACILITY',
      content:
      [
        ['White','NNP','whit'],
        ['Stations','NNP','stat']
      ]
    },
    ['(','NNP','('],
    ['detail','NN','detail'],
    [')',':',')'],
    ['2007','CD','2007'],
    ['Dimensions','NNS','dimend'],
    ['variable','JJ','vary'],
    ['PorcelainPhoto','NNP','porcelainphoto'],
    [':',':',':'],
    {
      tag:'PERSON',
      content:
      [
        ['Stephen','NNP','steph'],
        ['White','NNP','whit']
      ]
    }
  ]
}]