[
{
  tag:'S',
  content:
  [
    {
      tag:'GPE',
      content:
      [
        ['Log','NNP','log']
      ]
    },
    ['In','IN','In'],
    ['Register','NNP','reg'],
    ['Now','NNP','now'],
    ['Help','NNP','help'],
    ['Home','NNP','hom'],
    ['Page','NNP','pag'],
    ['Today','NNP','today'],
    [''s','POS',''s'],
    {
      tag:'PERSON',
      content:
      [
        ['Paper','NNP','pap'],
        ['Video','NNP','video'],
        ['Most','NNP','most'],
        ['Popular','NNP','popul']
      ]
    },
    ['Edition','NNP','edit'],
    [':',':',':'],
    {
      tag:'GPE',
      content:
      [
        ['U.S.','NNP','u.s.']
      ]
    },
    ['/',':','/'],
    {
      tag:'PERSON',
      content:
      [
        ['Global','NNP','glob'],
        ['Search','NNP','search'],
        ['All','NNP','al']
      ]
    },
    ['NYTimes.com','NNP','nytimes.com'],
    ['Sunday','NNP','sunday'],
    ['Book','NNP','book'],
    ['Review','NNP','review'],
    ['World','NNP','world'],
    {
      tag:'GPE',
      content:
      [
        ['U.S.','NNP','u.s.']
      ]
    },
    ['N.Y.','NNP','n.y.'],
    ['/','NNP','/'],
    ['Region','NNP','reg'],
    ['Business','NNP','busy'],
    ['Technology','NNP','technolog'],
    ['Science','NNP','sci'],
    ['Health','NNP','heal'],
    ['Sports','NNP','sport'],
    ['Opinion','NNP','opin'],
    ['Arts','NNP','art'],
    ['Art','NNP','art'],
    ['&','CC','&'],
    ['DesignBooksSunday','NNP','designbookssunday'],
    ['Book','NNP','book'],
    ['ReviewBest','NNP','reviewbest'],
    ['SellersDanceMoviesMusicTelevisionTheaterVideo','NNP','sellersdancemoviesmusictelevisiontheatervideo'],
    ['GamesEvents','NNP','gamesev'],
    ['Style','NNP','styl'],
    {
      tag:'PERSON',
      content:
      [
        ['Travel','NNP','travel'],
        ['Jobs','NNP','job'],
        ['Real','NNP','real'],
        ['Estate','NNP','est'],
        ['Autos','NNP','auto'],
        ['On','NNP','on'],
        ['Poetry','NNP','poetry'],
        ['Flying','NNP','fly'],
        ['On','NNP','on']
      ]
    },
    ['in','IN','in'],
    ['the','DT','the'],
    {
      tag:'ORGANIZATION',
      content:
      [
        ['Reflected','NNP','reflect']
      ]
    },
    ['SkyVladimir','NNP','skyvladimir'],
    ['Nabokov’s','NNP','nabokov’s'],
    ['‘Selected','NNP','‘selected'],
    ['Poems’','NNP','poems’'],
    ['and','CC','and'],
    ['‘Pale','JJ','‘pale'],
    ['Fire’','NN','fire’'],
    ['By','IN','By'],
    {
      tag:'ORGANIZATION',
      content:
      [
        ['DAVID','NNP','david']
      ]
    },
    ['ORR','NNP','or'],
    ['Published','NNP','publ'],
    [':',':',':'],
    ['July','NNP','july'],
    ['20','CD','20'],
    [',',',',','],
    ['2012','CD','2012'],
    ['The','DT','The'],
    ['club','NN','club'],
    ['of','IN','of'],
    ['novelist-poets','NNS','novelist-poets'],
    ['is','VBZ','be'],
    ['distinguished','VBN','distinct'],
    ['but','CC','but'],
    ['tiny','JJ','tiny'],
    ['.','.','.']
  ]
},
{
  tag:'S',
  content:
  [
    {
      tag:'PERSON',
      content:
      [
        ['Thomas','NNP','thoma']
      ]
    },
    {
      tag:'ORGANIZATION',
      content:
      [
        ['Hardy','NNP','hardy']
      ]
    },
    ['is','VBZ','be'],
    ['the','DT','the'],
    ['founding','NN','found'],
    ['member','NN','memb'],
    [',',',',','],
    {
      tag:'PERSON',
      content:
      [
        ['Herman','NNP','herm'],
        ['Melville','NNP','melvil']
      ]
    },
    ['and','CC','and'],
    ['D.','NNP','d.'],
    ['H.','NNP','h.'],
    ['Lawrence','NNP','lawr'],
    ['take','VB','tak'],
    ['turns','VBZ','turn'],
    ['at','IN','at'],
    ['the','DT','the'],
    ['reception','NN','receiv'],
    ['desk','NN','desk'],
    [',',',',','],
    ['and','CC','and'],
    ['loitering','VBG','loit'],
    ['at','IN','at'],
    ['the','DT','the'],
    ['door','NN','door'],
    ['are','VBP','be'],
    ['talented','VBN','tal'],
    ['contemporary','JJ','contemp'],
    ['(','NN','('],
    ['or','CC','or'],
    ['near-­contemporary','JJ','near-­contemporary'],
    [')','NN',')'],
    ['writers','NNS','writ'],
    ['like','IN','like'],
    {
      tag:'PERSON',
      content:
      [
        ['James','NNP','jam'],
        ['Dickey','NNP','dickey']
      ]
    },
    [',',',',','],
    {
      tag:'PERSON',
      content:
      [
        ['Margaret','NNP','margaret'],
        ['Atwood','NNP','atwood']
      ]
    },
    ['and','CC','and'],
    {
      tag:'PERSON',
      content:
      [
        ['Denis','NNP','den'],
        ['Johnson','NNP','johnson']
      ]
    },
    ['.','.','.']
  ]
},
{
  tag:'S',
  content:
  [
    ['Any','DT','Any'],
    ['way','NN','way'],
    ['you','PRP','you'],
    ['count','VBP','count'],
    ['them','PRP','them'],
    [',',',',','],
    ['though','IN','though'],
    [',',',',','],
    ['the','DT','the'],
    ['true','JJ','tru'],
    ['novelist-­poets','NNS','novelist-­poets'],
    ['always','RB','alway'],
    ['seem','VBP','seem'],
    ['outnumbered','VBN','outnumb'],
    ['by','IN','by'],
    ['the','DT','the'],
    ['novelist-­essayists','NNS','novelist-­essayists'],
    [',',',',','],
    ['the','DT','the'],
    ['novelist-­memoirists','NNS','novelist-­memoirists'],
    ['and','CC','and'],
    ['the','DT','the'],
    ['fell','NN','fel'],
    ['horde','NN','hord'],
    ['of','IN','of'],
    ['novelist-story','JJ','novelist-story'],
    ['writers','NNS','writ'],
    ['.','.','.']
  ]
},
{
  tag:'S',
  content:
  [
    {
      tag:'GPE',
      content:
      [
        ['Enlarge','NNP','enlarg']
      ]
    },
    ['This','DT','This'],
    ['Image','NNP','im'],
    ['Courtesy','NNP','courtesy'],
    ['of','IN','of'],
    ['the','DT','the'],
    {
      tag:'PERSON',
      content:
      [
        ['Nabokov','NNP','nabokov'],
        ['Estate','NNP','est'],
        ['Vladimir','NNP','vladimir'],
        ['Nabokov','NNP','nabokov'],
        ['Related','NNP','rel'],
        ['Times','NNP','tim']
      ]
    },
    ['Topic','NNP','top'],
    [':',':',':'],
    {
      tag:'PERSON',
      content:
      [
        ['Vladimir','NNP','vladimir'],
        ['Nabokov','NNP','nabokov']
      ]
    },
    ['This','NNP','thi'],
    ['isn’t','NNP','isn’t'],
    ['to','TO','to'],
    ['say','VB','say'],
    ['novelists','NNS','novel'],
    ['don’t','-NONE-','don’t'],
    ['try','NN','try'],
    ['to','TO','to'],
    ['be','VB','be'],
    ['poets','NNS','poet'],
    ['and','CC','and'],
    ['vice','NN','vic'],
    ['versa','NN','vers'],
    ['.','.','.']
  ]
},
{
  tag:'S',
  content:
  [
    ['But','CC','But'],
    ['most','JJS','most'],
    ['writers','NNS','writ'],
    ['turn','VBP','turn'],
    ['out','RP','out'],
    ['to','TO','to'],
    ['be','VB','be'],
    ['so','RB','so'],
    ['much','RB','much'],
    ['stronger','JJR','strong'],
    ['at','IN','at'],
    ['one','CD','one'],
    ['endeavor','NN','endeav'],
    ['than','IN','than'],
    ['the','DT','the'],
    ['other','JJ','oth'],
    ['that','IN','that'],
    ['they','PRP','they'],
    ['resemble','VBP','resembl'],
    ['fiddler','RBR','fiddl'],
    ['crabs','NNS','crab'],
    [':',':',':'],
    ['NOVELIST-­poets','NNS','novelist-­poets'],
    ['like','IN','like'],
    {
      tag:'PERSON',
      content:
      [
        ['John','NNP','john'],
        ['Updike','NNP','updik']
      ]
    },
    ['and','CC','and'],
    {
      tag:'PERSON',
      content:
      [
        ['Cynthia','NNP','cynth'],
        ['Ozick','NNP','ozick']
      ]
    },
    [',',',',','],
    ['or','CC','or'],
    ['novelist-POETS','NNS','novelist-poets'],
    ['like','IN','like'],
    {
      tag:'PERSON',
      content:
      [
        ['Philip','NNP','philip'],
        ['Larkin','NNP','larkin']
      ]
    },
    ['and','CC','and'],
    {
      tag:'ORGANIZATION',
      content:
      [
        ['Randall','NNP','randal'],
        ['Jarrell','NNP','jarrel']
      ]
    },
    ['.','.','.']
  ]
},
{
  tag:'S',
  content:
  [
    ['What','WP','What'],
    ['causes','NNS','caus'],
    ['the','DT','the'],
    ['imbalance','NN','imb'],
    ['?','.','?']
  ]
},
{
  tag:'S',
  content:
  [
    ['One','CD','One'],
    ['possibility','NN','poss'],
    ['is','VBZ','be'],
    ['that','IN','that'],
    ['poetry','NN','poetry'],
    ['and','CC','and'],
    ['prose','VB','pros'],
    ['are','VBP','be'],
    ['more','RBR','mor'],
    ['like','IN','like'],
    ['different','JJ','diff'],
    ['musical','JJ','mus'],
    ['instruments','NNS','instru'],
    ['than','IN','than'],
    ['different','JJ','diff'],
    ['musical','JJ','mus'],
    ['genres','NNS','genr'],
    ['.','.','.']
  ]
},
{
  tag:'S',
  content:
  [
    ['While','IN','While'],
    ['we','PRP','we'],
    ['don’t','JJ','don’t'],
    ['expect','VBP','expect'],
    ['violinists','NNS','violin'],
    ['to','TO','to'],
    ['be','VB','be'],
    ['accomplished','VBN','accompl'],
    ['pianists','NNS','pian'],
    [',',',',','],
    ['we’re','JJ','we’r'],
    ['not','RB','not'],
    ['at','IN','at'],
    ['all','DT','all'],
    ['surprised','VBN','surpr'],
    ['when','WRB','when'],
    ['a','DT','a'],
    ['good','JJ','good'],
    ['pianist','NN','pian'],
    ['can','MD','can'],
    ['play','VB','play'],
    ['both','DT','both'],
    {
      tag:'GPE',
      content:
      [
        ['Gershwin','NNP','gershwin']
      ]
    },
    ['and','CC','and'],
    ['“Boogie','NNP','“boogie'],
    ['With','NNP','with'],
    ['Stu.”','NNP','stu.”'],
    ['Similarly','NNP','simil'],
    [',',',',','],
    ['we','PRP','we'],
    ['don’t','JJ','don’t'],
    ['find','NN','find'],
    ['it','PRP','it'],
    ['unusual','JJ','unus'],
    ['when','WRB','when'],
    ['a','DT','a'],
    ['writer','NN','writ'],
    ['who','WP','who'],
    ['excels','NNS','excel'],
    ['at','IN','at'],
    ['one','CD','one'],
    ['prose','NN','pros'],
    ['project','NN','project'],
    ['also','RB','also'],
    ['excels','VBZ','excel'],
    ['at','IN','at'],
    ['another','DT','another'],
    ['—','NN','—'],
    ['both','DT','both'],
    [',',',',','],
    ['after','IN','after'],
    ['all','DT','all'],
    [',',',',','],
    ['involve','VBP','involv'],
    ['sentences','NNS','sent'],
    ['.','.','.']
  ]
},
{
  tag:'S',
  content:
  [
    ['Whereas','IN','Whereas'],
    ['poetry','NN','poetry'],
    ['supposedly','RB','suppos'],
    ['involves','VBZ','involv'],
    ['.','.','.']
  ]
},
{
  tag:'S',
  content:
  [
    ['.','.','.']
  ]
},
{
  tag:'S',
  content:
  [
    ['.','.','.']
  ]
},
{
  tag:'S',
  content:
  [
    ['something','NN','someth'],
    ['else','RB','els'],
    ['.','.','.']
  ]
},
{
  tag:'S',
  content:
  [
    ['It’s','NNS','it’s'],
    ['an','DT','an'],
    ['appealing','VBG','ap'],
    ['theory','NN','the'],
    [',',',',','],
    ['but','CC','but'],
    ['not','RB','not'],
    ['completely','RB','complet'],
    ['convincing','VBG','convint'],
    ['.','.','.']
  ]
},
{
  tag:'S',
  content:
  [
    ['In','IN','In'],
    ['particular','JJ','particul'],
    [',',',',','],
    ['it','PRP','it'],
    ['breaks','VBZ','break'],
    ['down','RP','down'],
    ['whenever','RB','whenev'],
    ['the','DT','the'],
    ['work','NN','work'],
    ['in','IN','in'],
    ['question','NN','quest'],
    ['undermines','NNS','undermin'],
    ['our','PRP$','our'],
    ['ideas','NNS','ide'],
    ['about','IN','about'],
    ['its','PRP$','its'],
    ['reputed','VBN','reput'],
    ['genre','NN','genr'],
    ['.','.','.']
  ]
},
{
  tag:'S',
  content:
  [
    {
      tag:'PERSON',
      content:
      [
        ['James','NNP','jam']
      ]
    },
    {
      tag:'ORGANIZATION',
      content:
      [
        ['Joyce','NNP','joyc']
      ]
    },
    ['is','VBZ','be'],
    ['a','DT','a'],
    ['novelist','NN','novel'],
    [',',',',','],
    ['certainly','RB','certain'],
    [',',',',','],
    ['and','CC','and'],
    ['“Ulysses”','NNP','“ulysses”'],
    ['is','VBZ','be'],
    ['a','DT','a'],
    ['great','JJ','gre'],
    ['work','NN','work'],
    ['of','IN','of'],
    ['prose','NN','pros'],
    ['.','.','.']
  ]
},
{
  tag:'S',
  content:
  [
    ['But','CC','But'],
    ['it’s','JJ','it’s'],
    ['a','DT','a'],
    ['great','JJ','gre'],
    ['work','NN','work'],
    ['of','IN','of'],
    ['prose','NN','pros'],
    ['partly','RB','part'],
    ['because','IN','because'],
    ['its','PRP$','its'],
    ['prose','NN','pros'],
    ['often','RB','oft'],
    ['resembles','VBZ','resembl'],
    ['poetry','NN','poetry'],
    ['.','.','.']
  ]
},
{
  tag:'S',
  content:
  [
    ['Les','NNS','les'],
    ['Murray’s','VBP','murray’s'],
    ['“Fredy','JJ','“fredy'],
    ['Neptune”','NN','neptune”'],
    ['is','VBZ','be'],
    ['a','DT','a'],
    ['brilliant','JJ','bril'],
    ['example','NN','exampl'],
    ['of','IN','of'],
    ['poetry','NN','poetry'],
    [',',',',','],
    ['but','CC','but'],
    ['do','VBP','do'],
    ['its','PRP$','its'],
    ['length','NN','leng'],
    ['and','CC','and'],
    ['narrative','JJ','nar'],
    ['structure','NN','structure'],
    ['really','RB','real'],
    ['justify','JJ','just'],
    ['its','PRP$','its'],
    ['subtitle','NN','subtitl'],
    [':',':',':'],
    ['“A','JJ','“a'],
    ['Novel','NNP','novel'],
    ['in','IN','in'],
    ['Verse”','NNP','verse”'],
    ['?','.','?']
  ]
},
{
  tag:'S',
  content:
  [
    ['Perhaps','RB','perhap'],
    ['the','DT','the'],
    ['most','RBS','most'],
    ['difficult','JJ','difficult'],
    ['case','NN','cas'],
    ['of','IN','of'],
    ['all','DT','all'],
    [',',',',','],
    ['though','IN','though'],
    [',',',',','],
    ['is','VBZ','be'],
    ['that','IN','that'],
    ['of','IN','of'],
    {
      tag:'PERSON',
      content:
      [
        ['Vladimir','NNP','vladimir'],
        ['Nabokov','NNP','nabokov']
      ]
    },
    ['.','.','.']
  ]
},
{
  tag:'S',
  content:
  [
    ['And','CC','And'],
    ['it’s','JJ','it’s'],
    ['difficult','NN','difficult'],
    ['for','IN','for'],
    ['several','JJ','sev'],
    ['reasons','NNS','reason'],
    ['.','.','.']
  ]
},
{
  tag:'S',
  content:
  [
    {
      tag:'PERSON',
      content:
      [
        ['Nabokov','NNP','nabokov']
      ]
    },
    ['was','VBD','be'],
    ['multilingual','JJ','multil'],
    [',',',',','],
    ['and','CC','and'],
    ['an','DT','an'],
    ['overwhelming','NN','overwhelm'],
    ['majority','NN','maj'],
    ['of','IN','of'],
    ['his','PRP$','his'],
    ['poetry','NN','poetry'],
    ['was','VBD','be'],
    ['written','VBN','writ'],
    ['early','JJ','ear'],
    ['in','IN','in'],
    ['his','PRP$','his'],
    ['career','NN','car'],
    ['and','CC','and'],
    ['in','IN','in'],
    {
      tag:'GPE',
      content:
      [
        ['Russian','NNP','russ']
      ]
    },
    ['.','.','.']
  ]
},
{
  tag:'S',
  content:
  [
    ['The','DT','The'],
    ['new','JJ','new'],
    {
      tag:'ORGANIZATION',
      content:
      [
        ['VLADIMIR','NNP','vladimir']
      ]
    },
    ['NABOKOV','NNP','nabokov'],
    [':',':',':'],
    ['Selected','NNP','select'],
    ['Poems','NNP','poem'],
    ['(','NNP','('],
    ['Knopf','NNP','knopf'],
    [',',',',','],
    ['$','$','$'],
    ['30','CD','30'],
    [')','CD',')'],
    [',',',',','],
    ['edited','VBN','edit'],
    ['by','IN','by'],
    {
      tag:'PERSON',
      content:
      [
        ['Thomas','NNP','thoma'],
        ['Karshan','NNP','karsh']
      ]
    },
    [',',',',','],
    ['contains','VBZ','contain'],
    ['only','RB','on'],
    ['23','CD','23'],
    ['original','JJ','origin'],
    ['English','JJ','engl'],
    ['poems','NNS','poem'],
    ['—',':','—'],
    ['essentially','RB','ess'],
    ['his','PRP$','his'],
    ['entire','JJ','entir'],
    ['output','NN','output'],
    ['—',':','—'],
    ['compared','VBN','comp'],
    ['with','IN','with'],
    ['about','RB','about'],
    ['three','CD','three'],
    ['times','NNS','tim'],
    ['that','WDT','that'],
    ['number','NN','numb'],
    ['translated','VBD','transl'],
    ['from','IN','from'],
    ['the','DT','the'],
    {
      tag:'GPE',
      content:
      [
        ['Russian','JJ','russ']
      ]
    },
    ['by','IN','by'],
    {
      tag:'PERSON',
      content:
      [
        ['Nabokov','NNP','nabokov']
      ]
    },
    ['himself','PRP','himself'],
    ['or','CC','or'],
    ['by','IN','by'],
    ['his','PRP$','his'],
    ['late','JJ','lat'],
    ['son','NN','son'],
    [',',',',','],
    {
      tag:'GPE',
      content:
      [
        ['Dmitri','NNP','dmitr']
      ]
    },
    ['(','NNP','('],
    ['and','CC','and'],
    ['there','EX','there'],
    ['were','VBD','be'],
    ['many','JJ','many'],
    ['more','RBR','mor'],
    ['to','TO','to'],
    ['choose','VB','choos'],
    ['from','IN','from'],
    [')','NNP',')'],
    ['.','.','.']
  ]
},
{
  tag:'S',
  content:
  [
    ['It’s','NNS','it’s'],
    ['possible','JJ','poss'],
    [',',',',','],
    ['of','IN','of'],
    ['course','NN','cours'],
    [',',',',','],
    ['to','TO','to'],
    ['be','VB','be'],
    ['an','DT','an'],
    ['excellent','NN','excel'],
    ['poet','NN','poet'],
    ['in','IN','in'],
    ['one','CD','one'],
    ['language','NN','langu'],
    ['and','CC','and'],
    ['an','DT','an'],
    ['excellent','NN','excel'],
    ['novelist','NN','novel'],
    ['in','IN','in'],
    ['another','DT','another'],
    ['.','.','.']
  ]
},
{
  tag:'S',
  content:
  [
    ['But','CC','But'],
    ['leaving','VBG','leav'],
    ['aside','NN','asid'],
    ['the','DT','the'],
    ['linguistic','JJ','lingu'],
    ['status','NN','stat'],
    ['of','IN','of'],
    ['Nabokov’s','JJ','nabokov’s'],
    ['own','JJ','own'],
    ['translations','NNS','transl'],
    [',',',',','],
    ['questions','NNS','quest'],
    ['of','IN','of'],
    ['quality','NN','qual'],
    ['in','IN','in'],
    {
      tag:'GPE',
      content:
      [
        ['Russian','NNP','russ']
      ]
    },
    ['poetry','NN','poetry'],
    ['should','MD','should'],
    ['be','VB','be'],
    ['left','VBN','leav'],
    ['to','TO','to'],
    {
      tag:'GPE',
      content:
      [
        ['Russian','NNP','russ']
      ]
    },
    ['readers','NNS','read'],
    [',',',',','],
    ['and','CC','and'],
    ['those','DT','those'],
    ['of','IN','of'],
    ['us','PRP','us'],
    ['who','WP','who'],
    ['read','RB','read'],
    {
      tag:'PERSON',
      content:
      [
        ['Nabokov','NNP','nabokov']
      ]
    },
    ['in','IN','in'],
    {
      tag:'GPE',
      content:
      [
        ['English','NNP','engl']
      ]
    },
    ['are','VBP','be'],
    ['reduced','VBN','reduc'],
    ['to','TO','to'],
    ['looking','VBG','look'],
    ['at','IN','at'],
    ['not','RB','not'],
    ['quite','RB','quit'],
    ['two','CD','two'],
    ['dozen','NNS','doz'],
    ['mostly','RB','most'],
    ['short','JJ','short'],
    ['original','JJ','origin'],
    ['poems','NNS','poem'],
    ['.','.','.']
  ]
},
{
  tag:'S',
  content:
  [
    ['They’re','JJ','they’re'],
    ['a','DT','a'],
    ['decidedly','RB','decid'],
    ['mixed','VBN','mix'],
    ['bag','NN','bag'],
    ['.','.','.']
  ]
},
{
  tag:'S',
  content:
  [
    ['Nabokov’s','NNS','nabokov’s'],
    ['English','VBP','engl'],
    ['poems','NNS','poem'],
    ['share','NN','shar'],
    ['some','DT','some'],
    ['of','IN','of'],
    ['the','DT','the'],
    ['qualities','NNS','qual'],
    ['of','IN','of'],
    ['his','PRP$','his'],
    ['prose','NN','pros'],
    [',',',',','],
    ['notably','RB','not'],
    ['its','PRP$','its'],
    ['confident','NN','confid'],
    ['lucidity','NN','lucid'],
    ['(',':','('],
    {
      tag:'PERSON',
      content:
      [
        ['Nabokov','NNP','nabokov']
      ]
    },
    ['is','VBZ','be'],
    ['complex','JJ','complex'],
    [',',',',','],
    ['but','CC','but'],
    ['never','RB','nev'],
    ['garbled','VBD','garbl'],
    [')',':',')'],
    ['and','CC','and'],
    ['elegantly','RB','eleg'],
    ['unfolding','VBG','unfold'],
    ['inventiveness','NN','inv'],
    ['.','.','.']
  ]
},
{
  tag:'S',
  content:
  [
    ['While','IN','While'],
    ['the','DT','the'],
    ['poems','NNS','poem'],
    ['are','VBP','be'],
    ['slightly','RB','slight'],
    ['simpler','JJR','simpl'],
    ['in','IN','in'],
    ['diction','NN','dict'],
    ['than','IN','than'],
    ['the','DT','the'],
    ['typical','JJ','typ'],
    {
      tag:'GPE',
      content:
      [
        ['Nabokovian','NNP','nabokov']
      ]
    },
    ['sentence','NN','sent'],
    [',',',',','],
    ['his','PRP$','his'],
    ['fondness','NN','fond'],
    ['for','IN','for'],
    ['half-­dollar','JJ','half-­dollar'],
    ['words','NNS','word'],
    ['is','VBZ','be'],
    ['still','RB','stil'],
    ['much','JJ','much'],
    ['in','IN','in'],
    ['evidence','NN','evid'],
    [':',':',':'],
    ['over','IN','over'],
    ['the','DT','the'],
    ['course','NN','cours'],
    ['of','IN','of'],
    ['10','CD','10'],
    ['pages','NNS','pag'],
    [',',',',','],
    ['we','PRP','we'],
    ['get','VBP','get'],
    ['“prototypic','JJ','“prototypic'],
    [',',',',','],
    ['”',':','”'],
    ['“anchoret','JJ','“anchoret'],
    [',',',',','],
    ['”',':','”'],
    ['“scholiastic”','-NONE-','“scholiastic”'],
    ['and','CC','and'],
    ['“dendrologists.”','NNP','“dendrologists.”'],
    ['And','CC','And'],
    ['as','IN','as'],
    ['you','PRP','you'],
    ['might','MD','might'],
    ['expect','VB','expect'],
    [',',',',','],
    {
      tag:'PERSON',
      content:
      [
        ['Nabokov','NNP','nabokov']
      ]
    },
    ['fixates','VBZ','fix'],
    ['on','IN','on'],
    ['—','NNP','—'],
    ['and','CC','and'],
    ['is','VBZ','be'],
    ['sometimes','RB','sometim'],
    ['fixated','VBN','fix'],
    ['by','IN','by'],
    ['—','NNP','—'],
    ['formal','JJ','form'],
    ['prestidigitation','NN','prestidigit'],
    ['.','.','.']
  ]
},
{
  tag:'S',
  content:
  [
    ['Notice','NNP','not'],
    ['the','DT','the'],
    ['way','NN','way'],
    ['he','PRP','he'],
    ['not','RB','not'],
    ['only','RB','on'],
    ['juggles','VBZ','juggl'],
    ['the','DT','the'],
    ['potentially','RB','pot'],
    ['heavy','JJ','heavy'],
    ['rhymes','NNS','rhym'],
    ['in','IN','in'],
    ['the','DT','the'],
    ['tercets','NNS','tercet'],
    ['that','WDT','that'],
    ['conclude','VBP','conclud'],
    ['“Lines','NNS','“lines'],
    ['Written','NNP','writ'],
    ['in','IN','in'],
    {
      tag:'GPE',
      content:
      [
        ['Oregon','NNP','oregon']
      ]
    },
    [',',',',','],
    ['”','NNP','”'],
    ['but','CC','but'],
    ['throws','VBZ','throw'],
    ['in','RP','in'],
    ['a','DT','a'],
    ['little','RB','littl'],
    {
      tag:'GPE',
      content:
      [
        ['French','JJ','french']
      ]
    },
    ['and','CC','and'],
    {
      tag:'GPE',
      content:
      [
        ['German','JJ','germ']
      ]
    },
    ['as','IN','as'],
    ['well','RB','wel'],
    [':',':',':'],
    ['And','CC','And'],
    ['I','PRP','I'],
    ['rest','VBP','rest'],
    ['where','WRB','where'],
    ['I','PRP','I'],
    ['awoke','VBP','awak'],
    ['In','NNP','in'],
    ['the','DT','the'],
    ['sea','NN','sea'],
    ['shade','NN','shad'],
    ['—',':','—'],
    ['l’ombre','JJ','l’ombre'],
    ['glauque','NN','glauqu'],
    ['—',':','—'],
    ['Of','IN','Of'],
    ['a','DT','a'],
    ['legendary','JJ','legend'],
    ['oak','NN','oak'],
    [';',':',';'],
    ['Where','WRB','Where'],
    ['the','DT','the'],
    ['woods','NNS','wood'],
    ['get','VBP','get'],
    ['ever','RB','ev'],
    ['dimmer','JJR','dim'],
    [',',',',','],
    ['Where','WRB','Where'],
    ['the','DT','the'],
    {
      tag:'ORGANIZATION',
      content:
      [
        ['Phantom','NNP','phantom'],
        ['Orchids','NNP','orchid']
      ]
    },
    ['glimmer','NN','glim'],
    ['—',':','—'],
    {
      tag:'PERSON',
      content:
      [
        ['Esmeralda','NNP','esmerald']
      ]
    },
    [',',',',','],
    ['immer','NN','im'],
    ['immer','NN','im'],
    ['.','.','.']
  ]
},
{
  tag:'S',
  content:
  [
    ['The','DT','The'],
    ['poem','NN','poem'],
    [',',',',','],
    ['which','WDT','which'],
    ['recalls','NNS','recal'],
    ['Nabokov’s','-NONE-','Nabokov’s'],
    ['own','JJ','own'],
    ['visit','NN','visit'],
    ['to','TO','to'],
    {
      tag:'GPE',
      content:
      [
        ['Oregon','NNP','oregon']
      ]
    },
    [',',',',','],
    ['is','VBZ','be'],
    ['about','IN','about'],
    ['the','DT','the'],
    ['interaction','NN','interact'],
    ['of','IN','of'],
    {
      tag:'ORGANIZATION',
      content:
      [
        ['Old','NNP','old'],
        ['World','NNP','world']
      ]
    },
    ['and','CC','and'],
    {
      tag:'GPE',
      content:
      [
        ['New','NNP','new']
      ]
    },
    ['(','NNP','('],
    ['thus','RB','thu'],
    ['the','DT','the'],
    {
      tag:'GPE',
      content:
      [
        ['French','JJ','french']
      ]
    },
    ['and','CC','and'],
    {
      tag:'GPE',
      content:
      [
        ['German','JJ','germ']
      ]
    },
    [',',',',','],
    ['which','WDT','which'],
    ['would','MD','would'],
    ['otherwise','VB','otherw'],
    ['be','VB','be'],
    ['little','JJ','littl'],
    ['more','JJR','mor'],
    ['than','IN','than'],
    ['showing','VBG','show'],
    ['off','IN','off'],
    [')','CD',')'],
    ['.','.','.']
  ]
},
{
  tag:'S',
  content:
  [
    ['But','CC','But'],
    ['there’s','JJ','there’s'],
    ['an','DT','an'],
    ['additional','JJ','addit'],
    [',',',',','],
    ['subtle','JJ','subtl'],
    ['formal','JJ','form'],
    ['touch','NN','touch'],
    ['.','.','.']
  ]
},
{
  tag:'S',
  content:
  [
    ['The','DT','The'],
    ['­poem’s','JJ','­poem’s'],
    ['unusual','JJ','unus'],
    ['trochaic','JJ','trocha'],
    ['meter','NN','met'],
    ['is','VBZ','be'],
    ['also','RB','also'],
    ['used','VBN','us'],
    ['in','IN','in'],
    ['Longfellow’s','NNP','longfellow’s'],
    ['“Song','JJ','“song'],
    ['of','IN','of'],
    {
      tag:'GPE',
      content:
      [
        ['Hiawatha','NNP','hiawath']
      ]
    },
    [',',',',','],
    ['”','NNP','”'],
    ['one','CD','one'],
    ['of','IN','of'],
    ['the','DT','the'],
    ['definitive','JJ','definit'],
    ['early','JJ','ear'],
    ['poems','NNS','poem'],
    ['of','IN','of'],
    {
      tag:'GPE',
      content:
      [
        ['America','NNP','americ']
      ]
    },
    ['—','NNP','—'],
    ['and','CC','and'],
    ['that','IN','that'],
    ['meter','NN','met'],
    ['in','IN','in'],
    ['turn','NN','turn'],
    ['was','VBD','be'],
    ['inspired','VBN','inspir'],
    ['by','IN','by'],
    ['the','DT','the'],
    {
      tag:'GPE',
      content:
      [
        ['Finnish','JJ','fin']
      ]
    },
    ['“Kalevala','NN','“kalevala'],
    [',',',',','],
    ['”',':','”'],
    ['one','CD','one'],
    ['of','IN','of'],
    ['the','DT','the'],
    ['great','JJ','gre'],
    ['mythic','JJ','myth'],
    ['poems','NNS','poem'],
    ['of','IN','of'],
    {
      tag:'GPE',
      content:
      [
        ['Europe','NNP','europ']
      ]
    },
    ['.','.','.']
  ]
},
{
  tag:'S',
  content:
  [
    ['It’s','NNS','it’s'],
    ['an','DT','an'],
    ['ingenious','JJ','ingeny'],
    ['fusion','NN','fus'],
    ['of','IN','of'],
    ['structure','NN','structure'],
    ['and','CC','and'],
    ['theme','NN','them'],
    ['.','.','.']
  ]
},
{
  tag:'S',
  content:
  [
    ['At','IN','At'],
    ['his','PRP$','his'],
    ['best','JJS','best'],
    [',',',',','],
    {
      tag:'PERSON',
      content:
      [
        ['Nabokov','NNP','nabokov']
      ]
    },
    ['writes','VBZ','writ'],
    ['a','DT','a'],
    ['delicate','NN','del'],
    [',',',',','],
    ['knowing','VBG','know'],
    ['poetry','NN','poetry'],
    ['of','IN','of'],
    ['crystalline','NN','crystallin'],
    ['surfaces','NNS','surfac'],
    ['and','CC','and'],
    ['twisty','NN','twisty'],
    ['depths','NNS','dep'],
    [',',',',','],
    ['and','CC','and'],
    ['in','IN','in'],
    ['work','NN','work'],
    ['like','IN','like'],
    ['“Lines','NNS','“lines'],
    ['Written','NNP','writ'],
    ['in','IN','in'],
    {
      tag:'GPE',
      content:
      [
        ['Oregon','NNP','oregon']
      ]
    },
    [',',',',','],
    ['”','NNP','”'],
    ['as','IN','as'],
    ['well','RB','wel'],
    ['as','IN','as'],
    ['“A','NNP','“a'],
    ['Literary','NNP','lit'],
    ['Dinner”','NNP','dinner”'],
    ['and','CC','and'],
    ['“An','JJ','“an'],
    ['Evening','NNP','ev'],
    ['of','IN','of'],
    {
      tag:'GPE',
      content:
      [
        ['Russian','NNP','russ'],
        ['Poetry','NNP','poetry']
      ]
    },
    [',',',',','],
    ['”','NNP','”'],
    ['his','PRP$','his'],
    ['talent','NN','tal'],
    ['is','VBZ','be'],
    ['displayed','VBN','display'],
    ['in','IN','in'],
    ['all','DT','all'],
    ['its','PRP$','its'],
    ['appealing','NN','ap'],
    ['peculiarity','NN','peculi'],
    ['.','.','.']
  ]
},
{
  tag:'S',
  content:
  [
    ['Still','RB','stil'],
    [',',',',','],
    ['there','EX','there'],
    ['are','VBP','be'],
    ['very','RB','very'],
    ['few','JJ','few'],
    ['poems','NNS','poem'],
    ['to','TO','to'],
    ['judge','VB','judg'],
    ['here','RB','her'],
    [',',',',','],
    ['and','CC','and'],
    ['some','DT','some'],
    ['are','VBP','be'],
    ['fairly','RB','fair'],
    ['light','JJ','light'],
    ['(','NN','('],
    ['nor','CC','nor'],
    ['are','VBP','be'],
    ['the','DT','the'],
    ['lines','NNS','lin'],
    ['written','VBN','writ'],
    ['by','IN','by'],
    ['the','DT','the'],
    ['undergraduate','JJ','undergradu'],
    {
      tag:'PERSON',
      content:
      [
        ['Nabokov','NNP','nabokov']
      ]
    },
    ['likely','JJ','lik'],
    ['to','TO','to'],
    ['impress','NN','impress'],
    [',',',',','],
    ['unless','IN','unless'],
    ['you','PRP','you'],
    ['like','IN','like'],
    ['your','PRP$','your'],
    ['poetry','NN','poetry'],
    ['rich','NN','rich'],
    ['in','IN','in'],
    ['“o’er”','NNP','“o’er”'],
    ['and','CC','and'],
    ['frosted','VBD','frost'],
    ['with','IN','with'],
    ['“moonlight','JJ','“moonlight'],
    ['dim”','NN','dim”'],
    [')',':',')'],
    ['.','.','.']
  ]
},
{
  tag:'S',
  content:
  [
    ['If','IN','If'],
    ['this','DT','this'],
    ['sample','NN','sampl'],
    ['were','VBD','be'],
    ['the','DT','the'],
    ['total','JJ','tot'],
    ['of','IN','of'],
    ['Nabokov’s','JJ','nabokov’s'],
    ['claim','NN','claim'],
    ['to','TO','to'],
    ['poetic','JJ','poet'],
    ['greatness','NN','gre'],
    [',',',',','],
    ['it','PRP','it'],
    ['would','MD','would'],
    ['be','VB','be'],
    ['hard','RB','hard'],
    ['to','TO','to'],
    ['call','VB','cal'],
    ['him','PRP','him'],
    ['more','JJR','mor'],
    ['than','IN','than'],
    ['a','DT','a'],
    ['talented','VBN','tal'],
    ['dabbler','NN','dabbl'],
    ['.','.','.']
  ]
},
{
  tag:'S',
  content:
  [
    ['But','CC','But'],
    ['of','IN','of'],
    ['course','NN','cours'],
    [',',',',','],
    ['it','PRP','it'],
    ['isn’t','-NONE-','isn’t'],
    ['.','.','.']
  ]
},
{
  tag:'S',
  content:
  [
    ['There','EX','There'],
    ['is','VBZ','be'],
    ['still','RB','stil'],
    ['the','DT','the'],
    ['elephant','NN','eleph'],
    ['in','IN','in'],
    ['the','DT','the'],
    ['room','NN','room'],
    [',',',',','],
    ['which','WDT','which'],
    ['in','IN','in'],
    ['this','DT','this'],
    ['case','NN','cas'],
    ['is','VBZ','be'],
    ['also','RB','also'],
    ['a','DT','a'],
    ['dead','JJ','dead'],
    ['bird','NN','bird'],
    ['beneath','NN','benea'],
    ['a','DT','a'],
    ['window','NN','window'],
    ['.','.','.']
  ]
},
{
  tag:'S',
  content:
  [
    ['Because','IN','Because'],
    ['Nabokov’s','JJ','nabokov’s'],
    {
      tag:'GPE',
      content:
      [
        ['English','NNP','engl']
      ]
    },
    ['poetry','NN','poetry'],
    ['arguably','RB','argu'],
    ['includes','VBZ','includ'],
    ['the','DT','the'],
    ['999','CD','999'],
    ['lines','NNS','lin'],
    ['of','IN','of'],
    ['“Pale','JJ','“pale'],
    ['Fire','NNP','fir'],
    [',',',',','],
    ['”','NNP','”'],
    ['the','DT','the'],
    ['centerpiece','NN','centerpiec'],
    ['of','IN','of'],
    ['his','PRP$','his'],
    ['novel','NN','novel'],
    ['of','IN','of'],
    ['the','DT','the'],
    ['same','JJ','sam'],
    ['name','NN','nam'],
    [',',',',','],
    ['whose','WP$','whose'],
    ['opening','VBG','op'],
    ['is','VBZ','be'],
    ['quoted','VBN','quot'],
    ['as','RB','as'],
    ['frequently','RB','frequ'],
    ['as','IN','as'],
    ['many','JJ','many'],
    ['of','IN','of'],
    ['the','DT','the'],
    ['past','JJ','past'],
    ['century’s','NNS','century’s'],
    ['most','JJS','most'],
    ['admired','VBN','admir'],
    ['poems','NNS','poem'],
    [':',':',':'],
    ['I','PRP','I'],
    ['was','VBD','be'],
    ['the','DT','the'],
    ['shadow','NN','shadow'],
    ['of','IN','of'],
    ['the','DT','the'],
    ['waxwing','NN','waxw'],
    ['slain','NN','slain'],
    ['By','IN','By'],
    ['the','DT','the'],
    ['false','NN','fals'],
    ['azure','NN','az'],
    ['in','IN','in'],
    ['the','DT','the'],
    ['windowpane','NN','windowp'],
    [';',':',';'],
    ['I','PRP','I'],
    ['was','VBD','be'],
    ['the','DT','the'],
    ['smudge','NN','smudg'],
    ['of','IN','of'],
    ['ashen','NN','ash'],
    ['fluff','NN','fluff'],
    ['—',':','—'],
    ['and','CC','and'],
    ['I','PRP','I'],
    {
      tag:'PERSON',
      content:
      [
        ['Lived','NNP','liv']
      ]
    },
    ['on','IN','on'],
    [',',',',','],
    ['flew','JJ','flew'],
    ['on','IN','on'],
    [',',',',','],
    ['in','IN','in'],
    ['the','DT','the'],
    ['reflected','JJ','reflect'],
    ['sky','NN','sky'],
    ['.','.','.']
  ]
},
{
  tag:'S',
  content:
  [
    ['In','IN','In'],
    ['the','DT','the'],
    ['novel','NN','novel'],
    [',',',',','],
    ['the','DT','the'],
    ['poem','NN','poem'],
    ['is','VBZ','be'],
    ['attributed','VBN','attribut'],
    ['to','TO','to'],
    {
      tag:'PERSON',
      content:
      [
        ['John','NNP','john'],
        ['Shade','NNP','shad']
      ]
    },
    [',',',',','],
    ['a','DT','a'],
    ['noted','JJ','not'],
    ['poet','NN','poet'],
    ['whose','WP$','whose'],
    ['manuscript','NN','manuscrib'],
    ['has','VBZ','hav'],
    ['been','VBN','be'],
    ['appropriated','VBN','appropry'],
    ['by','IN','by'],
    ['a','DT','a'],
    ['man','NN','man'],
    ['called','VBN','cal'],
    {
      tag:'PERSON',
      content:
      [
        ['Kinbote','NNP','kinbot']
      ]
    },
    [',',',',','],
    ['who','WP','who'],
    ['may','MD','may'],
    ['also','RB','also'],
    ['be','VB','be'],
    ['the','DT','the'],
    ['exiled','VBN','exil'],
    ['monarch','NN','monarch'],
    ['of','IN','of'],
    ['a','DT','a'],
    ['kingdom','NN','kingdom'],
    ['called','VBN','cal'],
    {
      tag:'PERSON',
      content:
      [
        ['Zembla','NNP','zembl']
      ]
    },
    ['.','.','.']
  ]
},
{
  tag:'S',
  content:
  [
    ['Kinbote’s','NNS','kinbote’s'],
    ['deranged','VBD','derang'],
    ['commentary','JJ','com'],
    ['on','IN','on'],
    ['the','DT','the'],
    ['poem','NN','poem'],
    ['provides','VBZ','provid'],
    ['the','DT','the'],
    ['substance','NN','subst'],
    ['of','IN','of'],
    ['the','DT','the'],
    ['novel','NN','novel'],
    [',',',',','],
    ['as','IN','as'],
    ['his','PRP$','his'],
    ['remarks','NNS','remark'],
    ['become','VBP','becom'],
    ['increasingly','RB','increas'],
    ['less','RBR','less'],
    ['about','IN','about'],
    ['the','DT','the'],
    ['lines','NNS','lin'],
    ['than','IN','than'],
    ['his','PRP$','his'],
    ['own','JJ','own'],
    ['tattered','VBN','tat'],
    ['psychology','NN','psycholog'],
    ['.','.','.']
  ]
},
{
  tag:'S',
  content:
  [
    ['The','DT','The'],
    ['poem','NN','poem'],
    ['itself','PRP','itself'],
    ['is','VBZ','be'],
    ['a','DT','a'],
    ['seemingly','RB','seem'],
    ['cleareyed','VBN','clearey'],
    ['discussion','NN','discuss'],
    ['of','IN','of'],
    ['death','NN','dea'],
    ['and','CC','and'],
    ['natural','JJ','nat'],
    ['patterns','NNS','pattern'],
    ['centered','VBN','cent'],
    ['on','IN','on'],
    ['the','DT','the'],
    ['poet’s','NNP','poet’s'],
    ['loss','NN','loss'],
    ['of','IN','of'],
    ['his','PRP$','his'],
    ['only','JJ','on'],
    ['child','NN','child'],
    [',',',',','],
    ['an','DT','an'],
    ['unattractive','JJ','unattract'],
    ['and','CC','and'],
    ['disturbed','VBD','disturb'],
    ['girl','NN','girl'],
    ['who','WP','who'],
    ['drowned','VBN','drown'],
    ['herself','PRP','herself'],
    ['after','IN','after'],
    ['being','VBG','be'],
    ['scorned','VBN','scorn'],
    ['by','IN','by'],
    ['a','DT','a'],
    ['blind','JJ','blind'],
    ['date','NN','dat'],
    ['.','.','.']
  ]
},
{
  tag:'S',
  content:
  [
    ['The','DT','The'],
    ['entire','JJ','entir'],
    ['poem','NN','poem'],
    ['is','VBZ','be'],
    ['written','VBN','writ'],
    ['in','IN','in'],
    ['heroic','JJ','hero'],
    ['couplets','NNS','couplet'],
    ['(',':','('],
    {
      tag:'PERSON',
      content:
      [
        ['Shade','NNP','shad']
      ]
    },
    ['is','VBZ','be'],
    ['presented','VBN','pres'],
    ['as','RB','as'],
    ['a','DT','a'],
    {
      tag:'GPE',
      content:
      [
        ['Pope','NNP','pop']
      ]
    },
    ['scholar','NN','scholar'],
    [')',':',')'],
    [',',',',','],
    ['and','CC','and'],
    ['the','DT','the'],
    ['lines','NNS','lin'],
    ['discussing','VBG','discuss'],
    ['Shade’s','NNS','shade’s'],
    ['awareness','NN','aw'],
    ['of','IN','of'],
    ['his','PRP$','his'],
    ['daughter’s','JJ','daughter’s'],
    ['looming','NN','loom'],
    ['unhappiness','NN','unhappy'],
    ['are','VBP','be'],
    ['typical','JJ','typ'],
    ['of','IN','of'],
    ['its','PRP$','its'],
    ['strange','NN','strange'],
    ['power','NN','pow'],
    [':',':',':'],
    ['At','IN','At'],
    {
      tag:'ORGANIZATION',
      content:
      [
        ['Christmas','NNP','christmas']
      ]
    },
    ['parties','NNS','party'],
    ['games','VBZ','gam'],
    ['were','VBD','be'],
    ['rough','JJ','rough'],
    [',',',',','],
    ['no','DT','no'],
    ['doubt','NN','doubt'],
    [',',',',','],
    ['And','CC','And'],
    ['one','CD','one'],
    ['shy','JJ','shy'],
    ['little','JJ','littl'],
    ['guest','NN','guest'],
    ['might','MD','might'],
    ['be','VB','be'],
    ['left','VBN','leav'],
    ['out','RP','out'],
    [';',':',';'],
    ['But','CC','But'],
    ['let’s','NNP','let’s'],
    ['be','VB','be'],
    ['fair','JJ','fair'],
    [':',':',':'],
    ['while','IN','while'],
    ['children','NNS','child'],
    ['of','IN','of'],
    ['her','PRP$','her'],
    ['age','NN','ag'],
    ['Were','NNP','wer'],
    ['cast','NN','cast'],
    ['as','IN','as'],
    ['elves','NNS','elf'],
    ['and','CC','and'],
    ['fairies','NNS','fairy'],
    ['on','IN','on'],
    ['the','DT','the'],
    ['stage','NN','stag'],
    ['That','WDT','That'],
    ['she’d','-NONE-','she’d'],
    ['helped','VBD','help'],
    ['paint','NN','paint'],
    ['for','IN','for'],
    ['the','DT','the'],
    ['school','NN','school'],
    ['pantomime','NN','pantomim'],
    [',',',',','],
    ['My','NNP','my'],
    ['gentle','NN','gentl'],
    ['girl','NN','girl'],
    ['appeared','VBD','appear'],
    ['as','IN','as'],
    {
      tag:'PERSON',
      content:
      [
        ['Mother','NNP','moth'],
        ['Time','NNP','tim']
      ]
    },
    [',',',',','],
    ['A','DT','A'],
    ['bent','NN','bent'],
    ['charwoman','NN','charwom'],
    ['with','IN','with'],
    ['slop','NN','slop'],
    ['pail','NN','pail'],
    ['and','CC','and'],
    ['broom','NN','broom'],
    [',',',',','],
    ['And','CC','And'],
    ['like','IN','like'],
    ['a','DT','a'],
    ['fool','NN','fool'],
    ['I','PRP','I'],
    ['sobbed','VBD','sob'],
    ['in','IN','in'],
    ['the','DT','the'],
    ['men’s','JJ','men’s'],
    ['room','NN','room'],
    ['.','.','.']
  ]
},
{
  tag:'S',
  content:
  [
    ['Although','IN','Although'],
    ['couplets','NNS','couplet'],
    ['were','VBD','be'],
    ['the','DT','the'],
    ['dominant','JJ','domin'],
    ['poetic','JJ','poet'],
    ['form','NN','form'],
    ['of','IN','of'],
    ['the','DT','the'],
    ['18th','JJ','18th'],
    ['century','NN','century'],
    [',',',',','],
    ['they','PRP','they'],
    ['sound','VBP','sound'],
    ['odd','JJ','od'],
    ['to','TO','to'],
    ['many','JJ','many'],
    ['modern','JJ','modern'],
    ['readers','NNS','read'],
    ['.','.','.']
  ]
},
{
  tag:'S',
  content:
  [
    ['But','CC','But'],
    ['they’re','JJ','they’re'],
    ['well','RB','wel'],
    ['chosen','VBN','choos'],
    ['in','IN','in'],
    ['“Pale','JJ','“pale'],
    ['Fire”','NN','fire”'],
    ['for','IN','for'],
    ['two','CD','two'],
    ['reasons','NNS','reason'],
    ['.','.','.']
  ]
},
{
  tag:'S',
  content:
  [
    {
      tag:'GPE',
      content:
      [
        ['First','NNP','first']
      ]
    },
    [',',',',','],
    ['within','IN','within'],
    ['the','DT','the'],
    ['context','NN','context'],
    ['of','IN','of'],
    ['the','DT','the'],
    ['poem','NN','poem'],
    [',',',',','],
    ['the','DT','the'],
    ['couplet','NN','couplet'],
    ['form','NN','form'],
    ['has','VBZ','hav'],
    ['a','DT','a'],
    ['crisp','NN','crisp'],
    ['exactness','NN','exact'],
    ['that','WDT','that'],
    ['enhances','VBZ','enh'],
    ['the','DT','the'],
    ['work’s','JJ','work’s'],
    ['reflective','JJ','reflect'],
    ['surfaces','NNS','surfac'],
    ['(',':','('],
    ['the','DT','the'],
    ['opening','VBG','op'],
    ['bird','NN','bird'],
    ['lives','NNS','lif'],
    ['on','IN','on'],
    ['in','IN','in'],
    ['a','DT','a'],
    ['reflection','NN','reflect'],
    [';',':',';'],
    ['the','DT','the'],
    ['“azure”','NN','“azure”'],
    ['sky','NN','sky'],
    ['later','JJ','lat'],
    ['appears','NNS','appear'],
    ['as','IN','as'],
    ['the','DT','the'],
    ['“azure”','NNP','“azure”'],
    ['entrance','NN','ent'],
    ['to','TO','to'],
    ['the','DT','the'],
    ['bar','NN','bar'],
    ['at','IN','at'],
    ['which','WDT','which'],
    ['Shade’s','-NONE-','Shade’s'],
    ['child','MD','child'],
    ['is','VBZ','be'],
    ['humiliated','VBN','humy'],
    [';',':',';'],
    ['the','DT','the'],
    ['poem’s','NNP','poem’s'],
    ['unwritten','NN','unwrit'],
    ['last','JJ','last'],
    ['line','NN','lin'],
    ['is','VBZ','be'],
    ['probably','RB','prob'],
    ['its','PRP$','its'],
    ['first','JJ','first'],
    ['line','NN','lin'],
    [';',':',';'],
    ['and','CC','and'],
    ['so','RB','so'],
    ['forth','JJ','for'],
    [')','NN',')'],
    ['.','.','.']
  ]
},
{
  tag:'S',
  content:
  [
    ['The','DT','The'],
    ['paired','VBN','pair'],
    ['rhymes','NNS','rhym'],
    ['are','VBP','be'],
    ['the','DT','the'],
    ['twin','NN','twin'],
    ['beams','NNS','beam'],
    ['of','IN','of'],
    ['light','JJ','light'],
    ['around','IN','around'],
    ['which','WDT','which'],
    ['the','DT','the'],
    ['mirrors','NNS','mir'],
    ['revolve','VBP','revolv'],
    ['.','.','.']
  ]
},
{
  tag:'S',
  content:
  [
    {
      tag:'GPE',
      content:
      [
        ['Second','JJ','second']
      ]
    },
    [',',',',','],
    ['“Pale','JJ','“pale'],
    ['Fire”','NN','fire”'],
    ['is','VBZ','be'],
    ['frequently','RB','frequ'],
    ['in','IN','in'],
    ['dialogue','NN','dialog'],
    ['with','IN','with'],
    ['other','JJ','oth'],
    ['poems','NNS','poem'],
    [',',',',','],
    ['particularly','RB','particul'],
    ['those','DT','those'],
    ['of','IN','of'],
    ['T.','NNP','t.'],
    ['S.','NNP','s.'],
    ['Eliot','NNP','eliot'],
    ['.','.','.']
  ]
},
{
  tag:'S',
  content:
  [
    ['In','IN','In'],
    ['addition','NN','addit'],
    ['to','TO','to'],
    ['mockingly','RB','mock'],
    ['poaching','VBG','poach'],
    ['some','DT','some'],
    ['words','NNS','word'],
    ['from','IN','from'],
    ['Eliot’s','JJ','eliot’s'],
    ['“Four','JJ','“four'],
    ['Quartets','NNS','quartet'],
    [',',',',','],
    ['”',':','”'],
    ['the','DT','the'],
    ['poem’s','JJ','poem’s'],
    ['third','JJ','third'],
    ['canto','IN','canto'],
    ['rewrites','NNS','rewrit'],
    ['part','NN','part'],
    ['of','IN','of'],
    ['the','DT','the'],
    ['“Game','JJ','“game'],
    ['of','IN','of'],
    ['Chess”','JJ','chess”'],
    ['section','NN','sect'],
    ['from','IN','from'],
    ['“The','NNP','“the'],
    ['Waste','NNP','wast'],
    ['Land.”','NNP','land.”'],
    {
      tag:'PERSON',
      content:
      [
        ['Eliot','NNP','eliot']
      ]
    },
    [',',',',','],
    ['as','IN','as'],
    {
      tag:'PERSON',
      content:
      [
        ['Nabokov','NNP','nabokov']
      ]
    },
    ['probably','RB','prob'],
    ['knew','VBD','know'],
    [',',',',','],
    ['wrote','VBD','writ'],
    ['a','DT','a'],
    ['book','NN','book'],
    ['on','IN','on'],
    {
      tag:'GPE',
      content:
      [
        ['Dryden','NNP','dryd']
      ]
    },
    [',',',',','],
    ['the','DT','the'],
    ['master','NN','mast'],
    ['of','IN','of'],
    ['the','DT','the'],
    ['couplet','NN','couplet'],
    ['.','.','.']
  ]
},
{
  tag:'S',
  content:
  [
    ['And','CC','And'],
    ['indeed','VBD','indee'],
    [',',',',','],
    ['the','DT','the'],
    ['original','JJ','origin'],
    ['draft','NN','draft'],
    ['of','IN','of'],
    ['“The','NNP','“the'],
    ['Fire','NNP','fir'],
    ['Sermon”','NNP','sermon”'],
    ['included','VBD','includ'],
    ['a','DT','a'],
    ['section','NN','sect'],
    ['in','IN','in'],
    ['couplets','NNS','couplet'],
    ['(',':','('],
    ['a','DT','a'],
    ['section','NN','sect'],
    {
      tag:'PERSON',
      content:
      [
        ['Eliot','NNP','eliot']
      ]
    },
    ['wisely','RB','wis'],
    ['abandoned','VBN','abandon'],
    [')','-NONE-',')'],
    ['.','.','.']
  ]
},
{
  tag:'S',
  content:
  [
    ['It','PRP','It'],
    ['was','VBD','be'],
    ['perhaps','RB','perhap'],
    ['brash','JJ','brash'],
    ['of','IN','of'],
    {
      tag:'PERSON',
      content:
      [
        ['Nabokov','NNP','nabokov']
      ]
    },
    ['to','TO','to'],
    ['have','VB','hav'],
    ['written','VBN','writ'],
    ['in','IN','in'],
    ['such','JJ','such'],
    ['an','DT','an'],
    ['odd','JJ','od'],
    ['form','NN','form'],
    ['partly','RB','part'],
    ['as','IN','as'],
    ['a','DT','a'],
    ['challenge','NN','challeng'],
    ['to','TO','to'],
    {
      tag:'GPE',
      content:
      [
        ['Eliot','NNP','eliot']
      ]
    },
    ['and','CC','and'],
    ['his','PRP$','his'],
    ['heirs','NNS','heir'],
    [',',',',','],
    ['but','CC','but'],
    ['the','DT','the'],
    ['technical','JJ','techn'],
    ['achievement','NN','achiev'],
    ['is','VBZ','be'],
    ['hard','JJ','hard'],
    ['to','TO','to'],
    ['deny','VB','deny'],
    ['.','.','.']
  ]
},
{
  tag:'S',
  content:
  [
    ['Still','RB','stil'],
    [',',',',','],
    ['the','DT','the'],
    ['merits','NNS','merit'],
    ['of','IN','of'],
    ['“Pale','JJ','“pale'],
    ['Fire”','NN','fire”'],
    ['have','VBP','hav'],
    ['been','VBN','be'],
    ['debated','VBN','deb'],
    ['over','IN','over'],
    ['the','DT','the'],
    ['years','NNS','year'],
    [',',',',','],
    ['with','IN','with'],
    ['earlier','JJR','ear'],
    ['critics','NNS','crit'],
    ['tending','VBG','tend'],
    ['to','TO','to'],
    ['dismiss','NNS','dismiss'],
    ['the','DT','the'],
    ['poem','NN','poem'],
    ['in','IN','in'],
    ['favor','NN','fav'],
    ['of','IN','of'],
    ['its','PRP$','its'],
    ['baroque','NN','baroqu'],
    ['prose','NN','pros'],
    ['trappings','NNS','trap'],
    ['.','.','.']
  ]
},
{
  tag:'S',
  content:
  [
    ['But','CC','But'],
    ['more','RBR','mor'],
    ['recently','RB','rec'],
    [',',',',','],
    ['the','DT','the'],
    ['poem','NN','poem'],
    ['has','VBZ','hav'],
    ['come','VBN','com'],
    ['into','IN','into'],
    ['its','PRP$','its'],
    ['own','JJ','own'],
    [',',',',','],
    ['so','RB','so'],
    ['to','TO','to'],
    ['speak','VB','speak'],
    [',',',',','],
    ['a','DT','a'],
    ['process','NN','process'],
    ['culminating','VBG','culmin'],
    ['in','IN','in'],
    ['a','DT','a'],
    ['stand-alone','NN','stand-alone'],
    ['edition','NN','edit'],
    ['that’s','NNS','that’s'],
    ['also','RB','also'],
    ['a','DT','a'],
    ['literary','JJ','lit'],
    ['artifact','NN','artifact'],
    ['.','.','.']
  ]
},
{
  tag:'S',
  content:
  [
    {
      tag:'ORGANIZATION',
      content:
      [
        ['PALE','NNP','pal']
      ]
    },
    ['FIRE','NNP','fir'],
    [':',':',':'],
    ['A','DT','A'],
    ['Poem','NNP','poem'],
    ['in','IN','in'],
    ['Four','NNP','four'],
    ['Cantos','NNP','canto'],
    ['by','IN','by'],
    {
      tag:'PERSON',
      content:
      [
        ['John','NNP','john'],
        ['Shade','NNP','shad']
      ]
    },
    ['(','NNP','('],
    {
      tag:'PERSON',
      content:
      [
        ['Gingko','NNP','gingko'],
        ['Press','NNP','press']
      ]
    },
    [',',',',','],
    ['$','$','$'],
    ['35','CD','35'],
    [')','CD',')'],
    ['is','VBZ','be'],
    ['an','DT','an'],
    ['almost','RB','almost'],
    ['ridiculously','RB','ridic'],
    ['lovely','RB','lov'],
    ['package','NN','pack'],
    [':',':',':'],
    ['the','DT','the'],
    ['poem','NN','poem'],
    ['itself','PRP','itself'],
    ['is','VBZ','be'],
    ['printed','VBN','print'],
    ['in','IN','in'],
    ['a','DT','a'],
    ['small','JJ','smal'],
    ['booklet','NN','booklet'],
    [',',',',','],
    ['the','DT','the'],
    ['note','NN','not'],
    ['cards','NNS','card'],
    ['upon','IN','upon'],
    ['which','WDT','which'],
    {
      tag:'PERSON',
      content:
      [
        ['Shade','NNP','shad']
      ]
    },
    ['“wrote”','NNP','“wrote”'],
    ['the','DT','the'],
    ['poem','NN','poem'],
    ['are','VBP','be'],
    ['recreated','VBN','recr'],
    ['(','-NONE-','('],
    ['complete','JJ','complet'],
    ['with','IN','with'],
    ['faux','NN','faux'],
    ['ink','NN','ink'],
    ['stains','VBZ','stain'],
    [')',':',')'],
    [',',',',','],
    ['and','CC','and'],
    ['an','DT','an'],
    ['accompanying','NN','accompany'],
    ['critical','JJ','crit'],
    ['text','NN','text'],
    ['contains','VBZ','contain'],
    ['helpful','JJ','help'],
    ['essays','NNS','essay'],
    ['from','IN','from'],
    ['the','DT','the'],
    {
      tag:'PERSON',
      content:
      [
        ['Nabokov','NNP','nabokov']
      ]
    },
    ['scholar','NN','scholar'],
    {
      tag:'PERSON',
      content:
      [
        ['Brian','NNP','bri'],
        ['Boyd','NNP','boyd']
      ]
    },
    ['and','CC','and'],
    ['the','DT','the'],
    ['poetry','NN','poetry'],
    ['critic','JJ','crit'],
    ['R.','NNP','r.'],
    ['S.','NNP','s.'],
    ['Gwynn','NNP','gwyn'],
    ['(','NNP','('],
    ['who','WP','who'],
    ['makes','VBZ','mak'],
    ['a','DT','a'],
    ['smart','NN','smart'],
    ['case','NN','cas'],
    ['for','IN','for'],
    {
      tag:'PERSON',
      content:
      [
        ['Nabokov','NNP','nabokov']
      ]
    },
    ['having','VBG','hav'],
    ['used','VBN','us'],
    ['couplets','NNS','couplet'],
    ['partly','RB','part'],
    ['as','IN','as'],
    ['a','DT','a'],
    ['response','NN','respons'],
    ['to','TO','to'],
    {
      tag:'PERSON',
      content:
      [
        ['Robert','NNP','robert']
      ]
    },
    ['Lowell’s','NNP','lowell’s'],
    ['early','RB','ear'],
    ['work','VB','work'],
    [')',':',')'],
    ['.','.','.']
  ]
},
{
  tag:'S',
  content:
  [
    ['If','IN','If'],
    ['you’re','JJ','you’re'],
    ['a','DT','a'],
    {
      tag:'GPE',
      content:
      [
        ['Nabokov','NNP','nabokov']
      ]
    },
    ['devotee','NN','devot'],
    [',',',',','],
    ['this','DT','this'],
    ['is','VBZ','be'],
    ['comparable','JJ','comp'],
    ['to','TO','to'],
    ['getting','VBG','get'],
    ['a','DT','a'],
    ['special','JJ','spec'],
    ['edition','NN','edit'],
    ['of','IN','of'],
    ['“Physical','JJ','“physical'],
    ['Graffiti”','NN','graffiti”'],
    ['with','IN','with'],
    ['a','DT','a'],
    ['facsimile','JJ','facsimil'],
    ['string','NN','string'],
    ['from','IN','from'],
    ['one','CD','one'],
    ['of','IN','of'],
    {
      tag:'PERSON',
      content:
      [
        ['Jimmy','NNP','jimmy']
      ]
    },
    ['Page’s','NNP','page’s'],
    ['custom','NN','custom'],
    ['violin','NN','violin'],
    ['bows','VBZ','bow'],
    ['inside','NN','insid'],
    ['.','.','.']
  ]
},
{
  tag:'S',
  content:
  [
    ['But','CC','But'],
    ['does','VBZ','do'],
    ['it','PRP','it'],
    ['work','VB','work'],
    ['?','.','?']
  ]
},
{
  tag:'S',
  content:
  [
    ['Can','NNP','can'],
    ['the','DT','the'],
    ['poem','NN','poem'],
    ['“Pale','JJ','“pale'],
    ['Fire”','NN','fire”'],
    ['exist','NN','ex'],
    ['without','IN','without'],
    ['the','DT','the'],
    ['novel','NN','novel'],
    ['“Pale','JJ','“pale'],
    ['Fire”','NN','fire”'],
    ['?','.','?']
  ]
},
{
  tag:'S',
  content:
  [
    ['There','EX','There'],
    ['are','VBP','be'],
    ['reasons','NNS','reason'],
    ['to','TO','to'],
    ['think','VB','think'],
    ['it','PRP','it'],
    ['can','MD','can'],
    ['not','RB','not'],
    ['.','.','.']
  ]
},
{
  tag:'S',
  content:
  [
    ['In','IN','In'],
    ['a','DT','a'],
    {
      tag:'GPE',
      content:
      [
        ['New','NNP','new'],
        ['Yorker','NNP','york']
      ]
    },
    ['blog','NN','blog'],
    ['post','NN','post'],
    ['last','JJ','last'],
    ['year','NN','year'],
    [',',',',','],
    {
      tag:'PERSON',
      content:
      [
        ['Paul','NNP','paul'],
        ['Muldoon','NNP','muldoon']
      ]
    },
    ['conceded','VBD','cont'],
    ['that','IN','that'],
    ['“Pale','JJ','“pale'],
    ['Fire”','NN','fire”'],
    ['is','VBZ','be'],
    ['“a','NNP','“a'],
    ['quite','RB','quit'],
    ['wonderful','JJ','wond'],
    ['poem','NN','poem'],
    [',',',',','],
    ['”',':','”'],
    ['but','CC','but'],
    ['he','PRP','he'],
    ['asked','VBD','ask'],
    [',',',',','],
    ['“Isn’t','JJ','“isn’t'],
    ['it','PRP','it'],
    ['like','IN','like'],
    ['one','CD','one'],
    ['of','IN','of'],
    ['those','DT','those'],
    ['tall','JJ','tal'],
    ['buildings','NNS','build'],
    ['which','WDT','which'],
    ['incorporates','NNS','incorp'],
    ['in','IN','in'],
    ['its','PRP$','its'],
    ['core','NN','cor'],
    ['the','DT','the'],
    ['very','JJ','very'],
    ['crane','NN','cran'],
    ['that','WDT','that'],
    ['raised','VBD','rais'],
    ['it','PRP','it'],
    ['?','.','?'],
    ['”',':','”'],
    ['This','DT','This'],
    ['is','VBZ','be'],
    ['beautifully','RB','beauty'],
    ['put','VBN','put'],
    [',',',',','],
    ['but','CC','but'],
    ['there','EX','there'],
    ['is','VBZ','be'],
    ['another','DT','another'],
    ['way','NN','way'],
    ['to','TO','to'],
    ['look','VB','look'],
    ['at','IN','at'],
    ['things','NNS','thing'],
    ['.','.','.']
  ]
},
{
  tag:'S',
  content:
  [
    ['When','WRB','When'],
    ['authors','NNS','auth'],
    ['write','VBP','writ'],
    ['“as”','JJ','“as”'],
    ['a','DT','a'],
    ['character','NN','charact'],
    [',',',',','],
    ['particularly','RB','particul'],
    ['in','IN','in'],
    ['a','DT','a'],
    ['third-person','NN','third-person'],
    ['novel','NN','novel'],
    [',',',',','],
    ['we','PRP','we'],
    ['usually','RB','us'],
    ['understand','VBP','understand'],
    ['that','IN','that'],
    ['the','DT','the'],
    ['text','NN','text'],
    ['created','VBD','cre'],
    ['by','IN','by'],
    ['that','DT','that'],
    ['character','NN','charact'],
    ['is','VBZ','be'],
    ['subordinate','JJ','subordin'],
    ['to','TO','to'],
    ['the','DT','the'],
    ['world','NN','world'],
    ['in','IN','in'],
    ['which','WDT','which'],
    ['the','DT','the'],
    ['character','NN','charact'],
    ['exists','VBZ','ex'],
    ['.','.','.']
  ]
},
{
  tag:'S',
  content:
  [
    ['In','IN','In'],
    ['“Persuasion','NN','“persuasion'],
    [',',',',','],
    ['”',':','”'],
    ['for','IN','for'],
    ['example','NN','exampl'],
    [',',',',','],
    {
      tag:'PERSON',
      content:
      [
        ['Jane','NNP','jan'],
        ['Austen','NNP','aust']
      ]
    },
    ['brings','VBZ','bring'],
    ['the','DT','the'],
    ['novel','NN','novel'],
    ['to','TO','to'],
    ['its','PRP$','its'],
    ['emotional','JJ','emot'],
    ['peak','NN','peak'],
    ['with','IN','with'],
    ['a','DT','a'],
    ['letter','NN','let'],
    ['written','VBN','writ'],
    ['by','IN','by'],
    {
      tag:'PERSON',
      content:
      [
        ['Frederick','NNP','frederick']
      ]
    },
    ['Went­worth','NNP','went­worth'],
    ['—','NNP','—'],
    ['which','WDT','which'],
    ['we','PRP','we'],
    ['understand','VBP','understand'],
    ['is','VBZ','be'],
    ['really','RB','real'],
    ['written','VBN','writ'],
    ['by','IN','by'],
    {
      tag:'PERSON',
      content:
      [
        ['Austen','NNP','aust']
      ]
    },
    ['and','CC','and'],
    ['dependent','NN','depend'],
    ['for','IN','for'],
    ['its','PRP$','its'],
    ['resonance','NN','reson'],
    ['on','IN','on'],
    ['the','DT','the'],
    ['world','NN','world'],
    ['of','IN','of'],
    {
      tag:'PERSON',
      content:
      [
        ['Anne','NNP','an'],
        ['Elliot','NNP','elliot']
      ]
    },
    [',',',',','],
    ['the','DT','the'],
    {
      tag:'ORGANIZATION',
      content:
      [
        ['Musgroves','NNP','musgrov']
      ]
    },
    [',',',',','],
    {
      tag:'PERSON',
      content:
      [
        ['Lady','NNP','lady'],
        ['Russell','NNP','russel']
      ]
    },
    ['and','CC','and'],
    ['the','DT','the'],
    ['rest','NN','rest'],
    ['.','.','.']
  ]
},
{
  tag:'S',
  content:
  [
    ['It’s','NNS','it’s'],
    ['hard','VBD','hard'],
    ['to','TO','to'],
    ['imagine','VB','imagin'],
    ['anyone','NN','anyon'],
    ['reading','NN','read'],
    ['the','DT','the'],
    ['letters','NNS','let'],
    ['of','IN','of'],
    {
      tag:'PERSON',
      content:
      [
        ['Frederick','NNP','frederick'],
        ['Wentworth','NNP','wentwor']
      ]
    },
    ['for','IN','for'],
    ['their','PRP$','their'],
    ['own','JJ','own'],
    ['sake','NN','sak'],
    [',',',',','],
    ['just','RB','just'],
    ['as','IN','as'],
    ['it’s','JJ','it’s'],
    ['difficult','NN','difficult'],
    ['to','TO','to'],
    ['conceive','VB','conceiv'],
    ['of','IN','of'],
    ['anyone','NN','anyon'],
    ['separating','VBG','sep'],
    ['the','DT','the'],
    ['e‑mails','NNS','e‑mails'],
    ['of','IN','of'],
    {
      tag:'GPE',
      content:
      [
        ['Denise','NNP','den']
      ]
    },
    ['from','IN','from'],
    ['their','PRP$','their'],
    ['place','NN','plac'],
    ['in','IN','in'],
    ['“The','NNP','“the'],
    ['Corrections.”','NNP','corrections.”'],
    ['In','NNP','in'],
    ['general','JJ','gen'],
    [',',',',','],
    ['the','DT','the'],
    ['writing','NN','writ'],
    ['of','IN','of'],
    ['fictional','JJ','fict'],
    ['characters','NNS','charact'],
    ['is','VBZ','be'],
    ['dependent','JJ','depend'],
    ['on','IN','on'],
    ['the','DT','the'],
    ['larger','JJR','larg'],
    ['work','NN','work'],
    [',',',',','],
    ['and','CC','and'],
    ['it','PRP','it'],
    ['is','VBZ','be'],
    ['the','DT','the'],
    ['larger','JJR','larg'],
    ['work','NN','work'],
    ['that','WDT','that'],
    ['reflects','VBZ','reflect'],
    ['the','DT','the'],
    ['author’s','JJ','author’s'],
    ['worldview','NN','worldview'],
    ['.','.','.']
  ]
},
{
  tag:'S',
  content:
  [
    {
      tag:'GPE',
      content:
      [
        ['Lyric','NNP','lyr']
      ]
    },
    ['poems','NNS','poem'],
    ['present','VBD','pres'],
    ['a','DT','a'],
    ['slightly','RB','slight'],
    ['different','JJ','diff'],
    ['picture','NN','pict'],
    ['(',':','('],
    ['as','IN','as'],
    ['can','MD','can'],
    ['first-person','NN','first-person'],
    ['novels','NNS','novel'],
    [',',',',','],
    ['though','IN','though'],
    ['often','RB','oft'],
    ['to','TO','to'],
    ['a','DT','a'],
    ['lesser','NN','less'],
    ['degree','NN','degr'],
    [')',':',')'],
    ['.','.','.']
  ]
},
{
  tag:'S',
  content:
  [
    ['A','DT','A'],
    ['lyric','JJ','lyr'],
    ['poem','NN','poem'],
    ['depends','NNS','depend'],
    ['on','IN','on'],
    ['the','DT','the'],
    ['development','NN','develop'],
    ['of','IN','of'],
    ['a','DT','a'],
    ['single','JJ','singl'],
    ['sensibility','NN','sens'],
    ['.','.','.']
  ]
},
{
  tag:'S',
  content:
  [
    ['That','DT','That'],
    ['sensibility','NN','sens'],
    ['might','MD','might'],
    ['involve','VB','involv'],
    ['a','DT','a'],
    ['construction','NN','construct'],
    ['called','VBN','cal'],
    ['“I”','-NONE-','“I”'],
    ['that','IN','that'],
    ['could','MD','could'],
    ['stand','VB','stand'],
    ['in','IN','in'],
    ['for','IN','for'],
    ['the','DT','the'],
    ['poet','NN','poet'],
    [',',',',','],
    ['but','CC','but'],
    ['it','PRP','it'],
    ['could','MD','could'],
    ['just','RB','just'],
    ['as','IN','as'],
    ['easily','RB','easy'],
    ['take','VB','tak'],
    ['the','DT','the'],
    ['form','NN','form'],
    ['of','IN','of'],
    ['a','DT','a'],
    {
      tag:'GPE',
      content:
      [
        ['Greek','NNP','greek']
      ]
    },
    ['warrior','NN','warry'],
    ['(',':','('],
    ['Tennyson’s','JJ','tennyson’s'],
    ['“Ulysses”','NN','“ulysses”'],
    [')',':',')'],
    ['or','CC','or'],
    ['a','DT','a'],
    ['giant','JJ','giant'],
    ['toad','NN','toad'],
    ['(',':','('],
    ['Bishop’s','JJ','bishop’s'],
    ['“Rainy','JJ','“rainy'],
    {
      tag:'GPE',
      content:
      [
        ['Season','NNP','season']
      ]
    },
    [';',':',';'],
    ['Sub-Tropics”','NNP','sub-tropics”'],
    [')',':',')'],
    ['.','.','.']
  ]
},
{
  tag:'S',
  content:
  [
    ['Which','WDT','Which'],
    ['is','VBZ','be'],
    ['to','TO','to'],
    ['say','VB','say'],
    [',',',',','],
    ['lyric','JJ','lyr'],
    ['poems','NNS','poem'],
    ['don’t','JJ','don’t'],
    ['have','VBP','hav'],
    ['characters','NNS','charact'],
    [',',',',','],
    ['they','PRP','they'],
    ['are','VBP','be'],
    ['characters','NNS','charact'],
    ['—',':','—'],
    ['and','CC','and'],
    ['characters','NNS','charact'],
    ['with','IN','with'],
    ['an','DT','an'],
    ['oddly','RB','od'],
    ['doubled','VBN','doubl'],
    ['aspect','NN','aspect'],
    ['.','.','.']
  ]
},
{
  tag:'S',
  content:
  [
    ['We','PRP','We'],
    ['hear','VBP','hear'],
    ['the','DT','the'],
    ['voice','NN','voic'],
    ['of','IN','of'],
    ['the','DT','the'],
    ['poem','NN','poem'],
    [',',',',','],
    ['but','CC','but'],
    ['we','PRP','we'],
    ['also','RB','also'],
    ['understand','VBP','understand'],
    ['that','IN','that'],
    ['we’re','JJ','we’r'],
    ['hearing','NN','hear'],
    ['a','DT','a'],
    ['filtered','VBN','filt'],
    ['version','NN','vert'],
    ['of','IN','of'],
    ['the','DT','the'],
    ['poet’s','JJ','poet’s'],
    ['own','NN','own'],
    ['voice','NN','voic'],
    ['.','.','.']
  ]
},
{
  tag:'S',
  content:
  [
    ['We’re','JJ','we’r'],
    ['hearing','NN','hear'],
    ['both','DT','both'],
    ['a','DT','a'],
    ['giant','JJ','giant'],
    ['toad','NN','toad'],
    ['and','CC','and'],
    {
      tag:'PERSON',
      content:
      [
        ['Elizabeth','NNP','elizabe'],
        ['Bishop','NNP','bishop']
      ]
    },
    [';',':',';'],
    ['both','DT','both'],
    {
      tag:'GPE',
      content:
      [
        ['Gerontion','NNP','geront']
      ]
    },
    ['(','NNP','('],
    ['who','WP','who'],
    ['may','MD','may'],
    ['himself','PRP','himself'],
    ['be','VB','be'],
    ['more','RBR','mor'],
    ['than','IN','than'],
    ['one','CD','one'],
    ['person','NN','person'],
    [')',':',')'],
    ['and','CC','and'],
    {
      tag:'PERSON',
      content:
      [
        ['Thomas','NNP','thoma'],
        ['Stearns','NNP','stearn'],
        ['Eliot','NNP','eliot']
      ]
    },
    [';',':',';'],
    ['both','DT','both'],
    ['“I”','NN','“i”'],
    ['and','CC','and'],
    {
      tag:'PERSON',
      content:
      [
        ['Robert','NNP','robert'],
        ['Frost','NNP','frost']
      ]
    },
    ['.','.','.']
  ]
},
{
  tag:'S',
  content:
  [
    ['The','DT','The'],
    ['poet','NN','poet'],
    ['isn’t','NN','isn’t'],
    ['so','RB','so'],
    ['much','RB','much'],
    ['taking','VBG','tak'],
    ['on','IN','on'],
    ['a','DT','a'],
    ['character','NN','charact'],
    ['as','IN','as'],
    ['donning','NN','don'],
    ['a','DT','a'],
    ['mask','NN','mask'],
    ['.','.','.']
  ]
},
{
  tag:'S',
  content:
  [
    ['There','EX','There'],
    ['is','VBZ','be'],
    ['obviously','RB','obvy'],
    ['great','JJ','gre'],
    ['potential','JJ','pot'],
    ['for','IN','for'],
    ['confusion','NN','confus'],
    ['as','IN','as'],
    ['to','TO','to'],
    ['who','WP','who'],
    ['is','VBZ','be'],
    ['saying','VBG','say'],
    ['what','WP','what'],
    ['in','IN','in'],
    ['this','DT','this'],
    ['arrangement','NN','arrang'],
    ['.','.','.']
  ]
},
{
  tag:'S',
  content:
  [
    ['And','CC','And'],
    ['this','DT','this'],
    ['confusion','NN','confus'],
    ['over','IN','over'],
    ['voice','NN','voic'],
    ['is','VBZ','be'],
    ['central','JJ','cent'],
    ['in','IN','in'],
    ['many','JJ','many'],
    ['ways','NNS','way'],
    ['to','TO','to'],
    ['the','DT','the'],
    ['development','NN','develop'],
    ['of','IN','of'],
    ['early-20th-century','JJ','early-20th-century'],
    ['poetry','NN','poetry'],
    ['(',':','('],
    ['remember','NN','rememb'],
    [',',',',','],
    ['the','DT','the'],
    ['original','JJ','origin'],
    ['title','NN','titl'],
    ['of','IN','of'],
    ['“The','NNP','“the'],
    ['Waste','NNP','wast'],
    ['Land”','NNP','land”'],
    ['was','VBD','be'],
    ['“He','JJ','“he'],
    ['Do','NNP','do'],
    ['the','DT','the'],
    ['Police','NNP','pol'],
    ['in','IN','in'],
    {
      tag:'ORGANIZATION',
      content:
      [
        ['Different','NNP','diff']
      ]
    },
    ['Voices”','NNP','voices”'],
    [')','NNP',')'],
    ['.','.','.']
  ]
},
{
  tag:'S',
  content:
  [
    ['By','IN','By'],
    ['placing','NN','plac'],
    ['a','DT','a'],
    ['long','JJ','long'],
    ['poem','NN','poem'],
    ['at','IN','at'],
    ['the','DT','the'],
    ['center','NN','cent'],
    ['of','IN','of'],
    ['“Pale','JJ','“pale'],
    ['Fire','NNP','fir'],
    [',',',',','],
    ['”','NNP','”'],
    ['and','CC','and'],
    ['refusing','VBG','refus'],
    ['to','TO','to'],
    ['turn','VB','turn'],
    {
      tag:'PERSON',
      content:
      [
        ['Shade','NNP','shad']
      ]
    },
    ['into','IN','into'],
    ['a','DT','a'],
    ['character','NN','charact'],
    ['clearly','RB','clear'],
    ['divisible','JJ','divis'],
    ['from','IN','from'],
    ['himself','PRP','himself'],
    ['(','CD','('],
    ['unlike','IN','unlike'],
    {
      tag:'PERSON',
      content:
      [
        ['Kinbote','NNP','kinbot']
      ]
    },
    ['or','CC','or'],
    {
      tag:'PERSON',
      content:
      [
        ['Humbert','NNP','humbert'],
        ['Humbert','NNP','humbert']
      ]
    },
    [')','NNP',')'],
    [',',',',','],
    {
      tag:'PERSON',
      content:
      [
        ['Nabokov','NNP','nabokov']
      ]
    },
    ['encourages','VBZ','enco'],
    ['and','CC','and'],
    ['deepens','NNS','deep'],
    ['this','DT','this'],
    ['confusion','NN','confus'],
    ['.','.','.']
  ]
},
{
  tag:'S',
  content:
  [
    ['His','PRP$','His'],
    ['most','RBS','most'],
    ['obvious','JJ','obvy'],
    ['peer','NN','peer'],
    ['in','IN','in'],
    ['this','DT','this'],
    ['project','NN','project'],
    ['is','VBZ','be'],
    ['the','DT','the'],
    ['great','JJ','gre'],
    {
      tag:'GPE',
      content:
      [
        ['Portuguese','NNP','portugues']
      ]
    },
    ['poet','NN','poet'],
    {
      tag:'PERSON',
      content:
      [
        ['Fernando','NNP','fernando'],
        ['Pessoa','NNP','pesso']
      ]
    },
    [',',',',','],
    ['whose','WP$','whose'],
    ['own','JJ','own'],
    ['poetry','NN','poetry'],
    ['is','VBZ','be'],
    ['written','VBN','writ'],
    ['in','IN','in'],
    ['the','DT','the'],
    ['voices','NNS','voic'],
    ['of','IN','of'],
    ['some','DT','some'],
    ['70','CD','70'],
    ['different','JJ','diff'],
    ['heteronyms','NNS','heteronym'],
    [',',',',','],
    ['all','DT','all'],
    ['with','IN','with'],
    ['different','JJ','diff'],
    ['personalities','NNS','person'],
    [',',',',','],
    ['biographies','NNS','biograph'],
    ['and','CC','and'],
    ['styles','NNS','styl'],
    ['—',':','—'],
    ['yet','RB','yet'],
    ['all','DT','all'],
    ['of','IN','of'],
    ['them','PRP','them'],
    ['inseparable','JJ','insep'],
    ['from','IN','from'],
    {
      tag:'GPE',
      content:
      [
        ['Pessoa','NNP','pesso']
      ]
    },
    ['.','.','.']
  ]
},
{
  tag:'S',
  content:
  [
    ['So','IN','So'],
    ['perhaps','RB','perhap'],
    ['it’s','JJ','it’s'],
    ['wrong','JJ','wrong'],
    ['to','TO','to'],
    ['ask','VB','ask'],
    ['whether','IN','whether'],
    ['“Pale','JJ','“pale'],
    ['Fire”','NN','fire”'],
    ['can','MD','can'],
    ['hold','VB','hold'],
    ['up','RP','up'],
    ['as','IN','as'],
    ['a','DT','a'],
    ['poem','NN','poem'],
    ['on','IN','on'],
    ['its','PRP$','its'],
    ['own','JJ','own'],
    [',',',',','],
    ['or','CC','or'],
    ['whether','IN','whether'],
    ['it','PRP','it'],
    ['should','MD','should'],
    ['really','RB','real'],
    ['be','VB','be'],
    ['attributed','VBN','attribut'],
    ['to','TO','to'],
    {
      tag:'PERSON',
      content:
      [
        ['Nabokov','NNP','nabokov']
      ]
    },
    ['.','.','.']
  ]
},
{
  tag:'S',
  content:
  [
    ['No','DT','No'],
    ['poem','NN','poem'],
    ['is','VBZ','be'],
    ['ever','RB','ev'],
    ['on','IN','on'],
    ['its','PRP$','its'],
    ['own','JJ','own'],
    ['.','.','.']
  ]
},
{
  tag:'S',
  content:
  [
    ['And','CC','And'],
    ['the','DT','the'],
    ['poem','NN','poem'],
    ['is','VBZ','be'],
    ['not','RB','not'],
    ['Nabokov’s','JJ','nabokov’s'],
    ['any','DT','any'],
    ['more','RBR','mor'],
    ['than','IN','than'],
    ['it','PRP','it'],
    ['is','VBZ','be'],
    {
      tag:'PERSON',
      content:
      [
        ['John','NNP','john'],
        ['Shade’s','NNP','shade’s']
      ]
    },
    ['.','.','.']
  ]
},
{
  tag:'S',
  content:
  [
    ['“Pale','JJ','“pale'],
    ['Fire”','NN','fire”'],
    ['is','VBZ','be'],
    ['a','DT','a'],
    ['voice','NN','voic'],
    ['within','IN','within'],
    ['a','DT','a'],
    ['voice','NN','voic'],
    ['—',':','—'],
    ['a','DT','a'],
    ['mirrored','JJ','mir'],
    ['and','CC','and'],
    ['thoroughly','RB','thorough'],
    ['modern','JJ','modern'],
    ['sensibility','NN','sens'],
    ['.','.','.']
  ]
},
{
  tag:'S',
  content:
  [
    ['And','CC','And'],
    ['that','DT','that'],
    ['sensibility','NN','sens'],
    [',',',',','],
    ['whatever','RB','whatev'],
    ['name','VBD','nam'],
    ['we','PRP','we'],
    ['give','VBP','giv'],
    ['it','PRP','it'],
    [',',',',','],
    ['is','VBZ','be'],
    ['one','CD','one'],
    ['hell','NN','hel'],
    ['of','IN','of'],
    ['a','DT','a'],
    ['poet','NN','poet'],
    ['.','.','.']
  ]
},
{
  tag:'S',
  content:
  [
    ['A','DT','A'],
    ['version','NN','vert'],
    ['of','IN','of'],
    ['this','DT','this'],
    ['review','NN','review'],
    ['appears','VBZ','appear'],
    ['in','IN','in'],
    ['print','NN','print'],
    ['on','IN','on'],
    ['July','NNP','july'],
    ['22','CD','22'],
    [',',',',','],
    ['2012','CD','2012'],
    [',',',',','],
    ['on','IN','on'],
    ['page','NN','pag'],
    {
      tag:'ORGANIZATION',
      content:
      [
        ['BR22','NNP','br22']
      ]
    },
    ['of','IN','of'],
    ['the','DT','the'],
    ['Sunday','NNP','sunday'],
    ['Book','NNP','book'],
    ['Review','NNP','review'],
    ['with','IN','with'],
    ['the','DT','the'],
    ['headline','NN','headlin'],
    [':',':',':'],
    ['Flying','VBG','fly'],
    ['On','IN','On'],
    ['in','IN','in'],
    ['the','DT','the'],
    {
      tag:'ORGANIZATION',
      content:
      [
        ['Reflected','NNP','reflect'],
        ['Sky','NNP','sky']
      ]
    },
    ['.','.','.']
  ]
},
{
  tag:'S',
  content:
  [
    {
      tag:'PERSON',
      content:
      [
        ['Get','NN','get']
      ]
    },
    {
      tag:'PERSON',
      content:
      [
        ['Free','NNP','fre']
      ]
    },
    ['E-mail','NNP','e-mail'],
    {
      tag:'PERSON',
      content:
      [
        ['Alerts','NNP','alert']
      ]
    },
    ['on','IN','on'],
    ['These','DT','These'],
    ['Topics','NNP','top'],
    {
      tag:'PERSON',
      content:
      [
        ['Nabokov','NNP','nabokov']
      ]
    },
    [',',',',','],
    {
      tag:'PERSON',
      content:
      [
        ['Vladimir','NNP','vladimir'],
        ['Books','NNP','book']
      ]
    },
    ['and','CC','and'],
    {
      tag:'ORGANIZATION',
      content:
      [
        ['Literature','NNP','lit'],
        ['Poetry','NNP','poetry']
      ]
    },
    ['and','CC','and'],
    {
      tag:'ORGANIZATION',
      content:
      [
        ['Poets','NNPS','poet'],
        ['Inside','NNP','insid']
      ]
    },
    ['NYTimes.com','NNP','nytimes.com'],
    ['Theater','NNP','the'],
    ['»','NNP','»'],
    ['‘The','NNP','‘the'],
    {
      tag:'PERSON',
      content:
      [
        ['Model','NNP','model'],
        ['Apartment','NNP','apart']
      ]
    },
    [',',',',','],
    ['’','NNP','’'],
    ['by','IN','by'],
    {
      tag:'ORGANIZATION',
      content:
      [
        ['Donald','NNP','donald'],
        ['Margulies','NNPS','margu'],
        ['Sports','NNP','sport']
      ]
    },
    ['»','NNP','»'],
    ['In','NNP','in'],
    ['Argentine','NNP','argentin'],
    ['Soccer','NNP','socc'],
    [',',',',','],
    ['a','DT','a'],
    {
      tag:'ORGANIZATION',
      content:
      [
        ['Rivalry','NNP','rivalry']
      ]
    },
    ['Cleaves','NNP','cleav'],
    ['a','DT','a'],
    {
      tag:'ORGANIZATION',
      content:
      [
        ['City','NNP','city'],
        ['Opinion','NNP','opin']
      ]
    },
    ['»','NNP','»'],
    ['Invitation','NNP','invit'],
    ['to','TO','to'],
    ['a','DT','a'],
    ['Dialogue','NNP','dialog'],
    [':',':',':'],
    ['When','WRB','When'],
    {
      tag:'PERSON',
      content:
      [
        ['Doctors','NNS','doct'],
        ['Slip','NNP','slip'],
        ['Up','NNP','up'],
        ['Dining','NNP','din']
      ]
    },
    ['&','CC','&'],
    {
      tag:'PERSON',
      content:
      [
        ['Wine','NNP','win']
      ]
    },
    ['»','NNP','»'],
    ['Restaurants','NNP','resta'],
    [':',':',':'],
    ['Khe-Yo','JJ','khe-yo'],
    ['and','CC','and'],
    {
      tag:'PERSON',
      content:
      [
        ['Whiskey','NNP','whiskey'],
        ['Soda','NNP','sod'],
        ['Lounge','NNP','loung'],
        ['Opinion','NNP','opin']
      ]
    },
    ['»','NNP','»'],
    ['Op-Ed','NNP','op-ed'],
    [':',':',':'],
    {
      tag:'PERSON',
      content:
      [
        ['Beyond','NNP','beyond']
      ]
    },
    ['Boehner’s','NNP','boehner’s'],
    ['Reach','NNP','reach'],
    ['When','NNP','when'],
    ['freedom','NN','freedom'],
    ['is','VBZ','be'],
    ['outlawed','VBN','outlaw'],
    [',',',',','],
    ['only','RB','on'],
    ['outlaws','VBZ','outlaw'],
    ['will','MD','will'],
    ['be','VB','be'],
    ['free','JJ','fre'],
    ['.','.','.']
  ]
},
{
  tag:'S',
  content:
  [
    ['Or','CC','Or'],
    ['certain','JJ','certain'],
    ['climbers','NNS','climb'],
    ['in','IN','in'],
    {
      tag:'ORGANIZATION',
      content:
      [
        ['Yosemite','NNP','yosemit'],
        ['National','NNP','nat'],
        ['Park','NNP','park']
      ]
    },
    ['.','.','.']
  ]
},
{
  tag:'S',
  content:
  [
    ['World','NN','world'],
    ['»','``','»'],
    {
      tag:'PERSON',
      content:
      [
        ['Muzzled','NNP','muzzl'],
        ['Chinese','NNP','chines'],
        ['Artwork','NNP','artwork']
      ]
    },
    [',',',',','],
    {
      tag:'GPE',
      content:
      [
        ['Absent','NNP','abs']
      ]
    },
    [',',',',','],
    {
      tag:'PERSON',
      content:
      [
        ['Speaks','NNP','speak'],
        ['Volumes','NNP','volum'],
        ['Opinion','NNP','opin']
      ]
    },
    ['»','NNP','»'],
    {
      tag:'PERSON',
      content:
      [
        ['Murong','NNP','murong'],
        ['Xuecun','NNP','xuecun']
      ]
    },
    [':',':',':'],
    ['Busting','NNP','bust'],
    ['China’s','NNP','china’s'],
    ['Bloggers','NNP','blog'],
    ['Health','NNP','heal'],
    ['»','NNP','»'],
    ['Pounding','NNP','pound'],
    ['Pavement','NNP','pav'],
    ['By','NNP','by'],
    ['Heel','NNP','heel'],
    ['or','CC','or'],
    {
      tag:'ORGANIZATION',
      content:
      [
        ['Toe','NNP','toe'],
        ['U.S.','NNP','u.s.']
      ]
    },
    ['»','NNP','»'],
    ['Father’s','NNP','father’s'],
    ['Memorial','NNP','mem'],
    ['Trek','NNP','trek'],
    ['Ends','NNPS','end'],
    ['in','IN','in'],
    {
      tag:'GPE',
      content:
      [
        ['Second','NNP','second']
      ]
    },
    ['Tragedy','NNP','tragedy'],
    ['Dining','NNP','din'],
    ['&','CC','&'],
    {
      tag:'PERSON',
      content:
      [
        ['Wine','NNP','win']
      ]
    },
    ['»','NNP','»'],
    ['China’s','NNP','china’s'],
    ['Dining','NNP','din'],
    ['Acrobatics','NNP','acrob'],
    ['Opinion','NNP','opin'],
    ['»','NNP','»'],
    ['Gay','NNP','gay'],
    ['vs.','NNP','vs.'],
    ['Trans','NNP','tran'],
    ['Rights','NNP','right'],
    ['The','NNP','the'],
    ['big','JJ','big'],
    ['wins','NNS','win'],
    ['have','VBP','hav'],
    ['been','VBN','be'],
    ['for','IN','for'],
    ['gays','NNS','gay'],
    ['and','CC','and'],
    ['lesbians','NNS','lesb'],
    [',',',',','],
    ['more','RBR','mor'],
    ['than','IN','than'],
    ['for','IN','for'],
    ['transgender','NN','transgend'],
    ['people','NNS','peopl'],
    ['.','.','.']
  ]
},
{
  tag:'S',
  content:
  [
    {
      tag:'GPE',
      content:
      [
        ['Room','NNP','room']
      ]
    },
    ['for','IN','for'],
    {
      tag:'ORGANIZATION',
      content:
      [
        ['Debate','NNP','deb']
      ]
    },
    ['asks','VBZ','ask'],
    [':',':',':'],
    ['Are','JJ','ar'],
    ['the','DT','the'],
    ['two','CD','two'],
    ['groups’','JJ','groups’'],
    ['goals','NNS','goal'],
    ['still','RB','stil'],
    ['aligned','VBN','align'],
    ['?','.','?']
  ]
},
{
  tag:'S',
  content:
  [
    ['Arts','NNS','art'],
    ['»','VBP','»'],
    {
      tag:'PERSON',
      content:
      [
        ['Belafonte','NNP','belafont'],
        ['Sues','NNP','sue'],
        ['Heirs','NNP','heir']
      ]
    },
    ['of','IN','of'],
    {
      tag:'PERSON',
      content:
      [
        ['Martin','NNP','martin'],
        ['Luther','NNP','luth']
      ]
    },
    ['King','NNP','king'],
    ['Jr.','NNP','jr.'],
    ['©','NNP','©'],
    ['2013','CD','2013'],
    ['The','NNP','the'],
    {
      tag:'GPE',
      content:
      [
        ['New','NNP','new'],
        ['York','NNP','york']
      ]
    },
    {
      tag:'PERSON',
      content:
      [
        ['Times','NNP','tim'],
        ['Comp','NNP','comp']
      ]
    }
  ]
}]