[
{
  tag:'S',
  content:
  [
    {
      tag:'GPE',
      content:
      [
        ['Jump','NNP','jump']
      ]
    },
    ['to','TO','to'],
    {
      tag:'ORGANIZATION',
      content:
      [
        ['Content','NNP','cont'],
        ['Jump','NNP','jump']
      ]
    },
    ['to','TO','to'],
    {
      tag:'PERSON',
      content:
      [
        ['First','NNP','first'],
        ['Navigation','NNP','navig'],
        ['Jump','NNP','jump']
      ]
    },
    ['to','TO','to'],
    {
      tag:'ORGANIZATION',
      content:
      [
        ['Second','NNP','second'],
        ['Navigation','NNP','navig'],
        ['Jump','NNP','jump']
      ]
    },
    ['to','TO','to'],
    {
      tag:'ORGANIZATION',
      content:
      [
        ['Content','NNP','cont'],
        ['Jump','NNP','jump']
      ]
    },
    ['to','TO','to'],
    {
      tag:'PERSON',
      content:
      [
        ['First','NNP','first'],
        ['Navigation','NNP','navig'],
        ['Jump','NNP','jump']
      ]
    },
    ['to','TO','to'],
    {
      tag:'ORGANIZATION',
      content:
      [
        ['Second','NNP','second'],
        ['Navigation','NNP','navig']
      ]
    },
    ['lifestyle/books','NNP','lifestyle/books'],
    ['News','NNP','new'],
    ['Sport','NNP','sport'],
    ['Business','NNP','busy'],
    ['What','NNP','what'],
    [''s','POS',''s'],
    ['On','NNP','on'],
    ['Lifestyle','NNP','lifestyl'],
    ['Jobs','NNP','job'],
    ['Directory','NNP','direct'],
    ['Motors','NNPS','mot'],
    ['Property','NNP','property'],
    ['Deals','NNPS','deal'],
    ['More','NNP','mor'],
    ['Announcements','NNP','annount'],
    ['Dating','NNP','dat'],
    {
      tag:'ORGANIZATION',
      content:
      [
        ['Digital','NNP','digit'],
        ['Archive','NNP','arch'],
        ['Edinburgh','NNP','edinburgh']
      ]
    },
    ['Evening','NNP','ev'],
    ['News','NNP','new'],
    ['Edinburgh','NNP','edinburgh'],
    ['Festival','NNP','fest'],
    {
      tag:'PERSON',
      content:
      [
        ['Gaelic','NNP','gael'],
        ['Holidays','NNP','holiday'],
        ['Public','NNP','publ']
      ]
    },
    ['Notices','NNPS','not'],
    {
      tag:'ORGANIZATION',
      content:
      [
        ['Shop','NNP','shop'],
        ['Webchats','NNPS','webch'],
        ['Login','NNP','login']
      ]
    },
    ['Register','NNP','reg'],
    ['Log','NNP','log'],
    ['out','IN','out'],
    {
      tag:'PERSON',
      content:
      [
        ['Log','NNP','log']
      ]
    },
    ['out','IN','out'],
    {
      tag:'PERSON',
      content:
      [
        ['Why','NNP','why'],
        ['Register','NNP','reg']
      ]
    },
    ['?','.','?']
  ]
},
{
  tag:'S',
  content:
  [
    ['Why','WRB','Why'],
    ['register','NN','reg'],
    ['?','.','?']
  ]
},
{
  tag:'S',
  content:
  [
    ['CloseX','NNP','closex'],
    ['If','IN','If'],
    ['you','PRP','you'],
    ['have','VBP','hav'],
    ['already','RB','already'],
    ['registered','VBN','reg'],
    ['Log','NNP','log'],
    ['in','IN','in'],
    {
      tag:'GPE',
      content:
      [
        ['Forgot','NNP','forgot']
      ]
    },
    ['your','PRP$','your'],
    ['password','NN','password'],
    ['?','.','?']
  ]
},
{
  tag:'S',
  content:
  [
    ['click','NN','click'],
    ['here','RB','her'],
    ['If','IN','If'],
    ['you','PRP','you'],
    ['have','VBP','hav'],
    ['not','RB','not'],
    ['signed','VBN','sign'],
    ['up','RP','up'],
    ['previously','RB','prevy'],
    ['Register','NNP','reg'],
    ['now','RB','now'],
    ['It','PRP','It'],
    [''s','VBZ',''s'],
    ['free','JJ','fre'],
    ['and','CC','and'],
    ['only','RB','on'],
    ['takes','VBZ','tak'],
    ['a','DT','a'],
    ['minute','NN','minut'],
    ['!','.','!']
  ]
},
{
  tag:'S',
  content:
  [
    ['Benefits','NNS','benefit'],
    ['to','TO','to'],
    ['registering','VBG','reg'],
    ['with','IN','with'],
    ['us','PRP','us'],
    ['Comment','NNP','com'],
    ['on','IN','on'],
    ['stories','NNS','story'],
    {
      tag:'PERSON',
      content:
      [
        ['Customise','NNP','custom']
      ]
    },
    ['daily','RB','dai'],
    ['e-mail','JJ','e-mail'],
    ['newsletters','NNS','newslet'],
    {
      tag:'PERSON',
      content:
      [
        ['Arrange','NNP','arrang']
      ]
    },
    ['your','PRP$','your'],
    ['newspaper/digital','JJ','newspaper/digital'],
    ['subscriptions','NNS','subscrib'],
    ['online','NN','onlin'],
    ['Offers','NNS','off'],
    [',',',',','],
    ['promotions','NNS','promot'],
    ['and','CC','and'],
    ['deals','NNS','deal'],
    ['from','IN','from'],
    ['partners','NNS','partn'],
    ['Wednesday','NNP','wednesday'],
    ['16th','CD','16th'],
    ['October','NNP','octob'],
    ['2013','CD','2013'],
    ['Light','NNP','light'],
    ['rain','NN','rain'],
    ['8°C','CD','8°C'],
    ['/','CD','/'],
    ['12°C','CD','12°C'],
    ['Edinburgh','NNP','edinburgh'],
    ['5-day','CD','5-day'],
    ['weather','NN','weath'],
    ['forecast','NN','forecast'],
    {
      tag:'ORGANIZATION',
      content:
      [
        ['CloseX','NNP','closex']
      ]
    },
    ['Thursday','NNP','thursday'],
    ['17','CD','17'],
    ['Oct','NNP','oct'],
    ['Light','NNP','light'],
    ['rain','NN','rain'],
    {
      tag:'PERSON',
      content:
      [
        ['Temp','NNP','temp'],
        ['High','NNP','high']
      ]
    },
    ['13°c','CD','13°c'],
    ['Low','NNP','low'],
    ['9°c','CD','9°c'],
    ['Wind','NNP','wind'],
    ['From','NNP','from'],
    {
      tag:'GPE',
      content:
      [
        ['South','NNP','sou']
      ]
    },
    ['west','NN','west'],
    ['Speed','NNP','spee'],
    ['8','CD','8'],
    ['mph','NN','mph'],
    ['Friday','NNP','friday'],
    ['18','CD','18'],
    ['Oct','NNP','oct'],
    ['Light','NNP','light'],
    ['showers','NNS','show'],
    {
      tag:'PERSON',
      content:
      [
        ['Temp','NNP','temp'],
        ['High','NNP','high']
      ]
    },
    ['13°c','CD','13°c'],
    ['Low','NNP','low'],
    ['11°c','CD','11°c'],
    ['Wind','NNP','wind'],
    ['From','NNP','from'],
    ['East','NNP','east'],
    ['Speed','NNP','spee'],
    ['14','CD','14'],
    ['mph','NN','mph'],
    ['Saturday','NNP','saturday'],
    ['19','CD','19'],
    ['Oct','NNP','oct'],
    ['Light','NNP','light'],
    ['showers','NNS','show'],
    {
      tag:'PERSON',
      content:
      [
        ['Temp','NNP','temp'],
        ['High','NNP','high']
      ]
    },
    ['15°c','CD','15°c'],
    ['Low','NNP','low'],
    ['11°c','CD','11°c'],
    ['Wind','NNP','wind'],
    ['From','NNP','from'],
    {
      tag:'GPE',
      content:
      [
        ['South','NNP','sou']
      ]
    },
    ['Speed','NNP','spee'],
    ['8','CD','8'],
    ['mph','NN','mph'],
    ['Sunday','NNP','sunday'],
    ['20','CD','20'],
    ['Oct','NNP','oct'],
    ['Light','NNP','light'],
    ['showers','NNS','show'],
    {
      tag:'PERSON',
      content:
      [
        ['Temp','NNP','temp'],
        ['High','NNP','high']
      ]
    },
    ['14°c','CD','14°c'],
    ['Low','NNP','low'],
    ['10°c','CD','10°c'],
    ['Wind','NNP','wind'],
    ['From','NNP','from'],
    {
      tag:'GPE',
      content:
      [
        ['South','NNP','sou']
      ]
    },
    ['Speed','NNP','spee'],
    ['10','CD','10'],
    ['mph','NN','mph'],
    ['Monday','NNP','monday'],
    ['21','CD','21'],
    ['Oct','NNP','oct'],
    ['Light','NNP','light'],
    ['showers','NNS','show'],
    {
      tag:'PERSON',
      content:
      [
        ['Temp','NNP','temp'],
        ['High','NNP','high']
      ]
    },
    ['14°c','CD','14°c'],
    ['Low','NNP','low'],
    ['11°c','CD','11°c'],
    ['Wind','NNP','wind'],
    ['From','NNP','from'],
    {
      tag:'GPE',
      content:
      [
        ['South','NNP','sou']
      ]
    },
    ['Speed','NNP','spee'],
    ['14','CD','14'],
    ['mph','NN','mph'],
    {
      tag:'PERSON',
      content:
      [
        ['Heritage','NNP','herit'],
        ['Food','NNP','food']
      ]
    },
    ['&','CC','&'],
    {
      tag:'PERSON',
      content:
      [
        ['Drink','NNP','drink'],
        ['Travel','NNP','travel'],
        ['Arts','NNP','art'],
        ['Books','NNP','book'],
        ['Motoring','NNP','mot'],
        ['Homes','NNP','hom']
      ]
    },
    ['&','CC','&'],
    {
      tag:'PERSON',
      content:
      [
        ['Gardens','NNP','gard'],
        ['Outdoors','NNP','outdo'],
        ['Technology','NNP','technolog']
      ]
    },
    ['Fashion','NNP','fash'],
    ['Games','NNP','gam'],
    {
      tag:'PERSON',
      content:
      [
        ['Features','NNP','feat'],
        ['Restaurant','NNP','resta']
      ]
    },
    ['reviews','VBZ','review'],
    {
      tag:'PERSON',
      content:
      [
        ['Recipes','NNP','recip'],
        ['Wine','NNP','win']
      ]
    },
    ['&','CC','&'],
    {
      tag:'PERSON',
      content:
      [
        ['Whisky','NNP','whisky'],
        ['News','NNP','new'],
        ['Visual','NNP','vis'],
        ['Arts','NNP','art'],
        ['Features','NNP','feat'],
        ['Property','NNP','property'],
        ['News','NNP','new'],
        ['Picks','NNP','pick']
      ]
    },
    ['of','IN','of'],
    ['the','DT','the'],
    ['day','NN','day'],
    ['Rangers','NNP','rang'],
    [':',':',':'],
    {
      tag:'PERSON',
      content:
      [
        ['Craig','NNP','craig'],
        ['Mather','NNP','math']
      ]
    },
    ['quits','VBZ','quit'],
    ['to','TO','to'],
    ['end','VB','end'],
    ['‘hysteria’','JJ','‘hysteria’'],
    ['Scotland','NNP','scotland'],
    ['2-0','CD','2-0'],
    ['Croatia','NNP','croat'],
    [':',':',':'],
    {
      tag:'ORGANIZATION',
      content:
      [
        ['Great','NNP','gre'],
        ['Scots','NNPS','scot']
      ]
    },
    ['outclass','NN','outclass'],
    {
      tag:'PERSON',
      content:
      [
        ['Croatia','NNP','croat'],
        ['Glasgow','NNP','glasgow'],
        ['Uni','NNP','un']
      ]
    },
    ['experts','NNS','expert'],
    ['to','TO','to'],
    ['tackle','VB','tackl'],
    ['football','NN','footbal'],
    ['fans','NNS','fan'],
    ['health','NN','heal'],
    ['Fencibles','NNS','fenc'],
    ['Scots','NNS','scot'],
    ['army','VBP','army'],
    ['sword','NN','sword'],
    ['to','TO','to'],
    ['be','VB','be'],
    ['auctioned','VBN','auct'],
    {
      tag:'ORGANIZATION',
      content:
      [
        ['Fireball','NNP','firebal']
      ]
    },
    ['meteor','NN','met'],
    ['flies','VBZ','fly'],
    ['through','IN','through'],
    {
      tag:'GPE',
      content:
      [
        ['Northern','NNP','northern']
      ]
    },
    ['Lights','NNP','light'],
    ['Tennent’s','NNP','tennent’s'],
    ['to','TO','to'],
    ['make','VB','mak'],
    ['craft','NN','craft'],
    ['beer','NN','beer'],
    ['in','IN','in'],
    {
      tag:'GPE',
      content:
      [
        ['Glasgow','NNP','glasgow']
      ]
    },
    ['Historic','NNP','hist'],
    ['tours','NNS','tour'],
    ['of','IN','of'],
    {
      tag:'GPE',
      content:
      [
        ['Edinburgh','NNP','edinburgh']
      ]
    },
    ['-',':','-'],
    {
      tag:'ORGANIZATION',
      content:
      [
        ['Just','NNP','just']
      ]
    },
    ['£12','-NONE-','£12'],
    ['!','.','!']
  ]
},
{
  tag:'S',
  content:
  [
    ['Discover','RB','discov'],
    ['The','DT','The'],
    ['Most','RBS','most'],
    ['...',':','...'],
    {
      tag:'PERSON',
      content:
      [
        ['Viewed','NNP','view'],
        ['Discussed','NNP','discuss']
      ]
    },
    ['1','CD','1'],
    ['Grand','NNP','grand'],
    ['Theft','NNP','theft'],
    ['Auto','NNP','auto'],
    ['5','CD','5'],
    ['(','CD','('],
    {
      tag:'ORGANIZATION',
      content:
      [
        ['GTA','NNP','gta']
      ]
    },
    ['V','NNP','v'],
    [')','NNP',')'],
    ['hints','NNS','hint'],
    [',',',',','],
    ['tips','NNS','tip'],
    ['and','CC','and'],
    ['cheats','NNS','che'],
    ['2','CD','2'],
    ['Scottish','JJ','scot'],
    ['independence','NN','independ'],
    [':',':',':'],
    ['Look','NNP','look'],
    ['to','TO','to'],
    {
      tag:'GPE',
      content:
      [
        ['Norway','NNP','norway']
      ]
    },
    ['-',':','-'],
    {
      tag:'ORGANIZATION',
      content:
      [
        ['McLeish','NNP','mcleish']
      ]
    },
    ['3','CD','3'],
    {
      tag:'GPE',
      content:
      [
        ['Scottish','NNP','scot']
      ]
    },
    ['independence','NN','independ'],
    [':',':',':'],
    ['50','CD','50'],
    ['diplomats','NNS','diplom'],
    ['to','TO','to'],
    {
      tag:'ORGANIZATION',
      content:
      [
        ['SNP','NNP','snp']
      ]
    },
    ['conference','NN','conf'],
    ['4','CD','4'],
    ['Rangers','NNS','rang'],
    [':',':',':'],
    {
      tag:'PERSON',
      content:
      [
        ['Craig','NNP','craig'],
        ['Mather','NNP','math']
      ]
    },
    ['quits','VBZ','quit'],
    ['to','TO','to'],
    ['end','VB','end'],
    ['‘hysteria’','JJ','‘hysteria’'],
    ['5','CD','5'],
    ['Celtic','NNP','celt'],
    ['board','NN','board'],
    ['to','TO','to'],
    ['vote','VB','vot'],
    ['on','IN','on'],
    {
      tag:'ORGANIZATION',
      content:
      [
        ['SFA','NNP','sfa'],
        ['Rangers','NNP','rang']
      ]
    },
    ['moves','VBZ','mov'],
    ['at','IN','at'],
    {
      tag:'ORGANIZATION',
      content:
      [
        ['AGM','NNP','agm']
      ]
    },
    ['1','CD','1'],
    ['Rumour','NNP','rumo'],
    ['Mill','NNP','mil'],
    [':',':',':'],
    ['Anya','NNP','any'],
    ['to','TO','to'],
    ['start','VB','start'],
    ['for','IN','for'],
    {
      tag:'GPE',
      content:
      [
        ['Scotland','NNP','scotland']
      ]
    },
    ['?','.','?']
  ]
},
{
  tag:'S',
  content:
  [
    ['|','NN','|'],
    ['Rangers','NNS','rang'],
    ['2','CD','2'],
    ['Rangers','NNS','rang'],
    [':',':',':'],
    {
      tag:'PERSON',
      content:
      [
        ['Craig','NNP','craig'],
        ['Mather','NNP','math']
      ]
    },
    ['quits','VBZ','quit'],
    ['to','TO','to'],
    ['end','VB','end'],
    ['‘hysteria’','JJ','‘hysteria’'],
    ['3','CD','3'],
    {
      tag:'GPE',
      content:
      [
        ['Scottish','JJ','scot']
      ]
    },
    ['independence','NN','independ'],
    [':',':',':'],
    ['Look','NNP','look'],
    ['to','TO','to'],
    {
      tag:'GPE',
      content:
      [
        ['Norway','NNP','norway']
      ]
    },
    ['-',':','-'],
    {
      tag:'ORGANIZATION',
      content:
      [
        ['McLeish','NNP','mcleish']
      ]
    },
    ['4','CD','4'],
    {
      tag:'PERSON',
      content:
      [
        ['Dave','NNP','dav'],
        ['King','NNP','king']
      ]
    },
    ['bids','NNS','bid'],
    ['to','TO','to'],
    ['be','VB','be'],
    {
      tag:'ORGANIZATION',
      content:
      [
        ['Rangers','NNP','rang']
      ]
    },
    ['chairman','NN','chairm'],
    ['5','CD','5'],
    ['Rumour','NNP','rumo'],
    ['Mill','NNP','mil'],
    [':',':',':'],
    {
      tag:'PERSON',
      content:
      [
        ['Lustig','NNP','lustig']
      ]
    },
    ['injury','NN','injury'],
    ['?','.','?']
  ]
},
{
  tag:'S',
  content:
  [
    ['|','NN','|'],
    {
      tag:'GPE',
      content:
      [
        ['Scotland','NNP','scotland']
      ]
    },
    ['v','NN','v'],
    {
      tag:'PERSON',
      content:
      [
        ['Croatia','NNP','croat'],
        ['Book','NNP','book']
      ]
    },
    ['review','NN','review'],
    [':',':',':'],
    ['Churchill’s','JJ','churchill’s'],
    ['Bomb','NNP','bomb'],
    ['by','IN','by'],
    {
      tag:'PERSON',
      content:
      [
        ['Graham','NNP','graham'],
        ['Farmelo','NNP','farmelo'],
        ['Winston','NNP','winston'],
        ['Churchill','NNP','churchil']
      ]
    },
    ['(','NNP','('],
    ['1874','CD','1874'],
    ['-',':','-'],
    ['1965','CD','1965'],
    [')','CD',')'],
    ['speaking','VBG','speak'],
    ['at','IN','at'],
    {
      tag:'ORGANIZATION',
      content:
      [
        ['Westminster','NNP','westminst'],
        ['Abbey','NNP','abbey']
      ]
    },
    [',',',',','],
    {
      tag:'GPE',
      content:
      [
        ['London','NNP','london']
      ]
    },
    ['during','IN','during'],
    ['the','DT','the'],
    {
      tag:'ORGANIZATION',
      content:
      [
        ['General','NNP','gen'],
        ['Election','NNP','elect']
      ]
    },
    ['of','IN','of'],
    ['1924','CD','1924'],
    ['.','.','.']
  ]
},
{
  tag:'S',
  content:
  [
    {
      tag:'GPE',
      content:
      [
        ['Picture','NN','pict']
      ]
    },
    [':',':',':'],
    {
      tag:'PERSON',
      content:
      [
        ['Getty','NNP','getty'],
        ['Published','NNP','publ']
      ]
    },
    ['on','IN','on'],
    ['the','DT','the'],
    ['12','CD','12'],
    ['October','NNP','octob'],
    ['2013','CD','2013'],
    ['12:51','CD','12:51'],
    ['Published','NNP','publ'],
    ['12/10/2013','CD','12/10/2013'],
    ['12:51','CD','12:51'],
    ['Print','NNP','print'],
    ['this','DT','this'],
    ['A','DT','A'],
    ['study','NN','study'],
    ['of','IN','of'],
    ['how','WRB','how'],
    {
      tag:'GPE',
      content:
      [
        ['Britain','NNP','britain']
      ]
    },
    ['lost','VBD','los'],
    ['its','PRP$','its'],
    ['nuclear','JJ','nuclear'],
    ['science','NN','sci'],
    ['leadership','NN','lead'],
    ['impresses','NNS','impress'],
    {
      tag:'PERSON',
      content:
      [
        ['Vin','NNP','vin'],
        ['Arthey','NNP','arthey']
      ]
    },
    ['CHURCHILL’S','NNP','churchill’s'],
    ['BOMBGraham','NNP','bombgraham'],
    ['FarmeloFaber','NNP','farmelofab'],
    [',',',',','],
    ['576pp','CD','576pp'],
    [',',',',','],
    ['£25One','JJ','£25one'],
    ['would','MD','would'],
    ['hardly','RB','hard'],
    ['think','VB','think'],
    ['that','IN','that'],
    ['the','DT','the'],
    ['world','NN','world'],
    ['needs','VBZ','nee'],
    ['another','DT','another'],
    ['book','NN','book'],
    ['on','IN','on'],
    {
      tag:'PERSON',
      content:
      [
        ['Churchill','NNP','churchil']
      ]
    },
    [',',',',','],
    ['or','CC','or'],
    ['on','IN','on'],
    ['the','DT','the'],
    ['nuclear','JJ','nuclear'],
    ['bomb','NN','bomb'],
    [',',',',','],
    ['but','CC','but'],
    {
      tag:'PERSON',
      content:
      [
        ['Costa','NNP','cost']
      ]
    },
    ['biography','NN','biograph'],
    ['award-winner','NN','award-winner'],
    {
      tag:'PERSON',
      content:
      [
        ['Graham','NNP','graham'],
        ['Farmelo','NNP','farmelo']
      ]
    },
    ['presents','NNS','pres'],
    ['us','PRP','us'],
    ['with','IN','with'],
    ['a','DT','a'],
    ['story','NN','story'],
    ['and','CC','and'],
    ['an','DT','an'],
    ['analysis','NN','analys'],
    ['which','WDT','which'],
    ['are','VBP','be'],
    ['so','RB','so'],
    ['fresh','JJ','fresh'],
    ['and','CC','and'],
    ['compelling','VBG','compel'],
    ['that','IN','that'],
    ['we','PRP','we'],
    ['might','MD','might'],
    ['feel','VB','feel'],
    ['we','PRP','we'],
    ['have','VBP','hav'],
    ['come','VBN','com'],
    ['to','TO','to'],
    ['both','DT','both'],
    ['subjects','NNS','subject'],
    ['for','IN','for'],
    ['the','DT','the'],
    ['first','JJ','first'],
    ['time','NN','tim'],
    ['.','.','.']
  ]
},
{
  tag:'S',
  content:
  [
    ['We','PRP','We'],
    ['first','RB','first'],
    ['meet','VBP','meet'],
    {
      tag:'PERSON',
      content:
      [
        ['Churchill','NNP','churchil']
      ]
    },
    ['as','IN','as'],
    ['a','DT','a'],
    ['chirpy','NN','chirpy'],
    ['25-year-old','JJ','25-year-old'],
    [',',',',','],
    ['enjoying','VBG','enjoy'],
    ['the','DT','the'],
    ['club-and','JJ','club-and'],
    ['party-going','JJ','party-going'],
    ['company','NN','company'],
    ['of','IN','of'],
    {
      tag:'ORGANIZATION',
      content:
      [
        ['HG','NNP','hg'],
        ['Wells','NNP','wel']
      ]
    },
    ['.','.','.']
  ]
},
{
  tag:'S',
  content:
  [
    {
      tag:'PERSON',
      content:
      [
        ['Churchill','NNP','churchil']
      ]
    },
    ['avidly','RB','avid'],
    ['read','VB','read'],
    ['everything','NN','everyth'],
    {
      tag:'PERSON',
      content:
      [
        ['Wells','NNS','wel']
      ]
    },
    ['wrote','VBD','writ'],
    [',',',',','],
    ['and','CC','and'],
    ['was','VBD','be'],
    ['particularly','RB','particul'],
    ['impressed','VBN','impress'],
    ['with','IN','with'],
    ['the','DT','the'],
    ['non-fiction','NN','non-fict'],
    ['(',':','('],
    ['such','JJ','such'],
    ['as','IN','as'],
    {
      tag:'GPE',
      content:
      [
        ['Anticipations','NNS','anticip']
      ]
    },
    [')',':',')'],
    ['as','IN','as'],
    ['well','RB','wel'],
    ['as','IN','as'],
    ['the','DT','the'],
    ['fiction','NN','fict'],
    ['(',':','('],
    ['The','DT','The'],
    {
      tag:'ORGANIZATION',
      content:
      [
        ['World','NNP','world'],
        ['Set','NNP','set'],
        ['Free','NNP','fre']
      ]
    },
    [')','NNP',')'],
    ['which','WDT','which'],
    ['dealt','NN','dealt'],
    ['with','IN','with'],
    ['the','DT','the'],
    ['future','NN','fut'],
    ['of','IN','of'],
    ['warfare','NN','warf'],
    ['and','CC','and'],
    ['foresaw','NN','foresaw'],
    ['the','DT','the'],
    ['impact','NN','impact'],
    ['of','IN','of'],
    ['an','DT','an'],
    ['“atomic','JJ','“atomic'],
    ['bomb”','NN','bomb”'],
    ['.','.','.']
  ]
},
{
  tag:'S',
  content:
  [
    ['Influenced','NNP','influ'],
    ['by','IN','by'],
    ['this','DT','this'],
    [',',',',','],
    ['and','CC','and'],
    ['by','IN','by'],
    ['the','DT','the'],
    ['commentary','JJ','com'],
    ['of','IN','of'],
    ['his','PRP$','his'],
    ['(','NN','('],
    ['initially','RB','init'],
    [')','.',')'],
    ['informal','JJ','inform'],
    ['scientific','JJ','sci'],
    ['adviser','NN','adv'],
    {
      tag:'PERSON',
      content:
      [
        ['Frederick','NNP','frederick'],
        ['Lindemann','NNP','lindeman']
      ]
    },
    [',',',',','],
    ['in','IN','in'],
    ['1924','CD','1924'],
    {
      tag:'PERSON',
      content:
      [
        ['Churchill','NNP','churchil']
      ]
    },
    ['wrote','VBD','writ'],
    ['“Shall','JJ','“shall'],
    ['We','PRP','We'],
    ['All','DT','All'],
    {
      tag:'ORGANIZATION',
      content:
      [
        ['Commit','NNP','commit'],
        ['Suicide','NNP','suicid']
      ]
    },
    ['?','.','?'],
    ['”',':','”'],
    ['about','IN','about'],
    ['the','DT','the'],
    ['potential','NN','pot'],
    ['devastation','NN','devast'],
    ['a','DT','a'],
    ['nuclear','JJ','nuclear'],
    ['bomb','NN','bomb'],
    ['could','MD','could'],
    ['cause','VB','caus'],
    ['–',':','–'],
    ['even','RB','ev'],
    ['though','IN','though'],
    ['he','PRP','he'],
    ['always','RB','alway'],
    ['aimed','VBN','aim'],
    ['for','IN','for'],
    {
      tag:'GPE',
      content:
      [
        ['Britain','NNP','britain']
      ]
    },
    ['to','TO','to'],
    ['have','VB','hav'],
    ['one','CD','one'],
    ['.','.','.']
  ]
},
{
  tag:'S',
  content:
  [
    ['The','DT','The'],
    ['problem','NN','problem'],
    [',',',',','],
    {
      tag:'PERSON',
      content:
      [
        ['Farmelo','NNP','farmelo']
      ]
    },
    ['shows','VBZ','show'],
    [',',',',','],
    ['was','VBD','be'],
    ['that','IN','that'],
    {
      tag:'PERSON',
      content:
      [
        ['Churchill','NNP','churchil']
      ]
    },
    ['failed','VBD','fail'],
    ['to','TO','to'],
    ['understand','VB','understand'],
    ['the','DT','the'],
    ['complex','NN','complex'],
    ['interrelation','NN','interrel'],
    ['between','IN','between'],
    ['scientific','JJ','sci'],
    ['thinking','NN','think'],
    [',',',',','],
    ['scientific','JJ','sci'],
    ['experiment','NN','expery'],
    ['and','CC','and'],
    ['open','JJ','op'],
    ['exchange','NN','exchang'],
    ['of','IN','of'],
    ['ideas','NNS','ide'],
    ['needed','VBN','nee'],
    ['to','TO','to'],
    ['make','VB','mak'],
    ['discoveries','NNS','discovery'],
    ['and','CC','and'],
    ['turn','VB','turn'],
    ['them','PRP','them'],
    ['into','IN','into'],
    ['practical','JJ','pract'],
    ['applications','NNS','apply'],
    ['.','.','.']
  ]
},
{
  tag:'S',
  content:
  [
    ['He','PRP','He'],
    ['also','RB','also'],
    ['had','VBD','hav'],
    ['no','DT','no'],
    ['patience','NN','paty'],
    ['with','IN','with'],
    ['most','JJS','most'],
    ['scientists','NNS','sci'],
    [',',',',','],
    ['whose','WP$','whose'],
    ['training','NN','train'],
    ['disinclined','VBD','disinclin'],
    ['them','PRP','them'],
    ['to','TO','to'],
    ['give','VB','giv'],
    ['him','PRP','him'],
    ['firm','NN','firm']
  ]
}]