[
{
  tag:'S',
  content:
  [
    {
      tag:'PERSON',
      content:
      [
        ['Felipe','NNP','felip']
      ]
    },
    ['González','NNP','gonzález'],
    ['elogia','NN','elog'],
    ['proceso','RB','proceso'],
    ['paz','NN','paz'],
    ['Gobierno-FARC','NN','gobierno-farc'],
    {
      tag:'ORGANIZATION',
      content:
      [
        ['Associated','NNP','assocy'],
        ['Press','NNP','press']
      ]
    },
    ['-',':','-'],
    ['Tuesday','NNP','tuesday'],
    [',',',',','],
    ['April','NNP','april'],
    ['30','CD','30'],
    [',',',',','],
    ['2013','CD','2013'],
    {
      tag:'ORGANIZATION',
      content:
      [
        ['BOGOTA','NNP','bogot']
      ]
    },
    [',',',',','],
    {
      tag:'GPE',
      content:
      [
        ['Colombia','NNP','colomb']
      ]
    },
    ['(','NNP','('],
    {
      tag:'ORGANIZATION',
      content:
      [
        ['AP','NNP','ap']
      ]
    },
    [')','NNP',')'],
    ['—','NNP','—'],
    ['El','NNP','el'],
    ['ex','NN','ex'],
    ['presidente','NN','presid'],
    ['del','NN','del'],
    ['gobierno','NN','gobierno'],
    ['español','NN','español'],
    {
      tag:'PERSON',
      content:
      [
        ['Felipe','NNP','felip']
      ]
    },
    ['González','NNP','gonzález'],
    ['aseguró','NNP','aseguró'],
    ['el','NN','el'],
    ['martes','VBZ','mart'],
    ['que','NN','que'],
    ['por','NN','por'],
    ['primera','NN','primer'],
    ['vez','NN','vez'],
    ['en','NN','en'],
    ['30','CD','30'],
    ['años','NNS','año'],
    ['ve','VBP','ve'],
    ['un','VBN','un'],
    ['camino','NN','camino'],
    ['claro','NN','claro'],
    ['para','NN','par'],
    ['el','NN','el'],
    ['éxito','-NONE-','éxito'],
    ['de','IN','de'],
    ['un','NN','un'],
    ['eventual','JJ','ev'],
    ['proceso','NN','proceso'],
    ['de','IN','de'],
    ['paz','NN','paz'],
    ['entre','NN','ent'],
    ['el','NN','el'],
    ['gobierno','NN','gobierno'],
    ['colombiano','NN','colombiano'],
    ['y','NN','y'],
    ['las','NNS','la'],
    {
      tag:'ORGANIZATION',
      content:
      [
        ['FARC','NNP','farc']
      ]
    },
    ['.','.','.']
  ]
},
{
  tag:'S',
  content:
  [
    ['``','``','``'],
    ['Es','NNS','es'],
    ['la','VBP','la'],
    ['primera','NN','primer'],
    ['vez','NN','vez'],
    ['en','NN','en'],
    ['todo','NN','todo'],
    ['este','NN','est'],
    ['tiempo','NN','tiempo'],
    [',',',',','],
    ['que','NN','que'],
    ['son','NN','son'],
    ['treinta','NN','treint'],
    ['y','NN','y'],
    ['muchos','NNS','mucho'],
    ['años','NNS','año'],
    [',',',',','],
    ['que','VBP','que'],
    ['veo','NN','veo'],
    ['una','NN','un'],
    ['oportunidad','NN','oportunidad'],
    ['clara','NN','clar'],
    ['para','NN','par'],
    ['la','NN','la'],
    ['paz','NN','paz'],
    [';',':',';'],
    ['es','NNS','e'],
    ['ahora','VBP','ahor'],
    ['''','''',''''],
    [',',',',','],
    ['dijo','RB','dijo'],
    ['González','JJ','gonzález'],
    ['al','NN','al'],
    ['término','-NONE-','término'],
    ['de','IN','de'],
    ['un','NN','un'],
    ['encuentro','NN','encuentro'],
    ['en','NN','en'],
    ['la','NN','la'],
    {
      tag:'PERSON',
      content:
      [
        ['Casa','NNP','cas']
      ]
    },
    ['de','IN','de'],
    ['Nariño','NNP','nariño'],
    ['o','NN','o'],
    ['sede','NN','sed'],
    ['de','IN','de'],
    ['gobierno','DT','gobierno'],
    ['con','NN','con'],
    ['el','NN','el'],
    ['presidente','NN','presid'],
    {
      tag:'PERSON',
      content:
      [
        ['Juan','NNP','juan'],
        ['Manuel','NNP','manuel'],
        ['Santos','NNP','santo']
      ]
    },
    ['.','.','.']
  ]
},
{
  tag:'S',
  content:
  [
    ['``','``','``'],
    ['Curiosamente','NNP','curiosa'],
    ['la','NN','la'],
    ['evolución','-NONE-','evolución'],
    ['de','IN','de'],
    {
      tag:'GPE',
      content:
      [
        ['Colombia','NNP','colomb']
      ]
    },
    ['ha','NN','ha'],
    ['sido','NN','sido'],
    ['fantástica','NN','fantástic'],
    [',',',',','],
    {
      tag:'GPE',
      content:
      [
        ['Colombia','NNP','colomb']
      ]
    },
    ['tiene','NN','tien'],
    ['un','NN','un'],
    ['crecimiento','IN','crecimiento'],
    ['que','NN','que'],
    ['se','NN','se'],
    ['está','NN','está'],
    ['acercando','NN','acercando'],
    ['por','NN','por'],
    ['primera','NN','primer'],
    ['vez','NN','vez'],
    ['en','NN','en'],
    ['la','NN','la'],
    ['historia','NN','histor'],
    ['a','DT','a'],
    ['su','NN','su'],
    ['crecimiento','IN','crecimiento'],
    ['potencial','JJ','pot'],
    ['.','.','.']
  ]
},
{
  tag:'S',
  content:
  [
    {
      tag:'GPE',
      content:
      [
        ['Si','NNP','si']
      ]
    },
    ['se','NN','se'],
    ['consiguiera','NN','consiguier'],
    ['la','NN','la'],
    ['paz','NN','paz'],
    ['hoy','NN','hoy'],
    [',',',',','],
    ['creo','NN','creo'],
    ['que','NN','que'],
    ['eso','RB','eso'],
    ['añadiría','JJ','añadirí'],
    ['dos','NNS','do'],
    ['puntos','NNS','punto'],
    ['al','VBP','al'],
    ['crecimiento','IN','crecimiento'],
    ['de','IN','de'],
    {
      tag:'GPE',
      content:
      [
        ['Colombia','NNP','colomb']
      ]
    },
    ['.','.','.']
  ]
},
{
  tag:'S',
  content:
  [
    ['Ha','NNP','ha'],
    ['generado','VBP','generado'],
    ['una','NN','un'],
    ['extraordinaria','NNS','extraordinar'],
    ['confianza','VBP','confianz'],
    ['''','''',''''],
    [',',',',','],
    ['sostuvo','RB','sostuvo'],
    ['González.El','JJ','gonzález.el'],
    ['dirigente','NN','dirig'],
    ['del','NN','del'],
    {
      tag:'PERSON',
      content:
      [
        ['Partido','NNP','partido'],
        ['Socialista','NNP','socialist'],
        ['Obrero','NNP','obrero']
      ]
    },
    ['Español','NNP','español'],
    ['(','NNP','('],
    {
      tag:'ORGANIZATION',
      content:
      [
        ['PSOE','NNP','pso']
      ]
    },
    [')','NNP',')'],
    [',',',',','],
    ['que','NN','que'],
    ['presidió','-NONE-','presidió'],
    ['el','NN','el'],
    ['gobierno','NN','gobierno'],
    ['español','NN','español'],
    ['entre','NN','ent'],
    ['1982','CD','1982'],
    ['y','NN','y'],
    ['1996','CD','1996'],
    [',',',',','],
    ['se','NN','se'],
    ['mostró','-NONE-','mostró'],
    ['partidario','NN','partidario'],
    ['del','NN','del'],
    ['sigilo','NN','sigilo'],
    ['con','NN','con'],
    ['que','NN','que'],
    ['se','NN','se'],
    ['han','IN','han'],
    ['mantenido','NN','mantenido'],
    ['en','NN','en'],
    {
      tag:'PERSON',
      content:
      [
        ['Cuba','NNP','cub']
      ]
    },
    ['las','VBZ','las'],
    ['conversaciones','NNS','conversac'],
    ['entre','VBP','ent'],
    ['el','NN','el'],
    ['gobierno','NN','gobierno'],
    ['de','IN','de'],
    {
      tag:'GPE',
      content:
      [
        ['Santos','NNP','santo']
      ]
    },
    ['y','NN','y'],
    ['las','VBZ','las'],
    {
      tag:'PERSON',
      content:
      [
        ['Fuerzas','NNP','fuerza'],
        ['Armadas','NNP','armada'],
        ['Revolucionarias','NNP','revolucionaria']
      ]
    },
    ['de','IN','de'],
    {
      tag:'GPE',
      content:
      [
        ['Colombia','NNP','colomb']
      ]
    },
    ['(','NNP','('],
    {
      tag:'ORGANIZATION',
      content:
      [
        ['FARC','NNP','farc']
      ]
    },
    [')','NNP',')'],
    ['para','NN','par'],
    ['tratar','NN','trat'],
    ['de','IN','de'],
    ['poner','NN','pon'],
    ['fin','NN','fin'],
    ['a','DT','a'],
    ['casi','NN','cas'],
    ['50','CD','50'],
    ['años','NNS','año'],
    ['de','IN','de'],
    ['confrontaciones','NNS','confrontac'],
    ['entre','VBP','ent'],
    ['las','NNS','la'],
    ['partes.Hay','JJ','partes.hay'],
    ['``','``','``'],
    ['algunas','NNS','alguna'],
    ['cosas','VBP','cosa'],
    ['bien','VBN','bien'],
    ['curiosas','NNS','curios'],
    ['.','.','.']
  ]
},
{
  tag:'S',
  content:
  [
    {
      tag:'GPE',
      content:
      [
        ['El','NNP','el']
      ]
    },
    ['proceso','RB','proceso'],
    ['de','IN','de'],
    ['paz','NN','paz'],
    ['no','DT','no'],
    ['es','NNS','e'],
    ['secreto','IN','secreto'],
    [',',',',','],
    ['pero','NN','pero'],
    ['sus','VBZ','sus'],
    ['contenidos','NNS','contenido'],
    ['no','DT','no'],
    ['se','NN','se'],
    ['conocen','VBN','conoc'],
    ['.','.','.']
  ]
},
{
  tag:'S',
  content:
  [
    {
      tag:'GPE',
      content:
      [
        ['Estoy','NNP','estoy']
      ]
    },
    ['totalmente','VBP','tot'],
    ['de','IN','de'],
    ['acuerdo','NN','acuerdo'],
    ['.','.','.']
  ]
},
{
  tag:'S',
  content:
  [
    {
      tag:'GPE',
      content:
      [
        ['El','NNP','el']
      ]
    },
    ['proceso','RB','proceso'],
    ['de','IN','de'],
    ['paz','NN','paz'],
    ['no','DT','no'],
    ['se','NN','se'],
    ['dará','-NONE-','dará'],
    ['por','NN','por'],
    ['hecho','NN','hecho'],
    ['hasta','NN','hast'],
    ['que','NN','que'],
    ['no','DT','no'],
    ['se','NN','se'],
    ['acaben','VBN','acab'],
    ['todos','NNS','todo'],
    ['los','NNS','los'],
    ['puntos','NNS','punto'],
    [',',',',','],
    ['cosa','NN','cos'],
    ['en','NN','en'],
    ['la','NN','la'],
    ['que','NN','que'],
    ['estoy','NN','estoy'],
    ['absolutamente','NN','absoluta'],
    ['de','IN','de'],
    ['acuerdo','NN','acuerdo'],
    ['''','''',''''],
    [',',',',','],
    ['enfatizó.Santos','NNP','enfatizó.santos'],
    [',',',',','],
    ['en','VBN','en'],
    ['tanto','IN','tanto'],
    [',',',',','],
    ['agradeció','NNP','agradeció'],
    ['a','DT','a'],
    ['González','NNP','gonzález'],
    ['su','NN','su'],
    ['apoyo','NN','apoyo'],
    ['al','NN','al'],
    ['proceso','RB','proceso'],
    ['de','IN','de'],
    ['paz','NN','paz'],
    ['y','NN','y'],
    ['lo','NN','lo'],
    ['calificó','NN','calificó'],
    ['como','NN','como'],
    ['``','``','``'],
    ['un','NN','un'],
    ['gran','NN','gran'],
    ['amigo','NN','amigo'],
    ['de','IN','de'],
    {
      tag:'GPE',
      content:
      [
        ['Colombia','NNP','colomb']
      ]
    },
    ['hace','NN','hac'],
    ['muchísimo','-NONE-','muchísimo'],
    ['tiempo','RB','tiempo'],
    ['''','''',''''],
    ['.4','CD','.4'],
    ['comments','NNS','com'],
    {
      tag:'GPE',
      content:
      [
        ['Los','NNP','los']
      ]
    },
    ['socialistas','NNS','socialista'],
    ['suelen','VBP','suel'],
    ['ver','RB','ver'],
    ['por','JJ','por'],
    ['otros','NNS','otro'],
    ['ojos','NNS','ojo'],
    ['que','VBP','que'],
    ['no','DT','no'],
    ['reproducen','NN','reproduc'],
    ['ni','NN','ni'],
    ['concuerdan','NN','concuerd'],
    ['con','NN','con'],
    ['la','NN','la'],
    ['realidad','NN','realidad'],
    ['histórica','NN','históric'],
    ['colombiana','NN','colombian'],
    ['.','.','.']
  ]
},
{
  tag:'S',
  content:
  [
    ['Aquí','NN','aquí'],
    ['llegan','VBD','lleg'],
    ['estos','NNS','esto'],
    ['personajes','NNS','personas'],
    ['a','DT','a'],
    ['endulzar','NN','endulz'],
    ['el','NN','el'],
    ['oido','NN','oido'],
    ['de','IN','de'],
    ['quienes','NNS','qui'],
    ['no','DT','no'],
    ['leen','NN','leen'],
    ['objetivamente','NN','objetiva'],
    ['el','NN','el'],
    ['tal','NN','tal'],
    ['proceso','RB','proceso'],
    ['de','IN','de'],
    ['paz','NN','paz'],
    [';',':',';'],
    ['no','DT','no'],
    ['me','PRP','me'],
    ['asombra','VBP','asombr'],
    ['dicha','NN','dich'],
    ['tosudez','NN','tosudez'],
    ['ni','NN','ni'],
    ['me','PRP','me'],
    ['convence','NN','conv'],
    ['tanto','IN','tanto'],
    ['dulce','NN','dulc'],
    ['para','NN','par'],
    ['los','NNS','los'],
    ['embelesados','NNS','embelesado'],
    ['.','.','.']
  ]
},
{
  tag:'S',
  content:
  [
    {
      tag:'GPE',
      content:
      [
        ['Nunca','NNP','nunc']
      ]
    },
    ['se','NN','se'],
    ['habla','NN','habl'],
    ['por','NN','por'],
    ['temor','NN','tem'],
    ['e','NN','e'],
    ['hipocresía','NN','hipocresí'],
    ['que','NN','que'],
    ['se','NN','se'],
    ['trata','NN','trat'],
    ['de','IN','de'],
    ['un','NN','un'],
    ['proceso','RB','proceso'],
    ['en','VBN','en'],
    ['las','NNS','la'],
    ['tinieblas','IN','tinieblas'],
    [',',',',','],
    ['pues','NNS','pue'],
    ['nada','VBP','nad'],
    ['se','NN','se'],
    ['ve','NN','ve'],
    [',',',',','],
    ['de','IN','de'],
    ['una','NN','un'],
    ['paz','NN','paz'],
    ['imaginaria','NN','imaginar'],
    ['y','NN','y'],
    ['definitivamente','NN','definitiva'],
    ['imposible','JJ','impos'],
    ['como','NN','como'],
    ['se','NN','se'],
    ['trae','NN','tra'],
    ['el','NN','el'],
    ['asunto','IN','asunto'],
    ['.','.','.']
  ]
},
{
  tag:'S',
  content:
  [
    {
      tag:'GPE',
      content:
      [
        ['Jorge','NNP','jorg']
      ]
    },
    [',',',',','],
    ['Tuesday','NNP','tuesday'],
    [',',',',','],
    ['April','NNP','april'],
    ['30','CD','30'],
    [',',',',','],
    ['2013','CD','2013'],
    ['Duelale','NNP','duel'],
    ['a','DT','a'],
    ['quien','NN','qui'],
    ['le','NN','le'],
    ['duela','NN','duel'],
    [',',',',','],
    ['pero','NN','pero'],
    ['la','NN','la'],
    ['paz','NN','paz'],
    ['en','NN','en'],
    {
      tag:'GPE',
      content:
      [
        ['Colombia','NNP','colomb']
      ]
    },
    ['es','VBZ','es'],
    ['obra','NN','obr'],
    ['del','NN','del'],
    {
      tag:'ORGANIZATION',
      content:
      [
        ['Comandante','NNP','comand'],
        ['Supremo','NNP','supremo'],
        ['Hugo','NNP','hugo']
      ]
    },
    ['Chávez','NNP','chávez'],
    {
      tag:'PERSON',
      content:
      [
        ['Ivan','NNP','iv']
      ]
    },
    [',',',',','],
    ['Tuesday','NNP','tuesday'],
    [',',',',','],
    ['April','NNP','april'],
    ['30','CD','30'],
    [',',',',','],
    ['2013','CD','2013'],
    ['Felipillo','NNP','felipillo'],
    ['está','NNP','está'],
    ['contento','IN','contento'],
    ['porque','NN','porqu'],
    {
      tag:'GPE',
      content:
      [
        ['Colombia','NNP','colomb']
      ]
    },
    ['tiene','NN','tien'],
    ['crecimiento','IN','crecimiento'],
    ['económico','NNP','económico'],
    ['.','.','.']
  ]
},
{
  tag:'S',
  content:
  [
    {
      tag:'ORGANIZATION',
      content:
      [
        ['ALERTA','NNP','alert']
      ]
    },
    {
      tag:'GPE',
      content:
      [
        ['COLOMBIANOS','NNP','colombiano']
      ]
    },
    [',',',',','],
    {
      tag:'PERSON',
      content:
      [
        ['Ese','NNP','es'],
        ['PILLO','NNP','pillo']
      ]
    },
    ['se','NN','se'],
    ['cansó','-NONE-','cansó'],
    ['de','IN','de'],
    ['robar','NN','rob'],
    ['en','NN','en'],
    {
      tag:'PERSON',
      content:
      [
        ['Venezuela','NNP','venezuel']
      ]
    },
    ['con','NN','con'],
    ['su','NN','su'],
    ['compadre','NN','compadr'],
    {
      tag:'PERSON',
      content:
      [
        ['Carlos','NNP','carlo']
      ]
    },
    ['Andrés','NNP','andré'],
    ['Pérez','NNP','pérez'],
    {
      tag:'PERSON',
      content:
      [
        ['Ivan','NNP','iv']
      ]
    },
    [',',',',','],
    ['Tuesday','NNP','tuesday'],
    [',',',',','],
    ['April','NNP','april'],
    ['30','CD','30'],
    [',',',',','],
    ['2013','CD','2013'],
    {
      tag:'ORGANIZATION',
      content:
      [
        ['MIREN','NNP','mir']
      ]
    },
    ['NO','NNP','no'],
    {
      tag:'ORGANIZATION',
      content:
      [
        ['VIVAN','NNP','viv'],
        ['DE','NNP','de']
      ]
    },
    {
      tag:'ORGANIZATION',
      content:
      [
        ['ILUCIONES','NNP','iluc']
      ]
    },
    {
      tag:'ORGANIZATION',
      content:
      [
        ['PARA','NNP','par']
      ]
    },
    ['MORIR','NNP','morir'],
    ['DE','NNP','de'],
    ['DESENGANOS','NNP','desengano'],
    ['ESAS','NNP','esa'],
    {
      tag:'ORGANIZATION',
      content:
      [
        ['REUNIONES','NNP','reun']
      ]
    },
    ['EN','NNP','en'],
    {
      tag:'ORGANIZATION',
      content:
      [
        ['CUBA','NNP','cub'],
        ['DE','NNP','de']
      ]
    },
    ['LA','NNP','la'],
    ['FARC','NNP','farc'],
    ['Y','NNP','y'],
    ['EL','NNP','el'],
    ['GOBIERNO','NNP','gobierno'],
    ['ESO','NNP','eso'],
    ['NO','NNP','no'],
    ['LLEGA','NNP','lleg'],
    ['A','NNP','a'],
    {
      tag:'ORGANIZATION',
      content:
      [
        ['NADAAAAAAAAA','NNP','nadaaaaaaaa']
      ]
    },
    ['ESO','NNP','eso'],
    ['SOLO','NNP','solo'],
    ['SE','NNP','se'],
    ['RESUELVE','NNP','resuelv'],
    ['A','NNP','a'],
    {
      tag:'ORGANIZATION',
      content:
      [
        ['PLOM','NNP','plom']
      ]
    },
    {
      tag:'ORGANIZATION',
      content:
      [
        ['CONTRA','NNP','contr']
      ]
    },
    ['LA','NNP','la'],
    ['GUERRILLA','NNP','guerrill'],
    ['TERRORISTA','NNP','terrorist'],
    ['LO','NNP','lo'],
    ['DEMAS','NNP','dema'],
    ['ES','NNP','es'],
    ['UN','NNP','un'],
    {
      tag:'ORGANIZATION',
      content:
      [
        ['CUENTO','NNP','cuento'],
        ['Lopez','NNP','lopez']
      ]
    },
    [',',',',','],
    ['Tuesday','NNP','tuesday'],
    [',',',',','],
    ['April','NNP','april'],
    ['30','CD','30'],
    [',',',',','],
    ['2013','CD','2013'],
    ['Sign','NNP','sign'],
    ['in','IN','in'],
    ['to','TO','to'],
    ['add','VB','ad'],
    {
      tag:'ORGANIZATION',
      content:
      [
        ['commentsNews','NNP','commentsnew']
      ]
    },
    ['HomeU.S.WorldTechPoliticsScienceHealthBlogsSet','NNP','homeu.s.worldtechpoliticssciencehealthblogsset'],
    ['My','NNP','my'],
    ['LocationSign','NNP','locationsign'],
    ['inSettings','NNP','inset'],
    ['|','NNP','|'],
    ['Privacy','NNP','priv'],
    ['|','NNP','|'],
    ['Legal','NNP','leg'],
    ['|','NNP','|'],
    ['Help©','NNP','help©'],
    ['2013','CD','2013'],
    ['Yahoo','NNP','yahoo'],
    ['.','.','.']
  ]
},
{
  tag:'S',
  content:
  [
    ['All','DT','All'],
    ['rights','NNS','right'],
    ['reserved','VBN','reserv']
  ]
}]