[
{
  tag:'S',
  content:
  [
    ['Try','NNP','try'],
    ['a','DT','a'],
    {
      tag:'ORGANIZATION',
      content:
      [
        ['Digital','NNP','digit'],
        ['Subscription','NNP','subscrib']
      ]
    },
    ['campaign','NN','campaign'],
    [':',':',':'],
    ['inyt2013_bar1_hp_ros_digi_3KXQQ','NNP','inyt2013_bar1_hp_ros_digi_3kxqq'],
    ['--',':','--'],
    ['227471','CD','227471'],
    [',',',',','],
    ['creative','JJ','cre'],
    [':',':',':'],
    ['bar1_ros_inyt_hp_digi_3KXQQ','NNP','bar1_ros_inyt_hp_digi_3kxqq'],
    ['--',':','--'],
    ['351672','CD','351672'],
    [',',',',','],
    ['page','NN','pag'],
    [':',':',':'],
    ['www.nytimes.com/yr/mo/day/world/europe/oscar-wildes-tomb-sealed-from-admirers-kisses.html','JJ','www.nytimes.com/yr/mo/day/world/europe/oscar-wildes-tomb-sealed-from-admirers-kisses.html'],
    [',',',',','],
    ['targetedPage','NNP','targetedp'],
    [':',':',':'],
    ['www.nytimes.com/yr/mo/day/world/europe','JJ','www.nytimes.com/yr/mo/day/world/europe'],
    [',',',',','],
    ['position','NN','posit'],
    [':',':',':'],
    {
      tag:'ORGANIZATION',
      content:
      [
        ['Bar1','NNP','bar1'],
        ['Log','NNP','log']
      ]
    },
    ['In','NNP','in'],
    ['Register','NNP','reg'],
    ['Now','NNP','now'],
    ['Help','NNP','help'],
    ['Home','NNP','hom'],
    ['Page','NNP','pag'],
    ['Today','NNP','today'],
    [''s','POS',''s'],
    {
      tag:'PERSON',
      content:
      [
        ['Paper','NNP','pap'],
        ['Video','NNP','video'],
        ['Most','NNP','most'],
        ['Popular','NNP','popul']
      ]
    },
    ['Edition','NNP','edit'],
    [':',':',':'],
    {
      tag:'GPE',
      content:
      [
        ['U.S.','NNP','u.s.']
      ]
    },
    ['/',':','/'],
    {
      tag:'PERSON',
      content:
      [
        ['Global','NNP','glob'],
        ['Search','NNP','search'],
        ['All','NNP','al']
      ]
    },
    ['NYTimes.com','NNP','nytimes.com'],
    {
      tag:'PERSON',
      content:
      [
        ['Europe','NNP','europ'],
        ['World','NNP','world']
      ]
    },
    ['AfricaAmericasAsia','NNP','africaamericasas'],
    {
      tag:'ORGANIZATION',
      content:
      [
        ['PacificEuropeMiddle','NNP','pacificeuropemiddl'],
        ['East','NNP','east'],
        ['U.S.','NNP','u.s.']
      ]
    },
    ['N.Y.','NNP','n.y.'],
    ['/','NNP','/'],
    ['Region','NNP','reg'],
    ['Business','NNP','busy'],
    ['Technology','NNP','technolog'],
    ['Science','NNP','sci'],
    ['Health','NNP','heal'],
    ['Sports','NNP','sport'],
    ['Opinion','NNP','opin'],
    ['Arts','NNP','art'],
    ['Style','NNP','styl'],
    {
      tag:'PERSON',
      content:
      [
        ['Travel','NNP','travel'],
        ['Jobs','NNP','job'],
        ['Real','NNP','real'],
        ['Estate','NNP','est'],
        ['Autos','NNP','auto'],
        ['Paris','NNP','par'],
        ['Journal','NNP','journ'],
        ['Walling','NNP','wal'],
        ['Off','NNP','off'],
        ['Oscar','NNP','osc']
      ]
    },
    ['Wilde’s','NNP','wilde’s'],
    ['Tomb','NNP','tomb'],
    ['From','NNP','from'],
    ['Admirers’','NNP','admirers’'],
    {
      tag:'PERSON',
      content:
      [
        ['Kisses','NNP','kiss'],
        ['Tomas','NNP','toma']
      ]
    },
    ['van','NNP','van'],
    ['Houtryve','NNP','houtryv'],
    ['for','IN','for'],
    ['The','DT','The'],
    {
      tag:'GPE',
      content:
      [
        ['New','NNP','new'],
        ['York','NNP','york']
      ]
    },
    {
      tag:'PERSON',
      content:
      [
        ['Times','NNP','tim'],
        ['Amber','NNP','amb'],
        ['Luallen','NNP','lual']
      ]
    },
    [',',',',','],
    ['an','DT','an'],
    {
      tag:'GPE',
      content:
      [
        ['American','NNP','am']
      ]
    },
    ['visiting','NN','visit'],
    {
      tag:'GPE',
      content:
      [
        ['Paris','NNP','par']
      ]
    },
    [',',',',','],
    ['kissed','VBD','kiss'],
    ['the','DT','the'],
    ['glass','NN','glass'],
    ['barrier','NN','barry'],
    ['around','IN','around'],
    {
      tag:'PERSON',
      content:
      [
        ['Oscar','NNP','osc'],
        ['Wilde','NNP','wild']
      ]
    },
    [''s','POS',''s'],
    ['tomb','NN','tomb'],
    ['at','IN','at'],
    ['the','DT','the'],
    ['Père','JJ','père'],
    {
      tag:'PERSON',
      content:
      [
        ['Lachaise','NNP','lacha'],
        ['Cemetery','NNP','cemetery']
      ]
    },
    ['.','.','.']
  ]
},
{
  tag:'S',
  content:
  [
    ['By','IN','By'],
    {
      tag:'ORGANIZATION',
      content:
      [
        ['JOHN','NNP','john']
      ]
    },
    ['TAGLIABUE','NNP','tagliabu'],
    ['Published','NNP','publ'],
    [':',':',':'],
    ['December','NNP','decemb'],
    ['15','CD','15'],
    [',',',',','],
    ['2011','CD','2011'],
    {
      tag:'ORGANIZATION',
      content:
      [
        ['PARIS','NNP','par']
      ]
    },
    ['—','NNP','—'],
    ['In','NNP','in'],
    ['his','PRP$','his'],
    ['dark','NN','dark'],
    ['comedy','NN','comedy'],
    ['of','IN','of'],
    ['1893','CD','1893'],
    [',',',',','],
    ['“A','NNP','“a'],
    ['Woman','NNP','wom'],
    ['of','IN','of'],
    {
      tag:'ORGANIZATION',
      content:
      [
        ['No','NNP','no'],
        ['Importance','NNP','import']
      ]
    },
    [',',',',','],
    ['”','NNP','”'],
    ['Oscar','NNP','osc'],
    {
      tag:'PERSON',
      content:
      [
        ['Wilde','NNP','wild']
      ]
    },
    ['has','VBZ','hav'],
    ['Mrs.','NNP','mrs.'],
    ['Arbuthnot','NNP','arbuthnot'],
    [',',',',','],
    ['a','DT','a'],
    ['respectable','JJ','respect'],
    ['woman','NN','wom'],
    ['with','IN','with'],
    ['a','DT','a'],
    ['secret','NN','secret'],
    ['past','NN','past'],
    [',',',',','],
    ['remark','NN','remark'],
    ['knowingly','RB','know'],
    [':',':',':'],
    ['“A','JJ','“a'],
    ['kiss','NN','kiss'],
    ['may','MD','may'],
    ['ruin','VB','ruin'],
    ['a','DT','a'],
    ['human','JJ','hum'],
    ['life.”','NN','life.”'],
    {
      tag:'PERSON',
      content:
      [
        ['Related','NNP','rel'],
        ['Times','NNP','tim']
      ]
    },
    ['Topic','NNP','top'],
    [':',':',':'],
    {
      tag:'PERSON',
      content:
      [
        ['Oscar','NNP','osc'],
        ['Wilde','NNP','wild'],
        ['Connect','NNP','connect'],
        ['With','NNP','with'],
        ['Us','NNP','us']
      ]
    },
    ['on','IN','on'],
    {
      tag:'PERSON',
      content:
      [
        ['Twitter','NNP','twit'],
        ['Follow','NNP','follow']
      ]
    },
    ['@','NNP','@'],
    ['nytimesworld','NN','nytimesworld'],
    ['for','IN','for'],
    ['international','JJ','intern'],
    ['breaking','NN','break'],
    ['news','NN','new'],
    ['and','CC','and'],
    ['headlines','NNS','headlin'],
    ['.','.','.']
  ]
},
{
  tag:'S',
  content:
  [
    {
      tag:'PERSON',
      content:
      [
        ['Twitter','NNP','twit']
      ]
    },
    ['List','NNP','list'],
    [':',':',':'],
    ['Reporters','NNS','report'],
    ['and','CC','and'],
    {
      tag:'PERSON',
      content:
      [
        ['Editors','NNP','edit'],
        ['It','NNP','it']
      ]
    },
    ['can','MD','can'],
    ['also','RB','also'],
    [',',',',','],
    ['apparently','RB','app'],
    [',',',',','],
    ['ruin','IN','ruin'],
    ['the','DT','the'],
    ['stone','NN','ston'],
    ['blocks','NNS','block'],
    ['of','IN','of'],
    ['a','DT','a'],
    ['tomb','NN','tomb'],
    ['.','.','.']
  ]
},
{
  tag:'S',
  content:
  [
    ['Recently','RB','rec'],
    [',',',',','],
    ['descendants','NNS','descend'],
    ['of','IN','of'],
    {
      tag:'GPE',
      content:
      [
        ['Wilde','NNP','wild']
      ]
    },
    [',',',',','],
    ['the','DT','the'],
    {
      tag:'GPE',
      content:
      [
        ['Irish','NNP','ir']
      ]
    },
    ['dramatist','NN','dram'],
    ['and','CC','and'],
    ['wit','NN','wit'],
    ['who','WP','who'],
    ['died','VBD','die'],
    ['here','RB','her'],
    ['in','IN','in'],
    ['1900','CD','1900'],
    [',',',',','],
    ['decided','VBD','decid'],
    ['to','TO','to'],
    ['have','VB','hav'],
    ['his','PRP$','his'],
    ['immense','NN','immens'],
    ['gravestone','NN','graveston'],
    ['cleansed','VBD','cleans'],
    ['of','IN','of'],
    ['a','DT','a'],
    ['vast','JJ','vast'],
    ['accumulation','NN','accum'],
    ['of','IN','of'],
    ['lipstick','NN','lipstick'],
    ['markings','NNS','mark'],
    ['from','IN','from'],
    ['kisses','NNS','kiss'],
    ['left','VBN','leav'],
    ['by','IN','by'],
    ['admirers','NNS','admir'],
    [',',',',','],
    ['who','WP','who'],
    ['for','IN','for'],
    ['years','NNS','year'],
    ['have','VBP','hav'],
    ['been','VBN','be'],
    ['defacing','VBG','defac'],
    [',',',',','],
    ['and','CC','and'],
    ['some','DT','some'],
    ['say','VBP','say'],
    ['eroding','VBG','erod'],
    [',',',',','],
    ['the','DT','the'],
    ['memorial','JJ','mem'],
    ['in','IN','in'],
    ['hilly','RB','hil'],
    ['Père','JJ','père'],
    {
      tag:'PERSON',
      content:
      [
        ['Lachaise','NNP','lacha'],
        ['Cemetery','NNP','cemetery']
      ]
    },
    ['here','RB','her'],
    ['.','.','.']
  ]
},
{
  tag:'S',
  content:
  [
    ['But','CC','But'],
    ['the','DT','the'],
    ['decision','NN','decid'],
    ['meant','VBD','mean'],
    ['not','RB','not'],
    ['only','RB','on'],
    ['cleaning','VBG','cle'],
    ['the','DT','the'],
    ['stone','NN','ston'],
    [',',',',','],
    ['a','DT','a'],
    ['flying','NN','fly'],
    ['nude','NN','nud'],
    ['angel','NN','angel'],
    ['by','IN','by'],
    ['the','DT','the'],
    ['sculptor','NN','sculpt'],
    {
      tag:'PERSON',
      content:
      [
        ['Jacob','NNP','jacob'],
        ['Epstein','NNP','epstein']
      ]
    },
    [',',',',','],
    ['who','WP','who'],
    ['was','VBD','be'],
    ['inspired','VBN','inspir'],
    ['by','IN','by'],
    ['the','DT','the'],
    {
      tag:'GPE',
      content:
      [
        ['British','JJ','brit']
      ]
    },
    ['Museum’s','NNS','museum’s'],
    {
      tag:'GPE',
      content:
      [
        ['Assyrian','JJ','assyr']
      ]
    },
    ['figures','NNS','fig'],
    [',',',',','],
    ['but','CC','but'],
    ['also','RB','also'],
    ['erecting','VBG','erect'],
    ['a','DT','a'],
    ['seven-foot','JJ','seven-foot'],
    ['plate','NN','plat'],
    ['glass','NN','glass'],
    ['wall','NN','wal'],
    ['to','TO','to'],
    ['keep','VB','keep'],
    ['ardent','NN','ard'],
    ['admirers','NNS','admir'],
    ['at','IN','at'],
    ['a','DT','a'],
    ['distance','NN','dist'],
    ['.','.','.']
  ]
},
{
  tag:'S',
  content:
  [
    ['Family','RB','famy'],
    ['members','NNS','memb'],
    ['and','CC','and'],
    ['some','DT','some'],
    ['friends','NNS','friend'],
    ['of','IN','of'],
    {
      tag:'GPE',
      content:
      [
        ['Wilde','NNP','wild']
      ]
    },
    ['have','VBP','hav'],
    ['welcomed','VBN','welcom'],
    ['the','DT','the'],
    ['step','NN','step'],
    ['.','.','.']
  ]
},
{
  tag:'S',
  content:
  [
    ['The','DT','The'],
    ['writer','NN','writ'],
    {
      tag:'PERSON',
      content:
      [
        ['Merlin','NNP','merlin'],
        ['Holland','NNP','holland']
      ]
    },
    [',',',',','],
    ['who','WP','who'],
    ['is','VBZ','be'],
    ['Wilde’s','NNP','wilde’s'],
    ['grandson','NN','grandson'],
    [',',',',','],
    ['said','VBD','say'],
    ['the','DT','the'],
    ['message','NN','mess'],
    ['was','VBD','be'],
    ['clear','JJ','clear'],
    ['.','.','.']
  ]
},
{
  tag:'S',
  content:
  [
    ['“We','JJ','“we'],
    ['are','VBP','be'],
    ['not','RB','not'],
    ['saying','VBG','say'],
    [',',',',','],
    ['‘Go','NNP','‘go'],
    ['away','RB','away'],
    [',',',',','],
    ['’',':','’'],
    ['but','CC','but'],
    ['rather','RB','rath'],
    [',',',',','],
    ['‘Try','JJ','‘try'],
    ['to','TO','to'],
    ['behave','VB','behav'],
    ['sensibly','RB','sens'],
    [',',',',','],
    ['’',':','’'],
    ['”',':','”'],
    ['he','PRP','he'],
    ['said','VBD','say'],
    ['in','IN','in'],
    ['a','DT','a'],
    ['phone','NN','phon'],
    ['interview','NN','interview'],
    ['.','.','.']
  ]
},
{
  tag:'S',
  content:
  [
    ['“I’m','NN','“i’m'],
    ['sure','NN','sur'],
    ['there','EX','there'],
    ['will','MD','will'],
    ['be','VB','be'],
    ['criticism','NN','crit'],
    [',',',',','],
    ['”',':','”'],
    ['he','PRP','he'],
    ['added','VBD','ad'],
    ['.','.','.']
  ]
},
{
  tag:'S',
  content:
  [
    ['Indeed','RB','indee'],
    [',',',',','],
    ['the','DT','the'],
    ['criticism','NN','crit'],
    ['was','VBD','be'],
    ['quick','JJ','quick'],
    ['in','IN','in'],
    ['coming','VBG','com'],
    ['.','.','.']
  ]
},
{
  tag:'S',
  content:
  [
    ['On','IN','On'],
    ['her','PRP$','her'],
    ['blog','NN','blog'],
    [',',',',','],
    ['“A','NNP','“a'],
    ['Love','NNP','lov'],
    ['Letter','NNP','let'],
    ['From','NNP','from'],
    {
      tag:'GPE',
      content:
      [
        ['London','NNP','london']
      ]
    },
    [',',',',','],
    ['”',':','”'],
    ['an','DT','an'],
    ['architectural','JJ','architect'],
    ['historian','NN','hist'],
    ['named','VBD','nam'],
    {
      tag:'PERSON',
      content:
      [
        ['Lisa','NNP','lis'],
        ['Marie','NNP','mary']
      ]
    },
    [',',',',','],
    ['who','WP','who'],
    ['blogs','NNS','blog'],
    ['under','IN','under'],
    ['the','DT','the'],
    ['name','NN','nam'],
    {
      tag:'PERSON',
      content:
      [
        ['Miss','NNP','miss'],
        ['Marie','NNP','mary']
      ]
    },
    [',',',',','],
    ['wrote','VBD','writ'],
    ['that','IN','that'],
    ['“the','JJ','“the'],
    ['continued','VBN','continu'],
    ['devotion','NN','devot'],
    ['of','IN','of'],
    {
      tag:'PERSON',
      content:
      [
        ['Oscar','NNP','osc'],
        ['Wilde’s','NNP','wilde’s']
      ]
    },
    ['fans','VBZ','fan'],
    ['more','JJR','mor'],
    ['than','IN','than'],
    ['100','CD','100'],
    ['years','NNS','year'],
    ['after','IN','after'],
    ['his','PRP$','his'],
    ['death','NN','dea'],
    [',',',',','],
    ['represented','VBD','repres'],
    ['by','IN','by'],
    ['those','DT','those'],
    ['lipstick','NN','lipstick'],
    ['marks','VBZ','mark'],
    [',',',',','],
    ['enhanced','VBN','enh'],
    ['the','DT','the'],
    ['impact','NN','impact'],
    ['of','IN','of'],
    ['Epstein’s','JJ','epstein’s'],
    ['bold','JJ','bold'],
    [',',',',','],
    ['modern','JJ','modern'],
    ['memorial','JJ','mem'],
    [',',',',','],
    ['making','VBG','mak'],
    ['it','PRP','it'],
    ['an','DT','an'],
    ['even','RB','ev'],
    ['more','RBR','mor'],
    ['fitting','VBG','fit'],
    ['monument','NN','monu'],
    ['to','TO','to'],
    ['a','DT','a'],
    ['great','JJ','gre'],
    ['decadent','NN','decad'],
    ['and','CC','and'],
    ['aesthete.”','NNP','aesthete.”'],
    ['She','NNP','she'],
    ['added','VBD','ad'],
    [':',':',':'],
    ['“Cleaning','JJ','“cleaning'],
    ['them','PRP','them'],
    ['off','RP','off'],
    [',',',',','],
    ['and','CC','and'],
    ['putting','VBG','put'],
    ['the','DT','the'],
    ['tomb','NN','tomb'],
    ['behind','IN','behind'],
    ['a','DT','a'],
    ['barrier','NN','barry'],
    ['seems','VBZ','seem'],
    ['to','TO','to'],
    ['be','VB','be'],
    ['missing','VBG','miss'],
    ['the','DT','the'],
    ['point.”','NN','point.”'],
    ['A','DT','A'],
    ['half','NN','half'],
    ['dozen','NN','doz'],
    ['or','CC','or'],
    ['so','RB','so'],
    ['readers','NNS','read'],
    ['replied','VBD','reply'],
    [',',',',','],
    ['all','DT','all'],
    ['agreeing','VBG','agr'],
    ['.','.','.']
  ]
},
{
  tag:'S',
  content:
  [
    ['“A','NN','“a'],
    ['drooled','VBD','drool'],
    ['and','CC','and'],
    ['kissed','VBN','kiss'],
    ['over','IN','over'],
    ['tomb','NN','tomb'],
    ['is','VBZ','be'],
    ['as','IN','as'],
    ['much','JJ','much'],
    ['history','NN','hist'],
    ['as','IN','as'],
    ['the','DT','the'],
    ['man','NN','man'],
    ['who’s','VBZ','who’s'],
    ['resting','VBG','rest'],
    ['there','RB','ther'],
    [',',',',','],
    ['”',':','”'],
    ['wrote','VBD','writ'],
    ['a','DT','a'],
    ['blogger','NN','blog'],
    ['who','WP','who'],
    ['calls','VBZ','cal'],
    ['herself','PRP','herself'],
    ['Superheidi','NNP','superheid'],
    ['.','.','.']
  ]
},
{
  tag:'S',
  content:
  [
    ['Another','DT','Another'],
    [',',',',','],
    {
      tag:'PERSON',
      content:
      [
        ['Miss','NNP','miss'],
        ['Rosette','NNP','roset'],
        ['Brune','NNP','brun']
      ]
    },
    [',',',',','],
    ['wrote','VBD','writ'],
    [',',',',','],
    ['“I','NNP','“i'],
    ['am','VBP','be'],
    ['sure','JJ','sur'],
    ['that','IN','that'],
    {
      tag:'GPE',
      content:
      [
        ['Oscar','NNP','osc']
      ]
    },
    ['loves','NNS','lov'],
    ['lipstick','VBP','lipstick'],
    ['on','IN','on'],
    ['his','PRP$','his'],
    ['tomb','NN','tomb'],
    [',',',',','],
    ['wherever','RB','wherev'],
    ['he','PRP','he'],
    ['is','VBZ','be'],
    ['now.”','-NONE-','now.”'],
    {
      tag:'PERSON',
      content:
      [
        ['Miss','NNP','miss'],
        ['Marie','NNP','mary']
      ]
    },
    ['responded','VBD','respond'],
    ['in','IN','in'],
    ['the','DT','the'],
    ['comments','NNS','com'],
    [',',',',','],
    ['adding','VBG','ad'],
    [':',':',':'],
    ['“I','JJ','“i'],
    ['wonder','NN','wond'],
    ['how','WRB','how'],
    ['I','PRP','I'],
    ['would','MD','would'],
    ['feel','VB','feel'],
    ['about','IN','about'],
    ['lots','NNS','lot'],
    ['of','IN','of'],
    ['people','NNS','peopl'],
    ['kissing','VBG','kiss'],
    ['my','PRP$','my'],
    ['ancestors’','NN','ancestors’'],
    ['graves','NNS','graf'],
    ['.','.','.']
  ]
},
{
  tag:'S',
  content:
  [
    ['I','PRP','I'],
    ['think','VBP','think'],
    ['I’d','JJ','i’d'],
    ['be','NN','be'],
    ['chuffed','VBN','chuff'],
    [',',',',','],
    ['actually','RB','act'],
    ['!','.','!'],
    ['”',':','”'],
    ['In','NNP','in'],
    ['the','DT','the'],
    ['late','JJ','lat'],
    ['1990s','CD','1990s'],
    [',',',',','],
    ['the','DT','the'],
    ['number','NN','numb'],
    ['of','IN','of'],
    ['visitors','NNS','visit'],
    ['to','TO','to'],
    ['Wilde’s','NNS','wilde’s'],
    ['tomb','VB','tomb'],
    ['rose','VBD','ris'],
    ['appreciably','RB','apprecy'],
    [',',',',','],
    ['as','IN','as'],
    ['it','PRP','it'],
    ['became','VBD','becom'],
    ['a','DT','a'],
    ['place','NN','plac'],
    ['of','IN','of'],
    ['pilgrimage','NN','pilgrim'],
    ['within','IN','within'],
    ['the','DT','the'],
    ['cemetery','NN','cemetery'],
    [',',',',','],
    ['where','WRB','where'],
    ['some','DT','some'],
    ['of','IN','of'],
    ['Wilde’s','NNP','wilde’s'],
    ['closest','JJS','clos'],
    ['neighbors','NNS','neighb'],
    ['are','VBP','be'],
    {
      tag:'PERSON',
      content:
      [
        ['Gertrude','NNP','gertrud'],
        ['Stein','NNP','stein']
      ]
    },
    ['and','CC','and'],
    ['her','PRP$','her'],
    ['companion','NN','comp'],
    ['Alice','NNP','al'],
    ['B.','NNP','b.'],
    ['Toklas','NNP','tokla'],
    [',',',',','],
    ['as','IN','as'],
    ['well','RB','wel'],
    ['as','IN','as'],
    ['Édith','JJ','édi'],
    ['Piaf','NNP','piaf'],
    [',',',',','],
    ['the','DT','the'],
    {
      tag:'GPE',
      content:
      [
        ['French','JJ','french']
      ]
    },
    ['singer','NN','sing'],
    ['.','.','.']
  ]
},
{
  tag:'S',
  content:
  [
    {
      tag:'PERSON',
      content:
      [
        ['Farther','NNP','farth']
      ]
    },
    ['afield','VBD','afield'],
    ['is','VBZ','be'],
    ['the','DT','the'],
    ['grave','NN','grav'],
    ['of','IN','of'],
    {
      tag:'PERSON',
      content:
      [
        ['Jim','NNP','jim'],
        ['Morrison','NNP','morrison']
      ]
    },
    ['of','IN','of'],
    ['the','DT','the'],
    ['Doors','NNP','door'],
    [',',',',','],
    ['another','DT','another'],
    ['focus','NN','foc'],
    ['of','IN','of'],
    ['admiring','VBG','admir'],
    ['fans','NNS','fan'],
    ['.','.','.']
  ]
},
{
  tag:'S',
  content:
  [
    {
      tag:'PERSON',
      content:
      [
        ['Mr.','NNP','mr.']
      ]
    },
    {
      tag:'PERSON',
      content:
      [
        ['Holland','NNP','holland']
      ]
    },
    ['said','VBD','say'],
    ['the','DT','the'],
    ['flood','NN','flood'],
    ['of','IN','of'],
    ['visitors','NNS','visit'],
    ['was','VBD','be'],
    ['unleashed','VBN','unleash'],
    ['by','IN','by'],
    ['“a','NNP','“a'],
    ['combination','NN','combin'],
    ['of','IN','of'],
    ['things.”','NNP','things.”'],
    ['There','NNP','ther'],
    ['was','VBD','be'],
    ['“Wilde','JJ','“wilde'],
    [',',',',','],
    ['”',':','”'],
    ['the','DT','the'],
    ['1997','CD','1997'],
    ['film','NN','film'],
    ['starring','VBG','star'],
    {
      tag:'PERSON',
      content:
      [
        ['Stephen','NNP','steph'],
        ['Fry','NNP','fry']
      ]
    },
    [',',',',','],
    ['the','DT','the'],
    ['centenary','JJ','cent'],
    ['of','IN','of'],
    ['Wilde’s','JJ','wilde’s'],
    ['death','NN','dea'],
    ['in','IN','in'],
    ['2000','CD','2000'],
    [',',',',','],
    ['but','CC','but'],
    ['also','RB','also'],
    ['an','DT','an'],
    ['extensive','JJ','extend'],
    ['exhibit','NN','exhibit'],
    ['at','IN','at'],
    ['the','DT','the'],
    {
      tag:'GPE',
      content:
      [
        ['British','JJ','brit']
      ]
    },
    ['Library','NNP','libr'],
    ['that','IN','that'],
    ['opened','VBD','op'],
    ['that','IN','that'],
    ['same','JJ','sam'],
    ['year','NN','year'],
    ['.','.','.']
  ]
},
{
  tag:'S',
  content:
  [
    ['For','IN','For'],
    ['years','NNS','year'],
    [',',',',','],
    ['visitors','NNS','visit'],
    ['to','TO','to'],
    ['Wilde’s','NNS','wilde’s'],
    ['tomb','VB','tomb'],
    ['had','VBD','hav'],
    ['limited','VBN','limit'],
    ['themselves','PRP','themselves'],
    ['to','TO','to'],
    ['leaving','VBG','leav'],
    ['graffiti','NN','graffit'],
    ['or','CC','or'],
    ['little','RB','littl'],
    ['notes','VBZ','not'],
    ['or','CC','or'],
    ['flowers','NNS','flow'],
    ['.','.','.']
  ]
},
{
  tag:'S',
  content:
  [
    ['But','CC','But'],
    ['then','RB','then'],
    [',',',',','],
    {
      tag:'PERSON',
      content:
      [
        ['Mr.','NNP','mr.'],
        ['Holland','NNP','holland']
      ]
    },
    ['said','VBD','say'],
    [',',',',','],
    ['he','PRP','he'],
    ['felt','VBD','felt'],
    ['helpless','NN','helpless'],
    ['as','IN','as'],
    ['the','DT','the'],
    ['number','NN','numb'],
    ['of','IN','of'],
    ['pink','NN','pink'],
    ['and','CC','and'],
    ['red','VBD','red'],
    ['kiss','NNS','kiss'],
    ['marks','NNS','mark'],
    ['accumulated','VBD','accum'],
    ['.','.','.']
  ]
},
{
  tag:'S',
  content:
  [
    ['“Polite','JJ','“polite'],
    ['requests','NNS','request'],
    ['were','VBD','be'],
    ['simply','RB','simply'],
    ['ignored','VBN','ign'],
    ['.','.','.']
  ]
},
{
  tag:'S',
  content:
  [
    {
      tag:'GPE',
      content:
      [
        ['First','NNP','first']
      ]
    },
    [',',',',','],
    ['a','DT','a'],
    ['sign','NN','sign'],
    ['I','PRP','I'],
    ['put','VBD','put'],
    ['up','RP','up'],
    ['was','VBD','be'],
    ['pinched','VBN','pinch'],
    [',',',',','],
    ['”','NNP','”'],
    ['said','VBD','say'],
    {
      tag:'PERSON',
      content:
      [
        ['Mr.','NNP','mr.'],
        ['Holland','NNP','holland']
      ]
    },
    [',',',',','],
    ['66','CD','66'],
    [',',',',','],
    ['whose','WP$','whose'],
    ['grandmother','NN','grandmoth'],
    ['—',':','—'],
    ['Wilde’s','JJ','wilde’s'],
    ['wife','NN','wif'],
    ['—',':','—'],
    ['changed','VBD','chang'],
    ['the','DT','the'],
    ['family','NN','famy'],
    ['name','NN','nam'],
    ['to','TO','to'],
    ['avoid','VB','avoid'],
    ['public','JJ','publ'],
    ['scorn','NN','scorn'],
    ['after','IN','after'],
    {
      tag:'PERSON',
      content:
      [
        ['Wilde','NNP','wild']
      ]
    },
    ['was','VBD','be'],
    ['sent','VBN','send'],
    ['to','TO','to'],
    ['prison','NN','prison'],
    ['by','IN','by'],
    ['a','DT','a'],
    {
      tag:'GPE',
      content:
      [
        ['London','NNP','london']
      ]
    },
    ['court','NN','court'],
    ['for','IN','for'],
    ['the','DT','the'],
    ['crime','NN','crim'],
    ['of','IN','of'],
    ['homosexuality','NN','homosex'],
    ['.','.','.']
  ]
},
{
  tag:'S',
  content:
  [
    {
      tag:'PERSON',
      content:
      [
        ['Wilde','NNP','wild']
      ]
    },
    ['left','VBD','leav'],
    {
      tag:'GPE',
      content:
      [
        ['London','NNP','london']
      ]
    },
    ['for','IN','for'],
    {
      tag:'GPE',
      content:
      [
        ['Paris','NNP','par']
      ]
    },
    ['in','IN','in'],
    ['1897','CD','1897'],
    ['but','CC','but'],
    ['never','RB','nev'],
    ['regained','VBD','regain'],
    ['the','DT','the'],
    ['creative','JJ','cre'],
    ['impetus','NN','impet'],
    ['that','WDT','that'],
    ['yielded','VBD','yield'],
    ['powerful','JJ','pow'],
    ['verse','NN','vers'],
    ['and','CC','and'],
    ['plays','VBZ','play'],
    ['like','IN','like'],
    ['“Lady','JJ','“lady'],
    ['Windermere’s','NNS','windermere’s'],
    ['Fan”','-NONE-','Fan”'],
    ['and','CC','and'],
    ['“The','NNP','“the'],
    ['Importance','NNP','import'],
    ['of','IN','of'],
    {
      tag:'GPE',
      content:
      [
        ['Being','NNP','being']
      ]
    },
    ['Earnest.”','NNP','earnest.”'],
    ['He','NNP','he'],
    ['died','VBD','die'],
    ['penniless','NN','penniless'],
    [',',',',','],
    ['of','IN','of'],
    ['meningitis','NNS','meningit'],
    [',',',',','],
    ['at','IN','at'],
    ['46','CD','46'],
    ['in','IN','in'],
    ['the','DT','the'],
    {
      tag:'ORGANIZATION',
      content:
      [
        ['Hotel','NNP','hotel']
      ]
    },
    ['d’Alsace','NNP','d’alsace'],
    [',',',',','],
    ['today','NN','today'],
    ['just','RB','just'],
    ['L’Hotel','JJ','l’hotel'],
    [',',',',','],
    ['on','IN','on'],
    ['the','DT','the'],
    {
      tag:'ORGANIZATION',
      content:
      [
        ['Rue','NNP','rue']
      ]
    },
    ['des','VBZ','des'],
    ['Beaux-Arts','NNS','beaux-arts'],
    [',',',',','],
    ['but','CC','but'],
    ['not','RB','not'],
    ['before','IN','before'],
    ['remarking','VBG','remark'],
    [',',',',','],
    ['with','IN','with'],
    ['characteristic','JJ','charact'],
    ['wit','NN','wit'],
    [',',',',','],
    ['“I','NNP','“i'],
    ['am','VBP','be'],
    ['dying','VBG','die'],
    ['as','IN','as'],
    ['I','PRP','I'],
    ['have','VBP','hav'],
    ['lived','VBN','liv'],
    ['—','-NONE-','—'],
    ['beyond','IN','beyond'],
    ['my','PRP$','my'],
    ['means.”','NN','means.”'],
    ['Friends','NNPS','friend'],
    ['put','VBD','put'],
    ['up','RP','up'],
    ['the','DT','the'],
    ['money','NN','money'],
    ['to','TO','to'],
    ['buy','VB','buy'],
    ['the','DT','the'],
    ['plot','NN','plot'],
    ['at','IN','at'],
    {
      tag:'ORGANIZATION',
      content:
      [
        ['Père','JJ','père'],
        ['Lachaise','NNP','lacha']
      ]
    },
    ['and','CC','and'],
    ['had','VBD','hav'],
    ['him','PRP','him'],
    ['buried','VBN','bury'],
    ['there','RB','ther'],
    ['with','IN','with'],
    ['a','DT','a'],
    ['monument','NN','monu'],
    ['by','IN','by'],
    ['the','DT','the'],
    ['young','JJ','young'],
    {
      tag:'PERSON',
      content:
      [
        ['Epstein','NNP','epstein']
      ]
    },
    [',',',',','],
    ['which','WDT','which'],
    ['survived','VBN','surv'],
    ['intact','NN','intact'],
    ['until','IN','until'],
    ['the','DT','the'],
    ['1960s','CD','1960s'],
    ['when','WRB','when'],
    ['its','PRP$','its'],
    ['outsize','NN','outs'],
    ['genitals','NNS','genit'],
    ['were','VBD','be'],
    ['smashed','VBN','smash'],
    ['off','RP','off'],
    ['in','IN','in'],
    ['an','DT','an'],
    ['act','NN','act'],
    ['of','IN','of'],
    ['vandalism','NN','vand'],
    ['.','.','.']
  ]
},
{
  tag:'S',
  content:
  [
    ['(','NN','('],
    ['It','PRP','It'],
    ['is','VBZ','be'],
    ['rumored','VBN','rum'],
    ['the','DT','the'],
    ['cemetery','NN','cemetery'],
    ['director','NN','direct'],
    ['used','VBD','us'],
    ['them','PRP','them'],
    ['as','IN','as'],
    ['a','DT','a'],
    ['paperweight','NN','paperweight'],
    ['.','.','.']
  ]
},
{
  tag:'S',
  content:
  [
    [')','NN',')'],
    {
      tag:'PERSON',
      content:
      [
        ['Lengthy','NNP','lengthy']
      ]
    },
    ['negotiations','NNS','negoty'],
    ['with','IN','with'],
    ['the','DT','the'],
    {
      tag:'GPE',
      content:
      [
        ['French','JJ','french']
      ]
    },
    ['authorities','NNS','auth'],
    ['and','CC','and'],
    ['the','DT','the'],
    {
      tag:'GPE',
      content:
      [
        ['Irish','NNP','ir']
      ]
    },
    ['government','NN','govern'],
    ['led','VBD','lead'],
    ['to','TO','to'],
    ['the','DT','the'],
    ['tomb’s','NNS','tomb’s'],
    ['restoration','NN','rest'],
    [',',',',','],
    ['which','WDT','which'],
    ['was','VBD','be'],
    ['completed','VBN','complet'],
    ['last','JJ','last'],
    ['month','NN','mon'],
    ['.','.','.']
  ]
},
{
  tag:'S',
  content:
  [
    ['The','DT','The'],
    ['cost','NN','cost'],
    ['of','IN','of'],
    ['the','DT','the'],
    ['work','NN','work'],
    ['was','VBD','be'],
    ['“perhaps','RB','“perhaps'],
    ['40,000','CD','40,000'],
    ['to','TO','to'],
    ['50,000','CD','50,000'],
    ['euros','NNS','euro'],
    [',',',',','],
    ['”',':','”'],
    {
      tag:'PERSON',
      content:
      [
        ['Mr.','NNP','mr.'],
        ['Holland','NNP','holland']
      ]
    },
    ['said','VBD','say'],
    [',',',',','],
    ['or','CC','or'],
    ['roughly','RB','rough'],
    ['$','$','$'],
    ['55,000','CD','55,000'],
    ['to','TO','to'],
    ['$','$','$'],
    ['67,000','CD','67,000'],
    [',',',',','],
    ['the','DT','the'],
    ['greater','JJR','gre'],
    ['part','NN','part'],
    ['of','IN','of'],
    ['it','PRP','it'],
    ['put','VBD','put'],
    ['up','RP','up'],
    ['by','IN','by'],
    ['the','DT','the'],
    {
      tag:'GPE',
      content:
      [
        ['Irish','NNP','ir']
      ]
    },
    ['government','NN','govern'],
    [',',',',','],
    ['despite','IN','despite'],
    ['its','PRP$','its'],
    ['fiscal','JJ','fisc'],
    ['difficulties','NNS','difficul'],
    [',',',',','],
    ['and','CC','and'],
    ['a','DT','a'],
    ['lesser','NN','less'],
    ['amount','NN','amount'],
    ['by','IN','by'],
    ['the','DT','the'],
    {
      tag:'ORGANIZATION',
      content:
      [
        ['Ireland','NNP','ireland'],
        ['Fund','NNP','fund']
      ]
    },
    ['of','IN','of'],
    {
      tag:'GPE',
      content:
      [
        ['France','NNP','frant']
      ]
    },
    ['.','.','.']
  ]
},
{
  tag:'S',
  content:
  [
    ['The','DT','The'],
    ['glass','NN','glass'],
    ['wall','NN','wal'],
    ['leaves','VBZ','leav'],
    ['even','RB','ev'],
    ['supporters','NNS','support'],
    ['of','IN','of'],
    ['the','DT','the'],
    ['project','NN','project'],
    ['with','IN','with'],
    ['a','DT','a'],
    ['sense','NN','sens'],
    ['of','IN','of'],
    ['unease','NN','uneas'],
    ['.','.','.']
  ]
},
{
  tag:'S',
  content:
  [
    ['“We’re','JJ','“we’re'],
    ['not','RB','not'],
    ['happy','JJ','happy'],
    [',',',',','],
    ['of','IN','of'],
    ['course','NN','cours'],
    [',',',',','],
    ['with','IN','with'],
    ['the','DT','the'],
    ['partition','NN','partit'],
    [',',',',','],
    ['with','IN','with'],
    ['the','DT','the'],
    ['glass','NN','glass'],
    ['screen','NN','screen'],
    [',',',',','],
    ['”',':','”'],
    ['said','VBD','say'],
    {
      tag:'PERSON',
      content:
      [
        ['Sheila','NNP','sheil'],
        ['Pratschke','NNP','pratschk']
      ]
    },
    [',',',',','],
    ['director','NN','direct'],
    ['of','IN','of'],
    ['the','DT','the'],
    {
      tag:'GPE',
      content:
      [
        ['Irish','NNP','ir']
      ]
    },
    ['Cultural','NNP','cult'],
    ['Institute','NNP','institut'],
    ['in','IN','in'],
    {
      tag:'GPE',
      content:
      [
        ['Paris','NNP','par']
      ]
    },
    [',',',',','],
    ['which','WDT','which'],
    ['helped','VBN','help'],
    ['arrange','NN','arrang'],
    ['the','DT','the'],
    ['tomb’s','NNP','tomb’s'],
    ['restoration','NN','rest'],
    ['.','.','.']
  ]
},
{
  tag:'S',
  content:
  [
    ['“But','JJ','“but'],
    ['it’s','NNS','it’s'],
    ['more','RBR','mor'],
    ['aesthetically','RB','aesthet'],
    ['pleasing','VBG','pleas'],
    ['than','IN','than'],
    ['I','PRP','I'],
    ['expected','VBN','expect'],
    [',',',',','],
    ['”','NNP','”'],
    ['she','PRP','she'],
    ['said','VBD','say'],
    ['.','.','.']
  ]
},
{
  tag:'S',
  content:
  [
    ['It','PRP','It'],
    ['is','VBZ','be'],
    ['hard','RB','hard'],
    ['to','TO','to'],
    ['say','VB','say'],
    ['how','WRB','how'],
    {
      tag:'PERSON',
      content:
      [
        ['Wilde','NNP','wild']
      ]
    },
    ['would','MD','would'],
    ['have','VB','hav'],
    ['reacted','VBN','react'],
    ['.','.','.']
  ]
},
{
  tag:'S',
  content:
  [
    ['But','CC','But'],
    ['out','IN','out'],
    ['at','IN','at'],
    {
      tag:'ORGANIZATION',
      content:
      [
        ['Père','JJ','père'],
        ['Lachaise','NNP','lacha']
      ]
    },
    ['on','IN','on'],
    ['a','DT','a'],
    ['recent','JJ','rec'],
    ['sunny','NN','sunny'],
    ['afternoon','NN','afternoon'],
    [',',',',','],
    {
      tag:'PERSON',
      content:
      [
        ['Marc','NNP','marc'],
        ['Overton','NNP','overton']
      ]
    },
    ['and','CC','and'],
    ['his','PRP$','his'],
    ['partner','NN','partn'],
    {
      tag:'PERSON',
      content:
      [
        ['Ray','NNP','ray'],
        ['Fluta','NNP','flut']
      ]
    },
    [',',',',','],
    ['who','WP','who'],
    ['had','VBD','hav'],
    ['traveled','VBN','travel'],
    ['from','IN','from'],
    {
      tag:'GPE',
      content:
      [
        ['San','NNP','san']
      ]
    },
    ['Diego','NNP','diego'],
    ['to','TO','to'],
    ['pay','VB','pay'],
    ['homage','NN','hom'],
    ['to','TO','to'],
    ['the','DT','the'],
    ['writer','NN','writ'],
    [',',',',','],
    ['were','VBD','be'],
    ['relieved','VBN','reliev'],
    ['to','TO','to'],
    ['see','VB','see'],
    ['the','DT','the'],
    ['glass','NN','glass'],
    ['barrier','NN','barry'],
    ['.','.','.']
  ]
},
{
  tag:'S',
  content:
  [
    ['“He’s','NNS','“he’s'],
    ['a','DT','a'],
    ['great','JJ','gre'],
    ['hero','NN','hero'],
    ['to','TO','to'],
    ['me','PRP','me'],
    [',',',',','],
    ['to','TO','to'],
    ['people','NNS','peopl'],
    ['who','WP','who'],
    ['believe','VBP','believ'],
    ['that','IN','that'],
    ['the','DT','the'],
    ['life','NN','lif'],
    ['of','IN','of'],
    ['the','DT','the'],
    ['mind','NN','mind'],
    ['has','VBZ','hav'],
    ['real','JJ','real'],
    ['value','NN','valu'],
    [',',',',','],
    ['”',':','”'],
    ['said','VBD','say'],
    {
      tag:'PERSON',
      content:
      [
        ['Mr.','NNP','mr.'],
        ['Overton','NNP','overton']
      ]
    },
    [',',',',','],
    ['who','WP','who'],
    ['said','VBD','say'],
    ['he','PRP','he'],
    ['had','VBD','hav'],
    ['first','RB','first'],
    ['visited','VBN','visit'],
    ['the','DT','the'],
    ['grave','NN','grav'],
    ['in','IN','in'],
    ['1966','CD','1966'],
    ['and','CC','and'],
    ['had','VBD','hav'],
    ['been','VBN','be'],
    ['returning','VBG','return'],
    ['almost','RB','almost'],
    ['every','DT','every'],
    ['year','NN','year'],
    ['since','IN','since'],
    ['.','.','.']
  ]
},
{
  tag:'S',
  content:
  [
    ['He','PRP','He'],
    ['said','VBD','say'],
    ['he','PRP','he'],
    ['was','VBD','be'],
    ['gratified','VBN','grat'],
    ['to','TO','to'],
    ['see','VB','see'],
    ['“no','JJ','“no'],
    ['more','RBR','mor'],
    ['disgusting','JJ','disgust'],
    ['lip','NN','lip'],
    ['marks.”','NN','marks.”'],
    ['However','RB','howev'],
    [',',',',','],
    ['the','DT','the'],
    ['glass','NN','glass'],
    ['was','VBD','be'],
    ['already','RB','already'],
    ['spotted','VBN','spot'],
    ['with','IN','with'],
    ['kisses','NNS','kiss'],
    [',',',',','],
    ['and','CC','and'],
    ['flowers','NNS','flow'],
    ['and','CC','and'],
    ['notes','NNS','not'],
    ['were','VBD','be'],
    ['strewn','VBN','strew'],
    ['at','IN','at'],
    ['the','DT','the'],
    ['tomb’s','NNS','tomb’s'],
    ['foot','VBD','foot'],
    ['and','CC','and'],
    ['inside','VB','insid'],
    ['.','.','.']
  ]
},
{
  tag:'S',
  content:
  [
    ['One','CD','One'],
    ['paraphrased','VBN','paraphras'],
    {
      tag:'PERSON',
      content:
      [
        ['Wilde','NNP','wild']
      ]
    },
    [':',':',':'],
    ['“You','PRP','“You'],
    ['taught','VBD','teach'],
    ['me','PRP','me'],
    ['that','IN','that'],
    ['wisdom','NN','wisdom'],
    ['can','MD','can'],
    ['come','VB','com'],
    ['only','RB','on'],
    ['with','IN','with'],
    ['winter.”','JJ','winter.”'],
    ['Another','DT','Another'],
    ['quoted','VBN','quot'],
    ['him','PRP','him'],
    [':',':',':'],
    ['“We','JJ','“we'],
    ['are','VBP','be'],
    ['all','DT','all'],
    ['in','IN','in'],
    ['the','DT','the'],
    ['gutter','NN','gut'],
    [',',',',','],
    ['but','CC','but'],
    ['some','DT','some'],
    ['of','IN','of'],
    ['us','PRP','us'],
    ['are','VBP','be'],
    ['looking','VBG','look'],
    ['at','IN','at'],
    ['the','DT','the'],
    ['stars.”','NNP','stars.”'],
    ['Krzysztof','NNP','krzysztof'],
    ['Zembrzycki','NNP','zembrzyck'],
    [',',',',','],
    ['26','CD','26'],
    [',',',',','],
    ['a','DT','a'],
    ['researcher','NN','research'],
    ['at','IN','at'],
    ['the','DT','the'],
    {
      tag:'ORGANIZATION',
      content:
      [
        ['Polish','JJ','pol'],
        ['Academy','NNP','academy']
      ]
    },
    ['of','IN','of'],
    ['Sciences','NNPS','sci'],
    ['in','IN','in'],
    {
      tag:'GPE',
      content:
      [
        ['Warsaw','NNP','warsaw']
      ]
    },
    [',',',',','],
    ['had','VBD','hav'],
    ['come','VBN','com'],
    ['to','TO','to'],
    ['visit','VB','visit'],
    ['his','PRP$','his'],
    ['countryman','NN','countrym'],
    ['Frédéric','JJ','frédéric'],
    {
      tag:'PERSON',
      content:
      [
        ['Chopin','NNP','chopin']
      ]
    },
    [',',',',','],
    ['who','WP','who'],
    ['is','VBZ','be'],
    ['also','RB','also'],
    ['buried','VBN','bury'],
    ['at','IN','at'],
    {
      tag:'ORGANIZATION',
      content:
      [
        ['Père','JJ','père'],
        ['Lachaise','NNP','lacha']
      ]
    },
    [',',',',','],
    ['but','CC','but'],
    ['dropped','VBD','drop'],
    ['by','IN','by'],
    ['to','TO','to'],
    ['see','VB','see'],
    {
      tag:'PERSON',
      content:
      [
        ['Wilde','NNP','wild']
      ]
    },
    ['and','CC','and'],
    ['was','VBD','be'],
    ['put','VBN','put'],
    ['off','RP','off'],
    ['by','IN','by'],
    ['the','DT','the'],
    ['glass','NN','glass'],
    ['wall','NN','wal'],
    ['.','.','.']
  ]
},
{
  tag:'S',
  content:
  [
    ['“It’s','NNS','“it’s'],
    ['definitely','RB','definit'],
    ['a','DT','a'],
    ['negative','JJ','neg'],
    ['impression','NN','impress'],
    [',',',',','],
    ['”',':','”'],
    ['he','PRP','he'],
    ['said','VBD','say'],
    ['.','.','.']
  ]
},
{
  tag:'S',
  content:
  [
    {
      tag:'PERSON',
      content:
      [
        ['Lauren','NNP','laur']
      ]
    },
    {
      tag:'PERSON',
      content:
      [
        ['Kunze','NNP','kunz']
      ]
    },
    ['was','VBD','be'],
    ['even','RB','ev'],
    ['more','RBR','mor'],
    ['offended','JJ','offend'],
    ['.','.','.']
  ]
},
{
  tag:'S',
  content:
  [
    ['An','DT','An'],
    ['ardent','NN','ard'],
    ['admirer','NN','admir'],
    ['of','IN','of'],
    {
      tag:'GPE',
      content:
      [
        ['Wilde','NNP','wild']
      ]
    },
    [',',',',','],
    ['she','PRP','she'],
    ['had','VBD','hav'],
    ['traveled','VBN','travel'],
    ['from','IN','from'],
    {
      tag:'GPE',
      content:
      [
        ['London','NNP','london']
      ]
    },
    [',',',',','],
    ['where','WRB','where'],
    ['she','PRP','she'],
    ['is','VBZ','be'],
    ['studying','VBG','study'],
    ['marketing','NN','market'],
    [',',',',','],
    ['to','TO','to'],
    ['visit','VB','visit'],
    ['the','DT','the'],
    ['tomb','NN','tomb'],
    ['with','IN','with'],
    ['her','PRP$','her'],
    ['aunt','NN','aunt'],
    [',',',',','],
    {
      tag:'ORGANIZATION',
      content:
      [
        ['Kate','NNP','kat'],
        ['King','NNP','king']
      ]
    },
    [',',',',','],
    ['who','WP','who'],
    ['was','VBD','be'],
    ['visiting','VBG','visit'],
    ['from','IN','from'],
    {
      tag:'GPE',
      content:
      [
        ['Boston','NNP','boston']
      ]
    },
    ['.','.','.']
  ]
},
{
  tag:'S',
  content:
  [
    ['Both','DT','Both'],
    ['women','NNS','wom'],
    ['were','VBD','be'],
    ['appalled','VBN','ap'],
    ['by','IN','by'],
    ['the','DT','the'],
    ['glass','NN','glass'],
    ['wall','NN','wal'],
    ['.','.','.']
  ]
},
{
  tag:'S',
  content:
  [
    ['“It’s','NNS','“it’s'],
    ['destroying','VBG','destroy'],
    ['history','NN','hist'],
    [',',',',','],
    ['”',':','”'],
    ['Ms.','NNP','ms.'],
    {
      tag:'PERSON',
      content:
      [
        ['Kunze','NNP','kunz']
      ]
    },
    ['said','VBD','say'],
    ['.','.','.']
  ]
},
{
  tag:'S',
  content:
  [
    ['“I','NN','“i'],
    ['don’t','NN','don’t'],
    ['like','IN','like'],
    ['it.”','NN','it.”'],
    ['“Some','JJ','“some'],
    ['people','NNS','peopl'],
    ['are','VBP','be'],
    ['purists','NNS','pur'],
    [',',',',','],
    ['they','PRP','they'],
    ['want','VBP','want'],
    ['to','TO','to'],
    ['see','VB','see'],
    ['things','NNS','thing'],
    ['as','IN','as'],
    ['they','PRP','they'],
    ['were','VBD','be'],
    ['built','VBN','build'],
    [',',',',','],
    ['”','NNP','”'],
    ['she','PRP','she'],
    ['said','VBD','say'],
    ['.','.','.']
  ]
},
{
  tag:'S',
  content:
  [
    ['“It’s','NNS','“it’s'],
    ['their','PRP$','their'],
    ['experience','NN','expery'],
    ['of','IN','of'],
    ['history.”','JJ','history.”'],
    ['A','DT','A'],
    ['version','NN','vert'],
    ['of','IN','of'],
    ['this','DT','this'],
    ['article','NN','artic'],
    ['appeared','VBD','appear'],
    ['in','IN','in'],
    ['print','NN','print'],
    ['on','IN','on'],
    ['December','NNP','decemb'],
    ['16','CD','16'],
    [',',',',','],
    ['2011','CD','2011'],
    [',',',',','],
    ['on','IN','on'],
    ['page','NN','pag'],
    ['A6','NNP','a6'],
    ['of','IN','of'],
    ['the','DT','the'],
    {
      tag:'GPE',
      content:
      [
        ['New','NNP','new'],
        ['York','NNP','york']
      ]
    },
    ['edition','NN','edit'],
    ['with','IN','with'],
    ['the','DT','the'],
    ['headline','NN','headlin'],
    [':',':',':'],
    ['Walling','VBG','wal'],
    {
      tag:'PERSON',
      content:
      [
        ['Off','NNP','off'],
        ['Oscar','NNP','osc']
      ]
    },
    ['Wilde’s','NNP','wilde’s'],
    ['Tomb','NNP','tomb'],
    ['From','NNP','from'],
    ['Admirers’','NNP','admirers’'],
    ['Kisses','NNP','kiss'],
    ['.','.','.']
  ]
},
{
  tag:'S',
  content:
  [
    ['This','DT','This'],
    ['week','NN','week'],
    [':',':',':'],
    ['complimentary','JJ','comply'],
    ['access','NN','access'],
    ['to','TO','to'],
    {
      tag:'ORGANIZATION',
      content:
      [
        ['International','NNP','intern'],
        ['New','NNP','new'],
        ['York','NNP','york'],
        ['Times','NNP','tim'],
        ['Get','NNP','get'],
        ['Free','NNP','fre']
      ]
    },
    ['E-mail','NNP','e-mail'],
    {
      tag:'PERSON',
      content:
      [
        ['Alerts','NNP','alert']
      ]
    },
    ['on','IN','on'],
    ['These','DT','These'],
    ['Topics','NNP','top'],
    {
      tag:'PERSON',
      content:
      [
        ['Wilde','NNP','wild']
      ]
    },
    [',',',',','],
    {
      tag:'PERSON',
      content:
      [
        ['Oscar','NNP','osc'],
        ['Tombs','NNP','tomb']
      ]
    },
    ['and','CC','and'],
    {
      tag:'PERSON',
      content:
      [
        ['Tombstones','NNP','tombston'],
        ['Epstein','NNP','epstein']
      ]
    },
    [',',',',','],
    {
      tag:'PERSON',
      content:
      [
        ['Jacob','NNP','jacob'],
        ['Monuments','NNP','monu']
      ]
    },
    ['and','CC','and'],
    {
      tag:'ORGANIZATION',
      content:
      [
        ['Memorials','NNPS','mem'],
        ['Inside','NNP','insid']
      ]
    },
    ['NYTimes.com','NNP','nytimes.com'],
    ['Theater','NNP','the'],
    ['»','NNP','»'],
    ['‘The','NNP','‘the'],
    {
      tag:'PERSON',
      content:
      [
        ['Model','NNP','model'],
        ['Apartment','NNP','apart']
      ]
    },
    [',',',',','],
    ['’','NNP','’'],
    ['by','IN','by'],
    {
      tag:'ORGANIZATION',
      content:
      [
        ['Donald','NNP','donald'],
        ['Margulies','NNPS','margu'],
        ['Sports','NNP','sport']
      ]
    },
    ['»','NNP','»'],
    ['In','NNP','in'],
    ['Argentine','NNP','argentin'],
    ['Soccer','NNP','socc'],
    [',',',',','],
    ['a','DT','a'],
    {
      tag:'ORGANIZATION',
      content:
      [
        ['Rivalry','NNP','rivalry']
      ]
    },
    ['Cleaves','NNP','cleav'],
    ['a','DT','a'],
    {
      tag:'ORGANIZATION',
      content:
      [
        ['City','NNP','city'],
        ['Opinion','NNP','opin']
      ]
    },
    ['»','NNP','»'],
    ['Invitation','NNP','invit'],
    ['to','TO','to'],
    ['a','DT','a'],
    ['Dialogue','NNP','dialog'],
    [':',':',':'],
    ['When','WRB','When'],
    {
      tag:'PERSON',
      content:
      [
        ['Doctors','NNS','doct'],
        ['Slip','NNP','slip'],
        ['Up','NNP','up'],
        ['Dining','NNP','din']
      ]
    },
    ['&','CC','&'],
    {
      tag:'PERSON',
      content:
      [
        ['Wine','NNP','win']
      ]
    },
    ['»','NNP','»'],
    ['Restaurants','NNP','resta'],
    [':',':',':'],
    ['Khe-Yo','JJ','khe-yo'],
    ['and','CC','and'],
    {
      tag:'PERSON',
      content:
      [
        ['Whiskey','NNP','whiskey'],
        ['Soda','NNP','sod'],
        ['Lounge','NNP','loung'],
        ['Opinion','NNP','opin']
      ]
    },
    ['»','NNP','»'],
    ['Op-Ed','NNP','op-ed'],
    [':',':',':'],
    {
      tag:'PERSON',
      content:
      [
        ['Beyond','NNP','beyond']
      ]
    },
    ['Boehner’s','NNP','boehner’s'],
    ['Reach','NNP','reach'],
    ['When','NNP','when'],
    ['freedom','NN','freedom'],
    ['is','VBZ','be'],
    ['outlawed','VBN','outlaw'],
    [',',',',','],
    ['only','RB','on'],
    ['outlaws','VBZ','outlaw'],
    ['will','MD','will'],
    ['be','VB','be'],
    ['free','JJ','fre'],
    ['.','.','.']
  ]
},
{
  tag:'S',
  content:
  [
    ['Or','CC','Or'],
    ['certain','JJ','certain'],
    ['climbers','NNS','climb'],
    ['in','IN','in'],
    {
      tag:'ORGANIZATION',
      content:
      [
        ['Yosemite','NNP','yosemit'],
        ['National','NNP','nat'],
        ['Park','NNP','park']
      ]
    },
    ['.','.','.']
  ]
},
{
  tag:'S',
  content:
  [
    ['World','NN','world'],
    ['»','``','»'],
    {
      tag:'PERSON',
      content:
      [
        ['Muzzled','NNP','muzzl'],
        ['Chinese','NNP','chines'],
        ['Artwork','NNP','artwork']
      ]
    },
    [',',',',','],
    {
      tag:'GPE',
      content:
      [
        ['Absent','NNP','abs']
      ]
    },
    [',',',',','],
    {
      tag:'PERSON',
      content:
      [
        ['Speaks','NNP','speak'],
        ['Volumes','NNP','volum'],
        ['Opinion','NNP','opin']
      ]
    },
    ['»','NNP','»'],
    {
      tag:'PERSON',
      content:
      [
        ['Murong','NNP','murong'],
        ['Xuecun','NNP','xuecun']
      ]
    },
    [':',':',':'],
    ['Busting','NNP','bust'],
    ['China’s','NNP','china’s'],
    ['Bloggers','NNP','blog'],
    ['Health','NNP','heal'],
    ['»','NNP','»'],
    ['Pounding','NNP','pound'],
    ['Pavement','NNP','pav'],
    ['By','NNP','by'],
    ['Heel','NNP','heel'],
    ['or','CC','or'],
    {
      tag:'ORGANIZATION',
      content:
      [
        ['Toe','NNP','toe'],
        ['U.S.','NNP','u.s.']
      ]
    },
    ['»','NNP','»'],
    ['Father’s','NNP','father’s'],
    ['Memorial','NNP','mem'],
    ['Trek','NNP','trek'],
    ['Ends','NNPS','end'],
    ['in','IN','in'],
    {
      tag:'GPE',
      content:
      [
        ['Second','NNP','second']
      ]
    },
    ['Tragedy','NNP','tragedy'],
    ['Dining','NNP','din'],
    ['&','CC','&'],
    {
      tag:'PERSON',
      content:
      [
        ['Wine','NNP','win']
      ]
    },
    ['»','NNP','»']
  ]
}]