[
{
  tag:'S',
  content:
  [
    {
      tag:'GPE',
      content:
      [
        ['Skip','NNP','skip']
      ]
    },
    ['to','TO','to'],
    ['main','VB','main'],
    ['content','NN','cont'],
    ['A','DT','A'],
    ['&','CC','&'],
    {
      tag:'ORGANIZATION',
      content:
      [
        ['ENewsLifeLeisureSportsTechVideo','NNP','enewslifeleisuresportstechvideo'],
        ['Facebook','NNP','facebook']
      ]
    },
    ['Twitter','NNP','twit'],
    ['Google+','NNP','google+'],
    ['Search','NNP','search'],
    ['Login/logout','NNP','login/logout'],
    ['Arts','NNP','art'],
    ['&','CC','&'],
    {
      tag:'ORGANIZATION',
      content:
      [
        ['Entertainment','NNP','entertain'],
        ['Music','NNP','mus'],
        ['Diana','NNP','dian'],
        ['Krall','NNP','kral']
      ]
    },
    ['More','NNP','mor'],
    ['Than','NNP','than'],
    ['Fabulous','NNP','fab'],
    ['At','NNP','at'],
    ['The','NNP','the'],
    {
      tag:'PERSON',
      content:
      [
        ['Fox','NNP','fox']
      ]
    },
    ['(','NNP','('],
    ['Photos','NNP','photo'],
    [')','NNP',')'],
    ['Comment','NNP','com'],
    {
      tag:'PERSON',
      content:
      [
        ['Share','NNP','shar'],
        ['Facebook','NNP','facebook'],
        ['Twitter','NNP','twit']
      ]
    },
    ['Google+','NNP','google+'],
    ['Email','NNP','email'],
    ['Print','NNP','print'],
    ['See','NNP','see'],
    ['alsoLive','NNP','alsol'],
    {
      tag:'PERSON',
      content:
      [
        ['Music','NNP','mus'],
        ['Diana','NNP','dian'],
        ['Krall','NNP','kral'],
        ['St','NNP','st'],
        ['Louis','NNP','lou']
      ]
    },
    ['View','NNP','view'],
    ['8','CD','8'],
    {
      tag:'ORGANIZATION',
      content:
      [
        ['photosCamera','NNP','photoscamer'],
        ['Diana','NNP','dian'],
        ['Krall','NNP','kral']
      ]
    },
    ['-',':','-'],
    ['The','DT','The'],
    {
      tag:'ORGANIZATION',
      content:
      [
        ['Fabulous','NNP','fab']
      ]
    },
    {
      tag:'PERSON',
      content:
      [
        ['Fox','NNP','fox'],
        ['Theatre','NNP','the']
      ]
    },
    ['-',':','-'],
    {
      tag:'PERSON',
      content:
      [
        ['St','NNP','st'],
        ['Louis','NNP','lou']
      ]
    },
    ['(','NNP','('],
    ['©2013','NNP','©2013'],
    ['C','NNP','c'],
    {
      tag:'PERSON',
      content:
      [
        ['Daniel','NNP','daniel'],
        ['Photog','NNP','photog']
      ]
    },
    [')','NNP',')'],
    {
      tag:'PERSON',
      content:
      [
        ['Chris','NNP','chris'],
        ['DanielSt','NNP','danielst']
      ]
    },
    ['.','.','.']
  ]
},
{
  tag:'S',
  content:
  [
    {
      tag:'PERSON',
      content:
      [
        ['Louis','NNP','lou']
      ]
    },
    {
      tag:'PERSON',
      content:
      [
        ['Live','NNP','liv'],
        ['Music','NNP','mus'],
        ['Examiner','NNP','examin'],
        ['Subscribe','NNP','subscrib'],
        ['Follow','NNP','follow']
      ]
    },
    [':',':',':'],
    {
      tag:'PERSON',
      content:
      [
        ['Fox','NNP','fox'],
        ['Theatre','NNP','the']
      ]
    },
    ['(','NNP','('],
    ['The','NNP','the'],
    [')','NNP',')'],
    ['527','CD','527'],
    ['N','NNP','n'],
    ['Grand','NNP','grand'],
    ['Blvd','NNP','blvd'],
    [',',',',','],
    {
      tag:'PERSON',
      content:
      [
        ['Saint','NNP','saint'],
        ['Louis','NNP','lou']
      ]
    },
    [',',',',','],
    {
      tag:'ORGANIZATION',
      content:
      [
        ['MO','NNP','mo']
      ]
    },
    ['Advertisement','NNP','advert'],
    ['October','NNP','octob'],
    ['9','CD','9'],
    [',',',',','],
    ['2013','CD','2013'],
    {
      tag:'PERSON',
      content:
      [
        ['Grammy','NNP','grammy'],
        ['Award','NNP','award']
      ]
    },
    ['winning','NN','win'],
    {
      tag:'PERSON',
      content:
      [
        ['Jazz','NNP','jazz']
      ]
    },
    ['pianist','NN','pian'],
    ['and','CC','and'],
    ['singer','NN','sing'],
    {
      tag:'PERSON',
      content:
      [
        ['Diana','NNP','dian'],
        ['Krall','NNP','kral']
      ]
    },
    ['shined','VBD','shin'],
    ['bright','JJ','bright'],
    ['on','IN','on'],
    {
      tag:'GPE',
      content:
      [
        ['Grand','NNP','grand'],
        ['Blvd','NNP','blvd']
      ]
    },
    ['at','IN','at'],
    ['the','DT','the'],
    {
      tag:'PERSON',
      content:
      [
        ['Fox','NNP','fox'],
        ['Theatre','NNP','the']
      ]
    },
    ['Friday','NNP','friday'],
    ['night','NN','night'],
    ['.','.','.']
  ]
},
{
  tag:'S',
  content:
  [
    ['The','DT','The'],
    {
      tag:'ORGANIZATION',
      content:
      [
        ['Glad','NNP','glad'],
        ['Rag','NNP','rag'],
        ['Doll','NNP','dol']
      ]
    },
    ['World','NNP','world'],
    ['Tour','NNP','tour'],
    ['in','IN','in'],
    ['support','NN','support'],
    ['of','IN','of'],
    ['her','PRP$','her'],
    ['11th','JJ','11th'],
    ['studio','NN','studio'],
    ['album','NN','alb'],
    ['(',':','('],
    {
      tag:'PERSON',
      content:
      [
        ['Verve','NNP','verv'],
        ['Records','NNP','record']
      ]
    },
    [')','NNP',')'],
    ['a','DT','a'],
    ['collaboration','NN','collab'],
    ['with','IN','with'],
    ['T.','NNP','t.'],
    ['Bone','NNP','bon'],
    {
      tag:'PERSON',
      content:
      [
        ['Burnett','NNP','burnet']
      ]
    },
    ['rolled','VBD','rol'],
    ['into','IN','into'],
    ['St','NNP','st'],
    ['Louis','NNP','lou'],
    ['like','IN','like'],
    ['a','DT','a'],
    ['three','CD','three'],
    ['ring','VBG','ring'],
    ['circus','NN','circ'],
    ['.','.','.']
  ]
},
{
  tag:'S',
  content:
  [
    ['In','IN','In'],
    ['fact','NN','fact'],
    [',',',',','],
    ['the','DT','the'],
    ['theme','NN','them'],
    ['of','IN','of'],
    ['the','DT','the'],
    ['evening','NN','ev'],
    ['was','VBD','be'],
    ['a','DT','a'],
    ['meticulous','JJ','metic'],
    ['effort','NN','effort'],
    [',',',',','],
    ['designed','VBN','design'],
    ['by','IN','by'],
    ['the','DT','the'],
    ['singer','NN','sing'],
    ['herself','PRP','herself'],
    [',',',',','],
    ['derived','VBD','der'],
    ['of','IN','of'],
    ['inspiration','NN','inspir'],
    ['from','IN','from'],
    ['the','DT','the'],
    ['historic','JJ','hist'],
    {
      tag:'PERSON',
      content:
      [
        ['Fabulous','NNP','fab'],
        ['Fox','NNP','fox'],
        ['Theatre','NNP','the']
      ]
    },
    [''s','POS',''s'],
    ['ornate','NN','orn'],
    ['detail','NN','detail'],
    ['and','CC','and'],
    ['architecture','NN','architect'],
    ['.','.','.']
  ]
},
{
  tag:'S',
  content:
  [
    {
      tag:'PERSON',
      content:
      [
        ['Diana','NNP','dian']
      ]
    },
    {
      tag:'ORGANIZATION',
      content:
      [
        ['Krall','NNP','kral']
      ]
    },
    [''s','POS',''s'],
    ['intro','NN','intro'],
    ['was','VBD','be'],
    ['a','DT','a'],
    ['short','JJ','short'],
    ['film','NN','film'],
    ['(',':','('],
    ['black','JJ','black'],
    ['and','CC','and'],
    ['white','NN','whit'],
    [')',':',')'],
    ['featuring','VBG','feat'],
    {
      tag:'PERSON',
      content:
      [
        ['Steve','NNP','stev'],
        ['Buscemi','NNP','buscem']
      ]
    },
    [',',',',','],
    ['narrating','VBG','nar'],
    ['and','CC','and'],
    ['painting','VBG','paint'],
    ['a','DT','a'],
    ['picture','NN','pict'],
    ['of','IN','of'],
    ['being','VBG','be'],
    ['under','IN','under'],
    ['the','DT','the'],
    ['big','JJ','big'],
    ['tent','NN','tent'],
    [';',':',';'],
    ['there','EX','there'],
    ['is','VBZ','be'],
    ['no','DT','no'],
    ['doubt','NN','doubt'],
    ['this','DT','this'],
    ['production','NN','produc'],
    ['was','VBD','be'],
    ['designed','VBN','design'],
    ['to','TO','to'],
    ['transport','VB','transport'],
    ['us','PRP','us'],
    ['to','TO','to'],
    ['the','DT','the'],
    ['greatest','JJS','gre'],
    ['show','NN','show'],
    ['on','IN','on'],
    ['earth','JJ','ear'],
    ['.','.','.']
  ]
},
{
  tag:'S',
  content:
  [
    {
      tag:'PERSON',
      content:
      [
        ['Diana','NNP','dian']
      ]
    },
    ['Krall','NNP','kral'],
    ['can','MD','can'],
    ['certainly','RB','certain'],
    ['sing','VBG','sing'],
    ['and','CC','and'],
    ['play','NN','play'],
    ['piano','NN','piano'],
    [',',',',','],
    ['she','PRP','she'],
    ['is','VBZ','be'],
    ['arguably','RB','argu'],
    ['one','CD','one'],
    ['of','IN','of'],
    ['the','DT','the'],
    ['greatest','JJS','gre'],
    ['female','JJ','fem'],
    ['jazz','NN','jazz'],
    ['musicians','NNS','mus'],
    ['of','IN','of'],
    ['the','DT','the'],
    ['last','JJ','last'],
    ['100','CD','100'],
    ['years','NNS','year'],
    [',',',',','],
    ['but','CC','but'],
    ['what','WP','what'],
    ['was','VBD','be'],
    ['most','JJS','most'],
    ['amazing','VBG','amaz'],
    ['was','VBD','be'],
    ['her','PRP$','her'],
    ['ability','NN','abl'],
    ['to','TO','to'],
    ['entertain','VB','entertain'],
    ['us','PRP','us'],
    ['visually','RB','vis'],
    ['with','IN','with'],
    ['her','PRP$','her'],
    ['stage','NN','stag'],
    ['production','NN','produc'],
    ['and','CC','and'],
    ['design','NN','design'],
    ['.','.','.']
  ]
},
{
  tag:'S',
  content:
  [
    ['From','IN','From'],
    ['beginning','NN','begin'],
    ['to','TO','to'],
    ['end','VB','end'],
    [',',',',','],
    ['it','PRP','it'],
    ['was','VBD','be'],
    ['magical','JJ','mag'],
    ['.','.','.']
  ]
},
{
  tag:'S',
  content:
  [
    ['Next','JJ','next'],
    ['View','NNP','view'],
    ['the','DT','the'],
    ['slideshow','NN','slideshow'],
    ['Report','NNP','report'],
    ['this','DT','this'],
    ['content','NN','cont'],
    ['View','NNP','view'],
    ['the','DT','the'],
    ['discussion','NN','discuss'],
    ['thread','NN','thread'],
    ['.','.','.']
  ]
},
{
  tag:'S',
  content:
  [
    ['Advertisement','NNP','advert'],
    ['Next','NNP','next'],
    ['article','NN','artic'],
    {
      tag:'ORGANIZATION',
      content:
      [
        ['GWAR','NNP','gwar']
      ]
    },
    ['begin','NN','begin'],
    ['``','``','``'],
    {
      tag:'PERSON',
      content:
      [
        ['Madness','NNP','mad'],
        ['At','NNP','at']
      ]
    },
    ['the','DT','the'],
    {
      tag:'ORGANIZATION',
      content:
      [
        ['Core','NNP','cor']
      ]
    },
    ['of','IN','of'],
    ['Time','NNP','tim'],
    ['''','''',''''],
    ['tour','PRP$','tour'],
    ['at','IN','at'],
    ['the','DT','the'],
    ['historic','JJ','hist'],
    ['...',':','...'],
    ['Related','JJ','rel'],
    ['slideshow','NN','slideshow'],
    ['GWAR','NN','gwar'],
    ['``','``','``'],
    ['Madness','NNP','mad'],
    ['at','IN','at'],
    ['the','DT','the'],
    {
      tag:'ORGANIZATION',
      content:
      [
        ['Core','NNP','cor']
      ]
    },
    ['of','IN','of'],
    ['Time','NNP','tim'],
    ['''','''',''''],
    ['Tour','NNP','tour'],
    ['kick','NN','kick'],
    ['off','IN','off'],
    ['Oct','NNP','oct'],
    ['2','CD','2'],
    [',',',',','],
    ['2013','CD','2013'],
    ['...',':','...'],
    ['7','CD','7'],
    {
      tag:'PERSON',
      content:
      [
        ['Photos','NNP','photo'],
        ['Advertisement','NNP','advert'],
        ['Popular','NNP','popul']
      ]
    },
    ['in','IN','in'],
    {
      tag:'GPE',
      content:
      [
        ['Music','NNP','mus']
      ]
    },
    {
      tag:'PERSON',
      content:
      [
        ['Carrie','NNP','carry'],
        ['Underwood','NNP','underwood']
      ]
    },
    ['joins','VBZ','join'],
    {
      tag:'PERSON',
      content:
      [
        ['Willie','NNP','wil'],
        ['Nelson','NNP','nelson']
      ]
    },
    ['on','IN','on'],
    [''Always','NNS',''always'],
    ['On','IN','On'],
    ['My','NNP','my'],
    ['Mind','NNP','mind'],
    [''','POS','''],
    ['remake','NN','remak'],
    {
      tag:'PERSON',
      content:
      [
        ['Julian','NNP','jul'],
        ['Lennon','NNP','lennon']
      ]
    },
    ['spices','NNS','spic'],
    ['up','IN','up'],
    ['“Everything','JJ','“everything'],
    ['Changes”','NN','changes”'],
    ['with','IN','with'],
    ['new','JJ','new'],
    ['songs','NNS','song'],
    [',',',',','],
    {
      tag:'PERSON',
      content:
      [
        ['Steven','NNP','stev'],
        ['Tyler','NNP','tyl']
      ]
    },
    [',',',',','],
    ['pt','VBD','pt'],
    ['.','.','.']
  ]
},
{
  tag:'S',
  content:
  [
    ['2','LS','2'],
    {
      tag:'ORGANIZATION',
      content:
      [
        ['GWAR','NNP','gwar']
      ]
    },
    ['begin','NN','begin'],
    ['``','``','``'],
    {
      tag:'PERSON',
      content:
      [
        ['Madness','NNP','mad'],
        ['At','NNP','at']
      ]
    },
    ['the','DT','the'],
    {
      tag:'ORGANIZATION',
      content:
      [
        ['Core','NNP','cor']
      ]
    },
    ['of','IN','of'],
    ['Time','NNP','tim'],
    ['''','''',''''],
    ['tour','PRP$','tour'],
    ['at','IN','at'],
    ['the','DT','the'],
    ['historic','JJ','hist'],
    {
      tag:'ORGANIZATION',
      content:
      [
        ['Newport','NNP','newport'],
        ['Music','NNP','mus'],
        ['Hall','NNP','hal']
      ]
    },
    ['Listen','NNP','list'],
    [':',':',':'],
    {
      tag:'PERSON',
      content:
      [
        ['Katy','NNP','katy'],
        ['Perry','NNP','perry']
      ]
    },
    ['previews','VBZ','preview'],
    ['new','JJ','new'],
    ['songs','NNS','song'],
    [''Unconditionally','RB',''unconditionally'],
    [''','''','''],
    ['and','CC','and'],
    [''Double','JJ',''double'],
    ['Rainbow'','NN','rainbow''],
    ['Another','DT','Another'],
    ['new','JJ','new'],
    ['version','NN','vert'],
    ['of','IN','of'],
    {
      tag:'PERSON',
      content:
      [
        ['Paul','NNP','paul'],
        ['McCartney','NNP','mccartney']
      ]
    },
    [''s','POS',''s'],
    [''New','JJ',''new'],
    [''','''','''],
    ['you','PRP','you'],
    [''ll','MD',''ll'],
    ['need','VB','nee'],
    ['to','TO','to'],
    ['buy','VB','buy'],
    {
      tag:'ORGANIZATION',
      content:
      [
        ['Load','NNP','load']
      ]
    },
    ['more','RBR','mor'],
    {
      tag:'GPE',
      content:
      [
        ['Latest','NNP','latest']
      ]
    },
    ['in','IN','in'],
    {
      tag:'GPE',
      content:
      [
        ['Music','NNP','mus']
      ]
    },
    ['October','NNP','octob'],
    ['16','CD','16'],
    [',',',',','],
    ['2013','CD','2013'],
    {
      tag:'GPE',
      content:
      [
        ['Shania','NNP','shan'],
        ['Twain','NNP','twain']
      ]
    },
    ['extends','VBZ','extend'],
    {
      tag:'PERSON',
      content:
      [
        ['Vegas','NNP','vega']
      ]
    },
    ['run','NN','run'],
    ['October','NNP','octob'],
    ['16','CD','16'],
    [',',',',','],
    ['2013','CD','2013'],
    ['Morrissey','NNP','morrissey'],
    ['looks','NNS','look'],
    ['back','RB','back'],
    ['25','CD','25'],
    ['years','NNS','year'],
    ['on','IN','on'],
    ['new','JJ','new'],
    ['concert','NN','concert'],
    {
      tag:'ORGANIZATION',
      content:
      [
        ['DVD','NNP','dvd']
      ]
    },
    ['October','NNP','octob'],
    ['16','CD','16'],
    [',',',',','],
    ['2013','CD','2013'],
    {
      tag:'PERSON',
      content:
      [
        ['Frank','NNP','frank'],
        ['Sinatra','NNP','sinatr']
      ]
    },
    [':',':',':'],
    {
      tag:'PERSON',
      content:
      [
        ['Greatest','NNP','greatest'],
        ['Entertainer','NNP','entertain']
      ]
    },
    ['of','IN','of'],
    ['the','DT','the'],
    ['20th','JJ','20th'],
    {
      tag:'ORGANIZATION',
      content:
      [
        ['Century','NNP','century']
      ]
    },
    ['October','NNP','octob'],
    ['16','CD','16'],
    [',',',',','],
    ['2013','CD','2013'],
    ['Saving','NNP','sav'],
    ['Abel’s','NNP','abel’s'],
    ['Jared','NNP','jar'],
    ['Weeks','NNP','week'],
    ['adds','VBZ','ad'],
    ['energy','NN','energy'],
    ['to','TO','to'],
    {
      tag:'GPE',
      content:
      [
        ['Hinder','NNP','hind']
      ]
    },
    ['concert','NN','concert'],
    ['October','NNP','octob'],
    ['16','CD','16'],
    [',',',',','],
    ['2013','CD','2013'],
    {
      tag:'PERSON',
      content:
      [
        ['Patrick','NNP','patrick'],
        ['D.','NNP','d.'],
        ['McCoy','NNP','mccoy']
      ]
    },
    ['installed','VBD','inst'],
    ['as','IN','as'],
    ['music','JJ','mus'],
    ['director','NN','direct'],
    ['of','IN','of'],
    {
      tag:'GPE',
      content:
      [
        ['Washington','NNP','washington']
      ]
    },
    [''s','POS',''s'],
    {
      tag:'ORGANIZATION',
      content:
      [
        ['Trinity','NNP','trin'],
        ['Church','NNP','church'],
        ['Load','NNP','load']
      ]
    },
    ['more','JJR','mor'],
    ['Popular','JJ','popul'],
    ['in','IN','in'],
    {
      tag:'GPE',
      content:
      [
        ['National','NNP','nat']
      ]
    },
    ['change','NN','chang'],
    ['location','NN','loc'],
    {
      tag:'PERSON',
      content:
      [
        ['Julian','NNP','jul'],
        ['Lennon','NNP','lennon']
      ]
    },
    ['spices','NNS','spic'],
    ['up','IN','up'],
    ['“Everything','JJ','“everything'],
    ['Changes”','NN','changes”'],
    ['with','IN','with'],
    ['new','JJ','new'],
    ['songs','NNS','song'],
    [',',',',','],
    {
      tag:'PERSON',
      content:
      [
        ['Steven','NNP','stev'],
        ['Tyler','NNP','tyl']
      ]
    },
    [',',',',','],
    ['pt','VBD','pt'],
    ['.','.','.']
  ]
},
{
  tag:'S',
  content:
  [
    ['2','LS','2'],
    ['Another','DT','Another'],
    ['new','JJ','new'],
    ['version','NN','vert'],
    ['of','IN','of'],
    {
      tag:'PERSON',
      content:
      [
        ['Paul','NNP','paul'],
        ['McCartney','NNP','mccartney']
      ]
    },
    [''s','POS',''s'],
    [''New','JJ',''new'],
    [''','''','''],
    ['you','PRP','you'],
    [''ll','MD',''ll'],
    ['need','VB','nee'],
    ['to','TO','to'],
    ['buy','VB','buy']
  ]
}]