[
{
  tag:'S',
  content:
  [
    {
      tag:'PERSON',
      content:
      [
        ['Home','NN','hom'],
        ['Advertise','NNP','advert'],
        ['Loading','NNP','load']
      ]
    },
    ['...',':','...'],
    {
      tag:'PERSON',
      content:
      [
        ['Join','NNP','join'],
        ['Sign','NNP','sign']
      ]
    },
    ['In','NNP','in'],
    ['All','NNP','al'],
    ['About','NNP','about'],
    ['Jazz','NNP','jazz'],
    [':',':',':'],
    ['The','DT','The'],
    ['web','NN','web'],
    [''s','POS',''s'],
    ['most','JJS','most'],
    ['comprehensive','JJ','comprehend'],
    ['jazz','NN','jazz'],
    ['resource','NN','resourc'],
    ['Serving','NNP','serv'],
    ['jazz','NN','jazz'],
    ['worldwide','NN','worldwid'],
    ['since','IN','since'],
    ['1995','CD','1995'],
    {
      tag:'ORGANIZATION',
      content:
      [
        ['ARTICLES','NNS','artic'],
        ['Featured','NNP','feat']
      ]
    },
    ['All','NNP','al'],
    {
      tag:'PERSON',
      content:
      [
        ['Album','NNP','alb'],
        ['Reviews','NNP','review'],
        ['Interviews','NNP','interview'],
        ['Live','NNP','liv'],
        ['Reviews','NNP','review'],
        ['Future','NNP','fut'],
        ['Articles','NNP','artic'],
        ['Popular','NNP','popul'],
        ['Recommended','NNP','recommend']
      ]
    },
    ['Staff','NNP','staff'],
    ['Directory','NNP','direct'],
    ['SOUNDS','NNP','sound'],
    ['Free','NNP','fre'],
    ['MP3s','NNP','mp3s'],
    ['Interviews','NNP','interview'],
    ['New','NNP','new'],
    ['Releases','NNP','releas'],
    ['Now','NNP','now'],
    {
      tag:'PERSON',
      content:
      [
        ['Submit','NNP','submit'],
        ['MP3','NNP','mp3']
      ]
    },
    ['VIDEOS','NNP','video'],
    ['.','.','.']
  ]
},
{
  tag:'S',
  content:
  [
    ['NEWS','NN','new'],
    ['All','DT','All'],
    {
      tag:'ORGANIZATION',
      content:
      [
        ['Local','NNP','loc'],
        ['Industry','NNP','industry'],
        ['Contests','NNP','contest']
      ]
    },
    ['Upcoming','NNP','upcom'],
    ['Releases','NNP','releas'],
    {
      tag:'PERSON',
      content:
      [
        ['Submit','NNP','submit'],
        ['News','NNP','new']
      ]
    },
    ['Submission','NNP','submit'],
    ['Guidelines','NNP','guidelin'],
    ['Sources','NNPS','sourc'],
    ['Contact','NNP','contact'],
    ['Editor','NNP','edit'],
    ['PHOTOS','NNP','photo'],
    ['This','NNP','thi'],
    ['Week','NNP','week'],
    ['Recommended','NNP','recommend'],
    ['Popular','NNP','popul'],
    ['Pro','NNP','pro'],
    ['Favorites','NNP','favorit'],
    ['All','NNP','al'],
    ['Upload','NNP','upload'],
    {
      tag:'PERSON',
      content:
      [
        ['Photos','NNP','photo'],
        ['Manage','NNP','man']
      ]
    },
    ['my','PRP$','my'],
    ['photos','NNS','photo'],
    {
      tag:'ORGANIZATION',
      content:
      [
        ['Photographers','NNP','photograph']
      ]
    },
    ['MUSICIANS','NNP','mus'],
    ['All','NNP','al'],
    ['Local','NNP','loc'],
    {
      tag:'PERSON',
      content:
      [
        ['Local','NNP','loc'],
        ['Teachers','NNP','teach']
      ]
    },
    ['Crowdfunding','NNP','crowdfund'],
    ['Update','NNP','upd'],
    ['Profile','NNP','profil'],
    ['Create','NNP','cre'],
    ['Profile','NNP','profil'],
    ['How','NNP','how'],
    ['to','TO','to'],
    ['guide','VB','guid'],
    ['Promo','NNP','promo'],
    ['toolkit','NN','toolkit'],
    ['EVENTS','NNS','ev'],
    ['All','DT','All'],
    {
      tag:'GPE',
      content:
      [
        ['New','NNP','new'],
        ['York','NNP','york']
      ]
    },
    ['Only','NNP','on'],
    ['By','NNP','by'],
    ['City','NNP','city'],
    ['Add','NNP','ad'],
    ['Event','NNP','ev'],
    ['Upload','NNP','upload'],
    ['Events','NNP','ev'],
    ['(','NNP','('],
    ['.csv','NNP','.csv'],
    [')','NNP',')'],
    ['Export','NNP','export'],
    ['Events','NNP','ev'],
    ['(','NNP','('],
    ['.xml','NNP','.xml'],
    [')','NNP',')'],
    ['Syndicate','NNP','synd'],
    ['your','PRP$','your'],
    ['events','NNS','ev'],
    {
      tag:'PERSON',
      content:
      [
        ['Follow','NNP','follow'],
        ['Us','NNP','us'],
        ['Twitter','NNP','twit'],
        ['Facebook','NNP','facebook'],
        ['Pinterest','NNP','pinterest'],
        ['Tumblr','NNP','tumblr']
      ]
    },
    {
      tag:'ORGANIZATION',
      content:
      [
        ['RSS','NNP','rss'],
        ['Widgets','NNPS','widget']
      ]
    },
    ['Search','NNP','search'],
    ['7Recommend','CD','7Recommend'],
    ['It','PRP','It'],
    ['!','.','!']
  ]
},
{
  tag:'S',
  content:
  [
    ['67,331views','CD','67,331views'],
    {
      tag:'ORGANIZATION',
      content:
      [
        ['Tell','NNP','tel'],
        ['Me','NNP','me'],
        ['More','NNP','mor'],
        ['Diana','NNP','dian']
      ]
    },
    ['Krall','NNP','kral'],
    [':',':',':'],
    ['Rediscovering','NNP','rediscov'],
    ['Vaudeville','NNP','vaudevil'],
    ['in','IN','in'],
    {
      tag:'GPE',
      content:
      [
        ['Glad','NNP','glad']
      ]
    },
    ['Rag','NNP','rag'],
    ['Doll','NNP','dol'],
    ['By','NNP','by'],
    {
      tag:'ORGANIZATION',
      content:
      [
        ['BELINDA','NNP','belind']
      ]
    },
    ['WARE','NNP','war'],
    [',',',',','],
    {
      tag:'PERSON',
      content:
      [
        ['Published','NNP','publ']
      ]
    },
    [':',':',':'],
    ['May','NNP','may'],
    ['11','CD','11'],
    [',',',',','],
    ['2013','CD','2013'],
    ['View','NNP','view'],
    ['All12Next','NNP','all12next'],
    ['»','NNP','»'],
    {
      tag:'PERSON',
      content:
      [
        ['Diana','NNP','dian'],
        ['Krall','NNP','kral']
      ]
    },
    ['is','VBZ','be'],
    ['more','JJR','mor'],
    ['than','IN','than'],
    ['just','RB','just'],
    ['a','DT','a'],
    ['jazz','NN','jazz'],
    ['songstress','NN','songstress'],
    ['.','.','.']
  ]
},
{
  tag:'S',
  content:
  [
    ['She','PRP','She'],
    ['established','VBD','est'],
    ['herself','PRP','herself'],
    ['as','IN','as'],
    ['a','DT','a'],
    ['solid','JJ','solid'],
    ['interpreter','NN','interpret'],
    ['of','IN','of'],
    ['standards','NNS','standard'],
    ['with','IN','with'],
    ['her','PRP$','her'],
    ['rendition','NN','rendit'],
    ['of','IN','of'],
    ['the','DT','the'],
    {
      tag:'ORGANIZATION',
      content:
      [
        ['Dusty','NNP','dusty'],
        ['Springfield','NNP','springfield']
      ]
    },
    [''s','POS',''s'],
    ['classic','JJ','class'],
    [',',',',','],
    ['``','``','``'],
    ['The','DT','The'],
    {
      tag:'ORGANIZATION',
      content:
      [
        ['Look','NNP','look']
      ]
    },
    ['of','IN','of'],
    {
      tag:'GPE',
      content:
      [
        ['Love','NNP','lov']
      ]
    },
    [',',',',','],
    ['''','''',''''],
    ['making','VBG','mak'],
    ['her','PRP','her'],
    ['mark','NN','mark'],
    ['with','IN','with'],
    ['notable','JJ','not'],
    ['acoustic','JJ','acoust'],
    ['arrangements','NNS','arrang'],
    ['coupled','VBN','coupl'],
    ['with','IN','with'],
    ['openly','RB','op'],
    ['sensuous','JJ','sensu'],
    ['vocals','NNS','voc'],
    ['carrying','VBG','carry'],
    ['the','DT','the'],
    ['tune.Krall','JJ','tune.krall'],
    ['is','VBZ','be'],
    ['one','CD','one'],
    ['of','IN','of'],
    ['the','DT','the'],
    ['jazz','NN','jazz'],
    ['world','NN','world'],
    [''s','POS',''s'],
    ['uniquely','RB','un'],
    ['eclectic','JJ','eclect'],
    ['artists','NNS','art'],
    ['who','WP','who'],
    ['has','VBZ','hav'],
    ['built','VBN','build'],
    ['a','DT','a'],
    ['respectable','JJ','respect'],
    ['longevity','NN','longev'],
    ['with','IN','with'],
    ['her','PRP$','her'],
    ['career','NN','car'],
    ['.','.','.']
  ]
},
{
  tag:'S',
  content:
  [
    ['She','PRP','She'],
    ['is','VBZ','be'],
    ['consistent','JJ','consist'],
    ['as','IN','as'],
    ['a','DT','a'],
    ['serious','JJ','sery'],
    ['jazz','NN','jazz'],
    ['artist','NN','art'],
    [',',',',','],
    ['both','DT','both'],
    ['in','IN','in'],
    ['the','DT','the'],
    ['recording','NN','record'],
    ['studio','NN','studio'],
    ['as','IN','as'],
    ['well','RB','wel'],
    ['as','IN','as'],
    ['in','IN','in'],
    ['her','PRP$','her'],
    ['visual','JJ','vis'],
    ['branding','NN','brand'],
    ['.','.','.']
  ]
},
{
  tag:'S',
  content:
  [
    ['When','WRB','When'],
    ['it','PRP','it'],
    ['comes','VBZ','com'],
    ['to','TO','to'],
    ['CD','NNP','cd'],
    ['cover','NN','cov'],
    ['art','NN','art'],
    [',',',',','],
    ['she','PRP','she'],
    ['appears','VBZ','appear'],
    ['to','TO','to'],
    ['have','VB','hav'],
    ['garnered','VBN','garn'],
    ['notable','JJ','not'],
    ['attention','NN','at'],
    ['on','IN','on'],
    ['a','DT','a'],
    ['similar','JJ','simil'],
    ['level','NN','level'],
    ['to','TO','to'],
    ['her','PRP$','her'],
    ['musical','JJ','mus'],
    ['artistry','NN','art'],
    ['.','.','.']
  ]
},
{
  tag:'S',
  content:
  [
    {
      tag:'GPE',
      content:
      [
        ['Krall','NNP','kral']
      ]
    },
    ['is','VBZ','be'],
    ['fashion-driven','JJ','fashion-driv'],
    [',',',',','],
    ['with','IN','with'],
    ['a','DT','a'],
    ['personal','JJ','person'],
    ['preference','NN','pref'],
    ['for','IN','for'],
    ['1940s','CD','1940s'],
    ['Hollywood','NNP','hollywood'],
    ['glamour','PRP$','glamour'],
    [',',',',','],
    ['with','IN','with'],
    ['a','DT','a'],
    ['retro','NN','retro'],
    ['vibe','NN','vib'],
    ['particularly','RB','particul'],
    ['noted','VBD','not'],
    ['in','IN','in'],
    ['her','PRP$','her'],
    ['most','RBS','most'],
    ['recent','JJ','rec'],
    ['release','NN','releas'],
    [',',',',','],
    {
      tag:'PERSON',
      content:
      [
        ['Glad','NNP','glad'],
        ['Rag','NNP','rag'],
        ['Doll','NNP','dol']
      ]
    },
    ['(','NNP','('],
    ['Verve','NNP','verv'],
    [',',',',','],
    ['2012','CD','2012'],
    [')',':',')'],
    ['.Glad','JJ','.glad'],
    ['Rag','NNP','rag'],
    ['Doll','NNP','dol'],
    ['is','VBZ','be'],
    ['personal','JJ','person'],
    ['for','IN','for'],
    {
      tag:'GPE',
      content:
      [
        ['Krall','NNP','kral']
      ]
    },
    [',',',',','],
    ['and','CC','and'],
    ['she','PRP','she'],
    [''s','VBZ',''s'],
    ['not','RB','not'],
    ['the','DT','the'],
    ['least','JJS','least'],
    ['bit','NN','bit'],
    ['shy','NN','shy'],
    ['with','IN','with'],
    ['this','DT','this'],
    ['one','CD','one'],
    ['.','.','.']
  ]
},
{
  tag:'S',
  content:
  [
    {
      tag:'GPE',
      content:
      [
        ['Krall','NNP','kral']
      ]
    },
    ['steps','VBZ','step'],
    ['out','RP','out'],
    ['modeling','VBG','model'],
    ['a','DT','a'],
    ['lingerie','NN','lingery'],
    ['ensemble','JJ','ensembl'],
    ['in','IN','in'],
    ['the','DT','the'],
    ['cover','NN','cov'],
    ['photo','NN','photo'],
    [',',',',','],
    ['with','IN','with'],
    ['comfortable','JJ','comfort'],
    ['humility','NN','humil'],
    ['and','CC','and'],
    ['dignity','NN','dign'],
    ['that','IN','that'],
    ['speaks','NNS','speak'],
    ['enchantment','VBP','ench'],
    ['as','RB','as'],
    ['she','PRP','she'],
    ['appears','VBZ','appear'],
    ['to','TO','to'],
    ['be','VB','be'],
    ['daydreaming','VBG','daydream'],
    ['of','IN','of'],
    ['a','DT','a'],
    ['love','NN','lov'],
    ['afar','NN','af'],
    ['.','.','.']
  ]
},
{
  tag:'S',
  content:
  [
    ['The','DT','The'],
    ['cover','NN','cov'],
    ['captures','NNS','capt'],
    ['her','PRP$','her'],
    ['interpretation','NN','interpret'],
    ['of','IN','of'],
    ['the','DT','the'],
    ['beauty','NN','beauty'],
    ['of','IN','of'],
    ['femininity','NN','feminin'],
    ['and','CC','and'],
    [',',',',','],
    ['for','IN','for'],
    ['a','DT','a'],
    ['moment','NN','mom'],
    [',',',',','],
    ['one','CD','one'],
    ['would','MD','would'],
    ['think','VB','think'],
    ['it','PRP','it'],
    ['was','VBD','be'],
    ['a','DT','a'],
    ['romance','NN','rom'],
    ['novel','NN','novel'],
    ['cover','NN','cov'],
    ['.','.','.']
  ]
},
{
  tag:'S',
  content:
  [
    ['Her','PRP$','Her'],
    ['influence','NN','influ'],
    ['for','IN','for'],
    ['going','VBG','go'],
    ['avant-garde','JJ','avant-garde'],
    ['with','IN','with'],
    ['a','DT','a'],
    ['teddy','NN','teddy'],
    ['and','CC','and'],
    ['nylons','NNS','nylon'],
    ['originates','NNS','origin'],
    ['from','IN','from'],
    ['her','PRP$','her'],
    ['personal','JJ','person'],
    ['desire','NN','desir'],
    ['to','TO','to'],
    ['``','``','``'],
    ['play','VB','play'],
    ['dress-up','JJ','dress-up'],
    ['''','''',''''],
    ['as','IN','as'],
    ['one','CD','one'],
    ['of','IN','of'],
    {
      tag:'PERSON',
      content:
      [
        ['Alfred','NNP','alfr'],
        ['Cheney','NNP','cheney'],
        ['Johnston','NNP','johnston']
      ]
    },
    [''s','POS',''s'],
    {
      tag:'ORGANIZATION',
      content:
      [
        ['Ziegfeld','NNP','ziegfeld']
      ]
    },
    ['girls','NNS','girl'],
    ['at','IN','at'],
    ['least','JJS','least'],
    ['one','CD','one'],
    ['time','NN','tim'],
    ['on','IN','on'],
    ['a','DT','a'],
    ['CD','NNP','cd'],
    ['cover.Glad','NNP','cover.glad'],
    ['Rag','NNP','rag'],
    ['Doll','NNP','dol'],
    ['introduces','VBZ','introduc'],
    ['a','DT','a'],
    ['new','JJ','new'],
    ['level','NN','level'],
    ['of','IN','of'],
    ['comfort','NN','comfort'],
    ['in','IN','in'],
    ['the','DT','the'],
    ['depth','NN','dep'],
    ['of','IN','of'],
    ['intimacy','NN','intim'],
    ['with','IN','with'],
    {
      tag:'PERSON',
      content:
      [
        ['Krall','NNP','kral']
      ]
    },
    [''s','POS',''s'],
    ['vocal','JJ','voc'],
    ['style','NN','styl'],
    ['.','.','.']
  ]
},
{
  tag:'S',
  content:
  [
    {
      tag:'GPE',
      content:
      [
        ['Krall','NNP','kral']
      ]
    },
    ['brings','VBZ','bring'],
    ['her','PRP','her'],
    ['sultry','NN','sultry'],
    ['jazz','NN','jazz'],
    ['interpretations','NNS','interpret'],
    ['to','TO','to'],
    ['vaudeville','VB','vaudevil'],
    ['songs','NNS','song'],
    ['written','VBN','writ'],
    ['between','IN','between'],
    ['World','NNP','world'],
    ['War','NNP','war'],
    ['I','NNP','i'],
    ['and','CC','and'],
    ['World','NNP','world'],
    ['War','NNP','war'],
    ['II','NNP','ii'],
    ['.','.','.']
  ]
},
{
  tag:'S',
  content:
  [
    ['Her','PRP$','Her'],
    ['vocals','NNS','voc'],
    ['are','VBP','be'],
    ['bluesy','JJ','bluesy'],
    [',',',',','],
    ['with','IN','with'],
    ['an','DT','an'],
    ['accent','NN','acc'],
    ['of','IN','of'],
    ['jazz','NN','jazz'],
    ['.','.','.']
  ]
},
{
  tag:'S',
  content:
  [
    ['No','DT','No'],
    ['large','JJ','larg'],
    ['orchestras','NNS','orchestr'],
    ['on','IN','on'],
    ['this','DT','this'],
    ['one','CD','one'],
    ['.','.','.']
  ]
},
{
  tag:'S',
  content:
  [
    ['It','PRP','It'],
    [''s','VBZ',''s'],
    ['different','JJ','diff'],
    ['.','.','.']
  ]
},
{
  tag:'S',
  content:
  [
    ['It','PRP','It'],
    [''s','VBZ',''s'],
    ['rudimentary','JJ','rudy'],
    ['.','.','.']
  ]
},
{
  tag:'S',
  content:
  [
    ['Voice','NNP','voic'],
    ['and','CC','and'],
    ['piano','DT','piano'],
    ['.','.','.']
  ]
},
{
  tag:'S',
  content:
  [
    ['Voice','NNP','voic'],
    ['and','CC','and'],
    ['guitar','NN','guit'],
    ['.','.','.']
  ]
},
{
  tag:'S',
  content:
  [
    ['She','PRP','She'],
    [''s','VBZ',''s'],
    ['returning','VBG','return'],
    ['to','TO','to'],
    ['the','DT','the'],
    ['music','NN','mus'],
    ['of','IN','of'],
    ['trumpeter/singer','JJ','trumpeter/sing'],
    {
      tag:'PERSON',
      content:
      [
        ['Louis','NNP','lou'],
        ['Armstrong','NNP','armstrong'],
        ['Louis','NNP','lou'],
        ['Armstrong','NNP','armstrong']
      ]
    },
    ['1901','CD','1901'],
    ['-',':','-'],
    ['1971trumpet','JJ','1971trumpet'],
    ['and','CC','and'],
    ['late','JJ','lat'],
    ['night','NN','night'],
    ['piano','NN','piano'],
    ['bars','NNS','bar'],
    [',',',',','],
    ['with','IN','with'],
    ['her','PRP$','her'],
    ['bluesy','NN','bluesy'],
    ['and','CC','and'],
    ['straight-ahead','JJ','straight-ahead'],
    ['jazz','NN','jazz'],
    ['intonations','NNS','inton'],
    ['and','CC','and'],
    ['vocal','JJ','voc'],
    ['simplicity','NN','simpl'],
    ['.','.','.']
  ]
},
{
  tag:'S',
  content:
  [
    ['The','DT','The'],
    ['music','NN','mus'],
    ['is','VBZ','be'],
    ['basic','JJ','bas'],
    ['jazz','NN','jazz'],
    ['and','CC','and'],
    ['blues.Her','JJ','blues.her'],
    ['jazz','NN','jazz'],
    ['voice','NN','voic'],
    ['is','VBZ','be'],
    ['soft','JJ','soft'],
    [',',',',','],
    ['breathy','JJ','breathy'],
    ['and','CC','and'],
    ['pronounced','VBD','pronount'],
    ['in','IN','in'],
    ['``','``','``'],
    ['Garden','NNP','gard'],
    ['in','IN','in'],
    ['the','DT','the'],
    {
      tag:'GPE',
      content:
      [
        ['Rain','NNP','rain']
      ]
    },
    [',',',',','],
    ['''','''',''''],
    ['with','IN','with'],
    ['a','DT','a'],
    ['raw','JJ','raw'],
    ['presence','NN','pres'],
    ['delicately','RB','del'],
    ['accented','VBN','acc'],
    ['by','IN','by'],
    ['soft','JJ','soft'],
    ['piano','NN','piano'],
    ['licks','NNS','lick'],
    ['.','.','.']
  ]
},
{
  tag:'S',
  content:
  [
    ['It','PRP','It'],
    ['is','VBZ','be'],
    ['reminiscent','JJ','reminisc'],
    ['of','IN','of'],
    ['singer','NN','sing'],
    {
      tag:'PERSON',
      content:
      [
        ['Billie','NNP','bil']
      ]
    },
    ['Holiday','NNP','holiday'],
    {
      tag:'PERSON',
      content:
      [
        ['Billie','NNP','bil']
      ]
    },
    ['Holiday','NNP','holiday'],
    ['1915','CD','1915'],
    ['-',':','-'],
    ['1959vocalist','JJ','1959vocalist'],
    [',',',',','],
    ['with','IN','with'],
    ['only','RB','on'],
    ['piano','RB','piano'],
    ['and','CC','and'],
    ['voice','NN','voic'],
    ['carrying','VBG','carry'],
    ['the','DT','the'],
    ['tune','NN','tun'],
    ['and','CC','and'],
    ['capturing','VBG','capt'],
    ['a','DT','a'],
    ['1930s','CD','1930s'],
    ['jazz','NN','jazz'],
    ['feel','NN','feel'],
    ['.','.','.']
  ]
},
{
  tag:'S',
  content:
  [
    {
      tag:'GPE',
      content:
      [
        ['Krall','NNP','kral']
      ]
    },
    [''s','POS',''s'],
    ['voice','NN','voic'],
    ['is','VBZ','be'],
    ['up','RP','up'],
    ['front','JJ','front'],
    ['and','CC','and'],
    ['it','PRP','it'],
    [''s','VBZ',''s'],
    ['enough','RB','enough'],
    ['.','.','.']
  ]
},
{
  tag:'S',
  content:
  [
    ['She','PRP','She'],
    ['takes','VBZ','tak'],
    ['down','RB','down'],
    ['the','DT','the'],
    ['walls','NNS','wal'],
    ['of','IN','of'],
    ['privacy','NN','priv'],
    ['and','CC','and'],
    ['exposes','NNS','expos'],
    ['her','PRP$','her'],
    ['heart','NN','heart'],
    ['openly','RB','op'],
    ['in','IN','in'],
    ['love','NN','lov'],
    ['with','IN','with'],
    ['her','PRP$','her'],
    ['poignant','JJ','poign'],
    ['phrasing','NN','phrasing'],
    ['on','IN','on'],
    ['``','``','``'],
    ['All','DT','All'],
    ['I','PRP','I'],
    ['Do','VBP','do'],
    ['Is','VBZ','is'],
    ['Dream','NNP','dream'],
    ['of','IN','of'],
    ['You','NNP','you'],
    ['.','.','.']
  ]
},
{
  tag:'S',
  content:
  [
    ['``','``','``'],
    ['In','IN','In'],
    ['``','``','``'],
    ['As','IN','As'],
    {
      tag:'GPE',
      content:
      [
        ['Long','NNP','long']
      ]
    },
    ['As','NNP','as'],
    ['I','NNP','i'],
    ['Love','NNP','lov'],
    [',',',',','],
    ['''','''',''''],
    ['she','PRP','she'],
    ['speaks','VBZ','speak'],
    ['to','TO','to'],
    ['the','DT','the'],
    ['love','NN','lov'],
    ['of','IN','of'],
    ['her','PRP$','her'],
    ['life','NN','lif'],
    ['and','CC','and'],
    ['shares','NNS','shar'],
    ['a','DT','a'],
    ['poetic','JJ','poet'],
    ['serenade','NN','serenad'],
    ['in','IN','in'],
    ['lyrics','NNS','lyr'],
    ['that','WDT','that'],
    ['seem','VBP','seem'],
    ['even','RB','ev'],
    ['conversational','JJ','convers'],
    [':',':',':'],
    ['''','''',''''],
    ['You','PRP','You'],
    [''ll','MD',''ll'],
    ['always','RB','alway'],
    ['be','VB','be'],
    {
      tag:'ORGANIZATION',
      content:
      [
        ['mineI','NNP','mine']
      ]
    },
    [''ll','NNP',''ll'],
    ['make','VBP','mak'],
    ['a','DT','a'],
    ['crown','NN','crown'],
    ['of','IN','of'],
    ['sparkling','VBG','sparkl'],
    ['stars','NNS','star'],
    ['for','IN','for'],
    ['youfrom','NN','youfrom'],
    ['the','DT','the'],
    ['skies.But','JJ','skies.but'],
    ['how','WRB','how'],
    ['can','MD','can'],
    ['I','PRP','I'],
    ['compare','VB','comp'],
    ['them','PRP','them'],
    ['tothe','DT','tothe'],
    ['starlight','NN','starlight'],
    ['shines','NNS','shin'],
    ['in','IN','in'],
    ['your','PRP$','your'],
    ['eyes','NNS','ey'],
    ['.','.','.']
  ]
},
{
  tag:'S',
  content:
  [
    ['``','``','``'],
    ['Krall','NNP','kral'],
    ['shares','NNS','shar'],
    [',',',',','],
    ['in','IN','in'],
    ['song','JJ','song'],
    [',',',',','],
    ['the','DT','the'],
    ['words','NNS','word'],
    ['of','IN','of'],
    ['a','DT','a'],
    ['woman','NN','wom'],
    ['in','IN','in'],
    ['love','NN','lov'],
    ['who','WP','who'],
    ['wants','VBZ','want'],
    ['to','TO','to'],
    ['hold','VB','hold'],
    ['on','IN','on'],
    ['to','TO','to'],
    ['that','DT','that'],
    ['feeling','VBG','feel'],
    ['with','IN','with'],
    ['all','DT','all'],
    ['she','PRP','she'],
    [''s','VBZ',''s'],
    ['got','VBN','get'],
    [';',':',';'],
    ['and','CC','and'],
    ['for','IN','for'],
    ['a','DT','a'],
    ['moment','NN','mom'],
    [',',',',','],
    ['she','PRP','she'],
    ['bares','VBZ','bar'],
    ['all','DT','all'],
    ['her','PRP$','her'],
    ['emotions','NNS','emot'],
    ['clearly','RB','clear'],
    ['in','IN','in'],
    ['lyrical','JJ','lyr'],
    ['tone','NN','ton'],
    ['and','CC','and'],
    ['expression','NN','express'],
    [',',',',','],
    ['with','IN','with'],
    ['minimal','JJ','minim'],
    ['instrumentation','NN','instru'],
    ['surrounding','VBG','surround'],
    ['her','PRP','her'],
    ['vocals.Where','JJ','vocals.where'],
    ['did','VBD','do'],
    ['this','DT','this'],
    ['direction','NN','direct'],
    ['come','NN','com'],
    ['from','IN','from'],
    ['?','.','?']
  ]
},
{
  tag:'S',
  content:
  [
    {
      tag:'PERSON',
      content:
      [
        ['Glad','NNP','glad']
      ]
    },
    {
      tag:'ORGANIZATION',
      content:
      [
        ['Rag','NNP','rag'],
        ['Doll','NNP','dol']
      ]
    },
    ['is','VBZ','be'],
    ['personal','JJ','person'],
    ['for','IN','for'],
    {
      tag:'ORGANIZATION',
      content:
      [
        ['Krall','NNP','kral']
      ]
    },
    ['.','.','.']
  ]
},
{
  tag:'S',
  content:
  [
    ['She','PRP','She'],
    ['travels','VBZ','travel'],
    ['back','RB','back'],
    ['in','IN','in'],
    ['time','NN','tim'],
    ['to','TO','to'],
    ['her','PRP$','her'],
    ['childhood','NN','child'],
    ['and','CC','and'],
    ['the','DT','the'],
    ['1920s','CD','1920s'],
    ['music','NN','mus'],
    ['she','PRP','she'],
    ['grew','VBD','grow'],
    ['up','RP','up'],
    ['to','TO','to'],
    ['love','VB','lov'],
    ['and','CC','and'],
    ['cherishthe','NNP','cherishthe'],
    ['music','NN','mus'],
    ['of','IN','of'],
    ['the','DT','the'],
    ['era','NN','er'],
    ['that','IN','that'],
    ['gave','VBD','giv'],
    ['way','NN','way'],
    ['to','TO','to'],
    ['the','DT','the'],
    ['birth','NN','bir'],
    ['of','IN','of'],
    ['jazz','NN','jazz'],
    ['in','IN','in'],
    {
      tag:'GSP',
      content:
      [
        ['New','NNP','new'],
        ['Orleans','NNP','orl']
      ]
    },
    [',',',',','],
    ['an','DT','an'],
    ['era','NN','er'],
    ['that','IN','that'],
    ['with','IN','with'],
    ['which','WDT','which'],
    {
      tag:'PERSON',
      content:
      [
        ['Krall','NNP','kral']
      ]
    },
    ['became','VBD','becom'],
    ['fascinated','VBN','fascin'],
    ['as','IN','as'],
    ['a','DT','a'],
    ['child','NN','child'],
    [',',',',','],
    ['leading','VBG','lead'],
    ['her','PRP','her'],
    ['to','TO','to'],
    ['discover','VB','discov'],
    ['her','PRP$','her'],
    ['own','JJ','own'],
    ['voice','NN','voic'],
    ['in','IN','in'],
    ['jazz.Krall','JJ','jazz.krall'],
    ['partnered','VBN','partn'],
    ['with','IN','with'],
    ['singer/songwriter','JJ','singer/songwrit'],
    {
      tag:'PERSON',
      content:
      [
        ['Bob','NNP','bob'],
        ['Dylan','NNP','dyl'],
        ['Bob','NNP','bob'],
        ['Dylan','NNP','dyl']
      ]
    },
    ['b.1941composer/conductor','NNP','b.1941composer/conductor'],
    [''s','POS',''s'],
    ['one-time','JJ','one-tim'],
    ['guitarist','NN','guit'],
    [',',',',','],
    ['legendary','JJ','legend'],
    ['Americana','NNS','american'],
    ['producer','NN','produc'],
    ['T','NNP','t'],
    ['Bone','NNP','bon'],
    {
      tag:'PERSON',
      content:
      [
        ['Burnett','NNP','burnet']
      ]
    },
    ['T','NNP','t'],
    ['Bone','NNP','bon'],
    {
      tag:'PERSON',
      content:
      [
        ['Burnett','NNP','burnet']
      ]
    },
    ['b.1948producer','NNP','b.1948producer'],
    [',',',',','],
    ['to','TO','to'],
    ['help','VB','help'],
    ['her','PRP$','her'],
    ['put','NN','put'],
    ['this','DT','this'],
    ['unique','NN','un'],
    ['project','NN','project'],
    ['together','RB','togeth'],
    [',',',',','],
    ['starting','VBG','start'],
    ['off','RP','off'],
    ['with','IN','with'],
    ['the','DT','the'],
    ['tedious','JJ','tedy'],
    ['selection','NN','select'],
    ['of','IN','of'],
    ['choice','NN','cho'],
    {
      tag:'ORGANIZATION',
      content:
      [
        ['Vaudeville','NNP','vaudevil']
      ]
    },
    ['picks','VBZ','pick'],
    ['from','IN','from'],
    ['a','DT','a'],
    ['list','NN','list'],
    ['of','IN','of'],
    ['35','CD','35'],
    ['songs','NNS','song'],
    ['from','IN','from'],
    ['her','PRP$','her'],
    ['father','NN','fath'],
    [''s','POS',''s'],
    ['collection','NN','collect'],
    ['of','IN','of'],
    ['music','JJ','mus'],
    ['that','IN','that'],
    ['she','PRP','she'],
    ['adored','VBD','ad'],
    ['during','IN','during'],
    ['her','PRP$','her'],
    ['childhood.Krall','JJ','childhood.krall'],
    ['interprets','NNS','interpret'],
    ['songs','NNS','song'],
    ['such','JJ','such'],
    ['as','IN','as'],
    ['``','``','``'],
    ['We','PRP','We'],
    ['Just','RB','just'],
    ['Could','MD','Could'],
    ['n't','RB','n't'],
    ['Say','VB','say'],
    {
      tag:'PERSON',
      content:
      [
        ['Goodbye','NNP','goodby']
      ]
    },
    ['''','''',''''],
    ['with','IN','with'],
    ['a','DT','a'],
    ['subtle','NN','subtl'],
    ['relaxed','VBN','relax'],
    ['flair','NN','flair'],
    ['similar','JJ','simil'],
    ['to','TO','to'],
    ['1920s','CD','1920s'],
    ['jazz','NN','jazz'],
    ['songstress','NN','songstress'],
    {
      tag:'PERSON',
      content:
      [
        ['Annette','NNP','annet'],
        ['Hanshaw','NNP','hanshaw']
      ]
    },
    ['.','.','.']
  ]
},
{
  tag:'S',
  content:
  [
    ['She','PRP','She'],
    ['exposes','VBZ','expos'],
    ['her','PRP$','her'],
    ['feminine','NN','feminin'],
    ['vulnerabilities','NNS','vuln'],
    ['in','IN','in'],
    ['her','PRP$','her'],
    ['soft','NN','soft'],
    ['vocal','JJ','voc'],
    ['delivery','NN','delivery'],
    ['on','IN','on'],
    ['``','``','``'],
    ['I','PRP','I'],
    [''m','VBP',''m'],
    ['a','DT','a'],
    ['Little','NNP','littl'],
    ['Mixed','NNP','mix'],
    ['Up','NNP','up'],
    ['.','.','.']
  ]
},
{
  tag:'S',
  content:
  [
    ['``','``','``'],
    ['She','PRP','She'],
    [''s','VBZ',''s'],
    ['artistic','JJ','art'],
    [',',',',','],
    ['as','IN','as'],
    ['she','PRP','she'],
    ['plays','VBZ','play'],
    ['with','IN','with'],
    ['shades','NNS','shad'],
    ['of','IN','of'],
    ['blue','JJ','blu'],
    ['in','IN','in'],
    ['her','PRP$','her'],
    ['vocal','JJ','voc'],
    ['intonations','NNS','inton'],
    ['of','IN','of'],
    {
      tag:'PERSON',
      content:
      [
        ['Ray','NNP','ray'],
        ['Charles','NNP','charl'],
        ['Ray','NNP','ray']
      ]
    },
    ['Charles','NNP','charl'],
    ['1930','CD','1930'],
    ['-',':','-'],
    ['2004piano','CD','2004piano'],
    [''','''','''],
    ['``','``','``'],
    ['Lonely','RB','lon'],
    {
      tag:'PERSON',
      content:
      [
        ['Avenue','NNP','avenu']
      ]
    },
    [',',',',','],
    ['''','''',''''],
    ['which','WDT','which'],
    ['has','VBZ','hav'],
    ['a','DT','a'],
    {
      tag:'PERSON',
      content:
      [
        ['Miles','NNP','mil'],
        ['Davis','NNP','dav'],
        ['Miles','NNP','mil']
      ]
    },
    ['Davis','NNP','dav'],
    ['1926','CD','1926'],
    ['-',':','-'],
    ['1991trumpet','JJ','1991trumpet'],
    ['feel','NN','feel'],
    ['to','TO','to'],
    ['its','PRP$','its'],
    ['musical','JJ','mus'],
    ['arrangement.With','JJ','arrangement.with'],
    ['the','DT','the'],
    ['title','NN','titl'],
    ['track','NN','track'],
    [',',',',','],
    {
      tag:'ORGANIZATION',
      content:
      [
        ['Krall','NNP','kral']
      ]
    },
    ['tells','VBZ','tel'],
    ['the','DT','the'],
    ['story','NN','story'],
    ['of','IN','of'],
    ['the','DT','the'],
    ['struggle','NN','struggle'],
    ['for','IN','for'],
    ['women','NNS','wom'],
    [''s','POS',''s'],
    ['rights','NNS','right'],
    ['in','IN','in'],
    ['the','DT','the'],
    [''20s','NNS',''20s'],
    ['through','IN','through'],
    ['vocal','JJ','voc'],
    ['sarcasm','NN','sarcasm'],
    [',',',',','],
    ['in','IN','in'],
    ['a','DT','a'],
    ['tone','NN','ton'],
    ['that','WDT','that'],
    ['is','VBZ','be'],
    ['slightly','RB','slight'],
    ['theatrical','JJ','the'],
    ['.','.','.']
  ]
},
{
  tag:'S',
  content:
  [
    {
      tag:'GPE',
      content:
      [
        ['Krall','NNP','kral']
      ]
    },
    ['recreates','VBZ','recr'],
    ['that','IN','that'],
    ['time','NN','tim'],
    ['in','IN','in'],
    ['history','NN','hist'],
    ['with','IN','with'],
    ['subtle','NN','subtl'],
    ['emotion','NN','emot'],
    ['and','CC','and'],
    ['story-driven','JJ','story-driven'],
    ['lyrics.For','NN','lyrics.for'],
    ['the','DT','the'],
    ['jazz','NN','jazz'],
    ['purist','NN','pur'],
    [',',',',','],
    ['this','DT','this'],
    ['is','VBZ','be'],
    ['not','RB','not'],
    ['a','DT','a'],
    ['typical','JJ','typ'],
    ['record','NN','record'],
    ['label','NN','label'],
    ['release','NN','releas'],
    ['.','.','.']
  ]
},
{
  tag:'S',
  content:
  [
    ['This','DT','This'],
    ['project','NN','project'],
    ['is','VBZ','be'],
    ['all','DT','all'],
    ['Krallher','JJ','krallher'],
    ['past','NN','past'],
    ['influences','NNS','influ'],
    [',',',',','],
    ['her','PRP$','her'],
    ['present','NN','pres'],
    ['expression','NN','express'],
    ['and','CC','and'],
    ['her','PRP$','her'],
    ['future','JJ','fut'],
    ['vision','NN','vis'],
    [',',',',','],
    ['all','DT','all'],
    ['wrapped','VBD','wrap'],
    ['up','RP','up'],
    ['in','IN','in'],
    ['one','CD','one'],
    ['CD','NNP','cd'],
    ['.','.','.']
  ]
},
{
  tag:'S',
  content:
  [
    ['She','PRP','She'],
    ['took','VBD','tak'],
    ['time','NN','tim'],
    ['to','TO','to'],
    ['put','VB','put'],
    ['this','DT','this'],
    ['together','NN','togeth'],
    ['.','.','.']
  ]
},
{
  tag:'S',
  content:
  [
    ['She','PRP','She'],
    ['went','VBD','go'],
    ['back','RB','back'],
    ['to','TO','to'],
    ['her','PRP$','her'],
    ['childhood','NN','child'],
    ['and','CC','and'],
    ['pulled','VBD','pul'],
    ['songs','NNS','song'],
    ['from','IN','from'],
    ['her','PRP$','her'],
    ['father','NN','fath'],
    [''s','POS',''s'],
    ['collection','NN','collect'],
    ['.','.','.']
  ]
},
{
  tag:'S',
  content:
  [
    ['She','PRP','She'],
    ['listened','VBD','list'],
    ['to','TO','to'],
    ['stacks','NNS','stack'],
    ['of','IN','of'],
    ['classic','JJ','class'],
    ['78','CD','78'],
    ['records','NNS','record'],
    ['to','TO','to'],
    ['select','VB','select'],
    ['the','DT','the'],
    ['songs','NNS','song'],
    ['for','IN','for'],
    ['the','DT','the'],
    ['final','JJ','fin'],
    ['cut','NN','cut'],
    ['.','.','.']
  ]
},
{
  tag:'S',
  content:
  [
    ['It','PRP','It'],
    ['has','VBZ','hav'],
    ['been','VBN','be'],
    ['a','DT','a'],
    ['project','NN','project'],
    ['in','IN','in'],
    ['the','DT','the'],
    ['making','VBG','mak'],
    ['for','IN','for'],
    ['some','DT','some'],
    ['time','NN','tim'],
    [',',',',','],
    ['a','DT','a'],
    ['project','NN','project'],
    ['that','WDT','that'],
    ['she','PRP','she'],
    ['was','VBD','be'],
    ['determined','VBN','determin'],
    ['to','TO','to'],
    ['record','VB','record'],
    [',',',',','],
    ['and','CC','and'],
    ['now','RB','now'],
    ['she','PRP','she'],
    [''s','VBZ',''s'],
    ['done','VBN','do'],
    ['itand','JJ','itand'],
    ['this','DT','this'],
    ['time','NN','tim'],
    [',',',',','],
    ['she','PRP','she'],
    ['did','VBD','do'],
    ['it','PRP','it'],
    ['her','PRP$','her'],
    ['way','NN','way'],
    ['.','.','.']
  ]
},
{
  tag:'S',
  content:
  [
    {
      tag:'PERSON',
      content:
      [
        ['View','NNP','view']
      ]
    },
    {
      tag:'ORGANIZATION',
      content:
      [
        ['All12Next','NNP','all12next']
      ]
    },
    ['»','NNP','»'],
    ['7Recommend','CD','7Recommend'],
    ['It','PRP','It'],
    ['!','.','!']
  ]
},
{
  tag:'S',
  content:
  [
    {
      tag:'GPE',
      content:
      [
        ['Shop','NNP','shop']
      ]
    },
    ['for','IN','for'],
    ['jazz','NN','jazz'],
    [':',':',':'],
    {
      tag:'PERSON',
      content:
      [
        ['Amazon','NNP','amazon'],
        ['CD','NNP','cd'],
        ['Baby','NNP','baby'],
        ['CD','NNP','cd'],
        ['Universe','NNP','univers'],
        ['Gear','NNP','gear']
      ]
    },
    {
      tag:'ORGANIZATION',
      content:
      [
        ['iTunes','NNP','itun'],
        ['Diana','NNP','dian'],
        ['Krall','NNP','kral'],
        ['Related','NNP','rel'],
        ['Photos','NNP','photo']
      ]
    },
    ['Events','NNP','ev'],
    ['Videos','NNP','video'],
    {
      tag:'PERSON',
      content:
      [
        ['Articles','NNP','artic'],
        ['Similar','NNP','simil'],
        ['Artists','NNP','art'],
        ['Links','NNP','link'],
        ['View','NNP','view'],
        ['All','NNP','al']
      ]
    },
    ['|','NNP','|'],
    ['Upload','NNP','upload'],
    {
      tag:'PERSON',
      content:
      [
        ['Sorry','NNP','sorry']
      ]
    },
    [',',',',','],
    ['no','DT','no'],
    ['events','NNS','ev'],
    ['found','VBD','find'],
    ['.','.','.']
  ]
},
{
  tag:'S',
  content:
  [
    ['Submit','NN','submit'],
    ['one','CD','one'],
    ['now','RB','now'],
    ['.','.','.']
  ]
},
{
  tag:'S',
  content:
  [
    {
      tag:'ORGANIZATION',
      content:
      [
        ['Tell','NNP','tel']
      ]
    },
    {
      tag:'PERSON',
      content:
      [
        ['Me','NNP','me'],
        ['More','NNP','mor'],
        ['Diana','NNP','dian'],
        ['Krall','NNP','kral']
      ]
    },
    [':',':',':'],
    ['Rediscovering','NNP','rediscov'],
    ['Vaudeville','NNP','vaudevil'],
    ['in','IN','in'],
    {
      tag:'GPE',
      content:
      [
        ['Glad','NNP','glad']
      ]
    },
    ['Rag','NNP','rag'],
    ['Doll','NNP','dol'],
    ['DVD/Video/Film','NNP','dvd/video/film'],
    ['Reviews','NNP','review'],
    {
      tag:'PERSON',
      content:
      [
        ['Diana','NNP','dian'],
        ['Krall','NNP','kral']
      ]
    },
    [':',':',':'],
    ['Live','JJ','liv'],
    ['in','IN','in'],
    {
      tag:'GPE',
      content:
      [
        ['Rio','NNP','rio']
      ]
    },
    ['CD/LP/Track','NNP','cd/lp/track'],
    ['Review','NNP','review'],
    {
      tag:'PERSON',
      content:
      [
        ['Quiet','NNP','quiet'],
        ['Nights','NNP','night']
      ]
    },
    ['by','IN','by'],
    {
      tag:'PERSON',
      content:
      [
        ['Marcia','NNP','marc'],
        ['Hillman','NNP','hillm'],
        ['Quiet','NNP','quiet'],
        ['Nights','NNP','night']
      ]
    },
    ['by','IN','by'],
    ['C.','NNP','c.'],
    {
      tag:'PERSON',
      content:
      [
        ['Michael','NNP','michael'],
        ['Bailey','NNP','bailey']
      ]
    },
    ['First','NNP','first'],
    ['Time','NNP','tim'],
    ['I','NNP','i'],
    ['Saw','NNP','saw'],
    ['...',':','...'],
    {
      tag:'PERSON',
      content:
      [
        ['Diana','NNP','dian'],
        ['Krall','NNP','kral']
      ]
    },
    ['DVD/Video/Film','NNP','dvd/video/film'],
    ['Reviews','NNP','review'],
    {
      tag:'PERSON',
      content:
      [
        ['Diana','NNP','dian'],
        ['Krall','NNP','kral']
      ]
    },
    [':',':',':'],
    ['Live','JJ','liv'],
    ['At','IN','At'],
    {
      tag:'FACILITY',
      content:
      [
        ['The','DT','The'],
        ['Montreal','NNP','mont'],
        ['Jazz','NNP','jazz'],
        ['Festival','NNP','fest']
      ]
    },
    ['CD/LP/Track','NNP','cd/lp/track'],
    ['Review','NNP','review'],
    ['The','NNP','the'],
    ['Girl','NNP','girl'],
    ['In','NNP','in'],
    ['The','NNP','the'],
    ['Other','NNP','oth'],
    ['Room','NNP','room'],
    ['by','IN','by'],
    {
      tag:'PERSON',
      content:
      [
        ['Jim','NNP','jim'],
        ['Santella','NNP','santell']
      ]
    },
    ['more','JJR','mor'],
    ['articles','NNS','artic'],
    ['»',':','»'],
    {
      tag:'PERSON',
      content:
      [
        ['Sarah','NNP','sarah'],
        ['Vaughan','NNP','vaugh'],
        ['Follow','NNP','follow']
      ]
    },
    ['|','NNP','|'],
    {
      tag:'PERSON',
      content:
      [
        ['Similar','NNP','simil'],
        ['Ella','NNP','ell'],
        ['Fitzgerald','NNP','fitzgerald'],
        ['Follow','NNP','follow']
      ]
    },
    ['|','NNP','|'],
    {
      tag:'PERSON',
      content:
      [
        ['Similar','NNP','simil'],
        ['Melody','NNP','melody'],
        ['Gardot','NNP','gardot'],
        ['Follow','NNP','follow']
      ]
    },
    ['|','NNP','|'],
    {
      tag:'PERSON',
      content:
      [
        ['Similar','NNP','simil'],
        ['Nat','NNP','nat']
      ]
    },
    ['``','``','``'],
    ['King','NNP','king'],
    ['''','''',''''],
    {
      tag:'PERSON',
      content:
      [
        ['Cole','NNP','col'],
        ['Follow','NNP','follow']
      ]
    },
    ['|','NNP','|'],
    {
      tag:'PERSON',
      content:
      [
        ['Similar','NNP','simil'],
        ['Cassandra','NNP','cassandr'],
        ['Wilson','NNP','wilson'],
        ['Follow','NNP','follow']
      ]
    },
    ['|','NNP','|'],
    {
      tag:'PERSON',
      content:
      [
        ['Similar','NNP','simil'],
        ['Eliane','NNP','el'],
        ['Elias','NNP','elia'],
        ['Follow','NNP','follow']
      ]
    },
    ['|','NNP','|'],
    ['Similar','NNP','simil'],
    {
      tag:'PERSON',
      content:
      [
        ['Madeleine','NNP','madelein'],
        ['Peyroux','NNP','peyroux'],
        ['Follow','NNP','follow']
      ]
    },
    ['|','NNP','|'],
    {
      tag:'PERSON',
      content:
      [
        ['Similar','NNP','simil'],
        ['Natalie','NNP','nata'],
        ['Cole','NNP','col'],
        ['Follow','NNP','follow']
      ]
    },
    ['|','NNP','|'],
    {
      tag:'PERSON',
      content:
      [
        ['Similar','NNP','simil'],
        ['Jane','NNP','jan'],
        ['Monheit','NNP','monheit'],
        ['Follow','NNP','follow']
      ]
    },
    ['|','NNP','|'],
    {
      tag:'PERSON',
      content:
      [
        ['Similar','NNP','simil'],
        ['Harry','NNP','harry'],
        ['Connick','NNP','connick']
      ]
    },
    [',',',',','],
    {
      tag:'GPE',
      content:
      [
        ['Jr','NNP','jr']
      ]
    },
    ['.','.','.']
  ]
},
{
  tag:'S',
  content:
  [
    {
      tag:'GPE',
      content:
      [
        ['Follow','NNP','follow']
      ]
    },
    ['|',':','|'],
    {
      tag:'PERSON',
      content:
      [
        ['Similar','JJ','simil'],
        ['Norah','NNP','norah'],
        ['Jones','NNP','jon'],
        ['Follow','NNP','follow']
      ]
    },
    ['|','NNP','|'],
    {
      tag:'PERSON',
      content:
      [
        ['Similar','NNP','simil'],
        ['Karrin','NNP','karrin'],
        ['Allyson','NNP','allyson'],
        ['Follow','NNP','follow']
      ]
    },
    ['|','NNP','|'],
    {
      tag:'PERSON',
      content:
      [
        ['Similar','NNP','simil'],
        ['Eva','NNP','ev'],
        ['Cassidy','NNP','cassidy'],
        ['Follow','NNP','follow']
      ]
    },
    ['|','NNP','|'],
    {
      tag:'PERSON',
      content:
      [
        ['Similar','NNP','simil'],
        ['Stacey','NNP','stacey'],
        ['Kent','NNP','kent'],
        ['Follow','NNP','follow']
      ]
    },
    ['|','NNP','|'],
    {
      tag:'PERSON',
      content:
      [
        ['Similar','NNP','simil'],
        ['Holly','NNP','hol'],
        ['Cole','NNP','col'],
        ['Follow','NNP','follow']
      ]
    },
    ['|','NNP','|'],
    {
      tag:'PERSON',
      content:
      [
        ['Similar','NNP','simil'],
        ['Jamie','NNP','jamy'],
        ['Cullum','NNP','cull'],
        ['Follow','NNP','follow']
      ]
    },
    ['|','NNP','|'],
    {
      tag:'PERSON',
      content:
      [
        ['Similar','NNP','simil'],
        ['Diana','NNP','dian'],
        ['Krall','NNP','kral']
      ]
    },
    ['at','IN','at'],
    {
      tag:'ORGANIZATION',
      content:
      [
        ['All','DT','All'],
        ['About','NNP','about'],
        ['Jazz','NNP','jazz']
      ]
    }
  ]
}]