[
{
  tag:'S',
  content:
  [
    ['p','NN','p'],
    ['{','``','{'],
    ['margin-top:10px','JJ','margin-top:10px'],
    [';',':',';'],
    ['margin-bottom:10px','JJ','margin-bottom:10px'],
    [';',':',';'],
    ['margin-left:10px','JJ','margin-left:10px'],
    [';',':',';'],
    ['margin-right:10px','JJ','margin-right:10px'],
    ['}','NN','}'],
    ['⌂',':','⌂'],
    {
      tag:'ORGANIZATION',
      content:
      [
        ['BWW','NNP','bww']
      ]
    },
    ['BWW','NNP','bww'],
    ['HUBTVMOVIES','NNP','hubtvmovy'],
    ['MUSICFASHIONTECHNOLOGYBOOKSARTCOMEDYDANCECLASSICALOPERACABARETFITNESSTRAVEL','NNP','musicfashiontechnologybooksartcomedydanceclassicaloperacabaretfitnesstravel'],
    ['Meet','NNP','meet'],
    ['the','DT','the'],
    {
      tag:'ORGANIZATION',
      content:
      [
        ['Team','NNP','team'],
        ['Log','NNP','log']
      ]
    },
    ['In','NNP','in'],
    ['Register','NNP','reg'],
    ['Now','NNP','now'],
    {
      tag:'PERSON',
      content:
      [
        ['Dance','NNP','dant'],
        ['DANCE','NNP','dant']
      ]
    },
    ['TODAY','NNP','today'],
    ['Latest','NNP','latest'],
    ['News','NNP','new'],
    ['Photo','NNP','photo'],
    ['Coverage','NNP','cov'],
    ['Reviews','NNP','review'],
    ['Twitter','NNP','twit'],
    {
      tag:'PERSON',
      content:
      [
        ['Watch','NNP','watch'],
        ['Videos','NNP','video']
      ]
    },
    ['Companies','NNPS','company'],
    ['Regional','NNP','reg'],
    {
      tag:'PERSON',
      content:
      [
        ['Dance','NNP','dant'],
        ['International','NNP','intern'],
        ['Dance','NNP','dant'],
        ['Coverage','NNP','cov'],
        ['Ballet','NNP','ballet'],
        ['Ethnic','NNP','ethn'],
        ['Jazz','NNP','jazz'],
        ['Modern','NNP','modern']
      ]
    },
    ['TV','NNP','tv'],
    ['MOVIES','NNP','movy'],
    ['MUSIC','NNP','mus'],
    ['FASHION','NNP','fash'],
    ['GEEKS','NNP','geek'],
    {
      tag:'ORGANIZATION',
      content:
      [
        ['BOOKS','NNP','book']
      ]
    },
    ['ART','NNP','art'],
    {
      tag:'ORGANIZATION',
      content:
      [
        ['COMEDY','NNP','comedy']
      ]
    },
    ['CLASSICAL','NNP','class'],
    ['OPERA','NNP','oper'],
    ['TRAVEL','NNP','travel'],
    {
      tag:'ORGANIZATION',
      content:
      [
        ['FITNESS','NNP','fit']
      ]
    },
    ['THEATER','NNP','the'],
    ['BWW','NNP','bww'],
    ['Reviews','NNP','review'],
    [':',':',':'],
    {
      tag:'PERSON',
      content:
      [
        ['Anna','NNP','ann'],
        ['Pavlova','NNP','pavlov']
      ]
    },
    [',',',',','],
    {
      tag:'PERSON',
      content:
      [
        ['Twentieth','NNP','twentie'],
        ['Century','NNP','century'],
        ['Ballerina','NNP','ballerin']
      ]
    },
    ['March','NNP','march'],
    ['24','CD','24'],
    ['2:22','CD','2:22'],
    ['2013','CD','2013'],
    ['Print','JJ','print'],
    ['Article','NNP','artic'],
    ['Email','JJ','email'],
    {
      tag:'PERSON',
      content:
      [
        ['Link','NNP','link']
      ]
    },
    ['👤by','NNP','👤by'],
    {
      tag:'PERSON',
      content:
      [
        ['Barnett','NNP','barnet'],
        ['Serchuk','NNP','serchuk'],
        ['Tweet','NNP','tweet'],
        ['Related','NNP','rel']
      ]
    },
    [':',':',':'],
    {
      tag:'PERSON',
      content:
      [
        ['Anna','NNP','ann'],
        ['Pavlova','NNP','pavlov']
      ]
    },
    [',',',',','],
    {
      tag:'PERSON',
      content:
      [
        ['Serge','NNP','serg'],
        ['Diaghilev','NNP','diaghilev']
      ]
    },
    [',',',',','],
    {
      tag:'ORGANIZATION',
      content:
      [
        ['Ballets','NNPS','ballet'],
        ['Russes','NNP','russ']
      ]
    },
    [',',',',','],
    {
      tag:'PERSON',
      content:
      [
        ['Tamara','NNP','tamar'],
        ['Karsavina','NNP','karsavin']
      ]
    },
    [',',',',','],
    {
      tag:'ORGANIZATION',
      content:
      [
        ['Ivy','NNP','ivy'],
        ['House','NNP','hous']
      ]
    },
    [',',',',','],
    {
      tag:'PERSON',
      content:
      [
        ['Maryinsky','NNP','maryinsky'],
        ['Anna','NNP','ann'],
        ['Pavlova','NNP','pavlov']
      ]
    },
    [',',',',','],
    {
      tag:'PERSON',
      content:
      [
        ['Twentieth','NNP','twentie'],
        ['Century','NNP','century'],
        ['Ballerina','NNP','ballerin']
      ]
    },
    ['by','IN','by'],
    {
      tag:'PERSON',
      content:
      [
        ['Jane','NNP','jan'],
        ['Pritchard','NNP','pritchard']
      ]
    },
    [',',',',','],
    ['with','IN','with'],
    {
      tag:'PERSON',
      content:
      [
        ['Caroline','NNP','carolin'],
        ['Hamilton','NNP','hamilton']
      ]
    },
    ['Booth-Clibborn','NNP','booth-clibborn'],
    ['Editions','NNP','edit'],
    ['2013','CD','2013'],
    ['Reviewed','NNP','review'],
    ['by','IN','by'],
    {
      tag:'PERSON',
      content:
      [
        ['Seyna','NNP','seyn'],
        ['Bruskin','NNP','bruskin'],
        ['Jane','NNP','jan'],
        ['Pritchard','NNP','pritchard']
      ]
    },
    [',',',',','],
    ['the','DT','the'],
    ['curator','NN','cur'],
    ['of','IN','of'],
    ['the','DT','the'],
    ['dance','NN','dant'],
    ['collection','NN','collect'],
    ['at','IN','at'],
    {
      tag:'GPE',
      content:
      [
        ['London','NNP','london']
      ]
    },
    [''s','POS',''s'],
    {
      tag:'ORGANIZATION',
      content:
      [
        ['Victoria','NNP','victor']
      ]
    },
    ['and','CC','and'],
    {
      tag:'PERSON',
      content:
      [
        ['Albert','NNP','albert'],
        ['Museum','NNP','muse']
      ]
    },
    [',',',',','],
    ['was','VBD','be'],
    ['responsible','JJ','respons'],
    ['for','IN','for'],
    ['much','JJ','much'],
    ['of','IN','of'],
    ['the','DT','the'],
    ['success','NN','success'],
    ['of','IN','of'],
    ['its','PRP$','its'],
    ['2009','CD','2009'],
    ['Exhibition','NNP','exhibit'],
    [',',',',','],
    {
      tag:'PERSON',
      content:
      [
        ['Sergei','NNP','serge'],
        ['Diaghilev','NNP','diaghilev']
      ]
    },
    ['and','CC','and'],
    ['the','DT','the'],
    {
      tag:'ORGANIZATION',
      content:
      [
        ['Ballets','NNPS','ballet'],
        ['Russes','NNP','russ']
      ]
    },
    ['.','.','.']
  ]
},
{
  tag:'S',
  content:
  [
    ['This','DT','This'],
    ['exhibition','NN','exhibit'],
    [',',',',','],
    ['or','CC','or'],
    ['parts','NNS','part'],
    ['of','IN','of'],
    ['it','PRP','it'],
    [',',',',','],
    ['continues','VBZ','continu'],
    ['to','TO','to'],
    ['travel','NN','travel'],
    ['around','IN','around'],
    ['the','DT','the'],
    ['world','NN','world'],
    ['.','.','.']
  ]
},
{
  tag:'S',
  content:
  [
    {
      tag:'GPE',
      content:
      [
        ['Anyone','NN','anyon']
      ]
    },
    ['with','IN','with'],
    ['an','DT','an'],
    ['interest','NN','interest'],
    ['in','IN','in'],
    ['the','DT','the'],
    ['history','NN','hist'],
    ['of','IN','of'],
    ['ballet','NN','ballet'],
    ['owes','NNS','ow'],
    ['it','PRP','it'],
    ['to','TO','to'],
    ['themselves','PRP','themselves'],
    ['to','TO','to'],
    ['get','VB','get'],
    ['even','RB','ev'],
    ['a','DT','a'],
    ['small','JJ','smal'],
    ['glimpse','NN','glimps'],
    ['of','IN','of'],
    ['what','WP','what'],
    ['Ms.','NNP','ms.'],
    ['Pritchard','NNP','pritchard'],
    ['and','CC','and'],
    ['her','PRP$','her'],
    ['colleagues','NNS','colleagu'],
    ['assembled','VBN','assembl'],
    ['for','IN','for'],
    ['that','DT','that'],
    ['magnificent','NN','magn'],
    ['event','NN','ev'],
    ['.','.','.']
  ]
},
{
  tag:'S',
  content:
  [
    ['I','PRP','I'],
    ['was','VBD','be'],
    ['fortunate','JJ','fortun'],
    ['enough','RB','enough'],
    ['to','TO','to'],
    ['be','VB','be'],
    ['able','JJ','abl'],
    ['to','TO','to'],
    ['haul','JJ','haul'],
    ['myself','NN','myself'],
    ['to','TO','to'],
    {
      tag:'GPE',
      content:
      [
        ['London','NNP','london']
      ]
    },
    ['for','IN','for'],
    ['a','DT','a'],
    ['week','NN','week'],
    ['or','CC','or'],
    ['so','RB','so'],
    [',',',',','],
    ['to','TO','to'],
    ['walk','VB','walk'],
    ['(',':','('],
    ['and','CC','and'],
    ['walk','VBP','walk'],
    ['and','CC','and'],
    ['walk','NN','walk'],
    [')',':',')'],
    ['through','IN','through'],
    ['the','DT','the'],
    ['galleries','NNS','gallery'],
    [',',',',','],
    ['see','VBP','see'],
    ['the','DT','the'],
    ['films','NNS','film'],
    [',',',',','],
    ['lectures','NNS','lect'],
    ['and','CC','and'],
    ['take','VB','tak'],
    ['the','DT','the'],
    ['self-guided','JJ','self-guided'],
    ['tours','NNS','tour'],
    ['of','IN','of'],
    {
      tag:'GPE',
      content:
      [
        ['London','NNP','london']
      ]
    },
    ['that','IN','that'],
    ['Ms.','NNP','ms.'],
    ['Pritchard','NNP','pritchard'],
    ['coordinated','VBD','coordin'],
    ['.','.','.']
  ]
},
{
  tag:'S',
  content:
  [
    ['I','PRP','I'],
    ['was','VBD','be'],
    ['also','RB','also'],
    ['able','JJ','abl'],
    ['to','TO','to'],
    ['visit','VB','visit'],
    {
      tag:'ORGANIZATION',
      content:
      [
        ['Ivy','NNP','ivy'],
        ['House','NNP','hous']
      ]
    },
    [',',',',','],
    ['the','DT','the'],
    ['former','JJ','form'],
    ['residence','NN','resid'],
    ['of','IN','of'],
    {
      tag:'PERSON',
      content:
      [
        ['Anna','NNP','ann'],
        ['Pavlova','NNP','pavlov']
      ]
    },
    [',',',',','],
    ['probably','RB','prob'],
    ['the','DT','the'],
    ['most','RBS','most'],
    ['famous','JJ','fam'],
    ['ballerina','NN','ballerin'],
    ['of','IN','of'],
    ['all','DT','all'],
    ['time','NN','tim'],
    ['.','.','.']
  ]
},
{
  tag:'S',
  content:
  [
    {
      tag:'PERSON',
      content:
      [
        ['Ivy','NNP','ivy']
      ]
    },
    {
      tag:'ORGANIZATION',
      content:
      [
        ['House','NNP','hous']
      ]
    },
    ['just','RB','just'],
    ['celebrated','VBD','celebr'],
    ['100','CD','100'],
    ['years','NNS','year'],
    ['since','IN','since'],
    {
      tag:'PERSON',
      content:
      [
        ['Mme','NNP','mme']
      ]
    },
    ['.','.','.']
  ]
},
{
  tag:'S',
  content:
  [
    {
      tag:'PERSON',
      content:
      [
        ['Pavlova','NNP','pavlov']
      ]
    },
    ['bought','VBD','buy'],
    ['the','DT','the'],
    ['property','NN','property'],
    ['.','.','.']
  ]
},
{
  tag:'S',
  content:
  [
    ['It','PRP','It'],
    ['is','VBZ','be'],
    ['now','RB','now'],
    ['a','DT','a'],
    ['Jewish','JJ','jew'],
    ['cultural','JJ','cult'],
    ['center','NN','cent'],
    ['where','WRB','where'],
    ['ballet','NN','ballet'],
    ['is','VBZ','be'],
    ['taught','VBN','teach'],
    ['in','IN','in'],
    ['the','DT','the'],
    ['very','JJ','very'],
    ['studios','NNS','studio'],
    ['Mme','NNP','mme'],
    ['.','.','.']
  ]
},
{
  tag:'S',
  content:
  [
    {
      tag:'PERSON',
      content:
      [
        ['Pavlova','NNP','pavlov']
      ]
    },
    ['once','RB','ont'],
    ['worked','VBD','work'],
    ['.','.','.']
  ]
},
{
  tag:'S',
  content:
  [
    ['I','PRP','I'],
    ['was','VBD','be'],
    ['able','JJ','abl'],
    ['to','TO','to'],
    ['get','VB','get'],
    ['into','IN','into'],
    ['the','DT','the'],
    ['grounds','NNS','ground'],
    ['and','CC','and'],
    ['photograph','NN','photograph'],
    ['the','DT','the'],
    ['very','JJ','very'],
    ['pond','NN','pond'],
    ['where','WRB','where'],
    {
      tag:'PERSON',
      content:
      [
        ['Mme','NNP','mme']
      ]
    },
    ['.','.','.']
  ]
},
{
  tag:'S',
  content:
  [
    {
      tag:'PERSON',
      content:
      [
        ['Pavlova','NNP','pavlov']
      ]
    },
    ['sat','VBD','sit'],
    ['with','IN','with'],
    {
      tag:'PERSON',
      content:
      [
        ['Jack','NNP','jack']
      ]
    },
    [',',',',','],
    ['her','PRP$','her'],
    ['pet','NN','pet'],
    ['swan','NN','swan'],
    ['.','.','.']
  ]
},
{
  tag:'S',
  content:
  [
    ['(','NN','('],
    {
      tag:'PERSON',
      content:
      [
        ['Pavlova','NNP','pavlov']
      ]
    },
    ['loved','VBD','lov'],
    ['all','DT','all'],
    ['animals','NNS','anim'],
    ['and','CC','and'],
    ['was','VBD','be'],
    ['often','RB','oft'],
    ['photographed','VBN','photograph'],
    ['with','IN','with'],
    ['them','PRP','them'],
    ['.','.','.']
  ]
},
{
  tag:'S',
  content:
  [
    [')','NN',')'],
    ['It','PRP','It'],
    ['was','VBD','be'],
    ['like','IN','like'],
    ['touching','NN','touch'],
    ['the','DT','the'],
    ['hem','NN','hem'],
    ['of','IN','of'],
    ['the','DT','the'],
    {
      tag:'GPE',
      content:
      [
        ['Pope','NNP','pop']
      ]
    },
    [',',',',','],
    ['or','CC','or'],
    {
      tag:'PERSON',
      content:
      [
        ['Elvis','NNP','elv']
      ]
    },
    [',',',',','],
    ['depending','VBG','depend'],
    ['on','IN','on'],
    ['your','PRP$','your'],
    ['cultural','JJ','cult'],
    ['outlook','NN','outlook'],
    ['.','.','.']
  ]
},
{
  tag:'S',
  content:
  [
    ['In','IN','In'],
    ['this','DT','this'],
    ['anxiously-awaited','JJ','anxiously-awaited'],
    ['new','JJ','new'],
    ['book','NN','book'],
    [',',',',','],
    ['Ms.','NNP','ms.'],
    ['Pritchard','NNP','pritchard'],
    ['and','CC','and'],
    ['her','PRP$','her'],
    ['co-author','NN','co-author'],
    ['shower','NN','show'],
    ['the','DT','the'],
    ['reader','NN','read'],
    ['with','IN','with'],
    ['beautiful','JJ','beauty'],
    ['photographs','NNS','photograph'],
    ['of','IN','of'],
    ['the','DT','the'],
    ['deceptively','RB','deceiv'],
    ['delicate-looking','JJ','delicate-looking'],
    {
      tag:'PERSON',
      content:
      [
        ['Pavlova','NNP','pavlov']
      ]
    },
    ['and','CC','and'],
    ['her','PRP$','her'],
    ['colleagues','NNS','colleagu'],
    ['in','IN','in'],
    ['the','DT','the'],
    {
      tag:'ORGANIZATION',
      content:
      [
        ['Imperial','NNP','imp'],
        ['Ballet','NNP','ballet']
      ]
    },
    ['.','.','.']
  ]
},
{
  tag:'S',
  content:
  [
    ['They','PRP','They'],
    ['tell','VBP','tel'],
    ['the','DT','the'],
    ['story','NN','story'],
    ['of','IN','of'],
    {
      tag:'GPE',
      content:
      [
        ['Mme','NNP','mme']
      ]
    },
    ['.','.','.']
  ]
},
{
  tag:'S',
  content:
  [
    {
      tag:'PERSON',
      content:
      [
        ['Pavlova','NNP','pavlov']
      ]
    },
    [''s','POS',''s'],
    ['artistic','JJ','art'],
    ['development','NN','develop'],
    ['within','IN','within'],
    ['the','DT','the'],
    ['various','JJ','vary'],
    ['institutions','NNS','institut'],
    ['she','PRP','she'],
    ['worked','VBD','work'],
    ['for','IN','for'],
    ['as','IN','as'],
    ['she','PRP','she'],
    ['grew','VBD','grow'],
    ['in','IN','in'],
    ['fame','NN','fam'],
    ['and','CC','and'],
    ['artistry','NN','art'],
    ['.','.','.']
  ]
},
{
  tag:'S',
  content:
  [
    {
      tag:'GPE',
      content:
      [
        ['Born','NNP','born']
      ]
    },
    ['in','IN','in'],
    ['1881','CD','1881'],
    ['to','TO','to'],
    ['a','DT','a'],
    ['single','JJ','singl'],
    ['mother','NN','moth'],
    [',',',',','],
    ['legend','NN','legend'],
    ['is','VBZ','be'],
    ['that','IN','that'],
    {
      tag:'PERSON',
      content:
      [
        ['Pavlova','NNP','pavlov']
      ]
    },
    [',',',',','],
    ['at','IN','at'],
    ['age','NN','ag'],
    ['eight','CD','eight'],
    [',',',',','],
    ['saw','VBD','saw'],
    ['a','DT','a'],
    ['performance','NN','perform'],
    ['of','IN','of'],
    ['The','DT','The'],
    ['Sleeping','NNP','sleep'],
    ['Beauty','NNP','beauty'],
    [',',',',','],
    ['and','CC','and'],
    ['fell','VBD','fel'],
    ['instantly','RB','inst'],
    ['in','IN','in'],
    ['love','NN','lov'],
    ['with','IN','with'],
    ['ballet','NN','ballet'],
    ['.','.','.']
  ]
},
{
  tag:'S',
  content:
  [
    ['Two','CD','Two'],
    ['years','NNS','year'],
    ['later','RBR','lat'],
    [',',',',','],
    ['she','PRP','she'],
    ['auditioned','VBD','audit'],
    ['for','IN','for'],
    ['and','CC','and'],
    ['was','VBD','be'],
    ['accepted','VBN','acceiv'],
    ['as','IN','as'],
    ['a','DT','a'],
    ['student','NN','stud'],
    ['in','IN','in'],
    ['the','DT','the'],
    {
      tag:'ORGANIZATION',
      content:
      [
        ['Imperial','NNP','imp'],
        ['Ballet','NNP','ballet'],
        ['School','NNP','school']
      ]
    },
    ['(','NNP','('],
    ['also','RB','also'],
    ['called','VBN','cal'],
    ['the','DT','the'],
    {
      tag:'FACILITY',
      content:
      [
        ['Maryinsky','NNP','maryinsky']
      ]
    },
    [')','NNP',')'],
    ['in','IN','in'],
    {
      tag:'GPE',
      content:
      [
        ['St.','NNP','st.'],
        ['Petersburg','NNP','petersburg']
      ]
    },
    ['.','.','.']
  ]
},
{
  tag:'S',
  content:
  [
    ['Her','PRP$','Her'],
    ['rise','NN','ris'],
    ['was','VBD','be'],
    ['swift','VBN','swift'],
    [':',':',':'],
    ['she','PRP','she'],
    ['was','VBD','be'],
    ['very','RB','very'],
    ['quickly','RB','quick'],
    ['given','VBN','giv'],
    ['important','JJ','import'],
    ['roles','NNS','rol'],
    ['even','RB','ev'],
    ['before','IN','before'],
    ['her','PRP$','her'],
    ['graduation','NN','gradu'],
    ['and','CC','and'],
    ['was','VBD','be'],
    ['partnered','VBN','partn'],
    ['by','IN','by'],
    ['some','DT','some'],
    ['of','IN','of'],
    ['the','DT','the'],
    ['greatest','JJS','gre'],
    ['male','JJ','mal'],
    ['dancers','NNS','dant'],
    ['there','EX','there'],
    ['.','.','.']
  ]
},
{
  tag:'S',
  content:
  [
    ['The','DT','The'],
    ['great','JJ','gre'],
    ['choreographer','NN','choreograph'],
    [',',',',','],
    {
      tag:'PERSON',
      content:
      [
        ['Petipa','NNP','petip']
      ]
    },
    [',',',',','],
    ['created','VBD','cre'],
    ['dances','NNS','dant'],
    ['for','IN','for'],
    ['her','PRP','her'],
    ['.','.','.']
  ]
},
{
  tag:'S',
  content:
  [
    ['The','DT','The'],
    ['authors','NNS','auth'],
    ['reinforce','VBP','reinforc'],
    ['stories','NNS','story'],
    ['found','VBN','find'],
    ['in','IN','in'],
    ['other','JJ','oth'],
    ['books','NNS','book'],
    ['about','IN','about'],
    ['the','DT','the'],
    ['rivalries','NNS','rivalry'],
    ['often','RB','oft'],
    ['equal','JJ','eq'],
    ['in','IN','in'],
    ['drama','NN','dram'],
    ['to','TO','to'],
    ['the','DT','the'],
    ['ballets','NNS','ballet'],
    ['performed','VBD','perform'],
    ['.','.','.']
  ]
},
{
  tag:'S',
  content:
  [
    {
      tag:'PERSON',
      content:
      [
        ['Pavlova','NNP','pavlov']
      ]
    },
    [''s','POS',''s'],
    ['successes','NNS','success'],
    ['often','RB','oft'],
    ['brought','VBD','bring'],
    ['the','DT','the'],
    ['wrath','NN','wra'],
    ['of','IN','of'],
    ['other','JJ','oth'],
    ['performing','VBG','perform'],
    ['artists','NNS','art'],
    [',',',',','],
    ['who','WP','who'],
    ['accused','VBN','accus'],
    ['her','PRP$','her'],
    ['of','IN','of'],
    ['usurping','VBG','usurp'],
    ['their','PRP$','their'],
    ['territory','NN','territ'],
    ['and','CC','and'],
    ['glory','NN','glory'],
    ['.','.','.']
  ]
},
{
  tag:'S',
  content:
  [
    ['(','NN','('],
    ['An','DT','An'],
    ['ironic','JJ','iron'],
    ['footnote','NN','footnot'],
    ['is','VBZ','be'],
    ['that','IN','that'],
    ['during','IN','during'],
    ['part','NN','part'],
    ['of','IN','of'],
    ['the','DT','the'],
    {
      tag:'ORGANIZATION',
      content:
      [
        ['Victoria','NNP','victor']
      ]
    },
    ['and','CC','and'],
    {
      tag:'PERSON',
      content:
      [
        ['Albert','NNP','albert']
      ]
    },
    ['exhibition','NN','exhibit'],
    [',',',',','],
    {
      tag:'ORGANIZATION',
      content:
      [
        ['Ivy','NNP','ivy'],
        ['House','NNP','hous']
      ]
    },
    ['was','VBD','be'],
    ['hosting','VBG','host'],
    ['a','DT','a'],
    ['showing','NN','show'],
    ['of','IN','of'],
    ['photographs','NNS','photograph'],
    ['of','IN','of'],
    {
      tag:'PERSON',
      content:
      [
        ['Tamara','NNP','tamar'],
        ['Karsavina','NNP','karsavin']
      ]
    },
    [',',',',','],
    ['one','CD','one'],
    ['of','IN','of'],
    {
      tag:'PERSON',
      content:
      [
        ['Pavlova','NNP','pavlov']
      ]
    },
    [''s','POS',''s'],
    ['most','JJS','most'],
    ['important','JJ','import'],
    ['rivals','NNS','riv'],
    ['.','.','.']
  ]
},
{
  tag:'S',
  content:
  [
    [')','NN',')'],
    {
      tag:'ORGANIZATION',
      content:
      [
        ['Recent','NNP','rec']
      ]
    },
    ['news','NN','new'],
    ['from','IN','from'],
    ['the','DT','the'],
    ['great','JJ','gre'],
    {
      tag:'ORGANIZATION',
      content:
      [
        ['Bolshoi','NNP','bolsho']
      ]
    },
    ['(','NNP','('],
    ['or','CC','or'],
    ['``','``','``'],
    ['big','JJ','big'],
    ['''','''',''''],
    [')',':',')'],
    {
      tag:'PERSON',
      content:
      [
        ['Ballet','NNP','ballet']
      ]
    },
    ['shows','VBZ','show'],
    ['us','PRP','us'],
    ['that','IN','that'],
    ['rivalries','NNS','rivalry'],
    ['still','RB','stil'],
    ['fester','JJR','fest'],
    ['in','IN','in'],
    {
      tag:'GPE',
      content:
      [
        ['Russian','JJ','russ']
      ]
    },
    ['ballet','NN','ballet'],
    ['.','.','.']
  ]
},
{
  tag:'S',
  content:
  [
    ['Page','NN','pag'],
    ['2','CD','2'],
    ['>','CD','>'],
    ['>','CD','>'],
    {
      tag:'PERSON',
      content:
      [
        ['Share','NNP','shar'],
        ['Tweet','NNP','tweet'],
        ['Comments','NNP','com']
      ]
    },
    ['Scroll','NNP','scroll'],
    ['Back','NNP','back'],
    ['To','NNP','to'],
    ['Top','NNP','top'],
    ['Related','NNP','rel'],
    ['LinksMariinsky','NNP','linksmariinsky'],
    ['Theatre','NNP','the'],
    [''s','POS',''s'],
    {
      tag:'ORGANIZATION',
      content:
      [
        ['NUTCRACKER','NNP','nutcrack']
      ]
    },
    ['BALLET','NNP','ballet'],
    ['to','TO','to'],
    {
      tag:'PERSON',
      content:
      [
        ['Screen','NNP','screen'],
        ['Nationwide','NNP','nationwid']
      ]
    },
    [',',',',','],
    {
      tag:'PERSON',
      content:
      [
        ['Beg','NNP','beg']
      ]
    },
    ['.','.','.']
  ]
},
{
  tag:'S',
  content:
  [
    ['11/30September','JJ','11/30september'],
    ['20','CD','20'],
    [',',',',','],
    ['2013Festival','JJ','2013festival'],
    {
      tag:'PERSON',
      content:
      [
        ['Ballet','NNP','ballet'],
        ['Theatre','NNP','the']
      ]
    },
    ['to','TO','to'],
    {
      tag:'GPE',
      content:
      [
        ['Bring','NNP','bring']
      ]
    },
    ['FIREBIRD','NNP','firebird'],
    ['and','CC','and'],
    {
      tag:'ORGANIZATION',
      content:
      [
        ['TEXTURE','NNP','text'],
        ['OF','NNP','of']
      ]
    },
    ['TIME','NNP','tim'],
    ['to','TO','to'],
    {
      tag:'PERSON',
      content:
      [
        ['Irvine','NNP','irvin'],
        ['Barclay','NNP','barclay'],
        ['Theatre','NNP','the']
      ]
    },
    [',',',',','],
    ['10/12-13September','JJ','10/12-13september'],
    ['04','CD','04'],
    [',',',',','],
    ['2013Joffrey','CD','2013Joffrey'],
    ['Ballet','NNP','ballet'],
    ['Presents','NNP','pres'],
    ['RUSSIAN','NNP','russ'],
    ['MASTERS','NNP','mast'],
    [',',',',','],
    ['9/19-22August','CD','9/19-22August'],
    ['15','CD','15'],
    [',',',',','],
    ['2013Initial','JJ','2013initial'],
    ['Casting','NNP','cast'],
    ['Announced','NNP','annount'],
    ['for','IN','for'],
    {
      tag:'ORGANIZATION',
      content:
      [
        ['American','NNP','am'],
        ['Ballet','NNP','ballet'],
        ['Theatre','NNP','the']
      ]
    },
    [''s','POS',''s'],
    ['2013','CD','2013'],
    ['Fall','NNP','fal'],
    {
      tag:'PERSON',
      content:
      [
        ['Season','NNP','season']
      ]
    },
    [';',':',';'],
    {
      tag:'PERSON',
      content:
      [
        ['Guillaume','NNP','guillaum'],
        ['Cote','NNP','cot'],
        ['Set','NNP','set']
      ]
    },
    ['to','TO','to'],
    {
      tag:'GPE',
      content:
      [
        ['Appear','NNP','appear']
      ]
    },
    ['as','IN','as'],
    {
      tag:'PERSON',
      content:
      [
        ['Guest','NNP','guest']
      ]
    },
    ['ArtistAugust','NNP','artistaugust'],
    ['02','CD','02'],
    [',',',',','],
    ['2013American','JJ','2013american'],
    ['Repertory','NNP','repert'],
    ['Ballet','NNP','ballet'],
    ['Announces','NNPS','annount'],
    ['2013-14','CD','2013-14'],
    {
      tag:'GPE',
      content:
      [
        ['Season','NNP','season']
      ]
    },
    ['-',':','-'],
    {
      tag:'ORGANIZATION',
      content:
      [
        ['ROMEO','NNP','romeo']
      ]
    },
    ['AND','NNP','and'],
    ['JULIET','NNP','juliet'],
    [',',',',','],
    {
      tag:'ORGANIZATION',
      content:
      [
        ['NUTRACKER','NNP','nutrack']
      ]
    },
    ['&','CC','&'],
    ['More','NNP','mor'],
    ['!','.','!'],
    ['July','NNP','july'],
    ['31','CD','31'],
    [',',',',','],
    ['2013','CD','2013'],
    ['About','IN','About'],
    {
      tag:'PERSON',
      content:
      [
        ['Author','NNP','auth'],
        ['Subscribe','NNP','subscrib']
      ]
    },
    ['to','TO','to'],
    {
      tag:'PERSON',
      content:
      [
        ['Author','NNP','auth'],
        ['Alerts','NNP','alert']
      ]
    },
    ['Scroll','NNP','scroll'],
    ['Back','NNP','back'],
    ['To','NNP','to'],
    ['Top','NNP','top'],
    ['📄More','NNP','📄more'],
    ['Articles','NNP','artic'],
    ['From','NNP','from'],
    ['Author','NNP','auth'],
    ['Editor-in-Chief','JJ','editor-in-chief'],
    ['of','IN','of'],
    {
      tag:'ORGANIZATION',
      content:
      [
        ['Broadwayworld','NNP','broadwayworld'],
        ['Dance','NNP','dant']
      ]
    },
    ['.','.','.']
  ]
},
{
  tag:'S',
  content:
  [
    {
      tag:'ORGANIZATION',
      content:
      [
        ['BWW','NNP','bww']
      ]
    },
    ['Interviews','NNP','interview'],
    [':',':',':'],
    {
      tag:'PERSON',
      content:
      [
        ['Kyle','NNP','kyl'],
        ['Froman','NNP','from']
      ]
    },
    ['In','NNP','in'],
    ['His','NNP','his'],
    ['Own','NNP','own'],
    ['Words','NNP','word'],
    [':',':',':'],
    ['Photographing','NNP','photograph'],
    ['Ballet','NNP','ballet'],
    ['to','TO','to'],
    {
      tag:'PERSON',
      content:
      [
        ['Broadway','NNP','broadway'],
        ['BWW','NNP','bww'],
        ['Reviews','NNP','review']
      ]
    },
    [':',':',':'],
    ['The','DT','The'],
    {
      tag:'ORGANIZATION',
      content:
      [
        ['METAMORPHOSIS','NNP','metamorphos']
      ]
    },
    ['BWW','NNP','bww'],
    ['Reviews','NNP','review'],
    [':',':',':'],
    {
      tag:'PERSON',
      content:
      [
        ['Roberto','NNP','roberto'],
        ['Bolle','NNP','bol']
      ]
    },
    ['And','CC','And'],
    {
      tag:'ORGANIZATION',
      content:
      [
        ['Friends','NNPS','friend'],
        ['Gala','NNP','gal']
      ]
    },
    ['BWW','NNP','bww'],
    ['Interviews','NNP','interview'],
    [':',':',':'],
    {
      tag:'PERSON',
      content:
      [
        ['Stephen','NNP','steph'],
        ['Pier','NNP','pier']
      ]
    },
    ['-',':','-'],
    {
      tag:'GPE',
      content:
      [
        ['Heart','NNP','heart']
      ]
    },
    ['to','TO','to'],
    {
      tag:'PERSON',
      content:
      [
        ['Hartt','NNP','hart'],
        ['BWW','NNP','bww'],
        ['Interview','NNP','interview']
      ]
    },
    [':',':',':'],
    ['SO','NNP','so'],
    ['YOU','NNP','you'],
    ['THINK','NNP','think'],
    ['YOU','NNP','you'],
    ['CAN','NNP','can'],
    ['DANCE','NNP','dant'],
    [''s','POS',''s'],
    {
      tag:'PERSON',
      content:
      [
        ['Sonya','NNP','sony'],
        ['Tayeh','NNP','tayeh']
      ]
    },
    ['Talks','NNP','talk'],
    ['THE','NNP','the'],
    ['LAST','NNP','last'],
    ['GOODBYE','NNP','goodby'],
    ['&','CC','&'],
    ['More','NNP','mor'],
    ['!','.','!']
  ]
},
{
  tag:'S',
  content:
  [
    {
      tag:'ORGANIZATION',
      content:
      [
        ['BWW','NNP','bww']
      ]
    },
    {
      tag:'PERSON',
      content:
      [
        ['Dance','NNP','dant']
      ]
    },
    [':',':',':'],
    {
      tag:'PERSON',
      content:
      [
        ['Gertrude','NNP','gertrud'],
        ['Stein','NNP','stein']
      ]
    },
    ['SAINTS','NNP','saint'],
    ['!','.','!']
  ]
},
{
  tag:'S',
  content:
  [
    ['opens','NNS','op'],
    ['tonight','VBD','tonight'],
    ['at','IN','at'],
    {
      tag:'FACILITY',
      content:
      [
        ['La','NNP','la'],
        ['Mama','NNP','mam']
      ]
    },
    ['BWW','NNP','bww'],
    ['Interviews','NNP','interview'],
    [':',':',':'],
    {
      tag:'PERSON',
      content:
      [
        ['Roberto','NNP','roberto'],
        ['Villanueva','NNP','villanuev']
      ]
    },
    ['DANCE','NNP','dant'],
    ['VIDEOS','NNP','video'],
    ['VIDEO','NNP','video'],
    [':',':',':'],
    ['Amber','NNP','amb'],
    {
      tag:'PERSON',
      content:
      [
        ['Riley','NNP','riley'],
        ['Recalls','NNP','recal']
      ]
    },
    ['GLEE','NNP','gle'],
    ['Audition','NNP','audit'],
    ['on','IN','on'],
    {
      tag:'ORGANIZATION',
      content:
      [
        ['DANCING','NNP','dant']
      ]
    },
    ['WITH','NNP','with'],
    ['THE','NNP','the'],
    {
      tag:'ORGANIZATION',
      content:
      [
        ['STARS','NNP','star']
      ]
    },
    ['VIDEO','NNP','video'],
    [':',':',':'],
    {
      tag:'PERSON',
      content:
      [
        ['Corbin','NNP','corbin'],
        ['Bleu','NNP','bleu']
      ]
    },
    ['Has','NNP','has'],
    ['the','DT','the'],
    [''Verve','JJ',''verve'],
    ['of','IN','of'],
    {
      tag:'PERSON',
      content:
      [
        ['Ben','NNP','ben'],
        ['Vereen','NNP','vereen']
      ]
    },
    [''','POS','''],
    ['on','IN','on'],
    {
      tag:'ORGANIZATION',
      content:
      [
        ['DANCING','NNP','dant']
      ]
    },
    ['WITH','NNP','with'],
    ['THE','NNP','the'],
    {
      tag:'ORGANIZATION',
      content:
      [
        ['STARS','NNP','star']
      ]
    },
    ['STAGE','NNP','stag'],
    ['TUBE','NNP','tub'],
    [':',':',':'],
    {
      tag:'PERSON',
      content:
      [
        ['Sneak','NNP','sneak'],
        ['Peek','NNP','peek']
      ]
    },
    ['at','IN','at'],
    {
      tag:'ORGANIZATION',
      content:
      [
        ['TDT','NNP','tdt']
      ]
    },
    [''s','POS',''s'],
    {
      tag:'ORGANIZATION',
      content:
      [
        ['ELEVEN','NNP','elev']
      ]
    },
    ['ACCORDS','NNP','accord'],
    ['VIDEO','NNP','video'],
    [':',':',':'],
    {
      tag:'ORGANIZATION',
      content:
      [
        ['ABBY','NNP','abby']
      ]
    },
    [''S','POS',''S'],
    {
      tag:'ORGANIZATION',
      content:
      [
        ['ULTIMATE','NNP','ultim']
      ]
    },
    ['DANCE','NNP','dant'],
    ['COMPETITION','NNP','competit'],
    ['Celebrates','NNP','celebr'],
    ['Broadway','NNP','broadway']
  ]
}]