[
{
  tag:'S',
  content:
  [
    ['#','#','#'],
    {
      tag:'ORGANIZATION',
      content:
      [
        ['ad_left_lower','NNP','ad_left_lower']
      ]
    },
    ['ins','VBZ','in'],
    [',',',',','],
    ['#','#','#'],
    {
      tag:'ORGANIZATION',
      content:
      [
        ['ad_left_lower_second','NNP','ad_left_lower_second']
      ]
    },
    ['ins','VBZ','in'],
    ['{',':','{'],
    ['display','NN','display'],
    [':',':',':'],
    ['none','NN','non'],
    ['!','.','!'],
    ['important','JJ','import'],
    ['}','NN','}'],
    {
      tag:'ORGANIZATION',
      content:
      [
        ['HuffPost','NNP','huffpost']
      ]
    },
    [''s','POS',''s'],
    {
      tag:'ORGANIZATION',
      content:
      [
        ['QuickRead','NNP','quickread']
      ]
    },
    ['...',':','...'],
    ['Loading','NNP','load'],
    ['...',':','...'],
    {
      tag:'ORGANIZATION',
      content:
      [
        ['HuffPost','NNP','huffpost']
      ]
    },
    [''s','POS',''s'],
    {
      tag:'ORGANIZATION',
      content:
      [
        ['QuickRead','NNP','quickread']
      ]
    },
    ['...',':','...'],
    ['Loading','NNP','load'],
    ['...',':','...'],
    {
      tag:'PERSON',
      content:
      [
        ['David','NNP','david'],
        ['CameronEd','NNP','cameron'],
        ['Miliband','NNP','miliband']
      ]
    },
    ['iOS','NNP','io'],
    ['app','NN','ap'],
    {
      tag:'PERSON',
      content:
      [
        ['Android','NNP','android']
      ]
    },
    ['app','NN','ap'],
    {
      tag:'PERSON',
      content:
      [
        ['More','NNP','mor'],
        ['Log','NNP','log']
      ]
    },
    ['in','IN','in'],
    {
      tag:'ORGANIZATION',
      content:
      [
        ['Create','NNP','cre'],
        ['Account','NNP','account'],
        ['Notifications','NNP','not']
      ]
    },
    ['Profile','NNP','profil'],
    ['Settings','NNP','set'],
    ['Logout','NNP','logout'],
    ['#','#','#'],
    {
      tag:'ORGANIZATION',
      content:
      [
        ['topnav_margin_btm','NNP','topnav_margin_btm']
      ]
    },
    ['{','NNP','{'],
    ['margin:0','NNP','margin:0'],
    ['!','.','!'],
    ['important','JJ','import'],
    ['}','NN','}'],
    ['.back-to-aol','NN','.back-to-aol'],
    ['{',':','{'],
    ['display','NN','display'],
    [':',':',':'],
    ['inline-block','JJ','inline-block'],
    ['!','.','!'],
    ['important','JJ','import'],
    [';',':',';'],
    ['float','JJ','flo'],
    [':',':',':'],
    ['left','VBN','leav'],
    [';',':',';'],
    ['padding-top','JJ','padding-top'],
    [':',':',':'],
    ['25px','CD','25px'],
    [';',':',';'],
    ['position','NN','posit'],
    [':',':',':'],
    ['absolute','JJ','absolv'],
    [';',':',';'],
    ['}',':','}'],
    ['16','CD','16'],
    ['October','NNP','octob'],
    ['2013','CD','2013'],
    ['Edition','NNP','edit'],
    [':',':',':'],
    ['UK','NNP','uk'],
    ['CA','NNP','ca'],
    {
      tag:'PERSON',
      content:
      [
        ['Canada','NNP','canad'],
        ['DE','NNP','de'],
        ['Deutschland','NNP','deutschland'],
        ['ES','NNP','es']
      ]
    },
    ['España','NNP','españ'],
    ['FR','NNP','fr'],
    ['France','NNP','frant'],
    ['IT','NNP','it'],
    {
      tag:'PERSON',
      content:
      [
        ['Italia','NNP','ital'],
        ['JP','NNP','jp']
      ]
    },
    ['日本','NNP','日本'],
    ['(','NNP','('],
    {
      tag:'GPE',
      content:
      [
        ['Japan','NNP','jap']
      ]
    },
    [')','NNP',')'],
    ['MG','NNP','mg'],
    {
      tag:'PERSON',
      content:
      [
        ['Maghreb','NNP','maghreb'],
        ['UK','NNP','uk'],
        ['United','NNP','unit'],
        ['Kingdom','NNP','kingdom'],
        ['US','NNP','us'],
        ['United','NNP','unit']
      ]
    },
    {
      tag:'PERSON',
      content:
      [
        ['States','NNPS','stat'],
        ['Follow','NNP','follow']
      ]
    },
    ['FRONT','NNP','front'],
    ['PAGE','NNP','pag'],
    ['News','NNP','new'],
    ['Politics','NNP','polit'],
    ['Which','NNP','which'],
    ['10','CD','10'],
    ['Americans','NNPS','am'],
    {
      tag:'PERSON',
      content:
      [
        ['Are','NNP','ar'],
        ['Richer','NNP','rich']
      ]
    },
    ['Than','NNP','than'],
    ['The','NNP','the'],
    {
      tag:'ORGANIZATION',
      content:
      [
        ['US','NNP','us']
      ]
    },
    ['Government','NNP','govern'],
    ['?','.','?'],
    ['39','CD','39'],
    ['The','DT','The'],
    ['World','NNP','world'],
    ['Is','NNP','is'],
    ['Laughing','NNP','laugh'],
    ['At','NNP','at'],
    ['The','NNP','the'],
    {
      tag:'GPE',
      content:
      [
        ['United','NNP','unit'],
        ['States','NNPS','stat']
      ]
    },
    ['Over','NNP','ov'],
    ['The','NNP','the'],
    ['Government','NNP','govern'],
    ['Shutdown423','NNP','shutdown423'],
    [''The','NNP',''the'],
    ['Gay','NNP','gay'],
    ['Man','NNP','man'],
    ['Who','NNP','who'],
    ['Saved','NNP','sav'],
    ['The','NNP','the'],
    ['World'107','NNP','world'107'],
    ['Labour','NNP','labo'],
    [''s','POS',''s'],
    {
      tag:'ORGANIZATION',
      content:
      [
        ['Spokesman','NNP','spokesm'],
        ['For','NNP','for'],
        ['Women','NNP','wom']
      ]
    },
    [''Understands','NNPS',''understands'],
    [''','POS','''],
    {
      tag:'PERSON',
      content:
      [
        ['Why','NNP','why'],
        ['Girls','NNP','girl'],
        ['Strip','NNP','strip']
      ]
    },
    ['Off34','NNP','off34'],
    ['WATCH','NNP','watch'],
    [':',':',':'],
    {
      tag:'PERSON',
      content:
      [
        ['Dennis','NNP','den'],
        ['Skinner','NNP','skin']
      ]
    },
    [':',':',':'],
    [''Abolish','JJ',''abolish'],
    {
      tag:'PERSON',
      content:
      [
        ['Cruel','NNP','cruel']
      ]
    },
    [',',',',','],
    {
      tag:'ORGANIZATION',
      content:
      [
        ['Heartless','NNP','heartless']
      ]
    },
    [',',',',','],
    {
      tag:'PERSON',
      content:
      [
        ['Monster','NNP','monst']
      ]
    },
    [''','POS','''],
    {
      tag:'ORGANIZATION',
      content:
      [
        ['Atos163','NNP','atos163'],
        ['Go','NNP','go']
      ]
    },
    ['to','TO','to'],
    {
      tag:'PERSON',
      content:
      [
        ['Politics','NNP','polit'],
        ['More','NNP','mor']
      ]
    },
    ['in','IN','in'],
    {
      tag:'GPE',
      content:
      [
        ['Politics','NNP','polit']
      ]
    },
    {
      tag:'PERSON',
      content:
      [
        ['Boris','NNP','bor'],
        ['Johnson','NNP','johnson'],
        ['Conservatives','NNP','conserv'],
        ['Labour','NNP','labo'],
        ['Lib','NNP','lib'],
        ['Dems','NNP','dem'],
        ['Ukip','NNP','ukip'],
        ['Westminster','NNP','westminst'],
        ['Mehdi','NNP','mehd']
      ]
    },
    [''s','POS',''s'],
    ['Morning','NNP','morn'],
    ['Memo','NNP','memo'],
    ['Business','NNP','busy'],
    ['Sport','NNP','sport'],
    ['England','NNP','england'],
    ['2-0','CD','2-0'],
    ['Poland','NNP','poland'],
    ['Player','NNP','play'],
    ['Ratings','NNP','rat'],
    [':',':',':'],
    {
      tag:'PERSON',
      content:
      [
        ['Have','NNP','hav'],
        ['Your','NNP','yo']
      ]
    },
    ['Say27','NNP','say27'],
    ['Handcuffed','NNP','handcuff'],
    {
      tag:'PERSON',
      content:
      [
        ['Michigan','NNP','michig'],
        ['Fan','NNP','fan'],
        ['Pepper','NNP','pep'],
        ['Sprayed','NNP','sprayed']
      ]
    },
    ['In','NNP','in'],
    ['Face','NNP','fac'],
    ['By','NNP','by'],
    ['Policeman','NNP','policem'],
    ['(','NNP','('],
    {
      tag:'ORGANIZATION',
      content:
      [
        ['PICTURE','NNP','pict']
      ]
    },
    [')','NNP',')'],
    ['35','CD','35'],
    ['World','NNP','world'],
    ['Cup','NNP','cup'],
    ['2014','CD','2014'],
    [':',':',':'],
    ['Who','WP','Who'],
    [''s','VBZ',''s'],
    {
      tag:'PERSON',
      content:
      [
        ['Qualified','NNP','qual'],
        ['For','NNP','for'],
        ['Brazil','NNP','brazil']
      ]
    },
    ['?','.','?']
  ]
},
{
  tag:'S',
  content:
  [
    ['(','NN','('],
    {
      tag:'ORGANIZATION',
      content:
      [
        ['PICTURES','NNS','pict']
      ]
    },
    [')',':',')'],
    ['World','NNP','world'],
    ['Cup','NNP','cup'],
    ['2014','CD','2014'],
    [':',':',':'],
    ['Who','WP','Who'],
    [''s','VBZ',''s'],
    {
      tag:'PERSON',
      content:
      [
        ['Qualified','NNP','qual'],
        ['For','NNP','for'],
        ['Brazil','NNP','brazil']
      ]
    },
    ['?','.','?']
  ]
},
{
  tag:'S',
  content:
  [
    ['(','NN','('],
    {
      tag:'ORGANIZATION',
      content:
      [
        ['PICTURES','NNS','pict']
      ]
    },
    [')',':',')'],
    ['England','NNP','england'],
    ['2-0','CD','2-0'],
    {
      tag:'GPE',
      content:
      [
        ['Poland','NNP','poland']
      ]
    },
    [':',':',':'],
    ['Three','CD','Three'],
    ['Lions','NNS','lion'],
    {
      tag:'PERSON',
      content:
      [
        ['Qualify','NNP','qual'],
        ['For','NNP','for']
      ]
    },
    ['World','NNP','world'],
    ['Cup185','NNP','cup185'],
    ['Go','NNP','go'],
    ['to','TO','to'],
    {
      tag:'PERSON',
      content:
      [
        ['Sport','NNP','sport'],
        ['More','NNP','mor']
      ]
    },
    ['in','IN','in'],
    {
      tag:'GPE',
      content:
      [
        ['Sport','NNP','sport']
      ]
    },
    ['Transfer','NNP','transf'],
    ['Talk','NNP','talk'],
    ['Football','NNP','footbal'],
    ['Premier','NNP','premy'],
    {
      tag:'PERSON',
      content:
      [
        ['League','NNP','leagu'],
        ['Champions','NNP','champ'],
        ['League','NNP','leagu'],
        ['Man','NNP','man'],
        ['Utd','NNP','utd'],
        ['Liverpool','NNP','liverpool'],
        ['FC','NNP','fc'],
        ['England','NNP','england'],
        ['Football','NNP','footbal'],
        ['Team','NNP','team'],
        ['England','NNP','england'],
        ['Cricket','NNP','cricket']
      ]
    },
    ['Team','NNP','team'],
    ['You','NNP','you'],
    ['might','MD','might'],
    ['also','RB','also'],
    ['like','VB','lik'],
    {
      tag:'ORGANIZATION',
      content:
      [
        ['US','PRP','US'],
        ['Sports','NNPS','sport'],
        ['Tech','NNP','tech']
      ]
    },
    ['WATCH','NNP','watch'],
    [':',':',':'],
    ['Incredible','JJ','incred'],
    ['Space','NN','spac'],
    {
      tag:'PERSON',
      content:
      [
        ['Shuttle','NNP','shuttl'],
        ['Endeavour','NNP','endeavo']
      ]
    },
    ['Time-Lapse','NNP','time-laps'],
    ['Video','NNP','video'],
    ['What','NNP','what'],
    ['Formed','NNP','form'],
    ['This','NNP','thi'],
    ['Mysterious','NNP','mystery'],
    [''Ghost','NNP',''ghost'],
    ['Cloud','NNP','cloud'],
    ['''','''',''''],
    ['?','.','?']
  ]
},
{
  tag:'S',
  content:
  [
    ['What','WP','What'],
    {
      tag:'PERSON',
      content:
      [
        ['Will','NNP','wil'],
        ['The','NNP','the'],
        ['New','NNP','new'],
        ['Macbook','NNP','macbook'],
        ['Pro','NNP','pro'],
        ['Be','NNP','be'],
        ['Like','NNP','lik']
      ]
    },
    ['?','.','?']
  ]
},
{
  tag:'S',
  content:
  [
    {
      tag:'GPE',
      content:
      [
        ['Newspaper','NNP','newspap']
      ]
    },
    {
      tag:'PERSON',
      content:
      [
        ['Thinks','NNP','think']
      ]
    },
    [''Sarif','NNP',''sarif'],
    ['Industries','NNPS','industry'],
    [''','POS','''],
    ['From','NNP','from'],
    {
      tag:'PERSON',
      content:
      [
        ['Video','NNP','video'],
        ['Game','NNP','gam'],
        ['Is','NNP','is']
      ]
    },
    ['A','NNP','a'],
    {
      tag:'ORGANIZATION',
      content:
      [
        ['Real','NNP','real'],
        ['Company','NNP','company']
      ]
    },
    [''We','NNP',''we'],
    ['Still','NNP','stil'],
    ['Have','NNP','hav'],
    ['A','DT','A'],
    {
      tag:'ORGANIZATION',
      content:
      [
        ['Lot','NNP','lot'],
        ['To','NNP','to']
      ]
    },
    ['Cover'','NNP','cover''],
    ['Go','NNP','go'],
    ['to','TO','to'],
    {
      tag:'PERSON',
      content:
      [
        ['Tech','NNP','tech'],
        ['More','NNP','mor']
      ]
    },
    ['in','IN','in'],
    {
      tag:'GPE',
      content:
      [
        ['Tech','NNP','tech']
      ]
    },
    ['Gadget','NNP','gadget'],
    ['Guides','NNP','guid'],
    ['PS4','NNP','ps4'],
    ['Xbox','NNP','xbox'],
    ['One','CD','One'],
    ['Apple','NNP','appl'],
    ['Google','NNP','googl'],
    ['Facebook','NNP','facebook'],
    ['Space','NNP','spac'],
    ['Connectivity','NNP','connect'],
    ['You','NNP','you'],
    ['might','MD','might'],
    ['also','RB','also'],
    ['like','VB','lik'],
    {
      tag:'ORGANIZATION',
      content:
      [
        ['TechCrunch','NNP','techcrunch'],
        ['Engadget','NNP','engadget'],
        ['Students','NNP','stud']
      ]
    },
    [''It','NNP',''it'],
    [''s','POS',''s'],
    {
      tag:'PERSON',
      content:
      [
        ['Spurred','NNP','spur'],
        ['Us','NNP','us']
      ]
    },
    ['On'33','NNP','on'33'],
    {
      tag:'PERSON',
      content:
      [
        ['Pickles','NNP','pickl'],
        ['On','NNP','on']
      ]
    },
    ['Tour12','NNP','tour12'],
    ['YOU','NNP','you'],
    ['WOT','NNP','wot'],
    ['MATE','NNP','mat'],
    ['?','.','?'],
    ['714','CD','714'],
    [''I','NNP',''i'],
    ['Do','NNP','do'],
    ['n't','RB','n't'],
    ['Debate','VB','deb'],
    ['With','IN','With'],
    ['Racists'349','JJ','racists'349'],
    {
      tag:'PERSON',
      content:
      [
        ['Masked','NNP','mask'],
        ['Man','NNP','man'],
        ['Terrorises','NNP','ter'],
        ['Female','NNP','fem'],
        ['Students','NNP','stud']
      ]
    },
    ['In','NNP','in'],
    ['Canterbury','NNP','canterbury'],
    [',',',',','],
    {
      tag:'PERSON',
      content:
      [
        ['Kent','NNP','kent'],
        ['Go','NNP','go']
      ]
    },
    ['to','TO','to'],
    {
      tag:'PERSON',
      content:
      [
        ['Students','NNP','stud'],
        ['More','NNP','mor']
      ]
    },
    ['in','IN','in'],
    {
      tag:'GPE',
      content:
      [
        ['Students','NNP','stud']
      ]
    },
    ['A-Level','NNP','a-level'],
    ['Results','NNP','result'],
    ['Young','NNP','young'],
    ['Talent','NNP','tal'],
    ['Student','NNP','stud'],
    ['News','NNP','new'],
    ['Student','NNP','stud'],
    ['Jobs','NNP','job'],
    ['Student','NNP','stud'],
    ['Living','NNP','liv'],
    ['International','NNP','intern'],
    ['Students','NNP','stud'],
    ['Tuition','NNP','tuit'],
    ['Fees','NNP','fee'],
    ['GCSEs','NNP','gcses'],
    ['Freshers','NNP','fresh'],
    [''','POS','''],
    ['Week','NNP','week']
  ]
}]