[
{
  tag:'S',
  content:
  [
    ['#','#','#'],
    ['cr-slider','JJ','cr-slider'],
    ['{','NN','{'],
    ['display','NN','display'],
    [':',':',':'],
    ['block','NN','block'],
    [';',':',';'],
    ['}',':','}'],
    {
      tag:'PERSON',
      content:
      [
        ['Follow','NNP','follow']
      ]
    },
    ['Today','NNP','today'],
    [''s','POS',''s'],
    {
      tag:'PERSON',
      content:
      [
        ['Paper','NNP','pap'],
        ['Archive','NNP','arch'],
        ['Subscriptions','NNP','subscrib']
      ]
    },
    ['RSS','NNP','rss'],
    ['Feeds','NNP','fee'],
    ['Site','NNP','sit'],
    ['Map','NNP','map'],
    ['ePaper','NNP','epap'],
    ['Mobile','NNP','mobl'],
    ['Apps','NNP','ap'],
    ['Social','NNP','soc'],
    ['SEARCH','NNP','search'],
    ['Home','NNP','hom'],
    ['News','NNP','new'],
    ['Opinion','NNP','opin'],
    ['Business','NNP','busy'],
    ['Sport','NNP','sport'],
    ['S','NNP','s'],
    ['&','CC','&'],
    ['T','NNP','t'],
    {
      tag:'PERSON',
      content:
      [
        ['Features','NNP','feat'],
        ['Books','NNP','book']
      ]
    },
    ['In-depth','NNP','in-depth'],
    ['Jobs','NNP','job'],
    ['Classifieds','NNP','class'],
    ['Shopping','NNP','shop'],
    ['Bus','NNP','bus'],
    ['tickets','NNS','ticket'],
    ['Friday','NNP','friday'],
    {
      tag:'PERSON',
      content:
      [
        ['Review','NNP','review'],
        ['Art','NNP','art'],
        ['Dance','NNP','dant'],
        ['History','NNP','hist']
      ]
    },
    ['&','CC','&'],
    {
      tag:'PERSON',
      content:
      [
        ['Culture','NNP','cult'],
        ['Music','NNP','mus'],
        ['Religion','NNP','relig'],
        ['Theatre','NNP','the']
      ]
    },
    ['Friday','NNP','friday'],
    ['Review','NNP','review'],
    ['»','NNP','»'],
    ['Dance','NNP','dant'],
    ['January','NNP','janu'],
    ['6','CD','6'],
    [',',',',','],
    ['2013','CD','2013'],
    ['Updated','NNP','upd'],
    [':',':',':'],
    ['January','NNP','janu'],
    ['6','CD','6'],
    [',',',',','],
    ['2013','CD','2013'],
    ['18:06','CD','18:06'],
    {
      tag:'ORGANIZATION',
      content:
      [
        ['IST','NNP','ist'],
        ['Alarmel','NNP','alarmel'],
        ['Valli','NNP','vall']
      ]
    },
    ['honoured','VBD','hono'],
    {
      tag:'PERSON',
      content:
      [
        ['Share','NNP','shar']
      ]
    },
    ['·','NNP','·'],
    ['Comment','NNP','com'],
    ['·','NNP','·'],
    ['print','NN','print'],
    ['·',':','·'],
    ['T+','NN','t+'],
    ['·',':','·'],
    ['T-','JJ','t-'],
    ['The','DT','The'],
    {
      tag:'ORGANIZATION',
      content:
      [
        ['Hindu','NNP','hindu'],
        ['West','NNP','west'],
        ['Bengal','NNP','beng']
      ]
    },
    ['Governor','NNP','govern'],
    ['M.K','NNP','m.k'],
    ['.','.','.']
  ]
},
{
  tag:'S',
  content:
  [
    {
      tag:'PERSON',
      content:
      [
        ['Narayanan','NNP','naray']
      ]
    },
    ['and','CC','and'],
    {
      tag:'GPE',
      content:
      [
        ['Bharatanatyam','NNP','bharatanatyam']
      ]
    },
    ['exponent','NN','expon'],
    {
      tag:'PERSON',
      content:
      [
        ['Alarmel','NNP','alarmel'],
        ['Valli','NNP','vall']
      ]
    },
    ['.','.','.']
  ]
},
{
  tag:'S',
  content:
  [
    {
      tag:'GPE',
      content:
      [
        ['Photo','NNP','photo']
      ]
    },
    [':',':',':'],
    ['K.V','JJ','k.v'],
    ['.','.','.']
  ]
},
{
  tag:'S',
  content:
  [
    {
      tag:'GPE',
      content:
      [
        ['Srinivasan','NNP','srinivas']
      ]
    },
    {
      tag:'ORGANIZATION',
      content:
      [
        ['TOPICS','NNP','top']
      ]
    },
    ['human','NN','hum'],
    ['interest','NN','interest'],
    ['award','NN','award'],
    ['and','CC','and'],
    ['prize','VB','priz'],
    ['people','NNS','peopl'],
    ['celebrity','NN','celebr'],
    ['The','DT','The'],
    ['title','NN','titl'],
    ['of','IN','of'],
    {
      tag:'PERSON',
      content:
      [
        ['Bharata','NNP','bharat'],
        ['Kala','NNP','kal'],
        ['Ratna','NNP','ratn']
      ]
    },
    ['conferred','VBD','conf'],
    ['on','IN','on'],
    ['the','DT','the'],
    {
      tag:'ORGANIZATION',
      content:
      [
        ['Bharatanatyam','NNP','bharatanatyam']
      ]
    },
    ['exponent','NN','expon'],
    ['Bharatanatyam','NNP','bharatanatyam'],
    ['exponent','NN','expon'],
    {
      tag:'PERSON',
      content:
      [
        ['Alarmel','NNP','alarmel'],
        ['Valli','NNP','vall']
      ]
    },
    ['was','VBD','be'],
    ['recently','RB','rec'],
    ['conferred','VBN','conf'],
    ['the','DT','the'],
    {
      tag:'ORGANIZATION',
      content:
      [
        ['Bharata','NNP','bharat'],
        ['Kala','NNP','kal'],
        ['Ratna','NNP','ratn']
      ]
    },
    ['title','NN','titl'],
    ['by','IN','by'],
    ['the','DT','the'],
    ['Governor','NNP','govern'],
    ['of','IN','of'],
    {
      tag:'GPE',
      content:
      [
        ['West','NNP','west']
      ]
    },
    {
      tag:'PERSON',
      content:
      [
        ['Bengal','NNP','beng']
      ]
    },
    ['M.K','NNP','m.k'],
    ['.','.','.']
  ]
},
{
  tag:'S',
  content:
  [
    {
      tag:'PERSON',
      content:
      [
        ['Narayanan','NNP','naray']
      ]
    },
    ['at','IN','at'],
    ['the','DT','the'],
    {
      tag:'ORGANIZATION',
      content:
      [
        ['Trinity','NNP','trin'],
        ['Arts','NNP','art'],
        ['Festival','NNP','fest']
      ]
    },
    ['.','.','.']
  ]
},
{
  tag:'S',
  content:
  [
    ['The','DT','The'],
    ['festival','NN','fest'],
    ['held','VBD','hold'],
    ['at','IN','at'],
    ['the','DT','the'],
    {
      tag:'ORGANIZATION',
      content:
      [
        ['Kumararani','NNP','kumararan'],
        ['Meena','NNP','meen'],
        ['Muthiah','NNP','muthiah'],
        ['College','NNP','colleg']
      ]
    },
    ['of','IN','of'],
    {
      tag:'ORGANIZATION',
      content:
      [
        ['Arts','NNPS','art']
      ]
    },
    ['&','CC','&'],
    {
      tag:'GPE',
      content:
      [
        ['Science','NNP','sci']
      ]
    },
    [',',',',','],
    {
      tag:'PERSON',
      content:
      [
        ['Adyar','NNP','ady']
      ]
    },
    [',',',',','],
    ['encourages','VBZ','enco'],
    ['aspiring','VBG','aspir'],
    ['musicians','NNS','mus'],
    ['and','CC','and'],
    ['dancers','NNS','dant'],
    ['from','IN','from'],
    ['overseas','JJ','oversea'],
    ['to','TO','to'],
    ['showcase','VB','showcas'],
    ['their','PRP$','their'],
    ['talent','NN','tal'],
    ['.','.','.']
  ]
},
{
  tag:'S',
  content:
  [
    {
      tag:'PERSON',
      content:
      [
        ['Narayanan','NNP','naray']
      ]
    },
    ['described','VBD','describ'],
    {
      tag:'PERSON',
      content:
      [
        ['Alarmel','NNP','alarmel'],
        ['Valli','NNP','vall']
      ]
    },
    ['as','IN','as'],
    ['a','DT','a'],
    ['phenomenon','NN','phenomenon'],
    ['who','WP','who'],
    ['continually','RB','contin'],
    ['explored','VBD','expl'],
    ['the','DT','the'],
    ['complex','NN','complex'],
    ['layers','NNS','lay'],
    ['of','IN','of'],
    ['meaning','VBG','mean'],
    ['in','IN','in'],
    ['poems','NNS','poem'],
    ['and','CC','and'],
    ['lyrics','NNS','lyr'],
    ['giving','VBG','giv'],
    ['them','PRP','them'],
    ['a','DT','a'],
    ['visual','JJ','vis'],
    ['and','CC','and'],
    ['melodic','JJ','melod'],
    ['dimension','NN','dimend'],
    ['.','.','.']
  ]
},
{
  tag:'S',
  content:
  [
    ['“Her','JJ','“her'],
    ['artistic','JJ','art'],
    ['rendering','NN','rend'],
    ['while','IN','while'],
    ['remaining','VBG','remain'],
    ['within','IN','within'],
    ['the','DT','the'],
    ['framework','NN','framework'],
    ['of','IN','of'],
    ['classical','JJ','class'],
    {
      tag:'GPE',
      content:
      [
        ['Indian','JJ','ind']
      ]
    },
    ['dance','NN','dant'],
    ['is','VBZ','be'],
    ['contemporary','JJ','contemp'],
    ['in','IN','in'],
    ['its','PRP$','its'],
    ['interpretation','NN','interpret'],
    ['and','CC','and'],
    ['scope.”','NNP','scope.”'],
    ['Former','NNP','form'],
    ['judge','NN','judg'],
    ['of','IN','of'],
    ['the','DT','the'],
    {
      tag:'ORGANIZATION',
      content:
      [
        ['Supreme','NNP','suprem'],
        ['Court','NNP','court']
      ]
    },
    ['S.','NNP','s.'],
    {
      tag:'PERSON',
      content:
      [
        ['Natarajan','NNP','nataras']
      ]
    },
    ['praised','VBD','pra'],
    {
      tag:'PERSON',
      content:
      [
        ['Valli','NNP','vall']
      ]
    },
    ['for','IN','for'],
    ['bringing','VBG','bring'],
    ['out','RP','out'],
    ['the','DT','the'],
    ['beauty','NN','beauty'],
    ['of','IN','of'],
    {
      tag:'GPE',
      content:
      [
        ['Sangam','NNP','sangam']
      ]
    },
    ['literature','NN','lit'],
    ['in','IN','in'],
    ['her','PRP$','her'],
    ['dance','NN','dant'],
    ['.','.','.']
  ]
},
{
  tag:'S',
  content:
  [
    ['N.','NNP','n.'],
    ['Ravi','NNP','rav'],
    [',',',',','],
    {
      tag:'PERSON',
      content:
      [
        ['Director','NNP','direct']
      ]
    },
    [',',',',','],
    {
      tag:'PERSON',
      content:
      [
        ['Kasturi','NNP','kastur']
      ]
    },
    ['&','CC','&'],
    {
      tag:'PERSON',
      content:
      [
        ['Sons','NNP','son']
      ]
    },
    [',',',',','],
    ['said','VBD','say'],
    ['that','IN','that'],
    {
      tag:'PERSON',
      content:
      [
        ['Valli','NNP','vall']
      ]
    },
    ['was','VBD','be'],
    ['known','VBN','know'],
    ['for','IN','for'],
    ['her','PRP$','her'],
    ['perfection','NN','perfect'],
    ['and','CC','and'],
    ['beauty','NN','beauty'],
    ['in','IN','in'],
    ['dance','NN','dant'],
    ['.','.','.']
  ]
},
{
  tag:'S',
  content:
  [
    ['He','PRP','He'],
    ['quoted','VBD','quot'],
    ['from','IN','from'],
    ['the','DT','the'],
    ['famous','JJ','fam'],
    ['dance','NN','dant'],
    ['critic','JJ','crit'],
    [',',',',','],
    ['Subbudu’s','JJ','subbudu’s'],
    ['commentary','NN','com'],
    ['that','WDT','that'],
    {
      tag:'PERSON',
      content:
      [
        ['Bharatanatyam','NNP','bharatanatyam']
      ]
    },
    ['should','MD','should'],
    ['be','VB','be'],
    ['renamed','VBN','renam'],
    ['“Valli','-NONE-','“Valli'],
    ['Natyam”','-NONE-','Natyam”'],
    ['.','.','.']
  ]
},
{
  tag:'S',
  content:
  [
    {
      tag:'PERSON',
      content:
      [
        ['Murali','NNP','mural'],
        ['Raghavan','NNP','raghav']
      ]
    },
    [',',',',','],
    ['convenor','CC','convenor'],
    ['of','IN','of'],
    ['the','DT','the'],
    ['festival','NN','fest'],
    [',',',',','],
    ['welcomed','VBN','welcom'],
    ['the','DT','the'],
    ['gathering','NN','gath'],
    ['.','.','.']
  ]
},
{
  tag:'S',
  content:
  [
    ['R.','NNP','r.'],
    ['Muthukumar','NNP','muthukum'],
    [',',',',','],
    ['chairman','NN','chairm'],
    ['of','IN','of'],
    ['the','DT','the'],
    ['festival','NN','fest'],
    [',',',',','],
    ['proposed','VBD','propos'],
    ['a','DT','a'],
    ['vote','NN','vot'],
    ['of','IN','of'],
    ['thanks','NNS','thank'],
    ['.','.','.']
  ]
},
{
  tag:'S',
  content:
  [
    ['Keywords','NNS','keyword'],
    [':',':',':'],
    {
      tag:'PERSON',
      content:
      [
        ['Alarmel','NNP','alarmel'],
        ['Valli','NNP','vall']
      ]
    },
    [',',',',','],
    {
      tag:'GPE',
      content:
      [
        ['Bharatnatyam','NNP','bharatnatyam']
      ]
    },
    ['exponent','NN','expon'],
    [',',',',','],
    {
      tag:'PERSON',
      content:
      [
        ['Bharata','NNP','bharat'],
        ['Kala','NNP','kal'],
        ['Ratna','NNP','ratn']
      ]
    },
    ['award','NN','award'],
    [',',',',','],
    {
      tag:'PERSON',
      content:
      [
        ['Valli','NNP','vall'],
        ['Natyam','NNP','natyam']
      ]
    },
    ['More','NNP','mor'],
    ['In','NNP','in'],
    [':',':',':'],
    {
      tag:'PERSON',
      content:
      [
        ['Dance','NNP','dant']
      ]
    },
    ['|',':','|'],
    ['Friday','NNP','friday'],
    ['Review','NNP','review'],
    ['|','NNP','|'],
    {
      tag:'PERSON',
      content:
      [
        ['Chennai','NNP','chenna']
      ]
    },
    ['|','NNP','|'],
    {
      tag:'ORGANIZATION',
      content:
      [
        ['Metroplus','NNP','metropl']
      ]
    },
    ['|','NNP','|'],
    {
      tag:'PERSON',
      content:
      [
        ['Features','NNP','feat'],
        ['Email','NNP','email']
      ]
    },
    ['the','DT','the'],
    ['Editor','NNP','edit'],
    ['Today','NNP','today'],
    [''s','POS',''s'],
    {
      tag:'PERSON',
      content:
      [
        ['Paper','NNP','pap'],
        ['ePaper','NNP','epap']
      ]
    },
    ['This','NNP','thi'],
    ['Day','NNP','day'],
    ['That','NNP','that'],
    ['Age','NNP','ag'],
    ['Crossword','NNP','crossword'],
    ['Archive','NNP','arch'],
    ['Obituary','NNP','obitu'],
    ['Group','NNP','group'],
    ['Sites','NNPS','sit'],
    ['The','NNP','the'],
    {
      tag:'ORGANIZATION',
      content:
      [
        ['Hindu','NNP','hindu']
      ]
    },
    ['தி','NNP','தி'],
    ['இந்து','NNP','இந்து'],
    ['Business','NNP','busy'],
    {
      tag:'PERSON',
      content:
      [
        ['Line','NNP','lin'],
        ['Sportstar','NNP','sportst']
      ]
    },
    ['Frontline','NNP','frontlin'],
    ['The','NNP','the'],
    {
      tag:'ORGANIZATION',
      content:
      [
        ['Hindu','NNP','hindu'],
        ['Centre','NNP','cent'],
        ['Images','NNP','im']
      ]
    },
    ['Classifieds','NNP','class'],
    ['OPEN','NNP','op'],
    ['close','NN','clos'],
    {
      tag:'PERSON',
      content:
      [
        ['Recent','NNP','rec'],
        ['Article','NNP','artic']
      ]
    },
    ['in','IN','in'],
    {
      tag:'GPE',
      content:
      [
        ['Dance','NNP','dant'],
        ['Harmony','NNP','harmony']
      ]
    },
    ['in','IN','in'],
    ['turmoil','NN','turmoil'],
    ['The','DT','The'],
    ['15th','JJ','15th'],
    {
      tag:'ORGANIZATION',
      content:
      [
        ['Parampara','NNP','parampar']
      ]
    },
    ['festival','NN','fest'],
    ['of','IN','of'],
    {
      tag:'PERSON',
      content:
      [
        ['Natya','NNP','naty'],
        ['Tarangini','NNP','tarangin']
      ]
    },
    ['brought','VBD','bring'],
    ['to','TO','to'],
    {
      tag:'GPE',
      content:
      [
        ['New','NNP','new'],
        ['Delhi','NNP','delh']
      ]
    },
    ['some','DT','some'],
    ['excellent','NN','excel'],
    ['performances','NNS','perform'],
    ['.','.','.']
  ]
},
{
  tag:'S',
  content:
  [
    ['»','NN','»'],
    ['The','DT','The'],
    ['Hindu','NNP','hindu'],
    [':',':',':'],
    ['Home','NNP','hom'],
    ['|',':','|'],
    ['News','NNP','new'],
    ['|',':','|'],
    ['Opinion','NNP','opin'],
    ['|',':','|'],
    ['Business','NNP','busy'],
    ['|',':','|'],
    ['Sport','NNP','sport'],
    ['|',':','|'],
    ['S','NNP','s'],
    ['&','CC','&'],
    ['T','NNP','t'],
    ['|','NNP','|'],
    {
      tag:'PERSON',
      content:
      [
        ['Features','NNP','feat']
      ]
    },
    ['|','NNP','|'],
    {
      tag:'PERSON',
      content:
      [
        ['Books','NNP','book']
      ]
    },
    ['|','NNP','|'],
    ['In-depth','NNP','in-depth'],
    ['|','NNP','|'],
    ['Jobs','NNP','job'],
    ['|','NNP','|'],
    ['Classifieds','NNP','class'],
    ['|','NNP','|'],
    ['Shopping','NNP','shop'],
    ['|','NNP','|'],
    ['Bus','NNP','bus'],
    ['tickets','NNS','ticket'],
    ['|',':','|'],
    ['The','DT','The'],
    {
      tag:'FACILITY',
      content:
      [
        ['Site','NNP','sit']
      ]
    },
    [':',':',':'],
    ['|',':','|'],
    ['About','IN','About'],
    {
      tag:'PERSON',
      content:
      [
        ['Us','NNP','us']
      ]
    },
    ['|','NNP','|'],
    ['Terms','NNP','term'],
    ['of','IN','of'],
    {
      tag:'ORGANIZATION',
      content:
      [
        ['Use','NNP','us']
      ]
    },
    ['|','NNP','|'],
    ['Privacy','NNP','priv'],
    ['Policy','NNP','policy'],
    ['|','NNP','|'],
    ['Contacts','NNP','contact'],
    ['|','NNP','|'],
    ['Archive','NNP','arch'],
    ['|','NNP','|'],
    ['Subscriptions','NNP','subscrib'],
    ['|','NNP','|'],
    ['RSS','NNP','rss'],
    ['Feeds','NNP','fee'],
    ['|','NNP','|'],
    ['Site','NNP','sit'],
    ['Map','NNP','map'],
    ['Group','NNP','group'],
    ['Sites','NNPS','sit'],
    [':',':',':'],
    ['The','DT','The'],
    {
      tag:'ORGANIZATION',
      content:
      [
        ['Hindu','NNP','hindu']
      ]
    },
    ['|','NNP','|'],
    ['தி','NNP','தி'],
    ['இந்து','NNP','இந்து'],
    ['|','NNP','|'],
    ['Business','NNP','busy'],
    {
      tag:'PERSON',
      content:
      [
        ['Line','NNP','lin']
      ]
    },
    ['|','NNP','|'],
    ['Sportstar','NNP','sportst'],
    ['|','NNP','|'],
    ['Frontline','NNP','frontlin'],
    ['|','NNP','|'],
    ['The','NNP','the'],
    {
      tag:'ORGANIZATION',
      content:
      [
        ['Hindu','NNP','hindu']
      ]
    },
    ['C','NNP','c']
  ]
}]