[
{
  tag:'S',
  content:
  [
    ['washingtonpost.com','NN','washingtonpost.com'],
    ['>','``','>'],
    ['Opinions','NNS','opin'],
    ['>','VBP','>'],
    {
      tag:'PERSON',
      content:
      [
        ['Outlook','NNP','outlook']
      ]
    },
    ['&','CC','&'],
    {
      tag:'PERSON',
      content:
      [
        ['Opinions','NNP','opin']
      ]
    },
    ['»','NNP','»'],
    ['Follow','NNP','follow'],
    ['Opinions','NNP','opin'],
    ['On','NNP','on'],
    [':',':',':'],
    ['#','#','#'],
    ['tsFiveMyths','NNS','tsfivemyths'],
    ['{',':','{'],
    ['width','NN','wid'],
    [':',':',':'],
    ['622px','CD','622px'],
    [';',':',';'],
    ['border','NN','bord'],
    [':',':',':'],
    ['1px','CD','1px'],
    ['solid','JJ','solid'],
    ['#','#','#'],
    ['ccc','NN','ccc'],
    [';',':',';'],
    ['border-top','JJ','border-top'],
    [':',':',':'],
    ['2px','CD','2px'],
    ['solid','JJ','solid'],
    ['#','#','#'],
    ['999','CD','999'],
    [';',':',';'],
    ['font','NN','font'],
    [':',':',':'],
    ['11px/14px','CD','11px/14px'],
    ['Arial','JJ','ar'],
    [',',',',','],
    {
      tag:'PERSON',
      content:
      [
        ['Helvetica','NNP','helvetic']
      ]
    },
    [',',',',','],
    {
      tag:'GPE',
      content:
      [
        ['sans-serif','JJ','sans-serif']
      ]
    },
    [';',':',';'],
    ['color','NN','col'],
    [':',':',':'],
    ['#','#','#'],
    ['333','CD','333'],
    [';',':',';'],
    ['margin-bottom','JJ','margin-bottom'],
    [':',':',':'],
    ['10px','CD','10px'],
    [';',':',';'],
    ['}',':','}'],
    ['#','#','#'],
    {
      tag:'ORGANIZATION',
      content:
      [
        ['tsFiveMyths','NNP','tsfivemyths']
      ]
    },
    ['.lefSide','NNP','.lefside'],
    ['{','NNP','{'],
    ['}','NNP','}'],
    ['#','#','#'],
    {
      tag:'ORGANIZATION',
      content:
      [
        ['tsFiveMyths','NNP','tsfivemyths']
      ]
    },
    ['img','NN','img'],
    ['{',':','{'],
    ['border','NN','bord'],
    [':',':',':'],
    ['none','NN','non'],
    [';',':',';'],
    ['}',':','}'],
    ['#','#','#'],
    {
      tag:'ORGANIZATION',
      content:
      [
        ['tsFiveMyths','NNP','tsfivemyths']
      ]
    },
    ['.hashbg','NNP','.hashbg'],
    ['{','NNP','{'],
    ['margin','NN','margin'],
    [':',':',':'],
    ['1px','CD','1px'],
    [';',':',';'],
    ['background','NN','background'],
    [':',':',':'],
    ['url','NN','url'],
    ['(',':','('],
    [''http','JJ',''http'],
    [':',':',':'],
    ['//media.washingtonpost.com/wp-srv/special/metro/aids-funding/images/hash-bg.gif','JJ','//media.washingtonpost.com/wp-srv/special/metro/aids-funding/images/hash-bg.gif'],
    [''','''','''],
    [')',':',')'],
    ['no-repeat','JJ','no-repeat'],
    [';',':',';'],
    ['height','NN','height'],
    [':',':',':'],
    ['42px','CD','42px'],
    [';',':',';'],
    ['float','JJ','flo'],
    [':',':',':'],
    ['left','VBN','leav'],
    [';',':',';'],
    ['width','NN','wid'],
    [':',':',':'],
    ['620px','CD','620px'],
    [';',':',';'],
    ['}',':','}'],
    ['#','#','#'],
    {
      tag:'ORGANIZATION',
      content:
      [
        ['tsFiveMyths','NNP','tsfivemyths']
      ]
    },
    ['.wrapper','NNP','.wrapper'],
    ['{','NNP','{'],
    ['padding','NN','pad'],
    [':',':',':'],
    ['0px','CD','0px'],
    [';',':',';'],
    ['}',':','}'],
    ['#','#','#'],
    {
      tag:'ORGANIZATION',
      content:
      [
        ['tsFiveMyths','NNP','tsfivemyths']
      ]
    },
    ['.tsTitle','NNP','.tstitle'],
    ['{','NNP','{'],
    ['background','NN','background'],
    [':',':',':'],
    ['url','NN','url'],
    ['(',':','('],
    [''http','JJ',''http'],
    [':',':',':'],
    ['//media.washingtonpost.com/wp-dyn/content/photo/2010/02/11/PH2010021103954.gif','JJ','//media.washingtonpost.com/wp-dyn/content/photo/2010/02/11/ph2010021103954.gif'],
    [''','''','''],
    [')',':',')'],
    ['no-repeat','JJ','no-repeat'],
    [';',':',';'],
    ['float','JJ','flo'],
    [':',':',':'],
    ['left','VBN','leav'],
    [';',':',';'],
    ['margin-left:10px','JJ','margin-left:10px'],
    [';',':',';'],
    ['height:42px','JJ','height:42px'],
    [';',':',';'],
    ['padding-top:15px','JJ','padding-top:15px'],
    [';',':',';'],
    ['display','NN','display'],
    [':',':',':'],
    ['inline','NN','inlin'],
    [';',':',';'],
    ['}',':','}'],
    ['#','#','#'],
    {
      tag:'ORGANIZATION',
      content:
      [
        ['tsFiveMyths','NNP','tsfivemyths']
      ]
    },
    ['.subHead','NNP','.subhead'],
    ['{','NNP','{'],
    ['color','NN','col'],
    [':',':',':'],
    ['#','#','#'],
    ['464646','CD','464646'],
    [';',':',';'],
    ['font-size','JJ','font-size'],
    [':',':',':'],
    ['12px','CD','12px'],
    [';',':',';'],
    ['font-family','JJ','font-family'],
    [':',':',':'],
    ['georgia','NN','georg'],
    [';',':',';'],
    ['font-style','JJ','font-style'],
    [':',':',':'],
    ['italic','JJ','it'],
    [';',':',';'],
    ['font-weight','JJ','font-weight'],
    [':',':',':'],
    ['normal','JJ','norm'],
    [';',':',';'],
    ['line-height','JJ','line-height'],
    [':',':',':'],
    ['12px','CD','12px'],
    [';',':',';'],
    ['margin','NN','margin'],
    [':',':',':'],
    ['0px','CD','0px'],
    ['0','-NONE-','0'],
    ['0','-NONE-','0'],
    ['0px','CD','0px'],
    [';',':',';'],
    ['padding','VBG','pad'],
    [':',':',':'],
    ['26px','CD','26px'],
    ['0','-NONE-','0'],
    ['0px','CD','0px'],
    ['0','-NONE-','0'],
    [';',':',';'],
    ['}','NNP','}'],
    ['#','#','#'],
    ['tsFiveMyths','NNP','tsfivemyths'],
    ['a','DT','a'],
    ['{','NN','{'],
    ['font-weight','JJ','font-weight'],
    [':',':',':'],
    ['bold','JJ','bold'],
    [';',':',';'],
    ['text-decoration','NN','text-decoration'],
    [':',':',':'],
    ['none','NN','non'],
    [';',':',';'],
    ['color','NN','col'],
    [':',':',':'],
    ['#','#','#'],
    ['474747','CD','474747'],
    [';',':',';'],
    ['}',':','}'],
    ['#','#','#'],
    {
      tag:'ORGANIZATION',
      content:
      [
        ['tsFiveMyths','NNP','tsfivemyths']
      ]
    },
    ['a.normal','JJ','a.normal'],
    ['{','NN','{'],
    ['font-weight','JJ','font-weight'],
    [':',':',':'],
    ['normal','JJ','norm'],
    [';',':',';'],
    ['}',':','}'],
    ['#','#','#'],
    ['tsFiveMyths','NNP','tsfivemyths'],
    ['a','DT','a'],
    [':',':',':'],
    ['hover','NN','hov'],
    ['{',':','{'],
    ['color','NN','col'],
    [':',':',':'],
    ['#','#','#'],
    ['000','CD','000'],
    [';',':',';'],
    ['}',':','}'],
    ['A','DT','A'],
    ['challenge','NN','challeng'],
    ['to','TO','to'],
    ['everything','NN','everyth'],
    ['you','PRP','you'],
    ['think','VBP','think'],
    ['you','PRP','you'],
    ['know','VBP','know'],
    ['Five','CD','Five'],
    ['myths','NNS','myth'],
    ['about','IN','about'],
    {
      tag:'PERSON',
      content:
      [
        ['Abraham','NNP','abraham'],
        ['Lincoln','NNP','lincoln']
      ]
    },
    ['.play-btn-box350x196','NNP','.play-btn-box350x196'],
    ['{','NNP','{'],
    ['position','NN','posit'],
    [':',':',':'],
    ['relative','JJ','rel'],
    [';',':',';'],
    ['width:350px','JJ','width:350px'],
    [';',':',';'],
    ['height:196px','JJ','height:196px'],
    [';',':',';'],
    ['}',':','}'],
    ['.play-btn-box350x196','-NONE-','.play-btn-box350x196'],
    ['.play-btn','JJ','.play-btn'],
    ['{','NN','{'],
    ['position','NN','posit'],
    [':',':',':'],
    ['absolute','JJ','absolv'],
    [';',':',';'],
    ['width:78px','JJ','width:78px'],
    [';',':',';'],
    ['height:48px','JJ','height:48px'],
    [';',':',';'],
    ['top:74px','JJ','top:74px'],
    [';',':',';'],
    ['left:136px','JJ','left:136px'],
    [';',':',';'],
    ['background','NN','background'],
    [':',':',':'],
    ['url','NN','url'],
    ['(',':','('],
    ['http','NN','http'],
    [':',':',':'],
    ['//media3.washingtonpost.com/wp-srv/mmedia/images/player/play-button-med.png','JJ','//media3.washingtonpost.com/wp-srv/mmedia/images/player/play-button-med.png'],
    [')','NN',')'],
    ['no-repeat','JJ','no-repeat'],
    [';',':',';'],
    ['_background','NNP','_background'],
    [':',':',':'],
    ['none','NN','non'],
    [';',':',';'],
    ['_filter','NNP','_filter'],
    [':',':',':'],
    ['progid','JJ','progid'],
    [':',':',':'],
    ['DXImageTransform.Microsoft.AlphaImageLoader','JJ','dximagetransform.microsoft.alphaimageloader'],
    ['(','NN','('],
    ['src=http','NN','src=http'],
    [':',':',':'],
    ['//media3.washingtonpost.com/wp-srv/mmedia/images/player/play-button-med.png','JJ','//media3.washingtonpost.com/wp-srv/mmedia/images/player/play-button-med.png'],
    [',',',',','],
    ['sizingMethod=scale','JJ','sizingmethod=scale'],
    [')','NN',')'],
    [';',':',';'],
    ['cursor','NN','curs'],
    [':',':',':'],
    ['pointer','NN','point'],
    [';',':',';'],
    ['}',':','}'],
    ['.play-btn-box350x196','-NONE-','.play-btn-box350x196'],
    ['a','DT','a'],
    ['{','NN','{'],
    ['position','NN','posit'],
    [':',':',':'],
    ['absolute','JJ','absolv'],
    [';',':',';'],
    ['top:0','-NONE-','top:0'],
    [';',':',';'],
    ['left:0','-NONE-','left:0'],
    [';',':',';'],
    ['}',':','}'],
    ['.play-btn-box350x196','-NONE-','.play-btn-box350x196'],
    ['b','NN','b'],
    ['{',':','{'],
    ['display','NN','display'],
    [':',':',':'],
    ['none','NN','non'],
    [';',':',';'],
    ['}',':','}'],
    {
      tag:'ORGANIZATION',
      content:
      [
        ['VideoLincoln','NNP','videolincoln']
      ]
    },
    [''s','POS',''s'],
    ['word','NN','word'],
    ['choice','NN','cho'],
    ['in','IN','in'],
    ['his','PRP$','his'],
    ['inaugural','JJ','inaug'],
    ['speechCivil','NNP','speechcivil'],
    ['War','NNP','war'],
    ['scholars','NNS','scholar'],
    ['discuss','VBZ','discuss'],
    ['what','WP','what'],
    ['they','PRP','they'],
    ['think','VBP','think'],
    ['of','IN','of'],
    ['President','NNP','presid'],
    {
      tag:'PERSON',
      content:
      [
        ['Lincoln','NNP','lincoln']
      ]
    },
    [''s','POS',''s'],
    ['inaugural','JJ','inaug'],
    ['address.»','NN','address.»'],
    {
      tag:'ORGANIZATION',
      content:
      [
        ['LAUNCH','NN','launch']
      ]
    },
    {
      tag:'ORGANIZATION',
      content:
      [
        ['VIDEO','NNP','video']
      ]
    },
    ['PLAYER','NNP','play'],
    {
      tag:'PERSON',
      content:
      [
        ['Network','NNP','network'],
        ['News','NNP','new']
      ]
    },
    ['X','NNP','x'],
    ['Profile','NNP','profil'],
    ['View','NNP','view'],
    ['More','NNP','mor'],
    ['Activity','NNP','act'],
    ['Your','NNP','yo'],
    ['Feedback','NNP','feedback'],
    ['Corrections','NNP','correct'],
    [',',',',','],
    ['suggestions','NNS','suggest'],
    ['?','.','?']
  ]
},
{
  tag:'S',
  content:
  [
    {
      tag:'ORGANIZATION',
      content:
      [
        ['TOOLBOX','NNP','toolbox']
      ]
    },
    {
      tag:'PERSON',
      content:
      [
        ['Resize','NNP','res'],
        ['Print','NNP','print']
      ]
    },
    ['E-mail','NNP','e-mail'],
    ['Reprints','NNP','reprint'],
    ['By','NNP','by'],
    {
      tag:'PERSON',
      content:
      [
        ['Harold','NNP','harold'],
        ['Holzer','NNP','holz']
      ]
    },
    ['Thursday','NNP','thursday'],
    [',',',',','],
    ['February','NNP','febru'],
    ['17','CD','17'],
    [',',',',','],
    ['2011','CD','2011'],
    [';',':',';'],
    ['12:00','CD','12:00'],
    ['PM','NNP','pm'],
    ['No','NNP','no'],
    {
      tag:'GPE',
      content:
      [
        ['American','NNP','am']
      ]
    },
    ['hero','NN','hero'],
    [',',',',','],
    ['with','IN','with'],
    ['the','DT','the'],
    ['possible','JJ','poss'],
    ['exception','NN','exceiv'],
    ['of','IN','of'],
    {
      tag:'GPE',
      content:
      [
        ['George','NNP','georg']
      ]
    },
    ['``','``','``'],
    ['I','PRP','I'],
    ['Can','MD','Can'],
    ['not','RB','not'],
    {
      tag:'ORGANIZATION',
      content:
      [
        ['Tell','NNP','tel']
      ]
    },
    ['a','DT','a'],
    ['Lie','NNP','lie'],
    ['''','''',''''],
    {
      tag:'GPE',
      content:
      [
        ['Washington','NNP','washington']
      ]
    },
    [',',',',','],
    ['has','VBZ','hav'],
    ['been','VBN','be'],
    ['more','JJR','mor'],
    ['encrusted','VBN','encrust'],
    ['with','IN','with'],
    ['myth','NN','myth'],
    ['than','IN','than'],
    {
      tag:'PERSON',
      content:
      [
        ['Abraham','NNP','abraham'],
        ['Lincoln','NNP','lincoln']
      ]
    },
    ['.','.','.']
  ]
},
{
  tag:'S',
  content:
  [
    {
      tag:'PERSON',
      content:
      [
        ['Lincoln','NNP','lincoln']
      ]
    },
    ['did','VBD','do'],
    ['boast','JJ','boast'],
    ['virtues','NNS','virtu'],
    ['that','WDT','that'],
    ['required','VBN','requir'],
    ['little','RB','littl'],
    ['embellishment','JJ','embel'],
    ['.','.','.']
  ]
},
{
  tag:'S',
  content:
  [
    ['He','PRP','He'],
    ['rose','VBD','ris'],
    ['from','IN','from'],
    ['obscurity','NN','obsc'],
    ['through','IN','through'],
    ['hard','JJ','hard'],
    ['work','NN','work'],
    [',',',',','],
    ['self-education','NN','self-education'],
    ['and','CC','and'],
    ['honesty','NN','honesty'],
    ['.','.','.']
  ]
},
{
  tag:'S',
  content:
  [
    ['He','PRP','He'],
    ['endured','VBD','end'],
    ['venomous','JJ','venom'],
    ['criticism','NN','crit'],
    ['to','TO','to'],
    ['save','VB','sav'],
    ['the','DT','the'],
    {
      tag:'ORGANIZATION',
      content:
      [
        ['Union','NNP','un']
      ]
    },
    ['and','CC','and'],
    ['end','NN','end'],
    ['slavery','NN','slavery'],
    ['.','.','.']
  ]
},
{
  tag:'S',
  content:
  [
    ['He','PRP','He'],
    ['died','VBD','die'],
    ['shortly','RB','short'],
    ['after','IN','after'],
    ['his','PRP$','his'],
    ['greatest','JJS','gre'],
    ['triumph','NN','triumph'],
    ['at','IN','at'],
    ['the','DT','the'],
    ['hands','NNS','hand'],
    ['of','IN','of'],
    ['an','DT','an'],
    ['assassin','NN','assassin'],
    ['.','.','.']
  ]
},
{
  tag:'S',
  content:
  [
    ['But','CC','But'],
    ['tall-tale-tellers','NNS','tall-tale-tellers'],
    ['have','VBP','hav'],
    ['never','RB','nev'],
    ['hesitated','VBN','hesit'],
    ['to','TO','to'],
    ['rewrite','VB','rewrit'],
    {
      tag:'PERSON',
      content:
      [
        ['Lincoln','NNP','lincoln']
      ]
    },
    [''s','POS',''s'],
    ['biography','NN','biograph'],
    ['.','.','.']
  ]
},
{
  tag:'S',
  content:
  [
    ['On','IN','On'],
    ['Presidents','NNS','presid'],
    [''','POS','''],
    ['Day','NNP','day'],
    [',',',',','],
    ['it','PRP','it'],
    [''s','VBZ',''s'],
    ['well','RB','wel'],
    ['worth','IN','worth'],
    ['dispelling','VBG','dispel'],
    ['some','DT','some'],
    ['perennial','JJ','peren'],
    ['misconceptions','NNS','misconceiv'],
    ['about','IN','about'],
    ['the','DT','the'],
    ['man','NN','man'],
    ['on','IN','on'],
    ['the','DT','the'],
    ['$','$','$'],
    ['5','CD','5'],
    ['bill','NN','bil'],
    ['.','.','.']
  ]
},
{
  tag:'S',
  content:
  [
    ['1','LS','1'],
    ['.','.','.']
  ]
},
{
  tag:'S',
  content:
  [
    {
      tag:'PERSON',
      content:
      [
        ['Lincoln','NNP','lincoln']
      ]
    },
    ['was','VBD','be'],
    ['a','DT','a'],
    ['simple','JJ','simpl'],
    ['country','NN','country'],
    ['lawyer','NN','lawy'],
    ['.','.','.']
  ]
},
{
  tag:'S',
  content:
  [
    ['This','DT','This'],
    ['durable','JJ','dur'],
    ['legend','NN','legend'],
    [',',',',','],
    ['personified','VBD','person'],
    ['by','IN','by'],
    ['laconic','JJ','lacon'],
    {
      tag:'PERSON',
      content:
      [
        ['Henry','NNP','henry'],
        ['Fonda','NNP','fond']
      ]
    },
    ['in','IN','in'],
    {
      tag:'PERSON',
      content:
      [
        ['John','NNP','john'],
        ['Ford','NNP','ford']
      ]
    },
    [''s','POS',''s'],
    ['film','NN','film'],
    ['``','``','``'],
    {
      tag:'PERSON',
      content:
      [
        ['Young','NNP','young'],
        ['Mr.','NNP','mr.'],
        ['Lincoln','NNP','lincoln']
      ]
    },
    [',',',',','],
    ['''','''',''''],
    ['dies','NNS','dy'],
    ['hard','RB','hard'],
    ['.','.','.']
  ]
},
{
  tag:'S',
  content:
  [
    {
      tag:'PERSON',
      content:
      [
        ['Lincoln','NNP','lincoln']
      ]
    },
    [''s','POS',''s'],
    ['law','NN','law'],
    ['partner','NN','partn'],
    {
      tag:'PERSON',
      content:
      [
        ['William','NNP','william'],
        ['H.','NNP','h.'],
        ['Herndon','NNP','herndon']
      ]
    },
    [',',',',','],
    ['looking','VBG','look'],
    ['to','TO','to'],
    ['boost','VB','boost'],
    ['his','PRP$','his'],
    ['own','JJ','own'],
    ['reputation','NN','reput'],
    [',',',',','],
    ['introduced','VBD','introduc'],
    ['the','DT','the'],
    ['canard','NN','canard'],
    ['that','IN','that'],
    {
      tag:'PERSON',
      content:
      [
        ['Lincoln','NNP','lincoln']
      ]
    },
    ['cared','VBD','car'],
    ['little','JJ','littl'],
    ['about','IN','about'],
    ['his','PRP$','his'],
    ['legal','JJ','leg'],
    ['practice','NN','pract'],
    [',',',',','],
    ['did','VBD','do'],
    ['scant','JJ','scant'],
    ['research','NN','research'],
    [',',',',','],
    ['joked','VBD','jok'],
    ['around','IN','around'],
    ['with','IN','with'],
    ['juries','NNS','jury'],
    ['and','CC','and'],
    ['judges','NNS','judg'],
    [',',',',','],
    ['and','CC','and'],
    ['sometimes','RB','sometim'],
    ['failed','VBD','fail'],
    ['to','TO','to'],
    ['collect','VB','collect'],
    ['fees','NNS','fee'],
    ['.','.','.']
  ]
},
{
  tag:'S',
  content:
  [
    {
      tag:'PERSON',
      content:
      [
        ['Lincoln','NNP','lincoln']
      ]
    },
    ['himself','PRP','himself'],
    ['may','MD','may'],
    ['have','VB','hav'],
    ['compromised','VBN','comprom'],
    ['his','PRP$','his'],
    ['legal','JJ','leg'],
    ['reputation','NN','reput'],
    ['with','IN','with'],
    ['his','PRP$','his'],
    ['oft-quoted','JJ','oft-quoted'],
    ['admonition','NN','admonit'],
    ['``','``','``'],
    ['Discourage','NNP','disco'],
    ['litigation','NN','litig'],
    ['.','.','.']
  ]
},
{
  tag:'S',
  content:
  [
    ['``','``','``'],
    ['True','JJ','tru'],
    [',',',',','],
    ['politics','NNS','polit'],
    ['became','VBD','becom'],
    ['lawyer','NN','lawy'],
    {
      tag:'PERSON',
      content:
      [
        ['Lincoln','NNP','lincoln']
      ]
    },
    [''s','POS',''s'],
    ['chief','NN','chief'],
    ['ambition','NN','ambit'],
    ['.','.','.']
  ]
},
{
  tag:'S',
  content:
  [
    ['Still','RB','stil'],
    [',',',',','],
    ['in','IN','in'],
    ['the','DT','the'],
    ['1850s','CD','1850s'],
    ['he','PRP','he'],
    ['ably','RB','abl'],
    ['(',':','('],
    ['and','CC','and'],
    ['profitably','RB','profit'],
    [')',':',')'],
    ['represented','VBN','repres'],
    ['the','DT','the'],
    {
      tag:'ORGANIZATION',
      content:
      [
        ['Illinois','NNP','illino'],
        ['Central','NNP','cent'],
        ['Railroad','NNP','railroad']
      ]
    },
    ['and','CC','and'],
    ['the','DT','the'],
    {
      tag:'ORGANIZATION',
      content:
      [
        ['Rock','NNP','rock'],
        ['Island','NNP','island'],
        ['Bridge','NNP','bridg']
      ]
    },
    ['Co.','NNP','co.'],
    ['-',':','-'],
    ['the','DT','the'],
    ['company','NN','company'],
    ['that','WDT','that'],
    ['built','VBD','build'],
    ['the','DT','the'],
    ['first','JJ','first'],
    ['railroad','NN','railroad'],
    ['bridge','NN','bridg'],
    ['over','IN','over'],
    ['the','DT','the'],
    {
      tag:'ORGANIZATION',
      content:
      [
        ['Mississippi','NNP','mississipp'],
        ['River','NNP','riv']
      ]
    },
    ['-',':','-'],
    ['and','CC','and'],
    ['earned','VBD','earn'],
    ['a','DT','a'],
    ['solid','JJ','solid'],
    ['reputation','NN','reput'],
    ['as','IN','as'],
    ['one','CD','one'],
    ['of','IN','of'],
    ['his','PRP$','his'],
    ['home','NN','hom'],
    ['state','NN','stat'],
    [''s','POS',''s'],
    ['top','JJ','top'],
    ['appeals','NNS','ap'],
    ['lawyers','NNS','lawy'],
    ['.','.','.']
  ]
},
{
  tag:'S',
  content:
  [
    {
      tag:'PERSON',
      content:
      [
        ['Lincoln','NNP','lincoln']
      ]
    },
    [''s','POS',''s'],
    ['legal','JJ','leg'],
    ['papers','NNS','pap'],
    ['testify','VBP','test'],
    ['to','TO','to'],
    ['a','DT','a'],
    ['diverse','JJ','divers'],
    ['and','CC','and'],
    ['profitable','JJ','profit'],
    ['practice','NN','pract'],
    ['.','.','.']
  ]
},
{
  tag:'S',
  content:
  [
    ['Had','NNP','had'],
    ['he','PRP','he'],
    ['not','RB','not'],
    ['been','VBN','be'],
    ['``','``','``'],
    ['aroused','VBN','ar'],
    [',',',',','],
    ['''','''',''''],
    ['as','IN','as'],
    ['he','PRP','he'],
    ['put','VBD','put'],
    ['it','PRP','it'],
    [',',',',','],
    ['to','TO','to'],
    ['speak','VB','speak'],
    ['out','RP','out'],
    ['in','IN','in'],
    ['1854','CD','1854'],
    ['against','IN','against'],
    ['the','DT','the'],
    ['pro-slavery','JJ','pro-slavery'],
    ['Kansas-Nebraska','NN','kansas-nebraska'],
    ['Act','NN','act'],
    ['before','IN','before'],
    ['seeking','VBG','seek'],
    ['a','DT','a'],
    {
      tag:'ORGANIZATION',
      content:
      [
        ['Senate','NNP','sen']
      ]
    },
    ['seat','NN','seat'],
    [',',',',','],
    ['he','PRP','he'],
    ['likely','JJ','lik'],
    ['would','MD','would'],
    ['have','VB','hav'],
    ['remained','VBN','remain'],
    ['a','DT','a'],
    ['full-time','JJ','full-time'],
    ['lawyer','NN','lawy'],
    ['and','CC','and'],
    ['earned','VBD','earn'],
    ['fame','NN','fam'],
    ['and','CC','and'],
    ['fortune','NN','fortun'],
    ['at','IN','at'],
    ['the','DT','the'],
    ['bar','NN','bar'],
    ['.','.','.']
  ]
},
{
  tag:'S',
  content:
  [
    ['2','LS','2'],
    ['.','.','.']
  ]
},
{
  tag:'S',
  content:
  [
    {
      tag:'PERSON',
      content:
      [
        ['Lincoln','NNP','lincoln']
      ]
    },
    ['was','VBD','be'],
    ['gay','NN','gay'],
    ['.','.','.']
  ]
},
{
  tag:'S',
  content:
  [
    ['Gay','NNP','gay'],
    ['rights','NNS','right'],
    ['activist','VBP','act'],
    {
      tag:'PERSON',
      content:
      [
        ['Larry','NNP','larry'],
        ['Kramer','NNP','kram']
      ]
    },
    ['has','VBZ','hav'],
    ['long','RB','long'],
    ['speculated','VBN','spec'],
    ['that','IN','that'],
    {
      tag:'PERSON',
      content:
      [
        ['Lincoln','NNP','lincoln']
      ]
    },
    ['was','VBD','be'],
    ['gay','NN','gay'],
    [',',',',','],
    ['claiming','VBG','claim'],
    ['in','IN','in'],
    ['1999','CD','1999'],
    ['that','WDT','that'],
    ['he','PRP','he'],
    [''d','MD',''d'],
    ['discovered','VB','discov'],
    {
      tag:'PERSON',
      content:
      [
        ['Lincoln','NNP','lincoln']
      ]
    },
    [''s','POS',''s'],
    ['love','NN','lov'],
    ['letters','NNS','let'],
    ['to','TO','to'],
    ['onetime','VB','onetim'],
    ['roommate','JJ','room'],
    {
      tag:'PERSON',
      content:
      [
        ['Joshua','NNP','joshu'],
        ['Speed','NNP','spee']
      ]
    },
    ['.','.','.']
  ]
},
{
  tag:'S',
  content:
  [
    ['The','DT','The'],
    ['claim','NN','claim'],
    ['is','VBZ','be'],
    ['reportedly','RB','report'],
    ['featured','VBN','feat'],
    ['in','IN','in'],
    {
      tag:'GPE',
      content:
      [
        ['Kramer','NNP','kram']
      ]
    },
    [''s','POS',''s'],
    ['forthcoming','NN','forthcom'],
    ['history','NN','hist'],
    ['of','IN','of'],
    ['homosexuality','NN','homosex'],
    [',',',',','],
    ['``','``','``'],
    ['The','DT','The'],
    {
      tag:'ORGANIZATION',
      content:
      [
        ['American','NNP','am'],
        ['People','NNP','peopl']
      ]
    },
    [',',',',','],
    ['''','''',''''],
    ['but','CC','but'],
    ['historian','JJ','hist'],
    {
      tag:'PERSON',
      content:
      [
        ['Gabor','NNP','gab'],
        ['Boritt','NNP','borit']
      ]
    },
    ['called','VBD','cal'],
    {
      tag:'PERSON',
      content:
      [
        ['Kramer','NNP','kram']
      ]
    },
    [''s','POS',''s'],
    ['assertion','NN','assert'],
    ['``','``','``'],
    ['almost','RB','almost'],
    ['certainly','RB','certain'],
    ['.','.','.']
  ]
},
{
  tag:'S',
  content:
  [
    ['.','.','.']
  ]
},
{
  tag:'S',
  content:
  [
    ['.','.','.']
  ]
},
{
  tag:'S',
  content:
  [
    ['a','DT','a'],
    ['hoax','NN','hoax'],
    ['.','.','.']
  ]
},
{
  tag:'S',
  content:
  [
    ['``','``','``'],
    ['Still','RB','stil'],
    [',',',',','],
    ['the','DT','the'],
    ['idea','NN','ide'],
    ['persists','NNS','persist'],
    ['.','.','.']
  ]
},
{
  tag:'S',
  content:
  [
    ['In','IN','In'],
    ['2005','CD','2005'],
    [',',',',','],
    ['``','``','``'],
    ['The','DT','The'],
    {
      tag:'ORGANIZATION',
      content:
      [
        ['Intimate','NNP','intim']
      ]
    },
    ['World','NNP','world'],
    ['of','IN','of'],
    {
      tag:'PERSON',
      content:
      [
        ['Abraham','NNP','abraham'],
        ['Lincoln','NNP','lincoln']
      ]
    },
    [',',',',','],
    ['''','''',''''],
    ['written','VBN','writ'],
    ['by','IN','by'],
    ['queer','NN','que'],
    ['theory','NN','the'],
    ['professor','NN','profess'],
    ['C.','NNP','c.'],
    ['A.','NNP','a.'],
    {
      tag:'PERSON',
      content:
      [
        ['Tripp','NNP','trip']
      ]
    },
    ['-',':','-'],
    ['a','DT','a'],
    ['colleague','NN','colleagu'],
    ['of','IN','of'],
    ['sex','NN','sex'],
    ['researcher','NN','research'],
    {
      tag:'PERSON',
      content:
      [
        ['Alfred','NNP','alfr'],
        ['Kinsey','NNP','kinsey']
      ]
    },
    ['-',':','-'],
    ['purported','VBD','purport'],
    ['to','TO','to'],
    ['prove','VB','prov'],
    ['that','IN','that'],
    {
      tag:'PERSON',
      content:
      [
        ['Lincoln','NNP','lincoln']
      ]
    },
    ['was','VBD','be'],
    ['an','DT','an'],
    ['active','JJ','act'],
    ['homosexual','NN','homosex'],
    ['who','WP','who'],
    ['married','VBN','marry'],
    ['only','RB','on'],
    ['to','TO','to'],
    ['conform','VB','conform'],
    ['to','TO','to'],
    ['19th-century','CD','19th-century'],
    ['convention','NN','conv'],
    ['and','CC','and'],
    ['continued','VBD','continu'],
    ['flirting','VBG','flirt'],
    ['and','CC','and'],
    ['sleeping','VBG','sleep'],
    ['with','IN','with'],
    ['young','JJ','young'],
    ['men','NNS','men'],
    ['throughout','IN','throughout'],
    ['his','PRP$','his'],
    ['presidency','NN','presid'],
    ['.','.','.']
  ]
},
{
  tag:'S',
  content:
  [
    {
      tag:'PERSON',
      content:
      [
        ['Tripp','NNP','trip']
      ]
    },
    ['went','VBD','go'],
    ['so','RB','so'],
    ['far','RB','far'],
    ['as','IN','as'],
    ['to','TO','to'],
    ['suggest','VB','suggest'],
    ['that','IN','that'],
    {
      tag:'PERSON',
      content:
      [
        ['Lincoln','NNP','lincoln']
      ]
    },
    [''s','POS',''s'],
    ['sexual','JJ','sex'],
    ['indifference','NN','indiff'],
    ['is','VBZ','be'],
    ['what','WP','what'],
    ['contributed','VBN','contribut'],
    ['to','TO','to'],
    ['his','PRP$','his'],
    ['wife','NN','wif'],
    [''s','POS',''s'],
    ['mental','JJ','ment'],
    ['illness','NN','il'],
    ['.','.','.']
  ]
},
{
  tag:'S',
  content:
  [
    ['Is','VBZ','is'],
    ['it','PRP','it'],
    ['true','JJ','tru'],
    ['?','.','?']
  ]
},
{
  tag:'S',
  content:
  [
    ['And','CC','And'],
    ['if','IN','if'],
    ['it','PRP','it'],
    ['is','VBZ','be'],
    [',',',',','],
    ['does','VBZ','do'],
    ['it','PRP','it'],
    ['matter','JJR','mat'],
    ['?','.','?']
  ]
},
{
  tag:'S',
  content:
  [
    ['According','VBG','accord'],
    ['to','TO','to'],
    {
      tag:'PERSON',
      content:
      [
        ['Herndon','NNP','herndon']
      ]
    },
    [',',',',','],
    {
      tag:'PERSON',
      content:
      [
        ['Lincoln','NNP','lincoln']
      ]
    },
    ['exhibited','VBD','exhibit'],
    ['a','DT','a'],
    ['``','``','``'],
    ['powerful','JJ','pow'],
    ['''','''',''''],
    ['attraction','NN','attract'],
    ['to','TO','to'],
    ['women','NNS','wom'],
    ['and','CC','and'],
    ['was','VBD','be'],
    ['a','DT','a'],
    ['regular','JJ','regul'],
    ['customer','NN','custom'],
    ['in','IN','in'],
    ['prairie','NN','prairy'],
    ['brothels','NNS','brothel'],
    ['before','IN','before'],
    ['his','PRP$','his'],
    ['marriage','NN','marry'],
    ['at','IN','at'],
    ['age','NN','ag'],
    ['33','CD','33'],
    ['.','.','.']
  ]
},
{
  tag:'S',
  content:
  [
    ['His','PRP$','His'],
    ['first','JJ','first'],
    ['son','NN','son'],
    ['was','VBD','be'],
    ['born','VBN','bear'],
    ['just','RB','just'],
    ['nine','CD','nine'],
    ['months','NNS','mon'],
    ['after','IN','after'],
    ['his','PRP$','his'],
    ['marriage','NN','marry'],
    [',',',',','],
    ['which','WDT','which'],
    ['suggests','VBZ','suggest'],
    ['enthusiasm','NN','enthusiasm'],
    ['if','IN','if'],
    ['not','RB','not'],
    ['experience','NN','expery'],
    ['.','.','.']
  ]
},
{
  tag:'S',
  content:
  [
    ['Then','RB','then'],
    ['again','RB','again'],
    [',',',',','],
    ['proving','VBG','prov'],
    ['that','IN','that'],
    ['a','DT','a'],
    ['man','NN','man'],
    ['loves','VBZ','lov'],
    ['women','NNS','wom'],
    ['is','VBZ','be'],
    ['n't','RB','n't'],
    ['the','DT','the'],
    ['same','JJ','sam'],
    ['as','IN','as'],
    ['proving','VBG','prov'],
    ['that','IN','that'],
    ['he','PRP','he'],
    ['does','VBZ','do'],
    ['n't','RB','n't'],
    ['love','VB','lov'],
    ['men','NNS','men'],
    ['.','.','.']
  ]
},
{
  tag:'S',
  content:
  [
    ['Maybe','RB','mayb'],
    ['it','PRP','it'],
    [''s','VBZ',''s'],
    ['best','JJS','best'],
    ['to','TO','to'],
    ['throw','VB','throw'],
    ['up','RP','up'],
    ['our','PRP$','our'],
    ['hands','NNS','hand'],
    ['-',':','-'],
    ['and','CC','and'],
    ['remember','NN','rememb'],
    ['that','IN','that'],
    {
      tag:'PERSON',
      content:
      [
        ['Lincoln','NNP','lincoln']
      ]
    },
    [''s','POS',''s'],
    ['sexual','JJ','sex'],
    ['orientation','NN','ory'],
    ['is','VBZ','be'],
    ['but','CC','but'],
    ['a','DT','a'],
    ['small','JJ','smal'],
    ['part','NN','part'],
    ['of','IN','of'],
    ['his','PRP$','his'],
    ['historical','JJ','hist'],
    ['legacy','NN','leg'],
    ['.','.','.']
  ]
},
{
  tag:'S',
  content:
  [
    ['3','LS','3'],
    ['.','.','.']
  ]
},
{
  tag:'S',
  content:
  [
    {
      tag:'PERSON',
      content:
      [
        ['Lincoln','NNP','lincoln']
      ]
    },
    ['was','VBD','be'],
    ['depressed','VBN','depress'],
    ['.','.','.']
  ]
},
{
  tag:'S',
  content:
  [
    ['Four','CD','Four'],
    ['generations','NNS','gen'],
    ['of','IN','of'],
    ['biographers','NNS','biograph'],
    ['attest','VBP','attest'],
    ['that','IN','that'],
    {
      tag:'PERSON',
      content:
      [
        ['Lincoln','NNP','lincoln']
      ]
    },
    ['was','VBD','be'],
    ['often','RB','oft'],
    ['morose','JJ','moros'],
    [',',',',','],
    ['but','CC','but'],
    {
      tag:'ORGANIZATION',
      content:
      [
        ['Washington','NNP','washington'],
        ['College','NNP','colleg']
      ]
    },
    [''s','POS',''s'],
    {
      tag:'PERSON',
      content:
      [
        ['Joshua','NNP','joshu'],
        ['Wolf','NNP','wolf'],
        ['Shenk','NNP','shenk']
      ]
    },
    ['made','VBD','mak'],
    ['the','DT','the'],
    ['case','NN','cas'],
    ['in','IN','in'],
    ['his','PRP$','his'],
    ['recent','JJ','rec'],
    ['book','NN','book'],
    [',',',',','],
    ['``','``','``'],
    {
      tag:'PERSON',
      content:
      [
        ['Lincoln','NNP','lincoln']
      ]
    },
    [''s','POS',''s'],
    ['Melancholy','NNP','melancho'],
    [':',':',':'],
    ['How','WRB','How'],
    {
      tag:'PERSON',
      content:
      [
        ['Depression','NNP','depress'],
        ['Challenged','NNP','challeng']
      ]
    },
    ['a','DT','a'],
    ['President','NNP','presid'],
    ['and','CC','and'],
    ['Fueled','NNP','fuel'],
    ['his','PRP$','his'],
    {
      tag:'GPE',
      content:
      [
        ['Greatness','NNP','gre']
      ]
    },
    [',',',',','],
    ['''','''',''''],
    ['that','IN','that'],
    ['the','DT','the'],
    ['16th','JJ','16th'],
    ['president','NN','presid'],
    ['was','VBD','be'],
    ['clinically','RB','clin'],
    ['depressed','VBN','depress'],
    ['.','.','.']
  ]
},
{
  tag:'S',
  content:
  [
    {
      tag:'PERSON',
      content:
      [
        ['Lincoln','NNP','lincoln']
      ]
    },
    ['certainly','RB','certain'],
    ['had','VBD','hav'],
    ['moments','NNS','mom'],
    ['of','IN','of'],
    ['what','WP','what'],
    ['he','PRP','he'],
    ['called','VBD','cal'],
    ['the','DT','the'],
    ['``','``','``'],
    ['hypo','NN','hypo'],
    [',',',',','],
    ['''','''',''''],
    ['most','RBS','most'],
    ['notably','RB','not'],
    ['when','WRB','when'],
    ['his','PRP$','his'],
    ['first','JJ','first'],
    ['serious','JJ','sery'],
    ['crush','NN','crush'],
    [',',',',','],
    {
      tag:'PERSON',
      content:
      [
        ['Ann','NNP','an'],
        ['Rutledge','NNP','rutledg']
      ]
    },
    [',',',',','],
    ['died','VBD','die'],
    ['in','IN','in'],
    ['1835','CD','1835'],
    [',',',',','],
    ['and','CC','and'],
    ['again','RB','again'],
    ['when','WRB','when'],
    ['he','PRP','he'],
    ['broke','VBD','break'],
    ['up','RP','up'],
    ['with','IN','with'],
    ['fiancÃ©e','JJ','fiancã©e'],
    ['Mary','NNP','mary'],
    ['Todd','NNP','tod'],
    ['on','IN','on'],
    ['the','DT','the'],
    ['eve','NN','ev'],
    ['of','IN','of'],
    ['their','PRP$','their'],
    ['nuptials','NNS','nupt'],
    ['in','IN','in'],
    ['1841','CD','1841'],
    ['.','.','.']
  ]
},
{
  tag:'S',
  content:
  [
    ['(','NN','('],
    ['They','PRP','They'],
    ['reconciled','VBD','reconcil'],
    ['the','DT','the'],
    ['next','JJ','next'],
    ['year','NN','year'],
    ['.','.','.']
  ]
},
{
  tag:'S',
  content:
  [
    [')','NN',')'],
    ['Though','IN','Though'],
    ['I','PRP','I'],
    ['co-edited','JJ','co-edited'],
    ['a','DT','a'],
    ['collection','NN','collect'],
    ['of','IN','of'],
    {
      tag:'GPE',
      content:
      [
        ['Lincoln','NNP','lincoln']
      ]
    },
    ['papers','NNS','pap'],
    ['with','IN','with'],
    {
      tag:'PERSON',
      content:
      [
        ['Shenk','NNP','shenk']
      ]
    },
    [',',',',','],
    ['we','PRP','we'],
    ['disagree','VBP','disagr'],
    ['on','IN','on'],
    ['this','DT','this'],
    ['point','NN','point'],
    ['.','.','.']
  ]
},
{
  tag:'S',
  content:
  [
    {
      tag:'GPE',
      content:
      [
        ['Genuine','NNP','genuin']
      ]
    },
    ['depression','NN','depress'],
    ['was','VBD','be'],
    ['untreatable','JJ','unt'],
    ['in','IN','in'],
    ['the','DT','the'],
    ['19th','JJ','19th'],
    ['century','NN','century'],
    [',',',',','],
    ['and','CC','and'],
    ['its','PRP$','its'],
    ['victims','NNS','victim'],
    ['often','RB','oft'],
    ['descended','VBN','descend'],
    ['into','IN','into'],
    ['madness','NN','mad'],
    ['or','CC','or'],
    ['took','VBD','tak'],
    ['their','PRP$','their'],
    ['own','JJ','own'],
    ['lives','NNS','lif'],
    ['.','.','.']
  ]
},
{
  tag:'S',
  content:
  [
    ['It','PRP','It'],
    ['is','VBZ','be'],
    ['impossible','JJ','imposs'],
    ['to','TO','to'],
    ['reconcile','VB','reconcil'],
    ['this','DT','this'],
    ['debilitating','NN','debilit'],
    ['disease','NN','diseas'],
    ['with','IN','with'],
    ['the','DT','the'],
    ['Lincoln','NNP','lincoln'],
    ['who','WP','who'],
    ['labored','VBN','lab'],
    ['tirelessly','RB','tireless'],
    ['and','CC','and'],
    ['effectively','RB','effect'],
    ['during','IN','during'],
    ['his','PRP$','his'],
    ['demanding','NN','demand'],
    ['presidency','NN','presid'],
    ['.','.','.']
  ]
},
{
  tag:'S',
  content:
  [
    ['Clinically','RB','clin'],
    ['depressed','VBN','depress'],
    ['people','NNS','peopl'],
    ['often','RB','oft'],
    ['ca','MD','ca'],
    ['n't','RB','n't'],
    ['get','VB','get'],
    ['out','IN','out'],
    ['of','IN','of'],
    ['bed','VBN','bed'],
    [',',',',','],
    ['let','VB','let'],
    ['alone','RB','alon'],
    ['command','VB','command'],
    ['an','DT','an'],
    ['army','NN','army'],
    ['.','.','.']
  ]
},
{
  tag:'S',
  content:
  [
    {
      tag:'GPE',
      content:
      [
        ['Was','NNP','was']
      ]
    },
    {
      tag:'PERSON',
      content:
      [
        ['Lincoln','NNP','lincoln']
      ]
    },
    ['sad','VBD','sad'],
    ['?','.','?']
  ]
},
{
  tag:'S',
  content:
  [
    ['Sure','RB','sur'],
    ['-',':','-'],
    ['his','PRP$','his'],
    ['son','NN','son'],
    {
      tag:'PERSON',
      content:
      [
        ['Willie','NNP','wil']
      ]
    },
    ['died','VBD','die'],
    ['of','IN','of'],
    ['fever','NN','fev'],
    ['in','IN','in'],
    ['the','DT','the'],
    {
      tag:'FACILITY',
      content:
      [
        ['White','NNP','whit'],
        ['House','NNP','hous']
      ]
    },
    ['in','IN','in'],
    ['1862','CD','1862'],
    [',',',',','],
    ['while','IN','while'],
    ['the','DT','the'],
    ['president','NN','presid'],
    ['himself','PRP','himself'],
    ['led','VBD','lead'],
    ['a','DT','a'],
    ['war','NN','war'],
    ['that','WDT','that'],
    ['would','MD','would'],
    ['take','VB','tak'],
    ['the','DT','the'],
    ['lives','NNS','lif'],
    ['of','IN','of'],
    ['600,000','CD','600,000'],
    ['other','JJ','oth'],
    ['young','JJ','young'],
    ['men','NNS','men'],
    ['.','.','.']
  ]
},
{
  tag:'S',
  content:
  [
    ['It','PRP','It'],
    ['would','MD','would'],
    ['be','VB','be'],
    ['far','RB','far'],
    ['more','RBR','mor'],
    ['remarkable','JJ','remark'],
    ['had','VBD','hav'],
    {
      tag:'PERSON',
      content:
      [
        ['Lincoln','NNP','lincoln']
      ]
    },
    ['remained','VBD','remain'],
    ['perennially','RB','peren'],
    ['jolly','RB','jol'],
    ['.','.','.']
  ]
},
{
  tag:'S',
  content:
  [
    ['4','LS','4'],
    ['.','.','.']
  ]
},
{
  tag:'S',
  content:
  [
    {
      tag:'PERSON',
      content:
      [
        ['Lincoln','NNP','lincoln']
      ]
    },
    ['was','VBD','be'],
    ['too','RB','too'],
    ['compassionate','JJ','compass'],
    ['.','.','.']
  ]
},
{
  tag:'S',
  content:
  [
    ['Much','RB','much'],
    ['has','VBZ','hav'],
    ['been','VBN','be'],
    ['made','VBN','mak'],
    ['by','IN','by'],
    ['poet','NN','poet'],
    ['and','CC','and'],
    {
      tag:'PERSON',
      content:
      [
        ['Lincoln','NNP','lincoln']
      ]
    },
    ['biographer','NN','biograph'],
    {
      tag:'PERSON',
      content:
      [
        ['Carl','NNP','carl'],
        ['Sandburg','NNP','sandburg']
      ]
    },
    ['and','CC','and'],
    ['other','JJ','oth'],
    ['historians','NNS','hist'],
    ['over','IN','over'],
    ['the','DT','the'],
    ['notion','NN','not'],
    ['that','IN','that'],
    {
      tag:'PERSON',
      content:
      [
        ['Lincoln','NNP','lincoln']
      ]
    },
    ['was','VBD','be'],
    ['a','DT','a'],
    ['serial','JJ','ser'],
    ['pardoner','NN','pardon'],
    ['.','.','.']
  ]
},
{
  tag:'S',
  content:
  [
    ['This','DT','This'],
    ['is','VBZ','be'],
    ['untrue','JJ','untru'],
    ['-',':','-'],
    {
      tag:'PERSON',
      content:
      [
        ['Lincoln','NNP','lincoln']
      ]
    },
    ['not','RB','not'],
    ['only','RB','on'],
    ['approved','VBD','approv'],
    ['the','DT','the'],
    ['execution','NN','execut'],
    ['of','IN','of'],
    ['deserters','NNS','desert'],
    [',',',',','],
    ['but','CC','but'],
    ['38','CD','38'],
    ['alleged','VBN','alleg'],
    {
      tag:'GPE',
      content:
      [
        ['Indian','JJ','ind']
      ]
    },
    ['raiders','NNS','raid'],
    ['were','VBD','be'],
    ['hanged','VBN','hang'],
    ['by','IN','by'],
    ['his','PRP$','his'],
    ['order','NN','ord'],
    ['in','IN','in'],
    {
      tag:'GPE',
      content:
      [
        ['Mankato','NNP','mankato']
      ]
    },
    [',',',',','],
    ['Minn.','NNP','minn.'],
    ['on','IN','on'],
    ['Dec.','NNP','dec.'],
    ['26','CD','26'],
    [',',',',','],
    ['1862','CD','1862'],
    [',',',',','],
    ['still','RB','stil'],
    ['the','DT','the'],
    ['largest','JJS','larg'],
    ['mass','NN','mass'],
    ['execution','NN','execut'],
    ['on','IN','on'],
    {
      tag:'GPE',
      content:
      [
        ['U.S.','NNP','u.s.']
      ]
    },
    ['soil','NN','soil'],
    ['.','.','.']
  ]
},
{
  tag:'S',
  content:
  [
    ['Meanwhile','RB','meanwhil'],
    [',',',',','],
    {
      tag:'PERSON',
      content:
      [
        ['Lincoln','NNP','lincoln']
      ]
    },
    ['conducted','VBD','conduc'],
    ['the','DT','the'],
    ['bloodiest','JJS','bloody'],
    ['war','NN','war'],
    ['in','IN','in'],
    {
      tag:'GPE',
      content:
      [
        ['American','JJ','am']
      ]
    },
    ['history','NN','hist'],
    ['to','TO','to'],
    ['preserve','VB','preserv'],
    ['the','DT','the'],
    {
      tag:'ORGANIZATION',
      content:
      [
        ['Union','NNP','un']
      ]
    },
    [',',',',','],
    ['authorized','VBD','auth'],
    ['the','DT','the'],
    ['deployment','NN','deploy'],
    ['of','IN','of'],
    ['deadly','RB','dead'],
    ['new','JJ','new'],
    ['weaponry','NN','weaponry'],
    ['such','JJ','such'],
    ['as','IN','as'],
    ['mines','NNS','min'],
    [',',',',','],
    ['ironclad','JJ','ironclad'],
    ['warships','NNS','war'],
    ['and','CC','and'],
    ['niter','NN','nit'],
    ['(',':','('],
    ['a','DT','a'],
    ['19th-century','JJ','19th-century'],
    ['version','NN','vert'],
    ['of','IN','of'],
    ['napalm','NN','napalm'],
    [')',':',')'],
    [',',',',','],
    ['and','CC','and'],
    ['accepted','VBD','acceiv'],
    ['unprecedented','VBN','unprec'],
    ['casualties','NNS','casual'],
    ['for','IN','for'],
    ['his','PRP$','his'],
    ['chosen','NN','chos'],
    ['cause','NN','caus'],
    ['.','.','.']
  ]
},
{
  tag:'S',
  content:
  [
    ['CONTINUED','VBN','continu'],
    ['1','CD','1'],
    ['2','CD','2'],
    ['Next','JJ','next'],
    ['>','NN','>'],
    ['©',':','©'],
    ['2011','CD','2011'],
    ['The','DT','The'],
    {
      tag:'ORGANIZATION',
      content:
      [
        ['Washington','NNP','washington'],
        ['Post','NNP','post']
      ]
    },
    ['Company','NNP','company'],
    {
      tag:'PERSON',
      content:
      [
        ['Network','NNP','network'],
        ['News','NNP','new']
      ]
    },
    ['X','NNP','x'],
    ['My','NNP','my'],
    ['Profile','NNP','profil'],
    ['Friends','NNPS','friend'],
    [''','POS','''],
    ['Activity','NNP','act'],
    ['Most','NNP','most'],
    ['Popular','NNP','popul'],
    ['Twitter','NNP','twit'],
    ['Activity','NNP','act'],
    ['Follow','NNP','follow'],
    ['The','NNP','the'],
    ['Post','NNP','post'],
    [':',':',':'],
    {
      tag:'PERSON',
      content:
      [
        ['Facebook','NNP','facebook'],
        ['Twitter','NNP','twit'],
        ['View','NNP','view'],
        ['More','NNP','mor'],
        ['Activity','NNP','act']
      ]
    }
  ]
}]