[
{
  tag:'S',
  content:
  [
    ['Interaction','NN','interact'],
    ['about','IN','about'],
    ['how','WRB','how'],
    ['to','TO','to'],
    ['contribute','VB','contribut'],
    ['blog','NN','blog'],
    ['feedback','NN','feedback'],
    ['request','NN','request'],
    ['an','DT','an'],
    ['invite','JJ','invit'],
    ['donate','NN','don'],
    ['Artists','NNS','art'],
    ['by','IN','by'],
    ['alphabet','NN','alphabet'],
    ['by','IN','by'],
    ['art','NN','art'],
    ['movement','NN','mov'],
    ['by','IN','by'],
    ['school','NN','school'],
    ['or','CC','or'],
    ['group','NN','group'],
    ['by','IN','by'],
    ['genre','NN','genr'],
    ['by','IN','by'],
    ['nationality','NN','nat'],
    ['by','IN','by'],
    ['century','NN','century'],
    ['popular','JJ','popul'],
    ['Artworks','NNS','artwork'],
    ['by','IN','by'],
    ['style','NN','styl'],
    ['by','IN','by'],
    ['genre','NN','genr'],
    ['by','IN','by'],
    ['technique','NN','techn'],
    ['popular','JJ','popul'],
    ['random','NN','random'],
    ['artwork','NN','artwork'],
    ['donate','NN','don'],
    {
      tag:'PERSON',
      content:
      [
        ['English','NNP','engl'],
        ['English','NNP','engl']
      ]
    },
    ['Español','NNP','español'],
    ['Portuguese','NNP','portugues'],
    ['Русский','NNP','русский'],
    ['Українська','NNP','українська'],
    ['Sign','NNP','sign'],
    ['in','IN','in'],
    {
      tag:'ORGANIZATION',
      content:
      [
        ['HomepageSandro','NNP','homepagesandro']
      ]
    },
    ['BotticelliThe','NNP','botticellith'],
    ['Birth','NNP','bir'],
    ['of','IN','of'],
    {
      tag:'PERSON',
      content:
      [
        ['Venus','NNP','ven'],
        ['The','NNP','the'],
        ['Birth','NNP','bir']
      ]
    },
    ['of','IN','of'],
    {
      tag:'PERSON',
      content:
      [
        ['Venus','NNP','ven'],
        ['Nascita','NNP','nascit']
      ]
    },
    ['di','NN','di'],
    ['Venere','NNP','ven'],
    ['enlarge','NN','enlarg'],
    {
      tag:'PERSON',
      content:
      [
        ['Artist','NNP','art']
      ]
    },
    [':',':',':'],
    {
      tag:'PERSON',
      content:
      [
        ['Sandro','NNP','sandro'],
        ['Botticelli','NNP','botticell']
      ]
    },
    ['Completion','NNP','complet'],
    ['Date','NNP','dat'],
    [':',':',':'],
    ['1485','CD','1485'],
    ['Style','NNP','styl'],
    [':',':',':'],
    ['Early','NNP','ear'],
    ['Renaissance','NNP','renaiss'],
    ['Genre','NNP','genr'],
    [':',':',':'],
    ['mythological','JJ','mytholog'],
    ['painting','NN','paint'],
    {
      tag:'PERSON',
      content:
      [
        ['Technique','NNP','techn']
      ]
    },
    [':',':',':'],
    ['tempera','NN','temper'],
    ['Material','JJ','mat'],
    [':',':',':'],
    ['canvas','NNS','canva'],
    ['Dimensions','NNS','dimend'],
    [':',':',':'],
    ['280','CD','280'],
    ['x','NN','x'],
    ['180','CD','180'],
    ['cm','NN','cm'],
    {
      tag:'PERSON',
      content:
      [
        ['Gallery','NNP','gallery']
      ]
    },
    [':',':',':'],
    {
      tag:'GPE',
      content:
      [
        ['Galleria','NNP','galler']
      ]
    },
    ['degli','NN','degl'],
    {
      tag:'PERSON',
      content:
      [
        ['Uffizi','NNP','uffiz']
      ]
    },
    [',',',',','],
    {
      tag:'GPE',
      content:
      [
        ['Florence','NNP','flor']
      ]
    },
    [',',',',','],
    {
      tag:'GPE',
      content:
      [
        ['Italy','NNP','ita']
      ]
    },
    ['Tags','NNP','tag'],
    [':',':',':'],
    ['Greek-and-Roman-Mythology','JJ','greek-and-roman-mythology'],
    [',',',',','],
    ['gods-and-goddesses','NNS','gods-and-goddesse'],
    [',',',',','],
    ['Aphrodite/Venus','JJ','aphrodite/venus'],
    ['Share','NN','shar'],
    [':',':',':'],
    {
      tag:'PERSON',
      content:
      [
        ['Share','NN','shar']
      ]
    },
    ['on','IN','on'],
    {
      tag:'PERSON',
      content:
      [
        ['Facebook','NNP','facebook'],
        ['Share','NNP','shar']
      ]
    },
    ['on','IN','on'],
    {
      tag:'PERSON',
      content:
      [
        ['Tumblr','NNP','tumblr'],
        ['Share','NNP','shar']
      ]
    },
    ['on','IN','on'],
    ['Twitter','NNP','twit'],
    ['The','NNP','the'],
    ['Birth','NNP','bir'],
    ['of','IN','of'],
    {
      tag:'GPE',
      content:
      [
        ['Venus','NNP','ven']
      ]
    },
    [',',',',','],
    ['one','CD','one'],
    ['of','IN','of'],
    ['the','DT','the'],
    ['most','RBS','most'],
    ['recognized','JJ','recogn'],
    ['paintings','NNS','paint'],
    ['by','IN','by'],
    {
      tag:'PERSON',
      content:
      [
        ['Botticelli','NNP','botticell']
      ]
    },
    [',',',',','],
    ['depicts','VBZ','depict'],
    {
      tag:'PERSON',
      content:
      [
        ['Venus','NNP','ven']
      ]
    },
    [',',',',','],
    ['the','DT','the'],
    ['goddess','NN','goddess'],
    ['of','IN','of'],
    ['love','NN','lov'],
    [',',',',','],
    ['born','NN','born'],
    ['out','IN','out'],
    ['of','IN','of'],
    ['a','DT','a'],
    ['seashell','NN','seashel'],
    [',',',',','],
    ['a','DT','a'],
    ['fully','RB','ful'],
    ['mature','NN','mat'],
    ['woman','NN','wom'],
    ['.','.','.']
  ]
},
{
  tag:'S',
  content:
  [
    ['It','PRP','It'],
    ['is','VBZ','be'],
    ['worthy','JJ','worthy'],
    ['to','TO','to'],
    ['note','VB','not'],
    ['that','IN','that'],
    ['in','IN','in'],
    ['classical','JJ','class'],
    ['times','NNS','tim'],
    [',',',',','],
    ['the','DT','the'],
    ['seashell','NN','seashel'],
    ['was','VBD','be'],
    ['the','DT','the'],
    ['symbol','NN','symbol'],
    ['for','IN','for'],
    ['the','DT','the'],
    ['female','JJ','fem'],
    ['genitalia','NN','genital'],
    [',',',',','],
    ['and','CC','and'],
    ['as','IN','as'],
    ['such','JJ','such'],
    [',',',',','],
    {
      tag:'PERSON',
      content:
      [
        ['Botticelli','NNP','botticell']
      ]
    },
    ['was','VBD','be'],
    ['artfully','RB','art'],
    ['referencing','VBG','ref'],
    ['the','DT','the'],
    ['goddess’s','JJ','goddess’'],
    ['actual','JJ','act'],
    ['birth','NN','bir'],
    ['.','.','.']
  ]
},
{
  tag:'S',
  content:
  [
    ['Although','IN','Although'],
    ['a','DT','a'],
    ['mythical','JJ','myth'],
    ['figure','NN','fig'],
    [',',',',','],
    ['there','EX','there'],
    ['is','VBZ','be'],
    ['no','DT','no'],
    ['exact','JJ','exact'],
    ['literary','JJ','lit'],
    ['context','NN','context'],
    ['depicting','VBG','depict'],
    ['the','DT','the'],
    ['scene','NN','scen'],
    ['painted','VBD','paint'],
    ['by','IN','by'],
    {
      tag:'PERSON',
      content:
      [
        ['Botticelli','NNP','botticell']
      ]
    },
    [',',',',','],
    ['leading','VBG','lead'],
    ['to','TO','to'],
    ['much','RB','much'],
    ['speculation','NN','spec'],
    ['.','.','.']
  ]
},
{
  tag:'S',
  content:
  [
    ['As','IN','As'],
    ['to','TO','to'],
    ['its','PRP$','its'],
    ['commission','NN','commit'],
    [',',',',','],
    ['the','DT','the'],
    ['painting','NN','paint'],
    ['was','VBD','be'],
    ['solicited','VBN','solicit'],
    ['by','IN','by'],
    ['a','DT','a'],
    ['member','NN','memb'],
    ['of','IN','of'],
    ['the','DT','the'],
    {
      tag:'ORGANIZATION',
      content:
      [
        ['Medici','NNP','medic']
      ]
    },
    ['family','NN','famy'],
    [',',',',','],
    ['which','WDT','which'],
    ['is','VBZ','be'],
    ['thought','VBN','think'],
    ['wanted','VBN','want'],
    ['to','TO','to'],
    ['have','VB','hav'],
    ['a','DT','a'],
    ['reproduction','NN','reproduc'],
    ['of','IN','of'],
    ['an','DT','an'],
    ['earlier','JJR','ear'],
    ['work','NN','work'],
    ['by','IN','by'],
    ['a','DT','a'],
    ['different','JJ','diff'],
    ['artist','NN','art'],
    [',',',',','],
    ['which','WDT','which'],
    ['had','VBD','hav'],
    ['been','VBN','be'],
    ['lost','VBN','los'],
    ['after','IN','after'],
    ['the','DT','the'],
    ['rule','NN','rul'],
    ['of','IN','of'],
    {
      tag:'GPE',
      content:
      [
        ['Nero','NNP','nero']
      ]
    },
    ['.','.','.']
  ]
},
{
  tag:'S',
  content:
  [
    {
      tag:'GPE',
      content:
      [
        ['Image','NN','im']
      ]
    },
    ['dimension','NN','dimend'],
    ['500x333px','CD','500x333px'],
    [',',',',','],
    {
      tag:'PERSON',
      content:
      [
        ['View','NNP','view'],
        ['All','NNP','al'],
        ['Sizes','NNP','siz']
      ]
    },
    ['This','NNP','thi'],
    ['artwork','NN','artwork'],
    ['is','VBZ','be'],
    ['in','IN','in'],
    ['the','DT','the'],
    ['public','NN','publ'],
    ['domain','NN','domain'],
    ['.','.','.']
  ]
},
{
  tag:'S',
  content:
  [
    ['Why','WRB','Why'],
    ['?','.','?']
  ]
},
{
  tag:'S',
  content:
  [
    ['All','DT','All'],
    {
      tag:'PERSON',
      content:
      [
        ['Sandro','NNP','sandro'],
        ['Botticelli','NNP','botticell'],
        ['Artworks','NNP','artwork'],
        ['Sorted','NNP','sort']
      ]
    },
    ['by','IN','by'],
    {
      tag:'PERSON',
      content:
      [
        ['Year','NNP','year'],
        ['Adoration','NNP','ad']
      ]
    },
    ['of','IN','of'],
    ['the','DT','the'],
    {
      tag:'ORGANIZATION',
      content:
      [
        ['Magi','NNP','mag']
      ]
    },
    ['-',':','-'],
    {
      tag:'PERSON',
      content:
      [
        ['Sandro','NNP','sandro'],
        ['Botticelli','NNP','botticell'],
        ['Madonna','NNP','madonn']
      ]
    },
    ['and','CC','and'],
    {
      tag:'GPE',
      content:
      [
        ['Child','NNP','child']
      ]
    },
    ['-',':','-'],
    {
      tag:'PERSON',
      content:
      [
        ['Sandro','NNP','sandro'],
        ['Botticelli','NNP','botticell'],
        ['Madonna','NNP','madonn']
      ]
    },
    ['with','IN','with'],
    ['two','CD','two'],
    ['angels','NNS','angel'],
    ['-',':','-'],
    {
      tag:'PERSON',
      content:
      [
        ['Sandro','NNP','sandro'],
        ['Botticelli','NNP','botticell'],
        ['Portrait','NNP','portrait']
      ]
    },
    ['of','IN','of'],
    ['a','DT','a'],
    ['Young','NNP','young'],
    ['Man','NNP','man'],
    ['-',':','-'],
    {
      tag:'PERSON',
      content:
      [
        ['Sandro','NNP','sandro'],
        ['Botticelli','NNP','botticell'],
        ['Virgin','NNP','virgin']
      ]
    },
    ['and','CC','and'],
    ['child','VBD','child'],
    ['with','IN','with'],
    ['two','CD','two'],
    ['angels','NNS','angel'],
    ['-',':','-'],
    {
      tag:'PERSON',
      content:
      [
        ['Sandro','NNP','sandro'],
        ['Botticelli','NNP','botticell'],
        ['Fortitude','NNP','fortitud']
      ]
    },
    ['-',':','-'],
    {
      tag:'PERSON',
      content:
      [
        ['Sandro','NNP','sandro'],
        ['Botticelli','NNP','botticell'],
        ['Madonna','NNP','madonn']
      ]
    },
    ['and','CC','and'],
    {
      tag:'GPE',
      content:
      [
        ['Child','NNP','child']
      ]
    },
    ['-',':','-'],
    {
      tag:'PERSON',
      content:
      [
        ['Sandro','NNP','sandro'],
        ['Botticelli','NNP','botticell'],
        ['Madonna','NNP','madonn']
      ]
    },
    ['and','CC','and'],
    {
      tag:'GPE',
      content:
      [
        ['Child','NNP','child']
      ]
    },
    ['with','IN','with'],
    {
      tag:'PERSON',
      content:
      [
        ['Six','NNP','six'],
        ['Saints','NNP','saint']
      ]
    },
    ['-',':','-'],
    {
      tag:'PERSON',
      content:
      [
        ['Sandro','NNP','sandro'],
        ['Botticelli','NNP','botticell'],
        ['Madonna','NNP','madonn']
      ]
    },
    ['in','IN','in'],
    {
      tag:'GPE',
      content:
      [
        ['Glory','NNP','glory']
      ]
    },
    ['with','IN','with'],
    {
      tag:'GPE',
      content:
      [
        ['Seraphim','NNP','seraphim']
      ]
    },
    ['-',':','-'],
    {
      tag:'PERSON',
      content:
      [
        ['Sandro','NNP','sandro'],
        ['Botticelli','NNP','botticell'],
        ['Madonna','NNP','madonn']
      ]
    },
    ['of','IN','of'],
    ['the','DT','the'],
    {
      tag:'ORGANIZATION',
      content:
      [
        ['Rosegarden','NNP','rosegard']
      ]
    },
    ['-',':','-'],
    {
      tag:'PERSON',
      content:
      [
        ['Sandro','NNP','sandro'],
        ['Botticelli','NNP','botticell'],
        ['The','NNP','the'],
        ['Madonna','NNP','madonn']
      ]
    },
    ['of','IN','of'],
    ['the','DT','the'],
    {
      tag:'ORGANIZATION',
      content:
      [
        ['Roses','NNP','ros']
      ]
    },
    ['-',':','-'],
    {
      tag:'PERSON',
      content:
      [
        ['Sandro','NNP','sandro'],
        ['Botticelli','NNP','botticell'],
        ['The','NNP','the'],
        ['Virgin','NNP','virgin']
      ]
    },
    ['and','CC','and'],
    {
      tag:'GPE',
      content:
      [
        ['Child','NNP','child']
      ]
    },
    ['surrounded','VBD','surround'],
    ['by','IN','by'],
    ['Five','CD','Five'],
    {
      tag:'ORGANIZATION',
      content:
      [
        ['Angels','NNPS','angel']
      ]
    },
    ['-',':','-'],
    {
      tag:'PERSON',
      content:
      [
        ['Sandro','NNP','sandro'],
        ['Botticelli','NNP','botticell'],
        ['Use','NNP','us'],
        ['Full','NNP','ful']
      ]
    },
    ['screen','NN','screen'],
    ['browser','NN','brows'],
    ['mode','NN','mod'],
    ['for','IN','for'],
    ['best','JJS','best'],
    ['experience','NN','expery'],
    ['close','NN','clos'],
    ['Show','NNP','show'],
    ['details','NNS','detail'],
    ['|',':','|'],
    {
      tag:'PERSON',
      content:
      [
        ['Artwork','NNP','artwork'],
        ['Page','NNP','pag']
      ]
    },
    ['|','NNP','|'],
    ['Due','NNP','due'],
    ['to','TO','to'],
    ['copyright','VB','copyright'],
    ['law','NN','law'],
    ['restrictions','NNS','restrict'],
    ['this','DT','this'],
    ['image','NN','im'],
    ['is','VBZ','be'],
    ['not','RB','not'],
    ['available','JJ','avail'],
    ['for','IN','for'],
    ['your','PRP$','your'],
    ['country','NN','country'],
    ['home','NN','hom'],
    ['about','IN','about'],
    ['feedback','NN','feedback'],
    ['blog','NN','blog'],
    ['donate','NN','don'],
    ['WikiPaintings','NNS','wikipaint'],
    ['on','IN','on'],
    {
      tag:'PERSON',
      content:
      [
        ['Twitter','NNP','twit']
      ]
    },
    ['and','CC','and'],
    {
      tag:'ORGANIZATION',
      content:
      [
        ['Facebook','NNP','facebook']
      ]
    }
  ]
}]