[
{
  tag:'S',
  content:
  [
    ['.menu','NN','.menu'],
    ['li','NN','li'],
    ['{',':','{'],
    ['margin-right','JJ','margin-right'],
    [':',':',':'],
    ['12px','CD','12px'],
    ['!','.','!'],
    ['important','JJ','import'],
    [';',':',';'],
    ['}',':','}'],
    {
      tag:'ORGANIZATION',
      content:
      [
        ['NewsBUILD','NNP','newsbuild']
      ]
    },
    ['YOUR','NNP','yo'],
    ['MONEYF1','NNP','moneyf1'],
    ['LIVE','NNP','liv'],
    ['Tech','NNP','tech'],
    {
      tag:'ORGANIZATION',
      content:
      [
        ['NewsPhotosVideoTech','NNP','newsphotosvideotech']
      ]
    },
    ['ToyzTech2','NNP','toyztech2'],
    ['Top','NNP','top'],
    ['StoriesTech2','NNP','storiestech2'],
    ['ReviewsTech2','NNP','reviewstech2'],
    {
      tag:'ORGANIZATION',
      content:
      [
        ['FeaturesTech2','NNP','featurestech2'],
        ['News','NNP','new'],
        ['Ind','NNP','ind']
      ]
    },
    ['vs','VBZ','vs'],
    {
      tag:'PERSON',
      content:
      [
        ['Aus','NNP','au']
      ]
    },
    ['|','NNP','|'],
    ['Latest','NNP','latest'],
    ['|','NNP','|'],
    ['Blogs','NNP','blog'],
    ['|','NNP','|'],
    ['Chat','NNP','chat'],
    ['|','NNP','|'],
    ['Apps','NNP','ap'],
    ['|','NNP','|'],
    ['CJ','NNP','cj'],
    ['PoliticsIndiaSouthMoviesSportsCricketnextFootballF1TechAuto','NNP','politicsindiasouthmoviessportscricketnextfootballf1techauto'],
    ['MORE','NNP','mor'],
    ['TennisSouth','NNP','tennissou'],
    ['CinemaBusinessBuzzWorldBooksHealthForbes','NNP','cinemabusinessbuzzworldbookshealthforb'],
    ['IndiaBlazeAppsTweetsSocial','NNP','indiablazeappstweetssoc'],
    ['TVNewsroom','NNP','tvnewsroom'],
    ['BuzzTalk','NNP','buzztalk'],
    ['BREAKING','NNP','break'],
    ['ibnlive','JJ','ibnl'],
    ['»','NN','»'],
    {
      tag:'PERSON',
      content:
      [
        ['Tech','NNP','tech'],
        ['Tweet','NNP','tweet'],
        ['Share','NNP','shar']
      ]
    },
    ['on','IN','on'],
    {
      tag:'PERSON',
      content:
      [
        ['Tumblr','NNP','tumblr'],
        ['Google','NNP','googl']
      ]
    },
    ['doodles','VBZ','doodl'],
    {
      tag:'PERSON',
      content:
      [
        ['Pierre','NNP','pier']
      ]
    },
    ['de','IN','de'],
    {
      tag:'PERSON',
      content:
      [
        ['Fermat','NNP','ferm']
      ]
    },
    [''s','POS',''s'],
    ['Last','JJ','last'],
    ['Theorem','NNP','theorem'],
    ['on','IN','on'],
    ['his','PRP$','his'],
    ['410th','JJ','410th'],
    ['birth','NN','bir'],
    ['anniversary','NN','annivers'],
    ['ibnlive.com','NN','ibnlive.com'],
    ['|',':','|'],
    {
      tag:'PERSON',
      content:
      [
        ['Updated','NNP','upd'],
        ['Aug','NNP','aug']
      ]
    },
    ['17','CD','17'],
    [',',',',','],
    ['2011','CD','2011'],
    ['at','IN','at'],
    ['11:19pm','CD','11:19pm'],
    {
      tag:'ORGANIZATION',
      content:
      [
        ['IST','NNP','ist'],
        ['Share','NNP','shar']
      ]
    },
    ['.show-share-1002','NNP','.show-share-1002'],
    ['{','NNP','{'],
    ['padding:8px','NNP','padding:8px'],
    ['0px','CD','0px'],
    ['0px','CD','0px'],
    ['0px','CD','0px'],
    [';',':',';'],
    ['}',':','}'],
    ['#','#','#'],
    {
      tag:'ORGANIZATION',
      content:
      [
        ['___plusone_1','NNP','___plusone_1']
      ]
    },
    ['{','NNP','{'],
    ['width:70px','NNP','width:70px'],
    ['!','.','!'],
    ['important','JJ','import'],
    [';',':',';'],
    ['}',':','}'],
    ['.twtifmr','JJ','.twtifmr'],
    ['{','NN','{'],
    ['float','NN','flo'],
    [':',':',':'],
    ['left','VBN','leav'],
    [';',':',';'],
    ['}',':','}'],
    ['.twtifmr','JJ','.twtifmr'],
    ['iframe','NN','ifram'],
    ['{',':','{'],
    ['width:90px','JJ','width:90px'],
    ['!','.','!'],
    ['important','JJ','import'],
    [';',':',';'],
    ['}',':','}'],
    ['.astext','JJ','.astext'],
    ['{','NN','{'],
    ['font:16px','NN','font:16px'],
    [';',':',';'],
    ['font-weight','JJ','font-weight'],
    [':',':',':'],
    ['bold','JJ','bold'],
    [';',':',';'],
    ['line-height:22px','JJ','line-height:22px'],
    [';',':',';'],
    ['padding-bottom','JJ','padding-bottom'],
    [':',':',':'],
    ['10px','CD','10px'],
    ['!','.','!'],
    ['important','JJ','import'],
    ['}','NN','}'],
    ['.astext','JJ','.astext'],
    ['a','DT','a'],
    ['{','NN','{'],
    ['color','NN','col'],
    [':',':',':'],
    ['#','#','#'],
    ['256eac','CD','256eac'],
    ['}','CD','}'],
    ['Tweet','NNP','tweet'],
    ['Share','NNP','shar'],
    ['on','IN','on'],
    {
      tag:'PERSON',
      content:
      [
        ['Tumblr','NNP','tumblr'],
        ['New','NNP','new'],
        ['Delhi','NNP','delh']
      ]
    },
    [':',':',':'],
    ['``','``','``'],
    ['I','PRP','I'],
    ['have','VBP','hav'],
    ['discovered','VBN','discov'],
    ['a','DT','a'],
    ['truly','RB','tru'],
    ['remarkable','JJ','remark'],
    ['proof','NN','proof'],
    ['but','CC','but'],
    ['this','DT','this'],
    ['margin','NN','margin'],
    ['is','VBZ','be'],
    ['too','RB','too'],
    ['small','JJ','smal'],
    ['to','TO','to'],
    ['contain','VB','contain'],
    ['it','PRP','it'],
    [',',',',','],
    ['''','''',''''],
    {
      tag:'PERSON',
      content:
      [
        ['Pierre','NNP','pier']
      ]
    },
    ['de','IN','de'],
    {
      tag:'PERSON',
      content:
      [
        ['Fermat','NNP','ferm']
      ]
    },
    ['famously','RB','fam'],
    ['wrote','VBD','writ'],
    ['on','IN','on'],
    ['the','DT','the'],
    ['margin','NN','margin'],
    ['of','IN','of'],
    ['his','PRP$','his'],
    ['copy','NN','cop'],
    ['of','IN','of'],
    ['the','DT','the'],
    {
      tag:'ORGANIZATION',
      content:
      [
        ['Arithmetica','NNP','arithmetic']
      ]
    },
    ['by','IN','by'],
    {
      tag:'ORGANIZATION',
      content:
      [
        ['Diophantus','NNP','diophant']
      ]
    },
    ['of','IN','of'],
    {
      tag:'GPE',
      content:
      [
        ['Alexandria','NNP','alexandr']
      ]
    },
    ['back','RB','back'],
    ['in','IN','in'],
    ['1637','CD','1637'],
    ['.','.','.']
  ]
},
{
  tag:'S',
  content:
  [
    ['The','DT','The'],
    ['proof','NN','proof'],
    ['the','DT','the'],
    {
      tag:'GPE',
      content:
      [
        ['French','JJ','french']
      ]
    },
    ['mathematician','NN','mathem'],
    ['and','CC','and'],
    ['lawyer','NN','lawy'],
    ['was','VBD','be'],
    ['referring','VBG','ref'],
    ['to','TO','to'],
    ['was','VBD','be'],
    ['for','IN','for'],
    ['his','PRP$','his'],
    ['theorem','NN','theorem'],
    ['in','IN','in'],
    ['which','WDT','which'],
    ['he','PRP','he'],
    ['states','VBZ','stat'],
    ['that','IN','that'],
    ['no','DT','no'],
    ['three','CD','three'],
    ['positive','JJ','posit'],
    ['integers','NNS','integ'],
    ['x','VBP','x'],
    [',',',',','],
    ['y','NN','y'],
    [',',',',','],
    ['and','CC','and'],
    ['z','NN','z'],
    ['can','MD','can'],
    ['satisfy','VB','satisfy'],
    ['the','DT','the'],
    ['equation','NN','equ'],
    ['xn','NN','xn'],
    ['+',':','+'],
    ['yn','NN','yn'],
    ['=',':','='],
    ['zn','NN','zn'],
    ['where','WRB','where'],
    ['n','NN','n'],
    ['is','VBZ','be'],
    ['an','DT','an'],
    ['integer','NN','integ'],
    ['greater','NN','gre'],
    ['than','IN','than'],
    ['two','CD','two'],
    ['.','.','.']
  ]
},
{
  tag:'S',
  content:
  [
    {
      tag:'GPE',
      content:
      [
        ['Fermat','NNP','ferm']
      ]
    },
    [''s','POS',''s'],
    ['Last','JJ','last'],
    ['Theorem','NNP','theorem'],
    [',',',',','],
    ['also','RB','also'],
    ['called','VBN','cal'],
    {
      tag:'PERSON',
      content:
      [
        ['Fermat','NNP','ferm']
      ]
    },
    [''s','POS',''s'],
    ['great','JJ','gre'],
    ['theorem','NN','theorem'],
    [',',',',','],
    ['was','VBD','be'],
    ['his','PRP$','his'],
    ['best','JJS','best'],
    ['known','VBN','know'],
    ['work','NN','work'],
    ['and','CC','and'],
    ['to','TO','to'],
    ['commemorate','VB','commem'],
    ['the','DT','the'],
    ['410th','JJ','410th'],
    ['birth','NN','bir'],
    ['anniversary','NN','annivers'],
    ['of','IN','of'],
    ['the','DT','the'],
    ['founder','NN','found'],
    ['of','IN','of'],
    ['the','DT','the'],
    ['modern','JJ','modern'],
    ['theory','NN','the'],
    ['of','IN','of'],
    ['numbers','NNS','numb'],
    {
      tag:'PERSON',
      content:
      [
        ['Google','NNP','googl']
      ]
    },
    ['has','VBZ','hav'],
    ['put','VBN','put'],
    ['up','RP','up'],
    ['a','DT','a'],
    ['doodle','NN','doodl'],
    ['inspired','VBN','inspir'],
    ['by','IN','by'],
    ['it','PRP','it'],
    ['.','.','.']
  ]
},
{
  tag:'S',
  content:
  [
    ['Instead','RB','instead'],
    ['of','IN','of'],
    ['a','DT','a'],
    ['copy','NN','cop'],
    ['of','IN','of'],
    ['the','DT','the'],
    {
      tag:'ORGANIZATION',
      content:
      [
        ['Arithmetica','NNP','arithmetic']
      ]
    },
    [',',',',','],
    ['the','DT','the'],
    {
      tag:'ORGANIZATION',
      content:
      [
        ['Google','NNP','googl']
      ]
    },
    ['doodle','NN','doodl'],
    ['uses','VBZ','us'],
    ['a','DT','a'],
    ['blackboard','NN','blackboard'],
    ['with','IN','with'],
    ['a','DT','a'],
    ['faintly','RB','faint'],
    ['erased','VBN','eras'],
    {
      tag:'PERSON',
      content:
      [
        ['Google','NNP','googl']
      ]
    },
    ['logo','NN','logo'],
    ['and','CC','and'],
    ['the','DT','the'],
    ['theorem','NN','theorem'],
    ['written','VBN','writ'],
    ['in','IN','in'],
    ['chalk','NN','chalk'],
    ['.','.','.']
  ]
},
{
  tag:'S',
  content:
  [
    ['ALSO','RB','also'],
    ['SEE','VBP','see'],
    ['Meet','NNP','meet'],
    ['the','DT','the'],
    ['people','NNS','peopl'],
    ['behind','IN','behind'],
    ['the','DT','the'],
    {
      tag:'ORGANIZATION',
      content:
      [
        ['Google','NNP','googl']
      ]
    },
    ['doodlesFermat','NNP','doodlesferm'],
    ['lived','VBD','liv'],
    ['for','IN','for'],
    ['about','IN','about'],
    ['three','CD','three'],
    ['decades','NNS','decad'],
    ['after','IN','after'],
    ['he','PRP','he'],
    ['formulated','VBD','form'],
    ['his','PRP$','his'],
    ['famous','JJ','fam'],
    ['theorem','NN','theorem'],
    [',',',',','],
    ['but','CC','but'],
    ['did','VBD','do'],
    ['not','RB','not'],
    ['elaborate','JJ','elab'],
    ['on','IN','on'],
    ['the','DT','the'],
    ['``','``','``'],
    ['truly','RB','tru'],
    ['remarkable','JJ','remark'],
    ['proof','NN','proof'],
    ['.','.','.']
  ]
},
{
  tag:'S',
  content:
  [
    ['``','``','``'],
    ['To','TO','To'],
    ['commemorate','VB','commem'],
    ['the','DT','the'],
    ['410th','JJ','410th'],
    ['birth','NN','bir'],
    ['anniversary','NN','annivers'],
    ['of','IN','of'],
    ['the','DT','the'],
    ['founder','NN','found'],
    ['of','IN','of'],
    ['the','DT','the'],
    ['modern','JJ','modern'],
    ['theory','NN','the'],
    ['of','IN','of'],
    ['numbers','NNS','numb'],
    {
      tag:'PERSON',
      content:
      [
        ['Google','NNP','googl']
      ]
    },
    ['has','VBZ','hav'],
    ['put','VBN','put'],
    ['up','RP','up'],
    ['a','DT','a'],
    ['doodle','NN','doodl'],
    ['inspired','VBN','inspir'],
    ['by','IN','by'],
    {
      tag:'PERSON',
      content:
      [
        ['Fermat','NNP','ferm']
      ]
    },
    [''s','POS',''s'],
    ['Last','JJ','last'],
    ['Theorem','NNP','theorem'],
    ['(','NNP','('],
    ['Screenshot/Google','NNP','screenshot/google'],
    [')','NNP',')'],
    ['It','NNP','it'],
    ['was','VBD','be'],
    ['then','RB','then'],
    ['left','VBN','leav'],
    ['for','IN','for'],
    ['later','JJ','lat'],
    ['day','NN','day'],
    ['mathematicians','NNS','mathem'],
    ['to','TO','to'],
    ['find','VB','find'],
    ['whether','IN','whether'],
    ['the','DT','the'],
    ['theorem','NN','theorem'],
    ['held','VBD','hold'],
    ['true','JJ','tru'],
    ['.','.','.']
  ]
},
{
  tag:'S',
  content:
  [
    ['Mathematicians','NNS','mathem'],
    ['struggled','VBD','struggle'],
    ['with','IN','with'],
    ['the','DT','the'],
    ['theorem','NN','theorem'],
    ['for','IN','for'],
    ['over','IN','over'],
    ['350','CD','350'],
    ['years','NNS','year'],
    ['and','CC','and'],
    ['it','PRP','it'],
    ['was','VBD','be'],
    ['only','RB','on'],
    ['in','IN','in'],
    ['1994','CD','1994'],
    ['that','WDT','that'],
    {
      tag:'PERSON',
      content:
      [
        ['Andrew','NNP','andrew'],
        ['Wiles','NNP','wil']
      ]
    },
    [',',',',','],
    ['a','DT','a'],
    ['professor','NN','profess'],
    ['at','IN','at'],
    {
      tag:'ORGANIZATION',
      content:
      [
        ['Princeton','NNP','princeton'],
        ['University','NNP','univers']
      ]
    },
    [',',',',','],
    ['finally','RB','fin'],
    ['proved','VBD','prov'],
    {
      tag:'PERSON',
      content:
      [
        ['Fermat','NNP','ferm']
      ]
    },
    [''s','POS',''s'],
    ['Last','JJ','last'],
    ['Theorem','NNP','theorem'],
    ['thus','RB','thu'],
    ['bringing','VBG','bring'],
    ['to','TO','to'],
    ['conclusion','NN','conclud'],
    ['one','CD','one'],
    ['of','IN','of'],
    ['the','DT','the'],
    ['most','RBS','most'],
    ['challenging','VBG','challeng'],
    ['problems','NNS','problem'],
    ['in','IN','in'],
    ['mathematics','NNS','mathem'],
    ['.','.','.']
  ]
},
{
  tag:'S',
  content:
  [
    ['ALSO','RB','also'],
    ['SEE','VBP','see'],
    {
      tag:'GPE',
      content:
      [
        ['Google','NNP','googl']
      ]
    },
    ['doodles','NNS','doodl'],
    {
      tag:'GPE',
      content:
      [
        ['India','NNP','ind']
      ]
    },
    [''s','POS',''s'],
    ['65th','JJ','65th'],
    ['Independence','NNP','independ'],
    ['DayGoogle','NNP','daygoogl'],
    ['also','RB','also'],
    ['does','VBZ','do'],
    ['a','DT','a'],
    ['little','RB','littl'],
    ['spin-off','JJ','spin-off'],
    ['on','IN','on'],
    {
      tag:'PERSON',
      content:
      [
        ['Fermat','NNP','ferm']
      ]
    },
    [''s','POS',''s'],
    ['famous','JJ','fam'],
    ['words','NNS','word'],
    ['and','CC','and'],
    ['notes','NNS','not'],
    ['in','IN','in'],
    ['the','DT','the'],
    ['alt','NN','alt'],
    ['and','CC','and'],
    ['title','NN','titl'],
    ['text','NN','text'],
    ['of','IN','of'],
    ['the','DT','the'],
    ['doodle','NN','doodl'],
    ['(',':','('],
    ['that','IN','that'],
    ['is','VBZ','be'],
    ['readable','JJ','read'],
    ['when','WRB','when'],
    ['a','DT','a'],
    ['user','NN','us'],
    ['hovers','NNS','hov'],
    ['the','DT','the'],
    ['cursor','NN','curs'],
    ['over','IN','over'],
    ['the','DT','the'],
    ['image','NN','im'],
    [')',':',')'],
    ['``','``','``'],
    ['I','PRP','I'],
    ['have','VBP','hav'],
    ['discovered','VBN','discov'],
    ['a','DT','a'],
    ['truly','RB','tru'],
    ['marvellous','JJ','marvel'],
    ['proof','IN','proof'],
    ['of','IN','of'],
    ['this','DT','this'],
    ['theorem','NN','theorem'],
    [',',',',','],
    ['which','WDT','which'],
    ['this','DT','this'],
    ['doodle','NN','doodl'],
    ['is','VBZ','be'],
    ['too','RB','too'],
    ['small','JJ','smal'],
    ['to','TO','to'],
    ['contain','VB','contain'],
    ['.','.','.']
  ]
},
{
  tag:'S',
  content:
  [
    ['``','``','``'],
    {
      tag:'PERSON',
      content:
      [
        ['Pierre','NNP','pier']
      ]
    },
    ['de','IN','de'],
    {
      tag:'PERSON',
      content:
      [
        ['Fermat','NNP','ferm']
      ]
    },
    ['was','VBD','be'],
    ['born','VBN','bear'],
    ['on','IN','on'],
    ['August','NNP','august'],
    ['17','CD','17'],
    [',',',',','],
    ['1601','CD','1601'],
    ['.','.','.']
  ]
},
{
  tag:'S',
  content:
  [
    ['His','PRP$','His'],
    ['father','NN','fath'],
    ['was','VBD','be'],
    ['a','DT','a'],
    ['wealthy','JJ','wealthy'],
    {
      tag:'GPE',
      content:
      [
        ['French','JJ','french']
      ]
    },
    ['businessman','NN','businessm'],
    ['.','.','.']
  ]
},
{
  tag:'S',
  content:
  [
    ['There','EX','There'],
    ['is','VBZ','be'],
    ['little','JJ','littl'],
    ['information','NN','inform'],
    ['about','IN','about'],
    ['his','PRP$','his'],
    ['early','JJ','ear'],
    ['education','NN','educ'],
    [',',',',','],
    ['but','CC','but'],
    ['he','PRP','he'],
    ['is','VBZ','be'],
    ['believed','VBN','believ'],
    ['to','TO','to'],
    ['have','VB','hav'],
    ['studied','VBN','study'],
    ['law','NN','law'],
    ['at','IN','at'],
    {
      tag:'ORGANIZATION',
      content:
      [
        ['Toulouse','NNP','toul']
      ]
    },
    ['and','CC','and'],
    {
      tag:'GPE',
      content:
      [
        ['Bordeaux','NNP','bordeaux']
      ]
    },
    ['.','.','.']
  ]
},
{
  tag:'S',
  content:
  [
    ['He','PRP','He'],
    ['developed','VBD','develop'],
    ['an','DT','an'],
    ['interest','NN','interest'],
    ['in','IN','in'],
    ['languages','NNS','langu'],
    [',',',',','],
    ['literature','NN','lit'],
    [',',',',','],
    ['science','NN','sci'],
    ['and','CC','and'],
    ['mathematics','NN','mathem'],
    ['.','.','.']
  ]
},
{
  tag:'S',
  content:
  [
    ['After','IN','After'],
    ['receiving','VBG','receiv'],
    ['a','DT','a'],
    ['degree','NN','degr'],
    ['in','IN','in'],
    ['law','NN','law'],
    ['from','IN','from'],
    ['the','DT','the'],
    {
      tag:'ORGANIZATION',
      content:
      [
        ['University','NNP','univers']
      ]
    },
    ['of','IN','of'],
    {
      tag:'GPE',
      content:
      [
        ['Orleans','NNP','orl']
      ]
    },
    ['in','IN','in'],
    ['1631','CD','1631'],
    ['he','PRP','he'],
    ['started','VBD','start'],
    ['his','PRP$','his'],
    ['legal','JJ','leg'],
    ['career','NN','car'],
    ['and','CC','and'],
    ['a','DT','a'],
    ['few','JJ','few'],
    ['years','NNS','year'],
    ['later','RBR','lat'],
    ['changed','VBD','chang'],
    ['his','PRP$','his'],
    ['name','NN','nam'],
    ['from','IN','from'],
    {
      tag:'PERSON',
      content:
      [
        ['Pierre','NNP','pier'],
        ['Fermat','NNP','ferm']
      ]
    },
    ['to','TO','to'],
    {
      tag:'PERSON',
      content:
      [
        ['Pierre','NNP','pier']
      ]
    },
    ['de','IN','de'],
    {
      tag:'GPE',
      content:
      [
        ['Fermat','NNP','ferm']
      ]
    },
    ['.','.','.']
  ]
},
{
  tag:'S',
  content:
  [
    ['ALSO','RB','also'],
    ['SEE','VBP','see'],
    {
      tag:'PERSON',
      content:
      [
        ['Google','NNP','googl']
      ]
    },
    ['doodle','NN','doodl'],
    ['goes','VBZ','go'],
    ['mobile','JJ','mobl'],
    ['for','IN','for'],
    {
      tag:'PERSON',
      content:
      [
        ['Alexander','NNP','alexand'],
        ['Calder','NNP','cald']
      ]
    },
    [''s','POS',''s'],
    ['113th','JJ','113th'],
    {
      tag:'ORGANIZATION',
      content:
      [
        ['birthdayBecause','NNP','birthdaybecaus'],
        ['Fermat','NNP','ferm']
      ]
    },
    ['did','VBD','do'],
    ['not','RB','not'],
    ['spread','VB','spread'],
    ['his','PRP$','his'],
    ['work','NN','work'],
    ['through','IN','through'],
    ['books','NNS','book'],
    ['and','CC','and'],
    ['journals','NNS','journ'],
    ['and','CC','and'],
    ['he','PRP','he'],
    ['often','RB','oft'],
    ['did','VBD','do'],
    ['not','RB','not'],
    ['provide','VB','provid'],
    ['any','DT','any'],
    ['proof','NN','proof'],
    ['for','IN','for'],
    ['his','PRP$','his'],
    ['theorems','NNS','theorem'],
    ['he','PRP','he'],
    ['was','VBD','be'],
    ['referred','VBN','ref'],
    ['to','TO','to'],
    ['as','RB','as'],
    ['an','DT','an'],
    [''amateur','JJ',''amateur'],
    [''','''','''],
    ['mathematician','JJ','mathem'],
    [',',',',','],
    ['but','CC','but'],
    ['at','IN','at'],
    ['the','DT','the'],
    ['same','JJ','sam'],
    ['time','NN','tim'],
    {
      tag:'PERSON',
      content:
      [
        ['Fermat','NNP','ferm']
      ]
    },
    ['is','VBZ','be'],
    ['also','RB','also'],
    ['considered','VBN','consid'],
    ['to','TO','to'],
    ['be','VB','be'],
    ['one','CD','one'],
    ['of','IN','of'],
    ['the','DT','the'],
    ['two','CD','two'],
    ['(','CD','('],
    ['the','DT','the'],
    ['other','JJ','oth'],
    ['being','VBG','be'],
    {
      tag:'PERSON',
      content:
      [
        ['Rene','NNP','ren'],
        ['Descartes','NNP','descart']
      ]
    },
    [')','NNP',')'],
    ['leading','VBG','lead'],
    ['mathematicians','NNS','mathem'],
    ['of','IN','of'],
    ['the','DT','the'],
    ['first','JJ','first'],
    ['half','DT','half'],
    ['of','IN','of'],
    ['the','DT','the'],
    ['17th','JJ','17th'],
    ['century','NN','century'],
    ['.','.','.']
  ]
},
{
  tag:'S',
  content:
  [
    {
      tag:'PERSON',
      content:
      [
        ['Pierre','NNP','pier']
      ]
    },
    ['de','IN','de'],
    {
      tag:'PERSON',
      content:
      [
        ['Fermat','NNP','ferm']
      ]
    },
    ['died','VBD','die'],
    ['at','IN','at'],
    ['the','DT','the'],
    ['age','NN','ag'],
    ['of','IN','of'],
    ['63','CD','63'],
    ['on','IN','on'],
    ['January','NNP','janu'],
    ['12','CD','12'],
    [',',',',','],
    ['1665','CD','1665'],
    ['at','IN','at'],
    {
      tag:'ORGANIZATION',
      content:
      [
        ['Castres','NNP','cast']
      ]
    },
    [',',',',','],
    {
      tag:'GPE',
      content:
      [
        ['France','NNP','frant']
      ]
    },
    ['.','.','.']
  ]
},
{
  tag:'S',
  content:
  [
    ['ALSO','RB','also'],
    ['SEE','VBP','see'],
    {
      tag:'GPE',
      content:
      [
        ['Google','NNP','googl']
      ]
    },
    ['doodles','NNS','doodl'],
    ['father','VBP','fath'],
    ['of','IN','of'],
    ['genetics','NNS','genet'],
    {
      tag:'PERSON',
      content:
      [
        ['Gregor','NNP','greg'],
        ['Mendel','NNP','mendel']
      ]
    },
    [''s','POS',''s'],
    ['189th','JJ','189th'],
    {
      tag:'ORGANIZATION',
      content:
      [
        ['birthdayGoogle','NNP','birthdaygoogl']
      ]
    },
    ['doodles','NNS','doodl'],
    ['have','VBP','hav'],
    ['gained','VBN','gain'],
    ['immense','NN','immens'],
    ['popularity','NN','popul'],
    ['over','IN','over'],
    ['the','DT','the'],
    ['past','JJ','past'],
    ['few','JJ','few'],
    ['years','NNS','year'],
    ['and','CC','and'],
    ['the','DT','the'],
    {
      tag:'ORGANIZATION',
      content:
      [
        ['Google','NNP','googl']
      ]
    },
    ['team','NN','team'],
    ['has','VBZ','hav'],
    ['put','VBN','put'],
    ['out','RP','out'],
    ['commemorative','JJ','commem'],
    ['doodles','NNS','doodl'],
    ['on','IN','on'],
    ['events','NNS','ev'],
    ['ranging','VBG','rang'],
    ['from','IN','from'],
    ['news','NN','new'],
    ['events','NNS','ev'],
    [',',',',','],
    ['civic','JJ','civ'],
    ['milestones','NNS','mileston'],
    [',',',',','],
    ['birthdays','NNS','birthday'],
    [',',',',','],
    ['death','NN','dea'],
    ['anniversaries','NNS','annivers'],
    ['and','CC','and'],
    ['important','JJ','import'],
    ['dates','NNS','dat'],
    ['in','IN','in'],
    ['history','NN','hist'],
    ['.','.','.']
  ]
},
{
  tag:'S',
  content:
  [
    {
      tag:'GPE',
      content:
      [
        ['Google','NNP','googl']
      ]
    },
    ['estimates','VBZ','estim'],
    ['it','PRP','it'],
    ['has','VBZ','hav'],
    ['created','VBN','cre'],
    ['more','JJR','mor'],
    ['than','IN','than'],
    ['900','CD','900'],
    ['doodles','NNS','doodl'],
    ['since','IN','since'],
    ['1998','CD','1998'],
    [',',',',','],
    ['with','IN','with'],
    ['270','CD','270'],
    ['of','IN','of'],
    ['them','PRP','them'],
    ['running','VBG','run'],
    ['in','IN','in'],
    ['2010','CD','2010'],
    ['and','CC','and'],
    ['more','JJR','mor'],
    ['than','IN','than'],
    ['150','CD','150'],
    ['in','IN','in'],
    ['2011.ALSO','CD','2011.ALSO'],
    {
      tag:'ORGANIZATION',
      content:
      [
        ['SEE','NNP','see'],
        ['Google','NNP','googl']
      ]
    },
    ['doodle','NN','doodl'],
    ['marks','VBZ','mark'],
    ['the','DT','the'],
    ['450th','JJ','450th'],
    ['anniversary','NN','annivers'],
    ['of','IN','of'],
    {
      tag:'PERSON',
      content:
      [
        ['Saint','NNP','saint'],
        ['Basil','NNP','basil']
      ]
    },
    [''s','POS',''s'],
    {
      tag:'ORGANIZATION',
      content:
      [
        ['Cathedral','NNP','cathedr']
      ]
    },
    ['<','NNP','<'],
    ['b','NN','b'],
    ['>',':','>'],
    ['A','DT','A'],
    {
      tag:'GPE',
      content:
      [
        ['French','JJ','french']
      ]
    },
    ['postage','NN','post'],
    ['stamp','NN','stamp'],
    ['on','IN','on'],
    {
      tag:'PERSON',
      content:
      [
        ['Pierre','NNP','pier']
      ]
    },
    ['de','IN','de'],
    {
      tag:'PERSON',
      content:
      [
        ['Fermat','NNP','ferm']
      ]
    },
    [''s','POS',''s'],
    ['400th','JJ','400th'],
    ['birth','NN','bir'],
    ['anniversary','NN','annivers'],
    ['<',':','<'],
    ['/b','JJ','/b'],
    ['>','NN','>'],
    ['<',':','<'],
    ['br','NN','br'],
    ['>',':','>'],
    ['<',':','<'],
    ['br','NN','br'],
    ['>',':','>'],
    ['<',':','<'],
    ['img','NN','img'],
    ['src=','-NONE-','src='],
    ['''','''',''''],
    ['http','NN','http'],
    [':',':',':'],
    ['//static.ibnlive.com/pix/sitepix/08_2011/pierre-de-fermet-stamp-170811.jpg','JJ','//static.ibnlive.com/pix/sitepix/08_2011/pierre-de-fermet-stamp-170811.jpg'],
    ['''','''',''''],
    ['alt=','NNP','alt='],
    ['''','''',''''],
    {
      tag:'GPE',
      content:
      [
        ['French','NNP','french']
      ]
    },
    ['postage','NN','post'],
    ['stamp','NN','stamp'],
    ['on','IN','on'],
    {
      tag:'PERSON',
      content:
      [
        ['Pierre','NNP','pier']
      ]
    },
    ['de','IN','de'],
    {
      tag:'PERSON',
      content:
      [
        ['Fermat','NNP','ferm']
      ]
    },
    [''s','POS',''s'],
    ['400th','JJ','400th'],
    ['birth','NN','bir'],
    ['anniversary','NN','annivers'],
    ['''','''',''''],
    ['with=','NNP','with='],
    ['''','''',''''],
    ['550','CD','550'],
    ['''','''',''''],
    ['height=','NNP','height='],
    ['''','''',''''],
    ['367','CD','367'],
    ['''','''',''''],
    ['>','CD','>'],
    ['Share','NNP','shar'],
    ['#','#','#'],
    {
      tag:'PERSON',
      content:
      [
        ['Pierre','NNP','pier']
      ]
    },
    ['de','IN','de'],
    {
      tag:'PERSON',
      content:
      [
        ['Fermat','NNP','ferm']
      ]
    },
    ['#','#','#'],
    ['Google','NNP','googl'],
    ['#','#','#'],
    ['Google','NNP','googl'],
    ['doodle','NN','doodl']
  ]
}]