[
{
  tag:'S',
  content:
  [
    {
      tag:'GPE',
      content:
      [
        ['Skip','NNP','skip']
      ]
    },
    ['to','TO','to'],
    ['main','VB','main'],
    ['content','NN','cont'],
    ['A','DT','A'],
    ['&','CC','&'],
    {
      tag:'ORGANIZATION',
      content:
      [
        ['ENewsLifeLeisureSportsTechVideo','NNP','enewslifeleisuresportstechvideo'],
        ['Facebook','NNP','facebook']
      ]
    },
    ['Twitter','NNP','twit'],
    ['Google+','NNP','google+'],
    ['Search','NNP','search'],
    ['Login/logout','NNP','login/logout'],
    ['Arts','NNP','art'],
    ['&','CC','&'],
    {
      tag:'ORGANIZATION',
      content:
      [
        ['Entertainment','NNP','entertain'],
        ['Music','NNP','mus']
      ]
    },
    ['Former','NNP','form'],
    ['Eurovision','NNP','eurovid'],
    ['winner','NN','win'],
    ['Loreen','NNP','loreen'],
    ['performs','NNS','perform'],
    [''We','JJ',''we'],
    ['Got','NNP','got'],
    ['the','DT','the'],
    {
      tag:'ORGANIZATION',
      content:
      [
        ['Power','NNP','pow']
      ]
    },
    [''','POS','''],
    ['on','IN','on'],
    ['show','NN','show'],
    ['finale','NN','fin'],
    {
      tag:'ORGANIZATION',
      content:
      [
        ['Comment','NNP','com'],
        ['Share','NNP','shar'],
        ['Facebook','NNP','facebook']
      ]
    },
    ['Twitter','NNP','twit'],
    ['Google+','NNP','google+'],
    ['Email','NNP','email'],
    ['Print','NNP','print'],
    ['See','NNP','see'],
    ['alsorock','NN','alsorock'],
    ['and','CC','and'],
    ['pop','VB','pop'],
    ['pop','NN','pop'],
    {
      tag:'PERSON',
      content:
      [
        ['Eurovision','NNP','eurovid'],
        ['Music','NNP','mus'],
        ['Music','NNP','mus'],
        ['News','NNP','new']
      ]
    },
    ['PlayLoreen','NNP','playloreen'],
    ['``','``','``'],
    ['We','PRP','We'],
    ['Got','NNP','got'],
    ['the','DT','the'],
    ['Power','NNP','pow'],
    ['''','''',''''],
    ['(',':','('],
    {
      tag:'GPE',
      content:
      [
        ['Loreen','NNP','loreen']
      ]
    },
    [')',':',')'],
    {
      tag:'PERSON',
      content:
      [
        ['Lucas','NNP','luca'],
        ['VillaAnaheim','NNP','villaanaheim'],
        ['Music','NNP','mus'],
        ['Examiner','NNP','examin'],
        ['Subscribe','NNP','subscrib'],
        ['Follow','NNP','follow']
      ]
    },
    [':',':',':'],
    {
      tag:'PERSON',
      content:
      [
        ['Related','NNP','rel'],
        ['Photo','NNP','photo']
      ]
    },
    [':',':',':'],
    {
      tag:'PERSON',
      content:
      [
        ['Loreen','NNP','loreen'],
        ['Loreen','NNP','loreen']
      ]
    },
    ['.','.','.']
  ]
},
{
  tag:'S',
  content:
  [
    {
      tag:'PERSON',
      content:
      [
        ['Loreen','NNP','loreen']
      ]
    },
    ['Advertisement','NNP','advert'],
    ['May','NNP','may'],
    ['19','CD','19'],
    [',',',',','],
    ['2013','CD','2013'],
    {
      tag:'GPE',
      content:
      [
        ['Swedish','NNP','swed']
      ]
    },
    ['artist','NN','art'],
    {
      tag:'PERSON',
      content:
      [
        ['Loreen','NNP','loreen']
      ]
    },
    ['won','VBD','win'],
    ['2012','CD','2012'],
    [''s','POS',''s'],
    ['Eurovision','NNP','eurovid'],
    ['contest','NN','contest'],
    ['with','IN','with'],
    ['her','PRP$','her'],
    ['stirring','NN','stir'],
    ['performance','NN','perform'],
    ['of','IN','of'],
    ['“Euphoria”','JJ','“euphoria”'],
    ['and','CC','and'],
    ['now','RB','now'],
    [',',',',','],
    ['a','DT','a'],
    ['year','NN','year'],
    ['later','JJ','lat'],
    [',',',',','],
    ['the','DT','the'],
    ['singer','NN','sing'],
    ['premiered','VBD','premy'],
    ['a','DT','a'],
    ['new','JJ','new'],
    ['song','JJ','song'],
    ['live','JJ','liv'],
    ['.','.','.']
  ]
},
{
  tag:'S',
  content:
  [
    ['During','IN','During'],
    ['Saturday','NNP','saturday'],
    [''s','POS',''s'],
    ['results','NNS','result'],
    [',',',',','],
    {
      tag:'PERSON',
      content:
      [
        ['Loreen','NNP','loreen']
      ]
    },
    ['did','VBD','do'],
    ['a','DT','a'],
    ['live','JJ','liv'],
    ['rendition','NN','rendit'],
    ['of','IN','of'],
    ['her','PRP$','her'],
    ['single','JJ','singl'],
    [',',',',','],
    ['“We','JJ','“we'],
    ['Got','NNP','got'],
    ['the','DT','the'],
    ['Power.”','NNP','power.”'],
    ['With','NNP','with'],
    ['so','RB','so'],
    ['many','JJ','many'],
    {
      tag:'GPE',
      content:
      [
        ['European','JJ','europ']
      ]
    },
    ['countries','NNS','country'],
    ['vying','VBG','vie'],
    ['to','TO','to'],
    ['win','VB','win'],
    ['this','DT','this'],
    ['year','NN','year'],
    [''s','POS',''s'],
    ['Eurovision','NNP','eurovid'],
    ['contest','NN','contest'],
    [',',',',','],
    {
      tag:'PERSON',
      content:
      [
        ['Loreen','NNP','loreen']
      ]
    },
    ['took','VBD','tak'],
    ['to','TO','to'],
    ['the','DT','the'],
    ['stage','NN','stag'],
    ['and','CC','and'],
    ['pretty','RB','pretty'],
    ['much','RB','much'],
    ['upstaged','VBN','upst'],
    ['the','DT','the'],
    ['competition','NN','competit'],
    ['with','IN','with'],
    ['her','PRP$','her'],
    ['performance','NN','perform'],
    ['.','.','.']
  ]
},
{
  tag:'S',
  content:
  [
    ['She','PRP','She'],
    ['won','VBD','win'],
    ['last','JJ','last'],
    ['year','NN','year'],
    ['with','IN','with'],
    ['“Euphoria”','JJ','“euphoria”'],
    ['and','CC','and'],
    ['the','DT','the'],
    ['singer','NN','sing'],
    ['did','VBD','do'],
    ['another','DT','another'],
    ['eye-catching','NN','eye-catching'],
    ['rendition','NN','rendit'],
    ['of','IN','of'],
    ['her','PRP$','her'],
    ['single','JJ','singl'],
    ['“We','NN','“we'],
    ['Got','NNP','got'],
    ['the','DT','the'],
    ['Power.”','NNP','power.”'],
    ['She','NNP','she'],
    ['took','VBD','tak'],
    ['to','TO','to'],
    ['the','DT','the'],
    ['stage','NN','stag'],
    ['with','IN','with'],
    ['a','DT','a'],
    ['white','JJ','whit'],
    ['dress','NN','dress'],
    ['that','WDT','that'],
    ['came','VBD','com'],
    ['equipped','VBD','equip'],
    ['with','IN','with'],
    ['feather','NN','feath'],
    ['shoulders','NNS','should'],
    ['during','IN','during'],
    ['the','DT','the'],
    ['pop','NN','pop'],
    ['anthem','NN','anthem'],
    [''s','POS',''s'],
    ['performance','NN','perform'],
    ['.','.','.']
  ]
},
{
  tag:'S',
  content:
  [
    {
      tag:'PERSON',
      content:
      [
        ['Loreen','NNP','loreen']
      ]
    },
    ['crawled','VBD','crawl'],
    ['along','IN','along'],
    ['the','DT','the'],
    ['stage','NN','stag'],
    ['while','IN','while'],
    ['dancers','NNS','dant'],
    ['backed','VBN','back'],
    ['her','PRP','her'],
    ['up','RP','up'],
    ['.','.','.']
  ]
},
{
  tag:'S',
  content:
  [
    ['An','DT','An'],
    ['interpolation','NN','interpol'],
    ['of','IN','of'],
    ['“Euphoria”','NNP','“euphoria”'],
    ['later','JJ','lat'],
    ['happened','VBD','hap'],
    ['that','IN','that'],
    ['served','VBN','serv'],
    ['as','IN','as'],
    ['a','DT','a'],
    ['reminder','NN','remind'],
    ['for','IN','for'],
    ['why','WRB','why'],
    {
      tag:'PERSON',
      content:
      [
        ['Loreen','NNP','loreen']
      ]
    },
    ['won','VBD','win'],
    ['last','JJ','last'],
    ['year','NN','year'],
    ['.','.','.']
  ]
},
{
  tag:'S',
  content:
  [
    ['“We','JJ','“we'],
    ['Got','NNP','got'],
    ['the','DT','the'],
    ['Power”','NNP','power”'],
    ['is','VBZ','be'],
    ['the','DT','the'],
    ['latest','JJS','lat'],
    ['single','JJ','singl'],
    ['from','IN','from'],
    {
      tag:'GPE',
      content:
      [
        ['Loreen','NNP','loreen']
      ]
    },
    [''s','POS',''s'],
    ['new','JJ','new'],
    ['album','NN','alb'],
    ['.','.','.']
  ]
},
{
  tag:'S',
  content:
  [
    ['Her','PRP$','Her'],
    ['“Heal”','NN','“heal”'],
    ['record','NN','record'],
    ['fared','VBD','far'],
    ['successful','JJ','success'],
    ['with','IN','with'],
    ['the','DT','the'],
    ['single','JJ','singl'],
    ['“Euphoria”','NN','“euphoria”'],
    ['and','CC','and'],
    ['the','DT','the'],
    ['other','JJ','oth'],
    ['ones','NNS','on'],
    ['that','IN','that'],
    ['followed','VBD','follow'],
    ['.','.','.']
  ]
},
{
  tag:'S',
  content:
  [
    ['In','IN','In'],
    ['terms','NNS','term'],
    ['of','IN','of'],
    ['2013','CD','2013'],
    [''s','POS',''s'],
    ['winner','NN','win'],
    [',',',',','],
    {
      tag:'PERSON',
      content:
      [
        ['Emmelie','NNP','em']
      ]
    },
    ['de','IN','de'],
    {
      tag:'GPE',
      content:
      [
        ['Forest','NNP','forest']
      ]
    },
    [''s','POS',''s'],
    ['“Only','JJ','“only'],
    ['Teardrops”','NN','teardrops”'],
    ['took','VBD','tak'],
    ['the','DT','the'],
    ['top','JJ','top'],
    ['prize','NN','priz'],
    ['for','IN','for'],
    {
      tag:'PERSON',
      content:
      [
        ['Denmark','NNP','denmark']
      ]
    },
    ['.','.','.']
  ]
},
{
  tag:'S',
  content:
  [
    ['For','IN','For'],
    ['e-mail','JJ','e-mail'],
    ['updates','NNS','upd'],
    ['whenever','RB','whenev'],
    ['a','DT','a'],
    ['new','JJ','new'],
    ['article','NN','artic'],
    ['is','VBZ','be'],
    ['posted','VBN','post'],
    [',',',',','],
    ['please','NN','pleas'],
    ['subscribe','NN','subscrib'],
    ['at','IN','at'],
    ['the','DT','the'],
    ['top','JJ','top'],
    ['of','IN','of'],
    ['the','DT','the'],
    ['page','NN','pag'],
    [';',':',';'],
    ['also','RB','also'],
    ['follow','VBP','follow'],
    ['me','PRP','me'],
    ['on','IN','on'],
    {
      tag:'PERSON',
      content:
      [
        ['Twitter','NNP','twit']
      ]
    },
    ['@','NNP','@'],
    ['MyPrerogative15','NNP','myprerogative15'],
    ['.','.','.']
  ]
},
{
  tag:'S',
  content:
  [
    {
      tag:'GPE',
      content:
      [
        ['Suggested','NNP','suggest']
      ]
    },
    ['by','IN','by'],
    ['the','DT','the'],
    ['author','NN','auth'],
    {
      tag:'PERSON',
      content:
      [
        ['Kanye','NNP','kany'],
        ['West','NNP','west']
      ]
    },
    ['premieres','VBZ','premy'],
    [''New','JJ',''new'],
    ['Slaves','NNS','slav'],
    [''','POS','''],
    ['single','JJ','singl'],
    ['and','CC','and'],
    ['video','NN','video'],
    ['via','IN','via'],
    ['building','NN','build'],
    ['projections','NNS','project'],
    {
      tag:'PERSON',
      content:
      [
        ['Jennifer','NNP','jen'],
        ['Lopez','NNP','lopez']
      ]
    },
    ['works','VBZ','work'],
    ['a','DT','a'],
    {
      tag:'GPE',
      content:
      [
        ['Paris','NNP','par']
      ]
    },
    ['runway','NN','runway'],
    ['in','IN','in'],
    [''Live','JJ',''live'],
    ['It','PRP','It'],
    ['Up','NNP','up'],
    [''','POS','''],
    ['music','NN','mus'],
    ['video','NN','video'],
    ['with','IN','with'],
    {
      tag:'PERSON',
      content:
      [
        ['Pitbull','NNP','pitbul'],
        ['Listen','NNP','list']
      ]
    },
    [':',':',':'],
    {
      tag:'PERSON',
      content:
      [
        ['Britney','NNP','britney'],
        ['Spears','NNP','spear']
      ]
    },
    [''','POS','''],
    [''Ooh','JJ',''ooh'],
    ['La','NNP','la'],
    ['La','NNP','la'],
    [''','POS','''],
    ['from','IN','from'],
    [''Smurfs','NNP',''smurfs'],
    ['2','CD','2'],
    [''','POS','''],
    ['makes','NNS','mak'],
    ['an','DT','an'],
    ['early','JJ','ear'],
    ['debut','NN','debut'],
    ['online','NN','onlin'],
    [''American','JJ',''american'],
    ['Idol','NNP','idol'],
    [''','''','''],
    [':',':',':'],
    ['Candice','NNP','cand'],
    ['Glover','NNP','glov'],
    ['wins','VBZ','win'],
    ['and','CC','and'],
    ['performs','NNS','perform'],
    ['debut','CC','debut'],
    ['single','JJ','singl'],
    [''I','NN',''i'],
    ['Am','NNP','am'],
    ['Beautiful','NNP','beauty'],
    [''','POS','''],
    {
      tag:'PERSON',
      content:
      [
        ['Mariah','NNP','mariah'],
        ['Carey','NNP','carey']
      ]
    },
    ['performs','VBZ','perform'],
    ['medley','NN','medley'],
    ['of','IN','of'],
    ['hits','NNS','hit'],
    ['on','IN','on'],
    [''American','JJ',''american'],
    ['Idol','NNP','idol'],
    [''','''','''],
    ['finale','NN','fin'],
    ['Report','NNP','report'],
    ['this','DT','this'],
    ['content','NN','cont'],
    ['Comments','VBZ','com'],
    ['Advertisement','NNP','advert'],
    ['Next','NNP','next'],
    ['article','NN','artic'],
    {
      tag:'PERSON',
      content:
      [
        ['Lady','NNP','lady'],
        ['Gaga','NNP','gag']
      ]
    },
    ['appears','VBZ','appear'],
    ['desperate','JJ','desp'],
    ['to','TO','to'],
    ['sell','VB','sel'],
    {
      tag:'ORGANIZATION',
      content:
      [
        ['ARTPOP','NNP','artpop']
      ]
    },
    ['with','IN','with'],
    [''special','JJ',''special'],
    [''','''','''],
    ['limited','VBN','limit'],
    ['...',':','...'],
    ['Related','NNP','rel'],
    ['slideshow','NN','slideshow'],
    {
      tag:'PERSON',
      content:
      [
        ['Frank','NNP','frank'],
        ['Turner','NNP','turn']
      ]
    },
    ['and','CC','and'],
    ['The','DT','The'],
    ['Sleeping','NNP','sleep'],
    ['Souls','NNP','soul'],
    ['in','IN','in'],
    ['Denver','NNP','denv'],
    ['12','CD','12'],
    {
      tag:'PERSON',
      content:
      [
        ['Photos','NNP','photo'],
        ['Advertisement','NNP','advert'],
        ['Popular','NNP','popul']
      ]
    },
    ['in','IN','in'],
    {
      tag:'GPE',
      content:
      [
        ['Music','NNP','mus']
      ]
    },
    {
      tag:'PERSON',
      content:
      [
        ['Carrie','NNP','carry'],
        ['Underwood','NNP','underwood']
      ]
    },
    ['joins','VBZ','join'],
    {
      tag:'PERSON',
      content:
      [
        ['Willie','NNP','wil'],
        ['Nelson','NNP','nelson']
      ]
    },
    ['on','IN','on'],
    [''Always','NNS',''always'],
    ['On','IN','On'],
    ['My','NNP','my'],
    ['Mind','NNP','mind'],
    [''','POS','''],
    ['remake','NN','remak'],
    {
      tag:'PERSON',
      content:
      [
        ['Julian','NNP','jul'],
        ['Lennon','NNP','lennon']
      ]
    },
    ['spices','NNS','spic'],
    ['up','IN','up'],
    ['“Everything','JJ','“everything'],
    ['Changes”','NN','changes”'],
    ['with','IN','with'],
    ['new','JJ','new'],
    ['songs','NNS','song'],
    [',',',',','],
    {
      tag:'PERSON',
      content:
      [
        ['Steven','NNP','stev'],
        ['Tyler','NNP','tyl']
      ]
    },
    [',',',',','],
    ['pt','VBD','pt'],
    ['.','.','.']
  ]
},
{
  tag:'S',
  content:
  [
    ['2','LS','2'],
    {
      tag:'ORGANIZATION',
      content:
      [
        ['GWAR','NNP','gwar']
      ]
    },
    ['begin','NN','begin'],
    ['``','``','``'],
    {
      tag:'PERSON',
      content:
      [
        ['Madness','NNP','mad'],
        ['At','NNP','at']
      ]
    },
    ['the','DT','the'],
    {
      tag:'ORGANIZATION',
      content:
      [
        ['Core','NNP','cor']
      ]
    },
    ['of','IN','of'],
    ['Time','NNP','tim'],
    ['''','''',''''],
    ['tour','PRP$','tour'],
    ['at','IN','at'],
    ['the','DT','the'],
    ['historic','JJ','hist'],
    {
      tag:'ORGANIZATION',
      content:
      [
        ['Newport','NNP','newport'],
        ['Music','NNP','mus'],
        ['Hall','NNP','hal']
      ]
    },
    ['Listen','NNP','list'],
    [':',':',':'],
    {
      tag:'PERSON',
      content:
      [
        ['Katy','NNP','katy'],
        ['Perry','NNP','perry']
      ]
    },
    ['previews','VBZ','preview'],
    ['new','JJ','new'],
    ['songs','NNS','song'],
    [''Unconditionally','RB',''unconditionally'],
    [''','''','''],
    ['and','CC','and'],
    [''Double','JJ',''double'],
    ['Rainbow'','NN','rainbow''],
    ['Another','DT','Another'],
    ['new','JJ','new'],
    ['version','NN','vert'],
    ['of','IN','of'],
    {
      tag:'PERSON',
      content:
      [
        ['Paul','NNP','paul'],
        ['McCartney','NNP','mccartney']
      ]
    },
    [''s','POS',''s'],
    [''New','JJ',''new'],
    [''','''','''],
    ['you','PRP','you'],
    [''ll','MD',''ll'],
    ['need','VB','nee'],
    ['to','TO','to'],
    ['buy','VB','buy'],
    {
      tag:'ORGANIZATION',
      content:
      [
        ['Load','NNP','load']
      ]
    },
    ['more','RBR','mor'],
    {
      tag:'GPE',
      content:
      [
        ['Latest','NNP','latest']
      ]
    },
    ['in','IN','in'],
    {
      tag:'GPE',
      content:
      [
        ['Music','NNP','mus']
      ]
    },
    ['October','NNP','octob'],
    ['16','CD','16'],
    [',',',',','],
    ['2013','CD','2013'],
    {
      tag:'GPE',
      content:
      [
        ['Shania','NNP','shan'],
        ['Twain','NNP','twain']
      ]
    },
    ['extends','VBZ','extend'],
    {
      tag:'PERSON',
      content:
      [
        ['Vegas','NNP','vega']
      ]
    },
    ['run','NN','run'],
    ['October','NNP','octob'],
    ['16','CD','16'],
    [',',',',','],
    ['2013','CD','2013'],
    ['Morrissey','NNP','morrissey'],
    ['looks','NNS','look'],
    ['back','RB','back'],
    ['25','CD','25'],
    ['years','NNS','year'],
    ['on','IN','on'],
    ['new','JJ','new'],
    ['concert','NN','concert'],
    {
      tag:'ORGANIZATION',
      content:
      [
        ['DVD','NNP','dvd']
      ]
    },
    ['October','NNP','octob'],
    ['16','CD','16'],
    [',',',',','],
    ['2013','CD','2013'],
    {
      tag:'PERSON',
      content:
      [
        ['Frank','NNP','frank'],
        ['Sinatra','NNP','sinatr']
      ]
    },
    [':',':',':'],
    {
      tag:'PERSON',
      content:
      [
        ['Greatest','NNP','greatest'],
        ['Entertainer','NNP','entertain']
      ]
    },
    ['of','IN','of'],
    ['the','DT','the'],
    ['20th','JJ','20th'],
    {
      tag:'ORGANIZATION',
      content:
      [
        ['Century','NNP','century']
      ]
    },
    ['October','NNP','octob'],
    ['16','CD','16'],
    [',',',',','],
    ['2013','CD','2013'],
    ['Saving','NNP','sav'],
    ['Abel’s','NNP','abel’s'],
    ['Jared','NNP','jar'],
    ['Weeks','NNP','week'],
    ['adds','VBZ','ad'],
    ['energy','NN','energy'],
    ['to','TO','to'],
    {
      tag:'GPE',
      content:
      [
        ['Hinder','NNP','hind']
      ]
    },
    ['concert','NN','concert'],
    ['October','NNP','octob'],
    ['16','CD','16'],
    [',',',',','],
    ['2013','CD','2013'],
    {
      tag:'PERSON',
      content:
      [
        ['Patrick','NNP','patrick'],
        ['D.','NNP','d.'],
        ['McCoy','NNP','mccoy']
      ]
    },
    ['installed','VBD','inst'],
    ['as','IN','as'],
    ['music','JJ','mus'],
    ['director','NN','direct'],
    ['of','IN','of'],
    {
      tag:'GPE',
      content:
      [
        ['Washington','NNP','washington']
      ]
    },
    [''s','POS',''s'],
    {
      tag:'ORGANIZATION',
      content:
      [
        ['Trinity','NNP','trin'],
        ['Church','NNP','church'],
        ['Load','NNP','load']
      ]
    },
    ['more','JJR','mor'],
    ['Popular','JJ','popul'],
    ['in','IN','in'],
    {
      tag:'GPE',
      content:
      [
        ['National','NNP','nat']
      ]
    }
  ]
}]