[
{
  tag:'S',
  content:
  [
    ['Try','NNP','try'],
    ['a','DT','a'],
    {
      tag:'ORGANIZATION',
      content:
      [
        ['Digital','NNP','digit'],
        ['Subscription','NNP','subscrib']
      ]
    },
    ['campaign','NN','campaign'],
    [':',':',':'],
    ['inyt2013_bar1_hp_ros_digi_3KXQQ','NNP','inyt2013_bar1_hp_ros_digi_3kxqq'],
    ['--',':','--'],
    ['227471','CD','227471'],
    [',',',',','],
    ['creative','JJ','cre'],
    [':',':',':'],
    ['bar1_ros_inyt_hp_digi_3KXQQ','NNP','bar1_ros_inyt_hp_digi_3kxqq'],
    ['--',':','--'],
    ['351672','CD','351672'],
    [',',',',','],
    ['page','NN','pag'],
    [':',':',':'],
    ['www.nytimes.com/yr/mo/day/arts/dance/twyla-tharps-the-princess-and-the-goblin.html','JJ','www.nytimes.com/yr/mo/day/arts/dance/twyla-tharps-the-princess-and-the-goblin.html'],
    [',',',',','],
    ['targetedPage','NNP','targetedp'],
    [':',':',':'],
    ['www.nytimes.com/yr/mo/day/arts/dance','JJ','www.nytimes.com/yr/mo/day/arts/dance'],
    [',',',',','],
    ['position','NN','posit'],
    [':',':',':'],
    {
      tag:'ORGANIZATION',
      content:
      [
        ['Bar1','NNP','bar1'],
        ['Log','NNP','log']
      ]
    },
    ['In','NNP','in'],
    ['Register','NNP','reg'],
    ['Now','NNP','now'],
    ['Help','NNP','help'],
    ['Home','NNP','hom'],
    ['Page','NNP','pag'],
    ['Today','NNP','today'],
    [''s','POS',''s'],
    {
      tag:'PERSON',
      content:
      [
        ['Paper','NNP','pap'],
        ['Video','NNP','video'],
        ['Most','NNP','most'],
        ['Popular','NNP','popul']
      ]
    },
    ['Edition','NNP','edit'],
    [':',':',':'],
    {
      tag:'GPE',
      content:
      [
        ['U.S.','NNP','u.s.']
      ]
    },
    ['/',':','/'],
    {
      tag:'PERSON',
      content:
      [
        ['Global','NNP','glob'],
        ['Search','NNP','search'],
        ['All','NNP','al']
      ]
    },
    ['NYTimes.com','NNP','nytimes.com'],
    ['Dance','NNP','dant'],
    ['World','NNP','world'],
    {
      tag:'GPE',
      content:
      [
        ['U.S.','NNP','u.s.']
      ]
    },
    ['N.Y.','NNP','n.y.'],
    ['/','NNP','/'],
    ['Region','NNP','reg'],
    ['Business','NNP','busy'],
    ['Technology','NNP','technolog'],
    ['Science','NNP','sci'],
    ['Health','NNP','heal'],
    ['Sports','NNP','sport'],
    ['Opinion','NNP','opin'],
    ['Arts','NNP','art'],
    ['Art','NNP','art'],
    ['&','CC','&'],
    {
      tag:'ORGANIZATION',
      content:
      [
        ['DesignBooksDanceMoviesMusicTelevisionTheaterVideo','NNP','designbooksdancemoviesmusictelevisiontheatervideo']
      ]
    },
    ['GamesEvents','NNP','gamesev'],
    ['Style','NNP','styl'],
    {
      tag:'PERSON',
      content:
      [
        ['Travel','NNP','travel'],
        ['Jobs','NNP','job'],
        ['Real','NNP','real'],
        ['Estate','NNP','est'],
        ['Autos','NNP','auto'],
        ['Dance','NNP','dant'],
        ['Review','NNP','review'],
        ['Toe','NNP','toe'],
        ['Shoes','NNP','sho']
      ]
    },
    ['That','NNP','that'],
    {
      tag:'PERSON',
      content:
      [
        ['Carry','NNP','carry']
      ]
    },
    ['a','DT','a'],
    ['Princess','NNP','princess'],
    ['to','TO','to'],
    ['Victory‘Twyla','NNP','victory‘twyla'],
    ['Tharp’s','NNP','tharp’s'],
    ['The','NNP','the'],
    {
      tag:'ORGANIZATION',
      content:
      [
        ['Princess','NNP','princess']
      ]
    },
    ['and','CC','and'],
    ['the','DT','the'],
    ['Goblin’','NNP','goblin’'],
    {
      tag:'PERSON',
      content:
      [
        ['Kim','NNP','kim'],
        ['Kenney/Courtesy','NNP','kenney/courtesy']
      ]
    },
    ['of','IN','of'],
    {
      tag:'PERSON',
      content:
      [
        ['Atlanta','NNP','atlant'],
        ['Ballet','NNP','ballet'],
        ['Alessa','NNP','aless'],
        ['Rogers','NNP','rog']
      ]
    },
    [',',',',','],
    ['above','IN','above'],
    ['center','NN','cent'],
    [',',',',','],
    ['as','IN','as'],
    {
      tag:'ORGANIZATION',
      content:
      [
        ['Princess','NNP','princess'],
        ['Irene','NNP','ir']
      ]
    },
    ['in','IN','in'],
    ['“Twyla','NNP','“twyla'],
    ['Tharp','NNP','tharp'],
    [''s','POS',''s'],
    ['The','NNP','the'],
    {
      tag:'ORGANIZATION',
      content:
      [
        ['Princess','NNP','princess']
      ]
    },
    ['and','CC','and'],
    ['the','DT','the'],
    {
      tag:'GPE',
      content:
      [
        ['Goblin','NNP','goblin']
      ]
    },
    [',',',',','],
    ['”','NNP','”'],
    ['a','DT','a'],
    ['retelling','NN','retel'],
    ['of','IN','of'],
    ['a','DT','a'],
    ['19th-century','JJ','19th-century'],
    ['fable','JJ','fabl'],
    ['.','.','.']
  ]
},
{
  tag:'S',
  content:
  [
    ['By','IN','By'],
    {
      tag:'ORGANIZATION',
      content:
      [
        ['BRIAN','NNP','bri']
      ]
    },
    ['SEIBERT','NNP','seibert'],
    ['Published','NNP','publ'],
    [':',':',':'],
    ['February','NNP','febru'],
    ['12','CD','12'],
    [',',',',','],
    ['2012','CD','2012'],
    {
      tag:'ORGANIZATION',
      content:
      [
        ['ATLANTA','NNP','atlant']
      ]
    },
    ['—','NNP','—'],
    ['“The','NNP','“the'],
    ['Princess','NNP','princess'],
    ['and','CC','and'],
    ['the','DT','the'],
    {
      tag:'GPE',
      content:
      [
        ['Goblin','NNP','goblin']
      ]
    },
    [',',',',','],
    ['”','NNP','”'],
    ['a','DT','a'],
    ['fantastical','JJ','fantast'],
    ['story','NN','story'],
    ['that','WDT','that'],
    {
      tag:'PERSON',
      content:
      [
        ['George','NNP','georg'],
        ['MacDonald','NNP','macdonald']
      ]
    },
    ['published','VBD','publ'],
    ['in','IN','in'],
    ['1872','CD','1872'],
    [',',',',','],
    ['is','VBZ','be'],
    ['the','DT','the'],
    ['kind','NN','kind'],
    ['of','IN','of'],
    ['children’s','JJ','children’s'],
    ['literature','NN','lit'],
    ['that','WDT','that'],
    ['adults','NNS','adult'],
    ['can','MD','can'],
    ['read','VB','read'],
    ['with','IN','with'],
    ['pleasure','NN','pleas'],
    ['.','.','.']
  ]
},
{
  tag:'S',
  content:
  [
    ['Enchanting','VBG','ench'],
    ['and','CC','and'],
    ['funny','JJ','funny'],
    [',',',',','],
    ['it’s','JJ','it’s'],
    ['laced','VBN','lac'],
    ['with','IN','with'],
    ['sharp','JJ','sharp'],
    ['wisdom','NN','wisdom'],
    [',',',',','],
    ['moral','JJ','mor'],
    ['without','IN','without'],
    ['being','VBG','be'],
    ['moralistic','JJ','mor'],
    ['.','.','.']
  ]
},
{
  tag:'S',
  content:
  [
    ['The','DT','The'],
    ['8-year-old','JJ','8-year-old'],
    ['heroine','NN','heroin'],
    ['is','VBZ','be'],
    ['brave','JJ','brav'],
    ['and','CC','and'],
    ['good','JJ','good'],
    ['and','CC','and'],
    ['yet','RB','yet'],
    ['not','RB','not'],
    ['dull','JJ','dul'],
    ['.','.','.']
  ]
},
{
  tag:'S',
  content:
  [
    {
      tag:'GPE',
      content:
      [
        ['Multimedia','NNP','multimed']
      ]
    },
    [''The','NNP',''the'],
    ['Princess','NNP','princess'],
    ['and','CC','and'],
    ['the','DT','the'],
    ['Goblin'','NNP','goblin''],
    [''The','NNP',''the'],
    ['Princess','NNP','princess'],
    ['and','CC','and'],
    ['the','DT','the'],
    ['Goblin'','NNP','goblin''],
    ['Close','NNP','clos'],
    ['Video','NNP','video'],
    ['See','NNP','see'],
    ['More','NNP','mor'],
    {
      tag:'PERSON',
      content:
      [
        ['Videos','NNP','video']
      ]
    },
    ['»','NNP','»'],
    ['Related','NNP','rel'],
    ['Times','NNP','tim'],
    ['Topic','NNP','top'],
    [':',':',':'],
    {
      tag:'PERSON',
      content:
      [
        ['Twyla','NNP','twyl'],
        ['Tharp','NNP','tharp'],
        ['Connect','NNP','connect'],
        ['With','NNP','with'],
        ['Us','NNP','us']
      ]
    },
    ['on','IN','on'],
    {
      tag:'PERSON',
      content:
      [
        ['Twitter','NNP','twit'],
        ['Follow','NNP','follow']
      ]
    },
    ['@','NNP','@'],
    ['nytimesarts','NNS','nytimesart'],
    ['for','IN','for'],
    ['arts','NNS','art'],
    ['and','CC','and'],
    ['entertainment','NN','entertain'],
    ['news','NN','new'],
    ['.','.','.']
  ]
},
{
  tag:'S',
  content:
  [
    ['Arts','NNS','art'],
    {
      tag:'PERSON',
      content:
      [
        ['Twitter','NNP','twit'],
        ['List','NNP','list']
      ]
    },
    [':',':',':'],
    ['Critics','NNP','crit'],
    [',',',',','],
    {
      tag:'ORGANIZATION',
      content:
      [
        ['Reporters','NNP','report']
      ]
    },
    ['and','CC','and'],
    ['Editors','NNP','edit'],
    ['A','DT','A'],
    ['sortable','JJ','sort'],
    ['calendar','NN','calend'],
    ['of','IN','of'],
    ['noteworthy','JJ','noteworthy'],
    ['cultural','JJ','cult'],
    ['events','NNS','ev'],
    ['in','IN','in'],
    ['the','DT','the'],
    {
      tag:'GPE',
      content:
      [
        ['New','NNP','new'],
        ['York','NNP','york']
      ]
    },
    ['region','NN','reg'],
    [',',',',','],
    ['selected','VBN','select'],
    ['by','IN','by'],
    {
      tag:'ORGANIZATION',
      content:
      [
        ['Times','NNP','tim']
      ]
    },
    ['critics','NNS','crit'],
    ['.','.','.']
  ]
},
{
  tag:'S',
  content:
  [
    ['Go','NNP','go'],
    ['to','TO','to'],
    ['Event','NNP','ev'],
    ['Listings','NNP','list'],
    ['»','NNP','»'],
    {
      tag:'PERSON',
      content:
      [
        ['Enlarge','NNP','enlarg'],
        ['This','NNP','thi'],
        ['Image','NNP','im']
      ]
    },
    {
      tag:'PERSON',
      content:
      [
        ['Kim','NNP','kim'],
        ['Kenney/Courtesy','NNP','kenney/courtesy']
      ]
    },
    ['of','IN','of'],
    {
      tag:'PERSON',
      content:
      [
        ['Atlanta','NNP','atlant'],
        ['Ballet','NNP','ballet'],
        ['Christine','NNP','christine'],
        ['Winkler','NNP','winkl']
      ]
    },
    ['as','IN','as'],
    {
      tag:'ORGANIZATION',
      content:
      [
        ['Princess','NNP','princess'],
        ['Irene','NNP','ir']
      ]
    },
    [''s','POS',''s'],
    ['great-great-grandmother','JJ','great-great-grandmother'],
    ['in','IN','in'],
    ['“Twyla','NNP','“twyla'],
    ['Tharp','NNP','tharp'],
    [''s','POS',''s'],
    ['The','NNP','the'],
    {
      tag:'ORGANIZATION',
      content:
      [
        ['Princess','NNP','princess']
      ]
    },
    ['and','CC','and'],
    ['the','DT','the'],
    ['Goblin.”','NNP','goblin.”'],
    ['Twyla','NNP','twyl'],
    ['Tharp’s','NNP','tharp’s'],
    ['new','JJ','new'],
    ['ballet','NN','ballet'],
    ['shares','NNS','shar'],
    ['some','DT','some'],
    ['of','IN','of'],
    ['that','DT','that'],
    ['story','NN','story'],
    ['and','CC','and'],
    ['some','DT','some'],
    ['of','IN','of'],
    ['those','DT','those'],
    ['virtues','NNS','virtu'],
    ['.','.','.']
  ]
},
{
  tag:'S',
  content:
  [
    ['It’s','NNS','it’s'],
    ['partly','RB','part'],
    ['a','DT','a'],
    ['marketing','NN','market'],
    ['ploy','NN','ploy'],
    ['that','WDT','that'],
    ['the','DT','the'],
    ['ballet’s','NNP','ballet’s'],
    ['full','JJ','ful'],
    ['title','NN','titl'],
    ['—',':','—'],
    ['“Twyla','NN','“twyla'],
    ['Tharp’s','NNS','tharp’s'],
    ['The','DT','The'],
    {
      tag:'ORGANIZATION',
      content:
      [
        ['Princess','NNP','princess']
      ]
    },
    ['and','CC','and'],
    ['the','DT','the'],
    ['Goblin”—','NNP','goblin”—'],
    ['includes','VBZ','includ'],
    ['the','DT','the'],
    ['name','NN','nam'],
    ['of','IN','of'],
    ['this','DT','this'],
    ['eminent','NN','emin'],
    ['choreographer','NN','choreograph'],
    [',',',',','],
    ['whom','WP','whom'],
    ['the','DT','the'],
    {
      tag:'ORGANIZATION',
      content:
      [
        ['Atlanta','NNP','atlant'],
        ['Ballet','NNP','ballet']
      ]
    },
    ['and','CC','and'],
    {
      tag:'PERSON',
      content:
      [
        ['Royal','NNP','roy'],
        ['Winnipeg','NNP','winnipeg'],
        ['Ballet','NNP','ballet']
      ]
    },
    ['jointly','RB','joint'],
    ['commissioned','VBD','commit'],
    ['.','.','.']
  ]
},
{
  tag:'S',
  content:
  [
    ['But','CC','But'],
    ['the','DT','the'],
    ['title','NN','titl'],
    ['is','VBZ','be'],
    ['also','RB','also'],
    ['accurate','JJ','acc'],
    ['.','.','.']
  ]
},
{
  tag:'S',
  content:
  [
    ['This','DT','This'],
    ['imperfect','NN','imperfect'],
    ['work','NN','work'],
    [',',',',','],
    ['which','WDT','which'],
    ['had','VBD','hav'],
    ['its','PRP$','its'],
    ['world','NN','world'],
    ['premiere','NN','premy'],
    ['by','IN','by'],
    ['the','DT','the'],
    {
      tag:'GPE',
      content:
      [
        ['Atlanta','NNP','atlant']
      ]
    },
    ['company','NN','company'],
    ['at','IN','at'],
    ['the','DT','the'],
    {
      tag:'ORGANIZATION',
      content:
      [
        ['Cobb','NNP','cob'],
        ['Energy','NNP','energy'],
        ['Performing','NNP','perform'],
        ['Arts','NNP','art']
      ]
    },
    ['Center','NNP','cent'],
    ['here','RB','her'],
    ['on','IN','on'],
    ['Friday','NNP','friday'],
    [',',',',','],
    ['is','VBZ','be'],
    ['very','RB','very'],
    ['much','JJ','much'],
    ['Ms.','NNP','ms.'],
    ['Tharp’s','NNP','tharp’s'],
    ['version','NN','vert'],
    ['.','.','.']
  ]
},
{
  tag:'S',
  content:
  [
    ['She','PRP','She'],
    ['has','VBZ','hav'],
    ['retained','VBN','retain'],
    ['the','DT','the'],
    ['royal','JJ','roy'],
    ['heroine','NN','heroin'],
    [',',',',','],
    {
      tag:'GPE',
      content:
      [
        ['Irene','NNP','ir']
      ]
    },
    [',',',',','],
    ['as','IN','as'],
    ['well','RB','wel'],
    ['as','IN','as'],
    ['the','DT','the'],
    ['goblin','NN','goblin'],
    ['foes','VBZ','foe'],
    ['and','CC','and'],
    ['their','PRP$','their'],
    ['sensitive','JJ','sensit'],
    ['feet','NNS','foot'],
    ['.','.','.']
  ]
},
{
  tag:'S',
  content:
  [
    ['This','DT','This'],
    ['Irene','NNP','ir'],
    ['still','RB','stil'],
    ['gets','VBZ','get'],
    ['help','NN','help'],
    ['from','IN','from'],
    ['a','DT','a'],
    ['commoner','NN','common'],
    ['boy','NN','boy'],
    [',',',',','],
    {
      tag:'PERSON',
      content:
      [
        ['Curdie','NNP','curdy']
      ]
    },
    [',',',',','],
    ['and','CC','and'],
    ['supernatural','JJ','supern'],
    ['assistance','NN','assist'],
    ['from','IN','from'],
    ['her','PRP$','her'],
    ['great-great-grandmother','JJ','great-great-grandmother'],
    ['.','.','.']
  ]
},
{
  tag:'S',
  content:
  [
    ['But','CC','But'],
    [',',',',','],
    ['unlike','IN','unlike'],
    ['MacDonald’s','JJ','macdonald’s'],
    ['Irene','NNP','ir'],
    [',',',',','],
    ['here','RB','her'],
    ['she','PRP','she'],
    ['also','RB','also'],
    ['has','VBZ','hav'],
    ['two','CD','two'],
    ['younger','JJR','young'],
    ['sisters','NNS','sist'],
    [',',',',','],
    ['who','WP','who'],
    ['are','VBP','be'],
    ['abducted','VBN','abduc'],
    ['by','IN','by'],
    ['the','DT','the'],
    ['goblins','NNS','goblin'],
    [',',',',','],
    ['along','IN','along'],
    ['with','IN','with'],
    ['other','JJ','oth'],
    ['children','NNS','child'],
    ['.','.','.']
  ]
},
{
  tag:'S',
  content:
  [
    ['Since','IN','Since'],
    ['Irene’s','JJ','irene’s'],
    ['father','NN','fath'],
    [',',',',','],
    ['King','NNP','king'],
    ['Papa','NNP','pap'],
    [',',',',','],
    ['is','VBZ','be'],
    ['too','RB','too'],
    ['self-absorbed','JJ','self-absorbed'],
    ['to','TO','to'],
    ['notice','NN','not'],
    [',',',',','],
    ['it','PRP','it'],
    ['is','VBZ','be'],
    ['up','RP','up'],
    ['to','TO','to'],
    {
      tag:'GPE',
      content:
      [
        ['Irene','NNP','ir']
      ]
    },
    ['and','CC','and'],
    {
      tag:'PERSON',
      content:
      [
        ['Curdie','NNP','curdy']
      ]
    },
    ['to','TO','to'],
    ['rescue','VB','rescu'],
    ['them','PRP','them'],
    ['.','.','.']
  ]
},
{
  tag:'S',
  content:
  [
    ['In','IN','In'],
    ['MacDonald’s','JJ','macdonald’s'],
    ['story','NN','story'],
    ['the','DT','the'],
    ['great-great','JJ','great-gre'],
    ['grandmother','NN','grandmoth'],
    ['spins','NNS','spin'],
    ['an','DT','an'],
    ['invisible','JJ','invis'],
    ['thread','NN','thread'],
    [';',':',';'],
    ['in','IN','in'],
    ['Ms.','NNP','ms.'],
    ['Tharp’s','NNP','tharp’s'],
    [',',',',','],
    ['she','PRP','she'],
    ['simply','RB','simply'],
    ['spins','VBZ','spin'],
    ['.','.','.']
  ]
},
{
  tag:'S',
  content:
  [
    ['Which','WDT','Which'],
    ['is','VBZ','be'],
    ['to','TO','to'],
    ['say','VB','say'],
    ['that','IN','that'],
    ['Ms.','NNP','ms.'],
    ['Tharp','NNP','tharp'],
    [',',',',','],
    ['more','JJR','mor'],
    ['than','IN','than'],
    ['just','RB','just'],
    ['altering','VBG','alt'],
    ['the','DT','the'],
    ['plot','NN','plot'],
    [',',',',','],
    ['has','VBZ','hav'],
    ['translated','VBN','transl'],
    ['the','DT','the'],
    ['story','NN','story'],
    ['into','IN','into'],
    ['ballet','NN','ballet'],
    ['terms','NNS','term'],
    ['.','.','.']
  ]
},
{
  tag:'S',
  content:
  [
    ['As','IN','As'],
    {
      tag:'PERSON',
      content:
      [
        ['Richard','NNP','richard']
      ]
    },
    ['Burke’s','NNP','burke’s'],
    ['score','NN','scor'],
    ['skillfully','RB','skil'],
    ['stitches','VBZ','stitch'],
    ['together','RB','togeth'],
    {
      tag:'ORGANIZATION',
      content:
      [
        ['Schubert','NNP','schubert']
      ]
    },
    ['compositions','NNS','composit'],
    ['and','CC','and'],
    ['his','PRP$','his'],
    ['own','JJ','own'],
    ['modern','NN','modern'],
    ['music','NN','mus'],
    [',',',',','],
    ['Ms.','NNP','ms.'],
    ['Tharp','NNP','tharp'],
    ['defies','VBZ','defy'],
    [',',',',','],
    ['teases','NNS','teas'],
    ['and','CC','and'],
    ['embraces','NNS','embrac'],
    ['19th-century','CD','19th-century'],
    ['ballet','NN','ballet'],
    ['conventions','NNS','conv'],
    ['.','.','.']
  ]
},
{
  tag:'S',
  content:
  [
    ['The','DT','The'],
    ['great-great-grandmother','JJ','great-great-grandmother'],
    ['spins','NNS','spin'],
    ['en','VBP','en'],
    ['pointe','JJ','point'],
    ['.','.','.']
  ]
},
{
  tag:'S',
  content:
  [
    ['The','DT','The'],
    ['magic','JJ','mag'],
    ['she','PRP','she'],
    ['passes','VBZ','pass'],
    ['down','RP','down'],
    ['is','VBZ','be'],
    ['concentrated','VBN','cont'],
    ['in','IN','in'],
    ['toe','NN','toe'],
    ['shoes','VBZ','sho'],
    [',',',',','],
    ['which','WDT','which'],
    ['she','PRP','she'],
    ['teaches','VBZ','teach'],
    {
      tag:'PERSON',
      content:
      [
        ['Irene','NNP','ir']
      ]
    },
    ['how','WRB','how'],
    ['to','TO','to'],
    ['use','VB','us'],
    ['in','IN','in'],
    ['a','DT','a'],
    ['scene','NN','scen'],
    ['backed','VBN','back'],
    ['by','IN','by'],
    ['a','DT','a'],
    ['corps','NNS','corp'],
    ['of','IN','of'],
    ['women','NNS','wom'],
    ['in','IN','in'],
    ['white','JJ','whit'],
    [',',',',','],
    ['a','DT','a'],
    ['traditional','JJ','tradit'],
    ['ballet','NN','ballet'],
    ['blanc','NN','blant'],
    ['.','.','.']
  ]
},
{
  tag:'S',
  content:
  [
    ['Earlier','JJR','ear'],
    ['she','PRP','she'],
    ['teaches','VBZ','teach'],
    ['her','PRP$','her'],
    ['great-great-granddaughter','JJ','great-great-granddaughter'],
    ['an','DT','an'],
    ['ancestral','JJ','ancest'],
    ['talisman','NN','tal'],
    ['of','IN','of'],
    ['a','DT','a'],
    ['step','NN','step'],
    [',',',',','],
    ['based','VBN','bas'],
    ['around','IN','around'],
    ['the','DT','the'],
    ['pointing','NN','point'],
    ['of','IN','of'],
    ['feet','NN','foot'],
    ['.','.','.']
  ]
},
{
  tag:'S',
  content:
  [
    ['But','CC','But'],
    ['the','DT','the'],
    ['shoes','NNS','sho'],
    ['are','VBP','be'],
    ['crucial','JJ','cruc'],
    ['.','.','.']
  ]
},
{
  tag:'S',
  content:
  [
    ['For','IN','For'],
    {
      tag:'PERSON',
      content:
      [
        ['Irene','NNP','ir']
      ]
    },
    ['they’re','JJ','they’re'],
    ['not','RB','not'],
    ['only','RB','on'],
    ['a','DT','a'],
    ['means','NNS','mean'],
    ['of','IN','of'],
    ['spiritual','JJ','spirit'],
    ['lightness','NN','light'],
    ['and','CC','and'],
    ['elevation','NN','elev'],
    [';',':',';'],
    ['they’re','JJ','they’re'],
    ['also','RB','also'],
    ['weapons','NNS','weapon'],
    ['.','.','.']
  ]
},
{
  tag:'S',
  content:
  [
    {
      tag:'GPE',
      content:
      [
        ['Quite','NNP','quit']
      ]
    },
    ['unlike','IN','unlike'],
    ['the','DT','the'],
    ['damsels','NNS','damsel'],
    ['in','IN','in'],
    ['distress','NN','distress'],
    ['of','IN','of'],
    ['most','JJS','most'],
    ['19th-century','JJ','19th-century'],
    ['ballets','NNS','ballet'],
    [',',',',','],
    ['Ms.','NNP','ms.'],
    ['Tharp’s','NNP','tharp’s'],
    ['young','JJ','young'],
    ['heroine','NN','heroin'],
    ['requires','VBZ','requir'],
    ['no','DT','no'],
    ['help','NN','help'],
    ['in','IN','in'],
    ['a','DT','a'],
    ['fight','NN','fight'],
    ['.','.','.']
  ]
},
{
  tag:'S',
  content:
  [
    ['She','PRP','She'],
    ['and','CC','and'],
    ['her','PRP$','her'],
    ['little','JJ','littl'],
    ['sister','NN','sist'],
    ['kick','NN','kick'],
    ['the','DT','the'],
    ['goblins','NNS','goblin'],
    ['and','CC','and'],
    ['stomp','VB','stomp'],
    ['on','IN','on'],
    ['their','PRP$','their'],
    ['tender','NN','tend'],
    ['feet','NN','foot'],
    ['.','.','.']
  ]
},
{
  tag:'S',
  content:
  [
    ['Yet','CC','Yet'],
    ['Ms.','NNP','ms.'],
    ['Tharp’s','NNP','tharp’s'],
    ['Irene','NNP','ir'],
    ['is','VBZ','be'],
    ['a','DT','a'],
    ['young','JJ','young'],
    ['woman','NN','wom'],
    ['(',':','('],
    ['played','VBN','play'],
    ['by','IN','by'],
    ['the','DT','the'],
    ['24-year-old','JJ','24-year-old'],
    {
      tag:'PERSON',
      content:
      [
        ['Alessa','NNP','aless'],
        ['Rogers','NNP','rog']
      ]
    },
    [')','NNP',')'],
    ['rather','RB','rath'],
    ['than','IN','than'],
    ['a','DT','a'],
    ['child','NN','child'],
    [',',',',','],
    ['so','RB','so'],
    ['that','IN','that'],
    ['she','PRP','she'],
    ['may','MD','may'],
    ['apply','RB','apply'],
    ['the','DT','the'],
    ['full','JJ','ful'],
    ['range','NN','rang'],
    ['of','IN','of'],
    ['classical','JJ','class'],
    ['technique','NN','techn'],
    ['.','.','.']
  ]
},
{
  tag:'S',
  content:
  [
    ['The','DT','The'],
    ['male','JJ','mal'],
    ['goblins','NNS','goblin'],
    ['are','VBP','be'],
    ['both','DT','both'],
    ['intimidated','VBN','intimid'],
    ['and','CC','and'],
    ['seduced','VBN','seduc'],
    ['by','IN','by'],
    {
      tag:'PERSON',
      content:
      [
        ['Irene','NNP','ir']
      ]
    },
    ['.','.','.']
  ]
},
{
  tag:'S',
  content:
  [
    ['The','DT','The'],
    ['female','JJ','fem'],
    ['goblins','NNS','goblin'],
    ['are','VBP','be'],
    ['envious','JJ','envy'],
    [':',':',':'],
    ['they','PRP','they'],
    ['flock','VBP','flock'],
    ['around','RP','around'],
    ['her','PRP$','her'],
    [',',',',','],
    ['fascinated','VBN','fascin'],
    ['by','IN','by'],
    ['her','PRP$','her'],
    ['footwear','JJ','footwear'],
    [',',',',','],
    ['as','IN','as'],
    ['if','IN','if'],
    ['to','TO','to'],
    ['say','VB','say'],
    [',',',',','],
    ['“Where','JJ','“where'],
    ['did','VBD','do'],
    ['you','PRP','you'],
    ['get','VB','get'],
    ['those','DT','those'],
    ['?','.','?'],
    ['”',':','”'],
    ['They','PRP','They'],
    ['have','VBP','hav'],
    ['to','TO','to'],
    ['try','VB','try'],
    ['out','RP','out'],
    ['toe','NN','toe'],
    ['shoes','VBZ','sho'],
    ['for','IN','for'],
    ['themselves','PRP','themselves'],
    [',',',',','],
    ['and','CC','and'],
    ['so','RB','so'],
    ['we','PRP','we'],
    ['get','VBP','get'],
    ['some','DT','some'],
    ['nice','JJ','nic'],
    ['inside','NN','insid'],
    ['jokes','VBZ','jok'],
    ['about','IN','about'],
    ['point','NN','point'],
    ['work','NN','work'],
    ['and','CC','and'],
    ['partnering','VBG','partn'],
    ['.','.','.']
  ]
},
{
  tag:'S',
  content:
  [
    ['This','DT','This'],
    ['ballet','NN','ballet'],
    ['is','VBZ','be'],
    ['packed','VBN','pack'],
    ['with','IN','with'],
    ['jokes','NNS','jok'],
    ['.','.','.']
  ]
},
{
  tag:'S',
  content:
  [
    ['The','DT','The'],
    ['goblins','NNS','goblin'],
    ['are','VBP','be'],
    ['more','RBR','mor'],
    ['comic','JJ','com'],
    ['than','IN','than'],
    ['menacing','NN','menac'],
    ['.','.','.']
  ]
},
{
  tag:'S',
  content:
  [
    ['(','NN','('],
    {
      tag:'PERSON',
      content:
      [
        ['Anne','NNP','an'],
        ['Armit’s','NNP','armit’s']
      ]
    },
    ['costumes','VBZ','costum'],
    ['keep','VB','keep'],
    ['them','PRP','them'],
    ['human-looking','JJ','human-looking'],
    [',',',',','],
    ['hooligans','NNS','hoolig'],
    ['in','IN','in'],
    ['ragamuffiny','NN','ragamuffiny'],
    ['hoodies','NNS','hoody'],
    ['.','.','.']
  ]
},
{
  tag:'S',
  content:
  [
    [')','NN',')'],
    ['As','IN','As'],
    ['in','IN','in'],
    ['MacDonald’s','NNP','macdonald’s'],
    ['story','NN','story'],
    ['they','PRP','they'],
    ['are','VBP','be'],
    ['vain','RB','vain'],
    ['.','.','.']
  ]
},
{
  tag:'S',
  content:
  [
    ['(','NN','('],
    ['Though','IN','Though'],
    ['deformed','VBN','deform'],
    ['morally','RB','mor'],
    ['and','CC','and'],
    ['physically','RB','phys'],
    ['by','IN','by'],
    ['living','NN','liv'],
    ['underground','IN','underground'],
    [',',',',','],
    ['his','PRP$','his'],
    ['goblins','NNS','goblin'],
    ['consider','VBP','consid'],
    ['themselves','PRP','themselves'],
    ['more','JJR','mor'],
    ['refined','VBN','refin'],
    ['than','IN','than'],
    ['the','DT','the'],
    ['humans','NNS','hum'],
    ['above','IN','above'],
    ['.','.','.']
  ]
},
{
  tag:'S',
  content:
  [
    [')','NN',')'],
    ['But','CC','But'],
    ['Ms.','NNP','ms.'],
    ['Tharp’s','NNP','tharp’s'],
    ['goblins','VBZ','goblin'],
    ['are','VBP','be'],
    ['vain','RB','vain'],
    ['in','IN','in'],
    ['the','DT','the'],
    ['way','NN','way'],
    ['of','IN','of'],
    ['dancers','NNS','dant'],
    ['.','.','.']
  ]
},
{
  tag:'S',
  content:
  [
    ['The','DT','The'],
    ['King','NNP','king'],
    ['of','IN','of'],
    ['the','DT','the'],
    {
      tag:'FACILITY',
      content:
      [
        ['Goblin','NNP','goblin']
      ]
    },
    ['(','NNP','('],
    {
      tag:'PERSON',
      content:
      [
        ['John','NNP','john'],
        ['Welker','NNP','welk']
      ]
    },
    [')','NNP',')'],
    [',',',',','],
    ['a','DT','a'],
    ['real','JJ','real'],
    ['scoundrel','NN','scoundrel'],
    [',',',',','],
    ['is','VBZ','be'],
    ['always','RB','alway'],
    ['taking','VBG','tak'],
    ['self-satisfied','JJ','self-satisfied'],
    ['solos','NNS','solo'],
    ['.','.','.']
  ]
},
{
  tag:'S',
  content:
  [
    ['So','IN','So'],
    ['is','VBZ','be'],
    ['the','DT','the'],
    {
      tag:'ORGANIZATION',
      content:
      [
        ['Queen','NNP','queen']
      ]
    },
    ['(','NNP','('],
    {
      tag:'PERSON',
      content:
      [
        ['Tara','NNP','tar'],
        ['Lee','NNP','lee']
      ]
    },
    [')','NNP',')'],
    [',',',',','],
    ['whom','WP','whom'],
    ['Ms.','NNP','ms.'],
    ['Tharp','NNP','tharp'],
    ['gives','VBZ','giv'],
    ['a','DT','a'],
    ['slinky','JJ','slinky'],
    [',',',',','],
    ['icy','NN','icy'],
    [',',',',','],
    ['character-defining','JJ','character-defining'],
    ['entrance','NN','ent'],
    ['.','.','.']
  ]
},
{
  tag:'S',
  content:
  [
    ['When','WRB','When'],
    ['this','DT','this'],
    ['royal','NN','roy'],
    ['couple','NN','coupl'],
    ['discover','NN','discov'],
    ['their','PRP$','their'],
    ['subjects','NNS','subject'],
    ['dancing','VBG','dant'],
    [',',',',','],
    ['they','PRP','they'],
    ['must','MD','must'],
    ['finish','VB','fin'],
    ['the','DT','the'],
    ['divertissement','NN','divertiss'],
    ['themselves','PRP','themselves'],
    ['.','.','.']
  ]
},
{
  tag:'S',
  content:
  [
    ['And','CC','And'],
    ['so','RB','so'],
    ['we','PRP','we'],
    ['get','VBP','get'],
    ['a','DT','a'],
    ['grand','NN','grand'],
    ['pas','VBZ','pas'],
    ['de','IN','de'],
    ['deux','NN','deux'],
    [',',',',','],
    ['with','IN','with'],
    ['some','DT','some'],
    ['of','IN','of'],
    ['Ms.','NNP','ms.'],
    ['Tharp’s','NNP','tharp’s'],
    ['quickest','NN','quickest'],
    ['and','CC','and'],
    ['fanciest','JJS','fant'],
    ['choreography','NN','choreograph'],
    [',',',',','],
    ['and','CC','and'],
    {
      tag:'PERSON',
      content:
      [
        ['Irene','NNP','ir']
      ]
    },
    ['and','CC','and'],
    ['the','DT','the'],
    ['children','NNS','child'],
    ['get','VBP','get'],
    ['a','DT','a'],
    ['chance','NN','chant'],
    ['to','TO','to'],
    ['escape','NN','escap'],
    ['.','.','.']
  ]
},
{
  tag:'S',
  content:
  [
    ['By','IN','By'],
    ['this','DT','this'],
    ['time','NN','tim'],
    ['the','DT','the'],
    ['Queen’s','NNP','queen’s'],
    ['goofy','NN','goofy'],
    [',',',',','],
    ['maltreated','VBD','malt'],
    ['guards','NNS','guard'],
    ['have','VBP','hav'],
    ['switched','VBN','switch'],
    ['sides','NNS','sid'],
    ['.','.','.']
  ]
},
{
  tag:'S',
  content:
  [
    ['The','DT','The'],
    ['other','JJ','oth'],
    ['side','NN','sid'],
    ['of','IN','of'],
    ['dancerly','RB','dant'],
    ['vanity','NN','van'],
    ['is','VBZ','be'],
    ['getting','VBG','get'],
    ['carried','VBN','carry'],
    ['away','RB','away'],
    ['in','IN','in'],
    ['dance','NN','dant'],
    ['.','.','.']
  ]
},
{
  tag:'S',
  content:
  [
    ['Even','RB','ev'],
    {
      tag:'PERSON',
      content:
      [
        ['Irene','NNP','ir']
      ]
    },
    ['and','CC','and'],
    {
      tag:'PERSON',
      content:
      [
        ['Curdie','NNP','curdy']
      ]
    },
    ['temporarily','RB','temp'],
    ['forget','VB','forget'],
    ['their','PRP$','their'],
    ['mission','NN','miss'],
    ['.','.','.']
  ]
},
{
  tag:'S',
  content:
  [
    ['But','CC','But'],
    {
      tag:'PERSON',
      content:
      [
        ['Irene','NNP','ir']
      ]
    },
    ['has','VBZ','hav'],
    ['the','DT','the'],
    ['example','NN','exampl'],
    ['of','IN','of'],
    ['her','PRP$','her'],
    ['great-great-grandmother','JJ','great-great-grandmother'],
    [',',',',','],
    ['who','WP','who'],
    ['arrives','NNS','ar'],
    ['to','TO','to'],
    ['lead','VB','lead'],
    ['the','DT','the'],
    ['way','NN','way'],
    ['out','IN','out'],
    ['.','.','.']
  ]
},
{
  tag:'S',
  content:
  [
    ['At','IN','At'],
    ['first','JJ','first'],
    {
      tag:'PERSON',
      content:
      [
        ['Curdie','NNP','curdy']
      ]
    },
    ['does','VBZ','do'],
    ['not','RB','not'],
    ['see','VB','see'],
    ['the','DT','the'],
    ['older','NN','old'],
    ['woman','NN','wom'],
    [',',',',','],
    ['does','VBZ','do'],
    ['not','RB','not'],
    ['believe','VB','believ'],
    ['in','IN','in'],
    ['her','PRP$','her'],
    ['.','.','.']
  ]
},
{
  tag:'S',
  content:
  [
    ['Then','RB','then'],
    [',',',',','],
    ['in','IN','in'],
    ['a','DT','a'],
    ['sudden','JJ','sud'],
    ['change','NN','chang'],
    ['of','IN','of'],
    ['heart','NN','heart'],
    ['typical','JJ','typ'],
    ['of','IN','of'],
    ['the','DT','the'],
    ['swift','NN','swift'],
    ['narrative','NN','nar'],
    [',',',',','],
    ['he','PRP','he'],
    ['does','VBZ','do'],
    ['.','.','.']
  ]
},
{
  tag:'S',
  content:
  [
    ['This','DT','This'],
    ['switch','NN','switch'],
    ['makes','VBZ','mak'],
    ['possible','JJ','poss'],
    ['a','DT','a'],
    ['romantic','JJ','rom'],
    ['pas','NN','pa'],
    ['de','IN','de'],
    ['deux','NN','deux'],
    ['between','IN','between'],
    ['him','PRP','him'],
    ['and','CC','and'],
    {
      tag:'GPE',
      content:
      [
        ['Irene','NNP','ir']
      ]
    },
    ['.','.','.']
  ]
},
{
  tag:'S',
  content:
  [
    ['It','PRP','It'],
    ['is','VBZ','be'],
    ['clearly','RB','clear'],
    ['a','DT','a'],
    ['coming-of-age','JJ','coming-of-age'],
    ['moment','NN','mom'],
    ['for','IN','for'],
    {
      tag:'PERSON',
      content:
      [
        ['Irene','NNP','ir']
      ]
    },
    [',',',',','],
    ['but','CC','but'],
    ['it’s','NNP','it’s'],
    ['also','RB','also'],
    ['an','DT','an'],
    ['example','NN','exampl'],
    ['of','IN','of'],
    ['love','NN','lov'],
    [',',',',','],
    ['which','WDT','which'],
    ['we','PRP','we'],
    ['witness','VBP','wit'],
    ['the','DT','the'],
    ['goblins','NNS','goblin'],
    ['following','VBG','follow'],
    ['.','.','.']
  ]
},
{
  tag:'S',
  content:
  [
    {
      tag:'GPE',
      content:
      [
        ['Irene','NNP','ir']
      ]
    },
    ['teaches','VBZ','teach'],
    ['them','PRP','them'],
    [',',',',','],
    ['and','CC','and'],
    ['she','PRP','she'],
    ['teaches','VBZ','teach'],
    ['the','DT','the'],
    ['children','NNS','child'],
    [',',',',','],
    ['who','WP','who'],
    ['all','PDT','all'],
    ['perform','VBP','perform'],
    ['the','DT','the'],
    ['ancestral','JJ','ancest'],
    ['step','NN','step'],
    ['.','.','.']
  ]
},
{
  tag:'S',
  content:
  [
    ['Then','RB','then'],
    ['she','PRP','she'],
    ['and','CC','and'],
    ['her','PRP$','her'],
    ['sisters','NNS','sist'],
    ['return','VBP','return'],
    ['home','NN','hom'],
    ['to','TO','to'],
    ['teach','VB','teach'],
    ['their','PRP$','their'],
    ['father','NN','fath'],
    ['(',':','('],
    ['also','RB','also'],
    {
      tag:'PERSON',
      content:
      [
        ['Mr.','NNP','mr.'],
        ['Welker','NNP','welk']
      ]
    },
    [',',',',','],
    ['in','IN','in'],
    ['a','DT','a'],
    ['psychological','JJ','psycholog'],
    ['bit','NN','bit'],
    ['of','IN','of'],
    ['double','JJ','doubl'],
    ['casting','NN','cast'],
    [')',':',')'],
    ['.','.','.']
  ]
},
{
  tag:'S',
  content:
  [
    ['King','VBG','king'],
    {
      tag:'PERSON',
      content:
      [
        ['Papa','NNP','pap']
      ]
    },
    [',',',',','],
    ['softening','VBG','soft'],
    [',',',',','],
    ['gives','VBZ','giv'],
    ['his','PRP$','his'],
    ['blessing','NN','bless'],
    ['to','TO','to'],
    {
      tag:'GPE',
      content:
      [
        ['Curdie','NNP','curdy']
      ]
    },
    [',',',',','],
    ['and','CC','and'],
    ['the','DT','the'],
    ['two','CD','two'],
    ['men','NNS','men'],
    ['pass','NNS','pas'],
    {
      tag:'PERSON',
      content:
      [
        ['Irene','NNP','ir']
      ]
    },
    ['between','IN','between'],
    ['them','PRP','them'],
    ['in','IN','in'],
    ['a','DT','a'],
    ['long','JJ','long'],
    ['gorgeous','JJ','gorg'],
    ['skein','NN','skein'],
    ['of','IN','of'],
    ['pas','NNS','pa'],
    ['de','IN','de'],
    ['trois','NNS','tro'],
    [',',',',','],
    ['until','IN','until'],
    ['King','NNP','king'],
    ['Papa','NNP','pap'],
    ['takes','VBZ','tak'],
    ['his','PRP$','his'],
    ['leave','NN','leav'],
    ['and','CC','and'],
    {
      tag:'GPE',
      content:
      [
        ['Curdie','NNP','curdy']
      ]
    },
    ['carries','NNS','carry'],
    {
      tag:'PERSON',
      content:
      [
        ['Irene','NNP','ir']
      ]
    },
    ['off','IN','off'],
    ['in','IN','in'],
    ['a','DT','a'],
    ['soaring','NN','soar'],
    ['lift','NN','lift'],
    ['.','.','.']
  ]
},
{
  tag:'S',
  content:
  [
    ['By','IN','By'],
    ['advancing','VBG','adv'],
    ['Irene’s','NNS','irene’s'],
    ['age','NN','ag'],
    [',',',',','],
    ['Ms.','NNP','ms.'],
    ['Tharp','NNP','tharp'],
    ['puts','VBZ','put'],
    ['the','DT','the'],
    ['story','NN','story'],
    ['in','IN','in'],
    ['familiar','JJ','famili'],
    {
      tag:'GPE',
      content:
      [
        ['Tharpian','JJ','tharp']
      ]
    },
    ['territory','NN','territ'],
    ['.','.','.']
  ]
},
{
  tag:'S',
  content:
  [
    ['But','CC','But'],
    ['her','PRP$','her'],
    ['choreography','NN','choreograph'],
    ['for','IN','for'],
    ['the','DT','the'],
    ['children','NNS','child'],
    [',',',',','],
    ['students','NNS','stud'],
    ['from','IN','from'],
    ['the','DT','the'],
    {
      tag:'ORGANIZATION',
      content:
      [
        ['Atlanta','NNP','atlant'],
        ['Ballet','NNP','ballet']
      ]
    },
    ['school','NN','school'],
    [',',',',','],
    ['is','VBZ','be'],
    ['smart','NN','smart'],
    [',',',',','],
    ['striking','VBG','strike'],
    ['a','DT','a'],
    ['difficult','JJ','difficult'],
    ['balance','NN','bal'],
    ['between','IN','between'],
    ['wildness','NN','wild'],
    ['and','CC','and'],
    ['order','NN','ord'],
    ['.','.','.']
  ]
},
{
  tag:'S',
  content:
  [
    ['And','CC','And'],
    ['when','WRB','when'],
    {
      tag:'PERSON',
      content:
      [
        ['Irene','NNP','ir']
      ]
    },
    ['teaches','VBZ','teach'],
    ['a','DT','a'],
    ['girl','NN','girl'],
    ['(',':','('],
    {
      tag:'PERSON',
      content:
      [
        ['Sophie','NNP','soph'],
        ['Basarrate','NNP','basar']
      ]
    },
    [')','NNP',')'],
    ['just','RB','just'],
    ['old','JJ','old'],
    ['enough','RB','enough'],
    ['for','IN','for'],
    ['point','NN','point'],
    ['shoes','VBZ','sho'],
    ['and','CC','and'],
    ['pairs','NNS','pair'],
    ['her','PRP$','her'],
    ['with','IN','with'],
    ['an','DT','an'],
    ['adolescent','NN','adolesc'],
    ['boy','NN','boy'],
    ['(',':','('],
    ['the','DT','the'],
    ['noble','JJ','nobl'],
    {
      tag:'PERSON',
      content:
      [
        ['Kevin','NNP','kevin'],
        ['Silverstein','NNP','silverstein']
      ]
    },
    [')','NNP',')'],
    [',',',',','],
    ['the','DT','the'],
    ['generational','JJ','gen'],
    ['continuity','NN','continu'],
    ['of','IN','of'],
    ['ballet','NN','ballet'],
    ['—',':','—'],
    ['the','DT','the'],
    ['invisible','JJ','invis'],
    ['thread','NN','thread'],
    ['—',':','—'],
    ['is','VBZ','be'],
    ['represented','VBN','repres'],
    ['movingly','RB','mov'],
    ['.','.','.']
  ]
},
{
  tag:'S',
  content:
  [
    ['More','JJR','mor'],
    ['moving','VBG','mov'],
    ['still','RB','stil'],
    ['is','VBZ','be'],
    ['the','DT','the'],
    ['ballet’s','JJ','ballet’s'],
    ['final','JJ','fin'],
    ['moment','NN','mom'],
    ['.','.','.']
  ]
},
{
  tag:'S',
  content:
  [
    ['At','IN','At'],
    ['the','DT','the'],
    ['end','NN','end'],
    ['of','IN','of'],
    ['the','DT','the'],
    ['order-restoring','JJ','order-restoring'],
    ['finale','NN','fin'],
    ['the','DT','the'],
    ['spinning','NN','spin'],
    ['by','IN','by'],
    {
      tag:'PERSON',
      content:
      [
        ['Irene','NNP','ir']
      ]
    },
    ['and','CC','and'],
    ['her','PRP$','her'],
    ['great-great-grandmother','JJ','great-great-grandmother'],
    ['is','VBZ','be'],
    ['taken','VBN','tak'],
    ['up','RP','up'],
    ['by','IN','by'],
    ['the','DT','the'],
    ['parents','NNS','par'],
    [',',',',','],
    ['now','RB','now'],
    ['reunited','VBN','reunit'],
    ['with','IN','with'],
    ['their','PRP$','their'],
    ['children','NNS','child'],
    ['and','CC','and'],
    ['carrying','VBG','carry'],
    ['them','PRP','them'],
    [',',',',','],
    ['much','RB','much'],
    ['as','IN','as'],
    ['the','DT','the'],
    ['goblins','NNS','goblin'],
    ['had','VBD','hav'],
    ['earlier','RBR','ear'],
    ['.','.','.']
  ]
},
{
  tag:'S',
  content:
  [
    ['It’s','NNS','it’s'],
    ['a','DT','a'],
    ['powerful','JJ','pow'],
    ['image','NN','im'],
    ['of','IN','of'],
    ['love','NN','lov'],
    ['.','.','.']
  ]
},
{
  tag:'S',
  content:
  [
    ['I','PRP','I'],
    ['saw','VBD','saw'],
    ['the','DT','the'],
    ['ballet','NN','ballet'],
    ['twice','NN','twic'],
    ['and','CC','and'],
    ['was','VBD','be'],
    ['moved','VBN','mov'],
    ['by','IN','by'],
    ['it','PRP','it'],
    ['much','RB','much'],
    ['more','JJR','mor'],
    ['the','DT','the'],
    ['second','JJ','second'],
    ['time','NN','tim'],
    ['.','.','.']
  ]
},
{
  tag:'S',
  content:
  [
    ['On','IN','On'],
    ['my','PRP$','my'],
    ['first','JJ','first'],
    ['go','NN','go'],
    ['I','PRP','I'],
    ['was','VBD','be'],
    ['too','RB','too'],
    ['preoccupied','VBN','preoccupy'],
    ['with','IN','with'],
    ['the','DT','the'],
    ['ballet’s','NNS','ballet’s'],
    ['divergences','NNS','diverg'],
    ['from','IN','from'],
    ['MacDonald’s','JJ','macdonald’s'],
    ['book','NN','book'],
    ['.','.','.']
  ]
},
{
  tag:'S',
  content:
  [
    ['I','PRP','I'],
    ['couldn’t','VBP','couldn’t'],
    ['help','NN','help'],
    ['missing','VBG','miss'],
    ['MacDonald’s','NNS','macdonald’s'],
    {
      tag:'PERSON',
      content:
      [
        ['Irene','NNP','ir']
      ]
    },
    [',',',',','],
    ['much','RB','much'],
    ['more','RBR','mor'],
    ['complexly','RB','complex'],
    ['appealing','VBG','ap'],
    ['than','IN','than'],
    ['the','DT','the'],
    ['sweet','JJ','sweet'],
    ['cipher','NN','ciph'],
    ['of','IN','of'],
    ['Ms.','NNP','ms.'],
    ['Tharp’s','NNP','tharp’s'],
    ['empowerment','NN','empow'],
    ['fable','JJ','fabl'],
    ['.','.','.']
  ]
},
{
  tag:'S',
  content:
  [
    ['And','CC','And'],
    ['I','PRP','I'],
    ['resented','VBD','res'],
    ['the','DT','the'],
    ['diminishment','NN','dimin'],
    ['of','IN','of'],
    ['MacDonald’s','JJ','macdonald’s'],
    ['great-great-grandmother','JJ','great-great-grandmother'],
    [',',',',','],
    ['tart','NN','tart'],
    ['and','CC','and'],
    ['sage','NN','sag'],
    [',',',',','],
    ['into','IN','into'],
    ['a','DT','a'],
    ['generic','JJ','gen'],
    {
      tag:'PERSON',
      content:
      [
        ['Fairy','NNP','fairy'],
        ['Godmother','NNP','godmoth']
      ]
    },
    ['.','.','.']
  ]
},
{
  tag:'S',
  content:
  [
    ['The','DT','The'],
    ['performances','NNS','perform'],
    ['are','VBP','be'],
    ['somewhat','RB','somewh'],
    ['at','IN','at'],
    ['fault','NN','fault'],
    ['.','.','.']
  ]
},
{
  tag:'S',
  content:
  [
    ['Ms.','NNP','ms.'],
    ['Rogers','NNP','rog'],
    [',',',',','],
    ['though','IN','though'],
    ['she','PRP','she'],
    ['has','VBZ','hav'],
    ['a','DT','a'],
    ['pretty','RB','pretty'],
    ['line','NN','lin'],
    [',',',',','],
    ['underplays','VBZ','underplay'],
    ['the','DT','the'],
    ['flares','NNS','flar'],
    ['of','IN','of'],
    ['sass','NN','sas'],
    ['that','IN','that'],
    ['Ms.','NNP','ms.'],
    ['Tharp','NNP','tharp'],
    ['gives','VBZ','giv'],
    {
      tag:'PERSON',
      content:
      [
        ['Irene','NNP','ir']
      ]
    },
    [',',',',','],
    ['and','CC','and'],
    ['the','DT','the'],
    ['veteran','NN','vet'],
    {
      tag:'PERSON',
      content:
      [
        ['Christine','NNP','christine'],
        ['Winkler','NNP','winkl']
      ]
    },
    ['is','VBZ','be'],
    ['blandly','RB','bland'],
    ['competent','JJ','compet'],
    ['as','IN','as'],
    ['the','DT','the'],
    ['great-great','JJ','great-gre'],
    ['grandmother','NN','grandmoth'],
    ['.','.','.']
  ]
},
{
  tag:'S',
  content:
  [
    ['Yet','CC','Yet'],
    ['the','DT','the'],
    ['deeper','NN','deep'],
    ['problem','NN','problem'],
    ['seems','VBZ','seem'],
    ['to','TO','to'],
    ['lie','VB','lie'],
    ['with','IN','with'],
    ['Ms.','NNP','ms.'],
    ['Tharp','NNP','tharp'],
    ['.','.','.']
  ]
},
{
  tag:'S',
  content:
  [
    ['She','PRP','She'],
    ['has','VBZ','hav'],
    ['succeeded','VBN','success'],
    ['here','RB','her'],
    ['where','WRB','where'],
    ['so','RB','so'],
    ['many','JJ','many'],
    ['have','VBP','hav'],
    ['failed','VBN','fail'],
    [',',',',','],
    ['fashioning','NN','fash'],
    ['a','DT','a'],
    ['ballet','NN','ballet'],
    ['that','WDT','that'],
    ['mostly','RB','most'],
    ['works','VBZ','work'],
    ['as','IN','as'],
    ['narrative','JJ','nar'],
    [',',',',','],
    ['a','DT','a'],
    ['children’s','JJ','children’s'],
    ['ballet','NN','ballet'],
    ['tightly','RB','tight'],
    ['woven','VBN','weav'],
    ['with','IN','with'],
    ['movement','NN','mov'],
    ['motifs','NNS','mot'],
    ['and','CC','and'],
    ['layered','VBD','lay'],
    ['with','IN','with'],
    ['symbolic','JJ','symbol'],
    ['meanings','NNS','mean'],
    ['that','WDT','that'],
    ['adults','NNS','adult'],
    ['can','MD','can'],
    ['appreciate','VB','apprecy'],
    ['.','.','.']
  ]
},
{
  tag:'S',
  content:
  [
    ['However','RB','howev'],
    [',',',',','],
    ['in','IN','in'],
    ['simplifying','NN','simpl'],
    ['and','CC','and'],
    ['modernizing','VBG','modern'],
    ['MacDonald’s','NNS','macdonald’s'],
    ['story','NN','story'],
    [',',',',','],
    ['she','PRP','she'],
    ['has','VBZ','hav'],
    ['oversimplified','VBN','oversimpl'],
    ['its','PRP$','its'],
    ['characters','NNS','charact'],
    ['and','CC','and'],
    ['morals','NNS','mor'],
    ['.','.','.']
  ]
},
{
  tag:'S',
  content:
  [
    ['Even','RB','ev'],
    ['as','IN','as'],
    ['she','PRP','she'],
    ['venerates','VBZ','ven'],
    ['children','NNS','child'],
    [',',',',','],
    ['she','PRP','she'],
    ['underestimates','VBZ','underestim'],
    ['them','PRP','them'],
    ['.','.','.']
  ]
},
{
  tag:'S',
  content:
  [
    ['A','DT','A'],
    ['choreographer’s','JJ','choreographer’s'],
    ['task','NN','task'],
    ['in','IN','in'],
    ['this','DT','this'],
    ['regard','NN','regard'],
    ['is','VBZ','be'],
    ['much','JJ','much'],
    ['harder','NN','hard'],
    ['than','IN','than'],
    ['a','DT','a'],
    ['writer’s','JJ','writer’s'],
    ['.','.','.']
  ]
},
{
  tag:'S',
  content:
  [
    ['But','CC','But'],
    ['this','DT','this'],
    ['is','VBZ','be'],
    {
      tag:'PERSON',
      content:
      [
        ['Twyla','NNP','twyl'],
        ['Tharp','NNP','tharp']
      ]
    },
    ['.','.','.']
  ]
},
{
  tag:'S',
  content:
  [
    ['I','PRP','I'],
    ['wish','VBP','wish'],
    ['she','PRP','she'],
    ['had','VBD','hav'],
    ['better','RBR','wel'],
    ['heeded','VBN','hee'],
    ['the','DT','the'],
    ['example','NN','exampl'],
    ['of','IN','of'],
    ['MacDonald’s','NNS','macdonald’s'],
    ['great-great','JJ','great-gre'],
    ['grandmother','NN','grandmoth'],
    ['figure','NN','fig'],
    [',',',',','],
    ['who','WP','who'],
    ['is','VBZ','be'],
    ['never','RB','nev'],
    ['afraid','VBN','afraid'],
    ['to','TO','to'],
    ['tell','VB','tel'],
    {
      tag:'GPE',
      content:
      [
        ['Irene','NNP','ir']
      ]
    },
    ['things','NNS','thing'],
    ['she','PRP','she'],
    ['can','MD','can'],
    ['not','RB','not'],
    ['yet','VB','yet'],
    ['understand','NN','understand'],
    ['but','CC','but'],
    ['will','MD','will'],
    ['someday','VB','someday'],
    ['.','.','.']
  ]
},
{
  tag:'S',
  content:
  [
    ['“Twyla','NN','“twyla'],
    ['Tharp’s','NNS','tharp’s'],
    ['The','DT','The'],
    {
      tag:'ORGANIZATION',
      content:
      [
        ['Princess','NNP','princess']
      ]
    },
    ['and','CC','and'],
    ['the','DT','the'],
    ['Goblin”','NNP','goblin”'],
    ['continues','VBZ','continu'],
    ['through','IN','through'],
    ['Sunday','NNP','sunday'],
    ['at','IN','at'],
    ['the','DT','the'],
    {
      tag:'ORGANIZATION',
      content:
      [
        ['Cobb','NNP','cob'],
        ['Energy','NNP','energy'],
        ['Performing','NNP','perform'],
        ['Arts','NNP','art'],
        ['Center','NNP','cent']
      ]
    },
    [',',',',','],
    ['2800','CD','2800'],
    ['Cobb','NNP','cob'],
    ['Galleria','NNP','galler'],
    ['Parkway','NNP','parkway'],
    [',',',',','],
    {
      tag:'GPE',
      content:
      [
        ['Atlanta','NNP','atlant']
      ]
    },
    [';',':',';'],
    ['(',':','('],
    ['800','CD','800'],
    [')','CD',')'],
    ['745-3000','CD','745-3000'],
    [',',',',','],
    ['atlantaballet.com','NNP','atlantaballet.com'],
    ['.','.','.']
  ]
},
{
  tag:'S',
  content:
  [
    ['A','DT','A'],
    ['version','NN','vert'],
    ['of','IN','of'],
    ['this','DT','this'],
    ['review','NN','review'],
    ['appears','VBZ','appear'],
    ['in','IN','in'],
    ['print','NN','print'],
    ['on','IN','on'],
    ['February','NNP','febru'],
    ['13','CD','13'],
    [',',',',','],
    ['2012','CD','2012'],
    [',',',',','],
    ['on','IN','on'],
    ['page','NN','pag'],
    ['C7','NNP','c7'],
    ['of','IN','of'],
    ['the','DT','the'],
    {
      tag:'GPE',
      content:
      [
        ['New','NNP','new'],
        ['York','NNP','york']
      ]
    },
    ['edition','NN','edit'],
    ['with','IN','with'],
    ['the','DT','the'],
    ['headline','NN','headlin'],
    [':',':',':'],
    {
      tag:'ORGANIZATION',
      content:
      [
        ['Toe','NNP','toe'],
        ['Shoes','NNPS','sho']
      ]
    },
    ['That','NNP','that'],
    {
      tag:'PERSON',
      content:
      [
        ['Carry','NNP','carry']
      ]
    },
    ['A','NNP','a'],
    ['Princess','NNP','princess'],
    ['To','NNP','to'],
    ['Victory','NNP','vict'],
    ['.','.','.']
  ]
},
{
  tag:'S',
  content:
  [
    ['This','DT','This'],
    ['week','NN','week'],
    [':',':',':'],
    ['complimentary','JJ','comply'],
    ['access','NN','access'],
    ['to','TO','to'],
    {
      tag:'ORGANIZATION',
      content:
      [
        ['International','NNP','intern'],
        ['New','NNP','new'],
        ['York','NNP','york'],
        ['Times','NNP','tim'],
        ['Get','NNP','get'],
        ['Free','NNP','fre']
      ]
    },
    ['E-mail','NNP','e-mail'],
    {
      tag:'PERSON',
      content:
      [
        ['Alerts','NNP','alert']
      ]
    },
    ['on','IN','on'],
    ['These','DT','These'],
    ['Topics','NNP','top'],
    ['Tharp','NNP','tharp'],
    [',',',',','],
    {
      tag:'PERSON',
      content:
      [
        ['Twyla','NNP','twyl'],
        ['Dancing','NNP','dant'],
        ['Atlanta','NNP','atlant'],
        ['Ballet','NNP','ballet'],
        ['Atlanta','NNP','atlant']
      ]
    },
    ['(','NNP','('],
    ['Ga','NNP','ga'],
    [')','NNP',')'],
    ['Inside','NNP','insid'],
    ['NYTimes.com','NNP','nytimes.com'],
    ['Theater','NNP','the'],
    ['»','NNP','»'],
    ['‘The','NNP','‘the'],
    {
      tag:'PERSON',
      content:
      [
        ['Model','NNP','model'],
        ['Apartment','NNP','apart']
      ]
    },
    [',',',',','],
    ['’','NNP','’'],
    ['by','IN','by'],
    {
      tag:'ORGANIZATION',
      content:
      [
        ['Donald','NNP','donald'],
        ['Margulies','NNPS','margu'],
        ['Sports','NNP','sport']
      ]
    },
    ['»','NNP','»'],
    ['In','NNP','in'],
    ['Argentine','NNP','argentin'],
    ['Soccer','NNP','socc'],
    [',',',',','],
    ['a','DT','a'],
    {
      tag:'ORGANIZATION',
      content:
      [
        ['Rivalry','NNP','rivalry']
      ]
    },
    ['Cleaves','NNP','cleav'],
    ['a','DT','a'],
    {
      tag:'ORGANIZATION',
      content:
      [
        ['City','NNP','city'],
        ['Opinion','NNP','opin']
      ]
    },
    ['»','NNP','»'],
    ['Invitation','NNP','invit'],
    ['to','TO','to'],
    ['a','DT','a'],
    ['Dialogue','NNP','dialog'],
    [':',':',':'],
    ['When','WRB','When'],
    {
      tag:'PERSON',
      content:
      [
        ['Doctors','NNS','doct'],
        ['Slip','NNP','slip'],
        ['Up','NNP','up'],
        ['Dining','NNP','din']
      ]
    },
    ['&','CC','&'],
    {
      tag:'PERSON',
      content:
      [
        ['Wine','NNP','win']
      ]
    },
    ['»','NNP','»'],
    ['Restaurants','NNP','resta'],
    [':',':',':'],
    ['Khe-Yo','JJ','khe-yo'],
    ['and','CC','and'],
    {
      tag:'PERSON',
      content:
      [
        ['Whiskey','NNP','whiskey'],
        ['Soda','NNP','sod'],
        ['Lounge','NNP','loung'],
        ['Opinion','NNP','opin']
      ]
    },
    ['»','NNP','»'],
    ['Op-Ed','NNP','op-ed'],
    [':',':',':'],
    {
      tag:'PERSON',
      content:
      [
        ['Beyond','NNP','beyond']
      ]
    },
    ['Boehner’s','NNP','boehner’s'],
    ['Reach','NNP','reach'],
    ['When','NNP','when'],
    ['freedom','NN','freedom'],
    ['is','VBZ','be'],
    ['outlawed','VBN','outlaw'],
    [',',',',','],
    ['only','RB','on'],
    ['outlaws','VBZ','outlaw'],
    ['will','MD','will'],
    ['be','VB','be'],
    ['free','JJ','fre'],
    ['.','.','.']
  ]
},
{
  tag:'S',
  content:
  [
    ['Or','CC','Or'],
    ['certain','JJ','certain'],
    ['climbers','NNS','climb'],
    ['in','IN','in'],
    {
      tag:'ORGANIZATION',
      content:
      [
        ['Yosemite','NNP','yosemit'],
        ['National','NNP','nat'],
        ['Park','NNP','park']
      ]
    },
    ['.','.','.']
  ]
},
{
  tag:'S',
  content:
  [
    ['World','NN','world'],
    ['»','``','»'],
    {
      tag:'PERSON',
      content:
      [
        ['Muzzled','NNP','muzzl'],
        ['Chinese','NNP','chines'],
        ['Artwork','NNP','artwork']
      ]
    },
    [',',',',','],
    {
      tag:'GPE',
      content:
      [
        ['Absent','NNP','abs']
      ]
    },
    [',',',',','],
    ['Sp','NNP','sp']
  ]
}]