[
{
  tag:'S',
  content:
  [
    ['Try','NNP','try'],
    ['a','DT','a'],
    {
      tag:'ORGANIZATION',
      content:
      [
        ['Digital','NNP','digit'],
        ['Subscription','NNP','subscrib']
      ]
    },
    ['campaign','NN','campaign'],
    [':',':',':'],
    ['inyt2013_bar1_hp_ros_digi_3KXQQ','NNP','inyt2013_bar1_hp_ros_digi_3kxqq'],
    ['--',':','--'],
    ['227471','CD','227471'],
    [',',',',','],
    ['creative','JJ','cre'],
    [':',':',':'],
    ['bar1_ros_inyt_hp_digi_3KXQQ','NNP','bar1_ros_inyt_hp_digi_3kxqq'],
    ['--',':','--'],
    ['351672','CD','351672'],
    [',',',',','],
    ['page','NN','pag'],
    [':',':',':'],
    ['www.nytimes.com/archive/article/sports','NNS','www.nytimes.com/archive/article/sports'],
    [',',',',','],
    ['targetedPage','NNP','targetedp'],
    [':',':',':'],
    ['www.nytimes.com/archive/article/sports','NNS','www.nytimes.com/archive/article/sports'],
    [',',',',','],
    ['position','NN','posit'],
    [':',':',':'],
    {
      tag:'ORGANIZATION',
      content:
      [
        ['Bar1','NNP','bar1'],
        ['Log','NNP','log']
      ]
    },
    ['In','NNP','in'],
    ['Register','NNP','reg'],
    ['Now','NNP','now'],
    ['Help','NNP','help'],
    ['Home','NNP','hom'],
    ['Page','NNP','pag'],
    ['Today','NNP','today'],
    [''s','POS',''s'],
    {
      tag:'PERSON',
      content:
      [
        ['Paper','NNP','pap'],
        ['Video','NNP','video'],
        ['Most','NNP','most'],
        ['Popular','NNP','popul']
      ]
    },
    ['Edition','NNP','edit'],
    [':',':',':'],
    {
      tag:'GPE',
      content:
      [
        ['U.S.','NNP','u.s.']
      ]
    },
    ['/',':','/'],
    {
      tag:'PERSON',
      content:
      [
        ['Global','NNP','glob'],
        ['Search','NNP','search'],
        ['All','NNP','al']
      ]
    },
    ['NYTimes.com','NNP','nytimes.com'],
    ['Sports','NNPS','sport'],
    ['World','NNP','world'],
    {
      tag:'GPE',
      content:
      [
        ['U.S.','NNP','u.s.']
      ]
    },
    ['N.Y.','NNP','n.y.'],
    ['/','NNP','/'],
    ['Region','NNP','reg'],
    ['Business','NNP','busy'],
    ['Technology','NNP','technolog'],
    ['Science','NNP','sci'],
    ['Health','NNP','heal'],
    ['Sports','NNP','sport'],
    ['BaseballN.F.L.College','NNP','baseballn.f.l.college'],
    ['FootballN.B.A.College','NNP','footballn.b.a.college'],
    ['BasketballHockeySoccerGolfTennisInternational','NNP','basketballhockeysoccergolftennisintern'],
    {
      tag:'ORGANIZATION',
      content:
      [
        ['SportsBuy','NNP','sportsbuy'],
        ['Tickets','NNPS','ticket'],
        ['Opinion','NNP','opin'],
        ['Arts','NNP','art'],
        ['Style','NNP','styl'],
        ['Travel','NNP','travel'],
        ['Jobs','NNP','job'],
        ['Real','NNP','real'],
        ['Estate','NNP','est'],
        ['Autos','NNP','auto'],
        ['Advertise','NNP','advert']
      ]
    },
    ['on','IN','on'],
    ['NYTimes.com','NNP','nytimes.com'],
    ['SPORTS','NNP','sport'],
    ['OF','NNP','of'],
    ['THE','NNP','the'],
    {
      tag:'ORGANIZATION',
      content:
      [
        ['TIMES','NNP','tim']
      ]
    },
    ['SPORTS','NNP','sport'],
    ['OF','NNP','of'],
    ['THE','NNP','the'],
    {
      tag:'ORGANIZATION',
      content:
      [
        ['TIMES','NNP','tim']
      ]
    },
    [';',':',';'],
    {
      tag:'ORGANIZATION',
      content:
      [
        ['COPYRIGHT','NNP','copyright']
      ]
    },
    ['CARL','NNP','carl'],
    ['LEWIS','NNP','lew'],
    ['By','NNP','by'],
    {
      tag:'PERSON',
      content:
      [
        ['Dave','NNP','dav'],
        ['Anderson','NNP','anderson'],
        ['Published','NNP','publ']
      ]
    },
    [':',':',':'],
    ['August','NNP','august'],
    ['7','CD','7'],
    [',',',',','],
    ['1984','CD','1984'],
    {
      tag:'ORGANIZATION',
      content:
      [
        ['LOS','NNP','los']
      ]
    },
    ['ANGELES','NNP','angel'],
    ['For','NNP','for'],
    ['all','PDT','all'],
    ['his','PRP$','his'],
    ['headlines','NNS','headlin'],
    [',',',',','],
    {
      tag:'PERSON',
      content:
      [
        ['Carl','NNP','carl'],
        ['Lewis','NNP','lew']
      ]
    },
    ['somehow','NN','somehow'],
    ['has','VBZ','hav'],
    ['n't','RB','n't'],
    ['had','VBD','hav'],
    ['a','DT','a'],
    ['nickname','NN','nicknam'],
    ['worthy','JJ','worthy'],
    ['of','IN','of'],
    ['his','PRP$','his'],
    ['stature','NN','stat'],
    ['as','IN','as'],
    ['an','DT','an'],
    ['athlete','JJ','athlet'],
    ['.','.','.']
  ]
},
{
  tag:'S',
  content:
  [
    ['But','CC','But'],
    ['as','IN','as'],
    ['these','DT','these'],
    ['Olympics','NNP','olymp'],
    ['progress','NN','progress'],
    [',',',',','],
    ['a','DT','a'],
    ['nickname','NN','nicknam'],
    ['worthy','JJ','worthy'],
    ['of','IN','of'],
    ['his','PRP$','his'],
    ['stature','NN','stat'],
    ['as','IN','as'],
    ['a','DT','a'],
    ['salesman','NN','salesm'],
    ['is','VBZ','be'],
    ['becoming','VBG','becom'],
    ['more','RBR','mor'],
    ['and','CC','and'],
    ['more','RBR','mor'],
    ['obvious','JJ','obvy'],
    [',',',',','],
    ['if','IN','if'],
    ['not','RB','not'],
    ['odorous','JJ','od'],
    ['.','.','.']
  ]
},
{
  tag:'S',
  content:
  [
    {
      tag:'PERSON',
      content:
      [
        ['Copyright','NNP','copyright']
      ]
    },
    {
      tag:'ORGANIZATION',
      content:
      [
        ['Carl','NNP','carl']
      ]
    },
    ['.','.','.']
  ]
},
{
  tag:'S',
  content:
  [
    ['On','IN','On'],
    ['newstands','NNS','newstand'],
    ['all','DT','all'],
    ['over','IN','over'],
    {
      tag:'GPE',
      content:
      [
        ['America','NNP','americ']
      ]
    },
    ['yesterday','NN','yesterday'],
    [',',',',','],
    {
      tag:'PERSON',
      content:
      [
        ['Carl','NNP','carl'],
        ['Lewis','NNP','lew']
      ]
    },
    [',',',',','],
    ['an','DT','an'],
    ['Olympic','NNP','olymp'],
    ['gold','NN','gold'],
    ['medal','NN','med'],
    ['around','IN','around'],
    ['his','PRP$','his'],
    ['neck','NN','neck'],
    [',',',',','],
    ['was','VBD','be'],
    ['smiling','VBG','smil'],
    ['at','IN','at'],
    ['you','PRP','you'],
    ['from','IN','from'],
    ['the','DT','the'],
    ['cover','NN','cov'],
    ['of','IN','of'],
    {
      tag:'GPE',
      content:
      [
        ['Time','NNP','tim']
      ]
    },
    ['magazine','NN','magazin'],
    ['.','.','.']
  ]
},
{
  tag:'S',
  content:
  [
    {
      tag:'GPE',
      content:
      [
        ['Inside','NNP','insid']
      ]
    },
    [',',',',','],
    ['on','IN','on'],
    ['the','DT','the'],
    ['contents','NNS','cont'],
    ['page','VBP','pag'],
    [',',',',','],
    ['the','DT','the'],
    ['phrase','NN','phrase'],
    ['''Copyright','JJ','''copyright'],
    {
      tag:'PERSON',
      content:
      [
        ['Carl','NNP','carl'],
        ['Lewis','NNP','lew']
      ]
    },
    ['''','''',''''],
    ['followed','VBD','follow'],
    ['the','DT','the'],
    ['credit','NN','credit'],
    ['line','NN','lin'],
    ['for','IN','for'],
    {
      tag:'PERSON',
      content:
      [
        ['Neil','NNP','neil'],
        ['Leifer','NNP','leif']
      ]
    },
    [''s','POS',''s'],
    ['photograph','NN','photograph'],
    ['that','IN','that'],
    ['was','VBD','be'],
    ['taken','VBN','tak'],
    ['at','IN','at'],
    ['least','JJS','least'],
    ['four','CD','four'],
    ['days','NNS','day'],
    ['before','IN','before'],
    {
      tag:'PERSON',
      content:
      [
        ['Carl','NNP','carl'],
        ['Lewis','NNP','lew']
      ]
    },
    ['actually','RB','act'],
    ['won','VBD','win'],
    ['his','PRP$','his'],
    ['first','JJ','first'],
    ['Olympic','NNP','olymp'],
    ['gold','NN','gold'],
    ['medal','NN','med'],
    ['in','IN','in'],
    ['last','JJ','last'],
    ['Saturday','NNP','saturday'],
    [''s','POS',''s'],
    ['100-','CD','100-'],
    ['meter','NN','met'],
    ['final','JJ','fin'],
    ['.','.','.']
  ]
},
{
  tag:'S',
  content:
  [
    {
      tag:'PERSON',
      content:
      [
        ['Carl','NNP','carl']
      ]
    },
    {
      tag:'PERSON',
      content:
      [
        ['Lewis','NNP','lew']
      ]
    },
    [',',',',','],
    ['according','VBG','accord'],
    ['to','TO','to'],
    ['the','DT','the'],
    ['photographer','NN','photograph'],
    [',',',',','],
    ['was','VBD','be'],
    ['not','RB','not'],
    ['paid','VBN','pay'],
    ['to','TO','to'],
    ['pose','VB','pos'],
    ['with','IN','with'],
    ['the','DT','the'],
    ['borrowed','VBN','borrow'],
    ['gold','NN','gold'],
    ['medal','NN','med'],
    ['.','.','.']
  ]
},
{
  tag:'S',
  content:
  [
    ['In','IN','In'],
    ['his','PRP$','his'],
    ['pursuit','NN','pursuit'],
    ['of','IN','of'],
    ['four','CD','four'],
    ['gold','NN','gold'],
    ['medals','NNS','med'],
    [',',',',','],
    {
      tag:'PERSON',
      content:
      [
        ['Carl','NNP','carl'],
        ['Lewis','NNP','lew']
      ]
    },
    ['was','VBD','be'],
    ['expected','VBN','expect'],
    ['to','TO','to'],
    ['win','VB','win'],
    ['his','PRP$','his'],
    ['second','JJ','second'],
    ['last','JJ','last'],
    ['night','NN','night'],
    ['in','IN','in'],
    ['the','DT','the'],
    ['long','JJ','long'],
    ['jump','NN','jump'],
    [',',',',','],
    ['an','DT','an'],
    ['event','NN','ev'],
    ['he','PRP','he'],
    ['has','VBZ','hav'],
    ['all','DT','all'],
    ['but','CC','but'],
    ['copyrighted','VBN','copyright'],
    ['.','.','.']
  ]
},
{
  tag:'S',
  content:
  [
    {
      tag:'PERSON',
      content:
      [
        ['Copyright','NNP','copyright']
      ]
    },
    {
      tag:'PERSON',
      content:
      [
        ['Carl','NNP','carl'],
        ['Lewis','NNP','lew']
      ]
    },
    ['-',':','-'],
    ['that','IN','that'],
    ['looms','NNS','loom'],
    ['as','IN','as'],
    ['the','DT','the'],
    ['phrase','NN','phrase'],
    ['for','IN','for'],
    ['which','WDT','which'],
    ['these','DT','these'],
    ['Olympics','NNP','olymp'],
    ['will','MD','will'],
    ['be','VB','be'],
    ['best','JJS','best'],
    ['remembered','VBN','rememb'],
    ['in','IN','in'],
    ['the','DT','the'],
    ['months','NNS','mon'],
    ['to','TO','to'],
    ['come','VB','com'],
    [',',',',','],
    ['perhaps','RB','perhap'],
    ['years','NNS','year'],
    ['to','TO','to'],
    ['come','VB','com'],
    ['.','.','.']
  ]
},
{
  tag:'S',
  content:
  [
    ['In','IN','In'],
    ['his','PRP$','his'],
    ['ambition','NN','ambit'],
    ['to','TO','to'],
    ['win','VB','win'],
    ['the','DT','the'],
    ['same','JJ','sam'],
    ['four','CD','four'],
    ['Olympic','NNP','olymp'],
    ['events','NNS','ev'],
    ['that','WDT','that'],
    {
      tag:'PERSON',
      content:
      [
        ['Jesse','NNP','jess'],
        ['Owens','NNP','ow']
      ]
    },
    ['did','VBD','do'],
    ['in','IN','in'],
    ['1936','CD','1936'],
    ['at','IN','at'],
    {
      tag:'FACILITY',
      content:
      [
        ['Berlin','NNP','berlin']
      ]
    },
    [',',',',','],
    ['he','PRP','he'],
    ['will','MD','will'],
    ['be','VB','be'],
    ['favored','VBN','fav'],
    ['in','IN','in'],
    ['the','DT','the'],
    ['200-meter','JJ','200-meter'],
    ['final','JJ','fin'],
    ['Thursday','NNP','thursday'],
    ['after','IN','after'],
    ['having','VBG','hav'],
    ['won','NN','won'],
    ['two','CD','two'],
    ['heats','NNS','heat'],
    ['yesterday','NN','yesterday'],
    ['morning','NN','morn'],
    ['in','IN','in'],
    ['that','DT','that'],
    ['event','NN','ev'],
    ['.','.','.']
  ]
},
{
  tag:'S',
  content:
  [
    ['Saturday','NNP','saturday'],
    ['he','PRP','he'],
    ['will','MD','will'],
    ['run','VB','run'],
    ['on','IN','on'],
    ['the','DT','the'],
    {
      tag:'GPE',
      content:
      [
        ['United','NNP','unit'],
        ['States','NNPS','stat']
      ]
    },
    ['team','NN','team'],
    ['in','IN','in'],
    ['the','DT','the'],
    ['400-meter','JJ','400-meter'],
    ['relay','NN','relay'],
    ['.','.','.']
  ]
},
{
  tag:'S',
  content:
  [
    ['By','IN','By'],
    ['next','JJ','next'],
    ['week','NN','week'],
    [',',',',','],
    ['''Copyright','JJ','''copyright'],
    {
      tag:'PERSON',
      content:
      [
        ['Carl','NNP','carl'],
        ['Lewis','NNP','lew']
      ]
    },
    ['''','''',''''],
    ['will','MD','will'],
    ['be','VB','be'],
    ['tagged','VBN','tag'],
    ['to','TO','to'],
    ['photos','NNS','photo'],
    [',',',',','],
    ['posters','NNS','post'],
    ['and','CC','and'],
    ['everything','NN','everyth'],
    ['else','RB','els'],
    ['that','IN','that'],
    ['he','PRP','he'],
    ['and','CC','and'],
    ['his','PRP$','his'],
    ['manager','NN','man'],
    [',',',',','],
    {
      tag:'PERSON',
      content:
      [
        ['Joe','NNP','joe'],
        ['Douglas','NNP','dougla']
      ]
    },
    [',',',',','],
    ['consider','NN','consid'],
    ['marketable','JJ','market'],
    ['.','.','.']
  ]
},
{
  tag:'S',
  content:
  [
    ['At','IN','At'],
    ['a','DT','a'],
    ['news','NN','new'],
    ['conference','NN','conf'],
    ['here','RB','her'],
    ['last','JJ','last'],
    ['week','NN','week'],
    [',',',',','],
    {
      tag:'PERSON',
      content:
      [
        ['Joe','NNP','joe'],
        ['Douglas','NNP','dougla']
      ]
    },
    [',',',',','],
    ['once','RB','ont'],
    ['merely','RB','mer'],
    ['the','DT','the'],
    ['coach','NN','coach'],
    ['of','IN','of'],
    ['the','DT','the'],
    {
      tag:'ORGANIZATION',
      content:
      [
        ['Santa','NNP','sant']
      ]
    },
    {
      tag:'PERSON',
      content:
      [
        ['Monica','NNP','monic'],
        ['Track','NNP','track'],
        ['Club','NNP','club']
      ]
    },
    [',',',',','],
    ['compared','VBN','comp'],
    ['what','WP','what'],
    {
      tag:'PERSON',
      content:
      [
        ['Frederick','NNP','frederick'],
        ['Carlton','NNP','carlton'],
        ['Lewis','NNP','lew']
      ]
    },
    ['might','MD','might'],
    ['be','VB','be'],
    ['worth','JJ','wor'],
    ['to','TO','to'],
    ['the','DT','the'],
    ['millions','NNS','mil'],
    ['the','DT','the'],
    ['rock','NN','rock'],
    ['star','NN','star'],
    {
      tag:'PERSON',
      content:
      [
        ['Michael','NNP','michael'],
        ['Jackson','NNP','jackson']
      ]
    },
    ['is','VBZ','be'],
    ['earning','VBG','earn'],
    ['on','IN','on'],
    ['his','PRP$','his'],
    ['current','JJ','cur'],
    ['tour','NN','tour'],
    ['.','.','.']
  ]
},
{
  tag:'S',
  content:
  [
    {
      tag:'PERSON',
      content:
      [
        ['Joe','NNP','joe']
      ]
    },
    {
      tag:'PERSON',
      content:
      [
        ['Douglas','NNP','dougla']
      ]
    },
    ['is','VBZ','be'],
    ['dreaming','VBG','dream'],
    ['.','.','.']
  ]
},
{
  tag:'S',
  content:
  [
    {
      tag:'PERSON',
      content:
      [
        ['Carl','NNP','carl']
      ]
    },
    {
      tag:'PERSON',
      content:
      [
        ['Lewis','NNP','lew']
      ]
    },
    ['ca','MD','ca'],
    ['n't','RB','n't'],
    ['make','VB','mak'],
    ['records','NNS','record'],
    [',',',',','],
    ['he','PRP','he'],
    ['can','MD','can'],
    ['only','RB','on'],
    ['set','VB','set'],
    ['them','PRP','them'],
    ['.','.','.']
  ]
},
{
  tag:'S',
  content:
  [
    ['But','CC','But'],
    ['that','DT','that'],
    ['does','VBZ','do'],
    ['n't','RB','n't'],
    ['mean','VB','mean'],
    ['that','IN','that'],
    {
      tag:'PERSON',
      content:
      [
        ['Carl','NNP','carl'],
        ['Lewis','NNP','lew']
      ]
    },
    ['wo','MD','wo'],
    ['n't','RB','n't'],
    ['make','VB','mak'],
    ['a','DT','a'],
    ['few','JJ','few'],
    ['million','NN','mil'],
    ['in','IN','in'],
    ['the','DT','the'],
    ['next','JJ','next'],
    ['few','JJ','few'],
    ['months','NNS','mon'],
    ['.','.','.']
  ]
},
{
  tag:'S',
  content:
  [
    ['According','VBG','accord'],
    ['to','TO','to'],
    ['The','DT','The'],
    {
      tag:'ORGANIZATION',
      content:
      [
        ['Athletics','NNP','athlet'],
        ['Congress','NNP','congress']
      ]
    },
    ['rules','VBZ','rul'],
    [',',',',','],
    ['as','IN','as'],
    ['accepted','VBN','acceiv'],
    ['by','IN','by'],
    ['the','DT','the'],
    {
      tag:'ORGANIZATION',
      content:
      [
        ['International','NNP','intern']
      ]
    },
    ['Olympic','NNP','olymp'],
    ['Committee','NNP','commit'],
    [',',',',','],
    ['an','DT','an'],
    {
      tag:'ORGANIZATION',
      content:
      [
        ['American','NNP','am']
      ]
    },
    ['track-and-field','NNP','track-and-field'],
    ['athlete','JJ','athlet'],
    [''s','POS',''s'],
    ['income','NN','incom'],
    ['is','VBZ','be'],
    ['permitted','VBN','permit'],
    ['to','TO','to'],
    ['be','VB','be'],
    ['deposited','VBN','deposit'],
    ['in','IN','in'],
    ['a','DT','a'],
    ['''trust','JJ','''trust'],
    ['fund','NN','fund'],
    [',',',',','],
    ['''','''',''''],
    ['from','IN','from'],
    ['which','WDT','which'],
    ['living','VBG','liv'],
    ['expenses','NNS','expens'],
    ['are','VBP','be'],
    ['taken','VBN','tak'],
    ['.','.','.']
  ]
},
{
  tag:'S',
  content:
  [
    ['With','IN','With'],
    ['his','PRP$','his'],
    ['various','JJ','vary'],
    ['endorsement','NN','endors'],
    ['contracts','NNS','contract'],
    ['that','WDT','that'],
    ['should','MD','should'],
    ['be','VB','be'],
    ['worth','JJ','wor'],
    ['millions','NNS','mil'],
    ['if','IN','if'],
    ['he','PRP','he'],
    ['wins','VBZ','win'],
    ['four','CD','four'],
    ['gold','NN','gold'],
    ['medals','NNS','med'],
    [',',',',','],
    {
      tag:'PERSON',
      content:
      [
        ['Carl','NNP','carl'],
        ['Lewis','NNP','lew']
      ]
    },
    ['lives','VBZ','liv'],
    ['very','RB','very'],
    ['well','RB','wel'],
    ['in','IN','in'],
    {
      tag:'GPE',
      content:
      [
        ['Houston','NNP','houston']
      ]
    },
    [',',',',','],
    ['collecting','VBG','collect'],
    ['silver','NN','silv'],
    ['and','CC','and'],
    ['crystal','NN','cryst'],
    ['.','.','.']
  ]
},
{
  tag:'S',
  content:
  [
    ['All','DT','All'],
    ['this','DT','this'],
    ['befits','NNS','befit'],
    ['his','PRP$','his'],
    ['stature','NN','stat'],
    ['as','IN','as'],
    ['a','DT','a'],
    ['world-class','JJ','world-class'],
    ['track-and-','NN','track-and-'],
    ['field','NN','field'],
    ['athlete','NN','athlet'],
    [',',',',','],
    ['as','IN','as'],
    ['it','PRP','it'],
    ['does','VBZ','do'],
    ['several','JJ','sev'],
    ['other','JJ','oth'],
    ['Americans','NNS','am'],
    [',',',',','],
    ['notably','RB','not'],
    {
      tag:'PERSON',
      content:
      [
        ['Edwin','NNP','edwin'],
        ['Moses','NNP','mos']
      ]
    },
    [',',',',','],
    {
      tag:'PERSON',
      content:
      [
        ['Mary','NNP','mary'],
        ['Decker','NNP','deck']
      ]
    },
    ['and','CC','and'],
    {
      tag:'PERSON',
      content:
      [
        ['Alberto','NNP','alberto'],
        ['Salazar','NNP','salaz']
      ]
    },
    ['.','.','.']
  ]
},
{
  tag:'S',
  content:
  [
    ['''I','NN','''i'],
    ['am','VBP','be'],
    ['not','RB','not'],
    ['limited','VBN','limit'],
    ['to','TO','to'],
    ['being','VBG','be'],
    ['an','DT','an'],
    ['athlete','JJ','athlet'],
    [',',',',','],
    ['''','''',''''],
    ['he','PRP','he'],
    ['said','VBD','say'],
    ['last','JJ','last'],
    ['week','NN','week'],
    ['.','.','.']
  ]
},
{
  tag:'S',
  content:
  [
    ['''I','NN','''i'],
    ['am','VBP','be'],
    ['limitless','NN','limitless'],
    ['.','.','.']
  ]
},
{
  tag:'S',
  content:
  [
    ['''','''',''''],
    ['To','TO','To'],
    ['justify','VB','just'],
    ['his','PRP$','his'],
    ['''limitless','JJ','''limitless'],
    ['''','''',''''],
    ['life','NN','lif'],
    ['style','NN','styl'],
    [',',',',','],
    {
      tag:'PERSON',
      content:
      [
        ['Carl','NNP','carl'],
        ['Lewis','NNP','lew']
      ]
    },
    ['spoke','NN','spok'],
    ['of','IN','of'],
    ['the','DT','the'],
    ['millions','NNS','mil'],
    ['the','DT','the'],
    ['I.O.C','JJ','i.o.c'],
    ['.','.','.']
  ]
},
{
  tag:'S',
  content:
  [
    ['and','CC','and'],
    ['the','DT','the'],
    {
      tag:'GPE',
      content:
      [
        ['Los','NNP','los'],
        ['Angeles','NNP','angel']
      ]
    },
    ['Olympic','NNP','olymp'],
    ['Organizing','NNP','org'],
    ['Committee','NNP','commit'],
    ['will','MD','will'],
    ['make','VB','mak'],
    ['-',':','-'],
    ['an','DT','an'],
    ['understandable','JJ','understand'],
    ['argument','NN','argu'],
    ['that','WDT','that'],
    ['deflates','VBZ','defl'],
    ['Olympic','NNP','olymp'],
    ['hypocrisy','NN','hypocrisy'],
    ['.','.','.']
  ]
},
{
  tag:'S',
  content:
  [
    ['In','IN','In'],
    ['reality','NN','real'],
    [',',',',','],
    ['there','EX','there'],
    ['are','VBP','be'],
    ['few','JJ','few'],
    [',',',',','],
    ['if','IN','if'],
    ['any','DT','any'],
    [',',',',','],
    ['''amateur','JJ','''amateur'],
    ['''','''',''''],
    ['athletes','VBZ','athlet'],
    ['in','IN','in'],
    ['the','DT','the'],
    ['Olympics','NNP','olymp'],
    ['anymore','NN','anym'],
    ['.','.','.']
  ]
},
{
  tag:'S',
  content:
  [
    ['With','IN','With'],
    ['the','DT','the'],
    ['Olympics','NNP','olymp'],
    ['as','IN','as'],
    ['commercial','JJ','commerc'],
    ['as','IN','as'],
    ['the','DT','the'],
    {
      tag:'ORGANIZATION',
      content:
      [
        ['Super','NNP','sup'],
        ['Bowl','NNP','bowl']
      ]
    },
    [',',',',','],
    ['there','EX','there'],
    ['is','VBZ','be'],
    ['no','DT','no'],
    ['quarrel','NN','quarrel'],
    ['here','RB','her'],
    ['with','IN','with'],
    ['the','DT','the'],
    ['selling','NN','sel'],
    ['of','IN','of'],
    {
      tag:'PERSON',
      content:
      [
        ['Carl','NNP','carl'],
        ['Lewis','NNP','lew']
      ]
    },
    ['or','CC','or'],
    ['any','DT','any'],
    ['other','JJ','oth'],
    ['Olympic','NNP','olymp'],
    ['athlete','JJ','athlet'],
    [',',',',','],
    ['only','RB','on'],
    ['with','IN','with'],
    ['how','WRB','how'],
    ['it','PRP','it'],
    [''s','VBZ',''s'],
    ['done','VBN','do'],
    ['.','.','.']
  ]
},
{
  tag:'S',
  content:
  [
    {
      tag:'PERSON',
      content:
      [
        ['Edwin','NNP','edwin']
      ]
    },
    {
      tag:'ORGANIZATION',
      content:
      [
        ['Moses','NNP','mos']
      ]
    },
    ['also','RB','also'],
    ['has','VBZ','hav'],
    ['sold','VBN','sel'],
    ['himself','PRP','himself'],
    [',',',',','],
    ['earning','VBG','earn'],
    ['a','DT','a'],
    ['reported','JJ','report'],
    ['$','$','$'],
    ['457,000','CD','457,000'],
    ['last','JJ','last'],
    ['year','NN','year'],
    ['.','.','.']
  ]
},
{
  tag:'S',
  content:
  [
    ['But','CC','But'],
    ['in','IN','in'],
    ['the','DT','the'],
    ['process','NN','process'],
    [',',',',','],
    ['the','DT','the'],
    ['Olympic','NNP','olymp'],
    ['gold','NN','gold'],
    ['medalist','NN','med'],
    ['in','IN','in'],
    ['the','DT','the'],
    ['400-meter','JJ','400-meter'],
    ['hurdles','NNS','hurdl'],
    ['has','VBZ','hav'],
    ['maintained','VBN','maintain'],
    ['a','DT','a'],
    ['dignity','NN','dign'],
    ['that','WDT','that'],
    ['embellishes','VBZ','embel'],
    ['his','PRP$','his'],
    ['mystique','NN','myst'],
    ['.','.','.']
  ]
},
{
  tag:'S',
  content:
  [
    ['In','IN','In'],
    ['contrast','NN','contrast'],
    [',',',',','],
    {
      tag:'PERSON',
      content:
      [
        ['Carl','NNP','carl'],
        ['Lewis','NNP','lew']
      ]
    },
    ['appears','VBZ','appear'],
    ['to','TO','to'],
    ['be','VB','be'],
    ['trying','VBG','try'],
    ['too','RB','too'],
    ['hard','RB','hard'],
    ['to','TO','to'],
    ['sell','VB','sel'],
    ['himself','PRP','himself'],
    [',',',',','],
    ['thereby','RB','thereby'],
    ['tarnishing','VBG','tarn'],
    ['his','PRP$','his'],
    ['mystique','NN','myst'],
    ['.','.','.']
  ]
},
{
  tag:'S',
  content:
  [
    ['After','IN','After'],
    ['winning','VBG','win'],
    ['the','DT','the'],
    ['100-meter','JJ','100-meter'],
    ['final','JJ','fin'],
    [',',',',','],
    {
      tag:'PERSON',
      content:
      [
        ['Carl','NNP','carl'],
        ['Lewis','NNP','lew']
      ]
    },
    ['went','VBD','go'],
    ['over','IN','over'],
    ['to','TO','to'],
    ['the','DT','the'],
    ['stands','NNS','stand'],
    [',',',',','],
    ['borrowed','VBD','borrow'],
    ['a','DT','a'],
    ['big','JJ','big'],
    {
      tag:'GPE',
      content:
      [
        ['American','JJ','am']
      ]
    },
    ['flag','NN','flag'],
    ['from','IN','from'],
    ['someone','NN','someon'],
    ['in','IN','in'],
    ['the','DT','the'],
    ['first','JJ','first'],
    ['row','NN','row'],
    ['and','CC','and'],
    ['waved','VBD','wav'],
    ['it','PRP','it'],
    ['as','IN','as'],
    ['he','PRP','he'],
    ['loped','VBD','lop'],
    ['along','IN','along'],
    ['the','DT','the'],
    ['track','NN','track'],
    ['.','.','.']
  ]
},
{
  tag:'S',
  content:
  [
    {
      tag:'PERSON',
      content:
      [
        ['Samuel','NNP','samuel']
      ]
    },
    {
      tag:'ORGANIZATION',
      content:
      [
        ['Goldwyn','NNP','goldwyn']
      ]
    },
    ['would','MD','would'],
    ['have','VB','hav'],
    ['loved','VBN','lov'],
    ['it','PRP','it'],
    ['.','.','.']
  ]
},
{
  tag:'S',
  content:
  [
    ['The','DT','The'],
    ['big','JJ','big'],
    ['flag','NN','flag'],
    ['was','VBD','be'],
    ['the','DT','the'],
    ['perfect','NN','perfect'],
    ['patriotic','JJ','patriot'],
    ['touch','NN','touch'],
    ['for','IN','for'],
    {
      tag:'GPE',
      content:
      [
        ['America','NNP','americ']
      ]
    },
    [''s','POS',''s'],
    ['most','JJS','most'],
    ['celebrated','JJ','celebr'],
    ['Olympic','NNP','olymp'],
    ['athlete','NN','athlet'],
    ['.','.','.']
  ]
},
{
  tag:'S',
  content:
  [
    {
      tag:'GPE',
      content:
      [
        ['Lights','NNS','light']
      ]
    },
    [',',',',','],
    ['action','NN','act'],
    [',',',',','],
    ['camera','NN','camer'],
    ['.','.','.']
  ]
},
{
  tag:'S',
  content:
  [
    ['But','CC','But'],
    ['unlike','IN','unlike'],
    ['other','JJ','oth'],
    {
      tag:'GPE',
      content:
      [
        ['American','JJ','am']
      ]
    },
    ['athletes','NNS','athlet'],
    ['who','WP','who'],
    ['have','VBP','hav'],
    ['waved','VBN','wav'],
    ['the','DT','the'],
    ['flag','NN','flag'],
    ['here','RB','her'],
    [',',',',','],
    {
      tag:'PERSON',
      content:
      [
        ['Carl','NNP','carl'],
        ['Lewis','NNP','lew']
      ]
    },
    ['seemed','VBD','seem'],
    ['to','TO','to'],
    ['overplay','VB','overplay'],
    ['his','PRP$','his'],
    ['part','NN','part'],
    ['.','.','.']
  ]
},
{
  tag:'S',
  content:
  [
    ['He','PRP','He'],
    ['stayed','VBD','stay'],
    ['out','RP','out'],
    ['there','RB','ther'],
    ['waving','VBG','wav'],
    ['the','DT','the'],
    ['flag','NN','flag'],
    ['too','RB','too'],
    ['long','RB','long'],
    ['.','.','.']
  ]
},
{
  tag:'S',
  content:
  [
    ['So','IN','So'],
    ['much','RB','much'],
    ['so','RB','so'],
    ['that','IN','that'],
    ['his','PRP$','his'],
    ['reaction','NN','react'],
    ['seemed','VBD','seem'],
    ['to','TO','to'],
    ['be','VB','be'],
    ['structured','VBN','structure'],
    [',',',',','],
    ['not','RB','not'],
    ['spontaneous','JJ','spont'],
    ['.','.','.']
  ]
},
{
  tag:'S',
  content:
  [
    ['Since','IN','Since'],
    ['then','RB','then'],
    [',',',',','],
    ['conflicting','VBG','conflict'],
    ['reports','NNS','report'],
    ['have','VBP','hav'],
    ['emerged','VBN','emerg'],
    ['over','IN','over'],
    ['the','DT','the'],
    ['owner','NN','own'],
    ['of','IN','of'],
    ['that','DT','that'],
    ['big','JJ','big'],
    ['flag','NN','flag'],
    ['.','.','.']
  ]
},
{
  tag:'S',
  content:
  [
    ['Was','NNP','was'],
    ['it','PRP','it'],
    ['a','DT','a'],
    ['stranger','NN','stranger'],
    [',',',',','],
    ['as','IN','as'],
    ['The','DT','The'],
    {
      tag:'GPE',
      content:
      [
        ['Los','NNP','los'],
        ['Angeles','NNP','angel']
      ]
    },
    {
      tag:'PERSON',
      content:
      [
        ['Times','NNP','tim']
      ]
    },
    ['reported','VBD','report'],
    ['?','.','?']
  ]
},
{
  tag:'S',
  content:
  [
    ['Or','CC','Or'],
    ['was','VBD','be'],
    ['it','PRP','it'],
    ['one','CD','one'],
    ['of','IN','of'],
    {
      tag:'PERSON',
      content:
      [
        ['Carl','NNP','carl'],
        ['Lewis','NNP','lew']
      ]
    },
    [''s','POS',''s'],
    ['coaches','NNS','coach'],
    [',',',',','],
    ['planted','VBD','plant'],
    ['there','EX','there'],
    ['for','IN','for'],
    ['the','DT','the'],
    ['occasion','NN','occas'],
    [',',',',','],
    ['as','IN','as'],
    ['a','DT','a'],
    ['source','NN','sourc'],
    ['close','NN','clos'],
    ['to','TO','to'],
    ['the','DT','the'],
    {
      tag:'GPE',
      content:
      [
        ['United','NNP','unit'],
        ['States','NNPS','stat']
      ]
    },
    ['Olympic','NNP','olymp'],
    ['Committee','NNP','commit'],
    ['said','VBD','say'],
    ['.','.','.']
  ]
},
{
  tag:'S',
  content:
  [
    ['Whatever','RB','whatev'],
    ['the','DT','the'],
    ['origin','NN','origin'],
    ['of','IN','of'],
    ['the','DT','the'],
    ['flag','NN','flag'],
    [',',',',','],
    {
      tag:'PERSON',
      content:
      [
        ['Carl','NNP','carl'],
        ['Lewis','NNP','lew']
      ]
    },
    ['was','VBD','be'],
    ['on','IN','on'],
    ['stage','NN','stag'],
    ['too','RB','too'],
    ['long','RB','long'],
    ['to','TO','to'],
    ['be','VB','be'],
    ['credible','JJ','cred'],
    ['-',':','-'],
    ['especially','RB','espec'],
    ['after','IN','after'],
    ['only','RB','on'],
    ['the','DT','the'],
    ['first','JJ','first'],
    ['of','IN','of'],
    ['what','WP','what'],
    ['were','VBD','be'],
    ['expected','VBN','expect'],
    ['to','TO','to'],
    ['be','VB','be'],
    ['his','PRP$','his'],
    ['four','CD','four'],
    ['gold','NN','gold'],
    ['medals','NNS','med'],
    ['.','.','.']
  ]
},
{
  tag:'S',
  content:
  [
    ['If','IN','If'],
    ['he','PRP','he'],
    ['did','VBD','do'],
    ['that','IN','that'],
    ['for','IN','for'],
    ['one','CD','one'],
    ['gold','NN','gold'],
    ['medal','NN','med'],
    [',',',',','],
    ['what','WP','what'],
    ['can','MD','can'],
    {
      tag:'PERSON',
      content:
      [
        ['Carl','NNP','carl'],
        ['Lewis','NNP','lew']
      ]
    },
    ['possibly','RB','poss'],
    ['do','VBP','do'],
    ['to','TO','to'],
    ['celebrate','VB','celebr'],
    ['four','CD','four'],
    ['gold','NN','gold'],
    ['medals','NNS','med'],
    ['on','IN','on'],
    ['Saturday','NNP','saturday'],
    ['after','IN','after'],
    ['the','DT','the'],
    ['400','CD','400'],
    ['relay','NN','relay'],
    ['?','.','?']
  ]
},
{
  tag:'S',
  content:
  [
    ['Wave','NNP','wav'],
    ['four','PRP$','four'],
    ['flags','NNS','flag'],
    ['at','IN','at'],
    ['once','RB','ont'],
    ['?','.','?']
  ]
},
{
  tag:'S',
  content:
  [
    ['By','IN','By'],
    ['turning','NN','turn'],
    ['on','IN','on'],
    ['too','RB','too'],
    ['much','JJ','much'],
    ['in','IN','in'],
    ['his','PRP$','his'],
    ['celebration','NN','celebr'],
    [',',',',','],
    {
      tag:'PERSON',
      content:
      [
        ['Carl','NNP','carl'],
        ['Lewis','NNP','lew']
      ]
    },
    ['risks','NNS','risk'],
    ['turning','VBG','turn'],
    ['off','RP','off'],
    ['the','DT','the'],
    ['public','NN','publ'],
    ['that','IN','that'],
    ['he','PRP','he'],
    ['hopes','VBZ','hop'],
    ['to','TO','to'],
    ['sell','VB','sel'],
    ['himself','PRP','himself'],
    ['to','TO','to'],
    ['.','.','.']
  ]
},
{
  tag:'S',
  content:
  [
    {
      tag:'PERSON',
      content:
      [
        ['Muhammad','NNP','muhammad']
      ]
    },
    {
      tag:'PERSON',
      content:
      [
        ['Ali','NNP','al']
      ]
    },
    ['got','VBD','get'],
    ['away','RB','away'],
    ['with','IN','with'],
    ['that','DT','that'],
    ['because','IN','because'],
    ['two','CD','two'],
    ['decades','NNS','decad'],
    ['ago','RB','ago'],
    ['he','PRP','he'],
    ['was','VBD','be'],
    ['new','JJ','new'],
    ['and','CC','and'],
    ['different','JJ','diff'],
    [',',',',','],
    ['and','CC','and'],
    ['also','RB','also'],
    ['because','IN','because'],
    ['he','PRP','he'],
    ['made','VBD','mak'],
    ['people','NNS','peopl'],
    ['laugh','IN','laugh'],
    ['.','.','.']
  ]
},
{
  tag:'S',
  content:
  [
    {
      tag:'PERSON',
      content:
      [
        ['Carl','NNP','carl']
      ]
    },
    {
      tag:'PERSON',
      content:
      [
        ['Lewis','NNP','lew']
      ]
    },
    ['appears','VBZ','appear'],
    ['to','TO','to'],
    ['project','VB','project'],
    ['an','DT','an'],
    ['atmosphere','NN','atmosph'],
    ['of','IN','of'],
    ['arrogance','NN','arrog'],
    ['rather','RB','rath'],
    ['than','IN','than'],
    ['humor','NN','hum'],
    ['.','.','.']
  ]
},
{
  tag:'S',
  content:
  [
    ['Except','IN','Except'],
    ['when','WRB','when'],
    ['on','IN','on'],
    ['display','NN','display'],
    ['in','IN','in'],
    ['the','DT','the'],
    {
      tag:'ORGANIZATION',
      content:
      [
        ['Coliseum','NNP','colise']
      ]
    },
    ['for','IN','for'],
    ['his','PRP$','his'],
    ['events','NNS','ev'],
    [',',',',','],
    {
      tag:'PERSON',
      content:
      [
        ['Carl','NNP','carl'],
        ['Lewis','NNP','lew']
      ]
    },
    ['has','VBZ','hav'],
    ['been','VBN','be'],
    ['all','DT','all'],
    ['but','CC','but'],
    ['invisible','JJ','invis'],
    ['.','.','.']
  ]
},
{
  tag:'S',
  content:
  [
    ['After','IN','After'],
    ['his','PRP$','his'],
    ['200-','CD','200-'],
    ['meter','NN','met'],
    ['heats','NNS','heat'],
    ['yesterday','NN','yesterday'],
    [',',',',','],
    ['he','PRP','he'],
    ['hurried','VBD','hurry'],
    ['in','IN','in'],
    ['his','PRP$','his'],
    ['blue','JJ','blu'],
    ['''USA','NNP','''usa'],
    ['''','''',''''],
    ['warmup','NN','warmup'],
    ['suit','NN','suit'],
    ['through','IN','through'],
    ['what','WP','what'],
    ['is','VBZ','be'],
    ['known','VBN','know'],
    ['as','IN','as'],
    ['the','DT','the'],
    ['mixed','VBN','mix'],
    ['zone','NN','zon'],
    ['-',':','-'],
    ['a','DT','a'],
    ['chest-high','JJ','chest-high'],
    ['chain-link','NN','chain-link'],
    ['fence','NN','fent'],
    ['separating','VBG','sep'],
    ['the','DT','the'],
    ['athletes','NNS','athlet'],
    ['from','IN','from'],
    ['reporters','NNS','report'],
    ['.','.','.']
  ]
},
{
  tag:'S',
  content:
  [
    ['''How','JJ','''how'],
    ['did','VBD','do'],
    ['you','PRP','you'],
    ['feel','VBP','feel'],
    [',',',',','],
    {
      tag:'PERSON',
      content:
      [
        ['Carl','NNP','carl']
      ]
    },
    ['?','.','?']
  ]
},
{
  tag:'S',
  content:
  [
    ['''','''',''''],
    ['somebody','NN','somebody'],
    ['asked','VBD','ask'],
    ['.','.','.']
  ]
},
{
  tag:'S',
  content:
  [
    ['''Hello','NN','''hello'],
    [',',',',','],
    ['''','''',''''],
    ['he','PRP','he'],
    ['said','VBD','say'],
    [',',',',','],
    ['smiling','NN','smil'],
    [',',',',','],
    ['but','CC','but'],
    ['looking','VBG','look'],
    ['beyond','IN','beyond'],
    ['about','IN','about'],
    ['half','DT','half'],
    ['a','DT','a'],
    ['dozen','NN','doz'],
    ['reporters','NNS','report'],
    ['.','.','.']
  ]
},
{
  tag:'S',
  content:
  [
    ['''I','NN','''i'],
    ['want','VBP','want'],
    ['to','TO','to'],
    ['watch','VB','watch'],
    ['the','DT','the'],
    ['next','JJ','next'],
    ['race','NN','rac'],
    ['.','.','.']
  ]
},
{
  tag:'S',
  content:
  [
    ['''','''',''''],
    ['Moments','NNS','mom'],
    ['later','JJ','lat'],
    ['he','PRP','he'],
    ['disappeared','VBD','disappear'],
    ['into','IN','into'],
    ['a','DT','a'],
    ['tunnel','NN','tunnel'],
    ['to','TO','to'],
    ['the','DT','the'],
    ['stands','NNS','stand'],
    ['.','.','.']
  ]
},
{
  tag:'S',
  content:
  [
    ['After','IN','After'],
    ['his','PRP$','his'],
    ['heats','NNS','heat'],
    ['yesterday','NN','yesterday'],
    [',',',',','],
    ['as','IN','as'],
    ['after','IN','after'],
    ['his','PRP$','his'],
    ['previous','JJ','prevy'],
    ['events','NNS','ev'],
    [',',',',','],
    {
      tag:'PERSON',
      content:
      [
        ['Carl','NNP','carl'],
        ['Lewis','NNP','lew']
      ]
    },
    ['avoided','VBD','avoid'],
    ['the','DT','the'],
    ['media-interview','JJ','media-interview'],
    ['tent','NN','tent'],
    ['.','.','.']
  ]
},
{
  tag:'S',
  content:
  [
    ['His','PRP$','His'],
    ['comments','NNS','com'],
    ['on','IN','on'],
    ['his','PRP$','his'],
    ['performances','NNS','perform'],
    [',',',',','],
    ['as','IN','as'],
    ['reported','VBN','report'],
    ['by','IN','by'],
    ['an','DT','an'],
    ['Olympic','NNP','olymp'],
    ['employee','NN','employ'],
    [',',',',','],
    ['have','VBP','hav'],
    ['been','VBN','be'],
    ['handed','VBN','hand'],
    ['out','RP','out'],
    ['to','TO','to'],
    ['the','DT','the'],
    ['news','NN','new'],
    ['media','NNS','med'],
    ['on','IN','on'],
    ['white','JJ','whit'],
    ['sheets','NNS','sheet'],
    ['of','IN','of'],
    ['paper','NN','pap'],
    [',',',',','],
    ['along','IN','along'],
    ['with','IN','with'],
    ['those','DT','those'],
    ['of','IN','of'],
    ['many','JJ','many'],
    ['other','JJ','oth'],
    ['athletes','NNS','athlet'],
    ['.','.','.']
  ]
},
{
  tag:'S',
  content:
  [
    ['''I','NN','''i'],
    ['really','RB','real'],
    ['do','VBP','do'],
    ['n't','RB','n't'],
    ['think','VB','think'],
    ['I','PRP','I'],
    ['need','VBP','nee'],
    ['a','DT','a'],
    ['day','NN','day'],
    ['to','TO','to'],
    ['rest','NN','rest'],
    [',',',',','],
    ['''','''',''''],
    ['he','PRP','he'],
    ['was','VBD','be'],
    ['quoted','VBN','quot'],
    ['as','IN','as'],
    ['saying','VBG','say'],
    [',',',',','],
    ['alluding','VBG','allud'],
    ['to','TO','to'],
    ['today','NN','today'],
    [''s','POS',''s'],
    ['gap','NN','gap'],
    ['in','IN','in'],
    ['athletics','NNS','athlet'],
    ['.','.','.']
  ]
},
{
  tag:'S',
  content:
  [
    ['''These','JJ','''these'],
    ['200','CD','200'],
    [''s','POS',''s'],
    ['in','IN','in'],
    ['the','DT','the'],
    ['morning','NN','morn'],
    ['are','VBP','be'],
    ['not','RB','not'],
    ['going','VBG','go'],
    ['to','TO','to'],
    ['take','VB','tak'],
    ['too','RB','too'],
    ['much','RB','much'],
    ['out','IN','out'],
    ['of','IN','of'],
    ['me','PRP','me'],
    ['.','.','.']
  ]
},
{
  tag:'S',
  content:
  [
    ['''','''',''''],
    ['According','VBG','accord'],
    ['to','TO','to'],
    {
      tag:'PERSON',
      content:
      [
        ['Larry','NNP','larry'],
        ['Myricks','NNP','myrick']
      ]
    },
    [',',',',','],
    ['once','RB','ont'],
    {
      tag:'GPE',
      content:
      [
        ['America','NNP','americ']
      ]
    },
    [''s','POS',''s'],
    ['premier','JJ','premy'],
    ['long','JJ','long'],
    ['jumper','NN','jump'],
    ['before','IN','before'],
    {
      tag:'PERSON',
      content:
      [
        ['Carl','NNP','carl'],
        ['Lewis','NNP','lew']
      ]
    },
    ['began','VBD','begin'],
    ['soaring','VBG','soar'],
    ['into','IN','into'],
    ['space','NN','spac'],
    [',',',',','],
    {
      tag:'PERSON',
      content:
      [
        ['Carl','NNP','carl'],
        ['Lewis','NNP','lew']
      ]
    },
    ['has','VBZ','hav'],
    ['''dug','JJ','''dug'],
    ['himself','PRP','himself'],
    ['into','IN','into'],
    ['a','DT','a'],
    ['hole','JJ','hol'],
    ['''','''',''''],
    ['at','IN','at'],
    ['these','DT','these'],
    ['Olympics','NNP','olymp'],
    ['.','.','.']
  ]
},
{
  tag:'S',
  content:
  [
    ['''Now','JJ','''now'],
    ['he','PRP','he'],
    [''s','VBZ',''s'],
    ['got','VBN','get'],
    ['to','TO','to'],
    ['prove','VB','prov'],
    ['he','PRP','he'],
    ['can','MD','can'],
    ['do','VB','do'],
    ['it','PRP','it'],
    [',',',',','],
    ['''','''',''''],
    {
      tag:'PERSON',
      content:
      [
        ['Larry','NNP','larry'],
        ['Myricks','NNP','myrick']
      ]
    },
    ['says','VBZ','say'],
    ['.','.','.']
  ]
},
{
  tag:'S',
  content:
  [
    ['''Lots','NNS','''lots'],
    ['of','IN','of'],
    ['people','NNS','peopl'],
    ['want','VBP','want'],
    ['to','TO','to'],
    ['see','VB','see'],
    ['him','PRP','him'],
    ['get','VB','get'],
    ['beat','JJ','beat'],
    ['.','.','.']
  ]
},
{
  tag:'S',
  content:
  [
    ['He','PRP','He'],
    ['kind','VBD','kind'],
    ['of','IN','of'],
    ['stands','NNS','stand'],
    ['off','IN','off'],
    ['and','CC','and'],
    ['tries','NNS','try'],
    ['to','TO','to'],
    ['be','VB','be'],
    ['different','JJ','diff'],
    ['like','IN','like'],
    ['a','DT','a'],
    ['celebrity','NN','celebr'],
    ['and','CC','and'],
    ['be','VB','be'],
    ['different','JJ','diff'],
    ['from','IN','from'],
    ['the','DT','the'],
    ['rest','NN','rest'],
    ['of','IN','of'],
    ['us','PRP','us'],
    ['.','.','.']
  ]
},
{
  tag:'S',
  content:
  [
    ['He','PRP','He'],
    [''s','VBZ',''s'],
    ['changed','VBN','chang'],
    ['quite','RB','quit'],
    ['a','DT','a'],
    ['bit','NN','bit'],
    ['since','IN','since'],
    ['I','PRP','I'],
    ['first','RB','first'],
    ['met','VBD','meet'],
    ['him','PRP','him'],
    ['.','.','.']
  ]
},
{
  tag:'S',
  content:
  [
    ['''','''',''''],
    ['He','PRP','He'],
    ['was','VBD','be'],
    {
      tag:'PERSON',
      content:
      [
        ['Carl','NNP','carl'],
        ['Lewis','NNP','lew']
      ]
    },
    ['then','RB','then'],
    ['.','.','.']
  ]
},
{
  tag:'S',
  content:
  [
    ['He','PRP','He'],
    [''s','VBZ',''s'],
    {
      tag:'PERSON',
      content:
      [
        ['Copyright','NNP','copyright'],
        ['Carl','NNP','carl']
      ]
    },
    ['now','RB','now'],
    ['.','.','.']
  ]
},
{
  tag:'S',
  content:
  [
    {
      tag:'GPE',
      content:
      [
        ['Action','NN','act']
      ]
    },
    ['photo','IN','photo'],
    ['of','IN','of'],
    {
      tag:'PERSON',
      content:
      [
        ['Carl','NNP','carl'],
        ['Lewis','NNP','lew']
      ]
    },
    ['This','NNP','thi'],
    ['week','NN','week'],
    [':',':',':'],
    ['complimentary','JJ','comply'],
    ['access','NN','access'],
    ['to','TO','to'],
    {
      tag:'ORGANIZATION',
      content:
      [
        ['International','NNP','intern'],
        ['New','NNP','new'],
        ['York','NNP','york'],
        ['Times','NNP','tim'],
        ['Advertise','NNP','advert']
      ]
    },
    ['on','IN','on'],
    ['NYTimes.com','NNP','nytimes.com'],
    ['From','NNP','from'],
    ['Hermès','NNP','hermè'],
    [',',',',','],
    ['couture','NN','cout'],
    ['jewelry','NN','jewelry'],
    ['inspired','VBD','inspir'],
    ['by','IN','by'],
    ['crocodiles','NNS','crocodil'],
    ['Also','RB','also'],
    ['in','IN','in'],
    {
      tag:'ORGANIZATION',
      content:
      [
        ['T','NNP','t'],
        ['Magazine','NNP','magazin']
      ]
    },
    ['»','NNP','»'],
    ['Belgrade','NNP','belgrad'],
    [',',',',','],
    {
      tag:'GPE',
      content:
      [
        ['Europe','NNP','europ']
      ]
    },
    [''s','POS',''s'],
    ['latest','JJS','lat'],
    ['urban','NN','urb'],
    ['success','NN','success'],
    ['story','NN','story'],
    ['Sourcing','NNP','sourc'],
    {
      tag:'PERSON',
      content:
      [
        ['Ralph','NNP','ralph'],
        ['Lauren','NNP','laur']
      ]
    },
    [''s','POS',''s'],
    ['home','NN','hom'],
    ['collection','NN','collect'],
    {
      tag:'PERSON',
      content:
      [
        ['Inside','NNP','insid']
      ]
    },
    ['NYTimes.com','NNP','nytimes.com'],
    ['Theater','NNP','the'],
    ['»','NNP','»'],
    ['‘The','NNP','‘the'],
    {
      tag:'PERSON',
      content:
      [
        ['Model','NNP','model'],
        ['Apartment','NNP','apart']
      ]
    },
    [',',',',','],
    ['’','NNP','’'],
    ['by','IN','by'],
    {
      tag:'ORGANIZATION',
      content:
      [
        ['Donald','NNP','donald'],
        ['Margulies','NNPS','margu'],
        ['Sports','NNP','sport']
      ]
    },
    ['»','NNP','»'],
    ['In','NNP','in'],
    ['Argentine','NNP','argentin'],
    ['Soccer','NNP','socc'],
    [',',',',','],
    ['a','DT','a'],
    {
      tag:'ORGANIZATION',
      content:
      [
        ['Rivalry','NNP','rivalry']
      ]
    },
    ['Cleaves','NNP','cleav'],
    ['a','DT','a'],
    {
      tag:'ORGANIZATION',
      content:
      [
        ['City','NNP','city'],
        ['Opinion','NNP','opin']
      ]
    },
    ['»','NNP','»'],
    ['Invitation','NNP','invit'],
    ['to','TO','to'],
    ['a','DT','a'],
    ['Dialogue','NNP','dialog'],
    [':',':',':'],
    ['When','WRB','When'],
    {
      tag:'PERSON',
      content:
      [
        ['Doctors','NNS','doct'],
        ['Slip','NNP','slip'],
        ['Up','NNP','up'],
        ['Dining','NNP','din']
      ]
    },
    ['&','CC','&'],
    {
      tag:'PERSON',
      content:
      [
        ['Wine','NNP','win']
      ]
    },
    ['»','NNP','»'],
    ['Restaurants','NNP','resta'],
    [':',':',':'],
    ['Khe-Yo','JJ','khe-yo'],
    ['and','CC','and'],
    {
      tag:'PERSON',
      content:
      [
        ['Whiskey','NNP','whiskey'],
        ['Soda','NNP','sod'],
        ['Lounge','NNP','loung'],
        ['Opinion','NNP','opin']
      ]
    },
    ['»','NNP','»'],
    ['Op-Ed','NNP','op-ed'],
    [':',':',':'],
    {
      tag:'PERSON',
      content:
      [
        ['Beyond','NNP','beyond']
      ]
    },
    ['Boehner’s','NNP','boehner’s'],
    ['Reach','NNP','reach'],
    ['When','NNP','when'],
    ['freedom','NN','freedom'],
    ['is','VBZ','be'],
    ['outlawed','VBN','outlaw'],
    [',',',',','],
    ['only','RB','on'],
    ['outlaws','VBZ','outlaw'],
    ['will','MD','will'],
    ['be','VB','be'],
    ['free','JJ','fre'],
    ['.','.','.']
  ]
},
{
  tag:'S',
  content:
  [
    ['Or','CC','Or'],
    ['certain','JJ','certain'],
    ['climbers','NNS','climb'],
    ['in','IN','in'],
    {
      tag:'ORGANIZATION',
      content:
      [
        ['Yosemite','NNP','yosemit'],
        ['National','NNP','nat'],
        ['Park','NNP','park']
      ]
    },
    ['.','.','.']
  ]
},
{
  tag:'S',
  content:
  [
    ['World','NN','world'],
    ['»','``','»'],
    {
      tag:'PERSON',
      content:
      [
        ['Muzzled','NNP','muzzl'],
        ['Chinese','NNP','chines'],
        ['Artwork','NNP','artwork']
      ]
    },
    [',',',',','],
    {
      tag:'GPE',
      content:
      [
        ['Absent','NNP','abs']
      ]
    },
    [',',',',','],
    {
      tag:'PERSON',
      content:
      [
        ['Speaks','NNP','speak'],
        ['Volumes','NNP','volum'],
        ['Opinion','NNP','opin']
      ]
    },
    ['»','NNP','»'],
    {
      tag:'PERSON',
      content:
      [
        ['Murong','NNP','murong'],
        ['Xuecun','NNP','xuecun']
      ]
    },
    [':',':',':'],
    ['Busting','NNP','bust'],
    ['China’s','NNP','china’s'],
    ['Bloggers','NNP','blog'],
    ['Health','NNP','heal'],
    ['»','NNP','»'],
    ['Pounding','NNP','pound'],
    ['Pavement','NNP','pav'],
    ['By','NNP','by'],
    ['Heel','NNP','heel'],
    ['or','CC','or'],
    {
      tag:'ORGANIZATION',
      content:
      [
        ['Toe','NNP','toe'],
        ['U.S.','NNP','u.s.']
      ]
    },
    ['»','NNP','»'],
    ['Father’s','NNP','father’s'],
    ['Memorial','NNP','mem'],
    ['Trek','NNP','trek'],
    ['Ends','NNPS','end'],
    ['in','IN','in'],
    {
      tag:'GPE',
      content:
      [
        ['Second','NNP','second']
      ]
    },
    ['Tragedy','NNP','tragedy'],
    ['Dining','NNP','din'],
    ['&','CC','&'],
    {
      tag:'PERSON',
      content:
      [
        ['Wine','NNP','win']
      ]
    },
    ['»','NNP','»'],
    ['China’s','NNP','china’s'],
    ['Dining','NNP','din'],
    ['Acrobatics','NNP','acrob'],
    ['Opinion','NNP','opin'],
    ['»','NNP','»'],
    ['Gay','NNP','gay'],
    ['vs.','NNP','vs.'],
    ['Trans','NNP','tran'],
    ['Rights','NNP','right'],
    ['The','NNP','the'],
    ['big','JJ','big'],
    ['wins','NNS','win'],
    ['have','VBP','hav'],
    ['been','VBN','be'],
    ['for','IN','for'],
    ['gays','NNS','gay'],
    ['and','CC','and'],
    ['lesbians','NNS','lesb'],
    [',',',',','],
    ['more','RBR','mor'],
    ['than','IN','than'],
    ['for','IN','for'],
    ['transgender','NN','transgend'],
    ['people','NNS','peopl'],
    ['.','.','.']
  ]
},
{
  tag:'S',
  content:
  [
    {
      tag:'GPE',
      content:
      [
        ['Room','NNP','room']
      ]
    },
    ['for','IN','for'],
    {
      tag:'ORGANIZATION',
      content:
      [
        ['Debate','NNP','deb']
      ]
    },
    ['asks','VBZ','ask'],
    [':',':',':'],
    ['Are','JJ','ar'],
    ['the','DT','the'],
    ['two','CD','two'],
    ['groups’','JJ','groups’'],
    ['goals','NNS','goal'],
    ['still','RB','stil'],
    ['aligned','VBN','align'],
    ['?','.','?']
  ]
},
{
  tag:'S',
  content:
  [
    ['Arts','NNS','art'],
    ['»','VBP','»'],
    {
      tag:'PERSON',
      content:
      [
        ['Belafonte','NNP','belafont'],
        ['Sues','NNP','sue'],
        ['Heirs','NNP','heir']
      ]
    },
    ['of','IN','of'],
    {
      tag:'PERSON',
      content:
      [
        ['Martin','NNP','martin'],
        ['Luther','NNP','luth']
      ]
    },
    ['King','NNP','king'],
    ['Jr.','NNP','jr.'],
    ['©','NNP','©'],
    ['2013','CD','2013'],
    ['The','NNP','the'],
    {
      tag:'GPE',
      content:
      [
        ['New','NNP','new'],
        ['York','NNP','york']
      ]
    },
    {
      tag:'PERSON',
      content:
      [
        ['Times','NNP','tim'],
        ['Company','NNP','company'],
        ['Site','NNP','sit'],
        ['Map','NNP','map'],
        ['Privacy','NNP','priv']
      ]
    },
    ['Your','NNP','yo'],
    ['Ad','NNP','ad'],
    ['Choices','NNPS','cho'],
    {
      tag:'PERSON',
      content:
      [
        ['Advertise','NNP','advert'],
        ['Terms','NNP','term']
      ]
    },
    ['of','IN','of'],
    {
      tag:'PERSON',
      content:
      [
        ['Sale','NNP','sal'],
        ['Terms','NNP','term']
      ]
    },
    ['of','IN','of'],
    {
      tag:'ORGANIZATION',
      content:
      [
        ['Service','NNP','serv'],
        ['Work','NNP','work']
      ]
    },
    ['With','NNP','with'],
    {
      tag:'PERSON',
      content:
      [
        ['Us','NNP','us'],
        ['RSS','NNP','rss'],
        ['Help','NNP','help'],
        ['Contact','NNP','contact'],
        ['Us','NNP','us'],
        ['Site','NNP','sit'],
        ['Feedback','NNP','feedback']
      ]
    }
  ]
}]