[
{
  tag:'S',
  content:
  [
    {
      tag:'ORGANIZATION',
      content:
      [
        ['HuffPost','NNP','huffpost']
      ]
    },
    [''s','POS',''s'],
    {
      tag:'ORGANIZATION',
      content:
      [
        ['QuickRead','NNP','quickread']
      ]
    },
    ['...',':','...'],
    ['Loading','NNP','load'],
    ['...',':','...'],
    {
      tag:'ORGANIZATION',
      content:
      [
        ['HuffPost','NNP','huffpost']
      ]
    },
    [''s','POS',''s'],
    {
      tag:'ORGANIZATION',
      content:
      [
        ['QuickRead','NNP','quickread']
      ]
    },
    ['...',':','...'],
    ['Loading','NNP','load'],
    ['...',':','...'],
    ['iOS','NNP','io'],
    ['app','NN','ap'],
    {
      tag:'PERSON',
      content:
      [
        ['Android','NNP','android']
      ]
    },
    ['app','NN','ap'],
    {
      tag:'PERSON',
      content:
      [
        ['More','NNP','mor'],
        ['Log','NNP','log']
      ]
    },
    ['in','IN','in'],
    {
      tag:'ORGANIZATION',
      content:
      [
        ['Create','NNP','cre'],
        ['Account','NNP','account'],
        ['Notifications','NNP','not']
      ]
    },
    ['Profile','NNP','profil'],
    ['Settings','NNP','set'],
    ['Logout','NNP','logout'],
    ['#','#','#'],
    {
      tag:'ORGANIZATION',
      content:
      [
        ['topnav_margin_btm','NNP','topnav_margin_btm']
      ]
    },
    ['{','NNP','{'],
    ['margin:0','NNP','margin:0'],
    ['!','.','!'],
    ['important','JJ','import'],
    ['}','NN','}'],
    ['.back-to-aol','NN','.back-to-aol'],
    ['{',':','{'],
    ['display','NN','display'],
    [':',':',':'],
    ['inline-block','JJ','inline-block'],
    ['!','.','!'],
    ['important','JJ','import'],
    [';',':',';'],
    ['float','JJ','flo'],
    [':',':',':'],
    ['left','VBN','leav'],
    [';',':',';'],
    ['padding-top','JJ','padding-top'],
    [':',':',':'],
    ['25px','CD','25px'],
    [';',':',';'],
    ['position','NN','posit'],
    [':',':',':'],
    ['absolute','JJ','absolv'],
    [';',':',';'],
    ['}',':','}'],
    ['October','NNP','octob'],
    ['16','CD','16'],
    [',',',',','],
    ['2013','CD','2013'],
    ['Edition','NNP','edit'],
    [':',':',':'],
    {
      tag:'GPE',
      content:
      [
        ['U.S.','NNP','u.s.']
      ]
    },
    ['CA','NNP','ca'],
    {
      tag:'PERSON',
      content:
      [
        ['Canada','NNP','canad'],
        ['DE','NNP','de'],
        ['Deutschland','NNP','deutschland'],
        ['ES','NNP','es']
      ]
    },
    ['España','NNP','españ'],
    ['FR','NNP','fr'],
    ['France','NNP','frant'],
    ['IT','NNP','it'],
    {
      tag:'PERSON',
      content:
      [
        ['Italia','NNP','ital'],
        ['JP','NNP','jp']
      ]
    },
    ['日本','NNP','日本'],
    ['(','NNP','('],
    {
      tag:'GPE',
      content:
      [
        ['Japan','NNP','jap']
      ]
    },
    [')','NNP',')'],
    ['MG','NNP','mg'],
    {
      tag:'PERSON',
      content:
      [
        ['Maghreb','NNP','maghreb'],
        ['UK','NNP','uk'],
        ['United','NNP','unit'],
        ['Kingdom','NNP','kingdom'],
        ['US','NNP','us'],
        ['United','NNP','unit']
      ]
    },
    {
      tag:'PERSON',
      content:
      [
        ['States','NNPS','stat'],
        ['Follow','NNP','follow']
      ]
    },
    ['FRONT','NNP','front'],
    ['PAGE','NNP','pag'],
    ['Women','NNP','wom'],
    ['Gloria','NNP','glor'],
    ['Steinem','NNP','steinem'],
    ['Ends','NNPS','end'],
    ['The','NNP','the'],
    {
      tag:'PERSON',
      content:
      [
        ['Miley','NNP','miley'],
        ['Cyrus','NNP','cyr'],
        ['Debate','NNP','deb']
      ]
    },
    ['Forever1.8k','NNP','forever1.8k'],
    ['10','CD','10'],
    ['Things','NNS','thing'],
    ['Only','RB','on'],
    {
      tag:'PERSON',
      content:
      [
        ['Women','NNP','wom'],
        ['With','NNP','with'],
        ['Big','NNP','big'],
        ['Boobs','NNP','boob'],
        ['Can','NNP','can']
      ]
    },
    ['Understand664','NNP','understand664'],
    ['How','NNP','how'],
    ['To','NNP','to'],
    ['Be','NNP','be'],
    ['A','NNP','a'],
    ['Woman','NNP','wom'],
    [',',',',','],
    ['According','NNP','accord'],
    ['To','TO','To'],
    {
      tag:'PERSON',
      content:
      [
        ['Amy','NNP','amy']
      ]
    },
    ['And','CC','And'],
    {
      tag:'ORGANIZATION',
      content:
      [
        ['Tina16','NNP','tina16']
      ]
    },
    ['LOOK','NNP','look'],
    [':',':',':'],
    ['Proof','NNP','proof'],
    {
      tag:'PERSON',
      content:
      [
        ['Betty','NNP','betty'],
        ['Ford','NNP','ford'],
        ['Was','NNP','was']
      ]
    },
    ['A','NNP','a'],
    {
      tag:'ORGANIZATION',
      content:
      [
        ['Total','NNP','tot']
      ]
    },
    ['Badass','NNP','badass'],
    ['5','CD','5'],
    ['Things','NNS','thing'],
    {
      tag:'PERSON',
      content:
      [
        ['Every','NNP','every'],
        ['Working','NNP','work'],
        ['Woman','NNP','wom'],
        ['Can','NNP','can'],
        ['Learn','NNP','learn']
      ]
    },
    ['From','NNP','from'],
    {
      tag:'PERSON',
      content:
      [
        ['Olivia','NNP','oliv'],
        ['Pope','NNP','pop'],
        ['Go','NNP','go']
      ]
    },
    ['to','TO','to'],
    {
      tag:'PERSON',
      content:
      [
        ['Women','NNP','wom'],
        ['More','NNP','mor']
      ]
    },
    ['in','IN','in'],
    {
      tag:'GPE',
      content:
      [
        ['Women','NNP','wom']
      ]
    },
    ['Love','NNP','lov'],
    ['&','CC','&'],
    {
      tag:'PERSON',
      content:
      [
        ['Sex','NNP','sex'],
        ['Career','NNP','car']
      ]
    },
    ['&','CC','&'],
    {
      tag:'PERSON',
      content:
      [
        ['Money','NNP','money'],
        ['Women','NNP','wom']
      ]
    },
    [''s','POS',''s'],
    ['Health','NNP','heal'],
    ['You','NNP','you'],
    ['might','MD','might'],
    ['also','RB','also'],
    ['like','VB','lik'],
    {
      tag:'PERSON',
      content:
      [
        ['Style','NNP','styl'],
        ['Weddings','NNP','wed'],
        ['Divorce','NNP','divorc'],
        ['Parents','NNP','par'],
        ['Healthy','NNP','healthy'],
        ['Living','NNP','liv'],
        ['Black','NNP','black']
      ]
    },
    ['Voices','NNPS','voic'],
    {
      tag:'ORGANIZATION',
      content:
      [
        ['Latino','NNP','latino'],
        ['Voices','NNPS','voic']
      ]
    },
    ['Taste','NNP','tast'],
    ['8','CD','8'],
    ['Mistakes','NNP','mistak'],
    ['You','NNP','you'],
    [''re','NNP',''re'],
    ['Making','NNP','mak'],
    ['With','NNP','with'],
    ['Fried','NNP','fri'],
    ['Eggs338','NNP','eggs338'],
    ['3','CD','3'],
    ['Ways','NNS','way'],
    ['To','TO','To'],
    {
      tag:'ORGANIZATION',
      content:
      [
        ['Completely','NNP','complet'],
        ['Ruin','NNP','ruin']
      ]
    },
    ['A','NNP','a'],
    ['Cast','NNP','cast'],
    {
      tag:'PERSON',
      content:
      [
        ['Iron','NNP','iron'],
        ['Skillet152','NNP','skillet152']
      ]
    },
    ['LOOK','NNP','look'],
    [':',':',':'],
    ['10','CD','10'],
    ['Pot','NNP','pot'],
    ['Treats','NNP','tre'],
    ['That','NNP','that'],
    ['Could','NNP','could'],
    ['Pass','NNP','pass'],
    ['As','NNP','as'],
    [''Real','NNP',''real'],
    [''','POS','''],
    {
      tag:'ORGANIZATION',
      content:
      [
        ['Food67','NNP','food67']
      ]
    },
    ['29','CD','29'],
    {
      tag:'PERSON',
      content:
      [
        ['Pumpkin','NNP','pumpkin'],
        ['Desserts','NNP','dessert'],
        ['To','NNP','to'],
        ['Sweeten','NNP','sweet'],
        ['Up','NNP','up'],
        ['Fall','NNP','fal']
      ]
    },
    ['These','NNP','thes'],
    ['Are','NNP','ar'],
    {
      tag:'GPE',
      content:
      [
        ['America','NNP','americ']
      ]
    },
    [''s','POS',''s'],
    ['Best','NNP','best'],
    ['Beers257','NNP','beers257'],
    ['Go','NNP','go'],
    ['to','TO','to'],
    {
      tag:'PERSON',
      content:
      [
        ['Taste','NNP','tast'],
        ['More','NNP','mor']
      ]
    },
    ['in','IN','in'],
    {
      tag:'GPE',
      content:
      [
        ['Taste','NNP','tast']
      ]
    },
    ['Recipes','NNP','recip'],
    ['Baking','NNP','bak'],
    ['Entertaining','NNP','entertain'],
    ['Healthy','NNP','healthy'],
    ['Eating','NNP','eat'],
    ['Taste','NNP','tast'],
    ['Tests','NNP','test'],
    ['Thanksgiving','NNP','thanksg'],
    ['You','NNP','you'],
    ['might','MD','might'],
    ['also','RB','also'],
    ['like','VB','lik'],
    {
      tag:'PERSON',
      content:
      [
        ['Food','NNP','food'],
        ['Healthy','NNP','healthy'],
        ['Living','NNP','liv'],
        ['Travel','NNP','travel']
      ]
    },
    ['OWN','NNP','own'],
    ['Good','NNP','good'],
    ['News','NNP','new'],
    ['Bride','NNP','brid'],
    [''s','POS',''s'],
    {
      tag:'PERSON',
      content:
      [
        ['Awesome','NNP','awesom'],
        ['Story','NNP','story'],
        ['Is','NNP','is'],
        ['About','NNP','about'],
        ['To','NNP','to'],
        ['Make','NNP','mak'],
        ['You','NNP','you'],
        ['Fall','NNP','fal'],
        ['Seriously','NNP','sery']
      ]
    },
    ['In','NNP','in'],
    ['Love','NNP','lov'],
    ['With','NNP','with'],
    {
      tag:'PERSON',
      content:
      [
        ['Jon','NNP','jon'],
        ['Bon','NNP','bon']
      ]
    },
    {
      tag:'ORGANIZATION',
      content:
      [
        ['Jovi274','NNP','jovi274']
      ]
    },
    ['WATCH','NNP','watch'],
    [':',':',':'],
    {
      tag:'PERSON',
      content:
      [
        ['Cute','NNP','cut'],
        ['Kittens','NNP','kit'],
        ['Versus','NNP','vers'],
        ['Handmade','NNP','handmad'],
        ['Fort','NNP','fort']
      ]
    },
    [',',',',','],
    [''Nuff','JJ',''nuff'],
    {
      tag:'ORGANIZATION',
      content:
      [
        ['Said56','NNP','said56']
      ]
    },
    ['WATCH','NNP','watch'],
    [':',':',':'],
    {
      tag:'PERSON',
      content:
      [
        ['Denmark','NNP','denmark'],
        ['Has','NNP','has'],
        ['The','NNP','the'],
        ['Happiest','NNP','happiest'],
        ['And','NNP','and'],
        ['Most','NNP','most'],
        ['Hilarious','NNP','hil'],
        ['Way','NNP','way'],
        ['Of','NNP','of'],
        ['Dealing','NNP','deal']
      ]
    },
    ['WIth','NNP','with'],
    ['Thieves17','NNP','thieves17'],
    ['WATCH','NNP','watch'],
    [':',':',':'],
    {
      tag:'PERSON',
      content:
      [
        ['Grand','NNP','grand'],
        ['Canyon','NNP','canyon'],
        ['Businesses','NNP','busy'],
        ['Step','NNP','step'],
        ['Up','NNP','up'],
        ['To','NNP','to'],
        ['Keep','NNP','keep'],
        ['Their','NNP','their'],
        ['National','NNP','nat'],
        ['Treasure','NNP','treas']
      ]
    },
    ['Open34','NNP','open34'],
    ['Halloween','NNP','halloween'],
    ['Costume','NNP','costum'],
    ['Inspiration','NNP','inspir'],
    ['From','NNP','from'],
    ['Trotter','NNP','trot'],
    [',',',',','],
    {
      tag:'ORGANIZATION',
      content:
      [
        ['The','NNP','the'],
        ['Best','NNP','best'],
        ['Dressed','NNP','dress'],
        ['Dog','NNP','dog']
      ]
    },
    ['On','NNP','on'],
    ['Instagram','NNP','instagram'],
    ['Go','NNP','go'],
    ['to','TO','to'],
    {
      tag:'ORGANIZATION',
      content:
      [
        ['Good','NNP','good'],
        ['News','NNP','new']
      ]
    },
    ['You','NNP','you'],
    ['might','MD','might'],
    ['also','RB','also'],
    ['like','VB','lik'],
    {
      tag:'ORGANIZATION',
      content:
      [
        ['GPS','NNP','gps']
      ]
    },
    ['for','IN','for'],
    ['the','DT','the'],
    {
      tag:'LOCATION',
      content:
      [
        ['Soul','NNP','soul'],
        ['Weird','NNP','weird']
      ]
    },
    {
      tag:'ORGANIZATION',
      content:
      [
        ['Comedy','NNP','comedy'],
        ['Impact','NNP','impact'],
        ['Green','NNP','green'],
        ['Healthy','NNP','healthy']
      ]
    },
    ['Living','NNP','liv'],
    ['Comedy','NNP','comedy'],
    {
      tag:'PERSON',
      content:
      [
        ['Books','NNP','book'],
        ['Arts','NNP','art'],
        ['Parents','NNP','par']
      ]
    },
    ['This','NNP','thi'],
    ['Is','VBZ','is'],
    ['Breastfeeding','NNP','breastfee'],
    ['In','NNP','in'],
    ['Real','NNP','real'],
    ['Life943','NNP','life943'],
    ['And','CC','And'],
    ['The','DT','The'],
    ['Winning','NNP','win'],
    {
      tag:'PERSON',
      content:
      [
        ['Family','NNP','famy'],
        ['Halloween','NNP','halloween'],
        ['Costume','NNP','costum'],
        ['Of','NNP','of']
      ]
    },
    ['2013','CD','2013'],
    ['Is','VBZ','is'],
    ['...',':','...'],
    ['12','CD','12'],
    {
      tag:'PERSON',
      content:
      [
        ['Glenn','NNP','glen'],
        ['Beck','NNP','beck'],
        ['Wants','NNP','want'],
        ['You','NNP','you'],
        ['To','NNP','to'],
        ['Push','NNP','push']
      ]
    },
    ['Your','NNP','yo'],
    ['Kid','NNP','kid'],
    [''Up','NNP',''up'],
    ['Against','NNP','against'],
    ['The','NNP','the'],
    ['Wall'522','NNP','wall'522'],
    ['The','NNP','the'],
    {
      tag:'ORGANIZATION',
      content:
      [
        ['Secret','NNP','secret'],
        ['To','NNP','to']
      ]
    },
    ['A','NNP','a'],
    ['Well-Behaved','JJ','well-behaved'],
    ['Child','NNP','child'],
    ['Is','NNP','is'],
    ['Simple45','NNP','simple45'],
    ['Lena','NNP','len'],
    {
      tag:'PERSON',
      content:
      [
        ['Dunham','NNP','dunham'],
        ['Wants','NNP','want'],
        ['Instagram','NNP','instagram'],
        ['To','NNP','to']
      ]
    },
    [''Get','NNP',''get'],
    ['Down','NNP','down'],
    ['With','NNP','with'],
    ['The','NNP','the'],
    ['Nipple'25','NNP','nipple'25'],
    ['Go','NNP','go'],
    ['to','TO','to'],
    {
      tag:'ORGANIZATION',
      content:
      [
        ['Parents','NNP','par'],
        ['More','NNP','mor']
      ]
    },
    ['in','IN','in'],
    {
      tag:'ORGANIZATION',
      content:
      [
        ['Parents','NNP','par'],
        ['Parentry','NNP','parentry'],
        ['Moms','NNP','mom'],
        ['Dads','NNP','dad'],
        ['Screen','NNP','screen']
      ]
    },
    ['Sense','NNP','sens'],
    ['You','NNP','you'],
    ['might','MD','might'],
    ['also','RB','also'],
    ['like','VB','lik'],
    {
      tag:'PERSON',
      content:
      [
        ['Education','NNP','educ'],
        ['Food','NNP','food'],
        ['Taste','NNP','tast'],
        ['Arts','NNP','art'],
        ['Teen','NNP','teen']
      ]
    },
    ['Post','NNP','post'],
    ['50','CD','50'],
    ['Style','NNP','styl'],
    ['We','NNP','we'],
    ['Ca','NNP','ca'],
    ['n't','RB','n't'],
    {
      tag:'PERSON',
      content:
      [
        ['Believe','NNP','believ'],
        ['People','NNP','peopl']
      ]
    },
    ['Ever','NNP','ev'],
    ['Thought','NNP','thought'],
    ['These','NNP','thes'],
    ['Glasses','NNP','glass'],
    ['Were','NNP','wer'],
    ['Cool619','NNP','cool619'],
    ['Plus-Size','NNP','plus-size'],
    ['Model','NNP','model'],
    {
      tag:'PERSON',
      content:
      [
        ['Robyn','NNP','robyn'],
        ['Lawley','NNP','lawley'],
        ['Poses','NNP','pos']
      ]
    },
    ['In','NNP','in'],
    ['The','NNP','the'],
    {
      tag:'ORGANIZATION',
      content:
      [
        ['Sexy','NNP','sexy'],
        ['Shoot','NNP','shoot']
      ]
    },
    ['We','NNP','we'],
    [''ve','NNP',''ve'],
    ['Been','NNP','been'],
    ['Waiting','NNP','wait'],
    ['For','NNP','for']
  ]
}]