[
{
  tag:'S',
  content:
  [
    {
      tag:'ORGANIZATION',
      content:
      [
        ['HuffPost','NNP','huffpost']
      ]
    },
    [''s','POS',''s'],
    {
      tag:'ORGANIZATION',
      content:
      [
        ['QuickRead','NNP','quickread']
      ]
    },
    ['...',':','...'],
    ['Loading','NNP','load'],
    ['...',':','...'],
    {
      tag:'ORGANIZATION',
      content:
      [
        ['HuffPost','NNP','huffpost']
      ]
    },
    [''s','POS',''s'],
    {
      tag:'ORGANIZATION',
      content:
      [
        ['QuickRead','NNP','quickread']
      ]
    },
    ['...',':','...'],
    ['Loading','NNP','load'],
    ['...',':','...'],
    ['Movies','NNPS','movy'],
    {
      tag:'ORGANIZATION',
      content:
      [
        ['iOS','NNP','io']
      ]
    },
    ['app','NN','ap'],
    {
      tag:'PERSON',
      content:
      [
        ['Android','NNP','android']
      ]
    },
    ['app','NN','ap'],
    {
      tag:'PERSON',
      content:
      [
        ['More','NNP','mor'],
        ['Log','NNP','log']
      ]
    },
    ['in','IN','in'],
    {
      tag:'ORGANIZATION',
      content:
      [
        ['Create','NNP','cre'],
        ['Account','NNP','account'],
        ['Notifications','NNP','not']
      ]
    },
    ['Profile','NNP','profil'],
    ['Settings','NNP','set'],
    ['Logout','NNP','logout'],
    ['#','#','#'],
    {
      tag:'ORGANIZATION',
      content:
      [
        ['topnav_margin_btm','NNP','topnav_margin_btm']
      ]
    },
    ['{','NNP','{'],
    ['margin:0','NNP','margin:0'],
    ['!','.','!'],
    ['important','JJ','import'],
    ['}','NN','}'],
    ['.back-to-aol','NN','.back-to-aol'],
    ['{',':','{'],
    ['display','NN','display'],
    [':',':',':'],
    ['inline-block','JJ','inline-block'],
    ['!','.','!'],
    ['important','JJ','import'],
    [';',':',';'],
    ['float','JJ','flo'],
    [':',':',':'],
    ['left','VBN','leav'],
    [';',':',';'],
    ['padding-top','JJ','padding-top'],
    [':',':',':'],
    ['25px','CD','25px'],
    [';',':',';'],
    ['position','NN','posit'],
    [':',':',':'],
    ['absolute','JJ','absolv'],
    [';',':',';'],
    ['}',':','}'],
    ['October','NNP','octob'],
    ['16','CD','16'],
    [',',',',','],
    ['2013','CD','2013'],
    ['Edition','NNP','edit'],
    [':',':',':'],
    {
      tag:'GPE',
      content:
      [
        ['U.S.','NNP','u.s.']
      ]
    },
    ['CA','NNP','ca'],
    {
      tag:'PERSON',
      content:
      [
        ['Canada','NNP','canad'],
        ['DE','NNP','de'],
        ['Deutschland','NNP','deutschland'],
        ['ES','NNP','es']
      ]
    },
    ['España','NNP','españ'],
    ['FR','NNP','fr'],
    ['France','NNP','frant'],
    ['IT','NNP','it'],
    {
      tag:'PERSON',
      content:
      [
        ['Italia','NNP','ital'],
        ['JP','NNP','jp']
      ]
    },
    ['日本','NNP','日本'],
    ['(','NNP','('],
    {
      tag:'GPE',
      content:
      [
        ['Japan','NNP','jap']
      ]
    },
    [')','NNP',')'],
    ['MG','NNP','mg'],
    {
      tag:'PERSON',
      content:
      [
        ['Maghreb','NNP','maghreb'],
        ['UK','NNP','uk'],
        ['United','NNP','unit'],
        ['Kingdom','NNP','kingdom'],
        ['US','NNP','us'],
        ['United','NNP','unit']
      ]
    },
    {
      tag:'PERSON',
      content:
      [
        ['States','NNPS','stat'],
        ['Follow','NNP','follow']
      ]
    },
    ['FRONT','NNP','front'],
    ['PAGE','NNP','pag'],
    ['Entertainment','NNP','entertain'],
    {
      tag:'PERSON',
      content:
      [
        ['Paul','NNP','paul'],
        ['McCartney','NNP','mccartney'],
        ['Defends','NNP','defend'],
        ['Miley','NNP','miley']
      ]
    },
    ['Cyrus312','NNP','cyrus312'],
    {
      tag:'PERSON',
      content:
      [
        ['Joseph','NNP','joseph']
      ]
    },
    ['Gordon-Levitt','NNP','gordon-levitt'],
    ['Denies','NNPS','deny'],
    ['He','NNP','he'],
    [''s','POS',''s'],
    ['Playing','NNP','play'],
    [''Ant-Man'72','NNP',''ant-man'72'],
    ['If','NNP','if'],
    ['The','NNP','the'],
    ['Plastics','NNP','plast'],
    ['Had','NNP','had'],
    ['iPhones','NNP','iphon'],
    [',',',',','],
    ['This','DT','This'],
    ['Is','VBZ','is'],
    ['What','WP','What'],
    ['They','PRP','They'],
    ['Would','MD','Would'],
    ['Look','VB','look'],
    {
      tag:'PERSON',
      content:
      [
        ['Like','NNP','lik'],
        ['Motown','NNP','motown']
      ]
    },
    [''s','POS',''s'],
    ['Chief','NNP','chief'],
    {
      tag:'PERSON',
      content:
      [
        ['Of','NNP','of'],
        ['Charm','NNP','charm']
      ]
    },
    ['Dies52','NNP','dies52'],
    ['Rock','NNP','rock'],
    ['Hall','NNP','hal'],
    ['Of','NNP','of'],
    ['Fame','NNP','fam'],
    ['Nominees','NNP','nomin'],
    ['Announced859','NNP','announced859'],
    ['Go','NNP','go'],
    ['to','TO','to'],
    ['Entertainment','NNP','entertain'],
    ['More','NNP','mor'],
    ['in','IN','in'],
    ['Entertainment','NNP','entertain'],
    ['Celebrity','NNP','celebr'],
    ['TV','NNP','tv'],
    ['You','NNP','you'],
    ['might','MD','might'],
    ['also','RB','also'],
    ['like','VB','lik'],
    {
      tag:'ORGANIZATION',
      content:
      [
        ['Comedy','NNP','comedy'],
        ['Arts','NNP','art'],
        ['Books','NNP','book'],
        ['Food','NNP','food'],
        ['Style','NNP','styl'],
        ['Weird','NNP','weird']
      ]
    },
    ['Moviefone','NNP','moviefon'],
    ['TV','NNP','tv'],
    ['The','NNP','the'],
    {
      tag:'PERSON',
      content:
      [
        ['Highest','NNP','highest'],
        ['Paid','NNP','paid']
      ]
    },
    ['TV','NNP','tv'],
    ['Actors','NNP','act'],
    ['Are','NNP','ar'],
    ['...',':','...'],
    ['381','CD','381'],
    {
      tag:'PERSON',
      content:
      [
        ['Anthony','NNP','anthony'],
        ['Hopkins','NNP','hopkin']
      ]
    },
    [''','POS','''],
    {
      tag:'PERSON',
      content:
      [
        ['Awesome','NNP','awesom'],
        ['Letter','NNP','let'],
        ['To','NNP','to']
      ]
    },
    [''Breaking','NNP',''breaking'],
    ['Bad'822','NNP','bad'822'],
    ['Who','NNP','who'],
    ['Was','NNP','was'],
    ['Eliminated','NNP','elimin'],
    ['On','NNP','on'],
    [''DWTS','NNP',''dwts'],
    [''','POS','''],
    ['?','.','?'],
    ['287','CD','287'],
    ['These','DT','These'],
    [''Breaking','JJ',''breaking'],
    ['Bad','NNP','bad'],
    [''','''','''],
    ['Behind-The-Scenes','NNS','behind-the-scenes'],
    {
      tag:'PERSON',
      content:
      [
        ['Photos','NNP','photo'],
        ['Are','NNP','ar'],
        ['The','NNP','the']
      ]
    },
    {
      tag:'ORGANIZATION',
      content:
      [
        ['Best44','NNP','best44']
      ]
    },
    ['Season','NNP','season'],
    ['4','CD','4'],
    ['Of','IN','Of'],
    [''Sherlock','JJ',''sherlock'],
    [''','POS','''],
    ['Is','NNP','is'],
    ['Happening','NNP','hap'],
    ['!','.','!']
  ]
},
{
  tag:'S',
  content:
  [
    ['?','.','?'],
    ['149','CD','149'],
    ['Go','NNP','go'],
    ['to','TO','to'],
    ['TV','NNP','tv'],
    ['More','NNP','mor'],
    ['in','IN','in'],
    ['TV','NN','tv'],
    ['TV','NN','tv'],
    {
      tag:'PERSON',
      content:
      [
        ['Replay','NNP','replay'],
        ['TV','NNP','tv'],
        ['Recaps','NNP','recap']
      ]
    },
    ['TV','NNP','tv'],
    ['Spoilers','NNP','spoil'],
    {
      tag:'PERSON',
      content:
      [
        ['Maureen','NNP','maureen'],
        ['Ryan','NNP','ryan'],
        ['Maggie','NNP','maggy'],
        ['Furlong','NNP','furlong'],
        ['You','NNP','you']
      ]
    },
    ['might','MD','might'],
    ['also','RB','also'],
    ['like','VB','lik'],
    {
      tag:'ORGANIZATION',
      content:
      [
        ['Celebrity','NNP','celebr'],
        ['Media','NNP','med'],
        ['Comedy','NNP','comedy'],
        ['Arts','NNP','art'],
        ['Books','NNP','book'],
        ['Media','NNP','med'],
        ['Boehner','NNP','boehn'],
        ['Savaged','NNP','sav']
      ]
    },
    ['In','NNP','in'],
    ['Press','NNP','press'],
    [':',':',':'],
    [''Humiliating','JJ',''humiliating'],
    ['Failure'2k','NN','failure'2k'],
    {
      tag:'PERSON',
      content:
      [
        ['Chuck','NNP','chuck'],
        ['Todd','NNP','tod']
      ]
    },
    ['BLOWS','NNP','blow'],
    ['UP','NNP','up'],
    ['At','NNP','at'],
    ['Ted','NNP','ted'],
    ['Cruz2.1k','NNP','cruz2.1k'],
    ['SORRY','NNP','sorry'],
    [',',',',','],
    ['MSNBC1.3k','NNP','msnbc1.3k'],
    {
      tag:'PERSON',
      content:
      [
        ['Glenn','NNP','glen'],
        ['Greenwald','NNP','greenwald']
      ]
    },
    ['Leaving','NNP','leav'],
    ['The','NNP','the'],
    {
      tag:'PERSON',
      content:
      [
        ['Guardian','NNP','guard'],
        ['For','NNP','for'],
        ['New','NNP','new']
      ]
    },
    ['Venture1.1k','NNP','venture1.1k'],
    [''The','NNP',''the'],
    ['View','NNP','view'],
    [''','POS','''],
    {
      tag:'PERSON',
      content:
      [
        ['Denies','NNPS','deny'],
        ['Major','NNP','maj'],
        ['Jenny','NNP','jenny'],
        ['McCarthy','NNP','mccarthy']
      ]
    },
    {
      tag:'ORGANIZATION',
      content:
      [
        ['Rumor68','NNP','rumor68'],
        ['Go','NNP','go']
      ]
    },
    ['to','TO','to'],
    {
      tag:'ORGANIZATION',
      content:
      [
        ['Media','NNP','med'],
        ['More','NNP','mor']
      ]
    },
    ['in','IN','in'],
    {
      tag:'GPE',
      content:
      [
        ['Media','NNP','med']
      ]
    },
    ['Eat','NNP','eat'],
    ['The','NNP','the'],
    ['Press','NNP','press'],
    ['Calderone','NNP','calderon'],
    [':',':',':'],
    ['The','DT','The'],
    {
      tag:'ORGANIZATION',
      content:
      [
        ['Backstory','NNP','backst']
      ]
    },
    ['You','NNP','you'],
    ['might','MD','might'],
    ['also','RB','also'],
    ['like','VB','lik'],
    {
      tag:'ORGANIZATION',
      content:
      [
        ['Entertainment','NNP','entertain']
      ]
    },
    ['TV','NNP','tv'],
    ['Comedy','NNP','comedy'],
    ['Arts','NNP','art'],
    {
      tag:'PERSON',
      content:
      [
        ['Books','NNP','book'],
        ['Religion','NNP','relig'],
        ['Moviefone','NNP','moviefon']
      ]
    },
    ['Comedy','NNP','comedy'],
    ['17','CD','17'],
    ['Actually','NNP','act'],
    ['Clever','NNP','clev'],
    ['Halloween','NNP','halloween'],
    ['Costumes261','NNP','costumes261'],
    ['The','NNP','the'],
    {
      tag:'PERSON',
      content:
      [
        ['Meanest','NNP','meanest'],
        ['Thing','NNP','thing']
      ]
    },
    ['Cats','NNPS','cat'],
    ['Do','NNP','do'],
    ['To','NNP','to'],
    {
      tag:'ORGANIZATION',
      content:
      [
        ['Dogs113','NNP','dogs113'],
        ['Average','NNP','av'],
        ['Americans','NNPS','am'],
        ['Do','NNP','do']
      ]
    },
    ['n't','RB','n't'],
    ['Know','VB','know'],
    ['This','DT','This'],
    ['MAJOR','NNP','maj'],
    ['Fact1k','NNP','fact1k'],
    {
      tag:'PERSON',
      content:
      [
        ['Bill','NNP','bil'],
        ['Maher','NNP','mah']
      ]
    },
    [''s','POS',''s'],
    {
      tag:'ORGANIZATION',
      content:
      [
        ['New','NNP','new'],
        ['Rule','NNP','rul'],
        ['For','NNP','for']
      ]
    },
    {
      tag:'PERSON',
      content:
      [
        ['John','NNP','john'],
        ['Boehner152','NNP','boehner152'],
        ['Kenan','NNP','ken'],
        ['Weighs','NNP','weigh'],
        ['In','NNP','in'],
        ['On','NNP','on'],
        ['SNL','NNP','snl']
      ]
    },
    [''s','POS',''s'],
    {
      tag:'ORGANIZATION',
      content:
      [
        ['Lack','NNP','lack'],
        ['Of','NNP','of']
      ]
    },
    ['Diversity292','NNP','diversity292'],
    ['Go','NNP','go'],
    ['to','TO','to'],
    {
      tag:'ORGANIZATION',
      content:
      [
        ['Comedy','NNP','comedy'],
        ['More','NNP','mor']
      ]
    },
    ['in','IN','in'],
    {
      tag:'ORGANIZATION',
      content:
      [
        ['Comedy','NNP','comedy'],
        ['Funny','NNP','funny'],
        ['Videos','NNP','video'],
        ['Comedy','NNP','comedy'],
        ['Club','NNP','club']
      ]
    },
    ['Political','NNP','polit'],
    ['Humor','NNP','hum'],
    ['Original','NNP','origin'],
    ['Video','NNP','video'],
    ['Crossing','NNP','cross'],
    ['The','NNP','the'],
    {
      tag:'PERSON',
      content:
      [
        ['Line','NNP','lin'],
        ['You','NNP','you']
      ]
    },
    ['might','MD','might'],
    ['also','RB','also'],
    ['like','VB','lik'],
    {
      tag:'ORGANIZATION',
      content:
      [
        ['Entertainment','NNP','entertain']
      ]
    },
    ['TV','NNP','tv']
  ]
}]