[
{
  tag:'S',
  content:
  [
    {
      tag:'PERSON',
      content:
      [
        ['Search','NNP','search']
      ]
    },
    {
      tag:'PERSON',
      content:
      [
        ['Watch','NNP','watch'],
        ['Travel','NNP','travel'],
        ['Channel','NNP','channel'],
        ['Mobile','NNP','mobl'],
        ['Apps','NNP','ap'],
        ['Newsletter','NNP','newslet'],
        ['Travel','NNP','travel'],
        ['Channel','NNP','channel'],
        ['Shows','NNP','show'],
        ['Featured','NNP','feat'],
        ['Shows','NNP','show'],
        ['Ghost','NNP','ghost'],
        ['Adventures','NNP','adv'],
        ['The','NNP','the'],
        ['Ghost','NNP','ghost'],
        ['Adventures','NNP','adv']
      ]
    },
    ['crew','VBD','crew'],
    ['is','VBZ','be'],
    ['back','RB','back'],
    ['to','TO','to'],
    ['investigate','VB','investig'],
    ['the','DT','the'],
    ['most','JJS','most'],
    ['notorious','JJ','not'],
    ['haunted','JJ','haunt'],
    ['places','NNS','plac'],
    ['in','IN','in'],
    ['the','DT','the'],
    ['world','NN','world'],
    ['.','.','.']
  ]
},
{
  tag:'S',
  content:
  [
    {
      tag:'GPE',
      content:
      [
        ['Baggage','NN','bag']
      ]
    },
    {
      tag:'PERSON',
      content:
      [
        ['Battles','NNS','battl'],
        ['Baggage','NNP','bag'],
        ['Battles','NNP','battl']
      ]
    },
    ['is','VBZ','be'],
    ['the','DT','the'],
    ['ultimate','JJ','ultim'],
    ['bidding','NN','bid'],
    ['war','NN','war'],
    ['over','IN','over'],
    ['the','DT','the'],
    ['most','RBS','most'],
    ['prized','JJ','priz'],
    ['auction','NN','auct'],
    ['possession','NN','possess'],
    ['.','.','.']
  ]
},
{
  tag:'S',
  content:
  [
    {
      tag:'PERSON',
      content:
      [
        ['Gem','NNP','gem']
      ]
    },
    {
      tag:'ORGANIZATION',
      content:
      [
        ['Hunt','NNP','hunt']
      ]
    },
    ['Follow','NNP','follow'],
    ['a','DT','a'],
    ['team','NN','team'],
    ['of','IN','of'],
    ['modern','JJ','modern'],
    ['treasure','NN','treas'],
    ['hunters','NNS','hunt'],
    ['on','IN','on'],
    ['their','PRP$','their'],
    ['high-stakes','JJ','high-stakes'],
    ['quest','NN','quest'],
    ['for','IN','for'],
    ['the','DT','the'],
    ['world','NN','world'],
    [''s','POS',''s'],
    ['most','JJS','most'],
    ['precious','JJ','precy'],
    ['gems','NNS','gem'],
    ['.','.','.']
  ]
},
{
  tag:'S',
  content:
  [
    ['MORE','JJR','mor'],
    ['SHOWS','NNS','show'],
    ['What','WP','What'],
    [''s','VBZ',''s'],
    {
      tag:'ORGANIZATION',
      content:
      [
        ['New','NNP','new']
      ]
    },
    ['..','NNP','..'],
    ['Airport','NNP','airport'],
    ['24/7','CD','24/7'],
    [':',':',':'],
    {
      tag:'PERSON',
      content:
      [
        ['Miami','NNP','miam'],
        ['Baggage','NNP','bag'],
        ['Battles','NNP','battl'],
        ['Best','NNP','best'],
        ['Daym','NNP','daym'],
        ['Takeout','NNP','takeout'],
        ['Best','NNP','best'],
        ['Sandwich','NNP','sandwich'],
        ['Bizarre','NNP','bizar'],
        ['Foods','NNP','food'],
        ['Burger','NNP','burg'],
        ['Land','NNP','land'],
        ['Dangerous','NNP','dang']
      ]
    },
    ['Grounds','NNPS','ground'],
    ['The','NNP','the'],
    ['Dead','NNP','dead'],
    {
      tag:'PERSON',
      content:
      [
        ['Files','NNP','fil'],
        ['Edge','NNP','edg']
      ]
    },
    ['of','IN','of'],
    {
      tag:'GPE',
      content:
      [
        ['America','NNP','americ']
      ]
    },
    ['Fandemonium','NNP','fandemon'],
    ['Food','NNP','food'],
    {
      tag:'PERSON',
      content:
      [
        ['Paradise','NNP','parad'],
        ['Gem','NNP','gem'],
        ['Hunt','NNP','hunt'],
        ['Ghost','NNP','ghost'],
        ['Adventures','NNP','adv'],
        ['Girls','NNP','girl'],
        ['Gone','NNP','gon'],
        ['Bayou','NNP','bayou'],
        ['Hotel','NNP','hotel']
      ]
    },
    ['Impossible','NNP','imposs'],
    ['The','NNP','the'],
    ['Layover','NNP','layov'],
    ['Making','NNP','mak'],
    ['Monsters','NNP','monst'],
    ['Man','NNP','man'],
    ['v.','NNP','v.'],
    ['Food','NNP','food'],
    ['Nation','NNP','nat'],
    {
      tag:'ORGANIZATION',
      content:
      [
        ['Monumental','NNP','monu'],
        ['Mysteries','NNPS','mystery']
      ]
    },
    ['Mysteries','NNP','mystery'],
    ['No','NNP','no'],
    ['Reservations','NNP','reserv'],
    ['Rock','NNP','rock'],
    ['My','NNP','my'],
    ['RV','NNP','rv'],
    {
      tag:'PERSON',
      content:
      [
        ['Samantha','NNP','samanth'],
        ['Brown','NNP','brown'],
        ['Toy','NNP','toy'],
        ['Hunter','NNP','hunt'],
        ['Trip','NNP','trip'],
        ['Flip','NNP','flip']
      ]
    },
    ['NEW','NNP','new'],
    ['EPISODES','NNP','episod'],
    ['&','CC','&'],
    {
      tag:'ORGANIZATION',
      content:
      [
        ['SERIES','NNP','sery'],
        ['Extreme','NNP','extrem']
      ]
    },
    ['RVs','NNP','rvs'],
    [',',',',','],
    {
      tag:'PERSON',
      content:
      [
        ['Girls','NNP','girl'],
        ['Gone','NNP','gon'],
        ['Bayou','NNP','bayou']
      ]
    },
    [',',',',','],
    {
      tag:'ORGANIZATION',
      content:
      [
        ['DigFellas','NNP','digfella']
      ]
    },
    [',',',',','],
    {
      tag:'GPE',
      content:
      [
        ['Horneytown','NNP','horneytown']
      ]
    },
    [',',',',','],
    {
      tag:'PERSON',
      content:
      [
        ['Mysteries','NNP','mystery']
      ]
    },
    [',',',',','],
    ['Ride-iculous','JJ','ride-iculous'],
    ['See','NNP','see'],
    ['All','NNP','al'],
    ['Shows','NNP','show'],
    ['Video','NNP','video'],
    ['FEATURED','NNP','feat'],
    ['FULL','NNP','ful'],
    ['EPISODES','NNP','episod'],
    ['Mirror','NNP','mir'],
    [',',',',','],
    {
      tag:'PERSON',
      content:
      [
        ['Mirror','NNP','mir'],
        ['Giant','NNP','giant'],
        ['Zombie','NNP','zomby'],
        ['Size','NNP','siz']
      ]
    },
    ['does','VBZ','do'],
    ['matter','NN','mat'],
    ['for','IN','for'],
    ['a','DT','a'],
    ['mirror','NN','mir'],
    ['illusion','NN','illud'],
    ['and','CC','and'],
    {
      tag:'PERSON',
      content:
      [
        ['Adobe','NNP','adob']
      ]
    },
    [''s','POS',''s'],
    ['giant','JJ','giant'],
    {
      tag:'ORGANIZATION',
      content:
      [
        ['Zombie','NNP','zomby']
      ]
    },
    ['head','NN','head'],
    ['.','.','.']
  ]
},
{
  tag:'S',
  content:
  [
    ['Hour','PRP$','Hour'],
    ['1','CD','1'],
    ['It','PRP','It'],
    [''s','VBZ',''s'],
    ['the','DT','the'],
    ['first','JJ','first'],
    ['hour','NN','hour'],
    ['of','IN','of'],
    ['lockdown','NN','lockdown'],
    ['at','IN','at'],
    {
      tag:'ORGANIZATION',
      content:
      [
        ['Trans-Allegheny','JJ','trans-allegheny'],
        ['Lunatic','NNP','lun'],
        ['Asylum','NNP','asyl']
      ]
    },
    ['.','.','.']
  ]
},
{
  tag:'S',
  content:
  [
    ['The','DT','The'],
    {
      tag:'ORGANIZATION',
      content:
      [
        ['Dead','NNP','dead']
      ]
    },
    ['Files','NNP','fil'],
    [':',':',':'],
    ['Q','NNP','q'],
    ['&','CC','&'],
    ['A','DT','A'],
    ['Special','JJ','spec'],
    {
      tag:'PERSON',
      content:
      [
        ['Steve','NNP','stev']
      ]
    },
    ['and','CC','and'],
    ['Amy','NNP','amy'],
    ['take','VB','tak'],
    ['you','PRP','you'],
    ['behind','IN','behind'],
    ['the','DT','the'],
    ['scenes','NNS','scen'],
    ['of','IN','of'],
    {
      tag:'ORGANIZATION',
      content:
      [
        ['Dead','NNP','dead'],
        ['Files','NNP','fil']
      ]
    },
    ['in','IN','in'],
    ['this','DT','this'],
    ['online','NN','onlin'],
    ['exclusive','NN','exclud'],
    ['.','.','.']
  ]
},
{
  tag:'S',
  content:
  [
    ['MORE','JJR','mor'],
    {
      tag:'ORGANIZATION',
      content:
      [
        ['VIDEO','NNP','video'],
        ['Weekends','NNPS','weekend']
      ]
    },
    ['to','TO','to'],
    {
      tag:'PERSON',
      content:
      [
        ['Die','NNP','die'],
        ['For','NNP','for'],
        ['Avoid','NNP','avoid'],
        ['Ghostly','NNP','ghost'],
        ['Encounters','NNP','encount'],
        ['No','NNP','no'],
        ['Rules','NNP','rul']
      ]
    },
    ['on','IN','on'],
    ['Halloween','NNP','halloween'],
    ['A','NNP','a'],
    ['New','NNP','new'],
    ['Level','NNP','level'],
    ['of','IN','of'],
    {
      tag:'ORGANIZATION',
      content:
      [
        ['Insanity','NNP','ins'],
        ['Caribbean','NNP','carib']
      ]
    },
    ['Explore','NNP','expl'],
    ['the','DT','the'],
    {
      tag:'ORGANIZATION',
      content:
      [
        ['US','NNP','us'],
        ['Virgin','NNP','virgin'],
        ['Islands','NNPS','island'],
        ['Best','NNP','best'],
        ['Callaloo','NNP','callaloo']
      ]
    },
    ['in','IN','in'],
    {
      tag:'GPE',
      content:
      [
        ['St.','NNP','st.']
      ]
    },
    ['Croix','NNP','croix'],
    ['Off','NNP','off'],
    ['the','DT','the'],
    {
      tag:'PERSON',
      content:
      [
        ['Cliffs','NNP','cliff']
      ]
    },
    ['at','IN','at'],
    {
      tag:'PERSON',
      content:
      [
        ['Rick','NNP','rick']
      ]
    },
    [''s','POS',''s'],
    {
      tag:'ORGANIZATION',
      content:
      [
        ['Cafe','NNP','caf'],
        ['Host','NNP','host']
      ]
    },
    [''s','POS',''s'],
    {
      tag:'PERSON',
      content:
      [
        ['Hometown','NNP','hometown'],
        ['Andrew','NNP','andrew'],
        ['Zimmern','NNP','zimmern']
      ]
    },
    [''s','POS',''s'],
    {
      tag:'PERSON',
      content:
      [
        ['Hometown','NNP','hometown'],
        ['Aaron','NNP','aaron']
      ]
    },
    [''s','POS',''s'],
    {
      tag:'GPE',
      content:
      [
        ['Portland','NNP','portland']
      ]
    },
    ['Tips','NNP','tip'],
    {
      tag:'PERSON',
      content:
      [
        ['Adam','NNP','adam'],
        ['Richman','NNP','richm']
      ]
    },
    [''s','POS',''s'],
    ['Hometown','NNP','hometown'],
    ['A','NNP','a'],
    ['Day','NNP','day'],
    ['in','IN','in'],
    ['the','DT','the'],
    ['Life','NNP','lif'],
    ['A','DT','A'],
    ['Day','NNP','day'],
    ['With','NNP','with'],
    ['The','NNP','the'],
    ['Edmunds','NNPS','edmund'],
    ['A','DT','A'],
    ['Day','NNP','day'],
    ['With','NNP','with'],
    {
      tag:'PERSON',
      content:
      [
        ['Adam','NNP','adam'],
        ['Richman','NNP','richm']
      ]
    },
    ['A','NNP','a'],
    ['Day','NNP','day'],
    ['With','NNP','with'],
    {
      tag:'PERSON',
      content:
      [
        ['Steve','NNP','stev'],
        ['Di','NNP','di'],
        ['Schiavi','NNP','schiavi']
      ]
    },
    ['MORE','NNP','mor'],
    ['FULL','NNP','ful'],
    ['EPISODES','NNP','episod'],
    [':',':',':'],
    {
      tag:'ORGANIZATION',
      content:
      [
        ['Ghost','NNP','ghost'],
        ['Adventures','NNPS','adv']
      ]
    },
    [',',',',','],
    ['The','DT','The'],
    {
      tag:'ORGANIZATION',
      content:
      [
        ['Dead','NNP','dead'],
        ['Files','NNP','fil']
      ]
    },
    [',',',',','],
    {
      tag:'ORGANIZATION',
      content:
      [
        ['Halloween','NNP','halloween'],
        ['Specials','NNPS','spec']
      ]
    },
    [',',',',','],
    {
      tag:'PERSON',
      content:
      [
        ['Genius','NNP','geni']
      ]
    },
    [':',':',':'],
    ['Interrupted','NNP','interrupt'],
    [',',',',','],
    {
      tag:'PERSON',
      content:
      [
        ['More','NNP','mor'],
        ['NEW','NNP','new']
      ]
    },
    ['TRAVEL','NNP','travel'],
    ['CHANNEL','NNP','channel'],
    ['TALENT','NNP','tal'],
    [':',':',':'],
    {
      tag:'PERSON',
      content:
      [
        ['Kinga','NNP','king'],
        ['Philipps','NNP','philip']
      ]
    },
    [',',',',','],
    {
      tag:'PERSON',
      content:
      [
        ['Rob','NNP','rob'],
        ['Pralgo','NNP','pralgo']
      ]
    },
    [',',',',','],
    {
      tag:'PERSON',
      content:
      [
        ['Marianela','NNP','marianel'],
        ['Pereyra','NNP','pereyr']
      ]
    },
    [',',',',','],
    {
      tag:'PERSON',
      content:
      [
        ['Ryan','NNP','ryan'],
        ['Van','NNP','van'],
        ['Duzer','NNP','duz']
      ]
    },
    [',',',',','],
    {
      tag:'PERSON',
      content:
      [
        ['More','NNP','mor'],
        ['Download','NNP','download']
      ]
    },
    ['our','PRP$','our'],
    ['free','JJ','fre'],
    [''Watch','JJ',''watch'],
    {
      tag:'PERSON',
      content:
      [
        ['Travel','NNP','travel'],
        ['Channel','NNP','channel']
      ]
    },
    [''','POS','''],
    ['mobile','JJ','mobl'],
    ['app','NN','ap'],
    ['.','.','.']
  ]
},
{
  tag:'S',
  content:
  [
    ['All','DT','All'],
    ['Videos','NNP','video'],
    ['Schedule','NNP','schedule'],
    ['TONIGHT','NNP','tonight'],
    [''S','POS',''S'],
    ['HIGHLIGHT','NNP','highlight'],
    ['9/8c','CD','9/8c'],
    ['Making','NNP','mak'],
    ['Monsters','NNP','monst'],
    ['Distorters','NNP','distort'],
    ['Make','NNP','mak'],
    ['the','DT','the'],
    {
      tag:'ORGANIZATION',
      content:
      [
        ['Best','NNP','best'],
        ['Monsters','NNP','monst']
      ]
    },
    ['!','.','!']
  ]
},
{
  tag:'S',
  content:
  [
    ['10/9c','CD','10/9c'],
    ['Most','RBS','most'],
    ['Terrifying','NNP','terr'],
    ['Places','NNP','plac'],
    ['in','IN','in'],
    {
      tag:'GPE',
      content:
      [
        ['America','NNP','americ']
      ]
    },
    ['Most','NNP','most'],
    ['Terrifying','NNP','terr'],
    ['Places','NNP','plac'],
    ['in','IN','in'],
    {
      tag:'GPE',
      content:
      [
        ['America','NNP','americ']
      ]
    },
    ['Vol','NNP','vol'],
    ['4','CD','4'],
    ['WHAT','WDT','WHAT'],
    [''S','-NONE-',''S'],
    ['ON','NNP','on'],
    ['TONIGHT','NNP','tonight'],
    ['8/7c','CD','8/7c'],
    ['Halloween','NNP','halloween'],
    [''s','POS',''s'],
    {
      tag:'ORGANIZATION',
      content:
      [
        ['Most','NNP','most'],
        ['Extreme','NNP','extrem'],
        ['Halloween','NNP','halloween']
      ]
    },
    [''s','POS',''s'],
    {
      tag:'ORGANIZATION',
      content:
      [
        ['Most','NNP','most']
      ]
    },
    ['Extreme','NNP','extrem'],
    ['9/8c','CD','9/8c'],
    ['Making','NNP','mak'],
    ['Monsters','NNP','monst'],
    ['Distorters','NNP','distort'],
    ['Make','NNP','mak'],
    ['the','DT','the'],
    {
      tag:'ORGANIZATION',
      content:
      [
        ['Best','NNP','best'],
        ['Monsters','NNP','monst']
      ]
    },
    ['!','.','!']
  ]
},
{
  tag:'S',
  content:
  [
    ['10/9c','CD','10/9c'],
    ['Most','RBS','most'],
    ['Terrifying','NNP','terr'],
    ['Places','NNP','plac'],
    ['in','IN','in'],
    {
      tag:'GPE',
      content:
      [
        ['America','NNP','americ']
      ]
    },
    ['Most','NNP','most'],
    ['Terrifying','NNP','terr'],
    ['Places','NNP','plac'],
    ['in','IN','in'],
    {
      tag:'GPE',
      content:
      [
        ['America','NNP','americ']
      ]
    },
    ['Vol','NNP','vol'],
    ['4','CD','4'],
    ['11/10c','CD','11/10c'],
    ['Most','NNP','most'],
    ['Terrifying','NNP','terr'],
    ['Places','NNP','plac'],
    ['in','IN','in'],
    {
      tag:'GPE',
      content:
      [
        ['America','NNP','americ']
      ]
    },
    ['Most','NNP','most'],
    ['Terrifying','NNP','terr'],
    ['Places','NNP','plac'],
    ['in','IN','in'],
    {
      tag:'GPE',
      content:
      [
        ['America','NNP','americ']
      ]
    },
    [':',':',':'],
    ['Vol','NNP','vol'],
    ['3','CD','3'],
    ['See','NNP','see'],
    ['Full','NNP','ful'],
    ['Schedule','NNP','schedule'],
    ['Destinations','NNP','destin'],
    ['Featured','NNP','feat'],
    ['Destinations','NNP','destin'],
    {
      tag:'PERSON',
      content:
      [
        ['Sizzlin','NNP','sizzlin']
      ]
    },
    [''','POS','''],
    {
      tag:'ORGANIZATION',
      content:
      [
        ['Central','NNP','cent'],
        ['America','NNP','americ'],
        ['Take','NNP','tak']
      ]
    },
    ['virtual','JJ','virt'],
    ['tour','NN','tour'],
    ['of','IN','of'],
    ['the','DT','the'],
    ['hottest','JJS','hot'],
    ['destinations','NNS','destin'],
    ['south','RB','sou'],
    ['of','IN','of'],
    ['the','DT','the'],
    ['border','NN','bord'],
    ['like','IN','like'],
    {
      tag:'PERSON',
      content:
      [
        ['Roatan','NNP','roat'],
        ['Island','NNP','island']
      ]
    },
    ['.','.','.']
  ]
},
{
  tag:'S',
  content:
  [
    ['Where','WRB','Where'],
    ['to','TO','to'],
    {
      tag:'GPE',
      content:
      [
        ['Travel','NNP','travel']
      ]
    },
    ['in','IN','in'],
    ['October','NNP','octob'],
    ['Oktoberfest','NNP','oktoberfest'],
    ['in','IN','in'],
    {
      tag:'GPE',
      content:
      [
        ['Munich','NNP','munich']
      ]
    },
    [',',',',','],
    {
      tag:'PERSON',
      content:
      [
        ['Leaf','NNP','leaf'],
        ['Peeping','NNP','peep']
      ]
    },
    ['in','IN','in'],
    {
      tag:'GPE',
      content:
      [
        ['New','NNP','new'],
        ['England','NNP','england']
      ]
    },
    [',',',',','],
    {
      tag:'PERSON',
      content:
      [
        ['Halloween','NNP','halloween'],
        ['Fright','NNP','fright'],
        ['Nights','NNP','night']
      ]
    },
    ['and','CC','and'],
    ['more','JJR','mor'],
    ['!','.','!']
  ]
},
{
  tag:'S',
  content:
  [
    {
      tag:'ORGANIZATION',
      content:
      [
        ['Ultimate','NNP','ultim'],
        ['Paris','NNP','par'],
        ['Vacation','NNP','vac']
      ]
    },
    ['Win','NNP','win'],
    ['a','DT','a'],
    ['trip','NN','trip'],
    ['for','IN','for'],
    ['2','CD','2'],
    ['to','TO','to'],
    ['visit','VB','visit'],
    ['the','DT','the'],
    {
      tag:'ORGANIZATION',
      content:
      [
        ['City','NNP','city']
      ]
    },
    ['of','IN','of'],
    {
      tag:'GPE',
      content:
      [
        ['Light','NNP','light']
      ]
    },
    ['and','CC','and'],
    ['explore','VB','expl'],
    ['its','PRP$','its'],
    ['awe-inspiring','JJ','awe-inspiring'],
    ['sights','NNS','sight'],
    ['.','.','.']
  ]
},
{
  tag:'S',
  content:
  [
    ['More','JJR','mor'],
    ['Destinations','NNS','destin'],
    {
      tag:'PERSON',
      content:
      [
        ['Alaska','NNP','alask'],
        ['Austin','NNP','austin'],
        ['Belize','NNP','bel'],
        ['Brazil','NNP','brazil'],
        ['California','NNP','californ'],
        ['Caribbean','NNP','carib'],
        ['Chicago','NNP','chicago'],
        ['Costa','NNP','cost'],
        ['Rica','NNP','ric'],
        ['Florida','NNP','florid'],
        ['Hawaii','NNP','hawai'],
        ['Italy','NNP','ita'],
        ['Key','NNP','key'],
        ['West','NNP','west'],
        ['Las','NNP','las'],
        ['Vegas','NNP','vega'],
        ['Mexico','NNP','mexico'],
        ['Miami','NNP','miam'],
        ['New','NNP','new'],
        ['Orleans','NNP','orl'],
        ['New','NNP','new'],
        ['York','NNP','york'],
        ['North','NNP','nor'],
        ['Carolina','NNP','carolin'],
        ['Puerto','NNP','puerto'],
        ['Rico','NNP','rico'],
        ['Texas','NNP','texa'],
        ['United','NNP','unit']
      ]
    },
    {
      tag:'PERSON',
      content:
      [
        ['States','NNPS','stat'],
        ['Rio','NNP','rio']
      ]
    },
    ['de','IN','de'],
    {
      tag:'PERSON',
      content:
      [
        ['Janeiro','NNP','janeiro'],
        ['Charleston','NNP','charleston'],
        ['Beaches','NNP','beach']
      ]
    },
    [',',',',','],
    ['Top','NNP','top'],
    ['10','CD','10'],
    ['Locals','NNS','loc'],
    ['List','NNP','list'],
    ['in','IN','in'],
    {
      tag:'GPE',
      content:
      [
        ['Destin','NNP','destin']
      ]
    },
    [',',',',','],
    {
      tag:'PERSON',
      content:
      [
        ['Travel','NNP','travel']
      ]
    },
    [''s','POS',''s'],
    ['Best','NNP','best'],
    ['Fall','NNP','fal'],
    ['Foliage','NNP','foly'],
    ['Road','NNP','road'],
    ['Trips','NNP','trip'],
    ['2013','CD','2013'],
    [',',',',','],
    {
      tag:'GPE',
      content:
      [
        ['Things','NNP','thing']
      ]
    },
    ['to','TO','to'],
    ['Do','NNP','do'],
    ['on','IN','on'],
    ['the','DT','the'],
    {
      tag:'ORGANIZATION',
      content:
      [
        ['San','NNP','san'],
        ['Antonio','NNP','antonio'],
        ['River','NNP','riv'],
        ['Walk','NNP','walk']
      ]
    },
    [',',',',','],
    {
      tag:'PERSON',
      content:
      [
        ['Myrtle','NNP','myrtl'],
        ['Beach','NNP','beach'],
        ['Oceanfront','NNP','oceanfront'],
        ['Hotels','NNP','hotel']
      ]
    },
    [',',',',','],
    ['Top','NNP','top'],
    ['10','CD','10'],
    {
      tag:'ORGANIZATION',
      content:
      [
        ['Vampire','NNP','vampir'],
        ['Destinations','NNP','destin'],
        ['See','NNP','see']
      ]
    },
    ['All','NNP','al'],
    ['Destinations','NNP','destin'],
    ['Interests','NNPS','interest'],
    {
      tag:'ORGANIZATION',
      content:
      [
        ['Featured','NNP','feat'],
        ['Interests','NNPS','interest'],
        ['Best','NNP','best']
      ]
    },
    ['Halloween','NNP','halloween'],
    ['Attractions','NNP','attract'],
    ['Face','NNP','fac'],
    ['your','PRP$','your'],
    ['fears','NNS','fear'],
    ['!','.','!']
  ]
},
{
  tag:'S',
  content:
  [
    ['See','NNP','see'],
    ['what','WP','what'],
    ['twisted','VBN','twist'],
    ['and','CC','and'],
    ['terrifying','NN','terr'],
    ['destinations','NNS','destin'],
    ['made','VBN','mak'],
    {
      tag:'PERSON',
      content:
      [
        ['Travel','NNP','travel']
      ]
    },
    [''s','POS',''s'],
    ['Best','NNP','best'],
    ['Halloween','NNP','halloween'],
    ['Attractions','NNP','attract'],
    ['2013','CD','2013'],
    ['.','.','.']
  ]
},
{
  tag:'S',
  content:
  [
    {
      tag:'PERSON',
      content:
      [
        ['Vampire','NNP','vampir']
      ]
    },
    ['Destinations','NNP','destin'],
    ['If','NNP','if'],
    ['you','PRP','you'],
    ['have','VBP','hav'],
    ['a','DT','a'],
    ['thirst','JJ','thirst'],
    ['for','IN','for'],
    ['vampire','NN','vampir'],
    ['tourism','NN','tour'],
    [',',',',','],
    ['sink','NN','sink'],
    ['your','PRP$','your'],
    ['teeth','NN','tee'],
    ['into','IN','into'],
    ['the','DT','the'],
    ['top','JJ','top'],
    ['10','CD','10'],
    ['vampire','NN','vampir'],
    ['haunts','NNS','haunt'],
    ['around','IN','around'],
    ['the','DT','the'],
    ['world','NN','world'],
    ['.','.','.']
  ]
},
{
  tag:'S',
  content:
  [
    ['Mind-Blowing','JJ','mind-blowing'],
    {
      tag:'PERSON',
      content:
      [
        ['Pumpkin','NNP','pumpkin'],
        ['Carvings','NNP','carv']
      ]
    },
    ['These','NNP','thes'],
    ['are','VBP','be'],
    ['n't','RB','n't'],
    ['your','PRP$','your'],
    ['average','JJ','av'],
    ['jack-o-lanterns','NNS','jack-o-lantern'],
    [',',',',','],
    ['kids','NNS','kid'],
    ['.','.','.']
  ]
},
{
  tag:'S',
  content:
  [
    ['Take','NNP','tak'],
    ['a','DT','a'],
    ['look','NN','look'],
    ['at','IN','at'],
    ['the','DT','the'],
    ['amazing','NN','amaz'],
    ['artistry','NN','art'],
    ['of','IN','of'],
    ['pumpkin','NN','pumpkin'],
    ['carving','VBG','carv'],
    ['.','.','.']
  ]
},
{
  tag:'S',
  content:
  [
    ['More','JJR','mor'],
    ['Interests','NNS','interest'],
    {
      tag:'PERSON',
      content:
      [
        ['Urban','NNP','urb'],
        ['Adventures','NNP','adv'],
        ['Smart','NNP','smart'],
        ['Travel','NNP','travel']
      ]
    },
    ['for','IN','for'],
    {
      tag:'PERSON',
      content:
      [
        ['Less','NNP','less'],
        ['Travel','NNP','travel']
      ]
    },
    [''s','POS',''s'],
    ['Best','NNP','best'],
    ['Fall','NNP','fal'],
    ['Winter','NNP','wint'],
    ['Airports','NNP','airport'],
    ['Arts','NNP','art'],
    ['and','CC','and'],
    {
      tag:'PERSON',
      content:
      [
        ['Culture','NNP','cult'],
        ['Beaches','NNP','beach'],
        ['Cruises','NNP','cru'],
        ['Deals','NNP','deal']
      ]
    },
    ['and','CC','and'],
    {
      tag:'PERSON',
      content:
      [
        ['Rewards','NNP','reward'],
        ['Family','NNP','famy'],
        ['Food','NNP','food']
      ]
    },
    ['and','CC','and'],
    {
      tag:'PERSON',
      content:
      [
        ['Drink','NNP','drink'],
        ['Girl','NNP','girl'],
        ['Getaways','NNP','getaway'],
        ['Haunted','NNP','haunt'],
        ['History','NNP','hist'],
        ['Holidays','NNP','holiday'],
        ['Hot','NNP','hot'],
        ['Topics','NNP','top'],
        ['Luxury','NNP','luxury'],
        ['Mancations','NNP','mant'],
        ['National','NNP','nat'],
        ['Parks','NNP','park'],
        ['Outdoors','NNP','outdo']
      ]
    },
    ['and','CC','and'],
    {
      tag:'ORGANIZATION',
      content:
      [
        ['Adventure','NNP','adv'],
        ['Pets','NNPS','pet'],
        ['Photography','NNP','photograph'],
        ['Road','NNP','road'],
        ['Trips','NNP','trip'],
        ['Romance','NNP','rom']
      ]
    },
    ['and','CC','and'],
    {
      tag:'ORGANIZATION',
      content:
      [
        ['Honeymoons','NNS','honeymoon'],
        ['Shopping','NNP','shop'],
        ['Sports','NNP','sport'],
        ['Top','NNP','top'],
        ['Hotels','NNP','hotel'],
        ['Travel','NNP','travel'],
        ['Tips','NNP','tip'],
        ['Weather','NNP','weath'],
        ['Wellness','NNP','wel']
      ]
    },
    ['and','CC','and'],
    {
      tag:'PERSON',
      content:
      [
        ['Renewal','NNP','renew'],
        ['Fall','NNP','fal'],
        ['Foliage','NNP','foly'],
        ['Map','NNP','map']
      ]
    },
    [',',',',','],
    {
      tag:'PERSON',
      content:
      [
        ['Travel','NNP','travel']
      ]
    },
    [''s','POS',''s'],
    ['Best','NNP','best'],
    ['Fall','NNP','fal'],
    ['Foliage','NNP','foly'],
    ['Road','NNP','road'],
    ['Trips','NNP','trip'],
    [',',',',','],
    {
      tag:'PERSON',
      content:
      [
        ['Our','NNP','our'],
        ['Fall','NNP','fal']
      ]
    },
    ['To-Do','NNP','to-do'],
    ['List','NNP','list'],
    [',',',',','],
    {
      tag:'PERSON',
      content:
      [
        ['Taste','NNP','tast']
      ]
    },
    ['of','IN','of'],
    {
      tag:'GPE',
      content:
      [
        ['Russia','NNP','russ']
      ]
    },
    [',',',',','],
    {
      tag:'PERSON',
      content:
      [
        ['Haunted','NNP','haunt'],
        ['Charleston','NNP','charleston']
      ]
    },
    [',',',',','],
    {
      tag:'ORGANIZATION',
      content:
      [
        ['NOLA','NNP','nol']
      ]
    },
    [''s','POS',''s'],
    ['Mouthwatering','NNP','mouthw'],
    ['Eats','NNPS','eat'],
    ['All','NNP','al'],
    ['Travel','NNP','travel'],
    ['Interests','NNPS','interest'],
    {
      tag:'PERSON',
      content:
      [
        ['Sweeps','NNP','sweep'],
        ['Win','NNP','win']
      ]
    },
    ['a','DT','a'],
    ['Trip','NNP','trip'],
    ['to','TO','to'],
    {
      tag:'GPE',
      content:
      [
        ['Paris','NNP','par']
      ]
    },
    ['Enter','NNP','ent'],
    ['every','DT','every'],
    ['day','NN','day'],
    ['in','IN','in'],
    ['October','NNP','octob'],
    ['for','IN','for'],
    ['your','PRP$','your'],
    ['chance','NN','chant'],
    ['to','TO','to'],
    ['explore','VB','expl'],
    {
      tag:'GPE',
      content:
      [
        ['Paris','NNP','par']
      ]
    },
    ['.','.','.']
  ]
},
{
  tag:'S',
  content:
  [
    ['The','DT','The'],
    ['trip','NN','trip'],
    ['includes','VBZ','includ'],
    ['deluxe','JJ','delux'],
    ['hotel','NN','hotel'],
    ['accommodations','NNS','accommod'],
    [',',',',','],
    ['a','DT','a'],
    ['private','JJ','priv'],
    ['guided','VBN','guid'],
    ['tour','PRP$','tour'],
    ['of','IN','of'],
    ['the','DT','the'],
    ['city','NN','city'],
    [',',',',','],
    ['a','DT','a'],
    {
      tag:'GPE',
      content:
      [
        ['Parisian','JJ','par']
      ]
    },
    ['bakery','NN','bakery'],
    ['workshop','NN','workshop'],
    ['and','CC','and'],
    ['$','$','$'],
    ['1,500','CD','1,500'],
    ['in','IN','in'],
    ['spending','NN','spend'],
    ['money','NN','money'],
    ['.','.','.']
  ]
},
{
  tag:'S',
  content:
  [
    {
      tag:'PERSON',
      content:
      [
        ['Enter','NNP','ent']
      ]
    },
    ['Now','NNP','now'],
    {
      tag:'PERSON',
      content:
      [
        ['Perfect','NNP','perfect'],
        ['Paris','NNP','par'],
        ['Vacation','NNP','vac']
      ]
    },
    [',',',',','],
    {
      tag:'GPE',
      content:
      [
        ['Fall','NNP','fal']
      ]
    },
    ['in','IN','in'],
    {
      tag:'GPE',
      content:
      [
        ['Love','NNP','lov']
      ]
    },
    ['With','NNP','with'],
    {
      tag:'PERSON',
      content:
      [
        ['Paris','NNP','par']
      ]
    },
    [',',',',','],
    {
      tag:'PERSON',
      content:
      [
        ['Signs','NNP','sign']
      ]
    },
    ['of','IN','of'],
    {
      tag:'GPE',
      content:
      [
        ['Paris','NNP','par']
      ]
    },
    [',',',',','],
    {
      tag:'ORGANIZATION',
      content:
      [
        ['Most','NNP','most'],
        ['Romantic','NNP','rom'],
        ['Places','NNP','plac']
      ]
    },
    ['in','IN','in'],
    {
      tag:'GPE',
      content:
      [
        ['Paris','NNP','par']
      ]
    },
    [',',',',','],
    {
      tag:'PERSON',
      content:
      [
        ['Why','NNP','why'],
        ['We','NNP','we']
      ]
    },
    ['Love','NNP','lov'],
    ['the','DT','the'],
    {
      tag:'GPE',
      content:
      [
        ['French','JJ','french']
      ]
    },
    {
      tag:'ORGANIZATION',
      content:
      [
        ['BLOG','NNP','blog'],
        ['Weekends','NNP','weekend']
      ]
    },
    ['to','TO','to'],
    {
      tag:'PERSON',
      content:
      [
        ['Die','NNP','die'],
        ['For','NNP','for']
      ]
    },
    ['Weekends','NNPS','weekend'],
    ['to','TO','to'],
    {
      tag:'PERSON',
      content:
      [
        ['Die','NNP','die'],
        ['For','NNP','for'],
        ['See','NNP','see']
      ]
    },
    ['your','PRP$','your'],
    ['favorite','JJ','favorit'],
    ['halloween','NN','halloween'],
    ['attractions','NNS','attract'],
    [',',',',','],
    ['ghost','VBP','ghost'],
    ['hunters','NNS','hunt'],
    [',',',',','],
    ['monster','NN','monst'],
    ['makers','NNS','mak'],
    [',',',',','],
    ['haunted','VBD','haunt'],
    ['destinations','NNS','destin'],
    ['and','CC','and'],
    ['all','DT','all'],
    ['things','NNS','thing'],
    ['freaky','VBP','freaky'],
    [',',',',','],
    ['creepy','NN','creepy'],
    ['and','CC','and'],
    ['spooky','JJ','spooky'],
    ['right','NN','right'],
    ['here','RB','her'],
    ['throughout','IN','throughout'],
    ['October','NNP','octob'],
    ['.','.','.']
  ]
},
{
  tag:'S',
  content:
  [
    ['TV','NN','tv'],
    ['Line-up','NN','line-up'],
    [',',',',','],
    {
      tag:'PERSON',
      content:
      [
        ['Ghost','NNP','ghost'],
        ['Adventures','NNP','adv'],
        ['Fan','NNP','fan'],
        ['Lair','NNP','lair']
      ]
    },
    [',',',',','],
    {
      tag:'PERSON',
      content:
      [
        ['Making','NNP','mak'],
        ['Monsters','NNP','monst']
      ]
    },
    [',',',',','],
    {
      tag:'PERSON',
      content:
      [
        ['Halloween','NNP','halloween'],
        ['Night','NNP','night'],
        ['Frights','NNP','fright']
      ]
    },
    [',',',',','],
    ['Top','NNP','top'],
    ['10','CD','10'],
    {
      tag:'ORGANIZATION',
      content:
      [
        ['Vampire','NNP','vampir'],
        ['Destinations','NNP','destin']
      ]
    },
    [',',',',','],
    {
      tag:'PERSON',
      content:
      [
        ['Scariest','NNP','scariest'],
        ['Fright','NNP','fright'],
        ['Nights','NNP','night'],
        ['Hot','NNP','hot'],
        ['Topics','NNP','top']
      ]
    },
    [':',':',':'],
    ['Time','NNP','tim'],
    {
      tag:'PERSON',
      content:
      [
        ['Travel','NNP','travel']
      ]
    },
    ['•','NNP','•'],
    {
      tag:'GPE',
      content:
      [
        ['Russia','NNP','russ']
      ]
    },
    ['•','NNP','•'],
    ['Halloween','NNP','halloween'],
    ['•','NNP','•'],
    ['Fall','NNP','fal'],
    ['Fan','NNP','fan'],
    ['Favorite','NNP','favorit'],
    ['•','NNP','•'],
    {
      tag:'PERSON',
      content:
      [
        ['Landmarks','NNP','landmark'],
        ['Reopen','NNP','reop'],
        ['Haunted','NNP','haunt'],
        ['Overview','NNP','overview'],
        ['Photos','NNP','photo'],
        ['Video','NNP','video'],
        ['Articles','NNP','artic']
      ]
    },
    ['&','CC','&'],
    {
      tag:'PERSON',
      content:
      [
        ['Guides','NNP','guid'],
        ['Haunted','NNP','haunt']
      ]
    },
    ['Destinations','NNP','destin'],
    ['SHARE','NNP','shar'],
    ['Tweet','NNP','tweet'],
    {
      tag:'PERSON',
      content:
      [
        ['Dracula','NNP','dracul'],
        ['Lives','NNP','liv']
      ]
    },
    ['!','.','!']
  ]
},
{
  tag:'S',
  content:
  [
    ['|','NN','|'],
    {
      tag:'ORGANIZATION',
      content:
      [
        ['Bram','NN','bram']
      ]
    },
    ['Stoker’s','NNS','stoker’s'],
    ['Descendant','NNP','descend'],
    {
      tag:'PERSON',
      content:
      [
        ['Tells','NNP','tel'],
        ['All','NNP','al']
      ]
    },
    ['by','IN','by'],
    {
      tag:'PERSON',
      content:
      [
        ['Aaron','NNP','aaron'],
        ['Sagers','NNP','sag'],
        ['Filed','NNP','fil']
      ]
    },
    ['Under','NNP','und'],
    [':',':',':'],
    {
      tag:'GPE',
      content:
      [
        ['Europe','NNP','europ']
      ]
    },
    [',',',',','],
    {
      tag:'PERSON',
      content:
      [
        ['Haunted','NNP','haunt'],
        ['Bram','NNP','bram'],
        ['Stoker','NNP','stok']
      ]
    },
    ['staked','VBD','stak'],
    ['his','PRP$','his'],
    ['claim','NN','claim'],
    ['as','IN','as'],
    ['the','DT','the'],
    ['father','NN','fath'],
    ['of','IN','of'],
    ['the','DT','the'],
    ['modern','JJ','modern'],
    ['vampire','NN','vampir'],
    ['when','WRB','when'],
    ['his','PRP$','his'],
    ['book','NN','book'],
    {
      tag:'PERSON',
      content:
      [
        ['Dracula','NNP','dracul']
      ]
    },
    ['introduced','VBD','introduc'],
    ['the','DT','the'],
    {
      tag:'GPE',
      content:
      [
        ['Transylvanian','NNP','transylv']
      ]
    },
    ['count','NN','count'],
    ['to','TO','to'],
    ['the','DT','the'],
    ['world','NN','world'],
    ['in','IN','in'],
    ['1897','CD','1897'],
    ['.','.','.']
  ]
},
{
  tag:'S',
  content:
  [
    ['There','EX','There'],
    ['are','VBP','be'],
    ['very','RB','very'],
    ['few','JJ','few'],
    ['characters','NNS','charact'],
    ['within','IN','within'],
    ['pop','NN','pop'],
    ['culture','NN','cult'],
    ['as','IN','as'],
    ['famous','JJ','fam'],
    ['as','IN','as'],
    {
      tag:'PERSON',
      content:
      [
        ['Dracula','NNP','dracul']
      ]
    },
    [',',',',','],
    ['and','CC','and'],
    ['the','DT','the'],
    ['iconic','JJ','icon'],
    ['vamp','NN','vamp'],
    ['is','VBZ','be'],
    ['even','RB','ev'],
    ['being','VBG','be'],
    ['resurrected','VBN','resurrect'],
    ['in','IN','in'],
    ['a','DT','a'],
    ['new','JJ','new'],
    ['TV','NN','tv'],
    ['series','NNS','sery'],
    ['this','DT','this'],
    ['fall','NN','fal'],
    ['.','.','.']
  ]
},
{
  tag:'S',
  content:
  [
    ['And','CC','And'],
    [',',',',','],
    ['of','IN','of'],
    ['course','NN','cours'],
    [',',',',','],
    ['the','DT','the'],
    {
      tag:'ORGANIZATION',
      content:
      [
        ['Ghost','NNP','ghost'],
        ['Adventures','NNP','adv']
      ]
    },
    ['crew','VBD','crew'],
    ['of','IN','of'],
    {
      tag:'GPE',
      content:
      [
        ['Zak','NNP','zak']
      ]
    },
    [',',',',','],
    {
      tag:'PERSON',
      content:
      [
        ['Nick','NNP','nick']
      ]
    },
    ['and','CC','and'],
    {
      tag:'PERSON',
      content:
      [
        ['Aaron','NNP','aaron']
      ]
    },
    ['will','MD','will'],
    ['be','VB','be'],
    ['heading','VBG','head'],
    ['to','TO','to'],
    {
      tag:'GPE',
      content:
      [
        ['Eastern','NNP','eastern'],
        ['Europe','NNP','europ']
      ]
    },
    ['to','TO','to'],
    ['explore','VB','expl'],
    ['the','DT','the'],
    ['legend','NN','legend'],
    ['of','IN','of'],
    ['Dracula’s','JJ','dracula’s'],
    ['inspiration','NN','inspir'],
    [',',',',','],
    ['Vlad','NNP','vlad'],
    ['the','DT','the'],
    {
      tag:'ORGANIZATION',
      content:
      [
        ['Impaler','NNP','imp']
      ]
    },
    [',',',',','],
    ['in','IN','in'],
    ['a','DT','a'],
    ['2-hour','CD','2-hour'],
    ['special','JJ','spec'],
    ['this','DT','this'],
    ['coming','VBG','com'],
    {
      tag:'PERSON',
      content:
      [
        ['Halloween','NNP','halloween']
      ]
    },
    ['.','.','.']
  ]
},
{
  tag:'S',
  content:
  [
    ['But','CC','But'],
    ['the','DT','the'],
    ['power','NN','pow'],
    ['of','IN','of'],
    ['blood','NN','blood'],
    ['within','IN','within'],
    ['the','DT','the'],
    ['Stoker','NNP','stok'],
    ['legacy','NN','leg'],
    ['extends','NNS','extend'],
    ['far','RB','far'],
    ['beyond','IN','beyond'],
    ['the','DT','the'],
    ['lingering','NN','ling'],
    ['fascination','NN','fascin'],
    ['with','IN','with'],
    ['the','DT','the'],
    ['count’s','NNS','count’s'],
    ['food','NN','food'],
    ['source','NN','sourc'],
    ['.','.','.']
  ]
},
{
  tag:'S',
  content:
  [
    ['In','IN','In'],
    ['fact','NN','fact'],
    [',',',',','],
    ['Stoker’s','NNP','stoker’s'],
    ['family','NN','famy'],
    ['tree','NN','tre'],
    ['is','VBZ','be'],
    ['still','RB','stil'],
    ['going','VBG','go'],
    ['strong','JJ','strong'],
    [',',',',','],
    ['and','CC','and'],
    ['the','DT','the'],
    ['Dublin-born','NN','dublin-born'],
    ['author','NN','auth'],
    ['is','VBZ','be'],
    ['particularly','RB','particul'],
    ['well-represented','JJ','well-represented'],
    ['by','IN','by'],
    ['his','PRP$','his'],
    ['great-grandnephew','JJ','great-grandnephew'],
    [',',',',','],
    {
      tag:'PERSON',
      content:
      [
        ['Dacre','NNP','dacr'],
        ['Stoker','NNP','stok']
      ]
    },
    ['.','.','.']
  ]
},
{
  tag:'S',
  content:
  [
    ['Courtesy','NNP','courtesy'],
    ['of','IN','of'],
    {
      tag:'PERSON',
      content:
      [
        ['Dacre','NNP','dacr'],
        ['Stoker','NNP','stok'],
        ['Dacre','NNP','dacr'],
        ['Stoker','NNP','stok'],
        ['Dacre','NNP','dacr']
      ]
    },
    [',',',',','],
    ['a','DT','a'],
    ['Canadian-American','JJ','canadian-americ'],
    ['educator','NN','educ'],
    ['and','CC','and'],
    ['sportsman','NN','sportsm'],
    ['who','WP','who'],
    ['coached','VBN','coach'],
    ['the','DT','the'],
    {
      tag:'GPE',
      content:
      [
        ['Canadian','JJ','canad']
      ]
    },
    {
      tag:'LOCATION',
      content:
      [
        ['Modern','NNP','modern'],
        ['Pentathlon','NNP','pentathlon']
      ]
    },
    ['team','NN','team'],
    ['at','IN','at'],
    ['the','DT','the'],
    ['1988','CD','1988'],
    ['Olympics','NNP','olymp'],
    [',',',',','],
    ['entered','VBD','ent'],
    ['the','DT','the'],
    ['world','NN','world'],
    ['of','IN','of'],
    ['the','DT','the'],
    ['vampire','NN','vampir'],
    ['when','WRB','when'],
    ['he','PRP','he'],
    ['wrote','VBD','writ'],
    ['the','DT','the'],
    ['2009','CD','2009'],
    ['book','NN','book'],
    {
      tag:'PERSON',
      content:
      [
        ['Dracula','NNP','dracul']
      ]
    },
    [':',':',':'],
    ['The','DT','The'],
    ['Un-Dead','JJ','un-dead'],
    ['.','.','.']
  ]
},
{
  tag:'S',
  content:
  [
    ['Based','VBN','bas'],
    ['on','IN','on'],
    ['Bram’s','NNP','bram’s'],
    ['handwritten','NN','handwrit'],
    ['notes','NNS','not'],
    [',',',',','],
    ['Dacre’s','JJ','dacre’s'],
    ['writing','NN','writ'],
    ['debut','NN','debut'],
    [',',',',','],
    ['with','IN','with'],
    ['screenwriter','NN','screenwriter'],
    {
      tag:'PERSON',
      content:
      [
        ['Ian','NNP','ian'],
        ['Holt','NNP','holt']
      ]
    },
    [',',',',','],
    ['serves','VBZ','serv'],
    ['as','IN','as'],
    ['a','DT','a'],
    ['sequel','NN','sequel'],
    ['to','TO','to'],
    {
      tag:'PERSON',
      content:
      [
        ['Bram','NNP','bram']
      ]
    },
    ['Stoker’s','NNP','stoker’s'],
    ['original','JJ','origin'],
    ['1897','CD','1897'],
    ['work','NN','work'],
    [',',',',','],
    ['and','CC','and'],
    ['is','VBZ','be'],
    ['the','DT','the'],
    ['only','JJ','on'],
    ['one','CD','one'],
    ['to','TO','to'],
    ['bear','VB','bear'],
    ['the','DT','the'],
    ['Stoker','NNP','stok'],
    ['family','NN','famy'],
    ['name','NN','nam'],
    ['.','.','.']
  ]
},
{
  tag:'S',
  content:
  [
    ['Additionally','RB','addit'],
    [',',',',','],
    {
      tag:'PERSON',
      content:
      [
        ['Dacre','NNP','dacr']
      ]
    },
    ['teamed','VBD','team'],
    ['up','RP','up'],
    ['with','IN','with'],
    {
      tag:'GPE',
      content:
      [
        ['English','JJ','engl']
      ]
    },
    ['professor','NN','profess'],
    ['(',':','('],
    ['and','CC','and'],
    {
      tag:'PERSON',
      content:
      [
        ['Dracula','NNP','dracul']
      ]
    },
    ['historian','NN','hist'],
    [')',':',')'],
    {
      tag:'PERSON',
      content:
      [
        ['Elizabeth','NNP','elizabe'],
        ['Miller','NNP','mil']
      ]
    },
    ['to','TO','to'],
    ['release','VB','releas'],
    ['Bram’s','JJ','bram’s'],
    ['lost','NN','lost'],
    {
      tag:'PERSON',
      content:
      [
        ['Dublin','NNP','dublin']
      ]
    },
    ['journal','JJ','journ'],
    [',',',',','],
    ['which','WDT','which'],
    ['focuses','NNS','foc'],
    ['on','IN','on'],
    ['the','DT','the'],
    ['life','NN','lif'],
    ['of','IN','of'],
    ['the','DT','the'],
    ['writer','NN','writ'],
    ['before','IN','before'],
    ['he','PRP','he'],
    ['moved','VBD','mov'],
    ['to','TO','to'],
    {
      tag:'GPE',
      content:
      [
        ['London','NNP','london']
      ]
    },
    ['and','CC','and'],
    ['became','VBD','becom'],
    ['the','DT','the'],
    ['assistant','JJ','assist'],
    ['to','TO','to'],
    {
      tag:'GPE',
      content:
      [
        ['English','NNP','engl']
      ]
    },
    ['stage','NN','stag'],
    ['actor','NN','act'],
    {
      tag:'PERSON',
      content:
      [
        ['Henry','NNP','henry'],
        ['Irving','NNP','irv']
      ]
    },
    ['at','IN','at'],
    ['the','DT','the'],
    {
      tag:'ORGANIZATION',
      content:
      [
        ['Lyceum','NNP','lyce'],
        ['Theatre','NNP','the']
      ]
    },
    ['.','.','.']
  ]
},
{
  tag:'S',
  content:
  [
    {
      tag:'GPE',
      content:
      [
        ['Dacre','NNP','dacr']
      ]
    },
    ['has','VBZ','hav'],
    ['also','RB','also'],
    ['been','VBN','be'],
    ['presenting','VBG','pres'],
    ['his','PRP$','his'],
    ['“Stoker','NN','“stoker'],
    ['on','IN','on'],
    ['Stoker”','NNP','stoker”'],
    ['lecture','NN','lect'],
    ['to','TO','to'],
    ['crowds','NNS','crowd'],
    ['around','IN','around'],
    ['the','DT','the'],
    ['world','NN','world'],
    ['.','.','.']
  ]
},
{
  tag:'S',
  content:
  [
    ['So','IN','So'],
    ['where','WRB','where'],
    ['does','VBZ','do'],
    ['a','DT','a'],
    ['Stoker','NNP','stok'],
    ['descendant','NN','descend'],
    ['live','VBP','liv'],
    ['?','.','?']
  ]
},
{
  tag:'S',
  content:
  [
    ['Instead','RB','instead'],
    ['of','IN','of'],
    ['a','DT','a'],
    ['foreboding','NN','forebod'],
    ['castle','NN','castl'],
    ['situated','VBD','situ'],
    ['in','IN','in'],
    ['the','DT','the'],
    {
      tag:'LOCATION',
      content:
      [
        ['Carpathian','NNP','carpath'],
        ['Mountains','NNP','mountain']
      ]
    },
    [',',',',','],
    ['I','PRP','I'],
    ['caught','VBD','catch'],
    ['up','RP','up'],
    ['with','IN','with'],
    {
      tag:'PERSON',
      content:
      [
        ['Dacre','NNP','dacr'],
        ['Stoker','NNP','stok']
      ]
    },
    ['while','IN','while'],
    ['he','PRP','he'],
    ['was','VBD','be'],
    ['fly-fishing','JJ','fly-fishing'],
    ['in','IN','in'],
    {
      tag:'GPE',
      content:
      [
        ['British','NNP','brit'],
        ['Columbia','NNP','columb']
      ]
    },
    ['.','.','.']
  ]
},
{
  tag:'S',
  content:
  [
    ['Here','RB','her'],
    [',',',',','],
    ['he','PRP','he'],
    ['spoke','VBD','speak'],
    ['about','IN','about'],
    ['his','PRP$','his'],
    ['great-granduncle','JJ','great-granduncle'],
    ['and','CC','and'],
    ['about','IN','about'],
    ['representing','VBG','repres'],
    ['the','DT','the'],
    ['Stoker','NNP','stok'],
    ['name','NN','nam'],
    ['.','.','.']
  ]
},
{
  tag:'S',
  content:
  [
    ['Courtesy','NNP','courtesy'],
    ['of','IN','of'],
    {
      tag:'ORGANIZATION',
      content:
      [
        ['Wikimedia','NNP','wikimed'],
        ['Bram','NNP','bram']
      ]
    },
    ['Stoker','NNP','stok'],
    {
      tag:'PERSON',
      content:
      [
        ['Aaron','NNP','aaron'],
        ['Sagers','NNP','sag']
      ]
    },
    [':',':',':'],
    ['What','WP','What'],
    ['do','VBP','do'],
    ['you','PRP','you'],
    ['think','VB','think'],
    ['of','IN','of'],
    ['the','DT','the'],
    ['multiple','NN','multipl'],
    ['evolutions','NNS','evolv'],
    {
      tag:'PERSON',
      content:
      [
        ['Dracula','NNP','dracul']
      ]
    },
    ['has','VBZ','hav'],
    ['undergone','VBN','undergo'],
    ['since','IN','since'],
    ['Bram’s','NNP','bram’s'],
    ['book','NN','book'],
    ['?','.','?']
  ]
},
{
  tag:'S',
  content:
  [
    {
      tag:'PERSON',
      content:
      [
        ['Dacre','NNP','dacr']
      ]
    },
    ['Stoker','NNP','stok'],
    [':',':',':'],
    ['I’m','JJ','i’m'],
    ['not','RB','not'],
    ['such','JJ','such'],
    ['a','DT','a'],
    ['purist','NN','pur'],
    ['as','IN','as'],
    ['to','TO','to'],
    ['say','VB','say'],
    ['that','IN','that'],
    ['because','IN','because'],
    ['they’re','JJ','they’re'],
    ['not','RB','not'],
    ['the','DT','the'],
    ['same','JJ','sam'],
    ['as','IN','as'],
    ['what','WP','what'],
    {
      tag:'PERSON',
      content:
      [
        ['Bram','NNP','bram'],
        ['Stoker','NNP','stok']
      ]
    },
    ['created','VBD','cre'],
    [',',',',','],
    ['they’re','JJ','they’re'],
    ['wrong','JJ','wrong'],
    ['.','.','.']
  ]
},
{
  tag:'S',
  content:
  [
    ['I','PRP','I'],
    ['am','VBP','be'],
    ['quite','RB','quit'],
    ['the','DT','the'],
    ['opposite','JJ','opposit'],
    ['.','.','.']
  ]
},
{
  tag:'S',
  content:
  [
    ['I','PRP','I'],
    ['think','VBP','think'],
    ['it','PRP','it'],
    ['is','VBZ','be'],
    ['an','DT','an'],
    ['homage','NN','hom'],
    ['to','TO','to'],
    {
      tag:'PERSON',
      content:
      [
        ['Bram','NNP','bram']
      ]
    },
    ['that','IN','that'],
    ['these','DT','these'],
    ['creatures','NNS','cre'],
    ['can','MD','can'],
    ['morph','VB','morph'],
    ['and','CC','and'],
    ['adapt','VB','adapt'],
    ['to','TO','to'],
    ['their','PRP$','their'],
    ['surroundings','NNS','surround'],
    ['and','CC','and'],
    ['the','DT','the'],
    ['entertainment','NN','entertain'],
    ['world','NN','world'],
    ['.','.','.']
  ]
},
{
  tag:'S',
  content:
  [
    ['If','IN','If'],
    ['it','PRP','it'],
    ['was','VBD','be'],
    ['the','DT','the'],
    ['same','JJ','sam'],
    ['old','JJ','old'],
    ['“Bram','NN','“bram'],
    ['Stoker’s','NNS','stoker’s'],
    {
      tag:'PERSON',
      content:
      [
        ['Dracula','NNP','dracul']
      ]
    },
    [',',',',','],
    ['”','NNP','”'],
    ['and','CC','and'],
    ['we','PRP','we'],
    ['never','RB','nev'],
    ['changed','VBD','chang'],
    ['it','PRP','it'],
    [',',',',','],
    ['we’d','JJ','we’d'],
    ['be','VB','be'],
    ['bored','VBN','bor'],
    ['by','IN','by'],
    ['now','RB','now'],
    ['.','.','.']
  ]
},
{
  tag:'S',
  content:
  [
    ['I','PRP','I'],
    ['think','VBP','think'],
    ['it’s','JJ','it’s'],
    ['great','JJ','gre'],
    ['.','.','.']
  ]
},
{
  tag:'S',
  content:
  [
    {
      tag:'PERSON',
      content:
      [
        ['Aaron','NNP','aaron']
      ]
    },
    ['Sagers','NNP','sag'],
    [':',':',':'],
    {
      tag:'PERSON',
      content:
      [
        ['Which','NNP','which']
      ]
    },
    ['version','NN','vert'],
    ['of','IN','of'],
    ['“Dracula”','NNP','“dracula”'],
    ['has','VBZ','hav'],
    ['resembled','VBN','resembl'],
    ['Bram’s','-NONE-','Bram’s'],
    ['the','DT','the'],
    ['most','RBS','most'],
    [',',',',','],
    ['in','IN','in'],
    ['your','PRP$','your'],
    ['opinion','NN','opin'],
    ['?','.','?']
  ]
},
{
  tag:'S',
  content:
  [
    {
      tag:'PERSON',
      content:
      [
        ['Dacre','NNP','dacr']
      ]
    },
    ['Stoker','NNP','stok'],
    [':',':',':'],
    {
      tag:'PERSON',
      content:
      [
        ['Gary','NNP','gary'],
        ['Oldman','NNP','oldm']
      ]
    },
    ['in','IN','in'],
    ['the','DT','the'],
    ['1992','CD','1992'],
    ['Coppola','NNP','coppol'],
    ['version','NN','vert'],
    ['(',':','('],
    {
      tag:'PERSON',
      content:
      [
        ['Bram','NNP','bram']
      ]
    },
    ['Stoker’s','NNP','stoker’s'],
    ['Dracula','NNP','dracul'],
    [')','NNP',')'],
    ['had','VBD','hav'],
    ['the','DT','the'],
    ['ability','NN','abl'],
    ['to','TO','to'],
    ['change','VB','chang'],
    ['like','IN','like'],
    ['crazy','NN','crazy'],
    ['during','IN','during'],
    ['the','DT','the'],
    ['movie','NN','movy'],
    ['…',':','…'],
    ['writers','NNS','writ'],
    ['like','IN','like'],
    {
      tag:'PERSON',
      content:
      [
        ['Anne','NNP','an'],
        ['Rice','NNP','ric']
      ]
    },
    ['have','VBP','hav'],
    ['given','VBN','giv'],
    ['these','DT','these'],
    ['guys','NNS','guy'],
    ['morals','NNS','mor'],
    ['and','CC','and'],
    ['they','PRP','they'],
    ['have','VBP','hav'],
    ['dilemmas','NNS','dilemm'],
    [',',',',','],
    ['and','CC','and'],
    ['have','VBP','hav'],
    ['to','TO','to'],
    ['worry','VB','worry'],
    ['about','IN','about'],
    ['killing','VBG','kil'],
    ['people','NNS','peopl'],
    ['for','IN','for'],
    ['love','JJ','lov'],
    ['or','CC','or'],
    ['pure','NN','pur'],
    ['food','NN','food'],
    ['.','.','.']
  ]
},
{
  tag:'S',
  content:
  [
    ['So','IN','So'],
    ['there','EX','there'],
    ['are','VBP','be'],
    ['many','JJ','many'],
    ['more','RBR','mor'],
    ['dimensions','NNS','dimend'],
    ['today','NN','today'],
    ['.','.','.']
  ]
},
{
  tag:'S',
  content:
  [
    ['And','CC','And'],
    ['you','PRP','you'],
    ['have','VBP','hav'],
    ['to','TO','to'],
    ['remember','VB','rememb'],
    [',',',',','],
    {
      tag:'PERSON',
      content:
      [
        ['Bram','NNP','bram']
      ]
    },
    ['allowed','VBD','allow'],
    ['his','PRP$','his'],
    ['vampire','NN','vampir'],
    ['to','TO','to'],
    ['shape-shift','JJ','shape-shift'],
    ['into','IN','into'],
    ['mist','NN','mist'],
    [',',',',','],
    ['wolf','NN','wolf'],
    [',',',',','],
    ['bat','NN','bat'],
    ['.','.','.']
  ]
},
{
  tag:'S',
  content:
  [
    ['Now','RB','now'],
    ['they’re','JJ','they’re'],
    ['changing','NN','chang'],
    ['into','IN','into'],
    ['the','DT','the'],
    ['cute','JJ','cut'],
    ['guy','NN','guy'],
    ['next','IN','next'],
    ['door','NN','door'],
    ['or','CC','or'],
    ['this','DT','this'],
    ['hot','JJ','hot'],
    ['girl','NN','girl'],
    [',',',',','],
    ['and','CC','and'],
    ['it’s','NNP','it’s'],
    ['all','DT','all'],
    ['adaptation','NN','adapt'],
    ['.','.','.']
  ]
},
{
  tag:'S',
  content:
  [
    ['And','CC','And'],
    ['it','PRP','it'],
    ['works','VBZ','work'],
    [',',',',','],
    ['I','PRP','I'],
    ['think','VBP','think'],
    [',',',',','],
    ['and','CC','and'],
    ['it’s','NNP','it’s'],
    ['fantastic','JJ','fantast'],
    ['.','.','.']
  ]
},
{
  tag:'S',
  content:
  [
    ['Courtesy','NNP','courtesy'],
    ['of','IN','of'],
    {
      tag:'PERSON',
      content:
      [
        ['Films','NNP','film'],
        ['Arts','NNP','art'],
        ['Guild','NNP','guild'],
        ['Nosferatu','NNP','nosferatu'],
        ['Aaron','NNP','aaron'],
        ['Sagers','NNP','sag']
      ]
    },
    [':',':',':'],
    ['The','DT','The'],
    ['1922','CD','1922'],
    {
      tag:'GPE',
      content:
      [
        ['German','NNP','germ']
      ]
    },
    ['film','NN','film'],
    {
      tag:'PERSON',
      content:
      [
        ['Nosferatu','NNP','nosferatu']
      ]
    },
    ['is','VBZ','be'],
    ['the','DT','the'],
    ['first','JJ','first'],
    ['film','NN','film'],
    ['version','NN','vert'],
    ['of','IN','of'],
    ['“Dracula','NNP','“dracula'],
    [',',',',','],
    ['”','NNP','”'],
    ['but','CC','but'],
    ['is','VBZ','be'],
    ['an','DT','an'],
    ['unauthorized','JJ','unauth'],
    ['one','CD','one'],
    [',',',',','],
    ['and','CC','and'],
    ['it','PRP','it'],
    ['introduced','VBD','introduc'],
    ['elements','NNS','el'],
    ['to','TO','to'],
    ['vampire','VB','vampir'],
    ['lore','NN','lor'],
    ['like','IN','like'],
    ['sunlight','NN','sunlight'],
    ['killing','VBG','kil'],
    ['the','DT','the'],
    ['creature','NN','cre'],
    ['.','.','.']
  ]
},
{
  tag:'S',
  content:
  [
    ['Bram’s','NNS','bram’s'],
    ['widow','VBP','widow'],
    [',',',',','],
    {
      tag:'GPE',
      content:
      [
        ['Florence','NNP','flor']
      ]
    },
    [',',',',','],
    ['sued','VBD','sue'],
    ['for','IN','for'],
    ['copyright','NN','copyright'],
    ['infringement','NN','infr'],
    ['.','.','.']
  ]
},
{
  tag:'S',
  content:
  [
    ['Without','IN','Without'],
    ['that','DT','that'],
    ['rip-off','JJ','rip-off'],
    [',',',',','],
    ['do','VBP','do'],
    ['you','PRP','you'],
    ['think','VB','think'],
    ['we','PRP','we'],
    ['couldn’t','-NONE-','couldn’t'],
    ['have','VBP','hav'],
    ['gotten','VBN','get'],
    ['to','TO','to'],
    {
      tag:'PERSON',
      content:
      [
        ['Bela','NNP','bel'],
        ['Lu','NNP','lu']
      ]
    }
  ]
}]