[
{
  tag:'S',
  content:
  [
    ['(','NN','('],
    ['skip','NN','skip'],
    ['this','DT','this'],
    ['header','NN','head'],
    [')',':',')'],
    ['.hst-siteheader','JJ','.hst-siteheader'],
    ['.buttonone','NN','.buttonone'],
    ['{',':','{'],
    ['width:0','-NONE-','width:0'],
    [';',':',';'],
    ['height:0','-NONE-','height:0'],
    [';',':',';'],
    ['background','NN','background'],
    [':',':',':'],
    ['none','NN','non'],
    [';',':',';'],
    ['float','JJ','flo'],
    [':',':',':'],
    ['left','VBN','leav'],
    [';',':',';'],
    ['margin:0','-NONE-','margin:0'],
    ['10px','CD','10px'],
    [';',':',';'],
    ['}',':','}'],
    ['.hst-siteheader','JJ','.hst-siteheader'],
    ['.leaderboard','JJ','.leaderboard'],
    ['{','NN','{'],
    ['width:728px','NN','width:728px'],
    [';',':',';'],
    ['height:90px','JJ','height:90px'],
    [';',':',';'],
    ['float','JJ','flo'],
    [':',':',':'],
    ['right','JJ','right'],
    [';',':',';'],
    ['margin-right:10px','JJ','margin-right:10px'],
    [';',':',';'],
    ['}',':','}'],
    ['.hst-topzone','NN','.hst-topzone'],
    ['{',':','{'],
    ['float','JJ','flo'],
    [':',':',':'],
    ['left','VBN','leav'],
    [';',':',';'],
    ['width:242px','JJ','width:242px'],
    [';',':',';'],
    ['height:90px','JJ','height:90px'],
    [';',':',';'],
    ['background','NN','background'],
    [':',':',':'],
    ['none','NN','non'],
    ['!','.','!'],
    ['important','JJ','import'],
    [';',':',';'],
    ['margin:0','-NONE-','margin:0'],
    ['10px','CD','10px'],
    [';',':',';'],
    ['position','NN','posit'],
    [':',':',':'],
    ['static','JJ','stat'],
    [';',':',';'],
    ['top:0','-NONE-','top:0'],
    [';',':',';'],
    ['left:0','-NONE-','left:0'],
    [';',':',';'],
    ['display','NN','display'],
    [':',':',':'],
    ['block','NN','block'],
    [';',':',';'],
    ['}',':','}'],
    ['Wednesday','NNP','wednesday'],
    ['Oct','NNP','oct'],
    ['16','CD','16'],
    [',',',',','],
    ['2013','CD','2013'],
    ['12:51','CD','12:51'],
    ['PM','NNP','pm'],
    ['PT','NNP','pt'],
    ['°','NNP','°'],
    ['(','NNP','('],
    ['change','NN','chang'],
    [')',':',')'],
    ['Today','NNP','today'],
    ['/',':','/'],
    ['/',':','/'],
    {
      tag:'GPE',
      content:
      [
        ['Traffic','NNP','traff']
      ]
    },
    ['(',':','('],
    ['change','NN','chang'],
    ['your','PRP$','your'],
    ['city','NN','city'],
    [')',':',')'],
    {
      tag:'PERSON',
      content:
      [
        ['San','NNP','san'],
        ['Francisco','NNP','francisco'],
        ['Santa','NNP','sant'],
        ['Rosa','NNP','ros'],
        ['Napa','NNP','nap'],
        ['Concord','NNP','concord'],
        ['Oakland','NNP','oakland'],
        ['Livermore','NNP','liverm'],
        ['Hayward','NNP','hayward'],
        ['San','NNP','san'],
        ['Carlos','NNP','carlo'],
        ['Palo','NNP','palo'],
        ['Alto','NNP','alto'],
        ['San','NNP','san'],
        ['Jose','NNP','jos'],
        ['Fairfield','NNP','fairfield'],
        ['Mountain','NNP','mountain'],
        ['View','NNP','view'],
        ['Monterey','NNP','monterey']
      ]
    },
    ['sfgate.com','NNP','sfgate.com'],
    ['Web','NNP','web'],
    ['Search','NNP','search'],
    ['by','IN','by'],
    {
      tag:'ORGANIZATION',
      content:
      [
        ['YAHOO','NNP','yahoo']
      ]
    },
    ['!','.','!']
  ]
},
{
  tag:'S',
  content:
  [
    ['Businesses','NNS','busy'],
    ['HomeNewsSportsBusinessEntertainmentFoodLivingTravelColumnsShopping','VBP','homenewssportsbusinessentertainmentfoodlivingtravelcolumnsshop'],
    {
      tag:'PERSON',
      content:
      [
        ['Index','NNP','index']
      ]
    },
    ['▼','NNP','▼'],
    ['CarsJobsReal','NNP','carsjobsr'],
    ['Estate','NNP','est'],
    ['Close','NNP','clos'],
    ['[','NNP','['],
    ['X','NNP','x'],
    [']','NNP',']'],
    {
      tag:'PERSON',
      content:
      [
        ['Quick','NNP','quick']
      ]
    },
    ['links','VBZ','link'],
    ['to','TO','to'],
    ['other','JJ','oth'],
    ['pages','NNS','pag'],
    ['on','IN','on'],
    ['this','DT','this'],
    ['site','NN','sit'],
    ['|',':','|'],
    ['Still','NNP','stil'],
    ['ca','MD','ca'],
    ['n't','RB','n't'],
    ['find','VB','find'],
    ['it','PRP','it'],
    ['?','.','?']
  ]
},
{
  tag:'S',
  content:
  [
    ['see','NN','see'],
    {
      tag:'PERSON',
      content:
      [
        ['Site','NNP','sit'],
        ['Index','NNP','index'],
        ['Do','NNP','do']
      ]
    },
    ['n't','RB','n't'],
    {
      tag:'PERSON',
      content:
      [
        ['Miss','NNP','miss']
      ]
    },
    [':',':',':'],
    {
      tag:'PERSON',
      content:
      [
        ['Stephen','NNP','steph'],
        ['Curry','NNP','curry']
      ]
    },
    [''s','POS',''s'],
    ['diary','JJ','diary'],
    ['from','IN','from'],
    {
      tag:'GPE',
      content:
      [
        ['China18-ft.','NNP','china18-ft.']
      ]
    },
    ['sea','NN','sea'],
    ['creature','NN','cre'],
    ['foundCarroll','NNP','foundcarrol'],
    [':',':',':'],
    ['The','DT','The'],
    ['legally','RB','leg'],
    ['dead','JJ','dead'],
    {
      tag:'ORGANIZATION',
      content:
      [
        ['guyPigeon','NNP','guypigeon']
      ]
    },
    ['inspires','NNS','inspir'],
    ['dream','VBP','dream'],
    ['homeAnnouncement','NNP','homeannount'],
    ['on','IN','on'],
    ['comments','NNS','com'],
    {
      tag:'PERSON',
      content:
      [
        ['Bay','NNP','bay'],
        ['Area','NNP','are']
      ]
    },
    ['&','CC','&'],
    ['StateNationWorldPoliticsCrimeTechObituariesOpinionGreenScienceHealthEducationWeird','NNP','statenationworldpoliticscrimetechobituariesopiniongreensciencehealtheducationweird'],
    ['49ersRaidersGiantsA'sWarriorsSharks49ers','CD','49ersRaidersGiantsA'sWarriorsSharks49ers'],
    {
      tag:'ORGANIZATION',
      content:
      [
        ['FandomNFLMLBNBANHLCollegePrepsGolfOutdoorsOtherOn','NNP','fandomnflmlbnbanhlcollegeprepsgolfoutdoorsotheron']
      ]
    },
    ['TVTicketsShop','NNP','tvticketsshop'],
    ['TechnologyInnovationMarketsPersonal','NNP','technologyinnovationmarketsperson'],
    ['FinanceReal','NNP','fin'],
    ['EstateMortgage','NNP','estatemortg'],
    ['RatesHome','NNP','rateshom'],
    {
      tag:'ORGANIZATION',
      content:
      [
        ['GuidesPublic','NNP','guidespubl']
      ]
    },
    ['NoticesPress','NNP','noticespress'],
    ['ReleasesSponsored','NNP','releasesspons'],
    ['Content','NNP','cont'],
    ['MoviesMusic','NNP','moviesmus'],
    ['&','CC','&'],
    {
      tag:'ORGANIZATION',
      content:
      [
        ['NightlifePerformanceArtEventsBooksTV','NNP','nightlifeperformancearteventsbookstv']
      ]
    },
    ['&','CC','&'],
    {
      tag:'ORGANIZATION',
      content:
      [
        ['RadioHoroscopeComicsGamesThings','NNP','radiohoroscopecomicsgamesth'],
        ['To','NNP','to'],
        ['Do','NNP','do']
      ]
    },
    ['RestaurantsRecipesWineTop','NNP','restaurantsrecipeswinetop'],
    ['100','CD','100'],
    ['RestaurantsTop','NNP','restaurantstop'],
    ['100','CD','100'],
    ['WinesBargain','NNP','winesbargain'],
    ['BitesReservationsInside','NNP','bitesreservationsinsid'],
    ['Scoop','NNP','scoop'],
    ['SFHealthy','NNP','sfhealthy'],
    ['Eating','NNP','eat'],
    ['Home','NNP','hom'],
    ['&','CC','&'],
    {
      tag:'ORGANIZATION',
      content:
      [
        ['GardenStyleOutdoorsPartiesPhilanthropyLuxurySkiLGBTHouzzDatingMomsPetsSponsored','NNP','gardenstyleoutdoorspartiesphilanthropyluxuryskilgbthouzzdatingmomspetsspons']
      ]
    },
    ['Content','NNP','cont'],
    ['Weekend','NNP','weekend'],
    ['GetawaysSF','NNP','getawayssf'],
    ['GuideNeighborhoodsWine','NNP','guideneighborhoodswin'],
    ['CountryNapaMonterey-CarmelTahoeHawaiiMexicoCoastal','NNP','countrynapamonterey-carmeltahoehawaiimexicocoastal'],
    ['CaliforniaVegasSnowJetsetter','NNP','californiavegassnowjetset'],
    ['ClassifiedsDaily','NNP','classifiedsday'],
    ['Deals','NNP','deal'],
    ['DealersClick','NNP','dealersclick'],
    ['and','CC','and'],
    {
      tag:'ORGANIZATION',
      content:
      [
        ['ClackCar','NNP','clackc']
      ]
    },
    ['BlogMy','NNP','blogmy'],
    ['RideCar','NNP','ridec'],
    {
      tag:'ORGANIZATION',
      content:
      [
        ['GalleriesSell','NNP','galleriessel']
      ]
    },
    ['Your','NNP','yo'],
    ['Car','NNP','car'],
    {
      tag:'PERSON',
      content:
      [
        ['Career','NNP','car'],
        ['AdviceBe','NNP','adviceb']
      ]
    },
    ['Your','NNP','yo'],
    ['Own','NNP','own'],
    {
      tag:'ORGANIZATION',
      content:
      [
        ['BossJob','NNP','bossjob']
      ]
    },
    ['EventsMonster','NNP','eventsmonst'],
    ['MatchAdvertiseSalary','NNP','matchadvertises'],
    {
      tag:'PERSON',
      content:
      [
        ['Wizard','NNP','wizard'],
        ['New','NNP','new']
      ]
    },
    ['HomesOpen','NNP','homesop'],
    ['HomesLuxuryRentalsMortgage','NNP','homesluxuryrentalsmortg'],
    ['RatesCommercialLandPlace','NNP','ratescommerciallandplac'],
    ['an','DT','an'],
    {
      tag:'ORGANIZATION',
      content:
      [
        ['adHome','NNP','adhom']
      ]
    },
    ['GuidesHomesalesForeclosures','NNP','guideshomesalesforeclos'],
    ['«','NNP','«'],
    ['Back','NNP','back'],
    ['to','TO','to'],
    {
      tag:'PERSON',
      content:
      [
        ['Article','NNP','artic'],
        ['Pythagoras','NNP','pythagora'],
        ['Solar','NNP','sol']
      ]
    },
    ['windows','VBZ','window'],
    ['and','CC','and'],
    ['energy','NN','energy'],
    ['breakthrough','IN','breakthrough'],
    {
      tag:'ORGANIZATION',
      content:
      [
        ['ALTERNATIVE','NNP','altern']
      ]
    },
    {
      tag:'ORGANIZATION',
      content:
      [
        ['ENERGY','NNP','energy'],
        ['New','NNP','new']
      ]
    },
    ['technology','NN','technolog'],
    ['lets','NNS','let'],
    ['dual-paned','JJ','dual-paned'],
    ['glass','NN','glass'],
    ['generate','NN','gen'],
    [',',',',','],
    ['save','VBP','sav'],
    ['electricity','NN','elect'],
    {
      tag:'PERSON',
      content:
      [
        ['David','NNP','david'],
        ['R.','NNP','r.'],
        ['Baker','NNP','bak']
      ]
    },
    [',',',',','],
    {
      tag:'PERSON',
      content:
      [
        ['San','NNP','san'],
        ['Francisco','NNP','francisco'],
        ['Chronicle','NNP','chronicle']
      ]
    },
    {
      tag:'PERSON',
      content:
      [
        ['David','NNP','david'],
        ['R.','NNP','r.'],
        ['Baker','NNP','bak']
      ]
    },
    [',',',',','],
    {
      tag:'PERSON',
      content:
      [
        ['Chronicle','NNP','chronicle'],
        ['Staff','NNP','staff'],
        ['Writer','NNP','writ']
      ]
    },
    ['Published','NNP','publ'],
    ['4:00','CD','4:00'],
    ['am','NN','am'],
    [',',',',','],
    ['Saturday','NNP','saturday'],
    [',',',',','],
    ['June','NNP','jun'],
    ['25','CD','25'],
    [',',',',','],
    ['2011','CD','2011'],
    ['View','NNP','view'],
    [':',':',':'],
    {
      tag:'PERSON',
      content:
      [
        ['Larger','NNP','larg']
      ]
    },
    ['|',':','|'],
    {
      tag:'PERSON',
      content:
      [
        ['Hide','NNP','hid'],
        ['Cecilia','NNP','cecil'],
        ['Militar','NNP','milit']
      ]
    },
    ['is','VBZ','be'],
    ['seen','VBN','see'],
    ['through','IN','through'],
    ['a','DT','a'],
    ['section','NN','sect'],
    ['of','IN','of'],
    {
      tag:'ORGANIZATION',
      content:
      [
        ['Pythagoras','NNP','pythagora'],
        ['Solar','NNP','sol']
      ]
    },
    ['window','NN','window'],
    ['in','IN','in'],
    {
      tag:'GPE',
      content:
      [
        ['San','NNP','san'],
        ['Mateo','NNP','mateo']
      ]
    },
    [',',',',','],
    {
      tag:'GPE',
      content:
      [
        ['Calif.','NNP','calif.']
      ]
    },
    ['on','IN','on'],
    ['Friday','NNP','friday'],
    [',',',',','],
    ['June','NNP','jun'],
    ['24','CD','24'],
    [',',',',','],
    ['2011','CD','2011'],
    ['.','.','.']
  ]
},
{
  tag:'S',
  content:
  [
    ['The','DT','The'],
    ['double-paned','JJ','double-paned'],
    ['windows','NNS','window'],
    ['generate','VBP','gen'],
    ['electricity','NN','elect'],
    ['through','IN','through'],
    ['horizontal','JJ','horizont'],
    ['rows','NNS','row'],
    ['of','IN','of'],
    ['solar','JJ','sol'],
    ['cells','NNS','cel'],
    ['between','IN','between'],
    ['the','DT','the'],
    ['two','CD','two'],
    ['panes','NNS','pan'],
    ['.','.','.']
  ]
},
{
  tag:'S',
  content:
  [
    {
      tag:'GPE',
      content:
      [
        ['Photo','NNP','photo']
      ]
    },
    [':',':',':'],
    {
      tag:'PERSON',
      content:
      [
        ['Mathew','NNP','mathew'],
        ['Sumner','NNP','sumn']
      ]
    },
    [',',',',','],
    {
      tag:'GPE',
      content:
      [
        ['Special','NNP','spec']
      ]
    },
    ['To','TO','To'],
    ['The','DT','The'],
    {
      tag:'ORGANIZATION',
      content:
      [
        ['Chronicle','NNP','chronicle'],
        ['Cecilia','NNP','cecil'],
        ['Militar','NNP','milit']
      ]
    },
    ['is','VBZ','be'],
    ['seen','VBN','see'],
    ['through','IN','through'],
    ['a','DT','a'],
    ['section','NN','sect'],
    ['of','IN','of'],
    {
      tag:'ORGANIZATION',
      content:
      [
        ['Pythagoras','NNP','pythagora'],
        ['Solar','NNP','sol']
      ]
    },
    ['...',':','...'],
    {
      tag:'PERSON',
      content:
      [
        ['Pythagoras','NNP','pythagora'],
        ['Solar','NNP','sol']
      ]
    },
    ['windows','VBZ','window'],
    ['use','NN','us'],
    ['prisms','NNS','prism'],
    ['to','TO','to'],
    ['reflect','VB','reflect'],
    ['sunlight','NN','sunlight'],
    ['towards','NNS','toward'],
    ['solar','JJ','sol'],
    ['cells','NNS','cel'],
    ['between','IN','between'],
    ['the','DT','the'],
    ['two','CD','two'],
    ['panes','NNS','pan'],
    ['of','IN','of'],
    ['glass','NN','glass'],
    ['to','TO','to'],
    ['generate','VB','gen'],
    ['electricity','NN','elect'],
    ['.','.','.']
  ]
},
{
  tag:'S',
  content:
  [
    {
      tag:'GPE',
      content:
      [
        ['Photo','NNP','photo']
      ]
    },
    [':',':',':'],
    {
      tag:'PERSON',
      content:
      [
        ['Mathew','NNP','mathew'],
        ['Sumner','NNP','sumn']
      ]
    },
    [',',',',','],
    {
      tag:'GPE',
      content:
      [
        ['Special','NNP','spec']
      ]
    },
    ['To','TO','To'],
    ['The','DT','The'],
    {
      tag:'ORGANIZATION',
      content:
      [
        ['Chronicle','NNP','chronicle'],
        ['Pythagoras','NNP','pythagora'],
        ['Solar','NNP','sol']
      ]
    },
    ['windows','VBZ','window'],
    ['use','NN','us'],
    ['prisms','NNS','prism'],
    ['to','TO','to'],
    ['reflect','VB','reflect'],
    ['sunlight','NN','sunlight'],
    ['towards','NNS','toward'],
    ['...',':','...'],
    ['.hst-articlebox','JJ','.hst-articlebox'],
    ['{','NN','{'],
    ['width:300px','NN','width:300px'],
    ['!','.','!'],
    ['important','JJ','import'],
    [';',':',';'],
    ['}',':','}'],
    ['.fb_share_count_wrapper','JJ','.fb_share_count_wrapper'],
    ['{','NN','{'],
    ['width','NN','wid'],
    [':',':',':'],
    ['52px','CD','52px'],
    [';',':',';'],
    ['}',':','}'],
    ['.FBConnectButton_Small','JJ','.fbconnectbutton_small'],
    ['.FBConnectButton_Text','JJ','.fbconnectbutton_text'],
    ['{','NN','{'],
    ['padding:2px','NN','padding:2px'],
    ['2px','CD','2px'],
    ['3px','CD','3px'],
    ['3px','CD','3px'],
    [';',':',';'],
    ['}',':','}'],
    ['.FBConnectButton_Small','JJ','.fbconnectbutton_small'],
    [',',',',','],
    ['.FBConnectButton_RTL_Small','JJ','.fbconnectbutton_rtl_small'],
    ['{','NN','{'],
    ['font-size:9px','NN','font-size:9px'],
    [';',':',';'],
    ['line-height:10px','JJ','line-height:10px'],
    [';',':',';'],
    ['}',':','}'],
    ['.print_link','NN','.print_link'],
    ['{',':','{'],
    ['height','NN','height'],
    [':',':',':'],
    ['25px','CD','25px'],
    [';',':',';'],
    ['}',':','}'],
    ['Tweet','NNP','tweet'],
    ['0','-NONE-','0'],
    {
      tag:'PERSON',
      content:
      [
        ['Larger','NNP','larg']
      ]
    },
    ['|','NNP','|'],
    {
      tag:'PERSON',
      content:
      [
        ['Smaller','NNP','smal'],
        ['Printable','NNP','print'],
        ['Version','NNP','vert'],
        ['Email','NNP','email']
      ]
    },
    ['This','NNP','thi'],
    ['Georgia','NNP','georg'],
    ['(','NNP','('],
    ['default','NN','default'],
    [')',':',')'],
    {
      tag:'PERSON',
      content:
      [
        ['Verdana','NNP','verdan'],
        ['Times','NNP','tim'],
        ['New','NNP','new'],
        ['Roman','NNP','rom']
      ]
    },
    {
      tag:'ORGANIZATION',
      content:
      [
        ['ArialFont','NNP','arialfont']
      ]
    },
    ['Page','NNP','pag'],
    ['1','CD','1'],
    ['of','IN','of'],
    ['1','CD','1'],
    ['A','DT','A'],
    ['lot','NN','lot'],
    ['of','IN','of'],
    ['sunlight','NN','sunlight'],
    ['hits','NNS','hit'],
    ['tall','VBP','tal'],
    ['office','NN','off'],
    ['buildings','NNS','build'],
    [',',',',','],
    ['only','RB','on'],
    ['to','TO','to'],
    ['go','VB','go'],
    ['to','TO','to'],
    ['waste','VB','wast'],
    ['.','.','.']
  ]
},
{
  tag:'S',
  content:
  [
    ['Their','PRP$','Their'],
    ['relatively','RB','rel'],
    ['small','JJ','smal'],
    ['roofs','NNS','roof'],
    ['do','VBP','do'],
    ['n't','RB','n't'],
    ['offer','VB','off'],
    ['much','JJ','much'],
    ['space','NN','spac'],
    ['for','IN','for'],
    ['solar','JJ','sol'],
    ['panels','NNS','panel'],
    ['.','.','.']
  ]
},
{
  tag:'S',
  content:
  [
    ['A','DT','A'],
    ['solar','JJ','sol'],
    ['array','NN','array'],
    ['crammed','VBD','cram'],
    ['onto','IN','onto'],
    ['the','DT','the'],
    ['top','JJ','top'],
    ['of','IN','of'],
    ['a','DT','a'],
    ['typical','JJ','typ'],
    ['office','NN','off'],
    ['tower','NN','tow'],
    ['could','MD','could'],
    ['produce','VB','produc'],
    [',',',',','],
    ['at','IN','at'],
    ['best','JJS','best'],
    [',',',',','],
    ['a','DT','a'],
    ['tiny','NN','tiny'],
    ['fraction','NN','fract'],
    ['of','IN','of'],
    ['the','DT','the'],
    ['electricity','NN','elect'],
    ['the','DT','the'],
    ['building','NN','build'],
    ['and','CC','and'],
    ['its','PRP$','its'],
    ['tenants','NNS','ten'],
    ['need.But','CC','need.But'],
    ['what','WP','what'],
    ['if','IN','if'],
    ['the','DT','the'],
    ['building','NN','build'],
    [''s','POS',''s'],
    ['windows','NNS','window'],
    ['could','MD','could'],
    ['serve','VB','serv'],
    ['as','IN','as'],
    ['solar','JJ','sol'],
    ['panels','NNS','panel'],
    ['?','.','?'],
    ['Pythagoras','NNP','pythagora'],
    ['Solar','NNP','sol'],
    ['in','IN','in'],
    {
      tag:'GPE',
      content:
      [
        ['San','NNP','san'],
        ['Mateo','NNP','mateo']
      ]
    },
    ['has','VBZ','hav'],
    ['developed','VBN','develop'],
    ['a','DT','a'],
    ['window','NN','window'],
    ['laced','VBN','lac'],
    ['with','IN','with'],
    ['solar','JJ','sol'],
    ['cells','NNS','cel'],
    [',',',',','],
    ['a','DT','a'],
    ['window','NN','window'],
    ['that','WDT','that'],
    ['generates','VBZ','gen'],
    ['and','CC','and'],
    ['saves','NNS','sav'],
    ['electricity','NN','elect'],
    ['at','IN','at'],
    ['the','DT','the'],
    ['same','JJ','sam'],
    ['time','NN','tim'],
    ['.','.','.']
  ]
},
{
  tag:'S',
  content:
  [
    {
      tag:'GPE',
      content:
      [
        ['Thin','NNP','thin']
      ]
    },
    ['horizontal','NN','horizont'],
    ['rows','VBZ','row'],
    ['of','IN','of'],
    ['silicon','NN','silicon'],
    ['cells','NNS','cel'],
    ['embedded','VBD','emb'],
    ['between','IN','between'],
    ['dual','JJ','dual'],
    ['panes','NNS','pan'],
    ['of','IN','of'],
    ['glass','NN','glass'],
    ['catch','NN','catch'],
    ['light','NN','light'],
    ['from','IN','from'],
    ['above','IN','above'],
    ['.','.','.']
  ]
},
{
  tag:'S',
  content:
  [
    ['And','CC','And'],
    ['through','IN','through'],
    ['a','DT','a'],
    ['t','NN','t']
  ]
}]