[
{
  tag:'S',
  content:
  [
    ['e-Edition','NN','e-edition'],
    {
      tag:'PERSON',
      content:
      [
        ['Telephone','NNP','telephon'],
        ['Directory','NNP','direct']
      ]
    },
    ['5.3°C','CD','5.3°C'],
    ['Detailed','NNP','detail'],
    ['Forecast','NNP','forecast'],
    ['Home','NNP','hom'],
    ['News','NNP','new'],
    {
      tag:'ORGANIZATION',
      content:
      [
        ['Local','NNP','loc'],
        ['News','NNP','new'],
        ['Environment','NNP','environ'],
        ['Business','NNP','busy']
      ]
    },
    ['World','NNP','world'],
    ['News','NNP','new'],
    ['Health','NNP','heal'],
    ['Education','NNP','educ'],
    ['Election','NNP','elect'],
    ['Opinion','NNP','opin'],
    ['Editorial','NNP','edit'],
    ['Column','NNP','column'],
    ['Letters','NNP','let'],
    ['Sports','NNP','sport'],
    {
      tag:'PERSON',
      content:
      [
        ['Local','NNP','loc'],
        ['Sports','NNP','sport']
      ]
    },
    ['World','NNP','world'],
    ['Sports','NNP','sport'],
    ['Entertainment','NNP','entertain'],
    {
      tag:'PERSON',
      content:
      [
        ['Local','NNP','loc'],
        ['Entertainment','NNP','entertain']
      ]
    },
    ['Movies','NNPS','movy'],
    ['World','NNP','world'],
    ['Entertainment','NNP','entertain'],
    ['Multimedia','NNP','multimed'],
    ['Photo','NNP','photo'],
    {
      tag:'PERSON',
      content:
      [
        ['Gallery','NNP','gallery'],
        ['Slide','NNP','slid'],
        ['Shows','NNP','show'],
        ['Podcasts','NNP','podcast'],
        ['Ads','NNP','ad'],
        ['Classifieds','NNP','class'],
        ['Business','NNP','busy'],
        ['Directory','NNP','direct'],
        ['Directory','NNP','direct'],
        ['Weekend','NNP','weekend'],
        ['Contests','NNP','contest'],
        ['Western','NNP','western'],
        ['Wheel','NNP','wheel'],
        ['Features','NNP','feat']
      ]
    },
    ['e-Edition','NNP','e-edition'],
    ['News','NNP','new'],
    ['Tips','NNP','tip'],
    ['Subscribe','NNP','subscrib'],
    ['Advertise','NNP','advert'],
    ['With','NNP','with'],
    {
      tag:'PERSON',
      content:
      [
        ['Us','NNP','us'],
        ['About','NNP','about'],
        ['Us','NNP','us'],
        ['Contact','NNP','contact'],
        ['Us','NNP','us'],
        ['Black','NNP','black'],
        ['Diamond','NNP','diamond']
      ]
    },
    ['filmmakers','NNS','filmmak'],
    ['to','TO','to'],
    ['host','VB','host'],
    ['short','JJ','short'],
    ['film','NN','film'],
    ['festival','NN','fest'],
    {
      tag:'PERSON',
      content:
      [
        ['Art','NNP','art']
      ]
    },
    [':',':',':'],
    ['Event','NNP','ev'],
    ['to','TO','to'],
    ['be','VB','be'],
    ['held','VBN','hold'],
    ['Dec.','-NONE-','Dec.'],
    ['28','CD','28'],
    ['and','CC','and'],
    ['Dec.','NNP','dec.'],
    ['30','CD','30'],
    ['By','NNP','by'],
    [':',':',':'],
    {
      tag:'PERSON',
      content:
      [
        ['Stephen','NNP','steph'],
        ['Smith','NNP','smi']
      ]
    },
    ['|','NNP','|'],
    ['Posted','NNP','post'],
    [':',':',':'],
    ['Wednesday','NNP','wednesday'],
    [',',',',','],
    ['Dec','NNP','dec'],
    ['22','CD','22'],
    [',',',',','],
    ['2010','CD','2010'],
    ['06:00','CD','06:00'],
    ['am','NN','am'],
    ['Filmmakers','NNS','filmmak'],
    {
      tag:'PERSON',
      content:
      [
        ['Zoe','NNP','zoe'],
        ['Slusar','NNP','slus']
      ]
    },
    ['and','CC','and'],
    {
      tag:'PERSON',
      content:
      [
        ['Bailey','NNP','bailey'],
        ['Kerluke','NNP','kerluk']
      ]
    },
    ['set','VBD','set'],
    ['up','RP','up'],
    ['a','DT','a'],
    ['shot','NN','shot'],
    ['for','IN','for'],
    ['one','CD','one'],
    ['of','IN','of'],
    ['their','PRP$','their'],
    ['movie','NN','movy'],
    ['shorts','NNS','short'],
    ['.','.','.']
  ]
},
{
  tag:'S',
  content:
  [
    ['A','DT','A'],
    ['film','NN','film'],
    ['festival','NN','fest'],
    ['of','IN','of'],
    ['their','PRP$','their'],
    ['work','NN','work'],
    ['runs','VBZ','run'],
    ['Dec.','NNP','dec.'],
    ['28','CD','28'],
    ['and','CC','and'],
    ['Dec.','NNP','dec.'],
    ['30','CD','30'],
    ['in','IN','in'],
    {
      tag:'LOCATION',
      content:
      [
        ['Black','NNP','black'],
        ['Diamond','NNP','diamond']
      ]
    },
    ['.','.','.']
  ]
},
{
  tag:'S',
  content:
  [
    ['photo','IN','photo'],
    ['by','IN','by'],
    {
      tag:'PERSON',
      content:
      [
        ['Stephen','NNP','steph']
      ]
    },
    ['Smith/OWW','NNP','smith/oww'],
    ['Tweet','NNP','tweet'],
    ['Comments','NNP','com'],
    ['|','NNP','|'],
    ['Print','NNP','print'],
    ['|','NNP','|'],
    ['A','NNP','a'],
    ['A','NNP','a'],
    ['Its','NNP','its'],
    ['not','RB','not'],
    ['the','DT','the'],
    ['kind','NN','kind'],
    ['of','IN','of'],
    ['film','NN','film'],
    ['festival','NN','fest'],
    ['with','IN','with'],
    ['one','CD','one'],
    ['limo','NN','limo'],
    ['pulling','VBG','pul'],
    ['up','RP','up'],
    ['after','IN','after'],
    ['another','DT','another'],
    ['and','CC','and'],
    ['hordes','VBZ','hord'],
    ['of','IN','of'],
    ['paparazzi','NN','paparazzo'],
    ['clamouring','VBG','clamo'],
    ['along','IN','along'],
    ['the','DT','the'],
    ['red','NN','red'],
    ['carpet','NN','carpet'],
    ['to','TO','to'],
    ['get','VB','get'],
    ['photos','NNS','photo'],
    ['of','IN','of'],
    ['celebrities','NNS','celebr'],
    ['but','CC','but'],
    ['for','IN','for'],
    ['local','JJ','loc'],
    ['filmmakers','NNS','filmmak'],
    ['it','PRP','it'],
    ['will','MD','will'],
    ['be','VB','be'],
    ['a','DT','a'],
    ['special','JJ','spec'],
    ['evening','NN','ev'],
    ['in','IN','in'],
    {
      tag:'GPE',
      content:
      [
        ['Black','NNP','black']
      ]
    },
    ['Diamond.Local','JJ','diamond.local'],
    ['moviemakers','NNS','moviemak'],
    {
      tag:'PERSON',
      content:
      [
        ['Zoe','NNP','zoe'],
        ['Slusar','NNP','slus']
      ]
    },
    ['and','CC','and'],
    {
      tag:'PERSON',
      content:
      [
        ['Bailey','NNP','bailey'],
        ['Kerluke','NNP','kerluk']
      ]
    },
    ['will','MD','will'],
    ['host','VB','host'],
    ['365','CD','365'],
    ['Days','NNS','day'],
    ['',':',''],
    ['A','DT','A'],
    ['Year','NN','year'],
    ['of','IN','of'],
    {
      tag:'GPE',
      content:
      [
        ['Shorts','NNP','short']
      ]
    },
    ['film','NN','film'],
    ['festival','NN','fest'],
    ['Dec.','NNP','dec.'],
    ['28','CD','28'],
    ['at','IN','at'],
    ['the','DT','the'],
    {
      tag:'ORGANIZATION',
      content:
      [
        ['Sheep','NNP','sheep'],
        ['River','NNP','riv'],
        ['Library','NNP','libr']
      ]
    },
    ['and','CC','and'],
    ['Dec.','NNP','dec.'],
    ['30','CD','30'],
    ['at','IN','at'],
    {
      tag:'FACILITY',
      content:
      [
        ['The','DT','The'],
        ['Stop','NNP','stop']
      ]
    },
    ['in','IN','in'],
    {
      tag:'GPE',
      content:
      [
        ['Black','NNP','black']
      ]
    },
    ['Diamond.Slusar','JJ','diamond.slusar'],
    [',',',',','],
    ['22','CD','22'],
    [',',',',','],
    ['and','CC','and'],
    {
      tag:'PERSON',
      content:
      [
        ['Kerluke','NNP','kerluk']
      ]
    },
    [',',',',','],
    ['24','CD','24'],
    [',',',',','],
    ['started','VBN','start'],
    ['creating','VBG','cre'],
    ['movies','NNS','movy'],
    ['together','RB','togeth'],
    ['seven','CD','seven'],
    ['years','NNS','year'],
    ['ago','RB','ago'],
    ['when','WRB','when'],
    ['they','PRP','they'],
    ['were','VBD','be'],
    ['both','DT','both'],
    ['students','NNS','stud'],
    ['at','IN','at'],
    {
      tag:'ORGANIZATION',
      content:
      [
        ['Black','NNP','black']
      ]
    },
    ['Diamonds','NNP','diamonds'],
    ['Oilfields','NNP','oilfield'],
    ['High','NNP','high'],
    ['School.Times','NNP','school.times'],
    ['have','VBP','hav'],
    ['changed','VBN','chang'],
    ['significantly','RB','sign'],
    ['from','IN','from'],
    ['their','PRP$','their'],
    ['days','NNS','day'],
    ['as','IN','as'],
    ['students','NNS','stud'],
    ['at','IN','at'],
    {
      tag:'ORGANIZATION',
      content:
      [
        ['Oilfields','NNP','oilfield']
      ]
    },
    ['.','.','.']
  ]
},
{
  tag:'S',
  content:
  [
    {
      tag:'GPE',
      content:
      [
        ['Slusar','NNP','slus']
      ]
    },
    ['now','RB','now'],
    ['lives','VBZ','liv'],
    ['much','JJ','much'],
    ['of','IN','of'],
    ['the','DT','the'],
    ['year','NN','year'],
    ['in','IN','in'],
    {
      tag:'GPE',
      content:
      [
        ['Ireland','NNP','ireland']
      ]
    },
    ['while','IN','while'],
    {
      tag:'PERSON',
      content:
      [
        ['Kerluke','NNP','kerluk']
      ]
    },
    ['resides','VBZ','resid'],
    ['in','IN','in'],
    {
      tag:'GPE',
      content:
      [
        ['Calgary','NNP','calg']
      ]
    },
    ['making','VBG','mak'],
    ['it','PRP','it'],
    ['more','JJR','mor'],
    ['difficult','JJ','difficult'],
    ['for','IN','for'],
    ['the','DT','the'],
    ['pair','NN','pair'],
    ['to','TO','to'],
    ['collaborate','VB','collab'],
    [',',',',','],
    ['but','CC','but'],
    ['whenever','RB','whenev'],
    ['they','PRP','they'],
    ['are','VBP','be'],
    ['together','RB','togeth'],
    ['theyre','JJ','theyre'],
    ['able','JJ','abl'],
    ['to','TO','to'],
    ['shoot','VB','shoot'],
    [',',',',','],
    ['edit','NN','edit'],
    ['and','CC','and'],
    ['complete','JJ','complet'],
    ['films','NNS','film'],
    ['quickly.In','JJ','quickly.in'],
    ['fact','NN','fact'],
    [',',',',','],
    ['with','IN','with'],
    ['the','DT','the'],
    ['few','JJ','few'],
    ['short','JJ','short'],
    ['days','NNS','day'],
    ['they','PRP','they'],
    ['have','VBP','hav'],
    ['together','RP','together'],
    ['before','IN','before'],
    ['the','DT','the'],
    ['festival','NN','fest'],
    ['kicks','NNS','kick'],
    ['off','IN','off'],
    [',',',',','],
    ['theyre','JJ','theyre'],
    ['hoping','NN','hop'],
    ['to','TO','to'],
    ['create','VB','cre'],
    ['a','DT','a'],
    ['couple','NN','coupl'],
    ['of','IN','of'],
    ['new','JJ','new'],
    ['shorts','NNS','short'],
    ['to','TO','to'],
    ['insert','VB','insert'],
    ['into','IN','into'],
    ['the','DT','the'],
    ['365','CD','365'],
    ['Days','NNS','day'],
    ['lineup.Kerluke','JJ','lineup.kerluke'],
    ['divulged','JJ','divulg'],
    ['their','PRP$','their'],
    ['quick','JJ','quick'],
    ['turnaround','NN','turnaround'],
    ['on','IN','on'],
    ['movies','NNS','movy'],
    [',',',',','],
    ['which','WDT','which'],
    ['they','PRP','they'],
    ['make','VBP','mak'],
    ['under','IN','under'],
    ['the','DT','the'],
    ['banner','NN','ban'],
    ['of','IN','of'],
    {
      tag:'ORGANIZATION',
      content:
      [
        ['Untitled','NNP','untitl'],
        ['Productions','NNPS','produc']
      ]
    },
    [',',',',','],
    ['are','VBP','be'],
    ['made','VBN','mak'],
    ['possible','JJ','poss'],
    ['by','IN','by'],
    ['the','DT','the'],
    ['pairs','NNP','pairs'],
    ['years','NNS','year'],
    ['of','IN','of'],
    ['experience','NN','expery'],
    ['filming','VBG','film'],
    ['together.Were','JJ','together.were'],
    ['kind','NN','kind'],
    ['of','IN','of'],
    ['always','RB','alway'],
    ['on','IN','on'],
    ['the','DT','the'],
    ['same','JJ','sam'],
    ['wavelength','NN','waveleng'],
    ['in','IN','in'],
    ['terms','NNS','term'],
    ['of','IN','of'],
    ['what','WP','what'],
    ['were','JJ','wer'],
    ['looking','VBG','look'],
    ['for','IN','for'],
    [',',',',','],
    ['',':',''],
    ['he','PRP','he'],
    ['said','VBD','say'],
    ['.','.','.']
  ]
},
{
  tag:'S',
  content:
  [
    ['We','JJ','we'],
    ['also','RB','also'],
    ['each','DT','each'],
    ['have','VBP','hav'],
    ['our','PRP$','our'],
    ['own','JJ','own'],
    ['strengths','NNS','strength'],
    ['.','.','.']
  ]
},
{
  tag:'S',
  content:
  [
    ['Zoes','NNS','zoes'],
    ['great','VBD','gre'],
    ['at','IN','at'],
    ['directing','NN','direct'],
    ['people','NNS','peopl'],
    ['and','CC','and'],
    ['directing','VBG','direct'],
    ['me','PRP','me'],
    ['if','IN','if'],
    ['something','NN','someth'],
    ['seems','VBZ','seem'],
    ['off','RP','off'],
    ['.','.','.']
  ]
},
{
  tag:'S',
  content:
  [
    ['Shes','NNS','shes'],
    ['also','RB','also'],
    ['good','JJ','good'],
    ['at','IN','at'],
    ['acting','JJ','act'],
    ['.','.','.']
  ]
},
{
  tag:'S',
  content:
  [
    ['Shes','NNS','shes'],
    ['very','RB','very'],
    ['natural','JJ','nat'],
    ['.','.','.']
  ]
},
{
  tag:'S',
  content:
  [
    ['While','IN','While'],
    ['Im','JJ','im'],
    ['very','RB','very'],
    ['shot-oriented','JJ','shot-oriented'],
    ['and','CC','and'],
    ['strong','JJ','strong'],
    ['editing','NN','edit'],
    ['wise','NN','wis'],
    ['.','.','.']
  ]
},
{
  tag:'S',
  content:
  [
    ['So','IN','So'],
    ['were','JJ','wer'],
    ['both','DT','both'],
    ['on','IN','on'],
    ['the','DT','the'],
    ['same','JJ','sam'],
    ['level','NN','level'],
    ['but','CC','but'],
    ['we','PRP','we'],
    ['each','DT','each'],
    ['know','VBP','know'],
    ['what','WP','what'],
    ['we','PRP','we'],
    ['have','VBP','hav'],
    ['to','TO','to'],
    ['do','VB','do'],
    ['and','CC','and'],
    ['how','WRB','how'],
    ['to','TO','to'],
    ['do','VB','do'],
    ['it.Kerluke','JJ','it.kerluke'],
    ['said','NN','said'],
    ['he','PRP','he'],
    ['and','CC','and'],
    {
      tag:'GPE',
      content:
      [
        ['Slusar','NNP','slus']
      ]
    },
    ['have','VBP','hav'],
    ['become','VBN','becom'],
    ['quite','RB','quit'],
    ['accustomed','VBN','accustom'],
    ['to','TO','to'],
    ['showing','NN','show'],
    ['up','IN','up'],
    ['at','IN','at'],
    ['film','NN','film'],
    ['competitions','NNS','competit'],
    ['and','CC','and'],
    ['finding','VBG','find'],
    ['out','RP','out'],
    ['the','DT','the'],
    ['movies','NNS','movy'],
    ['they','PRP','they'],
    ['are','VBP','be'],
    ['up','RP','up'],
    ['against','IN','against'],
    ['took','NN','took'],
    ['longer','NN','long'],
    ['to','TO','to'],
    ['shoot','VB','shoot'],
    ['and','CC','and'],
    ['featured','VBN','feat'],
    ['much','RB','much'],
    ['larger','JJR','larg'],
    ['crews','NNS','crew'],
    ['.','.','.']
  ]
},
{
  tag:'S',
  content:
  [
    ['But','CC','But'],
    ['the','DT','the'],
    ['duo','NN','duo'],
    ['has','VBZ','hav'],
    ['been','VBN','be'],
    ['fairing','VBG','fair'],
    ['well','RB','wel'],
    ['and','CC','and'],
    ['picking','VBG','pick'],
    ['up','RP','up'],
    ['hardware','NN','hardw'],
    ['often','RB','oft'],
    ['at','IN','at'],
    ['these','DT','these'],
    ['events','NNS','ev'],
    [',',',',','],
    ['which','WDT','which'],
    ['has','VBZ','hav'],
    ['reassured','VBN','reass'],
    ['them','PRP','them'],
    ['they','PRP','they'],
    ['are','VBP','be'],
    ['doing','VBG','do'],
    ['things','NNS','thing'],
    ['the','DT','the'],
    ['right','NN','right'],
    ['way.Having','NN','way.having'],
    ['just','RB','just'],
    ['a','DT','a'],
    ['couple','NN','coupl'],
    ['of','IN','of'],
    ['people','NNS','peopl'],
    ['in','IN','in'],
    ['charge','NN','charg'],
    ['of','IN','of'],
    ['a','DT','a'],
    ['movie','NN','movy'],
    ['also','RB','also'],
    ['has','VBZ','hav'],
    ['an','DT','an'],
    ['added','VBN','ad'],
    ['benefit','NN','benefit'],
    {
      tag:'PERSON',
      content:
      [
        ['Kerluke','NNP','kerluk']
      ]
    },
    ['stated.You','NNP','stated.you'],
    ['dont','NNP','dont'],
    ['have','VBP','hav'],
    ['to','TO','to'],
    ['argue','VB','argu'],
    ['with','IN','with'],
    ['six','CD','six'],
    ['other','JJ','oth'],
    ['people','NNS','peopl'],
    ['on','IN','on'],
    ['a','DT','a'],
    ['set','NN','set'],
    [',',',',','],
    ['you','PRP','you'],
    ['just','RB','just'],
    ['have','VBP','hav'],
    ['to','TO','to'],
    ['argue','VB','argu'],
    ['with','IN','with'],
    ['one','CD','one'],
    [',',',',','],
    ['','NNP',''],
    ['he','PRP','he'],
    ['said.The','NNP','said.the'],
    ['365','CD','365'],
    ['Days','NNS','day'],
    ['festival','JJ','fest'],
    ['marks','NNS','mark'],
    ['the','DT','the'],
    ['fifth','JJ','fif'],
    ['time','NN','tim'],
    {
      tag:'PERSON',
      content:
      [
        ['Slusar','NNP','slus']
      ]
    },
    ['and','CC','and'],
    {
      tag:'GPE',
      content:
      [
        ['Kerluke','NNP','kerluk']
      ]
    },
    ['have','VBP','hav'],
    ['brought','VBN','bring'],
    ['their','PRP$','their'],
    ['work','NN','work'],
    ['home','NN','hom'],
    ['to','TO','to'],
    ['display','VB','display'],
    ['to','TO','to'],
    ['local','JJ','loc'],
    ['film','NN','film'],
    ['fans','NNS','fan'],
    [',',',',','],
    ['but','CC','but'],
    ['its','NNP','its'],
    ['the','DT','the'],
    ['first','JJ','first'],
    ['time','NN','tim'],
    ['this','DT','this'],
    ['kind','NN','kind'],
    ['of','IN','of'],
    ['showcase','NN','showcas'],
    ['has','VBZ','hav'],
    ['been','VBN','be'],
    ['stretched','VBN','stretch'],
    ['over','IN','over'],
    ['three','CD','three'],
    ['days.None','NN','days.none'],
    ['of','IN','of'],
    ['these','DT','these'],
    ['shorts','NNS','short'],
    ['have','VBP','hav'],
    ['been','VBN','be'],
    ['shown','VBN','show'],
    ['in','IN','in'],
    ['the','DT','the'],
    ['area','NN','are'],
    ['before','IN','before'],
    ['and','CC','and'],
    ['people','NNS','peopl'],
    ['who','WP','who'],
    ['come','NN','com'],
    ['out','IN','out'],
    ['for','IN','for'],
    ['the','DT','the'],
    ['event','NN','ev'],
    ['should','MD','should'],
    ['expect','VB','expect'],
    ['to','TO','to'],
    ['see','VB','see'],
    ['a','DT','a'],
    ['lot','NN','lot'],
    ['variety','NN','vary'],
    ['in','IN','in'],
    ['the','DT','the'],
    ['work','NN','work'],
    ['being','VBG','be'],
    ['screened.They','JJ','screened.they'],
    ['range','NN','rang'],
    ['from','IN','from'],
    ['one','CD','one'],
    ['minute','NN','minut'],
    ['long','RB','long'],
    ['to','TO','to'],
    ['nine','CD','nine'],
    ['minutes','NNS','minut'],
    [',',',',','],
    ['',':',''],
    ['he','PRP','he'],
    ['explained','VBD','explain'],
    ['.','.','.']
  ]
},
{
  tag:'S',
  content:
  [
    ['Weve','JJ','weve'],
    ['got','VBD','get'],
    ['a','DT','a'],
    ['lot','NN','lot'],
    ['of','IN','of'],
    ['different','JJ','diff'],
    ['genres','NNS','genr'],
    ['.','.','.']
  ]
},
{
  tag:'S',
  content:
  [
    ['Either','DT','Either'],
    ['myself','PRP','myself'],
    ['or','CC','or'],
    ['Zoe','NNP','zoe'],
    ['or','CC','or'],
    ['both','DT','both'],
    ['of','IN','of'],
    ['us','PRP','us'],
    ['has','VBZ','hav'],
    ['made','VBN','mak'],
    ['the','DT','the'],
    ['films','NNS','film'],
    ['.','.','.']
  ]
},
{
  tag:'S',
  content:
  [
    ['Id','JJ','id'],
    ['say','VBP','say'],
    ['about','IN','about'],
    ['70','CD','70'],
    ['per','IN','per'],
    ['cent','NN','cent'],
    ['are','VBP','be'],
    ['us','PRP','us'],
    ['working','VBG','work'],
    ['together.Last','JJ','together.last'],
    ['year','NN','year'],
    ['it','PRP','it'],
    ['was','VBD','be'],
    ['standing','VBG','stand'],
    ['room','NN','room'],
    ['only','RB','on'],
    ['at','IN','at'],
    ['a','DT','a'],
    ['screening','NN','screening'],
    ['at','IN','at'],
    {
      tag:'FACILITY',
      content:
      [
        ['The','DT','The'],
        ['Stop','NNP','stop']
      ]
    },
    ['in','IN','in'],
    {
      tag:'LOCATION',
      content:
      [
        ['Black','NNP','black'],
        ['Diamond','NNP','diamond']
      ]
    },
    ['.','.','.']
  ]
},
{
  tag:'S',
  content:
  [
    ['This','DT','This'],
    ['has','VBZ','hav'],
    ['prompted','VBN','prompt'],
    ['the','DT','the'],
    ['filmmakers','NNS','filmmak'],
    ['to','TO','to'],
    ['add','VB','ad'],
    ['the','DT','the'],
    ['Dec.','NNP','dec.'],
    ['28','CD','28'],
    ['showing','VBG','show'],
    ['at','IN','at'],
    ['the','DT','the'],
    {
      tag:'ORGANIZATION',
      content:
      [
        ['Sheep','NNP','sheep'],
        ['River','NNP','riv']
      ]
    },
    ['Library','NNP','libr'],
    ['this','DT','this'],
    ['year','NN','year'],
    ['to','TO','to'],
    ['the','DT','the'],
    ['return','NN','return'],
    ['engagement','NN','eng'],
    ['at','IN','at'],
    {
      tag:'FACILITY',
      content:
      [
        ['The','DT','The'],
        ['Stop','NNP','stop']
      ]
    },
    ['on','IN','on'],
    ['Dec.','NNP','dec.'],
    ['30.The','CD','30.The'],
    ['365','CD','365'],
    ['Days','NNS','day'],
    ['',':',''],
    ['A','DT','A'],
    ['Year','NN','year'],
    ['of','IN','of'],
    {
      tag:'GPE',
      content:
      [
        ['Shorts','NNP','short']
      ]
    },
    ['festival','NN','fest'],
    ['currently','RB','cur'],
    ['features','VBZ','feat'],
    ['22','CD','22'],
    ['short','JJ','short'],
    ['films','NNS','film'],
    ['including','VBG','includ'],
    ['several','JJ','sev'],
    ['award','NN','award'],
    ['winners','NNS','win'],
    ['and','CC','and'],
    ['international','JJ','intern'],
    ['film','NN','film'],
    ['festival','NN','fest'],
    ['selections','NNS','select'],
    ['.','.','.']
  ]
},
{
  tag:'S',
  content:
  [
    ['Some','DT','Some'],
    ['of','IN','of'],
    ['the','DT','the'],
    ['acclaimed','VBN','acclaim'],
    ['works','NNS','work'],
    ['to','TO','to'],
    ['be','VB','be'],
    ['seen','VBN','see'],
    ['are','VBP','be'],
    [':',':',':'],
    {
      tag:'PERSON',
      content:
      [
        ['Black','NNP','black'],
        ['Coffee','NNP','coff']
      ]
    },
    [',',',',','],
    ['which','WDT','which'],
    ['won','VBD','win'],
    ['first','RB','first'],
    ['place','NN','plac'],
    ['in','IN','in'],
    ['the','DT','the'],
    ['2010','CD','2010'],
    {
      tag:'ORGANIZATION',
      content:
      [
        ['CBC','NNP','cbc']
      ]
    },
    ['Calgary','NNP','calg'],
    ['Shorts','NNP','short'],
    ['competition','NN','competit'],
    [';',':',';'],
    {
      tag:'PERSON',
      content:
      [
        ['Urban','NNP','urb'],
        ['Spin','NNP','spin']
      ]
    },
    [',',',',','],
    ['an','DT','an'],
    ['official','NN','off'],
    ['selection','NN','select'],
    ['of','IN','of'],
    ['this','DT','this'],
    ['years','JJ','years'],
    {
      tag:'ORGANIZATION',
      content:
      [
        ['Toronto','NNP','toronto'],
        ['Urban','NNP','urb'],
        ['Film','NNP','film'],
        ['Festival','NNP','fest']
      ]
    },
    [';',':',';'],
    ['and','CC','and'],
    {
      tag:'PERSON',
      content:
      [
        ['Delicious','NNP','delicy'],
        ['Goodbye','NNP','goodby']
      ]
    },
    [',',',',','],
    ['a','DT','a'],
    ['music','JJ','mus'],
    ['video','NN','video'],
    ['for','IN','for'],
    ['the','DT','the'],
    ['band','NN','band'],
    {
      tag:'ORGANIZATION',
      content:
      [
        ['Metal','NNP','met'],
        ['Messiah','NNP','messiah']
      ]
    },
    ['that','IN','that'],
    ['was','VBD','be'],
    ['a','DT','a'],
    ['2010','CD','2010'],
    ['Audience','NNP','audy'],
    ['Choice','NNP','cho'],
    ['winner','NN','win'],
    ['at','IN','at'],
    ['the','DT','the'],
    {
      tag:'ORGANIZATION',
      content:
      [
        ['Calgary','NNP','calg'],
        ['Folk','NNP','folk']
      ]
    },
    ['Festival.The','NNP','festival.the'],
    ['collection','NN','collect'],
    ['of','IN','of'],
    ['cinematic','JJ','cinem'],
    ['work','NN','work'],
    ['will','MD','will'],
    ['also','RB','also'],
    ['be','VB','be'],
    ['shown','VBN','show'],
    ['at','IN','at'],
    ['the','DT','the'],
    {
      tag:'ORGANIZATION',
      content:
      [
        ['Plaza','NNP','plaz']
      ]
    },
    ['Theatre','NNP','the'],
    ['in','IN','in'],
    {
      tag:'GPE',
      content:
      [
        ['Calgary','NNP','calg']
      ]
    },
    ['Dec.','NNP','dec.'],
    ['29','CD','29'],
    ['.','.','.']
  ]
},
{
  tag:'S',
  content:
  [
    ['The','DT','The'],
    ['show','NN','show'],
    ['time','NN','tim'],
    ['for','IN','for'],
    ['all','DT','all'],
    ['three','CD','three'],
    ['events','NNS','ev'],
    ['is','VBZ','be'],
    ['7','CD','7'],
    ['p.m.All','JJ','p.m.all'],
    ['three','CD','three'],
    ['nights','NNS','night'],
    ['of','IN','of'],
    ['the','DT','the'],
    ['festival','NN','fest'],
    [',',',',','],
    ['including','VBG','includ'],
    ['the','DT','the'],
    ['one','CD','one'],
    ['in','IN','in'],
    {
      tag:'GPE',
      content:
      [
        ['Calgary','NNP','calg']
      ]
    },
    [',',',',','],
    ['are','VBP','be'],
    ['free','JJ','fre'],
    ['.','.','.']
  ]
},
{
  tag:'S',
  content:
  [
    ['It','PRP','It'],
    ['will','MD','will'],
    ['feature','VB','feat'],
    {
      tag:'PERSON',
      content:
      [
        ['Slusar','NNP','slus']
      ]
    },
    ['and','CC','and'],
    {
      tag:'GPE',
      content:
      [
        ['Kerluke','NNP','kerluk']
      ]
    },
    ['providing','NN','provid'],
    ['live','NN','liv'],
    ['introductions','NNS','introduc'],
    [',',',',','],
    ['a','DT','a'],
    ['chance','NN','chant'],
    ['to','TO','to'],
    ['meet','VB','meet'],
    ['the','DT','the'],
    ['filmmakers','NNS','filmmak'],
    ['and','CC','and'],
    ['the','DT','the'],
    ['opportunity','NN','opportun'],
    ['to','TO','to'],
    ['purchase','VB','purchas'],
    {
      tag:'ORGANIZATION',
      content:
      [
        ['DVD','NNP','dvd']
      ]
    },
    ['collections','NNS','collect'],
    ['of','IN','of'],
    ['their','PRP$','their'],
    ['films.Learn','JJ','films.learn'],
    ['more','JJR','mor'],
    ['about','IN','about'],
    ['the','DT','the'],
    ['filmmakers','NNS','filmmak'],
    ['and','CC','and'],
    ['their','PRP$','their'],
    ['work','NN','work'],
    ['at','IN','at'],
    ['www.untitledonline.ca','NNP','www.untitledonline.ca'],
    ['Comments','NNP','com'],
    ['The','NNP','the'],
    {
      tag:'ORGANIZATION',
      content:
      [
        ['Okotoks','NNP','okotok'],
        ['Western','NNP','western'],
        ['Wheel','NNP','wheel']
      ]
    },
    ['welcomes','VBZ','welcom'],
    ['your','PRP$','your'],
    ['opinions','NNS','opin'],
    ['and','CC','and'],
    ['comments','NNS','com'],
    ['.','.','.']
  ]
},
{
  tag:'S',
  content:
  [
    ['We','PRP','We'],
    ['do','VBP','do'],
    ['not','RB','not'],
    ['allow','VB','allow'],
    ['personal','JJ','person'],
    ['attacks','NNS','attack'],
    [',',',',','],
    ['offensive','JJ','offend'],
    ['language','NN','langu'],
    ['or','CC','or'],
    ['unsubstantiated','VBN','unsubstanty'],
    ['allegations','NNS','alleg'],
    ['.','.','.']
  ]
},
{
  tag:'S',
  content:
  [
    ['We','PRP','We'],
    ['reserve','VBP','reserv'],
    ['the','DT','the'],
    ['right','NN','right'],
    ['to','TO','to'],
    ['delete','VB','delet'],
    ['comments','NNS','com'],
    ['deemed','VBD','deem'],
    ['inappropriate','JJ','inappropry'],
    ['.','.','.']
  ]
},
{
  tag:'S',
  content:
  [
    ['We','PRP','We'],
    ['reserve','VBP','reserv'],
    ['the','DT','the'],
    ['right','NN','right'],
    ['to','TO','to'],
    ['close','VB','clos'],
    ['the','DT','the'],
    ['comments','NNS','com'],
    ['thread','VBP','thread'],
    ['for','IN','for'],
    ['stories','NNS','story'],
    ['that','WDT','that'],
    ['are','VBP','be'],
    ['deemed','VBD','deem'],
    ['especially','RB','espec'],
    ['sensitive','JJ','sensit'],
    ['.','.','.']
  ]
},
{
  tag:'S',
  content:
  [
    ['For','IN','For'],
    ['further','JJ','furth'],
    ['information','NN','inform'],
    [',',',',','],
    ['please','VB','pleas'],
    ['contact','NN','contact'],
    ['the','DT','the'],
    ['editor','NN','edit'],
    ['or','CC','or'],
    ['publisher','NN','publ'],
    ['.','.','.']
  ]
},
{
  tag:'S',
  content:
  [
    {
      tag:'GPE',
      content:
      [
        ['Please','NN','pleas']
      ]
    },
    ['enable','JJ','en'],
    {
      tag:'ORGANIZATION',
      content:
      [
        ['JavaScript','NNP','javascrib']
      ]
    },
    ['to','TO','to'],
    ['view','VB','view'],
    ['the','DT','the'],
    ['comments','NNS','com'],
    ['powered','VBD','pow'],
    ['by','IN','by'],
    {
      tag:'PERSON',
      content:
      [
        ['Disqus','NNP','disq']
      ]
    },
    ['.','.','.']
  ]
},
{
  tag:'S',
  content:
  [
    ['blog','NN','blog'],
    ['comments','NNS','com'],
    ['powered','VBD','pow'],
    ['by','IN','by'],
    {
      tag:'PERSON',
      content:
      [
        ['Disqus','NNP','disq'],
        ['Terms','NNP','term']
      ]
    },
    ['of','IN','of'],
    {
      tag:'ORGANIZATION',
      content:
      [
        ['Use','NNP','us']
      ]
    },
    ['|','NNP','|'],
    ['Contact','NNP','contact'],
    ['us','PRP','us'],
    ['|',':','|'],
    ['About','IN','About'],
    ['us','PRP','us'],
    ['|',':','|'],
    ['Advertise','NNP','advert'],
    ['|',':','|'],
    ['Site','NNP','sit'],
    ['map','NN','map'],
    ['Connect','NNP','connect'],
    [':',':',':']
  ]
}]