[
{
  tag:'S',
  content:
  [
    ['Trending','VBG','trend'],
    [':',':',':'],
    ['Vail','NNP','vail'],
    ['skiers','NNS','ski'],
    ['on','IN','on'],
    ['first','JJ','first'],
    ['three','CD','three'],
    ['chairs','NNS','chair'],
    ['of','IN','of'],
    ['season','NN','season'],
    ['Filming','NNP','film'],
    ['for','IN','for'],
    ['``','``','``'],
    ['Fast','JJ','fast'],
    ['&','CC','&'],
    ['Furious','NNP','fury'],
    ['7','CD','7'],
    ['''','''',''''],
    ['is','VBZ','be'],
    ['driving','VBG','driv'],
    ['an','DT','an'],
    ['economic','JJ','econom'],
    ['boost','NN','boost'],
    ['for','IN','for'],
    {
      tag:'GPE',
      content:
      [
        ['Salida','NNP','salid']
      ]
    },
    ['‘Women','JJ','‘women'],
    ['of','IN','of'],
    ['Vail’','JJ','vail’'],
    ['serialization','NN','ser'],
    [':',':',':'],
    {
      tag:'PERSON',
      content:
      [
        ['Vail','NNP','vail']
      ]
    },
    ['became','VBD','becom'],
    ['‘home’','NNP','‘home’'],
    ['Vail','NNP','vail'],
    ['Daily','NNP','dai'],
    ['column','NN','column'],
    [':',':',':'],
    ['New','NNP','new'],
    ['law','NN','law'],
    ['affects','NNS','affect'],
    ['homeowners','NNS','homeown'],
    ['associations','NNS','assocy'],
    {
      tag:'PERSON',
      content:
      [
        ['Hunter','NNP','hunt']
      ]
    },
    ['found','VBD','find'],
    ['alive','JJ','al'],
    ['after','IN','after'],
    ['19','CD','19'],
    ['days','NNS','day'],
    ['in','IN','in'],
    {
      tag:'GPE',
      content:
      [
        ['California','NNP','californ']
      ]
    },
    ['forest','NN','forest'],
    ['Serving','NNP','serv'],
    ['Vail','NNP','vail'],
    [',',',',','],
    {
      tag:'PERSON',
      content:
      [
        ['Beaver','NNP','beav'],
        ['Creek','NNP','creek']
      ]
    },
    ['and','CC','and'],
    {
      tag:'PERSON',
      content:
      [
        ['Eagle','NNP','eagl'],
        ['Valley','NNP','valley']
      ]
    },
    [',',',',','],
    {
      tag:'ORGANIZATION',
      content:
      [
        ['Co','NNP','co'],
        ['News','NNP','new'],
        ['Opinion','NNP','opin']
      ]
    },
    ['Entertainment','NNP','entertain'],
    ['Marketplace','NNP','marketplac'],
    ['News','NNP','new'],
    ['Opinion','NNP','opin'],
    ['Entertainment','NNP','entertain'],
    ['Marketplace','NNP','marketplac'],
    ['Classifieds','NNP','class'],
    ['Jobs','NNP','job'],
    ['Real','NNP','real'],
    ['Estate','NNP','est'],
    ['Autos','NNP','auto'],
    ['Place','NNP','plac'],
    ['Ad','NNP','ad'],
    ['Classifieds','NNP','class'],
    ['Jobs','NNP','job'],
    ['Real','NNP','real'],
    ['Estate','NNP','est'],
    ['Autos','NNP','auto'],
    ['Place','NNP','plac'],
    ['Ad','NNP','ad'],
    {
      tag:'PERSON',
      content:
      [
        ['Daily','NNP','dai'],
        ['Staff','NNP','staff'],
        ['Report','NNP','report'],
        ['Vail','NNP','vail'],
        ['CO','NNP','co']
      ]
    },
    [',',',',','],
    {
      tag:'PERSON',
      content:
      [
        ['Colorado','NNP','colorado']
      ]
    },
    ['NewsMay','NNP','newsmay'],
    ['16','CD','16'],
    [',',',',','],
    ['2008','CD','2008'],
    {
      tag:'ORGANIZATION',
      content:
      [
        ['Follow','NNP','follow'],
        ['News','NNP','new'],
        ['Submit','NNP','submit']
      ]
    },
    ['Your','NNP','yo'],
    ['News','NNP','new'],
    ['Acclaimed','NNP','acclaim'],
    ['dancer','NN','dant'],
    ['joins','VBZ','join'],
    {
      tag:'PERSON',
      content:
      [
        ['Vail','NNP','vail'],
        ['Dance','NNP','dant'],
        ['Festival','NNP','fest']
      ]
    },
    ['lineup','NN','lineup'],
    {
      tag:'PERSON',
      content:
      [
        ['Article','NNP','artic'],
        ['Comments','NNP','com'],
        ['Reprints','NNP','reprint']
      ]
    },
    ['SmallerLarger','NNP','smallerlarg'],
    ['Expand','NNP','expand'],
    ['Photo','NNP','photo'],
    ['ALL','NNP','al'],
    ['|','NNP','|'],
    ['<','NNP','<'],
    ['b','NN','b'],
    ['>',':','>'],
    ['Special','JJ','spec'],
    ['to','TO','to'],
    ['the','DT','the'],
    ['Daily/','NN','daily/'],
    {
      tag:'PERSON',
      content:
      [
        ['Lois','NNP','loi'],
        ['Greenfield','NNP','greenfield']
      ]
    },
    ['<','NNP','<'],
    ['/b','NNP','/b'],
    ['>','NNP','>'],
    ['Fang-Yi','NNP','fang-yi'],
    ['Sheu','NNP','sheu'],
    ['performing','VBG','perform'],
    ['in','IN','in'],
    ['the','DT','the'],
    ['work','NN','work'],
    ['Isis','NNP','is'],
    ['in','IN','in'],
    {
      tag:'GPE',
      content:
      [
        ['Transit','NNP','transit']
      ]
    },
    ['.','.','.']
  ]
},
{
  tag:'S',
  content:
  [
    {
      tag:'GPE',
      content:
      [
        ['Sheu','NNP','sheu']
      ]
    },
    ['will','MD','will'],
    ['perform','VB','perform'],
    ['at','IN','at'],
    ['the','DT','the'],
    {
      tag:'ORGANIZATION',
      content:
      [
        ['Vail','NNP','vail'],
        ['International','NNP','intern'],
        ['Dance','NNP','dant'],
        ['Festival','NNP','fest']
      ]
    },
    [''s','POS',''s'],
    ['opening','VBG','op'],
    ['night','NN','night'],
    ['performace','NN','performac'],
    [',',',',','],
    ['set','VBN','set'],
    ['for','IN','for'],
    ['July','NNP','july'],
    ['27','CD','27'],
    ['.','.','.']
  ]
},
{
  tag:'S',
  content:
  [
    ['Tickets','NNS','ticket'],
    ['for','IN','for'],
    ['the','DT','the'],
    ['performance','NN','perform'],
    ['range','NN','rang'],
    ['from','IN','from'],
    ['$','$','$'],
    ['17','CD','17'],
    ['to','TO','to'],
    ['$','$','$'],
    ['85','CD','85'],
    ['.','.','.']
  ]
},
{
  tag:'S',
  content:
  [
    ['«','NN','«'],
    ['1','CD','1'],
    ['of','IN','of'],
    ['1','CD','1'],
    ['images','NNS','im'],
    ['»',':','»'],
    ['Related','JJ','rel'],
    {
      tag:'ORGANIZATION',
      content:
      [
        ['Media','NNP','med']
      ]
    },
    ['VAIL','NNP','vail'],
    [',',',',','],
    {
      tag:'GPE',
      content:
      [
        ['Colorado','NNP','colorado']
      ]
    },
    ['``','``','``'],
    ['Acclaimed','NNP','acclaim'],
    ['former','JJ','form'],
    {
      tag:'PERSON',
      content:
      [
        ['Martha','NNP','marth'],
        ['Graham','NNP','graham']
      ]
    },
    ['principal','NN','princip'],
    ['dancer','NN','dant'],
    ['Fang-Yi','NN','fang-yi'],
    {
      tag:'ORGANIZATION',
      content:
      [
        ['Sheu','NNP','sheu']
      ]
    },
    ['has','VBZ','hav'],
    ['joined','VBN','join'],
    ['the','DT','the'],
    ['all','DT','all'],
    ['star','NN','star'],
    ['list','NN','list'],
    ['of','IN','of'],
    ['performers','NNS','perform'],
    ['for','IN','for'],
    ['the','DT','the'],
    ['2008','CD','2008'],
    {
      tag:'ORGANIZATION',
      content:
      [
        ['Vail','NNP','vail'],
        ['International','NNP','intern'],
        ['Dance','NNP','dant'],
        ['Festival','NNP','fest']
      ]
    },
    [''s','POS',''s'],
    ['Opening','NNP','op'],
    ['Night','NNP','night'],
    ['musical','JJ','mus'],
    ['and','CC','and'],
    ['dance','NN','dant'],
    ['performance','NN','perform'],
    [',',',',','],
    ['Sunday','NNP','sunday'],
    [',',',',','],
    ['July','NNP','july'],
    ['27','CD','27'],
    ['at','IN','at'],
    ['the','DT','the'],
    {
      tag:'ORGANIZATION',
      content:
      [
        ['Gerald','NNP','gerald']
      ]
    },
    ['R.','NNP','r.'],
    ['Ford','NNP','ford'],
    ['Amphitheater.Sheu','NNP','amphitheater.sheu'],
    ['will','MD','will'],
    ['appear','VB','appear'],
    ['in','IN','in'],
    ['a','DT','a'],
    ['new','JJ','new'],
    ['piece','NN','piec'],
    ['choreographed','VBN','choreograph'],
    ['especially','RB','espec'],
    ['for','IN','for'],
    ['her','PRP$','her'],
    ['Vail','NNP','vail'],
    ['performance','NN','perform'],
    ['by','IN','by'],
    {
      tag:'GPE',
      content:
      [
        ['Taiwanese','NNP','taiwanes']
      ]
    },
    ['choreographer','NN','choreograph'],
    {
      tag:'PERSON',
      content:
      [
        ['Bulareyaung','NNP','bulareyaung']
      ]
    },
    ['.','.','.']
  ]
},
{
  tag:'S',
  content:
  [
    ['The','DT','The'],
    ['celebrated','VBN','celebr'],
    ['dancer','NN','dant'],
    ['joins','NNS','join'],
    ['a','DT','a'],
    ['mixed','VBN','mix'],
    ['bill','NN','bil'],
    ['program','NN','program'],
    ['which','WDT','which'],
    ['already','RB','already'],
    ['features','VBZ','feat'],
    ['the','DT','the'],
    {
      tag:'PERSON',
      content:
      [
        ['Paul','NNP','paul'],
        ['Taylor','NNP','tayl'],
        ['Dance','NNP','dant'],
        ['Company','NNP','company']
      ]
    },
    [',',',',','],
    ['stars','VBZ','star'],
    ['from','IN','from'],
    ['Morphoses/The','DT','Morphoses/The'],
    ['Wheeldon','NNP','wheeldon'],
    ['Company','NNP','company'],
    ['and','CC','and'],
    {
      tag:'PERSON',
      content:
      [
        ['Pacific','NNP','pac'],
        ['Northwest','NNP','northwest'],
        ['Ballet','NNP','ballet']
      ]
    },
    [',',',',','],
    ['with','IN','with'],
    ['live','JJ','liv'],
    ['musical','JJ','mus'],
    ['accompaniment','NN','accompany'],
    ['to','TO','to'],
    ['be','VB','be'],
    ['performed','VBN','perform'],
    ['by','IN','by'],
    ['iconic','JJ','icon'],
    ['composer/pianist','JJ','composer/pianist'],
    {
      tag:'PERSON',
      content:
      [
        ['Philip','NNP','philip'],
        ['Glass','NNP','glass']
      ]
    },
    ['and','CC','and'],
    ['cellist','NN','cel'],
    {
      tag:'PERSON',
      content:
      [
        ['Wendy','NNP','wendy'],
        ['Sutter','NNP','sut']
      ]
    },
    [',',',',','],
    ['as','IN','as'],
    ['well','RB','wel'],
    ['as','IN','as'],
    ['by','IN','by'],
    {
      tag:'PERSON',
      content:
      [
        ['Eugenia','NNP','eugen'],
        ['Zukerman','NNP','zukerm']
      ]
    },
    ['and','CC','and'],
    ['the','DT','the'],
    {
      tag:'ORGANIZATION',
      content:
      [
        ['Rossetti','NNP','rossett']
      ]
    },
    ['String','NNP','string'],
    ['Quartet','NNP','quartet'],
    ['.','.','.']
  ]
},
{
  tag:'S',
  content:
  [
    ['``','``','``'],
    ['Fang-Yi','JJ','fang-yi'],
    {
      tag:'ORGANIZATION',
      content:
      [
        ['Sheu','NNP','sheu']
      ]
    },
    ['is','VBZ','be'],
    ['a','DT','a'],
    ['magnificent','NN','magn'],
    ['artist','NN','art'],
    [',',',',','],
    ['''','''',''''],
    ['said','VBD','say'],
    {
      tag:'PERSON',
      content:
      [
        ['Damian','NNP','dam'],
        ['Woetzel','NNP','woetzel']
      ]
    },
    [',',',',','],
    ['the','DT','the'],
    {
      tag:'ORGANIZATION',
      content:
      [
        ['Vail','NNP','vail'],
        ['International','NNP','intern'],
        ['Dance','NNP','dant'],
        ['Festival','NNP','fest']
      ]
    },
    ['artistic','JJ','art'],
    ['director','NN','direct'],
    ['.','.','.']
  ]
},
{
  tag:'S',
  content:
  [
    ['``','``','``'],
    ['I','PRP','I'],
    ['am','VBP','be'],
    ['thrilled','VBN','thrill'],
    ['to','TO','to'],
    ['have','VB','hav'],
    ['the','DT','the'],
    ['opportunity','NN','opportun'],
    ['to','TO','to'],
    ['bring','VB','bring'],
    ['her','PRP$','her'],
    ['incomparable','JJ','incomp'],
    ['dancing','NN','dant'],
    ['to','TO','to'],
    {
      tag:'GPE',
      content:
      [
        ['Vail','NNP','vail']
      ]
    },
    ['for','IN','for'],
    ['the','DT','the'],
    ['festival','NN','fest'],
    [''s','POS',''s'],
    ['opening','VBG','op'],
    ['night','NN','night'],
    ['.','.','.']
  ]
},
{
  tag:'S',
  content:
  [
    ['``','``','``'],
    ['Heralded','VBN','herald'],
    ['by','IN','by'],
    ['The','DT','The'],
    {
      tag:'GPE',
      content:
      [
        ['New','NNP','new'],
        ['York','NNP','york'],
        ['Times','NNP','tim']
      ]
    },
    ['as','IN','as'],
    ['the','DT','the'],
    ['``','``','``'],
    ['finest','JJS','fin'],
    ['present-day','JJ','present-day'],
    ['embodiment','NN','embody'],
    ['of','IN','of'],
    {
      tag:'PERSON',
      content:
      [
        ['Martha','NNP','marth'],
        ['Graham','NNP','graham']
      ]
    },
    [''s','POS',''s'],
    ['technique','NN','techn'],
    ['and','CC','and'],
    ['tradition','NN','tradit'],
    [',',',',','],
    ['''','''',''''],
    {
      tag:'PERSON',
      content:
      [
        ['Sheu','NNP','sheu']
      ]
    },
    ['joined','VBD','join'],
    ['the','DT','the'],
    {
      tag:'ORGANIZATION',
      content:
      [
        ['Martha','NNP','marth'],
        ['Graham','NNP','graham'],
        ['Dance','NNP','dant'],
        ['Company','NNP','company']
      ]
    },
    ['in','IN','in'],
    ['1995','CD','1995'],
    ['.','.','.']
  ]
},
{
  tag:'S',
  content:
  [
    ['Shortly','RB','short'],
    ['thereafter','JJR','thereaft'],
    [',',',',','],
    ['she','PRP','she'],
    ['was','VBD','be'],
    ['promoted','VBN','promot'],
    ['to','TO','to'],
    ['principal','JJ','princip'],
    ['dancer','NN','dant'],
    ['where','WRB','where'],
    ['her','PRP$','her'],
    ['major','JJ','maj'],
    ['performances','NNS','perform'],
    ['included','VBD','includ'],
    ['classic','JJ','class'],
    {
      tag:'PERSON',
      content:
      [
        ['Martha','NNP','marth'],
        ['Graham','NNP','graham']
      ]
    },
    ['repertoire','NN','repertoir'],
    [',',',',','],
    ['including','VBG','includ'],
    {
      tag:'GPE',
      content:
      [
        ['Errand','NNP','errand']
      ]
    },
    ['into','IN','into'],
    ['the','DT','the'],
    {
      tag:'ORGANIZATION',
      content:
      [
        ['Maze','NNP','maz']
      ]
    },
    [',',',',','],
    {
      tag:'PERSON',
      content:
      [
        ['Cave','NNP','cav']
      ]
    },
    ['of','IN','of'],
    ['the','DT','the'],
    ['Heart','NNP','heart'],
    ['and','CC','and'],
    ['Chronicle.A','NNP','chronicle.a'],
    ['native','JJ','nat'],
    ['of','IN','of'],
    {
      tag:'GPE',
      content:
      [
        ['Taiwan','NNP','taiw']
      ]
    },
    [',',',',','],
    {
      tag:'PERSON',
      content:
      [
        ['Sheu','NNP','sheu']
      ]
    },
    ['was','VBD','be'],
    ['the','DT','the'],
    ['recipient','JJ','recipy'],
    ['of','IN','of'],
    ['her','PRP$','her'],
    ['country','NN','country'],
    [''s','POS',''s'],
    ['President','NNP','presid'],
    [''s','POS',''s'],
    ['Order','NNP','ord'],
    ['of','IN','of'],
    {
      tag:'ORGANIZATION',
      content:
      [
        ['Brilliant','NNP','bril'],
        ['Star','NNP','star']
      ]
    },
    ['with','IN','with'],
    {
      tag:'PERSON',
      content:
      [
        ['Cravat','NNP','crav']
      ]
    },
    ['in','IN','in'],
    ['2005','CD','2005'],
    ['and','CC','and'],
    ['featured','VBD','feat'],
    ['on','IN','on'],
    ['the','DT','the'],
    ['cover','NN','cov'],
    ['of','IN','of'],
    {
      tag:'PERSON',
      content:
      [
        ['Dance','NNP','dant'],
        ['Magazine','NNP','magazin']
      ]
    },
    ['in','IN','in'],
    ['``','``','``'],
    ['25','CD','25'],
    ['To','TO','To'],
    {
      tag:'GPE',
      content:
      [
        ['Watch','NNP','watch']
      ]
    },
    ['''','''',''''],
    ['as','IN','as'],
    ['one','CD','one'],
    ['of','IN','of'],
    ['the','DT','the'],
    ['rising','VBG','ris'],
    ['young','JJ','young'],
    ['talents','NNS','tal'],
    ['in','IN','in'],
    ['dance.In','JJ','dance.in'],
    ['addition','NN','addit'],
    ['to','TO','to'],
    ['her','PRP$','her'],
    ['time','NN','tim'],
    ['with','IN','with'],
    ['the','DT','the'],
    {
      tag:'ORGANIZATION',
      content:
      [
        ['Martha','NNP','marth'],
        ['Graham','NNP','graham'],
        ['Dance','NNP','dant'],
        ['Company','NNP','company']
      ]
    },
    [',',',',','],
    ['she','PRP','she'],
    ['has','VBZ','hav'],
    ['also','RB','also'],
    ['performed','VBN','perform'],
    ['principal','JJ','princip'],
    ['roles','NNS','rol'],
    ['in','IN','in'],
    ['many','JJ','many'],
    ['works','NNS','work'],
    ['of','IN','of'],
    ['the','DT','the'],
    {
      tag:'ORGANIZATION',
      content:
      [
        ['Cloud','NNP','cloud'],
        ['Gate','NNP','gat'],
        ['Dance','NNP','dant']
      ]
    },
    ['Theatre','NNP','the'],
    ['of','IN','of'],
    {
      tag:'GPE',
      content:
      [
        ['Taiwan','NNP','taiw']
      ]
    },
    [',',',',','],
    ['as','IN','as'],
    ['well','RB','wel'],
    ['as','IN','as'],
    ['Monte/Brown','JJ','monte/brown'],
    {
      tag:'PERSON',
      content:
      [
        ['Dance','NNP','dant'],
        ['Company','NNP','company']
      ]
    },
    [',',',',','],
    ['Buglisi/Foreman','NNP','buglisi/foreman'],
    ['Dance','NNP','dant'],
    ['and','CC','and'],
    ['Shen-wei','NNP','shen-wei'],
    {
      tag:'PERSON',
      content:
      [
        ['Dance','NNP','dant'],
        ['Art','NNP','art']
      ]
    },
    ['.','.','.']
  ]
},
{
  tag:'S',
  content:
  [
    ['In','IN','In'],
    ['2007','CD','2007'],
    ['Sheu','NNP','sheu'],
    ['co-founded','JJ','co-founded'],
    {
      tag:'ORGANIZATION',
      content:
      [
        ['LAFA','NNP','laf']
      ]
    },
    ['and','CC','and'],
    {
      tag:'ORGANIZATION',
      content:
      [
        ['Artists','NNPS','art'],
        ['Dance','NNP','dant'],
        ['Company','NNP','company']
      ]
    },
    [',',',',','],
    ['based','VBN','bas'],
    ['in','IN','in'],
    {
      tag:'GPE',
      content:
      [
        ['Taiwan','NNP','taiw']
      ]
    },
    ['.','.','.']
  ]
},
{
  tag:'S',
  content:
  [
    ['Tickets','NNS','ticket'],
    ['for','IN','for'],
    ['the','DT','the'],
    {
      tag:'ORGANIZATION',
      content:
      [
        ['Vail','NNP','vail'],
        ['International','NNP','intern'],
        ['Dance','NNP','dant'],
        ['Festival','NNP','fest']
      ]
    },
    [''s','POS',''s'],
    ['Opening','NNP','op'],
    ['Night','NNP','night'],
    ['are','VBP','be'],
    ['priced','VBN','pric'],
    ['at','IN','at'],
    ['$','$','$'],
    ['17','CD','17'],
    ['for','IN','for'],
    {
      tag:'ORGANIZATION',
      content:
      [
        ['General','NNP','gen'],
        ['Admission','NNP','admit']
      ]
    },
    ['lawn','NN','lawn'],
    ['seating','VBG','seat'],
    ['and','CC','and'],
    ['$','$','$'],
    ['65','CD','65'],
    ['and','CC','and'],
    ['$','$','$'],
    ['85','CD','85'],
    ['for','IN','for'],
    ['reserved','JJ','reserv'],
    ['section','NN','sect'],
    ['seating','VBG','seat'],
    ['.','.','.']
  ]
},
{
  tag:'S',
  content:
  [
    ['Tickets','NNS','ticket'],
    ['may','MD','may'],
    ['be','VB','be'],
    ['purchased','VBN','purchas'],
    ['online','NN','onlin'],
    ['at','IN','at'],
    ['www.vaildance.org','JJ','www.vaildance.org'],
    ['or','CC','or'],
    ['by','IN','by'],
    ['calling','NN','cal'],
    ['970-845-TIXS','CD','970-845-TIXS'],
    ['(','CD','('],
    ['8497','CD','8497'],
    [')','CD',')'],
    ['or','CC','or'],
    ['1-888-920-ARTS','CD','1-888-920-ARTS'],
    ['(','CD','('],
    ['2787','CD','2787'],
    [')','CD',')'],
    ['.In','JJ','.in'],
    ['addition','NN','addit'],
    ['to','TO','to'],
    ['opening','VBG','op'],
    ['night','NN','night'],
    [',',',',','],
    ['individual','JJ','individ'],
    ['tickets','NNS','ticket'],
    ['for','IN','for'],
    ['the','DT','the'],
    ['2008','CD','2008'],
    {
      tag:'ORGANIZATION',
      content:
      [
        ['Vail','NNP','vail'],
        ['International','NNP','intern'],
        ['Dance','NNP','dant'],
        ['Festival','NNP','fest']
      ]
    },
    ['are','VBP','be'],
    ['priced','VBN','pric'],
    ['from','IN','from'],
    ['$','$','$'],
    ['17','CD','17'],
    ['to','TO','to'],
    ['$','$','$'],
    ['85','CD','85'],
    [',',',',','],
    ['with','IN','with'],
    ['an','DT','an'],
    ['array','NN','array'],
    ['of','IN','of'],
    ['ticket','NN','ticket'],
    ['packages','NNS','pack'],
    ['also','RB','also'],
    ['available','JJ','avail'],
    ['.','.','.']
  ]
},
{
  tag:'S',
  content:
  [
    ['The','DT','The'],
    ['2008','CD','2008'],
    {
      tag:'ORGANIZATION',
      content:
      [
        ['Vail','NNP','vail'],
        ['International','NNP','intern'],
        ['Dance','NNP','dant'],
        ['Festival','NNP','fest']
      ]
    },
    ['runs','VBZ','run'],
    ['from','IN','from'],
    ['July','NNP','july'],
    ['27','CD','27'],
    ['through','IN','through'],
    ['Aug.','NNP','aug.'],
    ['9','CD','9'],
    [',',',',','],
    ['with','IN','with'],
    ['performances','NNS','perform'],
    ['at','IN','at'],
    ['both','DT','both'],
    ['the','DT','the'],
    {
      tag:'ORGANIZATION',
      content:
      [
        ['Gerald','NNP','gerald']
      ]
    },
    ['R.','NNP','r.'],
    ['Ford','NNP','ford'],
    ['Amphitheater','NNP','amphith'],
    ['in','IN','in'],
    {
      tag:'GPE',
      content:
      [
        ['Vail','NNP','vail']
      ]
    },
    ['and','CC','and'],
    ['the','DT','the'],
    {
      tag:'ORGANIZATION',
      content:
      [
        ['Vilar','NNP','vil'],
        ['Performing','NNP','perform'],
        ['Arts','NNP','art'],
        ['Center','NNP','cent']
      ]
    },
    ['in','IN','in'],
    {
      tag:'GPE',
      content:
      [
        ['Beaver','NNP','beav']
      ]
    },
    ['Creek.The','NNP','creek.the'],
    ['2008','CD','2008'],
    {
      tag:'ORGANIZATION',
      content:
      [
        ['Vail','NNP','vail'],
        ['International','NNP','intern'],
        ['Dance','NNP','dant'],
        ['Festival','NNP','fest']
      ]
    },
    ['is','VBZ','be'],
    ['a','DT','a'],
    ['project','NN','project'],
    ['of','IN','of'],
    ['the','DT','the'],
    {
      tag:'ORGANIZATION',
      content:
      [
        ['Vail','NNP','vail'],
        ['Valley','NNP','valley'],
        ['Foundation','NNP','found']
      ]
    },
    ['.','.','.']
  ]
},
{
  tag:'S',
  content:
  [
    ['For','IN','For'],
    ['additional','JJ','addit'],
    ['information','NN','inform'],
    ['on','IN','on'],
    ['the','DT','the'],
    {
      tag:'ORGANIZATION',
      content:
      [
        ['Dance','NNP','dant'],
        ['Festival','NNP','fest']
      ]
    },
    [',',',',','],
    ['visit','NN','visit'],
    ['www.vaildance.org','-NONE-','www.vaildance.org'],
    ['.','.','.']
  ]
},
{
  tag:'S',
  content:
  [
    ['For','IN','For'],
    ['more','JJR','mor'],
    ['information','NN','inform'],
    ['on','IN','on'],
    ['the','DT','the'],
    {
      tag:'ORGANIZATION',
      content:
      [
        ['Foundation','NNP','found']
      ]
    },
    [',',',',','],
    ['visit','NN','visit'],
    ['www.vvf.org','-NONE-','www.vvf.org'],
    ['or','CC','or'],
    ['call','VB','cal'],
    ['970-949-1999','CD','970-949-1999'],
    ['.','.','.']
  ]
},
{
  tag:'S',
  content:
  [
    ['Join','NNP','join'],
    ['the','DT','the'],
    {
      tag:'ORGANIZATION',
      content:
      [
        ['Conversation','NNP','convers'],
        ['View','NNP','view']
      ]
    },
    ['and','CC','and'],
    ['add','VBD','ad'],
    ['comments','NNS','com'],
    ['»',':','»'],
    ['A','DT','A'],
    ['Facebook','NNP','facebook'],
    ['account','NN','account'],
    ['is','VBZ','be'],
    ['required','VBN','requir'],
    {
      tag:'PERSON',
      content:
      [
        ['Explore','NNP','expl'],
        ['Related','NNP','rel'],
        ['Articles','NNP','artic'],
        ['Popular','NNP','popul'],
        ['Stories','NNP','story'],
        ['Steadman','NNP','steadm'],
        ['Clinic','NNP','clin']
      ]
    },
    [',',',',','],
    {
      tag:'PERSON',
      content:
      [
        ['Steadman','NNP','steadm'],
        ['Philippon','NNP','philippon'],
        ['Research','NNP','research'],
        ['Institute','NNP','institut']
      ]
    },
    ['name','NN','nam'],
    ['new','JJ','new'],
    {
      tag:'ORGANIZATION',
      content:
      [
        ['CEO','NNP','ceo']
      ]
    },
    ['Federal','NNP','fed'],
    ['shutdown','NN','shutdown'],
    ['means','VBZ','mean'],
    ['hold','VBN','hold'],
    ['up','RP','up'],
    ['on','IN','on'],
    ['some','DT','some'],
    ['Eagle','NNP','eagl'],
    ['County','NNP','county'],
    ['beer','NN','beer'],
    {
      tag:'PERSON',
      content:
      [
        ['Colorful','NNP','col'],
        ['Cooking','NNP','cook']
      ]
    },
    ['column','NN','column'],
    [':',':',':'],
    ['No','DT','No'],
    ['tricks','NNS','trick'],
    [',',',',','],
    ['just','RB','just'],
    ['healthy','JJ','healthy'],
    ['treats','NNS','tre'],
    ['Vail','NNP','vail'],
    ['skiers','NNS','ski'],
    ['on','IN','on'],
    ['first','JJ','first'],
    ['three','CD','three'],
    ['chairs','NNS','chair'],
    ['of','IN','of'],
    ['season','NN','season'],
    ['Filming','NNP','film'],
    ['for','IN','for'],
    ['``','``','``'],
    ['Fast','JJ','fast'],
    ['&','CC','&'],
    ['Furious','NNP','fury'],
    ['7','CD','7'],
    ['''','''',''''],
    ['is','VBZ','be'],
    ['driving','VBG','driv'],
    ['an','DT','an'],
    ['economic','JJ','econom'],
    ['boost','NN','boost'],
    ['for','IN','for'],
    {
      tag:'PERSON',
      content:
      [
        ['Salida','NNP','salid'],
        ['Inside','NNP','insid'],
        ['News','NNP','new']
      ]
    },
    ['Crime','NNP','crim'],
    ['Obituaries','NNP','obitu'],
    ['Regional','NNP','reg'],
    ['Sports','NNP','sport'],
    ['&','CC','&'],
    {
      tag:'PERSON',
      content:
      [
        ['Outdoors','NNP','outdo'],
        ['Announcements','NNP','annount'],
        ['Town','NNP','town'],
        ['Talk','NNP','talk'],
        ['Eagle','NNP','eagl'],
        ['Valley','NNP','valley'],
        ['News','NNP','new'],
        ['Events','NNP','ev']
      ]
    },
    ['..','NNP','..'],
    ['Oct','NNP','oct'],
    ['16-17','CD','16-17'],
    {
      tag:'ORGANIZATION',
      content:
      [
        ['Volunteers','NNP','volunt'],
        ['Needed','NNP','nee']
      ]
    },
    ['Oct','NNP','oct'],
    ['16-17','CD','16-17'],
    ['Locals','NNS','loc'],
    {
      tag:'PERSON',
      content:
      [
        ['Massage','NNP','mass'],
        ['Therapy','NNP','therapy']
      ]
    },
    ['Oct','NNP','oct'],
    ['16','CD','16'],
    {
      tag:'ORGANIZATION',
      content:
      [
        ['CrossFit','NNP','crossfit']
      ]
    },
    ['Oct','NNP','oct'],
    ['16','CD','16'],
    ['Volunteer','NNP','volunt'],
    ['at','IN','at'],
    {
      tag:'ORGANIZATION',
      content:
      [
        ['Can','NNP','can'],
        ['Do','NNP','do'],
        ['Multiple','NNP','multipl'],
        ['Sclerosis','NNP','sclerosis']
      ]
    },
    ['Oct','NNP','oct'],
    ['16','CD','16'],
    ['Swim','NNP','swim'],
    {
      tag:'PERSON',
      content:
      [
        ['Lessons','NNP','lesson'],
        ['Oct','NNP','oct']
      ]
    },
    ['16','CD','16'],
    {
      tag:'ORGANIZATION',
      content:
      [
        ['Fitness','NNP','fit'],
        ['Kickboxing','NNP','kickbox'],
        ['More','NNP','mor']
      ]
    },
    ['Events','NNP','ev'],
    ['»','NNP','»'],
    ['|','NNP','|'],
    ['Submit','NNP','submit'],
    ['an','DT','an'],
    ['Event','NNP','ev'],
    ['»','NNP','»'],
    {
      tag:'PERSON',
      content:
      [
        ['Steal','NNP','ste']
      ]
    },
    ['Today','NNP','today'],
    [''s','POS',''s'],
    {
      tag:'ORGANIZATION',
      content:
      [
        ['Deal','NNP','deal']
      ]
    },
    ['..','NNP','..'],
    ['loading','NN','load'],
    ['...',':','...']
  ]
},
{
  tag:'S',
  content:
  [
    {
      tag:'GPE',
      content:
      [
        ['Weather','NNP','weath']
      ]
    },
    ['..',':','..'],
    ['40°','CD','40°'],
    ['F','NN','f'],
    {
      tag:'ORGANIZATION',
      content:
      [
        ['NA','NNP','na'],
        ['Wind','NNP','wind']
      ]
    },
    ['0','-NONE-','0'],
    ['mph','NN','mph'],
    {
      tag:'ORGANIZATION',
      content:
      [
        ['WNW','NNP','wnw']
      ]
    },
    ['Wed','NNP','wed'],
    ['32°','CD','32°'],
    ['F','NNP','f'],
    ['Thu','NNP','thu'],
    ['41°','CD','41°'],
    ['F','NNP','f'],
    ['Fri','NNP','fri'],
    ['37°','CD','37°'],
    ['F','NNP','f'],
    ['Sat','NNP','sat'],
    ['44°','CD','44°'],
    ['F','NNP','f'],
    ['Sun','NNP','sun'],
    ['47°','CD','47°'],
    ['F','NNP','f'],
    ['Full','NNP','ful'],
    ['Forecast','NNP','forecast'],
    ['»','NNP','»'],
    ['.voteButton','NNP','.votebutton'],
    ['{','NNP','{'],
    ['float','NN','flo'],
    [':',':',':'],
    ['left','VBN','leav'],
    [';',':',';'],
    ['width:25px','JJ','width:25px'],
    [';',':',';'],
    ['display','NN','display'],
    [':',':',':'],
    ['block','NN','block'],
    [';',':',';'],
    ['}',':','}'],
    ['.pollOption','NN','.polloption'],
    ['{',':','{'],
    ['width:243px','JJ','width:243px'],
    [';',':',';'],
    ['float','JJ','flo'],
    [':',':',':'],
    ['left','VBN','leav'],
    [';',':',';'],
    ['display','NN','display'],
    [':',':',':'],
    ['block','NN','block'],
    [';',':',';'],
    ['}',':','}'],
    ['.buttonSubmitLink','NN','.buttonsubmitlink'],
    ['{',':','{'],
    ['float','JJ','flo'],
    [':',':',':'],
    ['left','VBN','leav'],
    [';',':',';'],
    ['display','NN','display'],
    [':',':',':'],
    ['block','NN','block'],
    [';',':',';'],
    ['}',':','}'],
    ['.pollAnswerContainer','JJ','.pollanswercontainer'],
    ['{','NN','{'],
    ['float','NN','flo'],
    [':',':',':'],
    ['left','VBN','leav'],
    [';',':',';'],
    ['}',':','}'],
    ['Poll','NNP','pol'],
    ['..','NNP','..'],
    ['Do','NNP','do'],
    ['you','PRP','you'],
    ['support','VB','support'],
    ['Amendment','NNP','amend'],
    ['66','CD','66'],
    ['?','.','?'],
    ['YesNoNot','NNP','yesnonot'],
    ['sure','NN','sur'],
    {
      tag:'ORGANIZATION',
      content:
      [
        ['VOTE','NNP','vot']
      ]
    },
    ['VIEW','NNP','view'],
    ['RESULTS','NNP','result'],
    ['e-Edition','NNP','e-edition']
  ]
}]