[
{
  tag:'S',
  content:
  [
    ['Wednesday','NNP','wednesday'],
    ['16','CD','16'],
    ['October','NNP','octob'],
    ['2013','CD','2013'],
    ['ebooks','NNS','ebook'],
    ['i','PRP','i'],
    {
      tag:'PERSON',
      content:
      [
        ['Jobs','NNP','job'],
        ['Dating','NNP','dat'],
        ['Shop','NNP','shop'],
        ['Click','NNP','click']
      ]
    },
    ['here','RB','her'],
    ['...',':','...'],
    ['News','NNP','new'],
    ['UK','NNP','uk'],
    ['Home','NNP','hom'],
    ['News','NNP','new'],
    ['UK','NNP','uk'],
    ['Politics','NNP','polit'],
    ['Crime','NNP','crim'],
    ['This','NNP','thi'],
    ['Britain','NNP','britain'],
    ['World','NNP','world'],
    {
      tag:'PERSON',
      content:
      [
        ['Europe','NNP','europ'],
        ['Americas','NNP','america'],
        ['Middle','NNP','middl'],
        ['East','NNP','east'],
        ['Asia','NNP','as'],
        ['Africa','NNP','afric'],
        ['Australasia','NNP','australas']
      ]
    },
    ['World','NNP','world'],
    ['Politics','NNP','polit'],
    ['World','NNP','world'],
    ['History','NNP','hist'],
    ['Novaya','NNP','novay'],
    ['Gazeta','NNP','gazet'],
    ['(','NNP','('],
    ['English','NNP','engl'],
    [')','NNP',')'],
    ['US','NNP','us'],
    ['Elections','NNP','elect'],
    ['US','NNP','us'],
    ['Elections','NNP','elect'],
    ['Battleground','NNP','battleground'],
    ['Business','NNP','busy'],
    {
      tag:'ORGANIZATION',
      content:
      [
        ['Business','NNP','busy'],
        ['News','NNP','new'],
        ['Business','NNP','busy']
      ]
    },
    ['Comment','NNP','com'],
    ['Business','NNP','busy'],
    ['Analysis','NNP','analys'],
    ['&','CC','&'],
    {
      tag:'PERSON',
      content:
      [
        ['Features','NNP','feat'],
        ['Sharewatch','NNP','sharewatch']
      ]
    },
    ['SME','NNP','sme'],
    {
      tag:'PERSON',
      content:
      [
        ['Market','NNP','market'],
        ['News','NNP','new'],
        ['Market','NNP','market'],
        ['Epic','NNP','ep'],
        ['Market','NNP','market'],
        ['Heatmaps','NNP','heatmap'],
        ['Market','NNP','market'],
        ['Screener','NNP','screener'],
        ['Business','NNP','busy'],
        ['Directory','NNP','direct'],
        ['ES','NNP','es'],
        ['Business','NNP','busy']
      ]
    },
    ['Connections','NNPS','connect'],
    ['People','NNP','peopl'],
    ['News','NNP','new'],
    ['Profiles','NNP','profil'],
    ['Diary','NNP','diary'],
    ['Science','NNP','sci'],
    ['Environment','NNP','environ'],
    {
      tag:'PERSON',
      content:
      [
        ['Climate','NNP','clim'],
        ['Change','NNP','chang'],
        ['Green','NNP','green'],
        ['Living','NNP','liv'],
        ['Nature','NNP','nat'],
        ['Media','NNP','med'],
        ['Opinion','NNP','opin']
      ]
    },
    ['TV','NNP','tv'],
    ['&','CC','&'],
    {
      tag:'PERSON',
      content:
      [
        ['Radio','NNP','radio'],
        ['Press','NNP','press'],
        ['Online','NNP','onlin'],
        ['Advertising','NNP','advert'],
        ['Technology','NNP','technolog'],
        ['Education','NNP','educ'],
        ['News','NNP','new'],
        ['Schools','NNP','schools'],
        ['Further','NNP','furth'],
        ['Higher','NNP','high']
      ]
    },
    ['Primary','NNP','prim'],
    ['Tables','NNP','tabl'],
    ['2011','CD','2011'],
    ['Secondary','NNP','second'],
    ['Tables','NNP','tabl'],
    ['2012','CD','2012'],
    ['Training','NNP','train'],
    ['&','CC','&'],
    {
      tag:'PERSON',
      content:
      [
        ['Courses','NNP','cours'],
        ['MBA','NNP','mba']
      ]
    },
    ['&','CC','&'],
    {
      tag:'PERSON',
      content:
      [
        ['Executive','NNP','execut'],
        ['Obituaries','NNP','obitu'],
        ['Diary','NNP','diary'],
        ['Corrections','NNP','correct'],
        ['Newsletter','NNP','newslet'],
        ['Appeals','NNPS','ap'],
        ['Indy','NNP','indy']
      ]
    },
    ['appeal','NN','ap'],
    {
      tag:'ORGANIZATION',
      content:
      [
        ['IoS','NNP','io']
      ]
    },
    ['appeal','NN','ap'],
    ['Voices','NNS','voic'],
    {
      tag:'PERSON',
      content:
      [
        ['Sport','NNP','sport'],
        ['Tech','NNP','tech'],
        ['Life','NNP','lif'],
        ['Property','NNP','property'],
        ['Arts','NNP','art']
      ]
    },
    ['&','CC','&'],
    {
      tag:'PERSON',
      content:
      [
        ['Ents','NNP','ent'],
        ['Travel','NNP','travel'],
        ['Money','NNP','money'],
        ['IndyBest','NNP','indybest'],
        ['Blogs','NNP','blog'],
        ['Student','NNP','stud']
      ]
    },
    ['Offers','NNP','off'],
    ['Technical','NNP','techn'],
    {
      tag:'PERSON',
      content:
      [
        ['Schools','NNP','schools'],
        ['Trade','NNP','trad']
      ]
    },
    ['with','IN','with'],
    {
      tag:'GPE',
      content:
      [
        ['China','NNP','chin']
      ]
    },
    {
      tag:'PERSON',
      content:
      [
        ['Clinton','NNP','clinton']
      ]
    },
    ['gets','VBZ','get'],
    ['a','DT','a'],
    ['parking','NN','park'],
    ['ticket','NN','ticket'],
    {
      tag:'PERSON',
      content:
      [
        ['George','NNP','georg'],
        ['Osborne','NNP','osborn'],
        ['Greece','NNP','greec'],
        ['Michael','NNP','michael'],
        ['Gove','NNP','gov'],
        ['Click','NNP','click']
      ]
    },
    ['here','RB','her'],
    ['...',':','...'],
    ['News','NNP','new'],
    ['>',':','>'],
    ['World','NNP','world'],
    ['>',':','>'],
    {
      tag:'PERSON',
      content:
      [
        ['Europe','NNP','europ'],
        ['Felipe','NNP','felip'],
        ['Gonzalez','NNP','gonzalez']
      ]
    },
    ['takes','VBZ','tak'],
    ['on','IN','on'],
    {
      tag:'PERSON',
      content:
      [
        ['Blair','NNP','blair']
      ]
    },
    ['for','IN','for'],
    {
      tag:'GPE',
      content:
      [
        ['EU','NNP','eu']
      ]
    },
    ['presidency','NN','presid'],
    {
      tag:'PERSON',
      content:
      [
        ['Nicolas','NNP','nicola'],
        ['Sarkozy','NNP','sarkozy']
      ]
    },
    ['backing','NN','back'],
    {
      tag:'PERSON',
      content:
      [
        ['Spanish','NNP','span'],
        ['Socialist','NNP','soc']
      ]
    },
    ['former','JJ','form'],
    ['PM','NNP','pm'],
    ['By','NNP','by'],
    {
      tag:'PERSON',
      content:
      [
        ['Elizabeth','NNP','elizabe'],
        ['Nash','NNP','nash']
      ]
    },
    ['in','IN','in'],
    {
      tag:'GPE',
      content:
      [
        ['Madrid','NNP','madrid']
      ]
    },
    ['Thursday','NNP','thursday'],
    ['02','CD','02'],
    ['July','NNP','july'],
    ['2009','CD','2009'],
    ['Print','NNP','print'],
    ['Your','NNP','yo'],
    ['friend','NN','friend'],
    [''s','POS',''s'],
    ['email','NN','email'],
    ['address','NN','address'],
    ['Your','NNP','yo'],
    ['email','NN','email'],
    ['address','NN','address'],
    ['Note','NNP','not'],
    [':',':',':'],
    ['We','PRP','We'],
    ['do','VBP','do'],
    ['not','RB','not'],
    ['store','VB','stor'],
    ['your','PRP$','your'],
    ['email','NN','email'],
    ['address','NN','address'],
    ['(',':','('],
    ['es','NNS','e'],
    [')','VBP',')'],
    ['but','CC','but'],
    ['your','PRP$','your'],
    ['IP','NNP','ip'],
    ['address','NN','address'],
    ['will','MD','will'],
    ['be','VB','be'],
    ['logged','VBN','log'],
    ['to','TO','to'],
    ['prevent','VB','prev'],
    ['abuse','NN','abus'],
    ['of','IN','of'],
    ['this','DT','this'],
    ['feature','NN','feat'],
    ['.','.','.']
  ]
},
{
  tag:'S',
  content:
  [
    {
      tag:'GPE',
      content:
      [
        ['Please','NN','pleas']
      ]
    },
    ['read','VBD','read'],
    ['our','PRP$','our'],
    ['Legal','NNP','leg'],
    ['Terms','NNP','term'],
    ['&','CC','&'],
    ['Policies','NNP','policy'],
    ['A','DT','A'],
    ['A','DT','A'],
    ['A','DT','A'],
    ['Email','NNP','email'],
    ['div.slideshow','NNP','div.slideshow'],
    ['img','NN','img'],
    ['{',':','{'],
    ['display','NN','display'],
    [':',':',':'],
    ['none','NN','non'],
    [';',':',';'],
    ['}',':','}']
  ]
}]