[
{
  tag:'S',
  content:
  [
    {
      tag:'GPE',
      content:
      [
        ['Ecuadorian','JJ','ecuad']
      ]
    },
    ['walker','NN','walk'],
    {
      tag:'PERSON',
      content:
      [
        ['Jefferson','NNP','jefferson'],
        ['Perez','NNP','perez']
      ]
    },
    ['trains','VBZ','train'],
    ['alone','RB','alon'],
    ['for','IN','for'],
    ['Beijing-2008','-NONE-','Beijing-2008'],
    ['www.chinaview.cn','JJ','www.chinaview.cn'],
    ['2008-04-23','CD','2008-04-23'],
    ['08:43:16','CD','08:43:16'],
    ['Print','NNP','print'],
    ['Special','NNP','spec'],
    ['report','NN','report'],
    [':',':',':'],
    ['2008','CD','2008'],
    ['Olympic','NNP','olymp'],
    ['Games','NNP','gam'],
    ['QUITO','NNP','quito'],
    [',',',',','],
    ['April','NNP','april'],
    ['22','CD','22'],
    ['(','CD','('],
    {
      tag:'ORGANIZATION',
      content:
      [
        ['Xinhua','NNP','xinhu']
      ]
    },
    [')','NNP',')'],
    ['--',':','--'],
    {
      tag:'GPE',
      content:
      [
        ['Ecuadorian','JJ','ecuad']
      ]
    },
    ['speed','NN','spee'],
    ['walker','NN','walk'],
    {
      tag:'PERSON',
      content:
      [
        ['Jefferson','NNP','jefferson'],
        ['Perez','NNP','perez']
      ]
    },
    ['is','VBZ','be'],
    ['training','VBG','train'],
    ['alone','RB','alon'],
    ['at','IN','at'],
    ['his','PRP$','his'],
    ['native','JJ','nat'],
    ['city','NN','city'],
    ['of','IN','of'],
    {
      tag:'GPE',
      content:
      [
        ['Cuenca','NNP','cuenc']
      ]
    },
    ['(','NNP','('],
    ['south','NN','sou'],
    [')',':',')'],
    ['because','IN','because'],
    ['he','PRP','he'],
    ['aims','VBZ','aim'],
    ['to','TO','to'],
    ['win','VB','win'],
    ['a','DT','a'],
    ['gold','NN','gold'],
    ['medal','NN','med'],
    ['for','IN','for'],
    ['his','PRP$','his'],
    {
      tag:'GPE',
      content:
      [
        ['South','NNP','sou'],
        ['American','NNP','am']
      ]
    },
    ['country','NN','country'],
    ['at','IN','at'],
    ['the','DT','the'],
    ['2008','CD','2008'],
    ['Olympic','NNP','olymp'],
    ['Games','NNP','gam'],
    ['.','.','.']
  ]
},
{
  tag:'S',
  content:
  [
    {
      tag:'PERSON',
      content:
      [
        ['Jefferson','NNP','jefferson']
      ]
    },
    {
      tag:'GPE',
      content:
      [
        ['Perez','NNP','perez']
      ]
    },
    [',',',',','],
    ['considered','VBN','consid'],
    {
      tag:'PERSON',
      content:
      [
        ['Ecuador','NNP','ecuad']
      ]
    },
    [''s','POS',''s'],
    ['greatest','JJS','gre'],
    ['athlete','JJ','athlet'],
    [',',',',','],
    ['stated','VBN','stat'],
    ['on','IN','on'],
    ['Tuesday','NNP','tuesday'],
    ['in','IN','in'],
    ['declarations','NNS','decl'],
    ['quoted','VBN','quot'],
    ['by','IN','by'],
    ['the','DT','the'],
    ['local','JJ','loc'],
    ['press','NN','press'],
    ['that','WDT','that'],
    ['world','NN','world'],
    ['ranking','VBG','rank'],
    ['is','VBZ','be'],
    ['not','RB','not'],
    ['important','JJ','import'],
    ['in','IN','in'],
    ['an','DT','an'],
    ['Olympic','NNP','olymp'],
    ['year','NN','year'],
    ['.','.','.']
  ]
},
{
  tag:'S',
  content:
  [
    ['``','``','``'],
    ['I','PRP','I'],
    ['want','VBP','want'],
    ['to','TO','to'],
    ['get','VB','get'],
    ['ready','JJ','ready'],
    ['for','IN','for'],
    {
      tag:'GPE',
      content:
      [
        ['Beijing','NNP','beid']
      ]
    },
    ['Olympic','NNP','olymp'],
    ['Games','NNP','gam'],
    [',',',',','],
    ['''','''',''''],
    ['stated','VBD','stat'],
    {
      tag:'PERSON',
      content:
      [
        ['Perez','NNP','perez']
      ]
    },
    [',',',',','],
    ['while','IN','while'],
    ['adding','VBG','ad'],
    ['that','IN','that'],
    ['this','DT','this'],
    ['is','VBZ','be'],
    ['probably','RB','prob'],
    ['his','PRP$','his'],
    ['last','JJ','last'],
    ['participation','NN','particip'],
    ['in','IN','in'],
    ['these','DT','these'],
    ['type','NN','typ'],
    ['of','IN','of'],
    ['competitions','NNS','competit'],
    ['.','.','.']
  ]
},
{
  tag:'S',
  content:
  [
    ['The','DT','The'],
    {
      tag:'ORGANIZATION',
      content:
      [
        ['Beijing','NNP','beid']
      ]
    },
    ['Olympics','NNP','olymp'],
    ['will','MD','will'],
    ['be','VB','be'],
    {
      tag:'PERSON',
      content:
      [
        ['Perez','NNP','perez']
      ]
    },
    [''s','POS',''s'],
    ['fourth','JJ','four'],
    ['Olympic','NNP','olymp'],
    ['Games','NNP','gam'],
    ['participation','NN','particip'],
    ['.','.','.']
  ]
},
{
  tag:'S',
  content:
  [
    ['In','IN','In'],
    {
      tag:'GPE',
      content:
      [
        ['Atlanta','NNP','atlant']
      ]
    },
    ['1996','CD','1996'],
    [',',',',','],
    {
      tag:'PERSON',
      content:
      [
        ['Perez','NNP','perez']
      ]
    },
    ['won','VBD','win'],
    ['the','DT','the'],
    ['gold','NN','gold'],
    ['medal','NN','med'],
    ['in','IN','in'],
    ['the','DT','the'],
    ['20','CD','20'],
    ['kilometers','NNS','kilomet'],
    ['walk','VBP','walk'],
    ['.','.','.']
  ]
},
{
  tag:'S',
  content:
  [
    {
      tag:'GPE',
      content:
      [
        ['Perez','NNP','perez']
      ]
    },
    [',',',',','],
    ['33','CD','33'],
    [',',',',','],
    ['will','MD','will'],
    ['celebrate','VB','celebr'],
    ['his','PRP$','his'],
    ['34th','JJ','34th'],
    ['birth','NN','bir'],
    ['date','NN','dat'],
    ['on','IN','on'],
    ['July','NNP','july'],
    ['1st','CD','1st'],
    ['and','CC','and'],
    ['said','VBD','say'],
    ['he','PRP','he'],
    ['will','MD','will'],
    ['retire','VB','retir'],
    ['.','.','.']
  ]
},
{
  tag:'S',
  content:
  [
    ['``','``','``'],
    ['I','PRP','I'],
    ['will','MD','will'],
    ['retire','VB','retir'],
    ['whenever','RB','whenev'],
    ['I','PRP','I'],
    ['do','VBP','do'],
    ['not','RB','not'],
    ['like','VB','lik'],
    ['getting','VBG','get'],
    ['up','RP','up'],
    ['at','IN','at'],
    ['7','CD','7'],
    ['a.m.','NNP','a.m.'],
    ['in','IN','in'],
    ['the','DT','the'],
    ['morning','NN','morn'],
    ['on','IN','on'],
    ['weekends','NNS','weekend'],
    ['to','TO','to'],
    ['climb','VB','climb'],
    ['at','IN','at'],
    ['4,000','CD','4,000'],
    ['meters','NNS','met'],
    ['above','IN','above'],
    ['sea','NN','sea'],
    ['level','NN','level'],
    [',',',',','],
    ['at','IN','at'],
    ['zero','NN','zero'],
    ['degrees','NNS','degr'],
    ['in','IN','in'],
    ['adverse','NN','advers'],
    ['conditions','NNS','condit'],
    ['.','.','.']
  ]
},
{
  tag:'S',
  content:
  [
    ['``','``','``'],
    {
      tag:'PERSON',
      content:
      [
        ['Perez','NNP','perez']
      ]
    },
    ['has','VBZ','hav'],
    ['finished','VBN','fin'],
    ['5th','JJ','5th'],
    ['place','NN','plac'],
    ['in','IN','in'],
    ['his','PRP$','his'],
    ['past','NN','past'],
    ['two','CD','two'],
    ['competitions','NNS','competit'],
    ['in','IN','in'],
    {
      tag:'GPE',
      content:
      [
        ['Mexico','NNP','mexico']
      ]
    },
    ['and','CC','and'],
    {
      tag:'GPE',
      content:
      [
        ['Portugal','NNP','portug']
      ]
    },
    [',',',',','],
    ['and','CC','and'],
    ['he','PRP','he'],
    ['believes','VBZ','believ'],
    ['they','PRP','they'],
    ['have','VBP','hav'],
    ['served','VBN','serv'],
    ['him','PRP','him'],
    ['to','TO','to'],
    ['get','VB','get'],
    ['ready','JJ','ready'],
    ['for','IN','for'],
    ['the','DT','the'],
    {
      tag:'ORGANIZATION',
      content:
      [
        ['Beijing','NNP','beid']
      ]
    },
    ['Olympic','NNP','olymp'],
    ['Games','NNP','gam'],
    ['even','RB','ev'],
    ['though','IN','though'],
    ['they','PRP','they'],
    ['have','VBP','hav'],
    ['not','RB','not'],
    ['been','VBN','be'],
    ['outstanding','JJ','outstand'],
    ['results','NNS','result'],
    ['.','.','.']
  ]
},
{
  tag:'S',
  content:
  [
    {
      tag:'GPE',
      content:
      [
        ['Editor','NNP','edit']
      ]
    },
    [':',':',':'],
    ['An','DT','An'],
    ['Lu','NNP','lu'],
    ['Related','NNP','rel'],
    ['Stories','NNP','story'],
    ['Home','NNP','hom'],
    ['Sports','NNPS','sport'],
    ['Back','NNP','back'],
    ['to','TO','to'],
    ['Top','NNP','top']
  ]
}]