[
{
  tag:'S',
  content:
  [
    {
      tag:'ORGANIZATION',
      content:
      [
        ['HuffPost','NNP','huffpost']
      ]
    },
    [''s','POS',''s'],
    {
      tag:'ORGANIZATION',
      content:
      [
        ['QuickRead','NNP','quickread']
      ]
    },
    ['...',':','...'],
    ['Loading','NNP','load'],
    ['...',':','...'],
    {
      tag:'ORGANIZATION',
      content:
      [
        ['HuffPost','NNP','huffpost']
      ]
    },
    [''s','POS',''s'],
    {
      tag:'ORGANIZATION',
      content:
      [
        ['QuickRead','NNP','quickread']
      ]
    },
    ['...',':','...'],
    ['Loading','NNP','load'],
    ['...',':','...'],
    {
      tag:'PERSON',
      content:
      [
        ['Google','NNP','googl']
      ]
    },
    [''s','POS',''s'],
    ['Project','NNP','project'],
    ['Glass','NNP','glass'],
    ['iOS','NNP','io'],
    ['app','NN','ap'],
    {
      tag:'PERSON',
      content:
      [
        ['Android','NNP','android']
      ]
    },
    ['app','NN','ap'],
    {
      tag:'PERSON',
      content:
      [
        ['More','NNP','mor'],
        ['Log','NNP','log']
      ]
    },
    ['in','IN','in'],
    {
      tag:'ORGANIZATION',
      content:
      [
        ['Create','NNP','cre'],
        ['Account','NNP','account'],
        ['Notifications','NNP','not']
      ]
    },
    ['Profile','NNP','profil'],
    ['Settings','NNP','set'],
    ['Logout','NNP','logout'],
    ['#','#','#'],
    {
      tag:'ORGANIZATION',
      content:
      [
        ['topnav_margin_btm','NNP','topnav_margin_btm']
      ]
    },
    ['{','NNP','{'],
    ['margin:0','NNP','margin:0'],
    ['!','.','!'],
    ['important','JJ','import'],
    ['}','NN','}'],
    ['.back-to-aol','NN','.back-to-aol'],
    ['{',':','{'],
    ['display','NN','display'],
    [':',':',':'],
    ['inline-block','JJ','inline-block'],
    ['!','.','!'],
    ['important','JJ','import'],
    [';',':',';'],
    ['float','JJ','flo'],
    [':',':',':'],
    ['left','VBN','leav'],
    [';',':',';'],
    ['padding-top','JJ','padding-top'],
    [':',':',':'],
    ['25px','CD','25px'],
    [';',':',';'],
    ['position','NN','posit'],
    [':',':',':'],
    ['absolute','JJ','absolv'],
    [';',':',';'],
    ['}',':','}'],
    ['October','NNP','octob'],
    ['16','CD','16'],
    [',',',',','],
    ['2013','CD','2013'],
    ['Edition','NNP','edit'],
    [':',':',':'],
    {
      tag:'GPE',
      content:
      [
        ['U.S.','NNP','u.s.']
      ]
    },
    ['CA','NNP','ca'],
    {
      tag:'PERSON',
      content:
      [
        ['Canada','NNP','canad'],
        ['DE','NNP','de'],
        ['Deutschland','NNP','deutschland'],
        ['ES','NNP','es']
      ]
    },
    ['España','NNP','españ'],
    ['FR','NNP','fr'],
    ['France','NNP','frant'],
    ['IT','NNP','it'],
    {
      tag:'PERSON',
      content:
      [
        ['Italia','NNP','ital'],
        ['JP','NNP','jp']
      ]
    },
    ['日本','NNP','日本'],
    ['(','NNP','('],
    {
      tag:'GPE',
      content:
      [
        ['Japan','NNP','jap']
      ]
    },
    [')','NNP',')'],
    ['MG','NNP','mg'],
    {
      tag:'PERSON',
      content:
      [
        ['Maghreb','NNP','maghreb'],
        ['UK','NNP','uk'],
        ['United','NNP','unit'],
        ['Kingdom','NNP','kingdom'],
        ['US','NNP','us'],
        ['United','NNP','unit']
      ]
    },
    {
      tag:'PERSON',
      content:
      [
        ['States','NNPS','stat'],
        ['Follow','NNP','follow']
      ]
    },
    ['FRONT','NNP','front'],
    ['PAGE','NNP','pag'],
    ['Business','NNP','busy'],
    ['This','NNP','thi'],
    ['Is','VBZ','is'],
    ['Either','NNP','eith'],
    ['The','DT','The'],
    {
      tag:'ORGANIZATION',
      content:
      [
        ['World','NNP','world']
      ]
    },
    [''s','POS',''s'],
    {
      tag:'PERSON',
      content:
      [
        ['Laziest','NNP','laziest'],
        ['Customer','NNP','custom'],
        ['Or','NNP','or']
      ]
    },
    ['Its','NNPS','it'],
    ['Most','NNP','most'],
    ['Genius997','NNP','genius997'],
    ['Ex-Heart','NNP','ex-heart'],
    ['Attack','NNP','attack'],
    {
      tag:'PERSON',
      content:
      [
        ['Grill','NNP','gril'],
        ['Hostess','NNP','hostess'],
        ['Rips','NNP','rip']
      ]
    },
    ['Restaurant494','NNP','restaurant494'],
    {
      tag:'PERSON',
      content:
      [
        ['Fitch','NNP','fitch'],
        ['Considering','NNP','consid'],
        ['Downgrading','NNP','downgrad'],
        ['U.S.','NNP','u.s.'],
        ['Credit','NNP','credit']
      ]
    },
    ['Rating3.4k','NNP','rating3.4k'],
    {
      tag:'PERSON',
      content:
      [
        ['Rumor','NNP','rum'],
        ['Causes','NNP','caus']
      ]
    },
    ['J.C.','NNP','j.c.'],
    {
      tag:'PERSON',
      content:
      [
        ['Penney','NNP','penney']
      ]
    },
    [''s','POS',''s'],
    {
      tag:'PERSON',
      content:
      [
        ['Stock','NNP','stock'],
        ['To','NNP','to'],
        ['Tank129','NNP','tank129'],
        ['Study','NNP','study']
      ]
    },
    [':',':',':'],
    {
      tag:'ORGANIZATION',
      content:
      [
        ['McDonald','NNP','mcdonald']
      ]
    },
    [''s','POS',''s'],
    {
      tag:'PERSON',
      content:
      [
        ['Low','NNP','low'],
        ['Wages','NNP','wag'],
        ['Cost','NNP','cost']
      ]
    },
    ['Taxpayers','NNP','taxpay'],
    ['$','$','$'],
    ['1.2','CD','1.2'],
    ['Billion','CD','Billion'],
    ['Per','NNP','per'],
    ['Year2.1k','NNP','year2.1k'],
    ['Go','NNP','go'],
    ['to','TO','to'],
    {
      tag:'ORGANIZATION',
      content:
      [
        ['Business','NNP','busy'],
        ['More','NNP','mor']
      ]
    },
    ['in','IN','in'],
    {
      tag:'ORGANIZATION',
      content:
      [
        ['Business','NNP','busy'],
        ['Small','NNP','smal'],
        ['Business','NNP','busy'],
        ['Money','NNP','money']
      ]
    },
    ['You','NNP','you'],
    ['might','MD','might'],
    ['also','RB','also'],
    ['like','VB','lik'],
    {
      tag:'PERSON',
      content:
      [
        ['World','NNP','world'],
        ['Tech','NNP','tech'],
        ['Media','NNP','med'],
        ['Arts','NNP','art'],
        ['Sports','NNP','sport'],
        ['Weird','NNP','weird']
      ]
    },
    ['Crime','NNP','crim'],
    ['Smarter','NNP','smart'],
    ['Ideas','NNP','idea'],
    ['Small','NNP','smal'],
    ['Business','NNP','busy'],
    ['WATCH','NNP','watch'],
    [':',':',':'],
    ['Restaurant','NNP','resta'],
    ['Staffed','NNP','staff'],
    ['Exclusively','NNP','exclud'],
    ['By','NNP','by'],
    {
      tag:'ORGANIZATION',
      content:
      [
        ['Twins195','NNP','twins195'],
        ['My','NNP','my'],
        ['Journey','NNP','journey']
      ]
    },
    ['to','TO','to'],
    {
      tag:'PERSON',
      content:
      [
        ['Fortune','NNP','fortun']
      ]
    },
    [''s','POS',''s'],
    {
      tag:'ORGANIZATION',
      content:
      [
        ['Ten','NNP','ten'],
        ['Most','NNP','most'],
        ['Powerful','NNP','pow'],
        ['Women','NNP','wom'],
        ['Entrepreneurs','NNP','entrepr'],
        ['List','NNP','list'],
        ['Go','NNP','go']
      ]
    },
    ['to','TO','to'],
    {
      tag:'PERSON',
      content:
      [
        ['Small','NNP','smal'],
        ['Business','NNP','busy'],
        ['More','NNP','mor']
      ]
    },
    ['in','IN','in'],
    {
      tag:'GPE',
      content:
      [
        ['Small','NNP','smal']
      ]
    },
    ['Business','NNP','busy'],
    ['Board','NNP','board'],
    ['of','IN','of'],
    {
      tag:'ORGANIZATION',
      content:
      [
        ['Directors','NNP','direct'],
        ['Success','NNP','success']
      ]
    },
    ['Stories','NNP','story'],
    ['5','CD','5'],
    ['Things','NNS','thing'],
    ['You','PRP','You'],
    ['Need','VBP','nee'],
    ['To','TO','To'],
    {
      tag:'PERSON',
      content:
      [
        ['Know','NNP','know'],
        ['Tools','NNP','tool'],
        ['News','NNP','new']
      ]
    },
    ['and','CC','and'],
    {
      tag:'ORGANIZATION',
      content:
      [
        ['Trends','NNPS','trend'],
        ['You','NNP','you']
      ]
    },
    ['might','MD','might'],
    ['also','RB','also'],
    ['like','VB','lik'],
    {
      tag:'ORGANIZATION',
      content:
      [
        ['Business','NNP','busy'],
        ['Money','NNP','money'],
        ['Tech','NNP','tech'],
        ['Arts','NNP','art'],
        ['Food','NNP','food'],
        ['Media','NNP','med'],
        ['Boehner','NNP','boehn'],
        ['Savaged','NNP','sav']
      ]
    },
    ['In','NNP','in'],
    ['Press','NNP','press'],
    [':',':',':'],
    [''Humiliating','JJ',''humiliating'],
    ['Failure'2k','NN','failure'2k'],
    {
      tag:'PERSON',
      content:
      [
        ['Chuck','NNP','chuck'],
        ['Todd','NNP','tod']
      ]
    },
    ['BLOWS','NNP','blow'],
    ['UP','NNP','up'],
    ['At','NNP','at'],
    ['Ted','NNP','ted'],
    ['Cruz2.1k','NNP','cruz2.1k'],
    ['SORRY','NNP','sorry'],
    [',',',',','],
    ['MSNBC1.3k','NNP','msnbc1.3k'],
    {
      tag:'PERSON',
      content:
      [
        ['Glenn','NNP','glen'],
        ['Greenwald','NNP','greenwald']
      ]
    },
    ['Leaving','NNP','leav'],
    ['The','NNP','the'],
    {
      tag:'PERSON',
      content:
      [
        ['Guardian','NNP','guard'],
        ['For','NNP','for'],
        ['New','NNP','new']
      ]
    },
    ['Venture1.1k','NNP','venture1.1k'],
    [''The','NNP',''the'],
    ['View','NNP','view'],
    [''','POS','''],
    {
      tag:'PERSON',
      content:
      [
        ['Denies','NNPS','deny'],
        ['Major','NNP','maj'],
        ['Jenny','NNP','jenny'],
        ['McCarthy','NNP','mccarthy']
      ]
    },
    {
      tag:'ORGANIZATION',
      content:
      [
        ['Rumor68','NNP','rumor68'],
        ['Go','NNP','go']
      ]
    },
    ['to','TO','to'],
    {
      tag:'ORGANIZATION',
      content:
      [
        ['Media','NNP','med'],
        ['More','NNP','mor']
      ]
    },
    ['in','IN','in'],
    {
      tag:'GPE',
      content:
      [
        ['Media','NNP','med']
      ]
    },
    ['Eat','NNP','eat'],
    ['The','NNP','the'],
    ['Press','NNP','press'],
    ['Calderone','NNP','calderon'],
    [':',':',':'],
    ['The','DT','The'],
    {
      tag:'ORGANIZATION',
      content:
      [
        ['Backstory','NNP','backst']
      ]
    },
    ['You','NNP','you'],
    ['might','MD','might'],
    ['also','RB','also'],
    ['like','VB','lik'],
    {
      tag:'ORGANIZATION',
      content:
      [
        ['Entertainment','NNP','entertain']
      ]
    },
    ['TV','NNP','tv'],
    ['Comedy','NNP','comedy'],
    ['Arts','NNP','art'],
    {
      tag:'PERSON',
      content:
      [
        ['Books','NNP','book'],
        ['Religion','NNP','relig'],
        ['Moviefone','NNP','moviefon'],
        ['Science','NNP','sci'],
        ['Average','NNP','av'],
        ['American','NNP','am'],
        ['Male','NNP','mal']
      ]
    },
    [''s','POS',''s'],
    {
      tag:'ORGANIZATION',
      content:
      [
        ['Body','NNP','body'],
        ['Looks','NNP','look'],
        ['Like','NNP','lik']
      ]
    },
    ['THIS907','NNP','this907'],
    ['Blood-Engorged','JJ','blood-engorg'],
    ['Bug','NNP','bug'],
    ['Is','NNP','is'],
    ['Fossil','NNP','fossil'],
    ['First832','NNP','first832'],
    ['WATCH','NNP','watch'],
    [':',':',':'],
    {
      tag:'PERSON',
      content:
      [
        ['Space','NNP','spac'],
        ['Probe','NNP','prob']
      ]
    },
    [''s','POS',''s'],
    {
      tag:'ORGANIZATION',
      content:
      [
        ['Long','NNP','long'],
        ['Hibernation','NNP','hibern'],
        ['To','NNP','to']
      ]
    },
    ['End98','NNP','end98'],
    {
      tag:'PERSON',
      content:
      [
        ['Orphan','NNP','orph'],
        ['Ape','NNP','ap'],
        ['Study','NNP','study'],
        ['Sheds','NNP','shed']
      ]
    },
    ['Surprising','NNP','surpr'],
    {
      tag:'PERSON',
      content:
      [
        ['Light','NNP','light'],
        ['On','NNP','on'],
        ['Animal','NNP','anim']
      ]
    },
    ['Emotions389','NNP','emotions389'],
    ['WATCH','NNP','watch'],
    [':',':',':'],
    ['Spectacular','JJ','spectacul'],
    {
      tag:'ORGANIZATION',
      content:
      [
        ['New','NNP','new'],
        ['Video','NNP','video'],
        ['Of','NNP','of'],
        ['Felix','NNP','felix'],
        ['Baumgartner','NNP','baumgartn']
      ]
    },
    [''s','POS',''s'],
    ['Edge-Of-Space','NN','edge-of-spac'],
    {
      tag:'ORGANIZATION',
      content:
      [
        ['Leap16','NNP','leap16'],
        ['Go','NNP','go']
      ]
    },
    ['to','TO','to'],
    {
      tag:'PERSON',
      content:
      [
        ['Science','NNP','sci'],
        ['More','NNP','mor']
      ]
    },
    ['in','IN','in'],
    {
      tag:'GPE',
      content:
      [
        ['Science','NNP','sci']
      ]
    },
    ['Space','NNP','spac'],
    {
      tag:'PERSON',
      content:
      [
        ['Brain','NNP','brain'],
        ['Earth','NNP','ear'],
        ['Talk','NNP','talk'],
        ['Nerdy','NNP','nerdy'],
        ['To','NNP','to'],
        ['Me','NNP','me'],
        ['Weird','NNP','weird'],
        ['Science','NNP','sci'],
        ['You','NNP','you']
      ]
    },
    ['might','MD','might'],
    ['also','RB','also'],
    ['like','VB','lik'],
    {
      tag:'PERSON',
      content:
      [
        ['Tech','NNP','tech'],
        ['Green','NNP','green'],
        ['Arts','NNP','art'],
        ['Religion','NNP','relig'],
        ['Weird','NNP','weird'],
        ['Green','NNP','green']
      ]
    },
    ['$','$','$'],
    ['120','CD','120'],
    ['Million','CD','Million'],
    ['Wind','NNP','wind'],
    ['Project','NNP','project'],
    ['Scrapped1.3k','NNP','scrapped1.3k'],
    ['Newborn','NNP','newborn'],
    ['Sumatran','NNP','sum'],
    {
      tag:'PERSON',
      content:
      [
        ['Tiger','NNP','tig'],
        ['Cub','NNP','cub'],
        ['Drowns','NNP','drown'],
        ['At','NNP','at'],
        ['London','NNP','london']
      ]
    },
    ['Zoo24','NNP','zoo24']
  ]
}]