[
{
  tag:'S',
  content:
  [
    {
      tag:'GPE',
      content:
      [
        ['Edition','NN','edit']
      ]
    },
    [':',':',':'],
    {
      tag:'GPE',
      content:
      [
        ['U.S.','NNP','u.s.']
      ]
    },
    {
      tag:'PERSON',
      content:
      [
        ['Arabic','NNP','arab'],
        ['Argentina','NNP','argentin'],
        ['Brazil','NNP','brazil'],
        ['Canada','NNP','canad'],
        ['China','NNP','chin'],
        ['France','NNP','frant'],
        ['Germany','NNP','germany'],
        ['India','NNP','ind'],
        ['Italy','NNP','ita'],
        ['Japan','NNP','jap'],
        ['Latin','NNP','latin'],
        ['America','NNP','americ'],
        ['Mexico','NNP','mexico'],
        ['Russia','NNP','russ'],
        ['Spain','NNP','spain'],
        ['United','NNP','unit'],
        ['Kingdom','NNP','kingdom'],
        ['Home','NNP','hom'],
        ['Business','NNP','busy'],
        ['Business','NNP','busy'],
        ['Home','NNP','hom'],
        ['Economy','NNP','econom'],
        ['Media','NNP','med'],
        ['Small','NNP','smal'],
        ['Business','NNP','busy'],
        ['Legal','NNP','leg'],
        ['Deals','NNP','deal'],
        ['Earnings','NNP','earn'],
        ['Business','NNP','busy']
      ]
    },
    ['Video','NNP','video'],
    ['The','NNP','the'],
    {
      tag:'GPE',
      content:
      [
        ['Freeland','NNP','freeland']
      ]
    },
    ['File','NNP','fil'],
    ['Aerospace','NNP','aerospac'],
    ['&','CC','&'],
    {
      tag:'ORGANIZATION',
      content:
      [
        ['Defense','NNP','defens'],
        ['Summits','NNP','summit'],
        ['Markets','NNPS','market'],
        ['Markets','NNPS','market'],
        ['Home','NNP','hom'],
        ['U.S.','NNP','u.s.'],
        ['Markets','NNPS','market'],
        ['European','JJ','europ'],
        ['Markets','NNPS','market'],
        ['Asian','JJ','as'],
        ['Markets','NNPS','market'],
        ['Global','NNP','glob'],
        ['Market','NNP','market'],
        ['Data','NNP','dat'],
        ['Indices','NNPS','ind']
      ]
    },
    ['M','NNP','m'],
    ['&','CC','&'],
    ['A','DT','A'],
    ['Stocks','NNP','stock'],
    ['Bonds','NNP','bond'],
    ['Currencies','NNPS','cur'],
    ['Commodities','NNP','commod'],
    ['Futures','NNP','fut'],
    ['Funds','NNPS','fund'],
    {
      tag:'ORGANIZATION',
      content:
      [
        ['peHUB','NNP','pehub'],
        ['Dividends','NNPS','dividend']
      ]
    },
    ['World','NNP','world'],
    ['World','NNP','world'],
    ['Home','NNP','hom'],
    {
      tag:'GPE',
      content:
      [
        ['U.S.','NNP','u.s.']
      ]
    },
    ['Brazil','NNP','brazil'],
    {
      tag:'GPE',
      content:
      [
        ['China','NNP','chin']
      ]
    },
    ['Euro','NNP','euro'],
    ['Zone','NNP','zon'],
    {
      tag:'PERSON',
      content:
      [
        ['Japan','NNP','jap'],
        ['Africa','NNP','afric'],
        ['Mexico','NNP','mexico'],
        ['Russia','NNP','russ'],
        ['India','NNP','ind'],
        ['Insight','NNP','insight']
      ]
    },
    ['World','NNP','world'],
    ['Video','NNP','video'],
    ['Reuters','NNP','reut'],
    ['Investigates','NNP','investig'],
    ['Decoder','NNP','decod'],
    ['Politics','NNP','polit'],
    ['Politics','NNP','polit'],
    ['Home','NNP','hom'],
    {
      tag:'ORGANIZATION',
      content:
      [
        ['Supreme','NNP','suprem'],
        ['Court','NNP','court']
      ]
    },
    ['Politics','NNP','polit'],
    ['Video','NNP','video'],
    ['Tech','NNP','tech'],
    ['Technology','NNP','technolog'],
    ['Home','NNP','hom'],
    ['MediaFile','NNP','mediafil'],
    ['Science','NNP','sci'],
    ['Tech','NNP','tech'],
    ['Video','NNP','video'],
    ['Tech','NNP','tech'],
    ['Tonic','NNP','ton'],
    ['Top','NNP','top'],
    ['100','CD','100'],
    ['Global','NNP','glob'],
    ['Innovators','NNP','innov'],
    ['Opinion','NNP','opin'],
    ['Opinion','NNP','opin'],
    ['Home','NNP','hom'],
    {
      tag:'PERSON',
      content:
      [
        ['John','NNP','john'],
        ['Lloyd','NNP','lloyd'],
        ['Felix','NNP','felix'],
        ['Salmon','NNP','salmon'],
        ['Jack','NNP','jack'],
        ['Shafer','NNP','shaf']
      ]
    },
    {
      tag:'PERSON',
      content:
      [
        ['David','NNP','david'],
        ['Rohde','NNP','rohd'],
        ['Nader','NNP','nad'],
        ['Mousavizadeh','NNP','mousavizadeh'],
        ['Nicholas','NNP','nichola'],
        ['Wapshott','NNP','wapshot'],
        ['Bethany','NNP','bethany'],
        ['McLean','NNP','mclean'],
        ['Anatole','NNP','anatol'],
        ['Kaletsky','NNP','kaletsky'],
        ['Zachary','NNP','zach'],
        ['Karabell','NNP','karabel'],
        ['Edward','NNP','edward'],
        ['Hadas','NNP','hada'],
        ['Hugo','NNP','hugo'],
        ['Dixon','NNP','dixon'],
        ['Ian','NNP','ian'],
        ['Bremmer','NNP','brem'],
        ['Lawrence','NNP','lawr']
      ]
    },
    ['Summers','NNP','sum'],
    ['The','NNP','the'],
    {
      tag:'ORGANIZATION',
      content:
      [
        ['Great','NNP','gre'],
        ['Debate','NNP','deb'],
        ['Reihan','NNP','reih'],
        ['Salam','NNP','salam'],
        ['Mark','NNP','mark'],
        ['Leonard','NNP','leonard'],
        ['Steven','NNP','stev'],
        ['Brill','NNP','bril'],
        ['Alison','NNP','alison'],
        ['Frankel','NNP','frankel'],
        ['Breakingviews','NNP','breakingview'],
        ['Equities','NNPS','equ']
      ]
    },
    {
      tag:'ORGANIZATION',
      content:
      [
        ['Credit','NNP','credit'],
        ['Private','NNP','priv'],
        ['Equity','NNP','equ']
      ]
    },
    ['M','NNP','m'],
    ['&','CC','&'],
    ['A','DT','A'],
    {
      tag:'ORGANIZATION',
      content:
      [
        ['Macro','NNP','macro']
      ]
    },
    ['&','CC','&'],
    {
      tag:'ORGANIZATION',
      content:
      [
        ['Markets','NNPS','market'],
        ['Politics','NNP','polit'],
        ['Breakingviews','NNP','breakingview'],
        ['Video','NNP','video'],
        ['Money','NNP','money'],
        ['Money','NNP','money'],
        ['Home','NNP','hom'],
        ['Tax','NNP','tax'],
        ['Break','NNP','break'],
        ['Lipper','NNP','lip'],
        ['Awards','NNP','award'],
        ['Global','NNP','glob']
      ]
    },
    ['Investing','NNP','invest'],
    {
      tag:'ORGANIZATION',
      content:
      [
        ['MuniLand','NNP','muniland'],
        ['Unstructured','NNP','unstruct'],
        ['Finance','NNP','fin'],
        ['Linda','NNP','lind'],
        ['Stern','NNP','stern'],
        ['Mark','NNP','mark']
      ]
    },
    {
      tag:'PERSON',
      content:
      [
        ['Miller','NNP','mil'],
        ['John','NNP','john'],
        ['Wasik','NNP','wasik']
      ]
    },
    {
      tag:'PERSON',
      content:
      [
        ['James','NNP','jam'],
        ['Saft','NNP','saft'],
        ['Analyst','NNP','analyst'],
        ['Research','NNP','research'],
        ['Alerts','NNP','alert'],
        ['Watchlist','NNP','watchl'],
        ['Portfolio','NNP','portfolio'],
        ['Stock','NNP','stock'],
        ['Screener','NNP','screener'],
        ['Fund','NNP','fund'],
        ['Screener','NNP','screener'],
        ['Personal','NNP','person'],
        ['Finance','NNP','fin'],
        ['Video','NNP','video'],
        ['Money','NNP','money'],
        ['Clip','NNP','clip']
      ]
    },
    ['Investing','NNP','invest'],
    ['201','CD','201'],
    ['Life','NNP','lif'],
    ['Health','NNP','heal'],
    ['Sports','NNP','sport'],
    ['Arts','NNP','art'],
    ['Faithworld','NNP','faithworld'],
    ['Entertainment','NNP','entertain'],
    ['Oddly','NNP','od'],
    ['Enough','NNP','enough'],
    ['Cancer','NNP','cant'],
    ['in','IN','in'],
    {
      tag:'ORGANIZATION',
      content:
      [
        ['Context','NNP','context'],
        ['Lifestyle','NNP','lifestyl'],
        ['Video','NNP','video'],
        ['Pictures','NNP','pict'],
        ['Pictures','NNP','pict'],
        ['Home','NNP','hom'],
        ['Reuters','NNP','reut'],
        ['Photographers','NNP','photograph'],
        ['Full','NNP','ful'],
        ['Focus','NNP','foc'],
        ['Video','NNP','video'],
        ['Reuters','NNP','reut']
      ]
    },
    ['TV','NNP','tv'],
    {
      tag:'ORGANIZATION',
      content:
      [
        ['Reuters','NNP','reut'],
        ['News','NNP','new'],
        ['Article','NNP','artic']
      ]
    }
  ]
}]