[
{
  tag:'S',
  content:
  [
    {
      tag:'GPE',
      content:
      [
        ['Skip','NNP','skip']
      ]
    },
    ['to','TO','to'],
    ['main','VB','main'],
    ['content','NN','cont'],
    ['A','DT','A'],
    ['&','CC','&'],
    {
      tag:'ORGANIZATION',
      content:
      [
        ['ENewsLifeLeisureSportsTechVideo','NNP','enewslifeleisuresportstechvideo'],
        ['Facebook','NNP','facebook']
      ]
    },
    ['Twitter','NNP','twit'],
    ['Google+','NNP','google+'],
    ['Search','NNP','search'],
    ['Login/logout','NNP','login/logout'],
    ['Life','NNP','lif'],
    ['Neighborhoods','NNP','neighb'],
    ['Places','NNPS','plac'],
    ['&','CC','&'],
    ['Faces','NNP','fac'],
    ['A','DT','A'],
    ['Fitz-James','NNP','fitz-james'],
    ['O’Brien','NNP','o’brien'],
    ['Christmas','NNP','christmas'],
    ['with','IN','with'],
    ['all','DT','all'],
    ['the','DT','the'],
    ['horror','NN','hor'],
    ['of','IN','of'],
    ['demonic','JJ','demon'],
    ['manikins','NNS','manikin'],
    ['(',':','('],
    {
      tag:'GPE',
      content:
      [
        ['Photos','NNP','photo']
      ]
    },
    [')',':',')'],
    {
      tag:'ORGANIZATION',
      content:
      [
        ['Comment','NNP','com'],
        ['Share','NNP','shar'],
        ['Facebook','NNP','facebook']
      ]
    },
    ['Twitter','NNP','twit'],
    ['Google+','NNP','google+'],
    ['Email','NNP','email'],
    ['Print','NNP','print'],
    ['See','NNP','see'],
    {
      tag:'ORGANIZATION',
      content:
      [
        ['alsoBooks','NNP','alsobook']
      ]
    },
    ['and','CC','and'],
    ['authors','NNS','auth'],
    {
      tag:'ORGANIZATION',
      content:
      [
        ['Books','NNPS','book']
      ]
    },
    ['and','CC','and'],
    ['literature','NN','lit'],
    {
      tag:'GPE',
      content:
      [
        ['American','NNP','am']
      ]
    },
    ['writers','NNS','writ'],
    ['A','DT','A'],
    ['Brief','NNP','brief'],
    ['History','NNP','hist'],
    ['Book','NNP','book'],
    ['Reviews','NNP','review'],
    ['Writers','NNPS','writ'],
    ['and','CC','and'],
    {
      tag:'PERSON',
      content:
      [
        ['Books','NNP','book'],
        ['Peter','NNP','pet'],
        ['Macdiarmid','NNP','macdiarmid']
      ]
    },
    [':',':',':'],
    ['Getty','NNP','getty'],
    ['Images','NNPS','im'],
    ['The','NNP','the'],
    {
      tag:'ORGANIZATION',
      content:
      [
        ['Wondersmith','NNP','wondersmi']
      ]
    },
    ['-',':','-'],
    ['a','DT','a'],
    {
      tag:'GPE',
      content:
      [
        ['Gothic','NNP','goth']
      ]
    },
    ['interpretation','NN','interpret'],
    ['of','IN','of'],
    {
      tag:'ORGANIZATION',
      content:
      [
        ['Christmas','NNP','christmas']
      ]
    },
    ['figurines','NNS','figurin'],
    ['and','CC','and'],
    ['manikins..','NNP','manikins..'],
    {
      tag:'PERSON',
      content:
      [
        ['Peter','NNP','pet'],
        ['Macdiarmid','NNP','macdiarmid']
      ]
    },
    [':',':',':'],
    ['Getty','NNP','getty'],
    ['Images','NNPS','im'],
    ['Heather','NNP','heath'],
    {
      tag:'ORGANIZATION',
      content:
      [
        ['VallanceToronto','NNP','vallancetoronto'],
        ['History','NNP','hist'],
        ['Examiner','NNP','examin'],
        ['Subscribe','NNP','subscrib']
      ]
    },
    ['Follow','NNP','follow'],
    [':',':',':'],
    ['Advertisement','NNP','advert'],
    ['November','NNP','novemb'],
    ['17','CD','17'],
    [',',',',','],
    ['2010','CD','2010'],
    ['The','DT','The'],
    {
      tag:'ORGANIZATION',
      content:
      [
        ['Wondersmith','NNP','wondersmi']
      ]
    },
    ['is','VBZ','be'],
    ['a','DT','a'],
    ['perfect','NN','perfect'],
    ['story','NN','story'],
    ['for','IN','for'],
    ['those','DT','those'],
    ['who','WP','who'],
    ['dread','RB','dread'],
    ['the','DT','the'],
    ['annual','JJ','an'],
    ['re-release','NN','re-releas'],
    ['of','IN','of'],
    ['A','DT','A'],
    ['Christmas','NNP','christmas'],
    ['Carol','NNP','carol'],
    ['.','.','.']
  ]
},
{
  tag:'S',
  content:
  [
    ['Fitz-James','NNS','fitz-james'],
    ['O’Brien','VBP','o’brien'],
    ['applies','NNS','apply'],
    ['his','PRP$','his'],
    ['darkly','JJ','dark'],
    ['visual','JJ','vis'],
    ['prose','NN','pros'],
    ['to','TO','to'],
    ['a','DT','a'],
    ['father’s','JJ','father’s'],
    ['quest','NN','quest'],
    ['for','IN','for'],
    ['revenge','NN','reveng'],
    [',',',',','],
    ['leading','VBG','lead'],
    ['his','PRP$','his'],
    ['readers','NNS','read'],
    ['into','IN','into'],
    ['a','DT','a'],
    ['plot','NN','plot'],
    ['to','TO','to'],
    ['kill','VB','kil'],
    ['all','DT','all'],
    {
      tag:'GPE',
      content:
      [
        ['Christian','NNP','christian']
      ]
    },
    ['children','NNS','child'],
    ['.','.','.']
  ]
},
{
  tag:'S',
  content:
  [
    ['The','DT','The'],
    ['vehicle','NN','vehic'],
    ['of','IN','of'],
    ['revenge','NN','reveng'],
    ['is','VBZ','be'],
    ['an','DT','an'],
    ['army','NN','army'],
    ['of','IN','of'],
    ['manikins','NNS','manikin'],
    ['animated','VBN','anim'],
    ['by','IN','by'],
    ['demonic','JJ','demon'],
    ['souls','NNS','soul'],
    ['and','CC','and'],
    ['equipped','VBD','equip'],
    ['with','IN','with'],
    ['poison','NN','poison'],
    ['tipped','VBD','tip'],
    ['weapons','NNS','weapon'],
    ['.','.','.']
  ]
},
{
  tag:'S',
  content:
  [
    {
      tag:'GPE',
      content:
      [
        ['Diabolical','JJ','diabol']
      ]
    },
    ['genius','NN','geni'],
    {
      tag:'PERSON',
      content:
      [
        ['Herr','NNP','her'],
        ['Hippe','NNP','hip']
      ]
    },
    ['and','CC','and'],
    ['three','CD','three'],
    ['other','JJ','oth'],
    ['marginally','RB','margin'],
    ['mystical','JJ','myst'],
    ['characters','NNS','charact'],
    ['concoct','VBP','concoct'],
    ['a','DT','a'],
    ['plot','NN','plot'],
    ['to','TO','to'],
    ['avenge','VB','aveng'],
    ['the','DT','the'],
    ['loss','NN','loss'],
    ['of','IN','of'],
    ['his','PRP$','his'],
    ['son','NN','son'],
    ['to','TO','to'],
    ['alcohol','NN','alcohol'],
    ['.','.','.']
  ]
},
{
  tag:'S',
  content:
  [
    ['One','CD','One'],
    ['of','IN','of'],
    ['the','DT','the'],
    ['accomplices','NNS','accompl'],
    ['is','VBZ','be'],
    ['able','JJ','abl'],
    ['to','TO','to'],
    ['extract','VB','extract'],
    ['evil','JJ','evil'],
    ['souls','NNS','soul'],
    ['from','IN','from'],
    ['bodies','NNS','body'],
    ['and','CC','and'],
    ['bottle','NN','bottl'],
    ['these','DT','these'],
    ['for','IN','for'],
    ['later','JJ','lat'],
    ['use','NN','us'],
    ['.','.','.']
  ]
},
{
  tag:'S',
  content:
  [
    {
      tag:'PERSON',
      content:
      [
        ['Herr','NNP','her']
      ]
    },
    ['Hippe’s','NNP','hippe’s'],
    ['carved','VBD','carv'],
    ['manikins','NNS','manikin'],
    ['become','VBP','becom'],
    ['the','DT','the'],
    ['new','JJ','new'],
    ['owners','NNS','own'],
    ['of','IN','of'],
    ['the','DT','the'],
    ['souls','NNS','soul'],
    ['.','.','.']
  ]
},
{
  tag:'S',
  content:
  [
    ['Once','RB','ont'],
    ['animated','VBD','anim'],
    [',',',',','],
    ['the','DT','the'],
    ['manikins','NNS','manikin'],
    ['are','VBP','be'],
    ['taken','VBN','tak'],
    ['to','TO','to'],
    ['a','DT','a'],
    ['bird','NN','bird'],
    ['shop','NN','shop'],
    ['for','IN','for'],
    ['a','DT','a'],
    ['test','NN','test'],
    ['run','VBN','run'],
    ['.','.','.']
  ]
},
{
  tag:'S',
  content:
  [
    ['The','DT','The'],
    ['climactic','JJ','climact'],
    ['power','NN','pow'],
    ['of','IN','of'],
    ['The','DT','The'],
    {
      tag:'ORGANIZATION',
      content:
      [
        ['Wondersmith','NNP','wondersmi']
      ]
    },
    ['lies','VBZ','lie'],
    ['in','IN','in'],
    ['O’Brien’s','JJ','o’brien’s'],
    ['description','NN','describ'],
    ['of','IN','of'],
    ['the','DT','the'],
    ['manikins’','JJ','manikins’'],
    ['rampage','NN','ramp'],
    ['through','IN','through'],
    ['the','DT','the'],
    ['aviary','JJ','avy'],
    ['.','.','.']
  ]
},
{
  tag:'S',
  content:
  [
    ['The','DT','The'],
    ['carnage','NN','carn'],
    ['is','VBZ','be'],
    ['counterbalanced','VBN','counterb'],
    ['by','IN','by'],
    ['a','DT','a'],
    ['handicapped','JJ','handicap'],
    ['boy’s','JJ','boy’s'],
    ['love','NN','lov'],
    ['for','IN','for'],
    ['the','DT','the'],
    ['daughter','NN','daught'],
    ['of','IN','of'],
    ['the','DT','the'],
    ['man','NN','man'],
    ['whom','WP','whom'],
    {
      tag:'PERSON',
      content:
      [
        ['Herr','NNP','her'],
        ['Hippe','NNP','hip']
      ]
    },
    ['blames','VBZ','blam'],
    ['for','IN','for'],
    ['his','PRP$','his'],
    ['son’s','JJ','son’s'],
    ['death','NN','dea'],
    ['.','.','.']
  ]
},
{
  tag:'S',
  content:
  [
    ['O’Brien','JJ','o’brien'],
    ['does','VBZ','do'],
    ['not','RB','not'],
    ['have','VB','hav'],
    ['the','DT','the'],
    ['artistic','JJ','art'],
    ['mind','NN','mind'],
    ['for','IN','for'],
    ['romance','NN','rom'],
    ['.','.','.']
  ]
},
{
  tag:'S',
  content:
  [
    ['His','PRP$','His'],
    ['secondary','JJ','second'],
    ['plot','NN','plot'],
    ['panders','NNS','pand'],
    ['to','TO','to'],
    ['the','DT','the'],
    {
      tag:'GPE',
      content:
      [
        ['Victorian','NNP','vict']
      ]
    },
    ['reader','NN','read'],
    ['who','WP','who'],
    ['would','MD','would'],
    ['otherwise','VB','otherw'],
    ['have','VB','hav'],
    ['been','VBN','be'],
    ['outraged','VBN','out'],
    ['by','IN','by'],
    ['the','DT','the'],
    ['violence','NN','viol'],
    ['in','IN','in'],
    ['the','DT','the'],
    ['main','JJ','main'],
    ['plot','NN','plot'],
    [',',',',','],
    ['suggesting','VBG','suggest'],
    ['that','IN','that'],
    ['O'Brien','JJ','o'brien'],
    ['was','VBD','be'],
    ['a','DT','a'],
    ['savvy','NN','savvy'],
    ['professional','JJ','profess'],
    ['writer','NN','writ'],
    ['who','WP','who'],
    ['understood','NN','understood'],
    ['that','IN','that'],
    ['income','NN','incom'],
    ['comes','VBZ','com'],
    ['first','JJ','first'],
    ['.','.','.']
  ]
},
{
  tag:'S',
  content:
  [
    ['Despite','IN','Despite'],
    ['this','DT','this'],
    [',',',',','],
    ['the','DT','the'],
    ['success','NN','success'],
    ['of','IN','of'],
    ['a','DT','a'],
    ['horror','NN','hor'],
    ['story','NN','story'],
    ['lies','NNS','lie'],
    ['in','IN','in'],
    ['its','PRP$','its'],
    ['aftermath','NN','afterma'],
    [',',',',','],
    ['and','CC','and'],
    ['The','DT','The'],
    {
      tag:'ORGANIZATION',
      content:
      [
        ['Wondersmith','NNP','wondersmi']
      ]
    },
    ['still','RB','stil'],
    ['has','VBZ','hav'],
    ['the','DT','the'],
    ['power','NN','pow'],
    ['to','TO','to'],
    ['leave','VB','leav'],
    ['its','PRP$','its'],
    ['readers','NNS','read'],
    ['with','IN','with'],
    ['a','DT','a'],
    ['subliminal','JJ','sublimin'],
    ['fear','NN','fear'],
    ['of','IN','of'],
    ['the','DT','the'],
    ['gaudy','NN','gaudy'],
    ['figurines','NNS','figurin'],
    ['and','CC','and'],
    ['manikins','NNS','manikin'],
    ['which','WDT','which'],
    ['decorate','JJ','dec'],
    ['traditional','JJ','tradit'],
    ['Christmas','NNP','christmas'],
    ['trees','NNS','tre'],
    ['.','.','.']
  ]
},
{
  tag:'S',
  content:
  [
    ['Fitz-James','NNS','fitz-james'],
    ['O’Brien','VBP','o’brien'],
    ['Fitz-James','NNS','fitz-james'],
    ['O'Brien','-NONE-','O'Brien'],
    ['was','VBD','be'],
    ['born','VBN','bear'],
    ['in','IN','in'],
    ['1828','CD','1828'],
    ['in','IN','in'],
    {
      tag:'GPE',
      content:
      [
        ['County','NNP','county'],
        ['Cork','NNP','cork']
      ]
    },
    [',',',',','],
    {
      tag:'GPE',
      content:
      [
        ['Ireland','NNP','ireland']
      ]
    },
    [',',',',','],
    ['to','TO','to'],
    ['an','DT','an'],
    ['Anglo-Irish','JJ','anglo-irish'],
    ['landholding','NN','landhold'],
    ['family','NN','famy'],
    ['.','.','.']
  ]
},
{
  tag:'S',
  content:
  [
    ['He','PRP','He'],
    ['moved','VBD','mov'],
    ['to','TO','to'],
    {
      tag:'GPE',
      content:
      [
        ['England','NNP','england']
      ]
    },
    ['where','WRB','where'],
    ['he','PRP','he'],
    ['squandered','VBD','squand'],
    ['his','PRP$','his'],
    ['inheritance','NN','inherit'],
    ['before','IN','before'],
    ['emigrating','VBG','emigr'],
    ['to','TO','to'],
    ['the','DT','the'],
    {
      tag:'GPE',
      content:
      [
        ['United','NNP','unit'],
        ['States','NNPS','stat']
      ]
    },
    ['.','.','.']
  ]
},
{
  tag:'S',
  content:
  [
    ['O’Brien','JJ','o’brien'],
    ['settled','VBN','settl'],
    ['in','IN','in'],
    {
      tag:'GPE',
      content:
      [
        ['New','NNP','new'],
        ['York','NNP','york']
      ]
    },
    ['in','IN','in'],
    ['1852','CD','1852'],
    [',',',',','],
    ['and','CC','and'],
    ['is','VBZ','be'],
    ['remembered','VBN','rememb'],
    ['as','RB','as'],
    ['a','DT','a'],
    ['poet','NN','poet'],
    ['and','CC','and'],
    ['short','JJ','short'],
    ['story','NN','story'],
    ['writer','NN','writ'],
    ['.','.','.']
  ]
},
{
  tag:'S',
  content:
  [
    ['He','PRP','He'],
    ['published','VBD','publ'],
    ['The','DT','The'],
    {
      tag:'GPE',
      content:
      [
        ['Wonderland','NNP','wonderland']
      ]
    },
    ['in','IN','in'],
    ['the','DT','the'],
    {
      tag:'ORGANIZATION',
      content:
      [
        ['Atlantic','NNP','atl'],
        ['Monthly','NNP','month']
      ]
    },
    ['in','IN','in'],
    ['1859','CD','1859'],
    ['.','.','.']
  ]
},
{
  tag:'S',
  content:
  [
    ['At','IN','At'],
    ['the','DT','the'],
    ['start','NN','start'],
    ['of','IN','of'],
    ['the','DT','the'],
    {
      tag:'ORGANIZATION',
      content:
      [
        ['American','NNP','am']
      ]
    },
    ['Civil','NNP','civil'],
    ['War','NNP','war'],
    [',',',',','],
    ['O’Brien','JJ','o’brien'],
    ['joined','VBN','join'],
    ['the','DT','the'],
    {
      tag:'ORGANIZATION',
      content:
      [
        ['Union','NNP','un'],
        ['Army','NNP','army']
      ]
    },
    ['.','.','.']
  ]
},
{
  tag:'S',
  content:
  [
    ['He','PRP','He'],
    ['died','VBD','die'],
    ['from','IN','from'],
    ['wound-related','JJ','wound-relat'],
    ['complications','NNS','comply'],
    ['in','IN','in'],
    ['1862','CD','1862'],
    ['.','.','.']
  ]
},
{
  tag:'S',
  content:
  [
    {
      tag:'GPE',
      content:
      [
        ['Suggested','NNP','suggest']
      ]
    },
    ['by','IN','by'],
    ['the','DT','the'],
    ['author','NN','auth'],
    ['Forgotten','NNP','forgot'],
    ['horror','NN','hor'],
    ['stories','NNS','story'],
    ['The','DT','The'],
    ['gate','NN','gat'],
    ['to','TO','to'],
    ['women’s','NNP','women’s'],
    ['country','NN','country'],
    ['The','DT','The'],
    ['vertical','JJ','vert'],
    ['plane','NN','plan'],
    ['a','DT','a'],
    ['hoax','NN','hoax'],
    [',',',',','],
    ['paranormal','JJ','paranorm'],
    ['experience','NN','expery'],
    ['or','CC','or'],
    ['study','NN','study'],
    ['in','IN','in'],
    ['physics','NN','phys'],
    {
      tag:'PERSON',
      content:
      [
        ['Cold','NNP','cold'],
        ['Comfort','NNP','comfort'],
        ['Farm','NNP','farm']
      ]
    },
    ['still','RB','stil'],
    ['warms','VBZ','warm'],
    ['a','DT','a'],
    ['winter','NN','wint'],
    ['evening','NN','ev'],
    {
      tag:'PERSON',
      content:
      [
        ['Harbor','NNP','harb'],
        ['Jim','NNP','jim']
      ]
    },
    ['of','IN','of'],
    {
      tag:'GPE',
      content:
      [
        ['Newfoundland','NNP','newfoundland']
      ]
    },
    ['Report','NNP','report'],
    ['this','DT','this'],
    ['content','NN','cont'],
    ['Comments','VBZ','com'],
    ['Advertisement','NNP','advert'],
    ['Next','NNP','next'],
    ['article','NN','artic'],
    {
      tag:'PERSON',
      content:
      [
        ['Syrian','NNP','syr'],
        ['Poet','NNP','poet'],
        ['Adonis','NNP','adon']
      ]
    },
    [':',':',':'],
    ['Snapshot','NNP','snapshot'],
    ['of','IN','of'],
    ['a','DT','a'],
    ['distinguished','JJ','distinct'],
    ['Nobel','NNP','nobel'],
    ['contender','NN','contend'],
    ['Related','NNP','rel'],
    ['slideshow','NN','slideshow'],
    {
      tag:'PERSON',
      content:
      [
        ['Local','NNP','loc']
      ]
    },
    ['author','NN','auth'],
    ['does','VBZ','do'],
    ['reading','NN','read'],
    ['.','.','.']
  ]
},
{
  tag:'S',
  content:
  [
    ['6','CD','6'],
    {
      tag:'PERSON',
      content:
      [
        ['Photos','NNP','photo'],
        ['Advertisement','NNP','advert'],
        ['Popular','NNP','popul']
      ]
    },
    ['in','IN','in'],
    {
      tag:'GPE',
      content:
      [
        ['Places','NNP','plac']
      ]
    },
    ['&','CC','&'],
    {
      tag:'PERSON',
      content:
      [
        ['Faces','NNP','fac'],
        ['National','NNP','nat'],
        ['Boss','NNP','boss']
      ]
    },
    [''s','POS',''s'],
    ['Day','NNP','day'],
    ['2013','CD','2013'],
    [':',':',':'],
    ['Boss','NNP','boss'],
    ['day','NN','day'],
    ['quotes','VBZ','quot'],
    ['and','CC','and'],
    ['sayings','NNS','say'],
    ['for','IN','for'],
    ['cards','NNS','card'],
    [',',',',','],
    ['tweets','NNS','tweet'],
    [',',',',','],
    ['texts','NNS','text'],
    ['9/11','CD','9/11'],
    ['conspiracy','NN','conspir'],
    ['theorist','NN','the'],
    [',',',',','],
    {
      tag:'PERSON',
      content:
      [
        ['Philip','NNP','philip'],
        ['Marshall','NNP','marshal']
      ]
    },
    [',',',',','],
    ['kills','VBZ','kil'],
    ['his','PRP$','his'],
    ['2','CD','2'],
    ['children','NNS','child'],
    [',',',',','],
    ['dog','NN','dog'],
    ['and','CC','and'],
    ['himself','PRP','himself'],
    ['Government','NNP','govern'],
    ['shutdown','NN','shutdown'],
    ['2013','CD','2013'],
    [':',':',':'],
    {
      tag:'PERSON',
      content:
      [
        ['Will','NNP','wil']
      ]
    },
    ['food','NN','food'],
    ['stamps','NNS','stamp'],
    ['benefits','NNS','benefit'],
    ['stop','VBP','stop'],
    ['?','.','?']
  ]
},
{
  tag:'S',
  content:
  [
    {
      tag:'GPE',
      content:
      [
        ['Food','NNP','food']
      ]
    },
    ['stamps','NNS','stamp'],
    ['shut','VBD','shut'],
    ['down','IN','down'],
    [':',':',':'],
    ['EBT','NN','ebt'],
    ['cards','NNS','card'],
    ['not','RB','not'],
    ['working','VBG','work'],
    ['in','IN','in'],
    ['17','CD','17'],
    ['states','NNS','stat'],
    ['When','WRB','When'],
    ['does','VBZ','do'],
    {
      tag:'PERSON',
      content:
      [
        ['Daylight','NNP','daylight'],
        ['Saving','NNP','sav']
      ]
    },
    ['Time','NNP','tim'],
    ['2013','CD','2013'],
    ['end','NN','end'],
    ['?','.','?']
  ]
},
{
  tag:'S',
  content:
  [
    ['Do','NNP','do'],
    ['n't','RB','n't'],
    ['turn','VB','turn'],
    ['clocks','NNS','clock'],
    ['back','RB','back'],
    ['an','DT','an'],
    ['hour','NN','hour'],
    ['yet','RB','yet'],
    ['Load','NNP','load'],
    ['more','RBR','mor'],
    {
      tag:'GPE',
      content:
      [
        ['Latest','NNP','latest']
      ]
    },
    ['in','IN','in'],
    {
      tag:'GPE',
      content:
      [
        ['Places','NNP','plac']
      ]
    },
    ['&','CC','&'],
    {
      tag:'PERSON',
      content:
      [
        ['Faces','NNP','fac']
      ]
    },
    ['October','NNP','octob'],
    ['16','CD','16'],
    [',',',',','],
    ['2013','CD','2013'],
    ['Historic','NNP','hist'],
    {
      tag:'PERSON',
      content:
      [
        ['Columbia','NNP','columb']
      ]
    },
    [''s','POS',''s'],
    {
      tag:'PERSON',
      content:
      [
        ['Swingin','NNP','swingin']
      ]
    },
    ['at','IN','at'],
    ['the','DT','the'],
    ['Big','NNP','big'],
    ['Apple','NNP','appl'],
    ['returns','NNS','return'],
    ['on','IN','on'],
    ['November','NNP','novemb'],
    ['1','CD','1'],
    ['October','NNP','octob'],
    ['16','CD','16'],
    [',',',',','],
    ['2013','CD','2013'],
    ['Free','NNP','fre'],
    [''Breaking','JJ',''breaking'],
    ['Bad','NNP','bad'],
    [''','''','''],
    ['pumpkin','NN','pumpkin'],
    ['carving','VBG','carv'],
    ['stencils','NNS','stencil'],
    [':',':',':'],
    {
      tag:'PERSON',
      content:
      [
        ['Walter','NNP','walt'],
        ['White','NNP','whit']
      ]
    },
    ['and','CC','and'],
    {
      tag:'PERSON',
      content:
      [
        ['Jesse','NNP','jess'],
        ['Pinkman','NNP','pinkm']
      ]
    },
    ['October','NNP','octob'],
    ['16','CD','16'],
    [',',',',','],
    ['2013','CD','2013'],
    ['Must-read','JJ','must-read'],
    {
      tag:'GPE',
      content:
      [
        ['American','JJ','am']
      ]
    },
    ['literature','NN','lit'],
    [':',':',':'],
    ['slave','VB','slav'],
    ['narratives','NNS','nar'],
    ['October','NNP','octob'],
    ['16','CD','16'],
    [',',',',','],
    ['2013','CD','2013'],
    ['Adorable','NNP','ad'],
    ['baby','NN','baby'],
    {
      tag:'PERSON',
      content:
      [
        ['Halloween','NNP','halloween']
      ]
    },
    ['costumes','VBZ','costum'],
    ['create','JJ','cre'],
    ['the','DT','the'],
    ['best','JJS','best'],
    ['photo','NN','photo'],
    ['memories','NNS','mem'],
    ['October','NNP','octob'],
    ['15','CD','15'],
    [',',',',','],
    ['2013','CD','2013'],
    ['Exclusive','NNP','exclud'],
    ['Debut','NNP','debut'],
    ['of','IN','of'],
    {
      tag:'PERSON',
      content:
      [
        ['Aussie','NNP','aussy']
      ]
    },
    ['Duo’s','NNP','duo’s'],
    ['“Fine','NNP','“fine'],
    ['Fine','NNP','fin'],
    ['Life”','NNP','life”'],
    ['Live','NNP','liv'],
    ['Video','NNP','video'],
    ['Today','NNP','today'],
    ['at','IN','at'],
    {
      tag:'ORGANIZATION',
      content:
      [
        ['CBN.com','NNP','cbn.com'],
        ['Load','NNP','load']
      ]
    },
    ['more','JJR','mor'],
    ['Popular','JJ','popul'],
    ['in','IN','in'],
    {
      tag:'GPE',
      content:
      [
        ['National','NNP','nat']
      ]
    },
    ['change','NN','chang'],
    ['location','NN','loc']
  ]
}]