[
{
  tag:'S',
  content:
  [
    {
      tag:'PERSON',
      content:
      [
        ['Real','NNP','real']
      ]
    },
    {
      tag:'ORGANIZATION',
      content:
      [
        ['Estate','NNP','est'],
        ['Rentals','NNP','rent'],
        ['Cars','NNP','car']
      ]
    },
    ['Today','NNP','today'],
    [''s','POS',''s'],
    {
      tag:'PERSON',
      content:
      [
        ['Paper','NNP','pap'],
        ['Going','NNP','going'],
        ['Out','NNP','out'],
        ['Guide','NNP','guid'],
        ['Find','NNP','find']
      ]
    },
    ['&','CC','&'],
    {
      tag:'PERSON',
      content:
      [
        ['Save','NNP','sav'],
        ['Service','NNP','serv'],
        ['Alley','NNP','alley'],
        ['Home','NNP','hom']
      ]
    },
    ['PostTV','NNP','posttv'],
    ['In','NNP','in'],
    ['PostTV','NNP','posttv'],
    ['Politics','NNP','polit'],
    ['In','NNP','in'],
    ['Politics','NNP','polit'],
    {
      tag:'ORGANIZATION',
      content:
      [
        ['Congress','NNP','congress'],
        ['Courts','NNP','court']
      ]
    },
    ['&','CC','&'],
    ['Law','NNP','law'],
    ['The','NNP','the'],
    {
      tag:'ORGANIZATION',
      content:
      [
        ['Fed','NNP','fed'],
        ['Page','NNP','pag']
      ]
    },
    ['Health','NNP','heal'],
    {
      tag:'PERSON',
      content:
      [
        ['Care','NNP','car'],
        ['Polling','NNP','pol']
      ]
    },
    {
      tag:'FACILITY',
      content:
      [
        ['White','NNP','whit'],
        ['House','NNP','hous']
      ]
    },
    ['GovBeat','NNP','govb'],
    ['Md','NNP','md'],
    ['.','.','.']
  ]
},
{
  tag:'S',
  content:
  [
    ['Politics','NNS','polit'],
    ['Va','NNP','va'],
    ['.','.','.']
  ]
},
{
  tag:'S',
  content:
  [
    ['Politics','NNS','polit'],
    ['D.C','VBP','d.c'],
    ['.','.','.']
  ]
},
{
  tag:'S',
  content:
  [
    ['Politics','NNS','polit'],
    ['Blogs','NNS','blog'],
    ['&','CC','&'],
    {
      tag:'PERSON',
      content:
      [
        ['Columns','NNP','column'],
        ['Obama','NNP','obam']
      ]
    },
    ['to','TO','to'],
    ['meet','VB','meet'],
    ['with','IN','with'],
    {
      tag:'GPE',
      content:
      [
        ['Iraq’s','JJ','iraq’s']
      ]
    },
    ['prime','JJ','prim'],
    ['minister','NN','min'],
    ['next','IN','next'],
    ['month','NN','mon'],
    {
      tag:'PERSON',
      content:
      [
        ['Post','NNP','post'],
        ['Politics','NNP','polit']
      ]
    },
    ['|','NNP','|'],
    ['Juliet','NNP','juliet'],
    ['Eilperin','NNP','eilperin'],
    ['A','NNP','a'],
    ['Wednesday','NNP','wednesday'],
    ['election','NN','elect'],
    ['in','IN','in'],
    {
      tag:'GPE',
      content:
      [
        ['New','NNP','new'],
        ['Jersey','NNP','jersey']
      ]
    },
    ['?','.','?']
  ]
},
{
  tag:'S',
  content:
  [
    ['Here’s','NNS','here’s'],
    ['why','WRB','why'],
    ['.','.','.']
  ]
},
{
  tag:'S',
  content:
  [
    ['The','DT','The'],
    {
      tag:'ORGANIZATION',
      content:
      [
        ['Fix','NNP','fix']
      ]
    },
    ['|','NNP','|'],
    ['Sean','NNP','sean'],
    {
      tag:'PERSON',
      content:
      [
        ['Sullivan','NNP','sul']
      ]
    },
    ['Overcoming','NNP','overcom'],
    ['the','DT','the'],
    ['violence','NN','viol'],
    ['of','IN','of'],
    ['faction','NN','fact'],
    ['The','DT','The'],
    {
      tag:'ORGANIZATION',
      content:
      [
        ['Monkey','NNP','monkey'],
        ['Cage','NNP','cag']
      ]
    },
    ['|','NNP','|'],
    {
      tag:'PERSON',
      content:
      [
        ['Andrew','NNP','andrew'],
        ['Rudalevige','NNP','rudalevig'],
        ['Wisconsin','NNP','wisconsin']
      ]
    },
    ['could','MD','could'],
    ['become','VB','becom'],
    ['the','DT','the'],
    ['last','JJ','last'],
    {
      tag:'LOCATION',
      content:
      [
        ['Midwestern','NNP','midwestern']
      ]
    },
    ['state','NN','stat'],
    ['to','TO','to'],
    ['join','VB','join'],
    ['the','DT','the'],
    ['70','CD','70'],
    ['mph','NN','mph'],
    ['club','NN','club'],
    {
      tag:'ORGANIZATION',
      content:
      [
        ['GovBeat','NNP','govb']
      ]
    },
    ['|','NNP','|'],
    ['Niraj','NNP','niras'],
    {
      tag:'PERSON',
      content:
      [
        ['Chokshi','NNP','choksh'],
        ['Furloughed','NNP','furlough']
      ]
    },
    ['employees','NNS','employ'],
    ['typically','RB','typ'],
    ['would','MD','would'],
    ['return','VB','return'],
    ['on','IN','on'],
    ['day','NN','day'],
    ['after','IN','after'],
    ['shutdown','NN','shutdown'],
    ['ends','NNS','end'],
    ['The','DT','The'],
    {
      tag:'ORGANIZATION',
      content:
      [
        ['Federal','NNP','fed'],
        ['Eye','NNP','ey']
      ]
    },
    ['|','NNP','|'],
    {
      tag:'PERSON',
      content:
      [
        ['Eric','NNP','er'],
        ['Yoder','NNP','yod'],
        ['Opinions','NNP','opin']
      ]
    },
    ['In','NNP','in'],
    ['Opinions','NNP','opin'],
    {
      tag:'PERSON',
      content:
      [
        ['Toles','NNP','tol'],
        ['Cartoons','NNP','cartoon'],
        ['Telnaes','NNP','telna']
      ]
    },
    ['Animations','NNP','anim'],
    ['The','NNP','the'],
    {
      tag:'ORGANIZATION',
      content:
      [
        ['Post','NNP','post']
      ]
    },
    [''s','POS',''s'],
    {
      tag:'PERSON',
      content:
      [
        ['View','NNP','view']
      ]
    },
    ['Left-Leaning','NNP','left-leaning'],
    ['Right-Leaning','NNP','right-leaning'],
    ['Local','NNP','loc'],
    ['Opinions','NNP','opin'],
    ['Columnist','NNP','column'],
    ['Index','NNP','index'],
    ['Featured','NNP','feat'],
    ['Blogs','NNP','blog'],
    ['It’s','NNP','it’s'],
    ['always','RB','alway'],
    ['the','DT','the'],
    ['end','NN','end'],
    ['of','IN','of'],
    ['the','DT','the'],
    ['world','NN','world'],
    ['as','IN','as'],
    ['we','PRP','we'],
    ['know','VBP','know'],
    ['it','PRP','it'],
    {
      tag:'ORGANIZATION',
      content:
      [
        ['ComPost','NNP','compost']
      ]
    },
    ['|',':','|'],
    {
      tag:'PERSON',
      content:
      [
        ['Alexandra','NNP','alexandr'],
        ['Petri','NNP','petr'],
        ['Ted','NNP','ted'],
        ['Cruz','NNP','cruz']
      ]
    },
    ['will','MD','will'],
    ['try','VB','try'],
    ['all','DT','all'],
    ['of','IN','of'],
    ['this','DT','this'],
    ['again','NN','again'],
    ['.','.','.']
  ]
},
{
  tag:'S',
  content:
  [
    {
      tag:'PERSON',
      content:
      [
        ['Will','NNP','wil']
      ]
    },
    {
      tag:'PERSON',
      content:
      [
        ['John','NNP','john'],
        ['Boehner','NNP','boehn']
      ]
    },
    ['let','VBD','let'],
    ['him','PRP','him'],
    ['?','.','?']
  ]
},
{
  tag:'S',
  content:
  [
    ['The','DT','The'],
    {
      tag:'ORGANIZATION',
      content:
      [
        ['Plum','NNP','plum'],
        ['Line','NNP','lin']
      ]
    },
    ['|','NNP','|'],
    ['Greg','NNP','greg'],
    {
      tag:'PERSON',
      content:
      [
        ['Sargent','NNP','sarg'],
        ['PostScript','NNP','postscrib']
      ]
    },
    [':',':',':'],
    {
      tag:'PERSON',
      content:
      [
        ['Milbank','NNP','milbank']
      ]
    },
    ['and','CC','and'],
    ['the','DT','the'],
    ['GOP’s','NNP','gop’s'],
    ['dead','NN','dead'],
    ['end','NN','end'],
    {
      tag:'ORGANIZATION',
      content:
      [
        ['PostPartisan','NNP','postpart']
      ]
    },
    ['|','NNP','|'],
    {
      tag:'PERSON',
      content:
      [
        ['Rachel','NNP','rachel'],
        ['Manteuffel','NNP','manteuffel'],
        ['Iran','NNP','ir']
      ]
    },
    ['stalls','VBZ','stal'],
    {
      tag:'PERSON',
      content:
      [
        ['Right','NNP','right'],
        ['Turn','NNP','turn']
      ]
    },
    ['|','NNP','|'],
    ['Jennifer','NNP','jen'],
    {
      tag:'PERSON',
      content:
      [
        ['Rubin','NNP','rubin'],
        ['Local','NNP','loc'],
        ['In','NNP','in'],
        ['Local','NNP','loc'],
        ['D.C.','NNP','d.c.'],
        ['Maryland','NNP','maryland'],
        ['Virginia','NNP','virgin']
      ]
    },
    ['Crime','NNP','crim'],
    ['Education','NNP','educ'],
    ['Obituaries','NNP','obitu'],
    ['Transportation','NNP','transport'],
    ['Weather','NNP','weath'],
    ['Blogs','NNP','blog'],
    ['&','CC','&'],
    {
      tag:'PERSON',
      content:
      [
        ['Columns','NNP','column'],
        ['Blogs','NNP','blog']
      ]
    },
    ['&','CC','&'],
    {
      tag:'PERSON',
      content:
      [
        ['Columns','NNP','column'],
        ['Major','NNP','maj']
      ]
    },
    ['autumn','NN','autumn'],
    ['cold','VBD','cold'],
    ['blast','JJ','blast'],
    ['possible','JJ','poss'],
    ['for','IN','for'],
    ['eastern','NN','eastern'],
    {
      tag:'GPE',
      content:
      [
        ['U.S.','NNP','u.s.']
      ]
    },
    [',',',',','],
    {
      tag:'GPE',
      content:
      [
        ['D.C.','NNP','d.c.']
      ]
    },
    ['in','IN','in'],
    ['8-10','CD','8-10'],
    ['days','NNS','day'],
    {
      tag:'ORGANIZATION',
      content:
      [
        ['Capital','NNP','capit'],
        ['Weather','NNP','weath'],
        ['Gang','NNP','gang']
      ]
    },
    ['|','NNP','|'],
    {
      tag:'PERSON',
      content:
      [
        ['Jason','NNP','jason'],
        ['Samenow','NNP','samenow']
      ]
    },
    ['D.C.’s','NNP','d.c.’s'],
    ['burger','NN','burg'],
    ['scene','NN','scen'],
    ['through','IN','through'],
    ['the','DT','the'],
    ['lens','NNS','len'],
    ['of','IN','of'],
    ['public','JJ','publ'],
    ['television','NN','televid'],
    ['Going','NNP','going'],
    ['Out','NNP','out'],
    ['Guide','NNP','guid'],
    ['|','NNP','|'],
    {
      tag:'PERSON',
      content:
      [
        ['Margaret','NNP','margaret'],
        ['Ely','NNP','ely'],
        ['Man','NNP','man']
      ]
    },
    ['hospitalized','VBD','hospit'],
    ['after','IN','after'],
    ['fall','NN','fal'],
    ['from','IN','from'],
    ['roadway','NN','roadway'],
    ['at','IN','at'],
    {
      tag:'ORGANIZATION',
      content:
      [
        ['Reagan','NNP','reag'],
        ['National','NNP','nat']
      ]
    },
    ['Dr','NNP','dr'],
    ['.','.','.']
  ]
},
{
  tag:'S',
  content:
  [
    {
      tag:'GPE',
      content:
      [
        ['Gridlock','NNP','gridlock']
      ]
    },
    ['|',':','|'],
    {
      tag:'PERSON',
      content:
      [
        ['Lori','NNP','lor'],
        ['Aratani','NNP','aratan'],
        ['Sports','NNP','sport'],
        ['In','NNP','in'],
        ['Sports','NNP','sport']
      ]
    },
    ['Redskins/NFL','NNP','redskins/nfl'],
    ['Capitals/NHL','NNP','capitals/nhl'],
    ['Wizards/NBA','NNP','wizards/nba'],
    ['Nationals/MLB','NNP','nationals/mlb'],
    ['D.C.','NNP','d.c.'],
    ['United/Soccer','NNP','united/soccer'],
    ['Colleges','NNP','colleg'],
    ['AllMetSports','NNP','allmetsport'],
    ['Blogs','NNP','blog'],
    ['&','CC','&'],
    {
      tag:'PERSON',
      content:
      [
        ['Columns','NNP','column'],
        ['Forums','NNP','forum']
      ]
    },
    ['Other','NNP','oth'],
    ['Sports','NNP','sport'],
    ['Blogs','NNP','blog'],
    ['&','CC','&'],
    {
      tag:'PERSON',
      content:
      [
        ['Columns','NNP','column'],
        ['Caps','NNP','cap']
      ]
    },
    ['want','NN','want'],
    ['to','TO','to'],
    ['put','VB','put'],
    ['Rangers','NNS','rang'],
    ['on','IN','on'],
    ['heels','NNS','heel'],
    ['early','RB','ear'],
    ['Capitals','NNS','capit'],
    {
      tag:'PERSON',
      content:
      [
        ['Insider','NNP','insid']
      ]
    },
    ['|','NNP','|'],
    {
      tag:'PERSON',
      content:
      [
        ['Katie','NNP','katy'],
        ['Carrera','NNP','carrer'],
        ['Cousins','NNP','cousin']
      ]
    },
    ['and','CC','and'],
    {
      tag:'GPE',
      content:
      [
        ['Cooley','NNP','cooley']
      ]
    },
    ['fry','NN','fry'],
    ['potatoes','VBZ','potato'],
    {
      tag:'ORGANIZATION',
      content:
      [
        ['DC','NNP','dc'],
        ['Sports','NNP','sport'],
        ['Bog','NNP','bog']
      ]
    },
    ['|','NNP','|'],
    {
      tag:'PERSON',
      content:
      [
        ['Sarah','NNP','sarah'],
        ['Kogod','NNP','kogod'],
        ['Cofield','NNP','cofield']
      ]
    },
    [':',':',':'],
    ['This','DT','This'],
    ['year’s','JJ','year’s'],
    ['team','NN','team'],
    ['is','VBZ','be'],
    ['still','RB','stil'],
    ['better','RBR','wel'],
    ['than','IN','than'],
    ['previous','JJ','prevy'],
    ['years’','NN','years’'],
    ['The','DT','The'],
    {
      tag:'ORGANIZATION',
      content:
      [
        ['Insider','NNP','insid']
      ]
    },
    ['|','NNP','|'],
    {
      tag:'PERSON',
      content:
      [
        ['Mike','NNP','mik'],
        ['Jones','NNP','jon']
      ]
    },
    ['A','NNP','a'],
    ['look','NN','look'],
    ['at','IN','at'],
    ['the','DT','the'],
    ['Nats’','NNP','nats’'],
    ['2014','CD','2014'],
    ['payroll','NN','payrol'],
    ['Nationals','NNS','nat'],
    {
      tag:'PERSON',
      content:
      [
        ['Journal','NNP','journ']
      ]
    },
    ['|','NNP','|'],
    {
      tag:'PERSON',
      content:
      [
        ['James','NNP','jam'],
        ['Wagner','NNP','wagn'],
        ['National','NNP','nat'],
        ['In','NNP','in'],
        ['National','NNP','nat'],
        ['Energy','NNP','energy']
      ]
    },
    ['&','CC','&'],
    {
      tag:'ORGANIZATION',
      content:
      [
        ['Environment','NNP','environ'],
        ['Health','NNP','heal']
      ]
    },
    ['&','CC','&'],
    {
      tag:'PERSON',
      content:
      [
        ['Science','NNP','sci'],
        ['Education','NNP','educ'],
        ['National','NNP','nat'],
        ['Security','NNP','sec'],
        ['Investigations','NNP','investig'],
        ['Innovations','NNP','innov'],
        ['Know','NNP','know'],
        ['More','NNP','mor'],
        ['On','NNP','on'],
        ['Faith','NNP','fai'],
        ['On','NNP','on'],
        ['Leadership','NNP','lead'],
        ['On','NNP','on']
      ]
    },
    ['Giving','NNP','giv'],
    ['Corrections','NNP','correct'],
    ['Blogs','NNP','blog'],
    ['&','CC','&'],
    {
      tag:'PERSON',
      content:
      [
        ['Columns','NNP','column'],
        ['Keeping','NNP','keep']
      ]
    },
    ['federal','JJ','fed'],
    ['workers','NNS','work'],
    ['engaged','VBD','eng'],
    ['On','IN','On'],
    {
      tag:'ORGANIZATION',
      content:
      [
        ['Leadership','NNP','lead']
      ]
    },
    ['|','NNP','|'],
    {
      tag:'PERSON',
      content:
      [
        ['Tom','NNP','tom'],
        ['Fox','NNP','fox'],
        ['Tech','NNP','tech']
      ]
    },
    ['companies','NNS','company'],
    ['must','MD','must'],
    ['fix','VB','fix'],
    ['the','DT','the'],
    ['gender','NN','gend'],
    ['imbalance','NN','imb'],
    ['Innovations','NNS','innov'],
    ['|',':','|'],
    {
      tag:'PERSON',
      content:
      [
        ['Vivek','NNP','vivek'],
        ['Wadhwa','NNP','wadhw'],
        ['Confederate','NNP','conf']
      ]
    },
    ['flag','NN','flag'],
    ['in','IN','in'],
    ['front','NN','front'],
    ['of','IN','of'],
    {
      tag:'FACILITY',
      content:
      [
        ['White','NNP','whit'],
        ['House','NNP','hous']
      ]
    },
    ['?','.','?']
  ]
},
{
  tag:'S',
  content:
  [
    ['Our','PRP$','Our'],
    ['politics','NNS','polit'],
    ['as','IN','as'],
    ['war','NN','war'],
    ['by','IN','by'],
    ['other','JJ','oth'],
    ['means','NNS','mean'],
    ['On','IN','On'],
    {
      tag:'PERSON',
      content:
      [
        ['Faith','NNP','fai']
      ]
    },
    ['|','NNP','|'],
    {
      tag:'PERSON',
      content:
      [
        ['Susan','NNP','sus'],
        ['Brooks','NNP','brook']
      ]
    },
    ['Thistlethwaite','NNP','thistlethwait'],
    ['S.D.’s','NNP','s.d.’s'],
    ['Noem','NNP','noem'],
    ['wants','VBZ','want'],
    ['FEMA’s','JJ','fema’s'],
    ['help','NN','help'],
    ['after','IN','after'],
    ['blizzard','NN','blizzard'],
    [',',',',','],
    ['despite','IN','despite'],
    ['supporting','NN','support'],
    ['shutdown','NN','shutdown'],
    ['She','PRP','She'],
    ['The','DT','The'],
    {
      tag:'ORGANIZATION',
      content:
      [
        ['People','NNP','peopl']
      ]
    },
    ['|','NNP','|'],
    {
      tag:'PERSON',
      content:
      [
        ['Joann','NNP','joan'],
        ['Weiner','NNP','wein']
      ]
    },
    ['World','NNP','world'],
    ['In','NNP','in'],
    ['World','NNP','world'],
    ['Africa','NNP','afric'],
    ['The','NNP','the'],
    {
      tag:'ORGANIZATION',
      content:
      [
        ['Americas','NNP','america'],
        ['Asia','NNP','as']
      ]
    },
    ['&','CC','&'],
    {
      tag:'PERSON',
      content:
      [
        ['Pacific','NNP','pac'],
        ['Europe','NNP','europ']
      ]
    }
  ]
}]