[
{
  tag:'S',
  content:
  [
    {
      tag:'GPE',
      content:
      [
        ['Jump','NNP','jump']
      ]
    },
    ['to','TO','to'],
    ['main','VB','main'],
    ['content','NN','cont'],
    {
      tag:'ORGANIZATION',
      content:
      [
        ['News','NNP','new'],
        ['Sport','NNP','sport'],
        ['Weather','NNP','weath']
      ]
    },
    ['forecast','NN','forecast'],
    ['Mobile','NNP','mobl'],
    ['site','NN','sit'],
    ['E-Newsletters','NNS','e-newsletters'],
    {
      tag:'PERSON',
      content:
      [
        ['News','NNP','new']
      ]
    },
    ['feed','VBD','fee'],
    ['Find','NNP','find'],
    ['us','PRP','us'],
    ['on','IN','on'],
    {
      tag:'PERSON',
      content:
      [
        ['Twitter','NNP','twit']
      ]
    },
    ['@','NNP','@'],
    ['lancstelegraphNews','NNP','lancstelegraphnew'],
    [',',',',','],
    ['sport','NN','sport'],
    ['and','CC','and'],
    ['entertainment','NN','entertain'],
    ['from','IN','from'],
    ['all','DT','all'],
    ['over','IN','over'],
    {
      tag:'GPE',
      content:
      [
        ['East','JJ','east']
      ]
    },
    {
      tag:'ORGANIZATION',
      content:
      [
        ['Lancashire','NNP','lancashir']
      ]
    },
    ['@','NNP','@'],
    ['blackburnroversAll','NNP','blackburnroversal'],
    ['the','DT','the'],
    ['latest','JJS','lat'],
    ['news','NN','new'],
    ['from','IN','from'],
    {
      tag:'ORGANIZATION',
      content:
      [
        ['Blackburn','NNP','blackburn'],
        ['Rovers','NNP','rov']
      ]
    },
    ['@','NNP','@'],
    ['burnleyfcAll','NNP','burnleyfcal'],
    ['the','DT','the'],
    ['latest','JJS','lat'],
    ['news','NN','new'],
    ['from','IN','from'],
    ['the','DT','the'],
    {
      tag:'ORGANIZATION',
      content:
      [
        ['Clarets','NNPS','claret']
      ]
    },
    ['@','NNP','@'],
    ['lt_blackburnLatest','NNP','lt_blackburnlatest'],
    ['news','NN','new'],
    ['from','IN','from'],
    {
      tag:'ORGANIZATION',
      content:
      [
        ['Blackburn','NNP','blackburn']
      ]
    },
    ['@','NNP','@'],
    ['lt_burnleyLatest','NNP','lt_burnleylatest'],
    ['news','NN','new'],
    ['from','IN','from'],
    {
      tag:'PERSON',
      content:
      [
        ['Burnley','NNP','burnley']
      ]
    },
    ['@','NNP','@'],
    {
      tag:'ORGANIZATION',
      content:
      [
        ['lt_darwenLatest','NNP','lt_darwenlatest']
      ]
    },
    ['news','NN','new'],
    ['from','IN','from'],
    {
      tag:'PERSON',
      content:
      [
        ['Darwen','NNP','darw']
      ]
    },
    ['@','NNP','@'],
    ['lt_hyndburnLatest','NNP','lt_hyndburnlatest'],
    ['news','NN','new'],
    ['from','IN','from'],
    {
      tag:'ORGANIZATION',
      content:
      [
        ['Hyndburn','NNP','hyndburn']
      ]
    },
    ['@','NNP','@'],
    {
      tag:'ORGANIZATION',
      content:
      [
        ['lt_pendleLatest','NNP','lt_pendlelatest']
      ]
    },
    ['news','NN','new'],
    ['from','IN','from'],
    {
      tag:'PERSON',
      content:
      [
        ['Pendle','NNP','pendl']
      ]
    },
    ['@','NNP','@'],
    ['lt_ribblevalleyLatest','NNP','lt_ribblevalleylatest'],
    ['news','NN','new'],
    ['from','IN','from'],
    {
      tag:'PERSON',
      content:
      [
        ['Ribble','NNP','ribbl'],
        ['Valley','NNP','valley']
      ]
    },
    ['@','NNP','@'],
    {
      tag:'ORGANIZATION',
      content:
      [
        ['lt_rossendaleLatest','NNP','lt_rossendalelatest']
      ]
    },
    ['news','NN','new'],
    ['from','IN','from'],
    {
      tag:'ORGANIZATION',
      content:
      [
        ['RossendaleFind','NNP','rossendalefind']
      ]
    },
    ['us','PRP','us'],
    ['on','IN','on'],
    {
      tag:'ORGANIZATION',
      content:
      [
        ['FacebookThe','NNP','facebookth'],
        ['Lancashire','NNP','lancashir']
      ]
    },
    ['TelegraphNews','NNP','telegraphnew'],
    [',',',',','],
    ['sport','NN','sport'],
    ['and','CC','and'],
    ['entertainment','NN','entertain'],
    ['from','IN','from'],
    ['all','DT','all'],
    ['over','IN','over'],
    {
      tag:'GPE',
      content:
      [
        ['East','JJ','east']
      ]
    },
    {
      tag:'ORGANIZATION',
      content:
      [
        ['Lancashire','NNP','lancashir'],
        ['Site','NNP','sit']
      ]
    },
    ['map','NN','map'],
    {
      tag:'PERSON',
      content:
      [
        ['Register','NNP','reg'],
        ['Log','NNP','log']
      ]
    },
    ['in','IN','in'],
    {
      tag:'GPE',
      content:
      [
        ['Tragedy','NNP','tragedy']
      ]
    },
    ['and','CC','and'],
    ['action','NN','act'],
    ['in','IN','in'],
    {
      tag:'GPE',
      content:
      [
        ['Andrea','NNP','andre'],
        ['Camilleri','NNP','camiller']
      ]
    },
    [''s','POS',''s'],
    ['Inspector','NNP','inspect'],
    ['Montalbano','NNP','montalbano'],
    ['novel','NN','novel'],
    ['(',':','('],
    ['From','IN','From'],
    {
      tag:'ORGANIZATION',
      content:
      [
        ['Lancashire','NNP','lancashir'],
        ['Telegraph','NNP','telegraph']
      ]
    },
    [')','NNP',')'],
    ['When','NNP','when'],
    ['news','NN','new'],
    ['happens','VBZ','hap'],
    [',',',',','],
    ['text','NN','text'],
    ['LT','NNP','lt'],
    ['and','CC','and'],
    ['your','PRP$','your'],
    ['photos','NNS','photo'],
    ['and','CC','and'],
    ['videos','NNS','video'],
    ['to','TO','to'],
    ['80360','CD','80360'],
    ['.','.','.']
  ]
},
{
  tag:'S',
  content:
  [
    ['Or','CC','Or'],
    ['contact','VBP','contact'],
    ['us','PRP','us'],
    ['by','IN','by'],
    ['email','NN','email'],
    ['or','CC','or'],
    ['phone','NN','phon'],
    ['.','.','.']
  ]
},
{
  tag:'S',
  content:
  [
    {
      tag:'GPE',
      content:
      [
        ['Search','NNP','search']
      ]
    },
    [':',':',':'],
    ['News','NNP','new'],
    ['Sport','NNP','sport'],
    ['Leisure','NNP','leis'],
    ['Info','NNP','info'],
    ['Forum','NNP','for'],
    ['Videos','NNP','video'],
    {
      tag:'PERSON',
      content:
      [
        ['Photos','NNP','photo'],
        ['Opinion','NNP','opin'],
        ['Advertise','NNP','advert'],
        ['Buy','NNP','buy']
      ]
    },
    ['&','CC','&'],
    {
      tag:'ORGANIZATION',
      content:
      [
        ['Sell','NNP','sel']
      ]
    },
    {
      tag:'ORGANIZATION',
      content:
      [
        ['Click2find','NNP','click2find']
      ]
    },
    ['Dating','NNP','dat'],
    {
      tag:'PERSON',
      content:
      [
        ['Cars','NNP','car'],
        ['Homes','NNP','hom'],
        ['Jobs','NNP','job']
      ]
    },
    ['ReviewsMusic','NNP','reviewsmus'],
    ['Stage','NNP','stag'],
    ['Days','NNP','day'],
    ['out','IN','out'],
    {
      tag:'PERSON',
      content:
      [
        ['Cinema','NNP','cinem'],
        ['Television','NNP','televid'],
        ['Restaurants','NNP','resta'],
        ['Books','NNP','book']
      ]
    },
    ['Computer','NNP','comput'],
    ['games','NNS','gam'],
    {
      tag:'PERSON',
      content:
      [
        ['Travel','NNP','travel'],
        ['Lancashire','NNP','lancashir'],
        ['Telegraph','NNP','telegraph']
      ]
    },
    ['»','NNP','»'],
    ['Leisure','NNP','leis'],
    ['»','NNP','»'],
    ['Reviews','NNP','review'],
    ['»','NNP','»'],
    ['Reviews','NNP','review'],
    ['RSS','NNP','rss'],
    ['Feed','NNP','fee'],
    ['Send','NNP','send'],
    ['your','PRP$','your'],
    ['news','NN','new'],
    [',',',',','],
    ['pictures','NNS','pict'],
    ['&','CC','&'],
    ['videos','NNS','video'],
    {
      tag:'PERSON',
      content:
      [
        ['Tragedy','NNP','tragedy']
      ]
    },
    ['and','CC','and'],
    ['action','NN','act'],
    ['in','IN','in'],
    {
      tag:'GPE',
      content:
      [
        ['Andrea','NNP','andre'],
        ['Camilleri','NNP','camiller']
      ]
    },
    [''s','POS',''s'],
    ['Inspector','NNP','inspect'],
    ['Montalbano','NNP','montalbano'],
    ['novel','NN','novel'],
    ['4:14pm','CD','4:14pm'],
    ['Wednesday','NNP','wednesday'],
    ['25th','CD','25th'],
    ['September','NNP','septemb'],
    ['2013','CD','2013'],
    ['in','IN','in'],
    {
      tag:'GPE',
      content:
      [
        ['Reviews','NNP','review']
      ]
    },
    ['By','NNP','by'],
    {
      tag:'PERSON',
      content:
      [
        ['Andrew','NNP','andrew'],
        ['Thomas','NNP','thoma']
      ]
    },
    [',',',',','],
    ['Head','NNP','head'],
    ['of','IN','of'],
    ['content','NN','cont'],
    {
      tag:'PERSON',
      content:
      [
        ['Tragedy','NNP','tragedy']
      ]
    },
    ['and','CC','and'],
    ['action','NN','act'],
    ['in','IN','in'],
    {
      tag:'GPE',
      content:
      [
        ['Andrea','NNP','andre'],
        ['Camilleri','NNP','camiller']
      ]
    },
    [''s','POS',''s'],
    ['Inspector','NNP','inspect'],
    ['Montalbano','NNP','montalbano'],
    ['novel','NN','novel'],
    ['The','DT','The'],
    {
      tag:'ORGANIZATION',
      content:
      [
        ['Age','NNP','ag'],
        ['Of','NNP','of'],
        ['Doubt','NNP','doubt']
      ]
    },
    ['by','IN','by'],
    {
      tag:'PERSON',
      content:
      [
        ['Andrea','NNP','andre'],
        ['Camilleri','NNP','camiller']
      ]
    },
    ['(','NNP','('],
    ['Mantle','NNP','mantl'],
    [',',',',','],
    ['hardback','NN','hardback'],
    ['£16.99','-NONE-','£16.99'],
    [')','.',')'],
    ['Inspector','NNP','inspect'],
    ['Montalbano','NNP','montalbano'],
    [',',',',','],
    {
      tag:'PERSON',
      content:
      [
        ['Camilleri','NNP','camiller']
      ]
    },
    [''s','POS',''s'],
    ['great','JJ','gre'],
    ['detective','JJ','detect'],
    ['creation','NN','cre'],
    [',',',',','],
    ['is','VBZ','be'],
    ['always','RB','alway'],
    ['good','JJ','good'],
    ['company','NN','company'],
    [',',',',','],
    ['whether','IN','whether'],
    ['he','PRP','he'],
    ['is','VBZ','be'],
    ['worrying','VBG','worry'],
    ['about','IN','about'],
    ['his','PRP$','his'],
    ['relationships','NNS','rel'],
    [',',',',','],
    ['trying','VBG','try'],
    ['to','TO','to'],
    ['avoid','VB','avoid'],
    ['the','DT','the'],
    ['dreaded','VBN','dread'],
    {
      tag:'ORGANIZATION',
      content:
      [
        ['Commissioner','NNP','commit']
      ]
    },
    ['or','CC','or'],
    ['enjoying','VBG','enjoy'],
    ['a','DT','a'],
    ['meal','NN','meal'],
    ['at','IN','at'],
    ['one','CD','one'],
    ['of','IN','of'],
    ['his','PRP$','his'],
    ['favourite','JJ','favourit'],
    ['restaurants','NNS','resta'],
    ['.','.','.']
  ]
},
{
  tag:'S',
  content:
  [
    ['I','PRP','I'],
    ['tend','VBP','tend'],
    ['not','RB','not'],
    ['to','TO','to'],
    ['read','VB','read'],
    ['the','DT','the'],
    {
      tag:'ORGANIZATION',
      content:
      [
        ['Montalbano','NNP','montalbano']
      ]
    },
    ['books','VBZ','book'],
    ['for','IN','for'],
    ['their','PRP$','their'],
    ['plots','NNS','plot'],
    [',',',',','],
    ['but','CC','but'],
    ['for','IN','for'],
    ['fresh','JJ','fresh'],
    ['insights','NNS','insight'],
    ['into','IN','into'],
    ['the','DT','the'],
    ['inspector','NN','inspect'],
    ['and','CC','and'],
    ['to','TO','to'],
    ['relish','VB','rel'],
    ['his','PRP$','his'],
    ['interactions','NNS','interact'],
    ['with','IN','with'],
    ['his','PRP$','his'],
    ['work','NN','work'],
    ['colleagues','NNS','colleagu'],
    [',',',',','],
    ['such','JJ','such'],
    ['as','IN','as'],
    {
      tag:'PERSON',
      content:
      [
        ['Inspector','NNP','inspect'],
        ['Augello','NNP','augello']
      ]
    },
    ['and','CC','and'],
    ['the','DT','the'],
    ['comic','JJ','com'],
    {
      tag:'ORGANIZATION',
      content:
      [
        ['Catarella','NNP','catarell']
      ]
    },
    ['.','.','.']
  ]
},
{
  tag:'S',
  content:
  [
    ['And','CC','And'],
    [',',',',','],
    ['of','IN','of'],
    ['course','NN','cours'],
    [',',',',','],
    ['to','TO','to'],
    ['soak','VB','soak'],
    ['up','RP','up'],
    ['the','DT','the'],
    ['atmosphere','NN','atmosph'],
    ['of','IN','of'],
    {
      tag:'GPE',
      content:
      [
        ['Sicily','NNP','sicy']
      ]
    },
    ['and','CC','and'],
    ['to','TO','to'],
    ['enjoy','VB','enjoy'],
    ['that','IN','that'],
    ['feeling','VBG','feel'],
    ['of','IN','of'],
    ['getting','VBG','get'],
    ['lost','VBN','los'],
    ['in','IN','in'],
    ['a','DT','a'],
    ['world','NN','world'],
    ['very','RB','very'],
    ['different','JJ','diff'],
    ['from','IN','from'],
    ['our','PRP$','our'],
    ['own','JJ','own'],
    ['here','RB','her'],
    ['in','IN','in'],
    {
      tag:'GPE',
      content:
      [
        ['Britain','NNP','britain']
      ]
    },
    ['.','.','.']
  ]
},
{
  tag:'S',
  content:
  [
    ['For','IN','For'],
    ['the','DT','the'],
    ['record','NN','record'],
    [',',',',','],
    {
      tag:'ORGANIZATION',
      content:
      [
        ['The','NNP','the'],
        ['Age','NNP','ag']
      ]
    },
    ['of','IN','of'],
    {
      tag:'GPE',
      content:
      [
        ['Doubt','NNP','doubt']
      ]
    },
    ['involves','VBZ','involv'],
    ['a','DT','a'],
    ['mysterious','JJ','mystery'],
    ['yacht','NN','yacht'],
    ['that','WDT','that'],
    ['docks','VBZ','dock'],
    ['in','IN','in'],
    {
      tag:'GPE',
      content:
      [
        ['Vigata','NNP','vigat']
      ]
    },
    ['harbour','PRP$','harbour'],
    [',',',',','],
    ['having','VBG','hav'],
    ['discovered','VBN','discov'],
    ['a','DT','a'],
    ['corpse','NN','corps'],
    ['floating','VBG','flo'],
    ['in','IN','in'],
    ['the','DT','the'],
    ['water','NN','wat'],
    [',',',',','],
    ['the','DT','the'],
    ['dead','NN','dead'],
    ['man','NN','man'],
    [''s','POS',''s'],
    ['face','NN','fac'],
    ['being','VBG','be'],
    ['badly','RB','bad'],
    ['disfigured','VBN','disfig'],
    ['.','.','.']
  ]
},
{
  tag:'S',
  content:
  [
    {
      tag:'GPE',
      content:
      [
        ['Montalbano','NNP','montalbano']
      ]
    },
    ['falls','VBZ','fal'],
    ['for','IN','for'],
    ['the','DT','the'],
    ['beautiful','JJ','beauty'],
    ['customs','NNS','custom'],
    ['officer','NN','off'],
    {
      tag:'ORGANIZATION',
      content:
      [
        ['Lieutenant','NNP','lieut'],
        ['Belladonna','NNP','belladonn']
      ]
    },
    ['but','CC','but'],
    [',',',',','],
    ['as','IN','as'],
    ['ever','RB','ev'],
    [',',',',','],
    ['his','PRP$','his'],
    ['relationships','NNS','rel'],
    ['with','IN','with'],
    ['women','NNS','wom'],
    ['are','VBP','be'],
    ['awkward','RB','awkward'],
    ['and','CC','and'],
    ['confusingfor','IN','confusingfor'],
    ['him','PRP','him'],
    ['.','.','.']
  ]
},
{
  tag:'S',
  content:
  [
    ['There','EX','There'],
    ['is','VBZ','be'],
    ['a','DT','a'],
    ['dramatic','JJ','dram'],
    ['finale','NN','fin'],
    ['to','TO','to'],
    ['this','DT','this'],
    ['book','NN','book'],
    [',',',',','],
    ['with','IN','with'],
    ['more','JJR','mor'],
    ['straight','JJ','straight'],
    [''action','NN',''action'],
    [''','''','''],
    ['than','IN','than'],
    ['you','PRP','you'],
    ['normally','RB','norm'],
    ['get','VB','get'],
    ['in','IN','in'],
    ['one','CD','one'],
    ['of','IN','of'],
    {
      tag:'GPE',
      content:
      [
        ['Camilleri','NNP','camiller']
      ]
    },
    [''s','POS',''s'],
    ['novels','NNS','novel'],
    ['.','.','.']
  ]
},
{
  tag:'S',
  content:
  [
    ['And','CC','And'],
    ['it','PRP','it'],
    ['ends','VBZ','end'],
    ['tragically','RB','trag'],
    ['for','IN','for'],
    ['one','CD','one'],
    ['of','IN','of'],
    ['the','DT','the'],
    ['characters','NNS','charact'],
    ['.','.','.']
  ]
},
{
  tag:'S',
  content:
  [
    {
      tag:'GPE',
      content:
      [
        ['Camilleri','NNP','camiller']
      ]
    },
    ['has','VBZ','hav'],
    ['carved','VBN','carv'],
    ['out','RP','out'],
    ['a','DT','a'],
    ['great','JJ','gre'],
    ['niche','NN','nich'],
    ['with','IN','with'],
    ['these','DT','these'],
    ['books','NNS','book'],
    ['-',':','-'],
    ['long','JJ','long'],
    ['may','MD','may'],
    ['the','DT','the'],
    ['series','NN','sery'],
    ['continue','NN','continu'],
    ['.','.','.']
  ]
},
{
  tag:'S',
  content:
  [
    {
      tag:'PERSON',
      content:
      [
        ['Email','NNP','email']
      ]
    },
    ['Print','NNP','print'],
    ['this','DT','this'],
    ['page','NN','pag'],
    {
      tag:'ORGANIZATION',
      content:
      [
        ['Comment','NNP','com']
      ]
    },
    ['(','NNP','('],
    ['0','-NONE-','0'],
    [')',':',')'],
    ['Showbiz','NNP','showb'],
    ['news','NN','new'],
    ['Firefighters','NNPS','firefight'],
    ['serenade','NN','serenad'],
    {
      tag:'PERSON',
      content:
      [
        ['Dame','NNP','dam'],
        ['Judi','NNP','jud'],
        ['Collette','NNP','collet']
      ]
    },
    ['leads','NNS','lead'],
    ['all-star','JJ','all-star'],
    ['play','NN','play'],
    ['cast','VBN','cast'],
    {
      tag:'PERSON',
      content:
      [
        ['Jack','NNP','jack'],
        ['Osbourne','NNP','osbourn']
      ]
    },
    ['talks','VBZ','talk'],
    ['about','IN','about'],
    ['his','PRP$','his'],
    ['MS','NNP','ms'],
    ['Macca','NNP','macc'],
    ['sees','VBZ','see'],
    ['similarities','NNS','simil'],
    ['with','IN','with'],
    ['1D','JJ','1d'],
    ['Merchant','NNP','merch'],
    [':',':',':'],
    ['Dating','NNP','dat'],
    ['in','IN','in'],
    {
      tag:'GPE',
      content:
      [
        ['LA','NNP','la']
      ]
    },
    ['is','VBZ','be'],
    ['too','RB','too'],
    ['tough','JJ','tough'],
    {
      tag:'PERSON',
      content:
      [
        ['Van','NNP','van'],
        ['Outen','NNP','out']
      ]
    },
    ['defends','VBZ','defend'],
    {
      tag:'PERSON',
      content:
      [
        ['Strictly','NNP','strictly']
      ]
    },
    [''s','POS',''s'],
    {
      tag:'ORGANIZATION',
      content:
      [
        ['Gumede','NNP','gum']
      ]
    },
    ['Post','NNP','post'],
    ['a','DT','a'],
    ['comment','NN','com'],
    ['Email','NNP','email'],
    ['me','PRP','me'],
    ['when','WRB','when'],
    ['a','DT','a'],
    ['comment','NN','com'],
    ['is','VBZ','be'],
    ['added','VBN','ad'],
    {
      tag:'PERSON',
      content:
      [
        ['Log','NNP','log']
      ]
    },
    ['in','IN','in'],
    ['or','CC','or'],
    ['Register','NNP','reg'],
    ['to','TO','to'],
    ['get','VB','get'],
    ['email','NN','email'],
    ['alerts','NNS','alert'],
    ['.','.','.']
  ]
},
{
  tag:'S',
  content:
  [
    {
      tag:'ORGANIZATION',
      content:
      [
        ['Comment','NNP','com']
      ]
    },
    ['Remember','NNP','rememb'],
    ['you','PRP','you'],
    ['are','VBP','be'],
    ['personally','RB','person'],
    ['responsible','JJ','respons'],
    ['for','IN','for'],
    ['what','WP','what'],
    ['you','PRP','you'],
    ['post','VBP','post'],
    ['on','IN','on'],
    ['this','DT','this'],
    ['site','NN','sit'],
    ['and','CC','and'],
    ['must','MD','must'],
    ['abide','VB','abid'],
    ['by','IN','by'],
    ['our','PRP$','our'],
    ['site','JJ','sit'],
    ['terms','NNS','term'],
    ['.','.','.']
  ]
},
{
  tag:'S',
  content:
  [
    ['Do','NNP','do'],
    ['not','RB','not'],
    ['post','VB','post'],
    ['anything','NN','anyth'],
    ['that','WDT','that'],
    ['is','VBZ','be'],
    ['false','VBP','fals'],
    [',',',',','],
    ['abusive','JJ','abud'],
    ['or','CC','or'],
    ['malicious','JJ','malicy'],
    ['.','.','.']
  ]
},
{
  tag:'S',
  content:
  [
    ['If','IN','If'],
    ['you','PRP','you'],
    ['wish','VBP','wish'],
    ['to','TO','to'],
    ['complain','VB','complain'],
    [',',',',','],
    ['please','VB','pleas'],
    ['use','NN','us'],
    ['the','DT','the'],
    ['‘report','NN','‘report'],
    ['this','DT','this'],
    ['post’','NN','post’'],
    ['link','NN','link'],
    ['.','.','.']
  ]
},
{
  tag:'S',
  content:
  [
    {
      tag:'GPE',
      content:
      [
        ['Post','NNP','post']
      ]
    },
    ['comment','NN','com'],
    ['»',':','»'],
    {
      tag:'PERSON',
      content:
      [
        ['Email','NNP','email'],
        ['Print','NNP','print']
      ]
    },
    ['this','DT','this'],
    ['page','NN','pag'],
    {
      tag:'ORGANIZATION',
      content:
      [
        ['Comment','NNP','com']
      ]
    },
    ['(','NNP','('],
    ['0','-NONE-','0'],
    [')',':',')'],
    {
      tag:'ORGANIZATION',
      content:
      [
        ['click2find','NNP','click2find'],
        ['Arts','NNPS','art']
      ]
    },
    ['and','CC','and'],
    {
      tag:'ORGANIZATION',
      content:
      [
        ['Entertainment','NNP','entertain'],
        ['Search','NNP','search']
      ]
    },
    ['»','NNP','»'],
    ['Jobs','NNP','job'],
    ['Search','NNP','search'],
    ['jobs','NNS','job'],
    ['in','IN','in'],
    ['and','CC','and'],
    ['around','IN','around'],
    {
      tag:'ORGANIZATION',
      content:
      [
        ['Lancashire','NNP','lancashir'],
        ['Search','NNP','search']
      ]
    },
    ['Now','NNP','now'],
    ['»','NNP','»'],
    ['Dating','NNP','dat'],
    ['Find','NNP','find'],
    ['the','DT','the'],
    ['right','NN','right'],
    ['person','NN','person'],
    ['for','IN','for'],
    ['you','PRP','you'],
    {
      tag:'PERSON',
      content:
      [
        ['Search','NNP','search'],
        ['Now','NNP','now']
      ]
    },
    ['»','NNP','»'],
    ['Homes','NNP','hom'],
    ['Search','NNP','search'],
    ['houses','NNS','hous'],
    [',',',',','],
    ['flats','NNS','flat'],
    [',',',',','],
    ['and','CC','and'],
    ['all','DT','all'],
    ['properties','NNS','property'],
    {
      tag:'PERSON',
      content:
      [
        ['Search','NNP','search'],
        ['Now','NNP','now']
      ]
    },
    ['»','NNP','»'],
    {
      tag:'PERSON',
      content:
      [
        ['Cars','NNP','car'],
        ['Search','NNP','search']
      ]
    },
    ['new','JJ','new'],
    ['&','CC','&'],
    ['used','VBN','us'],
    ['cars','NNS','car'],
    ['in','IN','in'],
    ['and','CC','and'],
    ['around','IN','around'],
    {
      tag:'ORGANIZATION',
      content:
      [
        ['Lancashire','NNP','lancashir'],
        ['Search','NNP','search']
      ]
    },
    ['Now','NNP','now'],
    ['»','NNP','»'],
    ['News','NNP','new'],
    ['Sport','NNP','sport'],
    ['Leisure','NNP','leis'],
    ['Info','NNP','info'],
    ['Forum','NNP','for'],
    ['Videos','NNP','video'],
    {
      tag:'PERSON',
      content:
      [
        ['Photos','NNP','photo'],
        ['Opinion','NNP','opin'],
        ['Advertise','NNP','advert'],
        ['Buy','NNP','buy']
      ]
    },
    ['&','CC','&'],
    {
      tag:'ORGANIZATION',
      content:
      [
        ['Sell','NNP','sel']
      ]
    },
    {
      tag:'ORGANIZATION',
      content:
      [
        ['Click2find','NNP','click2find']
      ]
    },
    ['Dating','NNP','dat'],
    {
      tag:'PERSON',
      content:
      [
        ['Cars','NNP','car'],
        ['Homes','NNP','hom'],
        ['Jobs','NNP','job'],
        ['Cookie','NNP','cooky'],
        ['Policy','NNP','policy'],
        ['Contact','NNP','contact'],
        ['Us','NNP','us'],
        ['Subscribe','NNP','subscrib'],
        ['Photo','NNP','photo'],
        ['Sales','NNP','sal'],
        ['Advertise','NNP','advert']
      ]
    },
    ['AdChoices','NNP','adcho'],
    ['Archive','NNP','arch'],
    ['Topics','NNP','top'],
    ['Announcements','NNP','annount'],
    ['Site','NNP','sit'],
    ['Map','NNP','map'],
    ['Exchange','NNP','exchang'],
    ['and','CC','and'],
    {
      tag:'PERSON',
      content:
      [
        ['Mart','NNP','mart'],
        ['Twos','NNP','two'],
        ['Company','NNP','company'],
        ['Dating','NNP','dat'],
        ['Terms','NNP','term']
      ]
    },
    ['&','CC','&'],
    {
      tag:'ORGANIZATION',
      content:
      [
        ['Conditions','NNP','condit'],
        ['Privacy','NNP','priv'],
        ['Policy','NNP','policy']
      ]
    },
    ['©','NNP','©'],
    ['Copyright','NNP','copyright'],
    ['2001-2013','CD','2001-2013'],
    ['This','DT','This'],
    ['site','NN','sit'],
    ['is','VBZ','be'],
    ['part','NN','part'],
    ['of','IN','of'],
    {
      tag:'GPE',
      content:
      [
        ['Newsquest','NNP','newsquest']
      ]
    },
    [''s','POS',''s'],
    ['audited','VBN','audit'],
    ['local','JJ','loc'],
    ['newspaper','NN','newspap'],
    ['network','NN','network'],
    ['A','DT','A'],
    {
      tag:'ORGANIZATION',
      content:
      [
        ['Gannett','NNP','gannet'],
        ['Company','NNP','company'],
        ['Newsquest','NNP','newsquest']
      ]
    },
    ['(','NNP','('],
    {
      tag:'PERSON',
      content:
      [
        ['North','NNP','nor'],
        ['West','NNP','west']
      ]
    },
    [')','NNP',')'],
    ['Ltd','NNP','ltd'],
    [',',',',','],
    ['58','CD','58'],
    {
      tag:'PERSON',
      content:
      [
        ['Church','NNP','church'],
        ['Street','NNP','street']
      ]
    },
    [',',',',','],
    {
      tag:'PERSON',
      content:
      [
        ['Weybridge','NNP','weybridg']
      ]
    },
    [',',',',','],
    {
      tag:'GPE',
      content:
      [
        ['Surrey','NNP','surrey']
      ]
    },
    ['.','.','.']
  ]
},
{
  tag:'S',
  content:
  [
    {
      tag:'ORGANIZATION',
      content:
      [
        ['KT13','NNP','kt13']
      ]
    },
    ['8DP|3102566|Registered','VBD','8dp|3102566|registered'],
    ['in','IN','in'],
    {
      tag:'GPE',
      content:
      [
        ['England','NNP','england']
      ]
    },
    ['&','CC','&'],
    {
      tag:'PERSON',
      content:
      [
        ['Wales','NNP','wal']
      ]
    }
  ]
}]