[
{
  tag:'S',
  content:
  [
    ['Try','NNP','try'],
    ['a','DT','a'],
    {
      tag:'ORGANIZATION',
      content:
      [
        ['Digital','NNP','digit'],
        ['Subscription','NNP','subscrib']
      ]
    },
    ['campaign','NN','campaign'],
    [':',':',':'],
    ['inyt2013_bar1_hp_ros_digi_3KXQQ','NNP','inyt2013_bar1_hp_ros_digi_3kxqq'],
    ['--',':','--'],
    ['227471','CD','227471'],
    [',',',',','],
    ['creative','JJ','cre'],
    [':',':',':'],
    ['bar1_ros_inyt_hp_digi_3KXQQ','NNP','bar1_ros_inyt_hp_digi_3kxqq'],
    ['--',':','--'],
    ['351672','CD','351672'],
    [',',',',','],
    ['page','NN','pag'],
    [':',':',':'],
    ['www.nytimes.com/archive/article/sports','NNS','www.nytimes.com/archive/article/sports'],
    [',',',',','],
    ['targetedPage','NNP','targetedp'],
    [':',':',':'],
    ['www.nytimes.com/archive/article/sports','NNS','www.nytimes.com/archive/article/sports'],
    [',',',',','],
    ['position','NN','posit'],
    [':',':',':'],
    {
      tag:'ORGANIZATION',
      content:
      [
        ['Bar1','NNP','bar1'],
        ['Log','NNP','log']
      ]
    },
    ['In','NNP','in'],
    ['Register','NNP','reg'],
    ['Now','NNP','now'],
    ['Help','NNP','help'],
    ['Home','NNP','hom'],
    ['Page','NNP','pag'],
    ['Today','NNP','today'],
    [''s','POS',''s'],
    {
      tag:'PERSON',
      content:
      [
        ['Paper','NNP','pap'],
        ['Video','NNP','video'],
        ['Most','NNP','most'],
        ['Popular','NNP','popul']
      ]
    },
    ['Edition','NNP','edit'],
    [':',':',':'],
    {
      tag:'GPE',
      content:
      [
        ['U.S.','NNP','u.s.']
      ]
    },
    ['/',':','/'],
    {
      tag:'PERSON',
      content:
      [
        ['Global','NNP','glob'],
        ['Search','NNP','search'],
        ['All','NNP','al']
      ]
    },
    ['NYTimes.com','NNP','nytimes.com'],
    ['Sports','NNPS','sport'],
    ['World','NNP','world'],
    {
      tag:'GPE',
      content:
      [
        ['U.S.','NNP','u.s.']
      ]
    },
    ['N.Y.','NNP','n.y.'],
    ['/','NNP','/'],
    ['Region','NNP','reg'],
    ['Business','NNP','busy'],
    ['Technology','NNP','technolog'],
    ['Science','NNP','sci'],
    ['Health','NNP','heal'],
    ['Sports','NNP','sport'],
    ['BaseballN.F.L.College','NNP','baseballn.f.l.college'],
    ['FootballN.B.A.College','NNP','footballn.b.a.college'],
    ['BasketballHockeySoccerGolfTennisInternational','NNP','basketballhockeysoccergolftennisintern'],
    {
      tag:'ORGANIZATION',
      content:
      [
        ['SportsBuy','NNP','sportsbuy'],
        ['Tickets','NNPS','ticket'],
        ['Opinion','NNP','opin'],
        ['Arts','NNP','art'],
        ['Style','NNP','styl'],
        ['Travel','NNP','travel'],
        ['Jobs','NNP','job'],
        ['Real','NNP','real'],
        ['Estate','NNP','est'],
        ['Autos','NNP','auto'],
        ['Advertise','NNP','advert']
      ]
    },
    ['on','IN','on'],
    ['NYTimes.com','NNP','nytimes.com'],
    ['CARL','NNP','carl'],
    ['LEWIS','NNP','lew'],
    [',',',',','],
    {
      tag:'ORGANIZATION',
      content:
      [
        ['THE','NNP','the']
      ]
    },
    ['MAN','NNP','man'],
    ['WHO','NNP','who'],
    ['WOULD','NNP','would'],
    ['BE','NNP','be'],
    ['KING','NNP','king'],
    ['By','NNP','by'],
    {
      tag:'ORGANIZATION',
      content:
      [
        ['FRANK','NNP','frank']
      ]
    },
    ['LITSKY','NNP','litsky'],
    ['Published','NNP','publ'],
    [':',':',':'],
    ['June','NNP','jun'],
    ['6','CD','6'],
    [',',',',','],
    ['1982','CD','1982'],
    {
      tag:'ORGANIZATION',
      content:
      [
        ['HOUSTON','NNP','houston']
      ]
    },
    ['TOMORROW','NNP','tomorrow'],
    ['night','NN','night'],
    [',',',',','],
    ['at','IN','at'],
    ['the','DT','the'],
    {
      tag:'ORGANIZATION',
      content:
      [
        ['Sheraton','NNP','sheraton'],
        ['Poste','NNP','post'],
        ['Inn','NNP','in']
      ]
    },
    ['in','IN','in'],
    {
      tag:'GPE',
      content:
      [
        ['Cherry','NNP','cherry'],
        ['Hill','NNP','hil']
      ]
    },
    [',',',',','],
    {
      tag:'GPE',
      content:
      [
        ['N.J.','NNP','n.j.']
      ]
    },
    [',',',',','],
    {
      tag:'PERSON',
      content:
      [
        ['Carl','NNP','carl'],
        ['Lewis','NNP','lew']
      ]
    },
    ['will','MD','will'],
    ['be','VB','be'],
    ['roasted','VBN','roast'],
    ['at','IN','at'],
    ['a','DT','a'],
    ['$','$','$'],
    ['30-a-plate','JJ','30-a-plate'],
    ['fund-raising','JJ','fund-raising'],
    ['dinner','NN','din'],
    ['.','.','.']
  ]
},
{
  tag:'S',
  content:
  [
    ['And','CC','And'],
    ['that','DT','that'],
    ['is','VBZ','be'],
    ['unusual','JJ','unus'],
    ['.','.','.']
  ]
},
{
  tag:'S',
  content:
  [
    {
      tag:'PERSON',
      content:
      [
        ['Bob','NNP','bob']
      ]
    },
    {
      tag:'ORGANIZATION',
      content:
      [
        ['Hopes','NNP','hop']
      ]
    },
    ['and','CC','and'],
    {
      tag:'ORGANIZATION',
      content:
      [
        ['Henny','NNP','henny']
      ]
    },
    ['Youngmans','NNPS','youngm'],
    ['are','VBP','be'],
    ['roasted','VBN','roast'],
    ['.','.','.']
  ]
},
{
  tag:'S',
  content:
  [
    ['Governors','NNS','govern'],
    ['and','CC','and'],
    ['football','NN','footbal'],
    ['coaches','NNS','coach'],
    ['and','CC','and'],
    ['baseball','NN','basebal'],
    ['club','NN','club'],
    ['owners','NNS','own'],
    ['are','VBP','be'],
    ['roasted','VBN','roast'],
    ['.','.','.']
  ]
},
{
  tag:'S',
  content:
  [
    ['But','CC','But'],
    ['a','DT','a'],
    ['20-year-old','JJ','20-year-old'],
    ['college','NN','colleg'],
    ['student','NN','stud'],
    ['who','WP','who'],
    ['hardly','RB','hard'],
    ['has','VBZ','hav'],
    ['to','TO','to'],
    ['shave','VB','shav'],
    ['?','.','?']
  ]
},
{
  tag:'S',
  content:
  [
    ['Yet','CC','Yet'],
    ['in','IN','in'],
    ['his','PRP$','his'],
    ['world','NN','world'],
    [',',',',','],
    {
      tag:'PERSON',
      content:
      [
        ['Carl','NNP','carl'],
        ['Lewis','NNP','lew']
      ]
    },
    ['is','VBZ','be'],
    {
      tag:'PERSON',
      content:
      [
        ['Bob','NNP','bob'],
        ['Hope','NNP','hop']
      ]
    },
    ['and','CC','and'],
    {
      tag:'PERSON',
      content:
      [
        ['Henny','NNP','henny'],
        ['Youngman','NNP','youngm']
      ]
    },
    ['and','CC','and'],
    ['all','DT','all'],
    ['the','DT','the'],
    ['others','NNS','oth'],
    ['put','VBD','put'],
    ['together','RP','together'],
    ['.','.','.']
  ]
},
{
  tag:'S',
  content:
  [
    ['He','PRP','He'],
    ['is','VBZ','be'],
    ['an','DT','an'],
    ['athlete','JJ','athlet'],
    ['with','IN','with'],
    ['almost','RB','almost'],
    ['limitless','JJ','limitless'],
    ['ability','NN','abl'],
    ['and','CC','and'],
    ['future','JJ','fut'],
    [',',',',','],
    ['and','CC','and'],
    ['two','CD','two'],
    ['of','IN','of'],
    ['the','DT','the'],
    ['most','RBS','most'],
    ['precious','JJ','precy'],
    ['world','NN','world'],
    ['records','NNS','record'],
    ['in','IN','in'],
    ['track','NN','track'],
    ['and','CC','and'],
    ['field','NN','field'],
    ['-',':','-'],
    ['in','IN','in'],
    ['the','DT','the'],
    ['long','JJ','long'],
    ['jump','NN','jump'],
    ['and','CC','and'],
    ['100-meter','CD','100-meter'],
    ['dash','NN','dash'],
    ['-',':','-'],
    ['seem','VBP','seem'],
    ['within','IN','within'],
    ['his','PRP$','his'],
    ['grasp','NN','grasp'],
    ['.','.','.']
  ]
},
{
  tag:'S',
  content:
  [
    ['On','IN','On'],
    ['May','NNP','may'],
    ['15','CD','15'],
    [',',',',','],
    ['at','IN','at'],
    {
      tag:'ORGANIZATION',
      content:
      [
        ['Modesto','NNP','modesto']
      ]
    },
    [',',',',','],
    {
      tag:'GPE',
      content:
      [
        ['Calif.','NNP','calif.']
      ]
    },
    [',',',',','],
    ['he','PRP','he'],
    ['won','VBD','win'],
    ['the','DT','the'],
    ['100-meter','JJ','100-meter'],
    ['dash','NN','dash'],
    ['in','IN','in'],
    ['10.00','CD','10.00'],
    ['seconds','NNS','second'],
    ['.','.','.']
  ]
},
{
  tag:'S',
  content:
  [
    ['That','DT','That'],
    ['equaled','VBD','eq'],
    ['the','DT','the'],
    ['third-fastest','JJS','third-fastest'],
    ['time','NN','tim'],
    ['ever','RB','ev'],
    ['(','.','('],
    ['he','PRP','he'],
    ['also','RB','also'],
    ['ran','VBD','run'],
    ['10.00','CD','10.00'],
    ['last','JJ','last'],
    ['year','NN','year'],
    [')',':',')'],
    ['and','CC','and'],
    ['was','VBD','be'],
    ['only','RB','on'],
    ['five-hundredths','-NONE-','five-hundredths'],
    ['of','IN','of'],
    ['a','DT','a'],
    ['second','JJ','second'],
    ['slower','NN','slow'],
    ['than','IN','than'],
    {
      tag:'PERSON',
      content:
      [
        ['Jim','NNP','jim'],
        ['Hines','NNP','hin']
      ]
    },
    [''s','POS',''s'],
    ['world','NN','world'],
    ['record','NN','record'],
    ['.','.','.']
  ]
},
{
  tag:'S',
  content:
  [
    ['The','DT','The'],
    ['next','JJ','next'],
    ['day','NN','day'],
    [',',',',','],
    ['in','IN','in'],
    {
      tag:'GPE',
      content:
      [
        ['Los','NNP','los'],
        ['Angeles','NNP','angel']
      ]
    },
    [',',',',','],
    ['he','PRP','he'],
    ['long-jumped','JJ','long-jumped'],
    ['28','CD','28'],
    ['feet','NNS','foot'],
    ['3','CD','3'],
    ['inches','NNS','inch'],
    [',',',',','],
    ['the','DT','the'],
    ['third-longest','JJS','third-longest'],
    ['legal','JJ','leg'],
    ['jump','NN','jump'],
    ['in','IN','in'],
    ['history','NN','hist'],
    ['(',':','('],
    ['he','PRP','he'],
    ['did','VBD','do'],
    ['28-3','CD','28-3'],
    ['1/2','CD','1/2'],
    ['last','JJ','last'],
    ['year','NN','year'],
    [')',':',')'],
    ['.','.','.']
  ]
},
{
  tag:'S',
  content:
  [
    ['He','PRP','He'],
    ['is','VBZ','be'],
    ['second','JJ','second'],
    ['on','IN','on'],
    ['the','DT','the'],
    ['career','NN','car'],
    ['list','NN','list'],
    ['behind','IN','behind'],
    {
      tag:'PERSON',
      content:
      [
        ['Bob','NNP','bob'],
        ['Beamon','NNP','beamon']
      ]
    },
    [''s','POS',''s'],
    ['29-2','CD','29-2'],
    ['1/2','CD','1/2'],
    ['.','.','.']
  ]
},
{
  tag:'S',
  content:
  [
    ['If','IN','If'],
    ['any','DT','any'],
    ['track','NN','track'],
    ['and','CC','and'],
    ['field','NN','field'],
    ['record','NN','record'],
    ['was','VBD','be'],
    ['deemed','VBN','deem'],
    ['impregnable','JJ','impregn'],
    [',',',',','],
    ['it','PRP','it'],
    ['was','VBD','be'],
    {
      tag:'PERSON',
      content:
      [
        ['Beamon','NNP','beamon']
      ]
    },
    [''s','POS',''s'],
    ['prodigious','JJ','prodigy'],
    ['jump','NN','jump'],
    [',',',',','],
    ['which','WDT','which'],
    ['for','IN','for'],
    ['years','NNS','year'],
    ['stunned','VBD','stun'],
    ['even','RB','ev'],
    ['the','DT','the'],
    ['man','NN','man'],
    ['who','WP','who'],
    ['did','VBD','do'],
    ['it','PRP','it'],
    ['.','.','.']
  ]
},
{
  tag:'S',
  content:
  [
    ['But','CC','But'],
    ['now','RB','now'],
    {
      tag:'PERSON',
      content:
      [
        ['Beamon','NNP','beamon']
      ]
    },
    [''s','POS',''s'],
    ['record','NN','record'],
    ['seems','VBZ','seem'],
    ['approachable','JJ','approach'],
    ['.','.','.']
  ]
},
{
  tag:'S',
  content:
  [
    ['''When','JJ','''when'],
    ['I','PRP','I'],
    ['started','VBD','start'],
    ['college','NN','colleg'],
    [',',',',','],
    ['people','NNS','peopl'],
    ['said','VBD','say'],
    ['I','PRP','I'],
    ['could','MD','could'],
    ['n't','RB','n't'],
    ['long-jump','VB','long-jump'],
    ['and','CC','and'],
    ['run','VBN','run'],
    ['the','DT','the'],
    ['100','CD','100'],
    [',',',',','],
    ['too','RB','too'],
    [',',',',','],
    ['''','''',''''],
    {
      tag:'PERSON',
      content:
      [
        ['Lewis','NNP','lew']
      ]
    },
    ['said','VBD','say'],
    [',',',',','],
    ['''And','NNP','''and'],
    ['they','PRP','they'],
    ['considered','VBD','consid'],
    {
      tag:'PERSON',
      content:
      [
        ['Beamon','NNP','beamon']
      ]
    },
    [''s','POS',''s'],
    ['record','NN','record'],
    ['untouchable','JJ','untouch'],
    ['.','.','.']
  ]
},
{
  tag:'S',
  content:
  [
    ['It','PRP','It'],
    ['was','VBD','be'],
    ['n't','RB','n't'],
    [''You','JJ',''you'],
    ['ca','NN','ca'],
    ['n't','RB','n't'],
    ['do','VB','do'],
    ['it','PRP','it'],
    [',',',',','],
    [''','''','''],
    ['but','CC','but'],
    [''It','JJ',''it'],
    ['ca','NN','ca'],
    ['n't','RB','n't'],
    ['be','VB','be'],
    ['done','VBN','do'],
    ['.','.','.']
  ]
},
{
  tag:'S',
  content:
  [
    [''','POS','''],
    ['When','WRB','When'],
    ['I','PRP','I'],
    ['was','VBD','be'],
    ['jumping','VBG','jump'],
    ['27','CD','27'],
    ['feet','NNS','foot'],
    [',',',',','],
    ['people','NNS','peopl'],
    ['did','VBD','do'],
    ['n't','RB','n't'],
    ['think','VB','think'],
    ['I','PRP','I'],
    ['could','MD','could'],
    ['break','VB','break'],
    ['the','DT','the'],
    ['record','NN','record'],
    ['.','.','.']
  ]
},
{
  tag:'S',
  content:
  [
    ['But','CC','But'],
    ['now','RB','now'],
    [',',',',','],
    ['instead','RB','instead'],
    ['of','IN','of'],
    ['asking','VBG','ask'],
    ['me','PRP','me'],
    [''Can','MD',''Can'],
    ['you','PRP','you'],
    ['do','VB','do'],
    ['it','PRP','it'],
    ['?','.','?']
  ]
},
{
  tag:'S',
  content:
  [
    [''','POS','''],
    ['they','PRP','they'],
    ['say','VBP','say'],
    [',',',',','],
    [''When','JJ',''when'],
    ['do','VBP','do'],
    ['you','PRP','you'],
    ['think','VB','think'],
    ['you','PRP','you'],
    [''re','VBP',''re'],
    ['going','VBG','go'],
    ['to','TO','to'],
    ['do','VB','do'],
    ['it','PRP','it'],
    ['?','.','?']
  ]
},
{
  tag:'S',
  content:
  [
    [''','POS','''],
    ['''','''',''''],
    {
      tag:'PERSON',
      content:
      [
        ['Lewis','NNP','lew']
      ]
    },
    ['ran','VBD','run'],
    ['the','DT','the'],
    ['fast','NN','fast'],
    ['100','CD','100'],
    ['in','IN','in'],
    {
      tag:'GPE',
      content:
      [
        ['Modesto','NNP','modesto']
      ]
    },
    ['despite','IN','despite'],
    ['a','DT','a'],
    ['sluggish','JJ','slug'],
    ['start','NN','start'],
    ['.','.','.']
  ]
},
{
  tag:'S',
  content:
  [
    ['He','PRP','He'],
    ['made','VBD','mak'],
    ['his','PRP$','his'],
    ['big','JJ','big'],
    ['long','JJ','long'],
    ['jump','NN','jump'],
    ['in','IN','in'],
    ['the','DT','the'],
    ['first','JJ','first'],
    ['meet','NN','meet'],
    ['since','IN','since'],
    ['he','PRP','he'],
    ['lengthened','VBD','length'],
    ['his','PRP$','his'],
    ['runup','NN','runup'],
    [',',',',','],
    ['and','CC','and'],
    ['he','PRP','he'],
    ['had','VBD','hav'],
    ['to','TO','to'],
    ['alter','VB','alt'],
    ['his','PRP$','his'],
    ['stride','NN','stride'],
    ['on','IN','on'],
    ['the','DT','the'],
    ['next-to-last','JJ','next-to-last'],
    ['step','NN','step'],
    ['to','TO','to'],
    ['avoid','VB','avoid'],
    ['stepping','NN','step'],
    ['beyond','IN','beyond'],
    ['the','DT','the'],
    ['takeoff','NN','takeoff'],
    ['board','NN','board'],
    ['and','CC','and'],
    ['thus','RB','thu'],
    ['fouling','VBG','foul'],
    ['the','DT','the'],
    ['jump','NN','jump'],
    ['.','.','.']
  ]
},
{
  tag:'S',
  content:
  [
    {
      tag:'GPE',
      content:
      [
        ['Beamon','NNP','beamon']
      ]
    },
    ['and','CC','and'],
    {
      tag:'PERSON',
      content:
      [
        ['Hines','NNP','hin']
      ]
    },
    ['set','VBD','set'],
    ['their','PRP$','their'],
    ['world','NN','world'],
    ['records','NNS','record'],
    ['in','IN','in'],
    ['the','DT','the'],
    ['1968','CD','1968'],
    ['Olympics','NNP','olymp'],
    ['in','IN','in'],
    {
      tag:'GPE',
      content:
      [
        ['Mexico','NNP','mexico'],
        ['City','NNP','city']
      ]
    },
    [',',',',','],
    ['where','WRB','where'],
    ['the','DT','the'],
    ['thinner','NN','thin'],
    ['air','NN','air'],
    ['at','IN','at'],
    ['the','DT','the'],
    ['1.5-mile','JJ','1.5-mile'],
    ['altitude','NN','altitud'],
    ['meant','NN','meant'],
    ['less','RBR','less'],
    ['air','JJ','air'],
    ['resistance','NN','resist'],
    ['.','.','.']
  ]
},
{
  tag:'S',
  content:
  [
    ['Though','IN','Though'],
    ['their','PRP$','their'],
    ['advantages','NNS','adv'],
    ['were','VBD','be'],
    ['impossible','JJ','imposs'],
    ['to','TO','to'],
    ['calculate','VB','calc'],
    [',',',',','],
    ['they','PRP','they'],
    ['were','VBD','be'],
    ['real','JJ','real'],
    ['.','.','.']
  ]
},
{
  tag:'S',
  content:
  [
    {
      tag:'PERSON',
      content:
      [
        ['Lewis','NNP','lew']
      ]
    },
    [',',',',','],
    ['in','IN','in'],
    ['effect','NN','effect'],
    [',',',',','],
    ['is','VBZ','be'],
    ['the','DT','the'],
    ['world','NN','world'],
    ['record-holder','NN','record-holder'],
    ['at','IN','at'],
    ['or','CC','or'],
    ['near','IN','near'],
    ['sea','NN','sea'],
    ['level','NN','level'],
    ['in','IN','in'],
    ['both','DT','both'],
    ['events','NNS','ev'],
    ['.','.','.']
  ]
},
{
  tag:'S',
  content:
  [
    ['He','PRP','He'],
    ['thinks','VBZ','think'],
    ['that','IN','that'],
    ['at','IN','at'],
    ['sea','NN','sea'],
    ['level','NN','level'],
    ['he','PRP','he'],
    ['can','MD','can'],
    ['break','VB','break'],
    {
      tag:'PERSON',
      content:
      [
        ['Beamon','NNP','beamon']
      ]
    },
    [''s','POS',''s'],
    ['and','CC','and'],
    {
      tag:'PERSON',
      content:
      [
        ['Hines','NNP','hin']
      ]
    },
    [''s','POS',''s'],
    ['records','NNS','record'],
    [',',',',','],
    ['but','CC','but'],
    ['through','IN','through'],
    ['it','PRP','it'],
    ['all','DT','all'],
    ['he','PRP','he'],
    ['remains','VBZ','remain'],
    ['calm','NN','calm'],
    [',',',',','],
    ['unaffected','VBD','unaffect'],
    [',',',',','],
    ['even','RB','ev'],
    ['tempered','VBD','temp'],
    [',',',',','],
    ['almost','RB','almost'],
    ['detached','VBD','detach'],
    ['.','.','.']
  ]
},
{
  tag:'S',
  content:
  [
    ['''Basically','RB','''basically'],
    [',',',',','],
    ['''','''',''''],
    ['said','VBD','say'],
    {
      tag:'PERSON',
      content:
      [
        ['Lewis','NNP','lew']
      ]
    },
    [''s','POS',''s'],
    ['18-year-old','JJ','18-year-old'],
    ['sister','NN','sist'],
    [',',',',','],
    {
      tag:'PERSON',
      content:
      [
        ['Carol','NNP','carol']
      ]
    },
    [',',',',','],
    ['''he','NNP','''he'],
    [''s','POS',''s'],
    ['saying','VBG','say'],
    ['that','IN','that'],
    ['the','DT','the'],
    ['long-jump','JJ','long-jump'],
    ['record','NN','record'],
    ['is','VBZ','be'],
    ['right','RB','right'],
    ['there','RB','ther'],
    [',',',',','],
    ['but','CC','but'],
    ['he','PRP','he'],
    ['is','VBZ','be'],
    ['n't','RB','n't'],
    ['going','VBG','go'],
    ['to','TO','to'],
    ['get','VB','get'],
    ['a','DT','a'],
    ['big','JJ','big'],
    ['head','NN','head'],
    ['and','CC','and'],
    ['say','VB','say'],
    ['he','PRP','he'],
    ['can','MD','can'],
    ['break','VB','break'],
    ['it','PRP','it'],
    ['whenever','RB','whenev'],
    ['he','PRP','he'],
    ['wants','VBZ','want'],
    ['.','.','.']
  ]
},
{
  tag:'S',
  content:
  [
    ['A','DT','A'],
    ['lot','NN','lot'],
    ['of','IN','of'],
    ['things','NNS','thing'],
    ['can','MD','can'],
    ['happen','VB','hap'],
    [',',',',','],
    ['so','RB','so'],
    ['you','PRP','you'],
    ['just','RB','just'],
    ['have','VBP','hav'],
    ['to','TO','to'],
    ['keep','VB','keep'],
    ['walking','VBG','walk'],
    ['straight','JJ','straight'],
    ['.','.','.']
  ]
},
{
  tag:'S',
  content:
  [
    ['You','PRP','You'],
    [''re','VBP',''re'],
    ['going','VBG','go'],
    ['to','TO','to'],
    ['bump','VB','bump'],
    ['into','IN','into'],
    ['things','NNS','thing'],
    [',',',',','],
    ['anyway','RB','anyway'],
    ['.','.','.']
  ]
},
{
  tag:'S',
  content:
  [
    ['''','''',''''],
    ['The','DT','The'],
    {
      tag:'PERSON',
      content:
      [
        ['Lewis','NNP','lew']
      ]
    },
    ['family','NN','famy'],
    [',',',',','],
    ['though','IN','though'],
    ['tightly','RB','tight'],
    ['knit','NN','knit'],
    [',',',',','],
    ['is','VBZ','be'],
    ['divided','VBN','divid'],
    ['geographically','RB','geograph'],
    ['.','.','.']
  ]
},
{
  tag:'S',
  content:
  [
    {
      tag:'PERSON',
      content:
      [
        ['Bill','NNP','bil']
      ]
    },
    ['and','CC','and'],
    {
      tag:'PERSON',
      content:
      [
        ['Evelyn','NNP','evelyn'],
        ['Lewis','NNP','lew']
      ]
    },
    ['are','VBP','be'],
    ['home','NN','hom'],
    ['in','IN','in'],
    {
      tag:'GPE',
      content:
      [
        ['Willingboro','NNP','willingboro']
      ]
    },
    [',',',',','],
    {
      tag:'GPE',
      content:
      [
        ['N.J.','NNP','n.j.']
      ]
    },
    [',',',',','],
    ['a','DT','a'],
    ['40-minute','JJ','40-minute'],
    ['drive','JJ','driv'],
    ['from','IN','from'],
    {
      tag:'GSP',
      content:
      [
        ['Philadelphia','NNP','philadelph']
      ]
    },
    ['.','.','.']
  ]
},
{
  tag:'S',
  content:
  [
    ['They','PRP','They'],
    ['coach','VBP','coach'],
    ['track','NN','track'],
    ['at','IN','at'],
    ['rival','NN','riv'],
    ['high','JJ','high'],
    ['schools','NNS','school'],
    ['in','IN','in'],
    {
      tag:'GPE',
      content:
      [
        ['Willingboro','NNP','willingboro']
      ]
    },
    ['during','IN','during'],
    ['the','DT','the'],
    ['school','NN','school'],
    ['year','NN','year'],
    [',',',',','],
    ['and','CC','and'],
    ['in','IN','in'],
    ['the','DT','the'],
    ['summer','NN','sum'],
    ['they','PRP','they'],
    ['are','VBP','be'],
    ['cocoaches','NNS','cocoach'],
    ['of','IN','of'],
    ['the','DT','the'],
    {
      tag:'ORGANIZATION',
      content:
      [
        ['Willingboro','NNP','willingboro'],
        ['Track','NNP','track'],
        ['Club','NNP','club']
      ]
    },
    ['.','.','.']
  ]
},
{
  tag:'S',
  content:
  [
    ['The','DT','The'],
    ['proceeds','NNS','process'],
    ['of','IN','of'],
    ['their','PRP$','their'],
    ['son','NN','son'],
    [''s','POS',''s'],
    ['roast','NN','roast'],
    ['will','MD','will'],
    ['go','VB','go'],
    ['to','TO','to'],
    ['the','DT','the'],
    ['club','NN','club'],
    ['.','.','.']
  ]
},
{
  tag:'S',
  content:
  [
    ['Their','PRP$','Their'],
    ['four','PRP$','four'],
    ['children','NNS','child'],
    ['are','VBP','be'],
    ['in','IN','in'],
    {
      tag:'GPE',
      content:
      [
        ['Houston','NNP','houston']
      ]
    },
    [',',',',','],
    ['and','CC','and'],
    ['three','CD','three'],
    ['of','IN','of'],
    ['the','DT','the'],
    ['four','CD','four'],
    ['are','VBP','be'],
    ['undergraduates','NNS','undergradu'],
    ['at','IN','at'],
    ['the','DT','the'],
    {
      tag:'ORGANIZATION',
      content:
      [
        ['University','NNP','univers']
      ]
    },
    ['of','IN','of'],
    {
      tag:'GPE',
      content:
      [
        ['Houston','NNP','houston']
      ]
    },
    ['.','.','.']
  ]
},
{
  tag:'S',
  content:
  [
    {
      tag:'GPE',
      content:
      [
        ['Mack','NNP','mack']
      ]
    },
    [',',',',','],
    ['27','CD','27'],
    [',',',',','],
    ['will','MD','will'],
    ['get','VB','get'],
    ['a','DT','a'],
    ['degree','NN','degr'],
    ['in','IN','in'],
    ['geology','NN','geolog'],
    ['next','IN','next'],
    ['year','NN','year'],
    ['.','.','.']
  ]
},
{
  tag:'S',
  content:
  [
    {
      tag:'GPE',
      content:
      [
        ['Cleve','NNP','clev']
      ]
    },
    [',',',',','],
    ['26','CD','26'],
    [',',',',','],
    ['is','VBZ','be'],
    ['a','DT','a'],
    ['financial','JJ','fin'],
    ['analyst','NN','analyst'],
    ['for','IN','for'],
    {
      tag:'PERSON',
      content:
      [
        ['Dun','NNP','dun']
      ]
    },
    ['and','CC','and'],
    {
      tag:'ORGANIZATION',
      content:
      [
        ['Bradstreet','NNP','bradstreet']
      ]
    },
    ['.','.','.']
  ]
},
{
  tag:'S',
  content:
  [
    {
      tag:'GPE',
      content:
      [
        ['Carl','NNP','carl']
      ]
    },
    ['is','VBZ','be'],
    ['a','DT','a'],
    ['junior','JJ','juny'],
    [',',',',','],
    {
      tag:'PERSON',
      content:
      [
        ['Carol','NNP','carol']
      ]
    },
    ['a','DT','a'],
    ['freshman','NN','freshm'],
    ['.','.','.']
  ]
},
{
  tag:'S',
  content:
  [
    {
      tag:'PERSON',
      content:
      [
        ['Carol','NNP','carol']
      ]
    },
    ['was','VBD','be'],
    ['in','IN','in'],
    {
      tag:'GPE',
      content:
      [
        ['Provo','NNP','provo']
      ]
    },
    [',',',',','],
    {
      tag:'GPE',
      content:
      [
        ['Utah','NNP','utah']
      ]
    },
    [',',',',','],
    ['this','DT','this'],
    ['weekend','NN','weekend'],
    ['for','IN','for'],
    ['the','DT','the'],
    {
      tag:'ORGANIZATION',
      content:
      [
        ['National','NNP','nat'],
        ['Collegiate','NNP','collegy'],
        ['Athletic','NNP','athlet'],
        ['Association','NNP','assocy']
      ]
    },
    ['outdoor','NN','outdo'],
    ['championships','NNS','champ'],
    ['.','.','.']
  ]
},
{
  tag:'S',
  content:
  [
    {
      tag:'PERSON',
      content:
      [
        ['Carl','NNP','carl']
      ]
    },
    ['did','VBD','do'],
    ['not','RB','not'],
    ['go','VB','go'],
    ['to','TO','to'],
    {
      tag:'GPE',
      content:
      [
        ['Provo','NNP','provo']
      ]
    },
    ['because','IN','because'],
    ['he','PRP','he'],
    ['is','VBZ','be'],
    ['scholastically','RB','scholastically'],
    ['ineligible','JJ','inelig'],
    ['to','TO','to'],
    ['represent','VB','repres'],
    ['the','DT','the'],
    ['university','NN','univers'],
    ['.','.','.']
  ]
},
{
  tag:'S',
  content:
  [
    ['All','DT','All'],
    ['are','VBP','be'],
    ['athletic','JJ','athlet'],
    ['.','.','.']
  ]
},
{
  tag:'S',
  content:
  [
    {
      tag:'PERSON',
      content:
      [
        ['Mack','NNP','mack']
      ]
    },
    ['was','VBD','be'],
    ['a','DT','a'],
    ['high','JJ','high'],
    ['school','NN','school'],
    ['sprinter','NN','sprinter'],
    ['.','.','.']
  ]
},
{
  tag:'S',
  content:
  [
    {
      tag:'PERSON',
      content:
      [
        ['Cleve','NNP','clev']
      ]
    },
    ['was','VBD','be'],
    ['a','DT','a'],
    ['soccer','NN','socc'],
    ['all-American','JJ','all-american'],
    ['at','IN','at'],
    {
      tag:'ORGANIZATION',
      content:
      [
        ['Brandeis','NNP','brand'],
        ['University','NNP','univers']
      ]
    },
    ['and','CC','and'],
    ['a','DT','a'],
    ['No.1','NN','no.1'],
    ['draft','NN','draft'],
    ['choice','NN','cho'],
    ['of','IN','of'],
    ['the','DT','the'],
    {
      tag:'ORGANIZATION',
      content:
      [
        ['Cosmos','NNP','cosmo']
      ]
    },
    ['.','.','.']
  ]
},
{
  tag:'S',
  content:
  [
    {
      tag:'GPE',
      content:
      [
        ['Carol','NNP','carol']
      ]
    },
    ['is','VBZ','be'],
    ['the','DT','the'],
    {
      tag:'GPE',
      content:
      [
        ['American','NNP','am']
      ]
    },
    ['junior','NN','juny'],
    ['record-holder','NN','record-holder'],
    ['in','IN','in'],
    ['the','DT','the'],
    ['long','JJ','long'],
    ['jump','NN','jump'],
    ['and','CC','and'],
    ['also','RB','also'],
    ['an','DT','an'],
    ['outstanding','JJ','outstand'],
    ['hurdler','NN','hurdl'],
    [',',',',','],
    ['sprinter','NN','sprinter'],
    ['and','CC','and'],
    ['high','JJ','high'],
    ['jumper','NN','jump'],
    ['.','.','.']
  ]
},
{
  tag:'S',
  content:
  [
    {
      tag:'GPE',
      content:
      [
        ['Carl','NNP','carl']
      ]
    },
    ['and','CC','and'],
    {
      tag:'PERSON',
      content:
      [
        ['Cleve','NNP','clev']
      ]
    },
    ['share','NN','shar'],
    ['an','DT','an'],
    ['apartment','NN','apart'],
    ['.','.','.']
  ]
},
{
  tag:'S',
  content:
  [
    {
      tag:'GPE',
      content:
      [
        ['Carl','NNP','carl']
      ]
    },
    ['and','CC','and'],
    {
      tag:'PERSON',
      content:
      [
        ['Carol','NNP','carol']
      ]
    },
    ['work','NN','work'],
    ['out','RP','out'],
    ['together','RB','togeth'],
    ['.','.','.']
  ]
},
{
  tag:'S',
  content:
  [
    {
      tag:'GPE',
      content:
      [
        ['Mack','NNP','mack']
      ]
    },
    ['drops','NNS','drop'],
    ['by','IN','by'],
    ['at','IN','at'],
    ['practice','NN','pract'],
    ['daily','RB','dai'],
    [',',',',','],
    ['often','RB','oft'],
    ['reading','VBG','read'],
    ['a','DT','a'],
    ['newspaper','NN','newspap'],
    ['and','CC','and'],
    ['discussing','VBG','discuss'],
    ['world','NN','world'],
    ['problems','NNS','problem'],
    ['with','IN','with'],
    {
      tag:'PERSON',
      content:
      [
        ['Carl','NNP','carl']
      ]
    },
    ['and','CC','and'],
    ['others','NNS','oth'],
    ['.','.','.']
  ]
},
{
  tag:'S',
  content:
  [
    ['There','EX','There'],
    ['is','VBZ','be'],
    ['time','NN','tim'],
    ['to','TO','to'],
    ['talk','VB','talk'],
    ['because','IN','because'],
    {
      tag:'GPE',
      content:
      [
        ['Carl','NNP','carl']
      ]
    },
    ['trains','NNS','train'],
    ['lightly','RB','light'],
    ['these','DT','these'],
    ['days','NNS','day'],
    ['.','.','.']
  ]
},
{
  tag:'S',
  content:
  [
    {
      tag:'GPE',
      content:
      [
        ['Mack','NNP','mack']
      ]
    },
    ['says','VBZ','say'],
    {
      tag:'PERSON',
      content:
      [
        ['Carl','NNP','carl']
      ]
    },
    ['is','VBZ','be'],
    ['so','RB','so'],
    ['lazy','JJ','lazy'],
    ['that','IN','that'],
    ['he','PRP','he'],
    ['drives','VBZ','driv'],
    ['to','TO','to'],
    ['classes','NNS','class'],
    ['across','IN','across'],
    ['the','DT','the'],
    ['street','NN','street'],
    ['.','.','.']
  ]
},
{
  tag:'S',
  content:
  [
    {
      tag:'GPE',
      content:
      [
        ['Carl','NNP','carl']
      ]
    },
    ['laughs','NNS','laugh'],
    ['and','CC','and'],
    ['agrees','NNS','agr'],
    ['.','.','.']
  ]
},
{
  tag:'S',
  content:
  [
    ['''Actually','RB','''actually'],
    [',',',',','],
    ['''','''',''''],
    ['said','VBD','say'],
    {
      tag:'PERSON',
      content:
      [
        ['Carl','NNP','carl']
      ]
    },
    ['after','IN','after'],
    ['a','DT','a'],
    ['recent','JJ','rec'],
    ['workout','NN','workout'],
    [',',',',','],
    ['''I','NNP','''i'],
    [''m','NNP',''m'],
    ['doing','VBG','do'],
    ['maintenance','NN','maint'],
    ['training','NN','train'],
    ['.','.','.']
  ]
},
{
  tag:'S',
  content:
  [
    ['I','PRP','I'],
    ['do','VBP','do'],
    ['one','CD','one'],
    ['or','CC','or'],
    ['two','CD','two'],
    ['days','NNS','day'],
    ['a','DT','a'],
    ['week','NN','week'],
    ['of','IN','of'],
    ['tough','JJ','tough'],
    ['training','NN','train'],
    [',',',',','],
    ['then','RB','then'],
    ['just','RB','just'],
    ['work','NN','work'],
    ['on','IN','on'],
    ['technique','NN','techn'],
    ['.','.','.']
  ]
},
{
  tag:'S',
  content:
  [
    ['I','PRP','I'],
    ['jump','VBP','jump'],
    ['one','CD','one'],
    ['day','NN','day'],
    ['a','DT','a'],
    ['week','NN','week'],
    [',',',',','],
    ['five','CD','five'],
    ['or','CC','or'],
    ['six','CD','six'],
    ['jumps','NNS','jump'],
    ['at','IN','at'],
    ['most','JJS','most'],
    ['.','.','.']
  ]
},
{
  tag:'S',
  content:
  [
    ['And','CC','And'],
    ['they','PRP','they'],
    [''re','VBP',''re'],
    ['just','RB','just'],
    ['eight-step','JJ','eight-step'],
    ['approaches','NNS','approach'],
    ['and','CC','and'],
    ['popups','NNS','popup'],
    ['.','.','.']
  ]
},
{
  tag:'S',
  content:
  [
    ['My','PRP$','My'],
    ['normal','JJ','norm'],
    ['run','NN','run'],
    ['is','VBZ','be'],
    ['23','CD','23'],
    ['steps','NNS','step'],
    [',',',',','],
    ['but','CC','but'],
    ['I','PRP','I'],
    ['do','VBP','do'],
    ['n't','RB','n't'],
    ['think','VB','think'],
    ['it','PRP','it'],
    [''s','VBZ',''s'],
    ['necessary','JJ','necess'],
    ['to','TO','to'],
    ['put','VB','put'],
    ['my','PRP$','my'],
    ['jump','NN','jump'],
    ['together','RB','togeth'],
    ['until','IN','until'],
    ['a','DT','a'],
    ['meet','NN','meet'],
    ['.','.','.']
  ]
},
{
  tag:'S',
  content:
  [
    ['I','PRP','I'],
    ['never','RB','nev'],
    ['go','VBP','go'],
    ['full','JJ','ful'],
    ['out','IN','out'],
    ['in','IN','in'],
    ['practice','NN','pract'],
    ['.','.','.']
  ]
},
{
  tag:'S',
  content:
  [
    ['As','IN','As'],
    ['long','RB','long'],
    ['as','IN','as'],
    ['you','PRP','you'],
    ['know','VBP','know'],
    ['your','PRP$','your'],
    ['run','NN','run'],
    ['is','VBZ','be'],
    ['together','RB','togeth'],
    [',',',',','],
    ['that','IN','that'],
    [''s','POS',''s'],
    ['all','DT','all'],
    ['it','PRP','it'],
    ['takes','VBZ','tak'],
    ['.','.','.']
  ]
},
{
  tag:'S',
  content:
  [
    ['''','''',''''],
    ['If','IN','If'],
    {
      tag:'PERSON',
      content:
      [
        ['Lewis','NNP','lew']
      ]
    },
    [''s','POS',''s'],
    ['run','NN','run'],
    ['is','VBZ','be'],
    ['together','RB','togeth'],
    [',',',',','],
    {
      tag:'PERSON',
      content:
      [
        ['Beamon','NNP','beamon']
      ]
    },
    [''s','POS',''s'],
    ['record','NN','record'],
    ['is','VBZ','be'],
    ['in','IN','in'],
    ['danger','NN','dang'],
    ['.','.','.']
  ]
},
{
  tag:'S',
  content:
  [
    ['''The','DT','''The'],
    ['only','RB','on'],
    ['thing','VBG','thing'],
    ['between','IN','between'],
    ['me','PRP','me'],
    ['and','CC','and'],
    ['the','DT','the'],
    ['world','NN','world'],
    ['record','NN','record'],
    [',',',',','],
    ['''','''',''''],
    ['said','VBD','say'],
    {
      tag:'PERSON',
      content:
      [
        ['Lewis','NNP','lew']
      ]
    },
    [',',',',','],
    ['''is','NNP','''is'],
    ['my','PRP$','my'],
    ['run','NN','run'],
    ['.','.','.']
  ]
},
{
  tag:'S',
  content:
  [
    ['There','EX','There'],
    [''s','VBZ',''s'],
    ['absolutely','RB','absolv'],
    ['no','DT','no'],
    ['question','NN','quest'],
    ['I','PRP','I'],
    ['can','MD','can'],
    ['break','VB','break'],
    ['the','DT','the'],
    ['record','NN','record'],
    ['this','DT','this'],
    ['year','NN','year'],
    [',',',',','],
    ['maybe','RB','mayb'],
    ['at','IN','at'],
    ['the','DT','the'],
    ['nationals','NNS','nat'],
    ['in','IN','in'],
    {
      tag:'GPE',
      content:
      [
        ['Knoxville','NNP','knoxvil']
      ]
    },
    ['.','.','.']
  ]
},
{
  tag:'S',
  content:
  [
    ['''','''',''''],
    ['The','DT','The'],
    {
      tag:'ORGANIZATION',
      content:
      [
        ['Athletics','NNP','athlet']
      ]
    },
    {
      tag:'ORGANIZATION',
      content:
      [
        ['Congress','NNP','congress']
      ]
    },
    ['national','JJ','nat'],
    ['championships','NNS','champ'],
    ['will','MD','will'],
    ['be','VB','be'],
    ['held','VBN','hold'],
    ['June','NNP','jun'],
    ['18','CD','18'],
    ['through','IN','through'],
    ['20','CD','20'],
    [',',',',','],
    ['and','CC','and'],
    {
      tag:'PERSON',
      content:
      [
        ['Lewis','NNP','lew']
      ]
    },
    ['will','MD','will'],
    ['enter','VB','ent'],
    ['the','DT','the'],
    ['long','JJ','long'],
    ['jump','NN','jump'],
    ['and','CC','and'],
    ['the','DT','the'],
    ['100','CD','100'],
    ['there','EX','there'],
    ['.','.','.']
  ]
},
{
  tag:'S',
  content:
  [
    ['Last','JJ','last'],
    ['year','NN','year'],
    [',',',',','],
    ['he','PRP','he'],
    ['won','VBD','win'],
    ['the','DT','the'],
    ['sprint','NN','sprint'],
    ['and','CC','and'],
    ['long','JJ','long'],
    ['jump','NN','jump'],
    ['outdoors','NNS','outdo'],
    ['and','CC','and'],
    ['indoors','NNS','indo'],
    ['in','IN','in'],
    ['those','DT','those'],
    ['championships','NNS','champ'],
    ['and','CC','and'],
    ['the','DT','the'],
    {
      tag:'ORGANIZATION',
      content:
      [
        ['National','NNP','nat'],
        ['Collegiate','NNP','collegy'],
        ['Athletic','NNP','athlet'],
        ['Association','NNP','assocy']
      ]
    },
    ['championships','VBZ','champ'],
    [',',',',','],
    ['a','DT','a'],
    ['sweep','NN','sweep'],
    ['never','RB','nev'],
    ['before','IN','before'],
    ['achieved','VBN','achiev'],
    ['.','.','.']
  ]
},
{
  tag:'S',
  content:
  [
    ['Now','RB','now'],
    [',',',',','],
    ['his','PRP$','his'],
    ['priority','NN','pri'],
    ['is','VBZ','be'],
    ['the','DT','the'],
    ['long','JJ','long'],
    ['jump','NN','jump'],
    ['.','.','.']
  ]
},
{
  tag:'S',
  content:
  [
    ['1','LS','1'],
    ['2','CD','2'],
    ['Next','JJ','next'],
    ['Page','NNP','pag'],
    ['>','NNP','>'],
    ['This','NNP','thi'],
    ['week','NN','week'],
    [':',':',':'],
    ['complimentary','JJ','comply'],
    ['access','NN','access'],
    ['to','TO','to'],
    {
      tag:'ORGANIZATION',
      content:
      [
        ['International','NNP','intern'],
        ['New','NNP','new'],
        ['York','NNP','york'],
        ['Times','NNP','tim'],
        ['Advertise','NNP','advert']
      ]
    },
    ['on','IN','on'],
    ['NYTimes.com','NNP','nytimes.com'],
    ['From','NNP','from'],
    ['Hermès','NNP','hermè'],
    [',',',',','],
    ['couture','NN','cout'],
    ['jewelry','NN','jewelry'],
    ['inspired','VBD','inspir'],
    ['by','IN','by'],
    ['crocodiles','NNS','crocodil'],
    ['Also','RB','also'],
    ['in','IN','in'],
    {
      tag:'ORGANIZATION',
      content:
      [
        ['T','NNP','t'],
        ['Magazine','NNP','magazin']
      ]
    },
    ['»','NNP','»'],
    ['Belgrade','NNP','belgrad'],
    [',',',',','],
    {
      tag:'GPE',
      content:
      [
        ['Europe','NNP','europ']
      ]
    },
    [''s','POS',''s'],
    ['latest','JJS','lat'],
    ['urban','NN','urb'],
    ['success','NN','success'],
    ['story','NN','story'],
    ['Sourcing','NNP','sourc'],
    {
      tag:'PERSON',
      content:
      [
        ['Ralph','NNP','ralph'],
        ['Lauren','NNP','laur']
      ]
    },
    [''s','POS',''s'],
    ['home','NN','hom'],
    ['collection','NN','collect'],
    {
      tag:'PERSON',
      content:
      [
        ['Inside','NNP','insid']
      ]
    },
    ['NYTimes.com','NNP','nytimes.com'],
    ['Theater','NNP','the'],
    ['»','NNP','»'],
    ['‘The','NNP','‘the'],
    {
      tag:'PERSON',
      content:
      [
        ['Model','NNP','model'],
        ['Apartment','NNP','apart']
      ]
    },
    [',',',',','],
    ['’','NNP','’'],
    ['by','IN','by'],
    {
      tag:'ORGANIZATION',
      content:
      [
        ['Donald','NNP','donald'],
        ['Margulies','NNPS','margu'],
        ['Sports','NNP','sport']
      ]
    },
    ['»','NNP','»'],
    ['In','NNP','in'],
    ['Argentine','NNP','argentin'],
    ['Soccer','NNP','socc'],
    [',',',',','],
    ['a','DT','a'],
    {
      tag:'ORGANIZATION',
      content:
      [
        ['Rivalry','NNP','rivalry']
      ]
    },
    ['Cleaves','NNP','cleav'],
    ['a','DT','a'],
    {
      tag:'ORGANIZATION',
      content:
      [
        ['City','NNP','city'],
        ['Opinion','NNP','opin']
      ]
    },
    ['»','NNP','»'],
    ['Invitation','NNP','invit'],
    ['to','TO','to'],
    ['a','DT','a'],
    ['Dialogue','NNP','dialog'],
    [':',':',':'],
    ['When','WRB','When'],
    {
      tag:'PERSON',
      content:
      [
        ['Doctors','NNS','doct'],
        ['Slip','NNP','slip'],
        ['Up','NNP','up'],
        ['Dining','NNP','din']
      ]
    },
    ['&','CC','&'],
    {
      tag:'PERSON',
      content:
      [
        ['Wine','NNP','win']
      ]
    },
    ['»','NNP','»'],
    ['Restaurants','NNP','resta'],
    [':',':',':'],
    ['Khe-Yo','JJ','khe-yo'],
    ['and','CC','and'],
    {
      tag:'PERSON',
      content:
      [
        ['Whiskey','NNP','whiskey'],
        ['Soda','NNP','sod'],
        ['Lounge','NNP','loung'],
        ['Opinion','NNP','opin']
      ]
    },
    ['»','NNP','»'],
    ['Op-Ed','NNP','op-ed'],
    [':',':',':'],
    {
      tag:'PERSON',
      content:
      [
        ['Beyond','NNP','beyond']
      ]
    },
    ['Boehner’s','NNP','boehner’s'],
    ['Reach','NNP','reach'],
    ['When','NNP','when'],
    ['freedom','NN','freedom'],
    ['is','VBZ','be'],
    ['outlawed','VBN','outlaw'],
    [',',',',','],
    ['only','RB','on'],
    ['outlaws','VBZ','outlaw'],
    ['will','MD','will'],
    ['be','VB','be'],
    ['free','JJ','fre'],
    ['.','.','.']
  ]
},
{
  tag:'S',
  content:
  [
    ['Or','CC','Or'],
    ['certain','JJ','certain'],
    ['climbers','NNS','climb'],
    ['in','IN','in'],
    {
      tag:'ORGANIZATION',
      content:
      [
        ['Yosemite','NNP','yosemit'],
        ['National','NNP','nat'],
        ['Park','NNP','park']
      ]
    },
    ['.','.','.']
  ]
},
{
  tag:'S',
  content:
  [
    ['World','NN','world'],
    ['»','``','»'],
    {
      tag:'PERSON',
      content:
      [
        ['Muzzled','NNP','muzzl'],
        ['Chinese','NNP','chines'],
        ['Artwork','NNP','artwork']
      ]
    },
    [',',',',','],
    {
      tag:'GPE',
      content:
      [
        ['Absent','NNP','abs']
      ]
    },
    [',',',',','],
    {
      tag:'PERSON',
      content:
      [
        ['Speaks','NNP','speak'],
        ['Volumes','NNP','volum'],
        ['Opinion','NNP','opin']
      ]
    },
    ['»','NNP','»'],
    {
      tag:'PERSON',
      content:
      [
        ['Murong','NNP','murong'],
        ['Xuecun','NNP','xuecun']
      ]
    },
    [':',':',':'],
    ['Busting','NNP','bust'],
    ['China’s','NNP','china’s'],
    ['Bloggers','NNP','blog'],
    ['Health','NNP','heal'],
    ['»','NNP','»'],
    ['Pounding','NNP','pound'],
    ['Pavement','NNP','pav'],
    ['By','NNP','by'],
    ['Heel','NNP','heel'],
    ['or','CC','or'],
    {
      tag:'ORGANIZATION',
      content:
      [
        ['Toe','NNP','toe'],
        ['U.S.','NNP','u.s.']
      ]
    },
    ['»','NNP','»'],
    ['Father’s','NNP','father’s'],
    ['Memorial','NNP','mem'],
    ['Trek','NNP','trek'],
    ['Ends','NNPS','end'],
    ['in','IN','in'],
    {
      tag:'GPE',
      content:
      [
        ['Second','NNP','second']
      ]
    },
    ['Tragedy','NNP','tragedy'],
    ['Dining','NNP','din'],
    ['&','CC','&'],
    {
      tag:'PERSON',
      content:
      [
        ['Wine','NNP','win']
      ]
    },
    ['»','NNP','»'],
    ['China’s','NNP','china’s'],
    ['Dining','NNP','din'],
    ['Acrobatics','NNP','acrob'],
    ['Opinion','NNP','opin'],
    ['»','NNP','»'],
    ['Gay','NNP','gay'],
    ['vs.','NNP','vs.'],
    ['Trans','NNP','tran'],
    ['Rights','NNP','right'],
    ['The','NNP','the'],
    ['big','JJ','big'],
    ['wins','NNS','win'],
    ['have','VBP','hav'],
    ['been','VBN','be'],
    ['for','IN','for'],
    ['gays','NNS','gay'],
    ['and','CC','and'],
    ['lesbians','NNS','lesb'],
    [',',',',','],
    ['more','RBR','mor'],
    ['than','IN','than'],
    ['for','IN','for'],
    ['transgender','NN','transgend'],
    ['people','NNS','peopl'],
    ['.','.','.']
  ]
},
{
  tag:'S',
  content:
  [
    {
      tag:'GPE',
      content:
      [
        ['Room','NNP','room']
      ]
    },
    ['for','IN','for'],
    {
      tag:'ORGANIZATION',
      content:
      [
        ['Debate','NNP','deb']
      ]
    },
    ['asks','VBZ','ask'],
    [':',':',':'],
    ['Are','JJ','ar'],
    ['the','DT','the'],
    ['two','CD','two'],
    ['groups’','JJ','groups’'],
    ['goals','NNS','goal'],
    ['still','RB','stil'],
    ['aligned','VBN','align'],
    ['?','.','?']
  ]
},
{
  tag:'S',
  content:
  [
    ['Arts','NNS','art'],
    ['»','VBP','»'],
    {
      tag:'PERSON',
      content:
      [
        ['Belafonte','NNP','belafont'],
        ['Sues','NNP','sue'],
        ['Heirs','NNP','heir']
      ]
    },
    ['of','IN','of'],
    {
      tag:'PERSON',
      content:
      [
        ['Martin','NNP','martin'],
        ['Luther','NNP','luth']
      ]
    },
    ['King','NNP','king'],
    ['Jr.','NNP','jr.'],
    ['©','NNP','©'],
    ['2013','CD','2013'],
    ['The','NNP','the'],
    {
      tag:'GPE',
      content:
      [
        ['New','NNP','new'],
        ['York','NNP','york']
      ]
    },
    {
      tag:'PERSON',
      content:
      [
        ['Times','NNP','tim'],
        ['Company','NNP','company'],
        ['Site','NNP','sit'],
        ['Map','NNP','map'],
        ['Privacy','NNP','priv']
      ]
    },
    ['Your','NNP','yo'],
    ['Ad','NNP','ad'],
    ['Choices','NNPS','cho'],
    {
      tag:'PERSON',
      content:
      [
        ['Advertise','NNP','advert'],
        ['Terms','NNP','term']
      ]
    },
    ['of','IN','of'],
    {
      tag:'PERSON',
      content:
      [
        ['Sale','NNP','sal'],
        ['Terms','NNP','term']
      ]
    },
    ['of','IN','of'],
    {
      tag:'ORGANIZATION',
      content:
      [
        ['Service','NNP','serv'],
        ['Work','NNP','work']
      ]
    },
    ['With','NNP','with'],
    {
      tag:'PERSON',
      content:
      [
        ['Us','NNP','us'],
        ['RSS','NNP','rss'],
        ['Help','NNP','help'],
        ['Contact','NNP','contact'],
        ['Us','NNP','us'],
        ['Site','NNP','sit'],
        ['Feedback','NNP','feedback']
      ]
    }
  ]
}]