[
{
  tag:'S',
  content:
  [
    {
      tag:'GPE',
      content:
      [
        ['Home','NN','hom']
      ]
    },
    ['Op-Ed','JJ','op-ed'],
    {
      tag:'ORGANIZATION',
      content:
      [
        ['Mizo','NNP','mizo'],
        ['News','NNP','new'],
        ['Nation','NNP','nat']
      ]
    },
    ['World','NNP','world'],
    ['Entertainment','NNP','entertain'],
    ['Sports','NNP','sport'],
    ['Science/Tech','NNP','science/tech'],
    ['Offbeat','NNP','offb'],
    ['About','NNP','about'],
    ['Us','NNP','us'],
    ['Privacy','NNP','priv'],
    ['Videos','NNP','video'],
    ['Last','NNP','last'],
    ['updated','VBD','upd'],
    [':',':',':'],
    ['October','NNP','octob'],
    ['17','CD','17'],
    [',',',',','],
    ['2013','CD','2013'],
    ['Welcome','NNP','welcom'],
    ['visitor','NN','visit'],
    [',',',',','],
    ['you','PRP','you'],
    ['are','VBP','be'],
    ['currently','RB','cur'],
    ['not','RB','not'],
    ['logged','VBN','log'],
    ['in','IN','in'],
    ['.','.','.']
  ]
},
{
  tag:'S',
  content:
  [
    {
      tag:'GPE',
      content:
      [
        ['Log','NNP','log']
      ]
    },
    ['in','IN','in'],
    ['»','NNP','»'],
    ['»','NNP','»'],
    ['Political','NNP','polit'],
    ['will','MD','will'],
    ['needed','VB','nee'],
    ['to','TO','to'],
    ['end','VB','end'],
    ['hunger','JJR','hung'],
    [':',':',':'],
    {
      tag:'PERSON',
      content:
      [
        ['Luiz','NNP','luiz'],
        ['Inacio','NNP','inacio'],
        ['Lula','NNP','lul']
      ]
    },
    ['IANS','NNP','ian'],
    ['|','NNP','|'],
    ['October','NNP','octob'],
    ['11','CD','11'],
    [',',',',','],
    ['2013','CD','2013'],
    ['|',':','|'],
    ['World','NNP','world'],
    ['|',':','|'],
    ['0','-NONE-','0'],
    {
      tag:'ORGANIZATION',
      content:
      [
        ['Comments','NNS','com'],
        ['Rio','NNP','rio'],
        ['De','NNP','de']
      ]
    },
    ['Janeiro','NNP','janeiro'],
    [':',':',':'],
    {
      tag:'PERSON',
      content:
      [
        ['Hunger','NNP','hung']
      ]
    },
    ['and','CC','and'],
    ['poverty','NN','poverty'],
    ['are','VBP','be'],
    ['the','DT','the'],
    ['main','JJ','main'],
    ['reasons','NNS','reason'],
    ['why','WRB','why'],
    ['children','NNS','child'],
    ['are','VBP','be'],
    ['forced','VBN','forc'],
    ['to','TO','to'],
    ['work','VB','work'],
    ['and','CC','and'],
    ['though','IN','though'],
    ['there','EX','there'],
    ['is','VBZ','be'],
    ['no','DT','no'],
    ['shortage','NN','short'],
    ['of','IN','of'],
    ['resources','NNS','resourc'],
    [',',',',','],
    ['“lack','JJ','“lack'],
    ['of','IN','of'],
    ['shame','NN','sham'],
    ['and','CC','and'],
    ['political','JJ','polit'],
    ['will','MD','will'],
    ['to','TO','to'],
    ['confront','VB','confront'],
    ['this','DT','this'],
    ['problem”','NN','problem”'],
    ['defies','VBZ','defy'],
    ['a','DT','a'],
    ['solution','NN','solv'],
    [',',',',','],
    ['Brazil’s','NNP','brazil’s'],
    ['former','JJ','form'],
    ['president','NN','presid'],
    {
      tag:'PERSON',
      content:
      [
        ['Luiz','NNP','luiz'],
        ['Inacio','NNP','inacio'],
        ['Lula','NNP','lul']
      ]
    },
    ['da','NN','da'],
    {
      tag:'PERSON',
      content:
      [
        ['Silva','NNP','silv']
      ]
    },
    ['has','VBZ','hav'],
    ['said','VBD','say'],
    ['.','.','.']
  ]
},
{
  tag:'S',
  content:
  [
    {
      tag:'GPE',
      content:
      [
        ['Lula','NNP','lul']
      ]
    },
    ['and','CC','and'],
    ['President','NNP','presid'],
    {
      tag:'PERSON',
      content:
      [
        ['Dilma','NNP','dilm'],
        ['Rousseff','NNP','rousseff']
      ]
    },
    ['took','VBD','tak'],
    ['part','NN','part'],
    ['in','IN','in'],
    ['the','DT','the'],
    ['closing','JJ','clos'],
    ['ceremony','NN','ceremony'],
    ['Thursday','NNP','thursday'],
    ['of','IN','of'],
    ['the','DT','the'],
    ['third','JJ','third'],
    ['global','JJ','glob'],
    ['conference','NN','conf'],
    ['on','IN','on'],
    ['child','NN','child'],
    ['labour','NN','labo'],
    ['organized','VBD','org'],
    ['by','IN','by'],
    ['the','DT','the'],
    {
      tag:'ORGANIZATION',
      content:
      [
        ['International','NNP','intern'],
        ['Labour','NNP','labo'],
        ['Organization','NNP','org']
      ]
    },
    ['(','NNP','('],
    {
      tag:'ORGANIZATION',
      content:
      [
        ['ILO','NNP','ilo']
      ]
    },
    [')','NNP',')'],
    ['in','IN','in'],
    {
      tag:'GPE',
      content:
      [
        ['Brazil’s','NNP','brazil’s']
      ]
    },
    ['capital','NN','capit'],
    ['city','NN','city'],
    {
      tag:'PERSON',
      content:
      [
        ['Brasilia','NNP','brasil']
      ]
    },
    [',',',',','],
    ['reports','VBZ','report'],
    {
      tag:'PERSON',
      content:
      [
        ['Xinhua','NNP','xinhu']
      ]
    },
    ['.','.','.']
  ]
},
{
  tag:'S',
  content:
  [
    ['Recalling','VBG','recal'],
    ['his','PRP$','his'],
    ['own','JJ','own'],
    ['life','NN','lif'],
    [',',',',','],
    {
      tag:'PERSON',
      content:
      [
        ['Lula','NNP','lul']
      ]
    },
    ['said','VBD','say'],
    ['in','IN','in'],
    ['a','DT','a'],
    ['speech','NN','speech'],
    ['that','WDT','that'],
    ['hunger','JJR','hung'],
    ['and','CC','and'],
    ['poverty','NN','poverty'],
    ['are','VBP','be'],
    ['the','DT','the'],
    ['main','JJ','main'],
    ['reasons','NNS','reason'],
    ['why','WRB','why'],
    ['children','NNS','child'],
    ['are','VBP','be'],
    ['forced','VBN','forc'],
    ['to','TO','to'],
    ['work','VB','work'],
    ['.','.','.']
  ]
},
{
  tag:'S',
  content:
  [
    ['“There','JJ','“there'],
    ['is','VBZ','be'],
    ['no','DT','no'],
    ['shortage','NN','short'],
    ['of','IN','of'],
    ['resources','NNS','resourc'],
    ['but','CC','but'],
    ['lack','VBP','lack'],
    ['of','IN','of'],
    ['shame','NN','sham'],
    ['and','CC','and'],
    ['political','JJ','polit'],
    ['will','MD','will'],
    ['to','TO','to'],
    ['confront','VB','confront'],
    ['this','DT','this'],
    ['problem','NN','problem'],
    [',',',',','],
    ['”',':','”'],
    ['he','PRP','he'],
    ['said','VBD','say'],
    ['.','.','.']
  ]
},
{
  tag:'S',
  content:
  [
    ['“Child','JJ','“child'],
    ['labour','PRP$','labour'],
    ['is','VBZ','be'],
    ['usually','RB','us'],
    ['rampant','JJ','ramp'],
    ['in','IN','in'],
    ['the','DT','the'],
    ['poorest','NN','poorest'],
    ['regions','NNS','reg'],
    ['of','IN','of'],
    ['the','DT','the'],
    ['world','NN','world'],
    ['.','.','.']
  ]
},
{
  tag:'S',
  content:
  [
    ['Besides','IN','Besides'],
    ['hunger','JJR','hung'],
    [',',',',','],
    ['there','EX','there'],
    ['are','VBP','be'],
    ['certainly','RB','certain'],
    ['other','JJ','oth'],
    ['reasons','NNS','reason'],
    ['for','IN','for'],
    ['child','NN','child'],
    ['labour','NN','labo'],
    [',',',',','],
    ['such','JJ','such'],
    ['as','IN','as'],
    ['economic','JJ','econom'],
    ['condition','NN','condit'],
    [',',',',','],
    ['traditions','NNS','tradit'],
    ['and','CC','and'],
    ['political','JJ','polit'],
    ['situation','NN','situ'],
    [',',',',','],
    ['”',':','”'],
    {
      tag:'PERSON',
      content:
      [
        ['Lula','NNP','lul']
      ]
    },
    ['added','VBD','ad'],
    ['.','.','.']
  ]
},
{
  tag:'S',
  content:
  [
    ['He','PRP','He'],
    ['said','VBD','say'],
    ['the','DT','the'],
    ['first','JJ','first'],
    ['step','NN','step'],
    ['towards','NNS','toward'],
    ['speeding','VBG','spee'],
    ['up','RP','up'],
    ['the','DT','the'],
    ['fight','NN','fight'],
    ['against','IN','against'],
    ['child','NN','child'],
    ['labour','NN','labo'],
    ['is','VBZ','be'],
    ['to','TO','to'],
    ['promote','VB','promot'],
    ['wealth','NN','weal'],
    ['distribution','NN','distribut'],
    ['in','IN','in'],
    ['the','DT','the'],
    ['poorest','NN','poorest'],
    ['regions','NNS','reg'],
    ['of','IN','of'],
    ['the','DT','the'],
    ['world','NN','world'],
    ['.','.','.']
  ]
},
{
  tag:'S',
  content:
  [
    ['About','IN','About'],
    ['1,300','CD','1,300'],
    ['delegates','NNS','deleg'],
    ['from','IN','from'],
    ['153','CD','153'],
    ['countries','NNS','country'],
    ['participated','VBN','particip'],
    ['and','CC','and'],
    ['discussed','VBN','discuss'],
    ['education','NN','educ'],
    [',',',',','],
    ['social','JJ','soc'],
    ['policy','NN','policy'],
    ['and','CC','and'],
    ['inequality','NN','ineq'],
    ['in','IN','in'],
    ['the','DT','the'],
    ['conference','NN','conf'],
    ['.','.','.']
  ]
},
{
  tag:'S',
  content:
  [
    ['According','VBG','accord'],
    ['to','TO','to'],
    {
      tag:'ORGANIZATION',
      content:
      [
        ['ILO','NNP','ilo']
      ]
    },
    [',',',',','],
    ['168','CD','168'],
    ['million','CD','million'],
    ['children','NNS','child'],
    ['continue','VBP','continu'],
    ['to','TO','to'],
    ['be','VB','be'],
    ['part','NN','part'],
    ['of','IN','of'],
    ['the','DT','the'],
    ['world’s','JJ','world’s'],
    ['labour','NN','labo'],
    ['force','NN','forc'],
    ['today','NN','today'],
    ['despite','IN','despite'],
    ['significant','JJ','sign'],
    ['progress','NN','progress'],
    ['having','VBG','hav'],
    ['been','VBN','be'],
    ['made','VBN','mak'],
    ['in','IN','in'],
    ['addressing','NN','address'],
    ['the','DT','the'],
    ['issue','NN','issu'],
    ['.','.','.']
  ]
},
{
  tag:'S',
  content:
  [
    ['LATEST','JJS','latest'],
    {
      tag:'ORGANIZATION',
      content:
      [
        ['MIZORAM','NN','mizoram']
      ]
    },
    {
      tag:'ORGANIZATION',
      content:
      [
        ['NEWS','NN','new']
      ]
    },
    {
      tag:'ORGANIZATION',
      content:
      [
        ['FAO','NNP','fao']
      ]
    },
    ['team','NN','team'],
    ['inspects','NNS','inspect'],
    ['agricultural','JJ','agricult'],
    ['projects','NNS','project'],
    ['in','IN','in'],
    {
      tag:'GPE',
      content:
      [
        ['Mizoram','NNP','mizoram']
      ]
    },
    ['ZNP','NNP','znp'],
    ['will','MD','will'],
    ['pu','VB','pu'],
    ['up','RP','up'],
    ['best','JJS','best'],
    ['candidates','NNS','candid'],
    ['for','IN','for'],
    {
      tag:'PERSON',
      content:
      [
        ['Mizoram','NNP','mizoram'],
        ['Assembly','NNP','assembl']
      ]
    },
    ['election','NN','elect'],
    [',',',',','],
    ['says','VBZ','say'],
    {
      tag:'PERSON',
      content:
      [
        ['Lalduhoma','NNP','lalduhom'],
        ['Oil','NNP','oil'],
        ['Palm','NNP','palm']
      ]
    },
    ['cultivation','NN','cult'],
    ['successful','JJ','success'],
    ['in','IN','in'],
    {
      tag:'GPE',
      content:
      [
        ['Mizoram','NNP','mizoram']
      ]
    },
    [',',',',','],
    ['says','VBZ','say'],
    ['committee','NN','commit'],
    ['Chawngte','NNP','chawngt'],
    ['town','NN','town'],
    ['hit','VBD','hit'],
    ['by','IN','by'],
    ['total','JJ','tot'],
    ['bandh','NN','bandh'],
    ['in','IN','in'],
    ['protest','NN','protest'],
    ['against','IN','against'],
    ['irregular','JJ','irregul'],
    ['power','NN','pow'],
    ['supply','NN','supply'],
    {
      tag:'PERSON',
      content:
      [
        ['Mizoram','NNP','mizoram']
      ]
    },
    ['election','NN','elect'],
    ['officials','NNS','off'],
    ['to','TO','to'],
    ['keep','VB','keep'],
    ['eye','NN','ey'],
    ['on','IN','on'],
    ['social','JJ','soc'],
    ['networking','NN','network'],
    ['sites','NNS','sit'],
    {
      tag:'ORGANIZATION',
      content:
      [
        ['MNF','NNP','mnf']
      ]
    },
    ['tells','NNS','tel'],
    {
      tag:'PERSON',
      content:
      [
        ['Mizoram','NNP','mizoram'],
        ['Congress','NNP','congress']
      ]
    },
    ['not','RB','not'],
    ['to','TO','to'],
    ['join','VB','join'],
    ['hand','NN','hand'],
    ['with','IN','with'],
    ['insurgent','NN','insurg'],
    ['groups','NNS','group'],
    {
      tag:'PERSON',
      content:
      [
        ['Mizoram','NNP','mizoram']
      ]
    },
    ['school','NN','school'],
    ['wins','VBZ','win'],
    ['U-14','-NONE-','U-14'],
    ['Subroto','NNP','subroto'],
    ['Cup','NNP','cup'],
    ['title','NN','titl'],
    {
      tag:'PERSON',
      content:
      [
        ['Politics','NNP','polit']
      ]
    },
    ['started','VBD','start'],
    ['too','RB','too'],
    ['soon','RB','soon'],
    [':',':',':'],
    {
      tag:'PERSON',
      content:
      [
        ['Ratan','NNP','rat'],
        ['Rajput','NNP','rajput']
      ]
    },
    ['on','IN','on'],
    ['‘Bigg','JJ','‘bigg'],
    ['Boss’','NN','boss’'],
    {
      tag:'ORGANIZATION',
      content:
      [
        ['MIZO','NNP','mizo']
      ]
    },
    ['NEWS','NNP','new'],
    ['WORLDWIDE','NNP','worldwid'],
    ['Book','NNP','book'],
    ['on','IN','on'],
    ['Kuki','NNP','kuk'],
    ['women','NNS','wom'],
    ['set','VBD','set'],
    ['for','IN','for'],
    ['November','NNP','novemb'],
    ['launch','NN','launch'],
    ['74th','CD','74th'],
    ['anniversary','JJ','annivers'],
    ['of','IN','of'],
    {
      tag:'PERSON',
      content:
      [
        ['Hmar','NNP','hmar']
      ]
    },
    ['Students’','NNP','students’'],
    ['Association','NNP','assocy'],
    ['held','VBD','hold'],
    ['in','IN','in'],
    ['Kolasib','NNP','kolasib'],
    ['3rd','CD','3rd'],
    ['World','NNP','world'],
    ['Zomi','NNP','zom'],
    ['Convention','NNP','conv'],
    ['has','VBZ','hav'],
    ['blessing','VBG','bless'],
    ['of','IN','of'],
    {
      tag:'ORGANIZATION',
      content:
      [
        ['ZoRO','NNP','zoro']
      ]
    },
    [',',',',','],
    ['says','VBZ','say'],
    ['convenor','NN','conv'],
    {
      tag:'PERSON',
      content:
      [
        ['Mizo','NNP','mizo']
      ]
    },
    ['gospel','NN','gospel'],
    ['singer','NN','sing'],
    {
      tag:'PERSON',
      content:
      [
        ['Saizikpuii','NNP','saizikpui'],
        ['Sailo','NNP','sailo']
      ]
    },
    ['dies','VBZ','die'],
    ['of','IN','of'],
    ['cervix','NN','cervix'],
    ['cancer','NN','cant'],
    {
      tag:'PERSON',
      content:
      [
        ['Kuki','NNP','kuk']
      ]
    },
    ['Students’','NNP','students’'],
    ['Organisation','NNP','org'],
    ['holds','VBZ','hold'],
    ['‘Black','JJ','‘black'],
    ['Day’','NN','day’'],
    ['TODAY’S','NNS','today’s'],
    {
      tag:'ORGANIZATION',
      content:
      [
        ['TOP','NNP','top']
      ]
    },
    ['STORIES','NNP','story'],
    ['High','NNP','high'],
    ['tide','NN','tid'],
    ['in','IN','in'],
    {
      tag:'GPE',
      content:
      [
        ['Digha','NNP','digh']
      ]
    },
    [',',',',','],
    ['lakhs','VBZ','lakh'],
    ['evacuated','VBN','evacu'],
    ['from','IN','from'],
    ['Bengal’s','NNP','bengal’s'],
    ['coastal','NN','coast'],
    ['areas','NNS','are'],
    ['Cyclone','NNP','cyclon'],
    ['hits','NNS','hit'],
    ['coast','VBP','coast'],
    [',',',',','],
    ['heavy','JJ','heavy'],
    ['rains','NNS','rain'],
    ['in','IN','in'],
    {
      tag:'GPE',
      content:
      [
        ['Odisha','NNP','odish']
      ]
    },
    [',',',',','],
    {
      tag:'PERSON',
      content:
      [
        ['Andhra','NNP','andhr']
      ]
    },
    ['Tendulkar`s','NNP','tendulkar`s'],
    ['200th','CD','200th'],
    ['Test','NNP','test'],
    ['will','MD','will'],
    ['be','VB','be'],
    ['in','IN','in'],
    {
      tag:'GPE',
      content:
      [
        ['Mumbai','NNP','mumba']
      ]
    },
    [':',':',':'],
    {
      tag:'PERSON',
      content:
      [
        ['Board','NNP','board']
      ]
    },
    ['of','IN','of'],
    {
      tag:'ORGANIZATION',
      content:
      [
        ['Control','NNP','control']
      ]
    },
    ['for','IN','for'],
    ['Cricket','NNP','cricket'],
    ['in','IN','in'],
    {
      tag:'GPE',
      content:
      [
        ['India','NNP','ind']
      ]
    },
    ['(','NNP','('],
    {
      tag:'ORGANIZATION',
      content:
      [
        ['BCCI','NNP','bcci']
      ]
    },
    [')','NNP',')'],
    ['Sachin','NNP','sachin'],
    ['tendulkar','NN','tendulk'],
    ['would','MD','would'],
    ['have','VB','hav'],
    ['known','VBN','know'],
    ['he','PRP','he'],
    ['can’t','-NONE-','can’t'],
    ['carry','VBP','carry'],
    ['on','IN','on'],
    [':',':',':'],
    {
      tag:'PERSON',
      content:
      [
        ['Rahul','NNP','rah'],
        ['Dravid','NNP','dravid']
      ]
    },
    ['CBI’s','NNP','cbi’s'],
    ['final','JJ','fin'],
    ['arguments','NNS','argu'],
    ['in','IN','in'],
    ['Aarushi-Hemraj','NNP','aarushi-hemraj'],
    ['case','NN','cas'],
    ['Oct','NNP','oct'],
    ['15','CD','15'],
    {
      tag:'ORGANIZATION',
      content:
      [
        ['RECENT','NNP','rec']
      ]
    },
    {
      tag:'ORGANIZATION',
      content:
      [
        ['COMMENTS','NNP','com']
      ]
    },
    ['Recent','NNP','rec'],
    ['Comments','NNP','com'],
    ['OPINION-EDITORIAL','JJ','opinion-editorial'],
    ['Protection','NNP','protect'],
    ['of','IN','of'],
    ['camels','NNS','camel'],
    [':',':',':'],
    ['A','DT','A'],
    ['sign','NN','sign'],
    ['of','IN','of'],
    ['inability','NN','in'],
    ['to','TO','to'],
    ['enforce','VB','enforc'],
    ['laws','NNS','law'],
    ['in','IN','in'],
    {
      tag:'GPE',
      content:
      [
        ['India','NNP','ind']
      ]
    },
    ['Attitude','NNP','attitud'],
    ['towards','NNS','toward'],
    ['animals','NNS','anim'],
    ['must','MD','must'],
    ['change','VB','chang'],
    {
      tag:'PERSON',
      content:
      [
        ['Kuki','NNP','kuk'],
        ['State','NNP','stat'],
        ['Demand','NNP','demand']
      ]
    },
    ['in','IN','in'],
    {
      tag:'GPE',
      content:
      [
        ['Manipur','NNP','manip']
      ]
    },
    [':',':',':'],
    ['The','DT','The'],
    ['only','JJ','on'],
    ['viable','JJ','viabl'],
    ['option','NN','opt'],
    ['for','IN','for'],
    ['the','DT','the'],
    {
      tag:'ORGANIZATION',
      content:
      [
        ['Kukis','NNP','kuk']
      ]
    },
    ['Government','NNP','govern'],
    ['must','MD','must'],
    ['protect','VB','protect'],
    ['people','NNS','peopl'],
    ['who','WP','who'],
    ['take','VB','tak'],
    ['care','VBP','car'],
    ['of','IN','of'],
    ['animals','NNS','anim'],
    ['Be','NNP','be'],
    ['kind','NN','kind'],
    ['to','TO','to'],
    ['cats','NNS','cat'],
    [',',',',','],
    {
      tag:'PERSON',
      content:
      [
        ['Allah','NNP','allah']
      ]
    },
    ['will','MD','will'],
    ['bestow','VB','bestow'],
    ['His','NNP','his'],
    ['kindness','NN','kind'],
    ['to','TO','to'],
    ['you','PRP','you'],
    {
      tag:'ORGANIZATION',
      content:
      [
        ['HUMAN','NNP','hum']
      ]
    },
    {
      tag:'ORGANIZATION',
      content:
      [
        ['INTEREST','NNP','interest']
      ]
    },
    ['STORIES/OFFBEAT','NNP','stories/offbeat'],
    ['Vrindavan’','NNP','vrindavan’'],
    ['dumped','VBD','dump'],
    ['widows','VBZ','widow'],
    ['make','NN','mak'],
    ['nostalgic','NN','nostalg'],
    {
      tag:'PERSON',
      content:
      [
        ['Kolkata','NNP','kolkat']
      ]
    },
    ['trip','NN','trip'],
    ['Vietnamese','NNP','vietnames'],
    ['legendary','NN','legend'],
    ['general','NN','gen'],
    {
      tag:'PERSON',
      content:
      [
        ['Vo','NNP','vo'],
        ['Nguyen','NNP','nguy']
      ]
    },
    ['Giap','NNP','giap'],
    ['who','WP','who'],
    ['defeated','VBN','def'],
    ['Americans','NNPS','am'],
    ['dies','NNS','dy'],
    ['at','IN','at'],
    ['102','CD','102'],
    ['Bee-stung','JJ','bee-stung'],
    {
      tag:'PERSON',
      content:
      [
        ['Jammu','NNP','jammu']
      ]
    },
    ['woman','NN','wom'],
    ['rescued','VBD','rescu'],
    ['by','IN','by'],
    ['army','NN','army'],
    ['Life-size','JJ','life-siz'],
    ['statue','NN','statu'],
    ['of','IN','of'],
    {
      tag:'GPE',
      content:
      [
        ['Egyptian','NNP','egypt']
      ]
    },
    ['pharaoh','NN','pharaoh'],
    ['uncovered','VBD','uncov'],
    {
      tag:'PERSON',
      content:
      [
        ['Nicolas','NNP','nicola'],
        ['Sarkozy’s','NNP','sarkozy’s']
      ]
    },
    ['ex-wife','NNP','ex-wife'],
    ['comes','VBZ','com'],
    ['out','RP','out'],
    ['with','IN','with'],
    ['tell-all','JJ','tell-al'],
    ['autobiography','NN','autobiograph'],
    ['(',':','('],
    ['C','NNP','c'],
    [')',':',')'],
    ['2012','CD','2012'],
    ['MIZONEWS.NET','JJ','mizonews.net'],
    ['Supported','NNP','support'],
    ['by','IN','by'],
    [':',':',':'],
    {
      tag:'PERSON',
      content:
      [
        ['Ask','NNP','ask'],
        ['India','NNP','ind']
      ]
    }
  ]
}]