[
{
  tag:'S',
  content:
  [
    ['ES','NNS','es'],
    {
      tag:'PERSON',
      content:
      [
        ['Iniciar','NNP','inici']
      ]
    },
    ['sesión','NNP','sesión'],
    ['Subir','NNP','subir'],
    ['vídeo','NNP','vídeo'],
    ['Buscar','NNP','busc'],
    {
      tag:'PERSON',
      content:
      [
        ['Cerrar','NNP','cerr'],
        ['Hemos','NNP','hemo']
      ]
    },
    ['establecido','NN','establecido'],
    ['tu','NN','tu'],
    ['preferencia','NN','preferenc'],
    ['de','IN','de'],
    ['idioma','NN','idiom'],
    {
      tag:'PERSON',
      content:
      [
        ['Hemos','NNP','hemo']
      ]
    },
    ['establecido','NN','establecido'],
    ['Español','NN','español'],
    ['(',':','('],
    ['España','JJ','españ'],
    [')','NN',')'],
    ['como','NN','como'],
    ['tu','NN','tu'],
    ['idioma','NN','idiom'],
    ['preferido','NN','preferido'],
    ['.','.','.']
  ]
},
{
  tag:'S',
  content:
  [
    {
      tag:'GPE',
      content:
      [
        ['Puedes','NNP','pued']
      ]
    },
    ['modificar','NN','modific'],
    ['esta','NN','est'],
    ['opción','NN','opción'],
    ['a','DT','a'],
    ['continuación','JJ','continuación'],
    ['.','.','.']
  ]
},
{
  tag:'S',
  content:
  [
    ['We','PRP','We'],
    [''ve','VBP',''ve'],
    ['set','VBN','set'],
    ['your','PRP$','your'],
    ['language','NN','langu'],
    ['preference','NN','pref'],
    ['to','TO','to'],
    {
      tag:'GPE',
      content:
      [
        ['Spanish','NNP','span']
      ]
    },
    ['(','NNP','('],
    ['Spain','NNP','spain'],
    [')','NNP',')'],
    ['.','.','.']
  ]
},
{
  tag:'S',
  content:
  [
    ['You','PRP','You'],
    ['can','MD','can'],
    ['update','VB','upd'],
    ['this','DT','this'],
    ['preference','NN','pref'],
    ['below','IN','below'],
    ['.','.','.']
  ]
},
{
  tag:'S',
  content:
  [
    {
      tag:'GPE',
      content:
      [
        ['Learn','NNP','learn']
      ]
    },
    ['more','RBR','mor'],
    ['View','NNP','view'],
    ['this','DT','this'],
    ['message','NN','mess'],
    ['in','IN','in'],
    {
      tag:'GPE',
      content:
      [
        ['English','NNP','engl']
      ]
    },
    ['Guía','NNP','guí'],
    ['Cargando','NNP','cargando'],
    ['...',':','...'],
    ['Georg-Simon-Ohm','JJ','georg-simon-ohm'],
    ['University','NNP','univers'],
    [':',':',':'],
    {
      tag:'ORGANIZATION',
      content:
      [
        ['Computer','NNP','comput'],
        ['Graphics','NNP','graph']
      ]
    },
    ['Project','NNP','project'],
    ['2013','CD','2013'],
    ['BlenderEi·35','-NONE-','BlenderEi·35'],
    ['vídeos','JJ','vídeos']
  ]
}]