[
{
  tag:'S',
  content:
  [
    {
      tag:'GPE',
      content:
      [
        ['Gillian','JJ','gil']
      ]
    },
    {
      tag:'FACILITY',
      content:
      [
        ['Lowndes','NNP','lownd']
      ]
    },
    ['(','NNP','('],
    ['1936','CD','1936'],
    ['–','CD','–'],
    ['2','CD','2'],
    ['October','NNP','octob'],
    ['2010','CD','2010'],
    [')','CD',')'],
    ['was','VBD','be'],
    ['an','DT','an'],
    {
      tag:'GPE',
      content:
      [
        ['English','JJ','engl']
      ]
    },
    ['ceramics','NNS','ceram'],
    ['sculptor','NN','sculpt'],
    ['.','.','.']
  ]
},
{
  tag:'S',
  content:
  [
    {
      tag:'GPE',
      content:
      [
        ['Born','NNP','born']
      ]
    },
    ['in','IN','in'],
    {
      tag:'GPE',
      content:
      [
        ['Cheshire','NNP','cheshir']
      ]
    },
    ['in','IN','in'],
    ['1936','CD','1936'],
    [',',',',','],
    ['she','PRP','she'],
    ['spent','VBD','spend'],
    ['much','JJ','much'],
    ['of','IN','of'],
    ['her','PRP$','her'],
    ['childhood','NN','child'],
    ['in','IN','in'],
    {
      tag:'GPE',
      content:
      [
        ['British','NNP','brit'],
        ['India','NNP','ind']
      ]
    },
    ['.','.','.']
  ]
},
{
  tag:'S',
  content:
  [
    ['She','PRP','She'],
    ['studied','VBD','study'],
    ['at','IN','at'],
    ['the','DT','the'],
    {
      tag:'ORGANIZATION',
      content:
      [
        ['Central','NNP','cent'],
        ['School','NNP','school']
      ]
    },
    ['of','IN','of'],
    {
      tag:'ORGANIZATION',
      content:
      [
        ['Arts','NNPS','art']
      ]
    },
    ['and','CC','and'],
    {
      tag:'ORGANIZATION',
      content:
      [
        ['Crafts','NNPS','craft']
      ]
    },
    ['beginning','NN','begin'],
    ['in','IN','in'],
    ['1957','CD','1957'],
    ['and','CC','and'],
    ['spent','NN','spent'],
    ['a','DT','a'],
    ['year','NN','year'],
    ['at','IN','at'],
    ['L’École','JJ','l’école'],
    ['des','NNS','de'],
    ['Beaux-Arts','NNS','beaux-arts'],
    ['in','IN','in'],
    {
      tag:'GPE',
      content:
      [
        ['Paris','NNP','par']
      ]
    },
    ['in','IN','in'],
    ['1960','CD','1960'],
    ['.','.','.']
  ]
},
{
  tag:'S',
  content:
  [
    ['In','IN','In'],
    ['the','DT','the'],
    ['early','JJ','ear'],
    ['1970s','CD','1970s'],
    ['she','PRP','she'],
    ['traveled','VBD','travel'],
    ['to','TO','to'],
    {
      tag:'GPE',
      content:
      [
        ['Nigeria','NNP','niger']
      ]
    },
    ['with','IN','with'],
    ['her','PRP$','her'],
    ['husband','NN','husband'],
    [',',',',','],
    {
      tag:'PERSON',
      content:
      [
        ['Ian','NNP','ian'],
        ['Auld','NNP','auld']
      ]
    },
    [',',',',','],
    ['a','DT','a'],
    ['trip','NN','trip'],
    ['that','WDT','that'],
    ['would','MD','would'],
    ['prove','VB','prov'],
    ['to','TO','to'],
    ['be','VB','be'],
    ['influential','JJ','influ'],
    ['in','IN','in'],
    ['her','PRP$','her'],
    ['subsequent','NN','subsequ'],
    ['work','NN','work'],
    ['.','.','.']
  ]
},
{
  tag:'S',
  content:
  [
    ['From','IN','From'],
    ['1975','CD','1975'],
    ['until','IN','until'],
    ['the','DT','the'],
    ['early','JJ','ear'],
    ['1990s','CD','1990s'],
    [',',',',','],
    ['she','PRP','she'],
    ['taught','VBD','teach'],
    ['part-time','JJ','part-time'],
    ['at','IN','at'],
    {
      tag:'ORGANIZATION',
      content:
      [
        ['Camberwell','NNP','camberwel'],
        ['College','NNP','colleg']
      ]
    },
    ['of','IN','of'],
    {
      tag:'ORGANIZATION',
      content:
      [
        ['Arts','NNPS','art']
      ]
    },
    ['and','CC','and'],
    {
      tag:'ORGANIZATION',
      content:
      [
        ['Central','NNP','cent'],
        ['Saint','NNP','saint'],
        ['Martins','NNP','martin'],
        ['College','NNP','colleg']
      ]
    },
    ['of','IN','of'],
    {
      tag:'PERSON',
      content:
      [
        ['Art','NNP','art']
      ]
    },
    ['and','CC','and'],
    ['Design','NNP','design'],
    ['.','.','.']
  ]
},
{
  tag:'S',
  content:
  [
    ['==Work','NN','==work'],
    ['and','CC','and'],
    ['Influences==','NNP','influences=='],
    ['Since','NNP','sint'],
    ['the','DT','the'],
    ['early','JJ','ear'],
    ['1960s','CD','1960s'],
    ['and','CC','and'],
    ['70s','CD','70s'],
    ['her','PRP$','her'],
    ['work','NN','work'],
    ['has','VBZ','hav'],
    ['challenged','VBN','challeng'],
    ['the','DT','the'],
    ['traditional','JJ','tradit'],
    ['notions','NNS','not'],
    ['surrounding','VBG','surround'],
    ['the','DT','the'],
    ['form','NN','form'],
    ['of','IN','of'],
    ['a','DT','a'],
    ['vessel','NN','vessel'],
    ['and','CC','and'],
    ['fine','NN','fin'],
    ['art','NN','art'],
    ['.','.','.']
  ]
},
{
  tag:'S',
  content:
  [
    ['Through','IN','Through'],
    ['her','PRP$','her'],
    ['non-traditional','JJ','non-traditional'],
    ['experimental','NN','expery'],
    ['methods','NNS','method'],
    ['of','IN','of'],
    ['incorporating','VBG','incorp'],
    ['found','VBN','find'],
    ['objects','NNS','object'],
    ['and','CC','and'],
    ['materials','NNS','mat'],
    ['such','JJ','such'],
    ['as','IN','as'],
    ['wire','NN','wir'],
    ['and','CC','and'],
    ['various','JJ','vary'],
    ['objects','NNS','object'],
    ['from','IN','from'],
    ['found','VBN','find'],
    ['in','IN','in'],
    ['everyday','NN','everyday'],
    ['life','NN','lif'],
    ['into','IN','into'],
    ['her','PRP$','her'],
    ['ceramic','JJ','ceram'],
    ['work','NN','work'],
    [',',',',','],
    ['she','PRP','she'],
    ['continually','RB','contin'],
    ['challenges','VBZ','challeng'],
    ['the','DT','the'],
    ['orthodox','NN','orthodox'],
    ['world','NN','world'],
    ['of','IN','of'],
    ['pure','NN','pur'],
    ['ceramics','NNS','ceram'],
    ['.','.','.']
  ]
},
{
  tag:'S',
  content:
  [
    ['Her','PRP$','Her'],
    ['mixed-media','NNP','mixed-media'],
    ['sculptures','NNS','sculpt'],
    ['have','VBP','hav'],
    ['been','VBN','be'],
    ['referred','VBN','ref'],
    ['to','TO','to'],
    ['as','RB','as'],
    ['bricolage','NN','bricol'],
    [',',',',','],
    ['or','CC','or'],
    ['sculptures','NNS','sculpt'],
    ['that','IN','that'],
    ['utilize','NN','util'],
    ['found','VBD','find'],
    ['objects','NNS','object'],
    ['to','TO','to'],
    ['construct','VB','construct'],
    ['new','JJ','new'],
    ['meaning','NN','mean'],
    ['.','.','.']
  ]
},
{
  tag:'S',
  content:
  [
    ['``','``','``'],
    ['Bricolage','NN','bricol'],
    ['sculpture','NN','sculpt'],
    ['converts','NNS','convert'],
    ['the','DT','the'],
    ['inertia','NN','inert'],
    ['and','CC','and'],
    ['exhaustion','NN','exhaust'],
    ['of','IN','of'],
    ['found','NN','found'],
    ['materials','NNS','mat'],
    ['into','IN','into'],
    ['new','JJ','new'],
    ['conduits','NNS','conduit'],
    ['of','IN','of'],
    ['meaning…the','NNP','meaning…the'],
    ['idea','NN','ide'],
    ['of','IN','of'],
    ['a','DT','a'],
    ['Bricolage','NNP','bricol'],
    ['image…depends','NNP','image…depends'],
    ['on','IN','on'],
    ['the','DT','the'],
    ['use','NN','us'],
    ['of','IN','of'],
    ['the','DT','the'],
    ['found','NN','found'],
    ['object','NN','object'],
    ['wrenched','VBD','wrench'],
    ['from','IN','from'],
    ['its','PRP$','its'],
    ['original','JJ','origin'],
    ['context','NN','context'],
    [',',',',','],
    ['used','VBN','us'],
    ['as','IN','as'],
    ['visual','JJ','vis'],
    ['or','CC','or'],
    ['tactile','JJ','tactil'],
    ['element','NN','el'],
    ['but','CC','but'],
    ['stripped','VBD','strip'],
    ['of','IN','of'],
    ['all','DT','all'],
    ['but','CC','but'],
    ['residual','JJ','resid'],
    ['meaning','NN','mean'],
    ['''','''',''''],
    ['.','.','.']
  ]
},
{
  tag:'S',
  content:
  [
    ['“Lowndes','NNS','“lowndes'],
    ['is','VBZ','be'],
    ['keenly','RB','keen'],
    ['aware','JJ','aw'],
    ['of','IN','of'],
    ['the','DT','the'],
    ['periodically','RB','period'],
    ['changing','VBG','chang'],
    ['objects','NNS','object'],
    ['that','WDT','that'],
    ['have','VBP','hav'],
    ['furnished','VBN','furn'],
    ['house','NN','hous'],
    ['over','IN','over'],
    ['time','NN','tim'],
    [',',',',','],
    ['and','CC','and'],
    ['admits','VBZ','admit'],
    ['to','TO','to'],
    ['a','DT','a'],
    ['particular','JJ','particul'],
    ['fondness','NN','fond'],
    ['for','IN','for'],
    ['the','DT','the'],
    ['usually','RB','us'],
    ['taken','VBN','tak'],
    ['for','IN','for'],
    ['granted','VBN','grant'],
    ['things','NNS','thing'],
    ['that','IN','that'],
    ['surround','NN','surround'],
    ['us','PRP','us'],
    ['in','IN','in'],
    ['contemporary','JJ','contemp'],
    ['life','NN','lif'],
    [':',':',':'],
    ['bulldog','NN','bulldog'],
    ['clips','NNS','clip'],
    [',',',',','],
    ['can','MD','can'],
    ['openers','NNS','op'],
    [',',',',','],
    ['forks','NNS','fork'],
    [',',',',','],
    ['and','CC','and'],
    ['pliers.”','NNP','pliers.”'],
    ['Lowndes','NNP','lownd'],
    [''','POS','''],
    ['affinity','NN','affin'],
    ['and','CC','and'],
    ['approach','NN','approach'],
    ['to','TO','to'],
    ['basic','JJ','bas'],
    [',',',',','],
    ['used','VBN','us'],
    ['materials','NNS','mat'],
    ['and','CC','and'],
    ['their','PRP$','their'],
    ['inherent','NN','inh'],
    ['materiality','NN','mat'],
    ['calls','VBZ','cal'],
    ['to','TO','to'],
    ['mind','VB','mind'],
    {
      tag:'PERSON',
      content:
      [
        ['Arte','NNP','art'],
        ['Povera','NNP','pover']
      ]
    },
    ['.','.','.']
  ]
},
{
  tag:'S',
  content:
  [
    ['“The','DT','“The'],
    ['found','VBN','find'],
    ['materials','NNS','mat'],
    ['employs','NNS','employ'],
    ['are','VBP','be'],
    ['poor','JJ','poor'],
    [',',',',','],
    ['low-status','JJ','low-status'],
    ['ones','NNS','on'],
    ['–',':','–'],
    ['old','JJ','old'],
    ['bricks','NNS','brick'],
    [',',',',','],
    ['clinker','NN','clink'],
    [',',',',','],
    ['granite','JJ','granit'],
    ['clippings','NNS','clip'],
    [',',',',','],
    ['mild','VBP','mild'],
    ['steel','NN','steel'],
    ['strip','NN','strip'],
    [',',',',','],
    ['cheap','NN','cheap'],
    ['industrially','RB','indust'],
    ['made','VBN','mak'],
    ['cups','NNS','cup'],
    ['and','CC','and'],
    ['tiles.”','JJ','tiles.”'],
    ['Povera','NNP','pover'],
    ['artists','NNS','art'],
    ['explore','VBP','expl'],
    ['the','DT','the'],
    ['relationship','NN','rel'],
    ['between','IN','between'],
    ['art','NN','art'],
    ['and','CC','and'],
    ['life','NN','lif'],
    ['through','IN','through'],
    ['the','DT','the'],
    ['use','NN','us'],
    ['of','IN','of'],
    ['such','JJ','such'],
    ['everyday','NN','everyday'],
    ['materials','NNS','mat'],
    ['in','IN','in'],
    ['contrast','NN','contrast'],
    ['to','TO','to'],
    ['“quasi-precious”','NNP','“quasi-precious”'],
    ['ones','NNS','on'],
    ['like','IN','like'],
    ['oil','NN','oil'],
    ['paint','NN','paint'],
    ['or','CC','or'],
    ['marble','JJ','marbl'],
    ['that','IN','that'],
    ['are','VBP','be'],
    ['traditionally','RB','tradit'],
    ['used','VBN','us'],
    ['in','IN','in'],
    ['“fine','JJ','“fine'],
    ['art.”','NN','art.”'],
    ['These','DT','These'],
    ['materials','NNS','mat'],
    ['also','RB','also'],
    ['imply','RB','imply'],
    ['issues','NNS','issu'],
    ['pertaining','VBG','pertain'],
    ['to','TO','to'],
    ['class','NN','class'],
    ['and','CC','and'],
    ['the','DT','the'],
    ['differentiation','NN','differenty'],
    ['between','IN','between'],
    ['“high”','JJ','“high”'],
    ['and','CC','and'],
    ['“low”','JJ','“low”'],
    ['art','NN','art'],
    ['.','.','.']
  ]
},
{
  tag:'S',
  content:
  [
    ['However','RB','howev'],
    [',',',',','],
    {
      tag:'PERSON',
      content:
      [
        ['Arte','NNP','art'],
        ['Povera','NNP','pover']
      ]
    },
    ['“denotes','NNP','“denotes'],
    ['not','RB','not'],
    ['an','DT','an'],
    ['impoverished','JJ','impov'],
    ['art','NN','art'],
    [',',',',','],
    ['but','CC','but'],
    ['an','DT','an'],
    ['art','NN','art'],
    ['made','VBN','mak'],
    ['without','IN','without'],
    ['restraints','NNS','restraint'],
    [',',',',','],
    ['a','DT','a'],
    ['laboratory','NN','lab'],
    ['situation','NN','situ'],
    ['in','IN','in'],
    ['which','WDT','which'],
    ['a','DT','a'],
    ['theoretical','JJ','theoret'],
    ['basis','NN','bas'],
    ['was','VBD','be'],
    ['rejected','VBN','reject'],
    ['in','IN','in'],
    ['favor','NN','fav'],
    ['of','IN','of'],
    ['a','DT','a'],
    ['complete','JJ','complet'],
    ['openness','NN','op'],
    ['towards','NNS','toward'],
    ['materials','NNS','mat'],
    ['and','CC','and'],
    ['processes.”','JJ','processes.”'],
    ['Lowndes','NNPS','lownd'],
    [''','POS','''],
    ['approach','NN','approach'],
    ['and','CC','and'],
    ['experimentation','NN','expery'],
    ['with','IN','with'],
    ['form','NN','form'],
    ['and','CC','and'],
    ['materials','NNS','mat'],
    ['is','VBZ','be'],
    ['much','JJ','much'],
    ['like','IN','like'],
    ['that','DT','that'],
    ['of','IN','of'],
    ['the','DT','the'],
    {
      tag:'ORGANIZATION',
      content:
      [
        ['Process','NNP','process'],
        ['Artists','NNP','art']
      ]
    },
    ['of','IN','of'],
    ['the','DT','the'],
    ['1960s','CD','1960s'],
    ['as','IN','as'],
    ['well','RB','wel'],
    ['.','.','.']
  ]
},
{
  tag:'S',
  content:
  [
    {
      tag:'GPE',
      content:
      [
        ['Lowndes','NNP','lownd']
      ]
    },
    ['believes','VBZ','believ'],
    ['that','IN','that'],
    ['``','``','``'],
    ['materials','NNS','mat'],
    ['are','VBP','be'],
    ['the','DT','the'],
    ['source','NN','sourc'],
    ['of','IN','of'],
    ['the','DT','the'],
    ['ideas','NNS','ide'],
    ['as','IN','as'],
    ['well','RB','wel'],
    ['as','IN','as'],
    ['their','PRP$','their'],
    ['expression','NN','express'],
    ['.','.','.']
  ]
},
{
  tag:'S',
  content:
  [
    ['``','``','``'],
    ['Lowndes','VBZ','lownd'],
    ['said','VBN','say'],
    ['of','IN','of'],
    ['her','PRP$','her'],
    ['own','JJ','own'],
    ['work','NN','work'],
    ['that','WDT','that'],
    ['“','-NONE-','“'],
    ['...',':','...'],
    ['it','PRP','it'],
    ['is','VBZ','be'],
    ['the','DT','the'],
    ['methods','NNS','method'],
    ['and','CC','and'],
    ['materials','NNS','mat'],
    ['that','WDT','that'],
    ['produce','NN','produc'],
    ['the','DT','the'],
    ['ideas','NNS','ide'],
    [',',',',','],
    ['not','RB','not'],
    ['the','DT','the'],
    ['other','JJ','oth'],
    ['way','NN','way'],
    ['round','NN','round'],
    ['.','.','.']
  ]
},
{
  tag:'S',
  content:
  [
    ['The','DT','The'],
    ['choice','NN','cho'],
    ['of','IN','of'],
    ['materials','NNS','mat'],
    ['and','CC','and'],
    ['the','DT','the'],
    ['assemblage','NN','assembl'],
    ['of','IN','of'],
    ['pieces','NNS','piec'],
    ['lead','VBP','lead'],
    ['her','PRP','her'],
    ['towards','NNS','toward'],
    ['the','DT','the'],
    ['object','NN','object'],
    ['and','CC','and'],
    ['this','DT','this'],
    ['process','NN','process'],
    ['gives','VBZ','giv'],
    ['her','PRP$','her'],
    ['work','NN','work'],
    ['a','DT','a'],
    ['strangeness','NN','strangeness'],
    ['that','WDT','that'],
    ['is','VBZ','be'],
    ['visually','RB','vis'],
    ['rich','JJ','rich'],
    [',',',',','],
    ['yet','CC','yet'],
    ['her','PRP$','her'],
    ['work','NN','work'],
    ['is','VBZ','be'],
    ['still','RB','stil'],
    ['rooted','VBN','root'],
    ['with','IN','with'],
    ['the','DT','the'],
    ['ceramic','JJ','ceram'],
    ['process','NN','process'],
    ['and','CC','and'],
    ['material','NN','mat'],
    ['.','.','.']
  ]
},
{
  tag:'S',
  content:
  [
    ['``','``','``'],
    ['Lowndes','VBZ','lownd'],
    ['used','VBN','us'],
    ['many','JJ','many'],
    ['different','JJ','diff'],
    ['combinations','NNS','combin'],
    ['and','CC','and'],
    ['amalgamations','NNS','amalgam'],
    ['of','IN','of'],
    ['clay','NN','clay'],
    ['from','IN','from'],
    ['fiberglass','NN','fiberglass'],
    ['dipped','VBD','dip'],
    ['in','IN','in'],
    ['liquid','NN','liquid'],
    ['porcelain','NN','porcelain'],
    ['slip','NN','slip'],
    ['to','TO','to'],
    {
      tag:'GPE',
      content:
      [
        ['Egyptian','NNP','egypt']
      ]
    },
    ['paste','NN','past'],
    ['in','IN','in'],
    ['her','PRP$','her'],
    ['work','NN','work'],
    ['.','.','.']
  ]
},
{
  tag:'S',
  content:
  [
    {
      tag:'GPE',
      content:
      [
        ['Lowndes','NNP','lownd']
      ]
    },
    ['would','MD','would'],
    ['often','RB','oft'],
    ['bury','VB','bury'],
    ['work','NN','work'],
    ['made','VBN','mak'],
    ['of','IN','of'],
    {
      tag:'GPE',
      content:
      [
        ['Egyptian','NNP','egypt']
      ]
    },
    ['paste','NN','past'],
    ['in','IN','in'],
    ['sand','NN','sand'],
    ['during','IN','during'],
    ['the','DT','the'],
    ['firing','NN','fir'],
    ['using','VBG','us'],
    ['a','DT','a'],
    ['saggar','NN','sagg'],
    ['.','.','.']
  ]
},
{
  tag:'S',
  content:
  [
    ['After','IN','After'],
    ['the','DT','the'],
    ['initial','JJ','init'],
    ['firing','NN','fir'],
    ['she','PRP','she'],
    ['would','MD','would'],
    ['then','RB','then'],
    ['smash','VB','smash'],
    ['the','DT','the'],
    ['pieces','NNS','piec'],
    ['with','IN','with'],
    ['a','DT','a'],
    ['hammer','NN','ham'],
    ['and','CC','and'],
    ['reassemble','JJ','reassembl'],
    ['them','PRP','them'],
    ['with','IN','with'],
    ['ceramic','JJ','ceram'],
    ['mortar','NN','mort'],
    ['or','CC','or'],
    {
      tag:'GPE',
      content:
      [
        ['Nichrome','NNP','nichrom']
      ]
    },
    ['wire','NN','wir'],
    ['.','.','.']
  ]
},
{
  tag:'S',
  content:
  [
    ['Cups','NNS','cup'],
    ['and','CC','and'],
    ['tiles','NNS','til'],
    ['are','VBP','be'],
    ['added','VBN','ad'],
    ['with','IN','with'],
    ['extra','JJ','extr'],
    ['glaze','NN','glaz'],
    ['and','CC','and'],
    ['act','NN','act'],
    ['as','IN','as'],
    ['“an','JJ','“an'],
    ['affectionate','NN','affect'],
    ['backward','NN','backward'],
    ['glance','NN','glant'],
    ['at','IN','at'],
    ['the','DT','the'],
    ['pottery','NN','pottery'],
    ['traditions','NNS','tradit'],
    ['(',':','('],
    ['that','IN','that'],
    ['of','IN','of'],
    ['the','DT','the'],
    {
      tag:'ORGANIZATION',
      content:
      [
        ['Leach','NNP','leach']
      ]
    },
    ['tradition','NN','tradit'],
    [')',':',')'],
    ['of','IN','of'],
    ['form','NN','form'],
    ['and','CC','and'],
    ['technique','NN','techn'],
    ['from','IN','from'],
    ['which','WDT','which'],
    {
      tag:'PERSON',
      content:
      [
        ['Lowndes','NNP','lownd']
      ]
    },
    ['emerged.”','NNP','emerged.”'],
    ['Through','NNP','through'],
    ['the','DT','the'],
    ['firing','VBG','fir'],
    ['process','NN','process'],
    [',',',',','],
    ['her','PRP$','her'],
    ['work','NN','work'],
    ['goes','VBZ','go'],
    ['through','IN','through'],
    ['odd','JJ','od'],
    [',',',',','],
    ['curious','JJ','cury'],
    ['metamorphosis','NN','metamorphos'],
    ['.','.','.']
  ]
},
{
  tag:'S',
  content:
  [
    ['When','WRB','When'],
    ['the','DT','the'],
    ['work','NN','work'],
    ['is','VBZ','be'],
    ['finished','VBN','fin'],
    [',',',',','],
    ['the','DT','the'],
    ['fusion','NN','fus'],
    ['of','IN','of'],
    ['the','DT','the'],
    ['disparate','JJ','disp'],
    ['parts','NNS','part'],
    ['rarely','RB','rar'],
    ['resembles','VBZ','resembl'],
    ['the','DT','the'],
    ['original','JJ','origin'],
    ['piece','NN','piec'],
    ['with','IN','with'],
    ['which','WDT','which'],
    ['she','PRP','she'],
    ['began','VBD','begin'],
    ['.','.','.']
  ]
},
{
  tag:'S',
  content:
  [
    ['Previously','RB','prevy'],
    [',',',',','],
    {
      tag:'PERSON',
      content:
      [
        ['Lowndes','NNP','lownd']
      ]
    },
    ['had','VBD','hav'],
    ['already','RB','already'],
    ['possessed','VBN','possess'],
    ['an','DT','an'],
    ['affinity','NN','affin'],
    ['towards','NNS','toward'],
    ['ethnographic','JJ','ethnograph'],
    ['objects','NNS','object'],
    ['.','.','.']
  ]
},
{
  tag:'S',
  content:
  [
    {
      tag:'GPE',
      content:
      [
        ['Ethnography','NNP','ethnograph']
      ]
    },
    ['is','VBZ','be'],
    ['an','DT','an'],
    ['anthropologic','JJ','anthropolog'],
    ['description','NN','describ'],
    ['of','IN','of'],
    ['individual','JJ','individ'],
    ['cultures','NNS','cult'],
    ['and','CC','and'],
    ['“human','JJ','“human'],
    ['social','JJ','soc'],
    ['phenomena”','NN','phenomena”'],
    ['.','.','.']
  ]
},
{
  tag:'S',
  content:
  [
    ['Her','PRP$','Her'],
    ['visit','NN','visit'],
    ['to','TO','to'],
    {
      tag:'GPE',
      content:
      [
        ['Nigeria','NNP','niger']
      ]
    },
    ['codified','VBD','cod'],
    ['her','PRP','her'],
    ['curiosity','NN','curios'],
    ['in','IN','in'],
    ['the','DT','the'],
    ['ethnographic','JJ','ethnograph'],
    ['aspects','NNS','aspect'],
    ['surrounding','VBG','surround'],
    ['certain','JJ','certain'],
    ['objects','NNS','object'],
    ['.','.','.']
  ]
},
{
  tag:'S',
  content:
  [
    ['However','RB','howev'],
    [',',',',','],
    ['she','PRP','she'],
    ['was','VBD','be'],
    ['n't','RB','n't'],
    ['particularly','RB','particul'],
    ['drawn','VBN','draw'],
    ['to','TO','to'],
    ['the','DT','the'],
    {
      tag:'GPE',
      content:
      [
        ['Nigerian','NNP','nig']
      ]
    },
    ['pots','VBZ','pot'],
    [',',',',','],
    ['but','CC','but'],
    ['to','TO','to'],
    ['the','DT','the'],
    ['non-ceramic','JJ','non-ceramic'],
    ['materials','NNS','mat'],
    ['they','PRP','they'],
    ['used','VBD','us'],
    ['.','.','.']
  ]
},
{
  tag:'S',
  content:
  [
    ['The','DT','The'],
    ['seeming','NN','seem'],
    ['haphazard','NN','haphazard'],
    ['nature','NN','nat'],
    ['with','IN','with'],
    ['which','WDT','which'],
    ['the','DT','the'],
    ['materials','NNS','mat'],
    ['were','VBD','be'],
    ['juxtaposed','VBN','juxtapos'],
    ['was','VBD','be'],
    ['broad','JJ','broad'],
    ['and','CC','and'],
    ['diverse','JJ','divers'],
    ['.','.','.']
  ]
},
{
  tag:'S',
  content:
  [
    {
      tag:'GPE',
      content:
      [
        ['Nigeria','NNP','niger']
      ]
    },
    [''s','POS',''s'],
    ['influence','NN','influ'],
    ['is','VBZ','be'],
    ['seen','VBN','see'],
    ['through','IN','through'],
    {
      tag:'PERSON',
      content:
      [
        ['Lowndes','NNP','lownd']
      ]
    },
    [''','POS','''],
    ['own','JJ','own'],
    ['use','NN','us'],
    ['of','IN','of'],
    ['diverse','NN','divers'],
    ['materials','NNS','mat'],
    ['.','.','.']
  ]
},
{
  tag:'S',
  content:
  [
    ['The','DT','The'],
    ['speed','NN','spee'],
    ['in','IN','in'],
    ['which','WDT','which'],
    ['they','PRP','they'],
    ['worked','VBD','work'],
    ['was','VBD','be'],
    ['influential','JJ','influ'],
    ['as','IN','as'],
    ['well','RB','wel'],
    ['.','.','.']
  ]
},
{
  tag:'S',
  content:
  [
    ['``','``','``'],
    {
      tag:'GPE',
      content:
      [
        ['African','JJ','afr']
      ]
    },
    ['expediency','NN','expedy'],
    ['and','CC','and'],
    ['improvisation','NN','improv'],
    ['appealed','VBD','ap'],
    ['to','TO','to'],
    ['her…well','NNP','her…well'],
    ['as','IN','as'],
    ['the','DT','the'],
    ['poetic','JJ','poet'],
    ['content','NN','cont'],
    ['of','IN','of'],
    ['the','DT','the'],
    ['artifacts','NNS','artifact'],
    ['.','.','.']
  ]
},
{
  tag:'S',
  content:
  [
    ['``','``','``'],
    ['Specifically','RB','spec'],
    [',',',',','],
    ['the','DT','the'],
    {
      tag:'GPE',
      content:
      [
        ['Yoruba','NNP','yorub']
      ]
    },
    [',',',',','],
    ['who','WP','who'],
    ['live','JJ','liv'],
    ['in','IN','in'],
    ['southwestern','NN','southwestern'],
    {
      tag:'GPE',
      content:
      [
        ['Nigeria','NNP','niger']
      ]
    },
    ['near','IN','near'],
    {
      tag:'ORGANIZATION',
      content:
      [
        ['Ife','NNP','if'],
        ['University','NNP','univers']
      ]
    },
    ['where','WRB','where'],
    {
      tag:'PERSON',
      content:
      [
        ['Lowndes','NNP','lownd']
      ]
    },
    [''','POS','''],
    ['husband','NN','husband'],
    ['worked','VBD','work'],
    ['during','IN','during'],
    ['their','PRP$','their'],
    ['time','NN','tim'],
    ['there','RB','ther'],
    [',',',',','],
    ['are','VBP','be'],
    ['known','VBN','know'],
    ['for','IN','for'],
    ['their','PRP$','their'],
    ['new','JJ','new'],
    ['styles','NNS','styl'],
    ['and','CC','and'],
    ['approaches','NNS','approach'],
    ['to','TO','to'],
    ['art','VB','art'],
    ['.','.','.']
  ]
},
{
  tag:'S',
  content:
  [
    {
      tag:'GPE',
      content:
      [
        ['Yoruba','NNP','yorub']
      ]
    },
    ['artwork','NN','artwork'],
    [',',',',','],
    ['which','WDT','which'],
    ['takes','VBZ','tak'],
    ['numerous','JJ','num'],
    ['forms','NNS','form'],
    [',',',',','],
    ['is','VBZ','be'],
    ['deeply','RB','deeply'],
    ['imbedded','VBN','imb'],
    ['in','IN','in'],
    ['a','DT','a'],
    ['philosophical','JJ','philosoph'],
    ['discourse','NN','discours'],
    ['pertaining','VBG','pertain'],
    ['to','TO','to'],
    ['“deep','JJ','“deep'],
    ['talk”','NN','talk”'],
    ['.','.','.']
  ]
},
{
  tag:'S',
  content:
  [
    ['This','DT','This'],
    ['conversation','NN','convers'],
    ['includes','VBZ','includ'],
    ['resemblance','NN','resembl'],
    [',',',',','],
    ['balance','NN','bal'],
    [',',',',','],
    ['clarity','NN','clar'],
    [',',',',','],
    ['completeness','NN','complet'],
    [',',',',','],
    ['insight','NN','insight'],
    [',',',',','],
    ['aliveness','NN','al'],
    [',',',',','],
    ['and','CC','and'],
    ['durability','NN','dur'],
    ['.','.','.']
  ]
},
{
  tag:'S',
  content:
  [
    ['``','``','``'],
    {
      tag:'GPE',
      content:
      [
        ['Yoruba','NNP','yorub']
      ]
    },
    ['art','NN','art'],
    ['might','MD','might'],
    ['be','VB','be'],
    ['defined','VBN','defin'],
    ['summarily','RB','sum'],
    ['as','IN','as'],
    ['‘evocative','JJ','‘evocative'],
    ['form’','NN','form’'],
    ['that','WDT','that'],
    ['is','VBZ','be'],
    ['meant','JJ','meant'],
    ['to','TO','to'],
    ['be','VB','be'],
    ['generative','JJ','gen'],
    ['and','CC','and'],
    ['transformative…at','JJ','transformative…at'],
    ['the','DT','the'],
    ['core','NN','cor'],
    ['of','IN','of'],
    {
      tag:'GPE',
      content:
      [
        ['Yoruba','NNP','yorub']
      ]
    },
    ['aesthetics','NNS','aesthet'],
    ['is','VBZ','be'],
    ['the','DT','the'],
    ['saying','VBG','say'],
    ['‘character','JJ','‘character'],
    ['(','NN','('],
    ['or','CC','or'],
    ['essence','NN','ess'],
    [')',':',')'],
    ['is','VBZ','be'],
    ['beauty’','JJ','beauty’'],
    ['.','.','.']
  ]
},
{
  tag:'S',
  content:
  [
    ['This','DT','This'],
    ['refers','NNS','ref'],
    ['to','TO','to'],
    ['the','DT','the'],
    ['essential','JJ','ess'],
    ['nature','NN','nat'],
    ['of','IN','of'],
    ['a','DT','a'],
    ['thing','NN','thing'],
    ['or','CC','or'],
    ['person','NN','person'],
    ['.','.','.']
  ]
},
{
  tag:'S',
  content:
  [
    ['When','WRB','When'],
    ['art','NN','art'],
    ['captures','NNS','capt'],
    ['the','DT','the'],
    ['essential','JJ','ess'],
    ['nature','NN','nat'],
    ['of','IN','of'],
    ['something','NN','someth'],
    [',',',',','],
    ['the','DT','the'],
    ['work','NN','work'],
    ['will','MD','will'],
    ['be','VB','be'],
    ['deemed','VBN','deem'],
    [''beautiful','JJ',''beautiful'],
    [''','''','''],
    ['.','.','.']
  ]
},
{
  tag:'S',
  content:
  [
    ['``','``','``'],
    ['Upon','IN','Upon'],
    ['her','PRP$','her'],
    ['return','NN','return'],
    ['from','IN','from'],
    {
      tag:'GPE',
      content:
      [
        ['Africa','NNP','afric']
      ]
    },
    [',',',',','],
    {
      tag:'PERSON',
      content:
      [
        ['Lowndes','NNP','lownd']
      ]
    },
    [''','POS','''],
    ['“impatience','NN','“impatience'],
    ['with','IN','with'],
    ['clay”','JJ','clay”'],
    ['and','CC','and'],
    ['the','DT','the'],
    ['so-called','JJ','so-called'],
    ['“craftsmanly','JJ','“craftsmanly'],
    ['side','NN','sid'],
    ['of','IN','of'],
    ['her','PRP$','her'],
    ['art”','NN','art”'],
    ['is','VBZ','be'],
    ['apparent','JJ','app'],
    ['through','IN','through'],
    ['her','PRP$','her'],
    ['combination','NN','combin'],
    ['of','IN','of'],
    ['“mainstream”','NNP','“mainstream”'],
    ['sculpture','NN','sculpt'],
    ['materials','NNS','mat'],
    ['“…that','WDT','“…that'],
    ['put','VBN','put'],
    ['the','DT','the'],
    ['concept','NN','conceiv'],
    ['before','IN','before'],
    ['the','DT','the'],
    ['material.”','JJ','material.”'],
    ['As','IN','As'],
    ['a','DT','a'],
    ['result','NN','result'],
    ['of','IN','of'],
    ['Lowndes’','NN','lowndes’'],
    ['open','JJ','op'],
    ['approach','NN','approach'],
    ['to','TO','to'],
    ['working','VBG','work'],
    [',',',',','],
    ['leaving','VBG','leav'],
    ['room','NN','room'],
    ['for','IN','for'],
    ['reworking','NN','rework'],
    ['and','CC','and'],
    ['rediscovery','NN','rediscovery'],
    [',',',',','],
    ['her','PRP$','her'],
    ['work','NN','work'],
    ['vacillates','NNS','vacil'],
    ['between','IN','between'],
    ['and','CC','and'],
    ['perhaps','RB','perhap'],
    ['challenges','NNS','challeng'],
    ['the','DT','the'],
    ['“undefined','JJ','“undefined'],
    ['space','NN','spac'],
    ['between','IN','between'],
    ['craft','NN','craft'],
    ['and','CC','and'],
    ['fine','NN','fin'],
    ['art.”','NN','art.”'],
    ['Her','NNP','her'],
    ['materially','RB','mat'],
    ['based','VBN','bas'],
    ['experimentation','NN','expery'],
    ['and','CC','and'],
    ['intuitive','JJ','intuit'],
    ['approach','NN','approach'],
    ['to','TO','to'],
    ['making','VBG','mak'],
    ['with','IN','with'],
    ['a','DT','a'],
    ['material','NN','mat'],
    ['that','WDT','that'],
    ['is','VBZ','be'],
    ['traditionally','RB','tradit'],
    ['seen','VBN','see'],
    ['as','IN','as'],
    ['a','DT','a'],
    ['purveyor','NN','purvey'],
    ['of','IN','of'],
    ['craft','NN','craft'],
    ['defines','NNS','defin'],
    {
      tag:'PERSON',
      content:
      [
        ['Lowndes','NNP','lownd']
      ]
    },
    [''','POS','''],
    ['work','NN','work'],
    ['as','IN','as'],
    ['art','NN','art'],
    ['that','IN','that'],
    ['“…occupies','NNS','“…occupies'],
    ['an','DT','an'],
    ['undefined','JJ','undefin'],
    ['space','NN','spac'],
    ['between','IN','between'],
    ['the','DT','the'],
    ['craft','NN','craft'],
    ['and','CC','and'],
    ['fine','NN','fin'],
    ['art','NN','art'],
    ['worlds.”','NN','worlds.”'],
    ['==Additional','JJ','==additional'],
    ['information==','NN','information=='],
    ['Her','NNP','her'],
    ['work','NN','work'],
    ['is','VBZ','be'],
    ['represented','VBN','repres'],
    ['in','IN','in'],
    ['many','JJ','many'],
    ['collections','NNS','collect'],
    ['in','IN','in'],
    {
      tag:'GPE',
      content:
      [
        ['Britain','NNP','britain']
      ]
    },
    ['and','CC','and'],
    ['she','PRP','she'],
    ['has','VBZ','hav'],
    ['had','VBN','hav'],
    ['major','JJ','maj'],
    ['shows','NNS','show'],
    ['at','IN','at'],
    ['the','DT','the'],
    {
      tag:'ORGANIZATION',
      content:
      [
        ['Crafts','NNS','craft'],
        ['Council','NNP','council']
      ]
    },
    ['(','NNP','('],
    ['1987','CD','1987'],
    [')','CD',')'],
    ['and','CC','and'],
    ['Contemporary','NNP','contemp'],
    ['Applied','NNP','apply'],
    ['Arts','NNP','art'],
    ['(','NNP','('],
    ['1994','CD','1994'],
    [')','CD',')'],
    ['and','CC','and'],
    ['major','JJ','maj'],
    ['exhibitions','NNS','exhibit'],
    ['such','JJ','such'],
    ['as','IN','as'],
    ['The','DT','The'],
    {
      tag:'ORGANIZATION',
      content:
      [
        ['Raw','NNP','raw']
      ]
    },
    ['and','CC','and'],
    ['the','DT','the'],
    {
      tag:'ORGANIZATION',
      content:
      [
        ['Cooked','NNP','cook']
      ]
    },
    ['(','NNP','('],
    ['1993–1994','CD','1993–1994'],
    [')','CD',')'],
    ['.','.','.']
  ]
},
{
  tag:'S',
  content:
  [
    ['==Death==','NN','==death=='],
    {
      tag:'PERSON',
      content:
      [
        ['Gillian','JJ','gil'],
        ['Lowndes','NNP','lownd']
      ]
    },
    ['died','VBD','die'],
    ['on','IN','on'],
    ['2','CD','2'],
    ['October','NNP','octob'],
    ['2010','CD','2010'],
    [',',',',','],
    ['aged','VBD','ag'],
    ['74','CD','74'],
    [',',',',','],
    ['from','IN','from'],
    ['cancer','NN','cant'],
    ['.','.','.']
  ]
},
{
  tag:'S',
  content:
  [
    ['==Sources==','NN','==sources=='],
    ['*','-NONE-','*'],
    ['S.','NNP','s.'],
    ['Harley','NNP','harley'],
    ['.','.','.']
  ]
},
{
  tag:'S',
  content:
  [
    ['``','``','``'],
    {
      tag:'PERSON',
      content:
      [
        ['Ian','JJ','ian'],
        ['Auld','NNP','auld']
      ]
    },
    ['and','CC','and'],
    {
      tag:'PERSON',
      content:
      [
        ['Gillian','NNP','gil'],
        ['Lowndes','NNP','lownd']
      ]
    },
    ['''','''',''''],
    [',',',',','],
    {
      tag:'PERSON',
      content:
      [
        ['Ceramic','NNP','ceram'],
        ['Review','NNP','review']
      ]
    },
    ['#','#','#'],
    ['44','CD','44'],
    ['(','CD','('],
    ['March/April','JJ','march/april'],
    ['1977','CD','1977'],
    [')','CD',')'],
    [',',',',','],
    ['pp','NN','pp'],
    ['.','.','.']
  ]
},
{
  tag:'S',
  content:
  [
    ['4–5','CD','4–5'],
    ['*','-NONE-','*'],
    {
      tag:'PERSON',
      content:
      [
        ['Elisabeth','NNP','elisabe'],
        ['Cameron','NNP','cameron']
      ]
    },
    ['.','.','.']
  ]
},
{
  tag:'S',
  content:
  [
    ['``','``','``'],
    {
      tag:'PERSON',
      content:
      [
        ['Gillian','JJ','gil'],
        ['Lowndes','NNP','lownd']
      ]
    },
    ['''','''',''''],
    [',',',',','],
    {
      tag:'PERSON',
      content:
      [
        ['Ceramic','NNP','ceram'],
        ['Review','NNP','review']
      ]
    },
    ['#','#','#'],
    ['83','CD','83'],
    [',',',',','],
    ['September/October','JJ','september/octob'],
    ['1983','CD','1983'],
    [')','CD',')'],
    [',',',',','],
    ['p.','NNP','p.'],
    ['11','CD','11'],
    ['*','-NONE-','*'],
    {
      tag:'PERSON',
      content:
      [
        ['Angus','NNP','ang'],
        ['Suttie','NNP','sutty']
      ]
    },
    ['.','.','.']
  ]
},
{
  tag:'S',
  content:
  [
    ['``','``','``'],
    ['The','DT','The'],
    {
      tag:'ORGANIZATION',
      content:
      [
        ['Dangerous','JJ','dang'],
        ['Edge','NNP','edg']
      ]
    },
    ['of','IN','of'],
    {
      tag:'GPE',
      content:
      [
        ['Things','NNP','thing']
      ]
    },
    ['''','''',''''],
    [',',',',','],
    {
      tag:'PERSON',
      content:
      [
        ['Crafts','NNP','craft']
      ]
    },
    ['#','#','#'],
    ['75','CD','75'],
    ['(','CD','('],
    ['1985','CD','1985'],
    [')','CD',')'],
    [',',',',','],
    ['pp','NN','pp'],
    ['.','.','.']
  ]
},
{
  tag:'S',
  content:
  [
    ['49–50','CD','49–50'],
    ['*','-NONE-','*'],
    {
      tag:'PERSON',
      content:
      [
        ['Gillian','JJ','gil'],
        ['Lowndes','NNP','lownd']
      ]
    },
    ['.','.','.']
  ]
},
{
  tag:'S',
  content:
  [
    ['Ceramics','NNS','ceram'],
    ['Monthlyvol','NNP','monthlyvol'],
    ['36','CD','36'],
    [',',',',','],
    ['part','NN','part'],
    ['4','CD','4'],
    ['(','CD','('],
    ['April','NNP','april'],
    ['1988','CD','1988'],
    [')','CD',')'],
    [',',',',','],
    ['pp','NN','pp'],
    ['.','.','.']
  ]
},
{
  tag:'S',
  content:
  [
    ['28–29','CD','28–29'],
    ['*','-NONE-','*'],
    {
      tag:'PERSON',
      content:
      [
        ['Victor','NNP','vict'],
        ['Margrit','NNP','margrit']
      ]
    },
    ['.','.','.']
  ]
},
{
  tag:'S',
  content:
  [
    ['``','``','``'],
    {
      tag:'PERSON',
      content:
      [
        ['Gillian','JJ','gil'],
        ['Lowndes','NNP','lownd']
      ]
    },
    ['''','''',''''],
    [',',',',','],
    {
      tag:'PERSON',
      content:
      [
        ['Studio','NNP','studio'],
        ['Pottery','NNP','pottery']
      ]
    },
    ['#','#','#'],
    ['9','CD','9'],
    ['(','CD','('],
    ['June/July','JJ','june/july'],
    ['1994','CD','1994'],
    [')','CD',')'],
    [',',',',','],
    ['pp','NN','pp'],
    ['.','.','.']
  ]
},
{
  tag:'S',
  content:
  [
    ['34–38','CD','34–38'],
    ['*','-NONE-','*'],
    {
      tag:'GPE',
      content:
      [
        ['Palmer','NNP','palm']
      ]
    },
    [',',',',','],
    ['D.','NNP','d.'],
    ['``','``','``'],
    ['Tradition','NNP','tradit'],
    ['and','CC','and'],
    {
      tag:'GPE',
      content:
      [
        ['Originality','NNP','origin']
      ]
    },
    [':',':',':'],
    {
      tag:'PERSON',
      content:
      [
        ['Bernard','NNP','bernard'],
        ['Leach','NNP','leach']
      ]
    },
    ['and','CC','and'],
    ['the','DT','the'],
    {
      tag:'ORGANIZATION',
      content:
      [
        ['New','NNP','new'],
        ['Ceramics','NNP','ceram']
      ]
    },
    ['''','''',''''],
    [',',',',','],
    {
      tag:'GPE',
      content:
      [
        ['Ceramics','NNP','ceram']
      ]
    },
    ['(','NNP','('],
    ['Sydney','NNP','sydney'],
    [',',',',','],
    {
      tag:'GPE',
      content:
      [
        ['Australia','NNP','austral']
      ]
    },
    [')','NNP',')'],
    ['#','#','#'],
    ['60','CD','60'],
    ['(','CD','('],
    ['2005','CD','2005'],
    [')','CD',')'],
    [',',',',','],
    ['pp','NN','pp'],
    ['.','.','.']
  ]
},
{
  tag:'S',
  content:
  [
    ['101–103','CD','101–103'],
    ['==References==','NN','==references=='],
    ['==External','JJ','==external'],
    ['links==','NN','links=='],
    ['*','-NONE-','*'],
    {
      tag:'ORGANIZATION',
      content:
      [
        ['University','NNP','univers']
      ]
    },
    ['of','IN','of'],
    {
      tag:'PERSON',
      content:
      [
        ['Wales','NNP','wal'],
        ['Aberystwyth','NNP','aberystwy'],
        ['Ceramic','NNP','ceram']
      ]
    },
    ['Collection','NNP','collect'],
    [':',':',':'],
    ['Biographies','NNPS','biograph'],
    ['*','-NONE-','*'],
    [''Cup','VB',''cup'],
    ['on','IN','on'],
    {
      tag:'PERSON',
      content:
      [
        ['Base','NNP','bas']
      ]
    },
    [''','POS','''],
    [',',',',','],
    ['by','IN','by'],
    {
      tag:'PERSON',
      content:
      [
        ['Gillian','NNP','gil'],
        ['Lowndes','NNP','lownd']
      ]
    },
    ['*','-NONE-','*'],
    {
      tag:'PERSON',
      content:
      [
        ['Anthony','NNP','anthony'],
        ['Shaw','NNP','shaw'],
        ['Collection','NNP','collect']
      ]
    },
    ['*','-NONE-','*'],
    {
      tag:'GPE',
      content:
      [
        ['British','VB','brit']
      ]
    },
    {
      tag:'PERSON',
      content:
      [
        ['Council','NNP','council']
      ]
    },
    [':',':',':'],
    {
      tag:'PERSON',
      content:
      [
        ['Artist','NNP','art'],
        ['Biography','NNP','biograph']
      ]
    }
  ]
}]