[
{
  "tag":"S",
  "content":
  [
    {
      "tag":"PERSON",
      "content":
      [
        ["Abraham","NNP","abraham"]
      ]
    },
    {
      "tag":"PERSON",
      "content":
      [
        ["Robinson","NNP","robinson"]
      ]
    },
    ["(","NNP","("],
    ["born","NN","born"],
    {
      "tag":"PERSON",
      "content":
      [
        ["Robinsohn","NNP","robinsohn"]
      ]
    },
    [";",":",";"],
    ["October","NNP","octob"],
    ["6","CD","6"],
    [",",",",","],
    ["1918","CD","1918"],
    ["–",":","–"],
    ["April","NNP","april"],
    ["11","CD","11"],
    [",",",",","],
    ["1974","CD","1974"],
    [")",":",")"],
    ["was","VBD","be"],
    ["a","DT","a"],
    ["mathematician","JJ","mathem"],
    ["who","WP","who"],
    ["is","VBZ","be"],
    ["most","JJS","most"],
    ["widely","RB","wid"],
    ["known","JJ","known"],
    ["for","IN","for"],
    ["development","NN","develop"],
    ["of","IN","of"],
    ["non-standard","JJ","non-standard"],
    ["analysis","NN","analys"],
    [",",",",","],
    ["a","DT","a"],
    ["mathematically","RB","mathem"],
    ["rigorous","JJ","rig"],
    ["system","NN","system"],
    ["whereby","NN","whereby"],
    ["infinitesimal","NN","infinitesim"],
    ["and","CC","and"],
    ["infinite","JJ","infinit"],
    ["numbers","NNS","numb"],
    ["were","VBD","be"],
    ["incorporated","VBN","incorp"],
    ["into","IN","into"],
    ["mathematics","NNS","mathem"],
    [".",".","."]
  ]
},
{
  "tag":"S",
  "content":
  [
    ["==Biography==","NN","==biography=="],
    ["He","PRP","He"],
    ["was","VBD","be"],
    ["born","VBN","bear"],
    ["to","TO","to"],
    ["a","DT","a"],
    ["Jewish","JJ","jew"],
    ["family","NN","famy"],
    ["with","IN","with"],
    ["strong","JJ","strong"],
    {
      "tag":"ORGANIZATION",
      "content":
      [
        ["Zionist","NNP","zion"]
      ]
    },
    ["beliefs","VBZ","believ"],
    [",",",",","],
    ["in","IN","in"],
    {
      "tag":"GPE",
      "content":
      [
        ["Waldenburg","NNP","waldenburg"]
      ]
    },
    [",",",",","],
    {
      "tag":"GPE",
      "content":
      [
        ["Germany","NNP","germany"]
      ]
    },
    [",",",",","],
    ["which","WDT","which"],
    ["is","VBZ","be"],
    ["now","RB","now"],
    ["Wałbrzych","JJ","wałbrzych"],
    [",",",",","],
    ["in","IN","in"],
    {
      "tag":"GPE",
      "content":
      [
        ["Poland","NNP","poland"]
      ]
    },
    [".",".","."]
  ]
},
{
  "tag":"S",
  "content":
  [
    ["In","IN","In"],
    ["1933","CD","1933"],
    [",",",",","],
    ["he","PRP","he"],
    ["emigrated","VBD","emigr"],
    ["to","TO","to"],
    {
      "tag":"GPE",
      "content":
      [
        ["British","NNP","brit"]
      ]
    },
    ["Mandate","NNP","mand"],
    ["of","IN","of"],
    {
      "tag":"GPE",
      "content":
      [
        ["Palestine","NNP","palestin"]
      ]
    },
    [",",",",","],
    ["where","WRB","where"],
    ["he","PRP","he"],
    ["earned","VBD","earn"],
    ["a","DT","a"],
    ["first","JJ","first"],
    ["degree","NN","degr"],
    ["from","IN","from"],
    ["the","DT","the"],
    {
      "tag":"ORGANIZATION",
      "content":
      [
        ["Hebrew","NNP","hebrew"],
        ["University","NNP","univers"]
      ]
    },
    [".",".","."]
  ]
},
{
  "tag":"S",
  "content":
  [
    {
      "tag":"PERSON",
      "content":
      [
        ["Robinson","NNP","robinson"]
      ]
    },
    ["was","VBD","be"],
    ["in","IN","in"],
    {
      "tag":"GPE",
      "content":
      [
        ["France","NNP","frant"]
      ]
    },
    ["when","WRB","when"],
    ["the","DT","the"],
    {
      "tag":"ORGANIZATION",
      "content":
      [
        ["Nazis","NNP","naz"]
      ]
    },
    ["invaded","VBD","invad"],
    ["during","IN","during"],
    ["World","NNP","world"],
    ["War","NNP","war"],
    ["II","NNP","ii"],
    [",",",",","],
    ["and","CC","and"],
    ["escaped","VBD","escap"],
    ["by","IN","by"],
    ["train","NN","train"],
    ["and","CC","and"],
    ["on","IN","on"],
    ["foot","NN","foot"],
    [",",",",","],
    ["being","VBG","be"],
    ["alternately","RB","altern"],
    ["questioned","VBN","quest"],
    ["by","IN","by"],
    {
      "tag":"GPE",
      "content":
      [
        ["French","NNP","french"]
      ]
    },
    ["soldiers","NNS","soldy"],
    ["suspicious","JJ","suspicy"],
    ["of","IN","of"],
    ["his","PRP$","his"],
    {
      "tag":"GPE",
      "content":
      [
        ["German","JJ","germ"]
      ]
    },
    ["passport","NN","passport"],
    ["and","CC","and"],
    ["asked","VBD","ask"],
    ["by","IN","by"],
    ["them","PRP","them"],
    ["to","TO","to"],
    ["share","VB","shar"],
    ["his","PRP$","his"],
    ["map","NN","map"],
    [",",",",","],
    ["which","WDT","which"],
    ["was","VBD","be"],
    ["more","JJR","mor"],
    ["detailed","VBN","detail"],
    ["than","IN","than"],
    ["theirs","NNS","their"],
    [".",".","."]
  ]
},
{
  "tag":"S",
  "content":
  [
    ["While","IN","While"],
    ["in","IN","in"],
    {
      "tag":"GPE",
      "content":
      [
        ["London","NNP","london"]
      ]
    },
    [",",",",","],
    ["he","PRP","he"],
    ["joined","VBD","join"],
    ["the","DT","the"],
    {
      "tag":"ORGANIZATION",
      "content":
      [
        ["Free","NNP","fre"],
        ["French","NNP","french"],
        ["Air","NNP","air"],
        ["Force","NNP","forc"]
      ]
    },
    ["and","CC","and"],
    ["contributed","VBD","contribut"],
    ["to","TO","to"],
    ["the","DT","the"],
    ["war","NN","war"],
    ["effort","NN","effort"],
    ["by","IN","by"],
    ["teaching","NN","teach"],
    ["himself","PRP","himself"],
    ["aerodynamics","VBZ","aerodynam"],
    ["and","CC","and"],
    ["becoming","VBG","becom"],
    ["an","DT","an"],
    ["expert","NN","expert"],
    ["on","IN","on"],
    ["the","DT","the"],
    ["airfoils","NNS","airfoil"],
    ["used","VBN","us"],
    ["in","IN","in"],
    ["the","DT","the"],
    ["wings","NNS","wing"],
    ["of","IN","of"],
    ["fighter","NN","fight"],
    ["planes","NNS","plan"],
    [".",".","."]
  ]
},
{
  "tag":"S",
  "content":
  [
    ["After","IN","After"],
    ["the","DT","the"],
    ["war","NN","war"],
    [",",",",","],
    {
      "tag":"PERSON",
      "content":
      [
        ["Robinson","NNP","robinson"]
      ]
    },
    ["worked","VBD","work"],
    ["in","IN","in"],
    {
      "tag":"GPE",
      "content":
      [
        ["London","NNP","london"]
      ]
    },
    [",",",",","],
    {
      "tag":"GPE",
      "content":
      [
        ["Toronto","NNP","toronto"]
      ]
    },
    [",",",",","],
    ["and","CC","and"],
    {
      "tag":"GPE",
      "content":
      [
        ["Jerusalem","NNP","jerusalem"]
      ]
    },
    [",",",",","],
    ["but","CC","but"],
    ["ended","VBD","end"],
    ["up","RP","up"],
    ["at","IN","at"],
    {
      "tag":"ORGANIZATION",
      "content":
      [
        ["University","NNP","univers"]
      ]
    },
    ["of","IN","of"],
    {
      "tag":"GPE",
      "content":
      [
        ["California","NNP","californ"]
      ]
    },
    [",",",",","],
    {
      "tag":"GPE",
      "content":
      [
        ["Los","NNP","los"],
        ["Angeles","NNP","angel"]
      ]
    },
    ["in","IN","in"],
    ["1962","CD","1962"],
    [".",".","."]
  ]
},
{
  "tag":"S",
  "content":
  [
    ["==Work","NN","==work"],
    ["in","IN","in"],
    ["model","NN","model"],
    ["theory==","NN","theory=="],
    ["He","PRP","He"],
    ["become","VBD","becom"],
    ["known","VBN","know"],
    ["for","IN","for"],
    ["his","PRP$","his"],
    ["approach","NN","approach"],
    ["of","IN","of"],
    ["using","VBG","us"],
    ["the","DT","the"],
    ["methods","NNS","method"],
    ["of","IN","of"],
    ["mathematical","JJ","mathem"],
    ["logic","NN","log"],
    ["to","TO","to"],
    ["attack","VB","attack"],
    ["problems","NNS","problem"],
    ["in","IN","in"],
    ["analysis","NN","analys"],
    ["and","CC","and"],
    ["abstract","NN","abstract"],
    ["algebra","NN","algebr"],
    [".",".","."]
  ]
},
{
  "tag":"S",
  "content":
  [
    ["He","PRP","He"],
    ["``","``","``"],
    ["introduced","VBD","introduc"],
    ["many","JJ","many"],
    ["of","IN","of"],
    ["the","DT","the"],
    ["fundamental","JJ","funda"],
    ["notions","NNS","not"],
    ["of","IN","of"],
    ["model","NN","model"],
    ["theory","NN","the"],
    ["''","''","''"],
    [".",".","."]
  ]
},
{
  "tag":"S",
  "content":
  [
    ["Using","VBG","us"],
    ["these","DT","these"],
    ["methods","NNS","method"],
    [",",",",","],
    ["he","PRP","he"],
    ["found","VBD","find"],
    ["a","DT","a"],
    ["way","NN","way"],
    ["of","IN","of"],
    ["using","VBG","us"],
    ["formal","JJ","form"],
    ["logic","NN","log"],
    ["to","TO","to"],
    ["show","VB","show"],
    ["that","IN","that"],
    ["there","EX","there"],
    ["are","VBP","be"],
    ["self-consistent","JJ","self-consistent"],
    ["nonstandard","NN","nonstandard"],
    ["models","NNS","model"],
    ["of","IN","of"],
    ["the","DT","the"],
    ["real","JJ","real"],
    ["number","NN","numb"],
    ["system","NN","system"],
    ["which","WDT","which"],
    ["include","VBP","includ"],
    ["infinite","RB","infinit"],
    ["and","CC","and"],
    ["infinitesimal","JJ","infinitesim"],
    ["numbers","NNS","numb"],
    [".",".","."]
  ]
},
{
  "tag":"S",
  "content":
  [
    ["Others","NNS","oth"],
    [",",",",","],
    ["such","JJ","such"],
    ["as","IN","as"],
    {
      "tag":"PERSON",
      "content":
      [
        ["Wilhelmus","NNP","wilhelm"],
        ["Luxemburg","NNP","luxemburg"]
      ]
    },
    [",",",",","],
    ["showed","VBD","show"],
    ["that","IN","that"],
    ["the","DT","the"],
    ["same","JJ","sam"],
    ["results","NNS","result"],
    ["could","MD","could"],
    ["be","VB","be"],
    ["achieved","VBN","achiev"],
    ["using","VBG","us"],
    ["ultrafilters","NNS","ultrafilt"],
    [",",",",","],
    ["which","WDT","which"],
    ["made","VBN","mak"],
    {
      "tag":"PERSON",
      "content":
      [
        ["Robinson","NNP","robinson"]
      ]
    },
    ["'s","POS","'s"],
    ["work","NN","work"],
    ["more","JJR","mor"],
    ["accessible","JJ","access"],
    ["to","TO","to"],
    ["mathematicians","NNS","mathem"],
    ["who","WP","who"],
    ["lacked","VBN","lack"],
    ["training","VBG","train"],
    ["in","IN","in"],
    ["formal","JJ","form"],
    ["logic","NN","log"],
    [".",".","."]
  ]
},
{
  "tag":"S",
  "content":
  [
    {
      "tag":"PERSON",
      "content":
      [
        ["Robinson","NNP","robinson"]
      ]
    },
    ["'s","POS","'s"],
    ["book","NN","book"],
    ["Non-standard","NN","non-standard"],
    {
      "tag":"PERSON",
      "content":
      [
        ["Analysis","NNP","analys"]
      ]
    },
    ["was","VBD","be"],
    ["published","VBN","publ"],
    ["in","IN","in"],
    ["1966","CD","1966"],
    [".",".","."]
  ]
},
{
  "tag":"S",
  "content":
  [
    {
      "tag":"PERSON",
      "content":
      [
        ["Robinson","NNP","robinson"]
      ]
    },
    ["was","VBD","be"],
    ["strongly","RB","strongly"],
    ["interested","JJ","interest"],
    ["in","IN","in"],
    ["the","DT","the"],
    ["history","NN","hist"],
    ["and","CC","and"],
    ["philosophy","NN","philosoph"],
    ["of","IN","of"],
    ["mathematics","NNS","mathem"],
    [",",",",","],
    ["and","CC","and"],
    ["often","RB","oft"],
    ["remarked","VBN","remark"],
    ["that","IN","that"],
    ["he","PRP","he"],
    ["wanted","VBD","want"],
    ["to","TO","to"],
    ["get","VB","get"],
    ["inside","JJ","insid"],
    ["the","DT","the"],
    ["head","NN","head"],
    ["of","IN","of"],
    {
      "tag":"GPE",
      "content":
      [
        ["Leibniz","NNP","leibn"]
      ]
    },
    [",",",",","],
    ["the","DT","the"],
    ["first","JJ","first"],
    ["mathematician","NN","mathem"],
    ["to","TO","to"],
    ["attempt","VB","attempt"],
    ["to","TO","to"],
    ["articulate","VB","artic"],
    ["clearly","RB","clear"],
    ["the","DT","the"],
    ["concept","NN","conceiv"],
    ["of","IN","of"],
    ["infinitesimal","JJ","infinitesim"],
    ["numbers","NNS","numb"],
    [".",".","."]
  ]
},
{
  "tag":"S",
  "content":
  [
    ["While","IN","While"],
    ["at","IN","at"],
    {
      "tag":"ORGANIZATION",
      "content":
      [
        ["UCLA","NNP","ucl"]
      ]
    },
    ["his","PRP$","his"],
    ["colleagues","NNS","colleagu"],
    ["remember","NN","rememb"],
    ["him","PRP","him"],
    ["as","IN","as"],
    ["working","VBG","work"],
    ["hard","JJ","hard"],
    ["to","TO","to"],
    ["accommodate","VB","accommod"],
    {
      "tag":"ORGANIZATION",
      "content":
      [
        ["PhD","NNP","phd"]
      ]
    },
    ["students","NNS","stud"],
    ["of","IN","of"],
    ["all","DT","all"],
    ["levels","NNS","level"],
    ["of","IN","of"],
    ["ability","NN","abl"],
    ["by","IN","by"],
    ["finding","NN","find"],
    ["them","PRP","them"],
    ["projects","VBZ","project"],
    ["of","IN","of"],
    ["the","DT","the"],
    ["appropriate","JJ","appropry"],
    ["difficulty","NN","difficul"],
    [".",".","."]
  ]
},
{
  "tag":"S",
  "content":
  [
    ["He","PRP","He"],
    ["was","VBD","be"],
    ["courted","VBN","court"],
    ["by","IN","by"],
    {
      "tag":"PERSON",
      "content":
      [
        ["Yale","NNP","yal"]
      ]
    },
    [",",",",","],
    ["and","CC","and"],
    ["after","IN","after"],
    ["some","DT","some"],
    ["initial","JJ","init"],
    ["reluctance","NN","reluct"],
    [",",",",","],
    ["he","PRP","he"],
    ["moved","VBD","mov"],
    ["there","RB","ther"],
    ["in","IN","in"],
    ["1967","CD","1967"],
    [".",".","."]
  ]
},
{
  "tag":"S",
  "content":
  [
    ["He","PRP","He"],
    ["died","VBD","die"],
    ["of","IN","of"],
    ["pancreatic","JJ","pancr"],
    ["cancer","NN","cant"],
    ["in","IN","in"],
    ["1974","CD","1974"],
    [".",".","."]
  ]
},
{
  "tag":"S",
  "content":
  [
    ["==Notes==","NN","==notes=="],
    ["==Publications==","NN","==publications=="],
    ["*","-NONE-","*"],
    ["*","-NONE-","*"],
    ["*","-NONE-","*"],
    ["*","-NONE-","*"],
    ["*","-NONE-","*"],
    ["*","-NONE-","*"],
    ["==See","VB","==see"],
    ["also==","JJ","also=="],
    ["*Influence","NN","*influence"],
    ["of","IN","of"],
    ["non-standard","JJ","non-standard"],
    ["analysis","NN","analys"],
    ["==References==","NN","==references=="],
    ["*","-NONE-","*"],
    ["J.","NNP","j."],
    ["W.","NNP","w."],
    ["Dauben","NNP","daub"],
    [",",",",","],
    {
      "tag":"PERSON",
      "content":
      [
        ["Abraham","NNP","abraham"],
        ["Robinson","NNP","robinson"]
      ]
    },
    [":",":",":"],
    ["The","DT","The"],
    {
      "tag":"ORGANIZATION",
      "content":
      [
        ["Creation","NNP","cre"]
      ]
    },
    ["of","IN","of"],
    {
      "tag":"ORGANIZATION",
      "content":
      [
        ["Nonstandard","NNP","nonstandard"],
        ["Analysis","NNP","analys"]
      ]
    },
    [",",",",","],
    ["A","DT","A"],
    ["Personal","NNP","person"],
    ["and","CC","and"],
    {
      "tag":"PERSON",
      "content":
      [
        ["Mathematical","NNP","mathem"],
        ["Odyssey","NNP","odyssey"]
      ]
    },
    [",",",",","],
    {
      "tag":"GPE",
      "content":
      [
        ["Princeton","NNP","princeton"]
      ]
    },
    [",",",",","],
    ["NJ","NNP","nj"],
    [":",":",":"],
    {
      "tag":"PERSON",
      "content":
      [
        ["Princeton","NNP","princeton"],
        ["University","NNP","univers"],
        ["Press","NNP","press"]
      ]
    },
    [",",",",","],
    ["1998","CD","1998"],
    ["==External","JJ","==external"],
    ["links==","NN","links=="],
    ["*","-NONE-","*"],
    ["*","-NONE-","*"],
    ["*","-NONE-","*"]
  ]
}]