[
{
  "tag":"S",
  "content":
  [
    {
      "tag":"PERSON",
      "content":
      [
        ["John","NNP","john"]
      ]
    },
    {
      "tag":"PERSON",
      "content":
      [
        ["Frank","NNP","frank"],
        ["Adams","NNP","adam"],
        ["FRS","NNP","frs"]
      ]
    },
    ["(","NNP","("],
    ["November","NNP","novemb"],
    ["5","CD","5"],
    [",",",",","],
    ["1930","CD","1930"],
    ["–",":","–"],
    ["January","NNP","janu"],
    ["7","CD","7"],
    [",",",",","],
    ["1989","CD","1989"],
    [")",":",")"],
    ["was","VBD","be"],
    ["a","DT","a"],
    {
      "tag":"GPE",
      "content":
      [
        ["British","JJ","brit"]
      ]
    },
    ["mathematician","NN","mathem"],
    [",",",",","],
    ["one","CD","one"],
    ["of","IN","of"],
    ["the","DT","the"],
    ["founders","NNS","found"],
    ["of","IN","of"],
    ["homotopy","NN","homotop"],
    ["theory","NN","the"],
    [".",".","."]
  ]
},
{
  "tag":"S",
  "content":
  [
    ["==Life==","NN","==life=="],
    ["He","PRP","He"],
    ["was","VBD","be"],
    ["born","VBN","bear"],
    ["in","IN","in"],
    {
      "tag":"GPE",
      "content":
      [
        ["Woolwich","NNP","woolwich"]
      ]
    },
    [",",",",","],
    ["a","DT","a"],
    ["suburb","NN","suburb"],
    ["in","IN","in"],
    ["south-east","JJ","south-east"],
    {
      "tag":"GPE",
      "content":
      [
        ["London","NNP","london"]
      ]
    },
    [".",".","."]
  ]
},
{
  "tag":"S",
  "content":
  [
    ["He","PRP","He"],
    ["began","VBD","begin"],
    ["research","NN","research"],
    ["as","IN","as"],
    ["a","DT","a"],
    ["student","NN","stud"],
    ["of","IN","of"],
    {
      "tag":"PERSON",
      "content":
      [
        ["Abram","NNP","abram"],
        ["Besicovitch","NNP","besicovitch"]
      ]
    },
    [",",",",","],
    ["but","CC","but"],
    ["soon","RB","soon"],
    ["switched","VBN","switch"],
    ["to","TO","to"],
    ["algebraic","JJ","algebra"],
    ["topology","NN","topolog"],
    [".",".","."]
  ]
},
{
  "tag":"S",
  "content":
  [
    ["He","PRP","He"],
    ["received","VBD","receiv"],
    ["his","PRP$","his"],
    ["Ph.D.","NNP","ph.d."],
    ["from","IN","from"],
    ["the","DT","the"],
    {
      "tag":"ORGANIZATION",
      "content":
      [
        ["University","NNP","univers"]
      ]
    },
    ["of","IN","of"],
    {
      "tag":"GPE",
      "content":
      [
        ["Cambridge","NNP","cambridg"]
      ]
    },
    ["in","IN","in"],
    ["1956","CD","1956"],
    [".",".","."]
  ]
},
{
  "tag":"S",
  "content":
  [
    ["His","PRP$","His"],
    ["thesis","NN","thes"],
    [",",",",","],
    ["written","VBN","writ"],
    ["under","IN","under"],
    ["the","DT","the"],
    ["direction","NN","direct"],
    ["of","IN","of"],
    {
      "tag":"PERSON",
      "content":
      [
        ["Shaun","NNP","shaun"],
        ["Wylie","NNP","wyly"]
      ]
    },
    [",",",",","],
    ["was","VBD","be"],
    ["titled","VBN","titl"],
    ["On","NNP","on"],
    ["spectral","JJ","spect"],
    ["sequences","NNS","sequ"],
    ["and","CC","and"],
    ["self-obstruction","NN","self-obstruction"],
    ["invariants","NNS","inv"],
    [".",".","."]
  ]
},
{
  "tag":"S",
  "content":
  [
    ["He","PRP","He"],
    ["held","VBD","hold"],
    ["the","DT","the"],
    {
      "tag":"ORGANIZATION",
      "content":
      [
        ["Fielden","NNP","field"]
      ]
    },
    ["Chair","NNP","chair"],
    ["at","IN","at"],
    ["the","DT","the"],
    {
      "tag":"ORGANIZATION",
      "content":
      [
        ["University","NNP","univers"]
      ]
    },
    ["of","IN","of"],
    ["Manchester","NNP","manchest"],
    ["(","NNP","("],
    ["1964","CD","1964"],
    ["&","CC","&"],
    ["ndash","NN","ndash"],
    [";",":",";"],
    ["1970","CD","1970"],
    [")","CD",")"],
    [",",",",","],
    ["and","CC","and"],
    ["became","VBD","becom"],
    {
      "tag":"PERSON",
      "content":
      [
        ["Lowndean","NNP","lownd"],
        ["Professor","NNP","profess"]
      ]
    },
    ["of","IN","of"],
    {
      "tag":"ORGANIZATION",
      "content":
      [
        ["Astronomy","NNP","astronom"]
      ]
    },
    ["and","CC","and"],
    {
      "tag":"PERSON",
      "content":
      [
        ["Geometry","NNP","geometry"]
      ]
    },
    ["at","IN","at"],
    ["the","DT","the"],
    {
      "tag":"ORGANIZATION",
      "content":
      [
        ["University","NNP","univers"]
      ]
    },
    ["of","IN","of"],
    {
      "tag":"GPE",
      "content":
      [
        ["Cambridge","NNP","cambridg"]
      ]
    },
    ["(","NNP","("],
    ["1970","CD","1970"],
    ["&","CC","&"],
    ["ndash","NN","ndash"],
    [";",":",";"],
    ["1989","CD","1989"],
    [")","CD",")"],
    [".",".","."]
  ]
},
{
  "tag":"S",
  "content":
  [
    ["He","PRP","He"],
    ["was","VBD","be"],
    ["elected","VBN","elect"],
    ["a","DT","a"],
    ["Fellow","NNP","fellow"],
    ["of","IN","of"],
    ["the","DT","the"],
    {
      "tag":"ORGANIZATION",
      "content":
      [
        ["Royal","NNP","roy"],
        ["Society","NNP","socy"]
      ]
    },
    ["in","IN","in"],
    ["1964","CD","1964"],
    [".",".","."]
  ]
},
{
  "tag":"S",
  "content":
  [
    ["His","PRP$","His"],
    ["interests","NNS","interest"],
    ["included","VBD","includ"],
    ["mountaineering—he","JJ","mountaineering—he"],
    ["would","MD","would"],
    ["demonstrate","VB","demonst"],
    ["how","WRB","how"],
    ["to","TO","to"],
    ["climb","VB","climb"],
    ["right","RB","right"],
    ["round","IN","round"],
    ["a","DT","a"],
    ["table","NN","tabl"],
    ["at","IN","at"],
    ["parties","NNS","party"],
    ["(",":","("],
    ["a","DT","a"],
    ["Whitney","NNP","whitney"],
    ["traverse","NN","travers"],
    [")",":",")"],
    ["—and","JJ","—and"],
    ["the","DT","the"],
    ["game","NN","gam"],
    ["of","IN","of"],
    {
      "tag":"GPE",
      "content":
      [
        ["Go","NNP","go"]
      ]
    },
    [".",".","."]
  ]
},
{
  "tag":"S",
  "content":
  [
    ["He","PRP","He"],
    ["died","VBD","die"],
    ["in","IN","in"],
    ["a","DT","a"],
    ["car","NN","car"],
    ["accident","NN","accid"],
    ["in","IN","in"],
    {
      "tag":"GPE",
      "content":
      [
        ["Brampton","NNP","brampton"]
      ]
    },
    [",",",",","],
    {
      "tag":"PERSON",
      "content":
      [
        ["Cambridgeshire","NNP","cambridgeshir"]
      ]
    },
    [".",".","."]
  ]
},
{
  "tag":"S",
  "content":
  [
    ["There","EX","There"],
    ["is","VBZ","be"],
    ["a","DT","a"],
    ["memorial","JJ","mem"],
    ["plaque","NN","plaqu"],
    ["for","IN","for"],
    ["him","PRP","him"],
    ["in","IN","in"],
    ["the","DT","the"],
    ["Chapel","NNP","chapel"],
    ["of","IN","of"],
    {
      "tag":"ORGANIZATION",
      "content":
      [
        ["Trinity","NNP","trin"],
        ["College","NNP","colleg"]
      ]
    },
    [",",",",","],
    {
      "tag":"GPE",
      "content":
      [
        ["Cambridge","NNP","cambridg"]
      ]
    },
    [".",".","."]
  ]
},
{
  "tag":"S",
  "content":
  [
    ["==Work==","NN","==work=="],
    ["In","IN","In"],
    ["the","DT","the"],
    ["1950s","CD","1950s"],
    [",",",",","],
    ["homotopy","JJ","homotop"],
    ["theory","NN","the"],
    ["was","VBD","be"],
    ["at","IN","at"],
    ["an","DT","an"],
    ["early","JJ","ear"],
    ["stage","NN","stag"],
    ["of","IN","of"],
    ["development","NN","develop"],
    [",",",",","],
    ["and","CC","and"],
    ["unsolved","VBD","unsolv"],
    ["problems","NNS","problem"],
    ["abounded","VBN","abound"],
    [".",".","."]
  ]
},
{
  "tag":"S",
  "content":
  [
    {
      "tag":"PERSON",
      "content":
      [
        ["Adams","NNS","adam"]
      ]
    },
    ["made","VBD","mak"],
    ["a","DT","a"],
    ["number","NN","numb"],
    ["of","IN","of"],
    ["important","JJ","import"],
    ["theoretical","JJ","theoret"],
    ["advances","NNS","adv"],
    ["in","IN","in"],
    ["algebraic","JJ","algebra"],
    ["topology","NN","topolog"],
    [",",",",","],
    ["but","CC","but"],
    ["his","PRP$","his"],
    ["innovations","NNS","innov"],
    ["were","VBD","be"],
    ["always","RB","alway"],
    ["motivated","VBN","mot"],
    ["by","IN","by"],
    ["specific","JJ","spec"],
    ["problems","NNS","problem"],
    [".",".","."]
  ]
},
{
  "tag":"S",
  "content":
  [
    ["Influenced","NNP","influ"],
    ["by","IN","by"],
    ["the","DT","the"],
    {
      "tag":"GPE",
      "content":
      [
        ["French","JJ","french"]
      ]
    },
    ["school","NN","school"],
    ["of","IN","of"],
    {
      "tag":"PERSON",
      "content":
      [
        ["Henri","NNP","henr"],
        ["Cartan","NNP","cart"]
      ]
    },
    ["and","CC","and"],
    ["Jean-Pierre","JJ","jean-pierre"],
    {
      "tag":"GPE",
      "content":
      [
        ["Serre","NNP","ser"]
      ]
    },
    [",",",",","],
    ["he","PRP","he"],
    ["reformulated","VBD","reform"],
    ["and","CC","and"],
    ["strengthened","VBN","strengthen"],
    ["their","PRP$","their"],
    ["method","NN","method"],
    ["of","IN","of"],
    ["killing","VBG","kil"],
    ["homotopy","NN","homotop"],
    ["groups","NNS","group"],
    ["in","IN","in"],
    ["spectral","JJ","spect"],
    ["sequence","NN","sequ"],
    ["terms","NNS","term"],
    [",",",",","],
    ["creating","VBG","cre"],
    ["the","DT","the"],
    ["basic","JJ","bas"],
    ["tool","NN","tool"],
    ["of","IN","of"],
    ["stable","JJ","stabl"],
    ["homotopy","NN","homotop"],
    ["theory","NN","the"],
    ["now","RB","now"],
    ["known","VBN","know"],
    ["as","IN","as"],
    ["the","DT","the"],
    {
      "tag":"ORGANIZATION",
      "content":
      [
        ["Adams","NNP","adam"]
      ]
    },
    ["spectral","JJ","spect"],
    ["sequence","NN","sequ"],
    [".",".","."]
  ]
},
{
  "tag":"S",
  "content":
  [
    ["This","DT","This"],
    ["begins","VBZ","begin"],
    ["with","IN","with"],
    {
      "tag":"ORGANIZATION",
      "content":
      [
        ["Ext","NNP","ext"]
      ]
    },
    ["groups","NNS","group"],
    ["calculated","VBD","calc"],
    ["over","IN","over"],
    ["the","DT","the"],
    ["ring","NN","ring"],
    ["of","IN","of"],
    ["cohomology","NN","cohomolog"],
    ["operations","NNS","op"],
    [",",",",","],
    ["which","WDT","which"],
    ["is","VBZ","be"],
    ["the","DT","the"],
    {
      "tag":"ORGANIZATION",
      "content":
      [
        ["Steenrod","NNP","steenrod"]
      ]
    },
    ["algebra","NN","algebr"],
    ["in","IN","in"],
    ["the","DT","the"],
    ["classical","JJ","class"],
    ["case","NN","cas"],
    [".",".","."]
  ]
},
{
  "tag":"S",
  "content":
  [
    ["He","PRP","He"],
    ["used","VBD","us"],
    ["this","DT","this"],
    ["spectral","JJ","spect"],
    ["sequence","NN","sequ"],
    ["to","TO","to"],
    ["attack","VB","attack"],
    ["the","DT","the"],
    ["celebrated","VBN","celebr"],
    {
      "tag":"PERSON",
      "content":
      [
        ["Hopf","NNP","hopf"]
      ]
    },
    ["invariant","NN","inv"],
    ["one","CD","one"],
    ["problem","NN","problem"],
    [",",",",","],
    ["which","WDT","which"],
    ["he","PRP","he"],
    ["completely","RB","complet"],
    ["solved","VBD","solv"],
    ["in","IN","in"],
    ["a","DT","a"],
    ["1960","CD","1960"],
    ["paper","NN","pap"],
    ["by","IN","by"],
    ["making","VBG","mak"],
    ["a","DT","a"],
    ["deep","NN","deep"],
    ["analysis","NN","analys"],
    ["of","IN","of"],
    ["secondary","JJ","second"],
    ["cohomology","NN","cohomolog"],
    ["operations","NNS","op"],
    [".",".","."]
  ]
},
{
  "tag":"S",
  "content":
  [
    ["The","DT","The"],
    {
      "tag":"ORGANIZATION",
      "content":
      [
        ["Adams","NNP","adam"]
      ]
    },
    ["&","CC","&"],
    ["ndash","NN","ndash"],
    [";",":",";"],
    {
      "tag":"PERSON",
      "content":
      [
        ["Novikov","NNP","novikov"]
      ]
    },
    ["spectral","JJ","spect"],
    ["sequence","NN","sequ"],
    ["is","VBZ","be"],
    ["an","DT","an"],
    ["analogue","NN","analog"],
    ["of","IN","of"],
    ["the","DT","the"],
    {
      "tag":"ORGANIZATION",
      "content":
      [
        ["Adams","NNP","adam"]
      ]
    },
    ["spectral","JJ","spect"],
    ["sequence","NN","sequ"],
    ["using","VBG","us"],
    ["an","DT","an"],
    ["extraordinary","JJ","extraordin"],
    ["cohomology","NN","cohomolog"],
    ["theory","NN","the"],
    ["in","IN","in"],
    ["place","NN","plac"],
    ["of","IN","of"],
    ["classical","JJ","class"],
    ["cohomology","NN","cohomolog"],
    [":",":",":"],
    ["it","PRP","it"],
    ["is","VBZ","be"],
    ["a","DT","a"],
    ["computational","JJ","comput"],
    ["tool","NN","tool"],
    ["of","IN","of"],
    ["great","JJ","gre"],
    ["potential","NN","pot"],
    ["scope","NN","scop"],
    [".",".","."]
  ]
},
{
  "tag":"S",
  "content":
  [
    {
      "tag":"PERSON",
      "content":
      [
        ["Adams","NNS","adam"]
      ]
    },
    ["was","VBD","be"],
    ["also","RB","also"],
    ["a","DT","a"],
    ["pioneer","NN","pion"],
    ["in","IN","in"],
    ["the","DT","the"],
    ["application","NN","apply"],
    ["of","IN","of"],
    ["K-theory","JJ","k-theory"],
    [".",".","."]
  ]
},
{
  "tag":"S",
  "content":
  [
    ["He","PRP","He"],
    ["invented","VBD","inv"],
    ["the","DT","the"],
    {
      "tag":"ORGANIZATION",
      "content":
      [
        ["Adams","NNP","adam"]
      ]
    },
    ["operations","NNS","op"],
    ["in","IN","in"],
    ["K-theory","JJ","k-theory"],
    [",",",",","],
    ["which","WDT","which"],
    ["are","VBP","be"],
    ["derived","VBN","der"],
    ["from","IN","from"],
    ["the","DT","the"],
    ["exterior","JJ","extery"],
    ["powers","NNS","pow"],
    [";",":",";"],
    ["they","PRP","they"],
    ["are","VBP","be"],
    ["now","RB","now"],
    ["also","RB","also"],
    ["widely","RB","wid"],
    ["used","JJ","us"],
    ["in","IN","in"],
    ["purely","RB","pur"],
    ["algebraic","JJ","algebra"],
    ["contexts","NNS","context"],
    [".",".","."]
  ]
},
{
  "tag":"S",
  "content":
  [
    {
      "tag":"PERSON",
      "content":
      [
        ["Adams","NNS","adam"]
      ]
    },
    ["introduced","VBD","introduc"],
    ["them","PRP","them"],
    ["in","IN","in"],
    ["a","DT","a"],
    ["1962","CD","1962"],
    ["paper","NN","pap"],
    ["in","IN","in"],
    ["order","NN","ord"],
    ["to","TO","to"],
    ["solve","VB","solv"],
    ["the","DT","the"],
    ["famous","JJ","fam"],
    ["vector","NN","vect"],
    ["fields","NNS","field"],
    ["on","IN","on"],
    ["spheres","NNS","sphere"],
    ["problem","NN","problem"],
    [".",".","."]
  ]
},
{
  "tag":"S",
  "content":
  [
    ["Subsequently","RB","subsequ"],
    ["he","PRP","he"],
    ["used","VBD","us"],
    ["them","PRP","them"],
    ["to","TO","to"],
    ["investigate","VB","investig"],
    ["the","DT","the"],
    {
      "tag":"GPE",
      "content":
      [
        ["Adams","NNP","adam"]
      ]
    },
    ["conjecture","NN","conject"],
    ["which","WDT","which"],
    ["is","VBZ","be"],
    ["concerned","VBN","concern"],
    ["(","-NONE-","("],
    ["in","IN","in"],
    ["one","CD","one"],
    ["instance","NN","inst"],
    [")",":",")"],
    ["with","IN","with"],
    ["the","DT","the"],
    ["image","NN","im"],
    ["of","IN","of"],
    ["the","DT","the"],
    ["J-homomorphism","NN","j-homomorphism"],
    ["in","IN","in"],
    ["the","DT","the"],
    ["stable","NN","stabl"],
    ["homotopy","NN","homotop"],
    ["groups","NNS","group"],
    ["of","IN","of"],
    ["spheres","NNS","sphere"],
    [".",".","."]
  ]
},
{
  "tag":"S",
  "content":
  [
    ["A","DT","A"],
    ["later","JJ","lat"],
    ["paper","NN","pap"],
    ["of","IN","of"],
    {
      "tag":"PERSON",
      "content":
      [
        ["Adams","NNP","adam"]
      ]
    },
    ["and","CC","and"],
    {
      "tag":"PERSON",
      "content":
      [
        ["Michael","NNP","michael"],
        ["F.","NNP","f."],
        ["Atiyah","NNP","atiyah"]
      ]
    },
    ["uses","VBZ","us"],
    ["the","DT","the"],
    {
      "tag":"ORGANIZATION",
      "content":
      [
        ["Adams","NNP","adam"]
      ]
    },
    ["operations","NNS","op"],
    ["to","TO","to"],
    ["give","VB","giv"],
    ["an","DT","an"],
    ["extremely","RB","extrem"],
    ["elegant","JJ","eleg"],
    ["and","CC","and"],
    ["much","JJ","much"],
    ["faster","NN","fast"],
    ["version","NN","vert"],
    ["of","IN","of"],
    ["the","DT","the"],
    ["above-mentioned","JJ","above-mentioned"],
    ["Hopf","NNP","hopf"],
    ["invariant","NN","inv"],
    ["one","CD","one"],
    ["result","NN","result"],
    [".",".","."]
  ]
},
{
  "tag":"S",
  "content":
  [
    ["In","IN","In"],
    ["1974","CD","1974"],
    {
      "tag":"PERSON",
      "content":
      [
        ["Adams","NNP","adam"]
      ]
    },
    ["became","VBD","becom"],
    ["the","DT","the"],
    ["first","JJ","first"],
    ["recipient","NN","recipy"],
    ["of","IN","of"],
    ["the","DT","the"],
    {
      "tag":"ORGANIZATION",
      "content":
      [
        ["Senior","NNP","seny"],
        ["Whitehead","NNP","whitehead"],
        ["Prize","NNP","priz"]
      ]
    },
    [",",",",","],
    ["awarded","VBD","award"],
    ["by","IN","by"],
    ["the","DT","the"],
    {
      "tag":"ORGANIZATION",
      "content":
      [
        ["London","NNP","london"],
        ["Mathematical","NNP","mathem"],
        ["Society","NNP","socy"]
      ]
    },
    [".",".","."]
  ]
},
{
  "tag":"S",
  "content":
  [
    ["He","PRP","He"],
    ["was","VBD","be"],
    ["a","DT","a"],
    ["visiting","NN","visit"],
    ["scholar","NN","scholar"],
    ["at","IN","at"],
    ["the","DT","the"],
    {
      "tag":"ORGANIZATION",
      "content":
      [
        ["Institute","NNP","institut"]
      ]
    },
    ["for","IN","for"],
    {
      "tag":"PERSON",
      "content":
      [
        ["Advanced","NNP","adv"],
        ["Study","NNP","study"]
      ]
    },
    ["in","IN","in"],
    ["1957-58","CD","1957-58"],
    [".",".","."]
  ]
},
{
  "tag":"S",
  "content":
  [
    {
      "tag":"PERSON",
      "content":
      [
        ["Adams","NNS","adam"]
      ]
    },
    ["had","VBD","hav"],
    ["many","JJ","many"],
    ["talented","VBN","tal"],
    ["students","NNS","stud"],
    [",",",",","],
    ["and","CC","and"],
    ["was","VBD","be"],
    ["highly","RB","high"],
    ["influential","JJ","influ"],
    ["in","IN","in"],
    ["the","DT","the"],
    ["development","NN","develop"],
    ["of","IN","of"],
    ["algebraic","JJ","algebra"],
    ["topology","NN","topolog"],
    ["in","IN","in"],
    {
      "tag":"GPE",
      "content":
      [
        ["Britain","NNP","britain"]
      ]
    },
    ["and","CC","and"],
    ["worldwide","VB","worldwid"],
    [".",".","."]
  ]
},
{
  "tag":"S",
  "content":
  [
    ["His","PRP$","His"],
    {
      "tag":"ORGANIZATION",
      "content":
      [
        ["University","NNP","univers"]
      ]
    },
    ["of","IN","of"],
    {
      "tag":"GPE",
      "content":
      [
        ["Chicago","NNP","chicago"]
      ]
    },
    ["lectures","NNS","lect"],
    ["were","VBD","be"],
    ["published","VBN","publ"],
    ["in","IN","in"],
    ["a","DT","a"],
    ["1996","CD","1996"],
    ["series","NN","sery"],
    ["titled","VBD","titl"],
    ["``","``","``"],
    {
      "tag":"PERSON",
      "content":
      [
        ["Chicago","NNP","chicago"],
        ["Lectures","NNP","lect"]
      ]
    },
    ["in","IN","in"],
    {
      "tag":"GPE",
      "content":
      [
        ["Mathematics","NNP","mathem"]
      ]
    },
    ["Series","NNP","sery"],
    ["''","''","''"],
    [",",",",","],
    ["such","JJ","such"],
    ["as","IN","as"],
    {
      "tag":"PERSON",
      "content":
      [
        ["Lectures","NNP","lect"],
        ["On","NNP","on"]
      ]
    },
    ["Exceptional","NNP","exceiv"],
    ["Lie","NNP","lie"],
    ["Groups","NNP","group"],
    ["and","CC","and"],
    {
      "tag":"PERSON",
      "content":
      [
        ["Stable","NNP","stabl"],
        ["Homotopy","NNP","homotop"]
      ]
    },
    ["and","CC","and"],
    {
      "tag":"ORGANIZATION",
      "content":
      [
        ["Generalised","NNP","gen"],
        ["Homology","NNP","homolog"]
      ]
    },
    ["ISBN","NNP","isbn"],
    ["0-226-00524-0","CD","0-226-00524-0"],
    [".",".","."]
  ]
},
{
  "tag":"S",
  "content":
  [
    ["==Recognition==","NN","==recognition=="],
    ["The","DT","The"],
    ["main","JJ","main"],
    ["mathematics","NN","mathem"],
    ["research","NN","research"],
    ["seminar","NN","semin"],
    ["room","NN","room"],
    ["in","IN","in"],
    ["the","DT","the"],
    {
      "tag":"ORGANIZATION",
      "content":
      [
        ["Alan","NNP","al"],
        ["Turing","NNP","tur"]
      ]
    },
    ["Building","NNP","build"],
    ["at","IN","at"],
    ["the","DT","the"],
    {
      "tag":"ORGANIZATION",
      "content":
      [
        ["University","NNP","univers"]
      ]
    },
    ["of","IN","of"],
    ["Manchester","NNP","manchest"],
    ["is","VBZ","be"],
    ["named","VBN","nam"],
    ["in","IN","in"],
    ["his","PRP$","his"],
    ["honour","NN","hono"],
    [".",".","."]
  ]
},
{
  "tag":"S",
  "content":
  [
    ["==References==","NN","==references=="],
    ["==Publications==","NN","==publications=="],
    ["*","-NONE-","*"],
    ["*","-NONE-","*"],
    ["==External","JJ","==external"],
    ["links==","NN","links=="],
    ["*Memorial","JJ","*memorial"],
    ["page","NN","pag"]
  ]
}]