[
{
  "tag":"S",
  "content":
  [
    ["Hans","NNS","han"],
    {
      "tag":"PERSON",
      "content":
      [
        ["Georg","NNP","georg"],
        ["Feichtinger","NNP","feicht"]
      ]
    },
    ["(","NNP","("],
    ["born","NN","born"],
    ["16","CD","16"],
    ["June","NNP","jun"],
    ["1951","CD","1951"],
    [")","CD",")"],
    ["is","VBZ","be"],
    ["an","DT","an"],
    {
      "tag":"GPE",
      "content":
      [
        ["Austrian","JJ","aust"]
      ]
    },
    ["mathematician","NN","mathem"],
    [".",".","."]
  ]
},
{
  "tag":"S",
  "content":
  [
    ["He","PRP","He"],
    ["is","VBZ","be"],
    ["Professor","NNP","profess"],
    ["in","IN","in"],
    ["the","DT","the"],
    ["mathematical","JJ","mathem"],
    ["faculty","NN","facul"],
    ["of","IN","of"],
    ["the","DT","the"],
    {
      "tag":"ORGANIZATION",
      "content":
      [
        ["University","NNP","univers"]
      ]
    },
    ["of","IN","of"],
    {
      "tag":"GSP",
      "content":
      [
        ["Vienna","NNP","vienn"]
      ]
    },
    [".",".","."]
  ]
},
{
  "tag":"S",
  "content":
  [
    ["He","PRP","He"],
    ["is","VBZ","be"],
    ["editor-in-chief","JJ","editor-in-chief"],
    ["of","IN","of"],
    ["the","DT","the"],
    {
      "tag":"ORGANIZATION",
      "content":
      [
        ["Journal","NNP","journ"]
      ]
    },
    ["of","IN","of"],
    {
      "tag":"PERSON",
      "content":
      [
        ["Fourier","NNP","foury"],
        ["Analysis","NNP","analys"]
      ]
    },
    ["and","CC","and"],
    {
      "tag":"GPE",
      "content":
      [
        ["Applications","NNS","apply"]
      ]
    },
    ["(",":","("],
    {
      "tag":"ORGANIZATION",
      "content":
      [
        ["JFAA","NNP","jfa"]
      ]
    },
    [")",":",")"],
    ["and","CC","and"],
    ["associate","NN","assocy"],
    ["editor","NN","edit"],
    ["to","TO","to"],
    ["several","JJ","sev"],
    ["other","JJ","oth"],
    ["journals","NNS","journ"],
    [".",".","."]
  ]
},
{
  "tag":"S",
  "content":
  [
    ["He","PRP","He"],
    ["is","VBZ","be"],
    ["one","CD","one"],
    ["of","IN","of"],
    ["the","DT","the"],
    ["founders","NNS","found"],
    ["and","CC","and"],
    ["head","NN","head"],
    ["of","IN","of"],
    ["the","DT","the"],
    {
      "tag":"ORGANIZATION",
      "content":
      [
        ["Numerical","NNP","num"],
        ["Harmonic","NNP","harmon"],
        ["Analysis","NNP","analys"],
        ["Group","NNP","group"]
      ]
    },
    ["(","NNP","("],
    {
      "tag":"ORGANIZATION",
      "content":
      [
        ["NuHAG","NNP","nuh"]
      ]
    },
    [")","NNP",")"],
    ["at","IN","at"],
    {
      "tag":"ORGANIZATION",
      "content":
      [
        ["University","NNP","univers"]
      ]
    },
    ["of","IN","of"],
    {
      "tag":"GSP",
      "content":
      [
        ["Vienna","NNP","vienn"]
      ]
    },
    [".",".","."]
  ]
},
{
  "tag":"S",
  "content":
  [
    ["Today","NN","today"],
    {
      "tag":"PERSON",
      "content":
      [
        ["Feichtinger","NNP","feicht"]
      ]
    },
    ["'s","POS","'s"],
    ["main","JJ","main"],
    ["field","NN","field"],
    ["of","IN","of"],
    ["research","NN","research"],
    ["is","VBZ","be"],
    ["harmonic","JJ","harmon"],
    ["analysis","NN","analys"],
    ["with","IN","with"],
    ["a","DT","a"],
    ["focus","NN","foc"],
    ["on","IN","on"],
    ["time-frequency","NN","time-frequency"],
    ["analysis","NN","analys"],
    [".",".","."]
  ]
},
{
  "tag":"S",
  "content":
  [
    ["==Biography==","NN","==biography=="],
    ["Hans","NNS","han"],
    {
      "tag":"PERSON",
      "content":
      [
        ["Georg","NNP","georg"],
        ["Feichtinger","NNP","feicht"]
      ]
    },
    ["was","VBD","be"],
    ["born","VBN","bear"],
    ["in","IN","in"],
    {
      "tag":"GPE",
      "content":
      [
        ["Wiener","NNP","wien"]
      ]
    },
    ["Neustadt","NNP","neustadt"],
    ["where","WRB","where"],
    ["he","PRP","he"],
    ["graduated","VBD","gradu"],
    ["from","IN","from"],
    ["the","DT","the"],
    {
      "tag":"ORGANIZATION",
      "content":
      [
        ["Gymnasium","NNP","gymnas"]
      ]
    },
    ["and","CC","and"],
    ["received","VBD","receiv"],
    ["the","DT","the"],
    {
      "tag":"ORGANIZATION",
      "content":
      [
        ["Matura","NNP","matur"]
      ]
    },
    ["``","``","``"],
    ["summa","NN","summ"],
    ["cum","NN","cum"],
    ["laude","NN","laud"],
    ["''","''","''"],
    ["in","IN","in"],
    ["1969","CD","1969"],
    [".",".","."]
  ]
},
{
  "tag":"S",
  "content":
  [
    ["In","IN","In"],
    ["the","DT","the"],
    ["same","JJ","sam"],
    ["year","NN","year"],
    ["he","PRP","he"],
    ["started","VBD","start"],
    ["his","PRP$","his"],
    ["studies","NNS","study"],
    ["in","IN","in"],
    ["mathematics","NNS","mathem"],
    ["and","CC","and"],
    ["physics","NNS","phys"],
    [".",".","."]
  ]
},
{
  "tag":"S",
  "content":
  [
    ["He","PRP","He"],
    ["finished","VBD","fin"],
    ["his","PRP$","his"],
    ["Ph.D.","NNP","ph.d."],
    ["at","IN","at"],
    ["the","DT","the"],
    {
      "tag":"ORGANIZATION",
      "content":
      [
        ["University","NNP","univers"]
      ]
    },
    ["of","IN","of"],
    {
      "tag":"GSP",
      "content":
      [
        ["Vienna","NNP","vienn"]
      ]
    },
    ["in","IN","in"],
    ["1974","CD","1974"],
    ["under","IN","under"],
    ["the","DT","the"],
    ["supervision","NN","supervid"],
    ["of","IN","of"],
    {
      "tag":"PERSON",
      "content":
      [
        ["Hans","NNP","han"],
        ["Reiter","NNP","reit"]
      ]
    },
    ["in","IN","in"],
    ["1974","CD","1974"],
    ["with","IN","with"],
    ["a","DT","a"],
    ["doctoral","JJ","doct"],
    ["thesis","NN","thes"],
    ["on","IN","on"],
    ["Subalgebras","NNP","subalgebra"],
    ["of","IN","of"],
    {
      "tag":"ORGANIZATION",
      "content":
      [
        ["L1","NNP","l1"]
      ]
    },
    ["(","NNP","("],
    ["G","NNP","g"],
    [")","NNP",")"],
    [".",".","."]
  ]
},
{
  "tag":"S",
  "content":
  [
    {
      "tag":"PERSON",
      "content":
      [
        ["Feichtinger","NNP","feicht"]
      ]
    },
    ["attained","VBD","attain"],
    ["professorship","NN","profess"],
    ["with","IN","with"],
    ["the","DT","the"],
    ["defense","NN","defens"],
    ["of","IN","of"],
    ["his","PRP$","his"],
    ["habilitation","NN","habilit"],
    ["thesis","NN","thes"],
    ["on","IN","on"],
    {
      "tag":"GPE",
      "content":
      [
        ["Banach","NNP","banach"]
      ]
    },
    ["convolution","NN","convolv"],
    ["algebras","VBZ","algebra"],
    ["of","IN","of"],
    ["functions","NNS","funct"],
    ["in","IN","in"],
    ["1979","CD","1979"],
    [".",".","."]
  ]
},
{
  "tag":"S",
  "content":
  [
    {
      "tag":"GPE",
      "content":
      [
        ["Feichtinger","NNP","feicht"]
      ]
    },
    ["is","VBZ","be"],
    ["author","NN","auth"],
    ["or","CC","or"],
    ["co-author","NN","co-author"],
    ["to","TO","to"],
    ["roughly","RB","rough"],
    ["200","CD","200"],
    ["scientific","JJ","sci"],
    ["publications","NNS","publ"],
    [".",".","."]
  ]
},
{
  "tag":"S",
  "content":
  [
    ["The","DT","The"],
    {
      "tag":"ORGANIZATION",
      "content":
      [
        ["University","NNP","univers"]
      ]
    },
    ["of","IN","of"],
    {
      "tag":"GSP",
      "content":
      [
        ["Vienna","NNP","vienn"]
      ]
    },
    ["being","VBG","be"],
    ["the","DT","the"],
    ["center","NN","cent"],
    ["of","IN","of"],
    ["his","PRP$","his"],
    ["scientific","JJ","sci"],
    ["life","NN","lif"],
    [",",",",","],
    {
      "tag":"PERSON",
      "content":
      [
        ["Feichtinger","NNP","feicht"]
      ]
    },
    ["still","RB","stil"],
    ["had","VBD","hav"],
    ["several","JJ","sev"],
    ["visiting","VBG","visit"],
    ["positions","NNS","posit"],
    ["across","IN","across"],
    {
      "tag":"GPE",
      "content":
      [
        ["Europe","NNP","europ"]
      ]
    },
    ["and","CC","and"],
    ["in","IN","in"],
    ["the","DT","the"],
    {
      "tag":"ORGANIZATION",
      "content":
      [
        ["USA","NNP","us"]
      ]
    },
    ["between","IN","between"],
    ["1980","CD","1980"],
    ["and","CC","and"],
    ["today","NN","today"],
    [",",",",","],
    ["e.g","JJ","e.g"],
    [".",".","."]
  ]
},
{
  "tag":"S",
  "content":
  [
    ["at","IN","at"],
    ["the","DT","the"],
    {
      "tag":"ORGANIZATION",
      "content":
      [
        ["University","NNP","univers"]
      ]
    },
    ["of","IN","of"],
    {
      "tag":"GPE",
      "content":
      [
        ["Maryland","NNP","maryland"]
      ]
    },
    [",",",",","],
    {
      "tag":"PERSON",
      "content":
      [
        ["College","NNP","colleg"],
        ["Park","NNP","park"]
      ]
    },
    ["and","CC","and"],
    ["the","DT","the"],
    {
      "tag":"ORGANIZATION",
      "content":
      [
        ["University","NNP","univers"]
      ]
    },
    ["of","IN","of"],
    {
      "tag":"GSP",
      "content":
      [
        ["Connecticut","NNP","connecticut"]
      ]
    },
    [",",",",","],
    {
      "tag":"GPE",
      "content":
      [
        ["Storrs","NNP","stor"]
      ]
    },
    [".",".","."]
  ]
},
{
  "tag":"S",
  "content":
  [
    ["He","PRP","He"],
    ["is","VBZ","be"],
    ["married","VBN","marry"],
    ["and","CC","and"],
    ["the","DT","the"],
    ["father","NN","fath"],
    ["of","IN","of"],
    ["four","CD","four"],
    ["children","NNS","child"],
    [".",".","."]
  ]
},
{
  "tag":"S",
  "content":
  [
    ["===The","DT","===The"],
    {
      "tag":"ORGANIZATION",
      "content":
      [
        ["NuHAG","NNP","nuh"]
      ]
    },
    ["(","NNP","("],
    {
      "tag":"ORGANIZATION",
      "content":
      [
        ["Numerical","NNP","num"],
        ["Harmonic","NNP","harmon"],
        ["Analysis","NNP","analys"],
        ["Group","NNP","group"]
      ]
    },
    [")","NNP",")"],
    ["===","NNP","==="],
    ["In","NNP","in"],
    ["the","DT","the"],
    ["late","JJ","lat"],
    ["1980s","CD","1980s"],
    ["Hans","NNS","han"],
    {
      "tag":"PERSON",
      "content":
      [
        ["Georg","NNP","georg"],
        ["Feichtinger","NNP","feicht"]
      ]
    },
    ["and","CC","and"],
    {
      "tag":"PERSON",
      "content":
      [
        ["Karlheinz","NNP","karlheinz"],
        ["Gröchenig","NNP","gröchenig"]
      ]
    },
    ["conducted","VBD","conduc"],
    ["joint","JJ","joint"],
    ["research","NN","research"],
    ["on","IN","on"],
    ["atomic","JJ","atom"],
    ["decompositions","NNS","decomposit"],
    [".",".","."]
  ]
},
{
  "tag":"S",
  "content":
  [
    ["From","IN","From"],
    ["1990","CD","1990"],
    ["on","IN","on"],
    [",",",",","],
    {
      "tag":"PERSON",
      "content":
      [
        ["Feichtinger","NNP","feicht"]
      ]
    },
    ["investigated","VBD","investig"],
    ["irregular","JJ","irregul"],
    ["sampling","NN","sampl"],
    ["and","CC","and"],
    ["computational","JJ","comput"],
    ["harmonic","JJ","harmon"],
    ["analysis","NN","analys"],
    ["with","IN","with"],
    {
      "tag":"PERSON",
      "content":
      [
        ["Thomas","NNP","thoma"],
        ["Strohmer","NNP","strohmer"]
      ]
    },
    [".",".","."]
  ]
},
{
  "tag":"S",
  "content":
  [
    ["These","DT","These"],
    ["cooperations","NNS","coop"],
    ["were","VBD","be"],
    ["the","DT","the"],
    ["basis","NN","bas"],
    ["for","IN","for"],
    ["founding","NN","found"],
    ["the","DT","the"],
    {
      "tag":"ORGANIZATION",
      "content":
      [
        ["Numerical","NNP","num"],
        ["Harmonic","NNP","harmon"],
        ["Analysis","NNP","analys"],
        ["Group","NNP","group"]
      ]
    },
    ["(","NNP","("],
    {
      "tag":"ORGANIZATION",
      "content":
      [
        ["NuHAG","NNP","nuh"]
      ]
    },
    [")","NNP",")"],
    ["at","IN","at"],
    ["the","DT","the"],
    {
      "tag":"ORGANIZATION",
      "content":
      [
        ["University","NNP","univers"]
      ]
    },
    ["of","IN","of"],
    {
      "tag":"GSP",
      "content":
      [
        ["Vienna","NNP","vienn"]
      ]
    },
    ["with","IN","with"],
    {
      "tag":"PERSON",
      "content":
      [
        ["Feichtinger","NNP","feicht"]
      ]
    },
    ["as","IN","as"],
    ["group","NN","group"],
    ["leader","NN","lead"],
    [".",".","."]
  ]
},
{
  "tag":"S",
  "content":
  [
    ["While","IN","While"],
    ["the","DT","the"],
    ["research","NN","research"],
    ["project","NN","project"],
    {
      "tag":"ORGANIZATION",
      "content":
      [
        ["Experimental","NNP","expery"],
        ["Signal","NNP","sign"],
        ["Analysis","NNP","analys"]
      ]
    },
    ["is","VBZ","be"],
    ["noted","VBN","not"],
    ["as","IN","as"],
    ["the","DT","the"],
    ["starting","NN","start"],
    ["point","NN","point"],
    ["of","IN","of"],
    {
      "tag":"ORGANIZATION",
      "content":
      [
        ["NuHAG","NNP","nuh"]
      ]
    },
    ["several","JJ","sev"],
    ["earlier","JJR","ear"],
    ["publications","NNS","publ"],
    ["and","CC","and"],
    ["projects","NNS","project"],
    ["are","VBP","be"],
    ["listed","VBN","list"],
    ["to","TO","to"],
    ["be","VB","be"],
    {
      "tag":"ORGANIZATION",
      "content":
      [
        ["NuHAG","NNP","nuh"]
      ]
    },
    ["related","VBN","rel"],
    [",",",",","],
    ["the","DT","the"],
    ["earliest","JJS","ear"],
    ["dates","NNS","dat"],
    ["back","RB","back"],
    ["to","TO","to"],
    ["1986","CD","1986"],
    [".",".","."]
  ]
},
{
  "tag":"S",
  "content":
  [
    ["Over","IN","Over"],
    ["the","DT","the"],
    ["years","NNS","year"],
    [",",",",","],
    {
      "tag":"ORGANIZATION",
      "content":
      [
        ["NuHAG","NNP","nuh"]
      ]
    },
    ["has","VBZ","hav"],
    ["become","VBN","becom"],
    ["a","DT","a"],
    ["group","NN","group"],
    ["of","IN","of"],
    ["international","JJ","intern"],
    ["importance","NN","import"],
    ["in","IN","in"],
    ["the","DT","the"],
    ["fields","NNS","field"],
    ["from","IN","from"],
    ["abstract","NN","abstract"],
    ["harmonic","JJ","harmon"],
    ["analysis","NN","analys"],
    ["to","TO","to"],
    ["applied","VBD","apply"],
    ["time-frequency","NN","time-frequency"],
    ["analysis","NN","analys"],
    ["and","CC","and"],
    ["currently","RB","cur"],
    ["hosts","VBZ","host"],
    ["around","IN","around"],
    ["40","CD","40"],
    ["researchers","NNS","research"],
    ["(",":","("],
    ["including","VBG","includ"],
    {
      "tag":"ORGANIZATION",
      "content":
      [
        ["PhD","NNP","phd"]
      ]
    },
    ["students","NNS","stud"],
    [")",":",")"],
    [".",".","."]
  ]
},
{
  "tag":"S",
  "content":
  [
    ["===Dedication","NN","===dedication"],
    ["to","TO","to"],
    ["the","DT","the"],
    {
      "tag":"ORGANIZATION",
      "content":
      [
        ["University","NNP","univers"]
      ]
    },
    ["of","IN","of"],
    {
      "tag":"GSP",
      "content":
      [
        ["Vienna","NNP","vienn"]
      ]
    },
    ["and","CC","and"],
    ["the","DT","the"],
    ["scientific","JJ","sci"],
    ["community===","NN","community==="],
    ["Hans","NNS","han"],
    {
      "tag":"PERSON",
      "content":
      [
        ["Georg","NNP","georg"],
        ["Feichtinger","NNP","feicht"]
      ]
    },
    ["is","VBZ","be"],
    ["the","DT","the"],
    ["editor-in-chief","JJ","editor-in-chief"],
    ["of","IN","of"],
    ["the","DT","the"],
    {
      "tag":"ORGANIZATION",
      "content":
      [
        ["Journal","NNP","journ"]
      ]
    },
    ["of","IN","of"],
    {
      "tag":"PERSON",
      "content":
      [
        ["Fourier","NNP","foury"],
        ["Analysis","NNP","analys"]
      ]
    },
    ["and","CC","and"],
    ["Applications","NNS","apply"],
    ["taking","VBG","tak"],
    ["over","IN","over"],
    ["from","IN","from"],
    {
      "tag":"PERSON",
      "content":
      [
        ["John","NNP","john"],
        ["J.","NNP","j."],
        ["Benedetto","NNP","benedetto"]
      ]
    },
    ["in","IN","in"],
    ["the","DT","the"],
    ["year","NN","year"],
    ["2000","CD","2000"],
    [",",",",","],
    ["and","CC","and"],
    ["associate","NN","assocy"],
    ["editor","NN","edit"],
    ["to","TO","to"],
    ["the","DT","the"],
    {
      "tag":"ORGANIZATION",
      "content":
      [
        ["Journal","NNP","journ"]
      ]
    },
    ["of","IN","of"],
    {
      "tag":"ORGANIZATION",
      "content":
      [
        ["Approximation","NNP","approxim"]
      ]
    },
    ["Theory","NNP","the"],
    ["(","NNP","("],
    {
      "tag":"ORGANIZATION",
      "content":
      [
        ["JAT","NNP","jat"]
      ]
    },
    [")","NNP",")"],
    [",",",",","],
    ["the","DT","the"],
    {
      "tag":"ORGANIZATION",
      "content":
      [
        ["Journal","NNP","journ"]
      ]
    },
    ["of","IN","of"],
    {
      "tag":"GPE",
      "content":
      [
        ["Function","NNP","funct"]
      ]
    },
    ["spaces","NNS","spac"],
    ["and","CC","and"],
    {
      "tag":"GPE",
      "content":
      [
        ["Applications","NNS","apply"]
      ]
    },
    ["(",":","("],
    {
      "tag":"ORGANIZATION",
      "content":
      [
        ["JFSA","NNP","jfsa"]
      ]
    },
    [")",":",")"],
    ["and","CC","and"],
    {
      "tag":"ORGANIZATION",
      "content":
      [
        ["Sampling","NNP","sampl"]
      ]
    },
    ["Theory","NNP","the"],
    ["in","IN","in"],
    {
      "tag":"GPE",
      "content":
      [
        ["Signal","NNP","sign"]
      ]
    },
    ["and","CC","and"],
    {
      "tag":"PERSON",
      "content":
      [
        ["Image","NNP","im"],
        ["Processing","NNP","process"]
      ]
    },
    ["(","NNP","("],
    {
      "tag":"ORGANIZATION",
      "content":
      [
        ["STSIP","NNP","stsip"]
      ]
    },
    [")","NNP",")"],
    [".",".","."]
  ]
},
{
  "tag":"S",
  "content":
  [
    {
      "tag":"GPE",
      "content":
      [
        ["Furthermore","NNP","furtherm"]
      ]
    },
    [",",",",","],
    {
      "tag":"PERSON",
      "content":
      [
        ["Feichtinger","NNP","feicht"]
      ]
    },
    ["is","VBZ","be"],
    ["the","DT","the"],
    ["contact","NN","contact"],
    ["person","NN","person"],
    ["for","IN","for"],
    ["the","DT","the"],
    {
      "tag":"ORGANIZATION",
      "content":
      [
        ["European","JJ","europ"],
        ["Union","NNP","un"]
      ]
    },
    ["'s","POS","'s"],
    ["student","NN","stud"],
    ["exchange","NN","exchang"],
    ["programs","NNS","program"],
    {
      "tag":"ORGANIZATION",
      "content":
      [
        ["ERASMUS","NNP","erasm"]
      ]
    },
    ["and","CC","and"],
    {
      "tag":"ORGANIZATION",
      "content":
      [
        ["LEONARDO","NNP","leonardo"]
      ]
    },
    ["at","IN","at"],
    ["the","DT","the"],
    ["faculty","NN","facul"],
    ["of","IN","of"],
    ["mathematics","NNS","mathem"],
    ["of","IN","of"],
    ["the","DT","the"],
    {
      "tag":"ORGANIZATION",
      "content":
      [
        ["University","NNP","univers"]
      ]
    },
    ["of","IN","of"],
    {
      "tag":"GSP",
      "content":
      [
        ["Vienna","NNP","vienn"]
      ]
    },
    ["and","CC","and"],
    ["is","VBZ","be"],
    ["actively","RB","act"],
    ["involved","VBN","involv"],
    ["in","IN","in"],
    ["workshops","NNS","workshop"],
    ["and","CC","and"],
    ["conferences","NNS","conf"],
    [".",".","."]
  ]
},
{
  "tag":"S",
  "content":
  [
    ["Throughout","IN","Throughout"],
    ["his","PRP$","his"],
    ["career","NN","car"],
    {
      "tag":"PERSON",
      "content":
      [
        ["Hans","NNP","han"],
        ["G.","NNP","g."],
        ["Feichtinger","NNP","feicht"]
      ]
    },
    ["has","VBZ","hav"],
    ["supervised","VBN","superv"],
    ["23","CD","23"],
    ["completed","VBN","complet"],
    {
      "tag":"ORGANIZATION",
      "content":
      [
        ["PhD","NNP","phd"]
      ]
    },
    ["theses","NNS","thes"],
    [",",",",","],
    ["also","RB","also"],
    ["today","NN","today"],
    ["he","PRP","he"],
    ["is","VBZ","be"],
    ["advising","VBG","adv"],
    ["several","JJ","sev"],
    ["students","NNS","stud"],
    ["(",":","("],
    ["as","IN","as"],
    ["of","IN","of"],
    ["June","NNP","jun"],
    ["2011","CD","2011"],
    [")","CD",")"],
    [".",".","."]
  ]
},
{
  "tag":"S",
  "content":
  [
    ["==Scientific","JJ","==scientific"],
    ["work==","NN","work=="],
    ["The","DT","The"],
    ["scientific","JJ","sci"],
    ["work","NN","work"],
    ["of","IN","of"],
    {
      "tag":"PERSON",
      "content":
      [
        ["Hans","NNP","han"],
        ["Georg","NNP","georg"],
        ["Feichtinger","NNP","feicht"]
      ]
    },
    ["includes","VBZ","includ"],
    [",",",",","],
    ["but","CC","but"],
    ["is","VBZ","be"],
    ["not","RB","not"],
    ["limited","VBN","limit"],
    ["to","TO","to"],
    ["results","NNS","result"],
    ["on","IN","on"],
    ["function","NN","funct"],
    ["spaces","NNS","spac"],
    [",",",",","],
    ["irregular","JJ","irregul"],
    ["sampling","NN","sampl"],
    [",",",",","],
    ["time-frequency","NN","time-frequency"],
    ["analysis","NN","analys"],
    [",",",",","],
    {
      "tag":"PERSON",
      "content":
      [
        ["Gabor","NNP","gab"]
      ]
    },
    ["analysis","NN","analys"],
    ["and","CC","and"],
    ["frame","VBD","fram"],
    ["theory","NN","the"],
    [".",".","."]
  ]
},
{
  "tag":"S",
  "content":
  [
    ["Some","DT","Some"],
    ["of","IN","of"],
    ["his","PRP$","his"],
    ["most","RBS","most"],
    ["notable","JJ","not"],
    ["contributions","NNS","contribut"],
    ["are","VBP","be"],
    ["listed","VBN","list"],
    ["below","IN","below"],
    [".",".","."]
  ]
},
{
  "tag":"S",
  "content":
  [
    ["In","IN","In"],
    ["the","DT","the"],
    ["early","JJ","ear"],
    ["1980s","CD","1980s"],
    [",",",",","],
    {
      "tag":"PERSON",
      "content":
      [
        ["Feichtinger","NNP","feicht"]
      ]
    },
    ["introduced","VBD","introduc"],
    ["modulation","NN","mod"],
    ["spaces","NNS","spac"],
    [",",",",","],
    ["a","DT","a"],
    ["family","NN","famy"],
    ["of","IN","of"],
    ["function","NN","funct"],
    ["spacesdefined","VBN","spacesdefin"],
    ["by","IN","by"],
    ["the","DT","the"],
    ["behavior","JJ","behavy"],
    ["of","IN","of"],
    ["the","DT","the"],
    ["short-time","JJ","short-time"],
    ["Fourier","NNP","foury"],
    ["transform","NN","transform"],
    ["with","IN","with"],
    ["respect","NN","respect"],
    ["to","TO","to"],
    ["a","DT","a"],
    ["test","NN","test"],
    ["function","NN","funct"],
    ["from","IN","from"],
    ["the","DT","the"],
    {
      "tag":"ORGANIZATION",
      "content":
      [
        ["Schwartz","NNP","schwartz"]
      ]
    },
    ["space","NN","spac"],
    [".",".","."]
  ]
},
{
  "tag":"S",
  "content":
  [
    ["They","PRP","They"],
    ["have","VBP","hav"],
    ["become","VBN","becom"],
    ["the","DT","the"],
    ["standard","JJ","standard"],
    ["spaces","NNS","spac"],
    ["in","IN","in"],
    ["time-frequency","NN","time-frequency"],
    ["analysis","NN","analys"],
    [".",".","."]
  ]
},
{
  "tag":"S",
  "content":
  [
    ["Also","RB","also"],
    [",",",",","],
    ["while","IN","while"],
    ["the","DT","the"],
    ["concept","NN","conceiv"],
    ["of","IN","of"],
    ["function","NN","funct"],
    ["spaces","NNS","spac"],
    ["treating","VBG","tre"],
    ["local","JJ","loc"],
    ["and","CC","and"],
    ["global","JJ","glob"],
    ["behavior","NN","behavy"],
    ["separately","RB","sep"],
    ["was","VBD","be"],
    ["already","RB","already"],
    ["known","VBN","know"],
    ["earlier","JJR","ear"],
    [",",",",","],
    {
      "tag":"PERSON",
      "content":
      [
        ["Wiener","NNP","wien"]
      ]
    },
    ["amalgam","NN","amalgam"],
    ["spaces","NNS","spac"],
    ["were","VBD","be"],
    ["introduced","VBN","introduc"],
    ["by","IN","by"],
    {
      "tag":"PERSON",
      "content":
      [
        ["Feichtinger","NNP","feicht"]
      ]
    },
    ["in","IN","in"],
    ["1980","CD","1980"],
    [",",",",","],
    ["also","RB","also"],
    ["his","PRP$","his"],
    ["publications","NNS","publ"],
    ["have","VBP","hav"],
    ["contributed","VBN","contribut"],
    ["to","TO","to"],
    ["the","DT","the"],
    ["acknowledgment","NN","acknowledg"],
    ["of","IN","of"],
    ["amalgam","NN","amalgam"],
    ["spaces","NNS","spac"],
    ["as","IN","as"],
    ["a","DT","a"],
    ["useful","JJ","us"],
    ["tool","NN","tool"],
    ["in","IN","in"],
    ["various","JJ","vary"],
    ["mathematical","JJ","mathem"],
    ["fields","NNS","field"],
    [".",".","."]
  ]
},
{
  "tag":"S",
  "content":
  [
    ["Around","IN","Around"],
    ["1990","CD","1990"],
    ["the","DT","the"],
    ["joint","JJ","joint"],
    ["research","NN","research"],
    ["with","IN","with"],
    {
      "tag":"PERSON",
      "content":
      [
        ["Karlheinz","NNP","karlheinz"]
      ]
    },
    ["Gröchenig","NNP","gröchenig"],
    ["lead","NN","lead"],
    ["to","TO","to"],
    ["a","DT","a"],
    ["series","NN","sery"],
    ["of","IN","of"],
    ["papers","NNS","pap"],
    [",",",",","],
    ["which","WDT","which"],
    ["is","VBZ","be"],
    ["today","NN","today"],
    ["referred","VBN","ref"],
    ["to","TO","to"],
    ["as","RB","as"],
    ["coorbit","VB","coorbit"],
    ["theory","NN","the"],
    [".",".","."]
  ]
},
{
  "tag":"S",
  "content":
  [
    ["The","DT","The"],
    ["theory","NN","the"],
    ["provides","VBZ","provid"],
    ["a","DT","a"],
    ["unified","JJ","un"],
    ["framework","NN","framework"],
    ["for","IN","for"],
    ["different","JJ","diff"],
    ["important","JJ","import"],
    ["transforms","NNS","transform"],
    [",",",",","],
    ["e.g","JJ","e.g"],
    [".",".","."]
  ]
},
{
  "tag":"S",
  "content":
  [
    ["the","DT","the"],
    ["wavelet","NN","wavelet"],
    ["transform","NN","transform"],
    ["and","CC","and"],
    ["the","DT","the"],
    ["short-time","JJ","short-time"],
    ["Fourier","NNP","foury"],
    ["transform","NN","transform"],
    [".",".","."]
  ]
},
{
  "tag":"S",
  "content":
  [
    {
      "tag":"GPE",
      "content":
      [
        ["Feichtinger","NNP","feicht"]
      ]
    },
    ["also","RB","also"],
    ["proposed","VBD","propos"],
    ["the","DT","the"],
    ["use","NN","us"],
    ["of","IN","of"],
    {
      "tag":"ORGANIZATION",
      "content":
      [
        ["Banach","NNP","banach"],
        ["Gelfand","NNP","gelfand"]
      ]
    },
    ["triples","VBZ","tripl"],
    [",",",",","],
    ["especially","RB","espec"],
    ["the","DT","the"],
    {
      "tag":"ORGANIZATION",
      "content":
      [
        ["Banach","NNP","banach"],
        ["Gelfand","NNP","gelfand"]
      ]
    },
    ["triple","NN","tripl"],
    {
      "tag":"ORGANIZATION",
      "content":
      [
        ["S_0","NNP","s_0"]
      ]
    },
    ["\subset","NNP","\subset"],
    ["L^2","NNP","l^2"],
    ["\subset","NNP","\subset"],
    ["S_0","NNP","s_0"],
    ["'","POS","'"],
    ["that","IN","that"],
    ["has","VBZ","hav"],
    ["proven","VBN","prov"],
    ["very","RB","very"],
    ["useful","JJ","us"],
    [",",",",","],
    ["e.g","JJ","e.g"],
    [".",".","."]
  ]
},
{
  "tag":"S",
  "content":
  [
    ["in","IN","in"],
    ["time-frequency","NN","time-frequency"],
    ["analysis","NN","analys"],
    [".",".","."]
  ]
},
{
  "tag":"S",
  "content":
  [
    ["===Feichtinger","JJ","===feichtinger"],
    ["'s","POS","'s"],
    ["conjecture===","JJ","conjecture==="],
    ["Feichtinger","NNP","feicht"],
    ["once","RB","ont"],
    ["raised","VBD","rais"],
    ["the","DT","the"],
    ["question","NN","quest"],
    [",",",",","],
    ["whether","IN","whether"],
    [":",":",":"],
    ["Every","DT","Every"],
    ["bounded","JJ","bound"],
    ["frame","NN","fram"],
    ["can","MD","can"],
    ["be","VB","be"],
    ["written","VBN","writ"],
    ["as","IN","as"],
    ["a","DT","a"],
    ["finite","JJ","finit"],
    ["union","NN","un"],
    ["of","IN","of"],
    {
      "tag":"GPE",
      "content":
      [
        ["Riesz","NNP","riesz"]
      ]
    },
    ["basic","JJ","bas"],
    ["sequences","NNS","sequ"],
    [".",".","."]
  ]
},
{
  "tag":"S",
  "content":
  [
    ["This","DT","This"],
    ["question","NN","quest"],
    ["is","VBZ","be"],
    ["not","RB","not"],
    ["only","RB","on"],
    ["an","DT","an"],
    ["important","JJ","import"],
    ["open","JJ","op"],
    ["problem","NN","problem"],
    ["in","IN","in"],
    ["frame","NN","fram"],
    ["theory","NN","the"],
    ["but","CC","but"],
    ["is","VBZ","be"],
    ["equivalent","VBN","equ"],
    ["to","TO","to"],
    ["some","DT","some"],
    ["famous","JJ","fam"],
    ["open","JJ","op"],
    ["problems","NNS","problem"],
    ["in","IN","in"],
    ["analysis","NN","analys"],
    [".",".","."]
  ]
},
{
  "tag":"S",
  "content":
  [
    ["The","DT","The"],
    ["statement","NN","stat"],
    ["above","IN","above"],
    ["is","VBZ","be"],
    ["now","RB","now"],
    ["widely","RB","wid"],
    ["referred","VBN","ref"],
    ["to","TO","to"],
    ["as","RB","as"],
    {
      "tag":"PERSON",
      "content":
      [
        ["Feichtinger","NNP","feicht"]
      ]
    },
    ["'s","POS","'s"],
    ["conjecture","NN","conject"],
    [",",",",","],
    ["a","DT","a"],
    ["term","NN","term"],
    ["first","RB","first"],
    ["used","VBD","us"],
    ["by","IN","by"],
    {
      "tag":"PERSON",
      "content":
      [
        ["Pete","NNP","pet"],
        ["G.","NNP","g."],
        ["Casazza","NNP","casazz"]
      ]
    },
    [".",".","."]
  ]
},
{
  "tag":"S",
  "content":
  [
    ["Proofs","NNS","proof"],
    ["are","VBP","be"],
    ["known","VBN","know"],
    ["for","IN","for"],
    ["certain","JJ","certain"],
    ["special","JJ","spec"],
    ["cases","NNS","cas"],
    ["since","IN","since"],
    ["2005","CD","2005"],
    [".",".","."]
  ]
},
{
  "tag":"S",
  "content":
  [
    ["In","IN","In"],
    ["2013","CD","2013"],
    ["the","DT","the"],
    ["conjecture","NN","conject"],
    ["has","VBZ","hav"],
    ["been","VBN","be"],
    ["proved","VBN","prov"],
    ["by","IN","by"],
    {
      "tag":"PERSON",
      "content":
      [
        ["Adam","NNP","adam"],
        ["Marcus","NNP","marc"]
      ]
    },
    [",",",",","],
    {
      "tag":"PERSON",
      "content":
      [
        ["Daniel","NNP","daniel"]
      ]
    },
    ["A","DT","A"],
    ["Spielman","NNP","spielm"],
    ["and","CC","and"],
    {
      "tag":"PERSON",
      "content":
      [
        ["Nikhil","NNP","nikhil"],
        ["Srivastava","NNP","srivastav"]
      ]
    },
    [".",".","."]
  ]
},
{
  "tag":"S",
  "content":
  [
    ["<","NN","<"],
    ["!","``","!"],
    ["--",":","--"],
    ["===Coorbit","JJ","===coorbit"],
    ["theory===","NN","theory==="],
    ["The","DT","The"],
    ["coorbit","NN","coorbit"],
    ["theory","NN","the"],
    ["was","VBD","be"],
    ["developed","VBN","develop"],
    ["by","IN","by"],
    {
      "tag":"PERSON",
      "content":
      [
        ["Feichtinger","NNP","feicht"]
      ]
    },
    ["and","CC","and"],
    ["Gröchenig","JJ","gröchenig"],
    ["around","IN","around"],
    ["1990","CD","1990"],
    [".",".","."]
  ]
},
{
  "tag":"S",
  "content":
  [
    ["The","DT","The"],
    ["starting","NN","start"],
    ["point","NN","point"],
    ["is","VBZ","be"],
    ["a","DT","a"],
    ["square","JJ","squ"],
    ["integrable","JJ","integr"],
    ["reprentation","NN","repr"],
    ["\pi","NN","\pi"],
    ["of","IN","of"],
    ["a","DT","a"],
    ["locally","RB","loc"],
    ["compact","NN","compact"],
    ["group","NN","group"],
    ["\mathcal","JJ","\mathcal"],
    ["G","NNP","g"],
    ["on","IN","on"],
    ["a","DT","a"],
    {
      "tag":"GPE",
      "content":
      [
        ["Hilbert","NNP","hilbert"]
      ]
    },
    ["space","NN","spac"],
    ["\mathcal","JJ","\mathcal"],
    ["H","NNP","h"],
    [",",",",","],
    ["with","IN","with"],
    ["which","WDT","which"],
    ["one","CD","one"],
    ["can","MD","can"],
    ["define","VB","defin"],
    ["a","DT","a"],
    ["transform","NN","transform"],
    ["of","IN","of"],
    ["a","DT","a"],
    ["function","NN","funct"],
    ["f","NN","f"],
    ["\in","NN","\in"],
    ["\mathcal","JJ","\mathcal"],
    ["H","NNP","h"],
    ["with","IN","with"],
    ["respect","NN","respect"],
    ["to","TO","to"],
    ["g\in","NNP","g\in"],
    ["\mathcal","JJ","\mathcal"],
    ["H","NNP","h"],
    ["by","IN","by"],
    {
      "tag":"ORGANIZATION",
      "content":
      [
        ["V_g","NNP","v_g"]
      ]
    },
    ["f","NN","f"],
    ["(",":","("],
    ["x","NN","x"],
    [")",":",")"],
    ["=",":","="],
    ["\langle","JJ","\langle"],
    ["f","NN","f"],
    [",",",",","],
    ["\pi","NNP","\pi"],
    ["(","NNP","("],
    ["x","NN","x"],
    [")",":",")"],
    ["g","NN","g"],
    ["\rangle","JJ","\rangle"],
    [".",".","."]
  ]
},
{
  "tag":"S",
  "content":
  [
    ["It","PRP","It"],
    ["is","VBZ","be"],
    ["important","JJ","import"],
    ["to","TO","to"],
    ["note","VB","not"],
    ["that","IN","that"],
    ["many","JJ","many"],
    ["important","JJ","import"],
    ["transforms","NNS","transform"],
    ["are","VBP","be"],
    ["special","JJ","spec"],
    ["cases","NNS","cas"],
    ["of","IN","of"],
    ["the","DT","the"],
    ["transform","NN","transform"],
    [",",",",","],
    ["e.g","JJ","e.g"],
    [".",".","."]
  ]
},
{
  "tag":"S",
  "content":
  [
    ["the","DT","the"],
    ["short-time","JJ","short-time"],
    ["Fourier","NNP","foury"],
    ["transform","NN","transform"],
    ["and","CC","and"],
    ["the","DT","the"],
    ["wavelet","NN","wavelet"],
    ["transform","NN","transform"],
    ["for","IN","for"],
    ["the","DT","the"],
    {
      "tag":"ORGANIZATION",
      "content":
      [
        ["Heisenberg","NNP","heisenberg"]
      ]
    },
    ["group","NN","group"],
    ["and","CC","and"],
    ["the","DT","the"],
    ["affine","NN","affin"],
    ["group","NN","group"],
    ["respectively","RB","respect"],
    [".",".","."]
  ]
},
{
  "tag":"S",
  "content":
  [
    ["Representation","NN","repres"],
    ["theory","NN","the"],
    ["yields","NNS","yield"],
    ["the","DT","the"],
    ["reproducing","VBG","reproduc"],
    ["formula","NN","formul"],
    {
      "tag":"ORGANIZATION",
      "content":
      [
        ["V_g","NNP","v_g"]
      ]
    },
    ["f","NN","f"],
    ["=",":","="],
    ["V_g","NNP","v_g"],
    ["f","NN","f"],
    ["*","-NONE-","*"],
    {
      "tag":"ORGANIZATION",
      "content":
      [
        ["V_g","NNP","v_g"]
      ]
    },
    ["g.","NNP","g."],
    ["By","NNP","by"],
    ["discretization","NN","discret"],
    ["of","IN","of"],
    ["this","DT","this"],
    ["continuous","JJ","continu"],
    ["convolution","NN","convolv"],
    ["integral","JJ","integr"],
    ["it","PRP","it"],
    ["can","MD","can"],
    ["be","VB","be"],
    ["shown","VBN","show"],
    ["that","IN","that"],
    ["by","IN","by"],
    ["sufficiently","RB","sufficy"],
    ["dense","JJ","dens"],
    ["sampling","NN","sampl"],
    ["in","IN","in"],
    ["phase","NN","phas"],
    ["space","NN","spac"],
    ["the","DT","the"],
    ["corresponding","NN","correspond"],
    ["functions","NNS","funct"],
    ["will","MD","will"],
    ["span","VB","span"],
    ["a","DT","a"],
    ["frame","NN","fram"],
    ["for","IN","for"],
    ["the","DT","the"],
    {
      "tag":"ORGANIZATION",
      "content":
      [
        ["Hilbert","NNP","hilbert"]
      ]
    },
    ["space","NN","spac"],
    [".",".","."]
  ]
},
{
  "tag":"S",
  "content":
  [
    ["An","DT","An"],
    ["important","JJ","import"],
    ["aspect","NN","aspect"],
    ["of","IN","of"],
    ["the","DT","the"],
    ["theory","NN","the"],
    ["is","VBZ","be"],
    ["the","DT","the"],
    ["derivation","NN","der"],
    ["of","IN","of"],
    ["atomic","JJ","atom"],
    ["decompositions","NNS","decomposit"],
    ["for","IN","for"],
    {
      "tag":"GPE",
      "content":
      [
        ["Banach","NNP","banach"]
      ]
    },
    ["spaces","NNS","spac"],
    [".",".","."]
  ]
},
{
  "tag":"S",
  "content":
  [
    ["One","CD","One"],
    ["of","IN","of"],
    ["the","DT","the"],
    ["key","JJ","key"],
    ["steps","NNS","step"],
    ["is","VBZ","be"],
    ["to","TO","to"],
    ["define","VB","defin"],
    ["the","DT","the"],
    ["voice","NN","voic"],
    ["transform","NN","transform"],
    ["for","IN","for"],
    ["distributions","NNS","distribut"],
    ["in","IN","in"],
    ["a","DT","a"],
    ["natural","JJ","nat"],
    ["way","NN","way"],
    [".",".","."]
  ]
},
{
  "tag":"S",
  "content":
  [
    ["For","IN","For"],
    ["a","DT","a"],
    ["given","VBN","giv"],
    {
      "tag":"GPE",
      "content":
      [
        ["Banach","NNP","banach"]
      ]
    },
    ["space","NN","spac"],
    ["Y","NNP","y"],
    [",",",",","],
    ["the","DT","the"],
    ["corresponding","NN","correspond"],
    ["coorbit","NN","coorbit"],
    ["space","NN","spac"],
    ["is","VBZ","be"],
    ["defined","VBN","defin"],
    ["as","RB","as"],
    ["the","DT","the"],
    ["set","NN","set"],
    ["of","IN","of"],
    ["all","DT","all"],
    ["distributions","NNS","distribut"],
    ["such","JJ","such"],
    ["that","IN","that"],
    {
      "tag":"ORGANIZATION",
      "content":
      [
        ["V_g","NNP","v_g"]
      ]
    },
    ["f","NN","f"],
    ["\in","NN","\in"],
    ["Y","NNP","y"],
    [".",".","."]
  ]
},
{
  "tag":"S",
  "content":
  [
    ["The","DT","The"],
    ["reproducing","NN","reproduc"],
    ["formula","NN","formul"],
    ["is","VBZ","be"],
    ["true","JJ","tru"],
    ["also","RB","also"],
    ["in","IN","in"],
    ["this","DT","this"],
    ["case","NN","cas"],
    ["and","CC","and"],
    ["therefore","RB","theref"],
    ["it","PRP","it"],
    ["is","VBZ","be"],
    ["possible","JJ","poss"],
    ["to","TO","to"],
    ["obtain","VB","obtain"],
    ["atomic","JJ","atom"],
    ["decompositions","NNS","decomposit"],
    ["for","IN","for"],
    ["coorbit","NN","coorbit"],
    ["spaces.","NNP","spaces."],
    ["--",":","--"],
    [">",":",">"],
    ["==Selected","JJ","==selected"],
    ["publications==","NN","publications=="],
    ["Hans","NNS","han"],
    {
      "tag":"PERSON",
      "content":
      [
        ["Georg","NNP","georg"],
        ["Feichtinger","NNP","feicht"]
      ]
    },
    ["has","VBZ","hav"],
    ["published","VBN","publ"],
    ["approximately","RB","approxim"],
    ["200","CD","200"],
    ["scientific","JJ","sci"],
    ["articles","NNS","artic"],
    [",",",",","],
    ["a","DT","a"],
    ["selection","NN","select"],
    ["of","IN","of"],
    ["which","WDT","which"],
    ["is","VBZ","be"],
    ["presented","VBN","pres"],
    ["below","IN","below"],
    ["(","NNP","("],
    ["in","IN","in"],
    ["chronological","JJ","chronological"],
    ["order","NN","ord"],
    [")",":",")"],
    [":",":",":"],
    ["*","-NONE-","*"],
    ["H.","-NONE-","H."],
    ["G.","NNP","g."],
    ["Feichtinger","NNP","feicht"],
    [".",".","."]
  ]
},
{
  "tag":"S",
  "content":
  [
    ["``","``","``"],
    ["On","IN","On"],
    ["a","DT","a"],
    ["new","JJ","new"],
    {
      "tag":"GPE",
      "content":
      [
        ["Segal","NNP","seg"]
      ]
    },
    ["algebra","NN","algebr"],
    ["''","''","''"],
    {
      "tag":"PERSON",
      "content":
      [
        ["Monatsh","NNP","monatsh"]
      ]
    },
    [".",".","."]
  ]
},
{
  "tag":"S",
  "content":
  [
    {
      "tag":"GPE",
      "content":
      [
        ["Math","NNP","math"]
      ]
    },
    [".",".","."]
  ]
},
{
  "tag":"S",
  "content":
  [
    ["92:269–289","CD","92:269–289"],
    [",",",",","],
    ["1981","CD","1981"],
    [".",".","."]
  ]
},
{
  "tag":"S",
  "content":
  [
    ["*","-NONE-","*"],
    ["H.","NN","h."],
    ["G.","NNP","g."],
    ["Feichtinger","NNP","feicht"],
    [".",".","."]
  ]
},
{
  "tag":"S",
  "content":
  [
    ["``","``","``"],
    ["Banach","DT","Banach"],
    ["convolution","NN","convolv"],
    ["algebras","NNS","algebr"],
    ["of","IN","of"],
    {
      "tag":"GPE",
      "content":
      [
        ["Wiener","NNP","wien"]
      ]
    },
    ["type","NN","typ"],
    ["''","''","''"],
    ["in","IN","in"],
    {
      "tag":"GPE",
      "content":
      [
        ["Proc","NNP","proc"]
      ]
    },
    [".",".","."]
  ]
},
{
  "tag":"S",
  "content":
  [
    {
      "tag":"GSP",
      "content":
      [
        ["Conf","NNP","conf"]
      ]
    },
    [".",".","."]
  ]
},
{
  "tag":"S",
  "content":
  [
    ["on","IN","on"],
    ["Functions","NNS","funct"],
    [",",",",","],
    {
      "tag":"GPE",
      "content":
      [
        ["Series","NNP","sery"]
      ]
    },
    [",",",",","],
    {
      "tag":"PERSON",
      "content":
      [
        ["Operators","NNP","op"]
      ]
    },
    [",",",",","],
    {
      "tag":"ORGANIZATION",
      "content":
      [
        ["Budapest","NNP","budapest"]
      ]
    },
    ["1980","CD","1980"],
    [",",",",","],
    {
      "tag":"GPE",
      "content":
      [
        ["North-Holland","JJ","north-holland"]
      ]
    },
    [",",",",","],
    {
      "tag":"PERSON",
      "content":
      [
        ["Amsterdam","NNP","amsterdam"]
      ]
    },
    [",",",",","],
    ["1983","CD","1983"],
    [".",".","."]
  ]
},
{
  "tag":"S",
  "content":
  [
    ["*","-NONE-","*"],
    ["H.","NN","h."],
    ["G.","NNP","g."],
    ["Feichtinger","NNP","feicht"],
    ["and","CC","and"],
    ["K.","NNP","k."],
    ["Gröchenig","NNP","gröchenig"],
    [".",".","."]
  ]
},
{
  "tag":"S",
  "content":
  [
    ["``","``","``"],
    ["A","DT","A"],
    ["unified","JJ","un"],
    ["approach","NN","approach"],
    ["to","TO","to"],
    ["atomic","JJ","atom"],
    ["decompositions","NNS","decomposit"],
    ["via","IN","via"],
    ["integrable","JJ","integr"],
    ["group","NN","group"],
    ["representations","NNS","repres"],
    ["''","''","''"],
    ["Lect","NNP","lect"],
    [".",".","."]
  ]
},
{
  "tag":"S",
  "content":
  [
    ["Notes","NNS","not"],
    ["in","IN","in"],
    {
      "tag":"GPE",
      "content":
      [
        ["Math","NNP","math"]
      ]
    },
    [".",".","."]
  ]
},
{
  "tag":"S",
  "content":
  [
    ["1302:52—73","CD","1302:52—73"],
    [",",",",","],
    ["1988","CD","1988"],
    [".",".","."]
  ]
},
{
  "tag":"S",
  "content":
  [
    ["*","-NONE-","*"],
    ["H.","NN","h."],
    ["G.","NNP","g."],
    ["Feichtinger","NNP","feicht"],
    ["and","CC","and"],
    ["K.","NNP","k."],
    ["Gröchenig","NNP","gröchenig"],
    [".",".","."]
  ]
},
{
  "tag":"S",
  "content":
  [
    ["``","``","``"],
    ["Gabor","NNP","gab"],
    ["wavelets","NNS","wavelet"],
    ["and","CC","and"],
    ["the","DT","the"],
    {
      "tag":"ORGANIZATION",
      "content":
      [
        ["Heisenberg","NNP","heisenberg"]
      ]
    },
    ["group","NN","group"],
    [":",":",":"],
    ["Gabor","NNP","gab"],
    ["expansions","NNS","expand"],
    ["and","CC","and"],
    ["short","JJ","short"],
    ["time","NN","tim"],
    ["Fourier","NNP","foury"],
    ["transform","NN","transform"],
    ["from","IN","from"],
    ["the","DT","the"],
    ["group","NN","group"],
    ["theoretical","JJ","theoret"],
    ["point","NN","point"],
    ["of","IN","of"],
    ["view","NN","view"],
    ["''","''","''"],
    ["in","IN","in"],
    {
      "tag":"GPE",
      "content":
      [
        ["Wavelets","NNP","wavelet"]
      ]
    },
    [":",":",":"],
    ["a","DT","a"],
    ["tutorial","JJ","tut"],
    ["in","IN","in"],
    ["theory","NN","the"],
    ["and","CC","and"],
    ["applications","NNS","apply"],
    [",",",",","],
    {
      "tag":"ORGANIZATION",
      "content":
      [
        ["Academic","NNP","academ"],
        ["Press","NNP","press"]
      ]
    },
    [",",",",","],
    {
      "tag":"GPE",
      "content":
      [
        ["Boston","NNP","boston"]
      ]
    },
    [",",",",","],
    ["1992","CD","1992"],
    [".",".","."]
  ]
},
{
  "tag":"S",
  "content":
  [
    ["*","-NONE-","*"],
    ["H.","NN","h."],
    ["G.","NNP","g."],
    ["Feichtinger","NNP","feicht"],
    ["and","CC","and"],
    ["K.","NNP","k."],
    ["Gröchenig","NNP","gröchenig"],
    [".",".","."]
  ]
},
{
  "tag":"S",
  "content":
  [
    ["``","``","``"],
    ["Theory","NNP","the"],
    ["and","CC","and"],
    ["practice","NN","pract"],
    ["of","IN","of"],
    ["irregular","JJ","irregul"],
    ["sampling","NN","sampl"],
    ["''","''","''"],
    ["in","IN","in"],
    ["``","``","``"],
    ["Wavelets","NNS","wavelet"],
    [":",":",":"],
    ["Mathematics","NNS","mathem"],
    ["and","CC","and"],
    ["Applications","NNS","apply"],
    ["``","``","``"],
    [",",",",","],
    {
      "tag":"ORGANIZATION",
      "content":
      [
        ["CRC","NNP","crc"],
        ["Press","NNP","press"]
      ]
    },
    [",",",",","],
    {
      "tag":"GPE",
      "content":
      [
        ["Studies","NNP","study"]
      ]
    },
    ["in","IN","in"],
    {
      "tag":"GPE",
      "content":
      [
        ["Advanced","NNP","adv"]
      ]
    },
    ["Mathematics:305—363","NNP","mathematics:305—363"],
    [",",",",","],
    ["1994","CD","1994"],
    [".",".","."]
  ]
},
{
  "tag":"S",
  "content":
  [
    ["*","-NONE-","*"],
    ["H.","NN","h."],
    ["G.","NNP","g."],
    ["Feichtinger","NNP","feicht"],
    ["and","CC","and"],
    ["K.","NNP","k."],
    ["Gröchenig","NNP","gröchenig"],
    [".",".","."]
  ]
},
{
  "tag":"S",
  "content":
  [
    ["``","``","``"],
    {
      "tag":"PERSON",
      "content":
      [
        ["Gabor","NNP","gab"]
      ]
    },
    ["frames","VBZ","fram"],
    ["and","CC","and"],
    ["time-frequency","NN","time-frequency"],
    ["analysis","NN","analys"],
    ["of","IN","of"],
    ["distributions","NNS","distribut"],
    ["''","''","''"],
    ["J.","NNP","j."],
    ["Funct","NNP","funct"],
    [".",".","."]
  ]
},
{
  "tag":"S",
  "content":
  [
    ["Anal","NNP","an"],
    [".",".","."]
  ]
},
{
  "tag":"S",
  "content":
  [
    ["146","CD","146"],
    ["(","``","("],
    ["2","CD","2"],
    [")","CD",")"],
    [":464–495","-NONE-",":464–495"],
    [",",",",","],
    ["1997","CD","1997"],
    [".",".","."]
  ]
},
{
  "tag":"S",
  "content":
  [
    ["*","-NONE-","*"],
    ["H.","NN","h."],
    ["Bölcskei","-NONE-","Bölcskei"],
    [",",",",","],
    ["F.","NNP","f."],
    ["Hlawatsch","NNP","hlawatsch"],
    ["and","CC","and"],
    ["H.","NNP","h."],
    ["G.","NNP","g."],
    ["Feichtinger","NNP","feicht"],
    [".",".","."]
  ]
},
{
  "tag":"S",
  "content":
  [
    ["``","``","``"],
    ["Frame-theoretic","JJ","frame-theoretic"],
    ["analysis","NN","analys"],
    ["of","IN","of"],
    ["oversampled","VBN","oversampl"],
    ["filter","NN","filt"],
    ["banks","NNS","bank"],
    ["''","''","''"],
    {
      "tag":"ORGANIZATION",
      "content":
      [
        ["IEEE","NNP","ie"],
        ["Trans","NNP","tran"]
      ]
    },
    [".",".","."]
  ]
},
{
  "tag":"S",
  "content":
  [
    {
      "tag":"GPE",
      "content":
      [
        ["Signal","NNP","sign"]
      ]
    },
    ["Processing","NNP","process"],
    ["46","CD","46"],
    ["(","CD","("],
    ["12","CD","12"],
    [")","CD",")"],
    [":3256–3268","-NONE-",":3256–3268"],
    [",",",",","],
    ["1998","CD","1998"],
    [".",".","."]
  ]
},
{
  "tag":"S",
  "content":
  [
    ["*","-NONE-","*"],
    ["H.","NN","h."],
    ["G.","NNP","g."],
    ["Feichtinger","NNP","feicht"],
    ["and","CC","and"],
    ["T.","NNP","t."],
    ["Strohmer","NNP","strohmer"],
    ["(","NNP","("],
    ["editors","NNS","edit"],
    [")",":",")"],
    [".",".","."]
  ]
},
{
  "tag":"S",
  "content":
  [
    ["``","``","``"],
    {
      "tag":"PERSON",
      "content":
      [
        ["Gabor","NNP","gab"],
        ["Analysis","NNP","analys"]
      ]
    },
    ["and","CC","and"],
    {
      "tag":"ORGANIZATION",
      "content":
      [
        ["Algorithms","NNP","algorithm"]
      ]
    },
    [".",".","."]
  ]
},
{
  "tag":"S",
  "content":
  [
    ["Theory","NNP","the"],
    ["and","CC","and"],
    ["Applications","NNS","apply"],
    [".",".","."]
  ]
},
{
  "tag":"S",
  "content":
  [
    ["``","``","``"],
    [",",",",","],
    ["Birkhäuser","JJ","birkhäus"],
    [",",",",","],
    {
      "tag":"GPE",
      "content":
      [
        ["Boston","NNP","boston"]
      ]
    },
    [",",",",","],
    ["1998","CD","1998"],
    [".",".","."]
  ]
},
{
  "tag":"S",
  "content":
  [
    ["*","-NONE-","*"],
    ["H.","NN","h."],
    ["G.","NNP","g."],
    ["Feichtinger","NNP","feicht"],
    ["and","CC","and"],
    ["T.","NNP","t."],
    ["Strohmer","NNP","strohmer"],
    ["(","NNP","("],
    ["editors","NNS","edit"],
    [")",":",")"],
    [".",".","."]
  ]
},
{
  "tag":"S",
  "content":
  [
    ["``","``","``"],
    ["Advances","NNS","adv"],
    ["in","IN","in"],
    {
      "tag":"GPE",
      "content":
      [
        ["Gabor","NNP","gab"]
      ]
    },
    ["Analysis","NNP","analys"],
    ["''","''","''"],
    [",",",",","],
    ["Birkhäuser","JJ","birkhäus"],
    [",",",",","],
    {
      "tag":"PERSON",
      "content":
      [
        ["Basel","NNP","basel"]
      ]
    },
    [",",",",","],
    ["2003","CD","2003"],
    [".",".","."]
  ]
},
{
  "tag":"S",
  "content":
  [
    ["*","-NONE-","*"],
    ["H.","NN","h."],
    ["G.","NNP","g."],
    ["Feichtinger","NNP","feicht"],
    ["and","CC","and"],
    ["N.","NNP","n."],
    ["Kaiblinger","NNP","kaibl"],
    [".",".","."]
  ]
},
{
  "tag":"S",
  "content":
  [
    ["Varying","VBG","vary"],
    ["the","DT","the"],
    ["time-frequency","NN","time-frequency"],
    ["lattice","NN","lat"],
    ["of","IN","of"],
    {
      "tag":"GPE",
      "content":
      [
        ["Gabor","NNP","gab"]
      ]
    },
    ["frames","VBZ","fram"],
    [".",".","."]
  ]
},
{
  "tag":"S",
  "content":
  [
    ["Trans","NNS","tran"],
    [".",".","."]
  ]
},
{
  "tag":"S",
  "content":
  [
    {
      "tag":"GPE",
      "content":
      [
        ["Amer","NNP","am"]
      ]
    },
    [".",".","."]
  ]
},
{
  "tag":"S",
  "content":
  [
    {
      "tag":"GPE",
      "content":
      [
        ["Math","NNP","math"]
      ]
    },
    [".",".","."]
  ]
},
{
  "tag":"S",
  "content":
  [
    ["Soc.","NNP","soc."],
    [",",",",","],
    ["356","CD","356"],
    ["(",":","("],
    ["5","CD","5"],
    [")","CD",")"],
    [":2001–2023","-NONE-",":2001–2023"],
    [",",",",","],
    ["2004","CD","2004"],
    [".",".","."]
  ]
},
{
  "tag":"S",
  "content":
  [
    ["==References==","NN","==references=="],
    ["==","``","=="],
    ["External","NNP","extern"],
    ["links","VBZ","link"],
    ["==",":","=="],
    ["*","-NONE-","*"],
    ["*Hans","NNS","*hans"],
    {
      "tag":"PERSON",
      "content":
      [
        ["Georg","NNP","georg"],
        ["Feichtinger","NNP","feicht"]
      ]
    },
    ["'s","POS","'s"],
    ["homepage","NN","homep"],
    ["at","IN","at"],
    {
      "tag":"ORGANIZATION",
      "content":
      [
        ["University","NNP","univers"]
      ]
    },
    ["of","IN","of"],
    {
      "tag":"PERSON",
      "content":
      [
        ["Vienna","NNP","vienn"]
      ]
    },
    ["*NuHAG","NNP","*nuhag"],
    ["homepage","NN","homep"]
  ]
}]