[
{
  tag:'S',
  content:
  [
    ['María','NN','marí'],
    ['Pagés','NNS','pagé'],
    ['(',':','('],
    ['born','NN','born'],
    ['1963','CD','1963'],
    [')','CD',')'],
    ['is','VBZ','be'],
    ['a','DT','a'],
    ['modern','JJ','modern'],
    {
      tag:'GPE',
      content:
      [
        ['Spanish','NNP','span']
      ]
    },
    ['flamenco','NN','flamenco'],
    ['dancer','NN','dant'],
    ['and','CC','and'],
    ['choreographer','NN','choreograph'],
    ['based','VBN','bas'],
    ['in','IN','in'],
    {
      tag:'GPE',
      content:
      [
        ['Madrid','NNP','madrid']
      ]
    },
    [',',',',','],
    {
      tag:'GPE',
      content:
      [
        ['Spain','NNP','spain']
      ]
    },
    ['.','.','.']
  ]
},
{
  tag:'S',
  content:
  [
    ['==Life','JJ','==life'],
    ['and','CC','and'],
    ['career==','JJ','career=='],
    ['María','NN','marí'],
    ['Jesús','NNS','jesú'],
    ['Pagés','-NONE-','Pagés'],
    {
      tag:'PERSON',
      content:
      [
        ['Madrigal','NNP','madrig']
      ]
    },
    ['was','VBD','be'],
    ['born','VBN','bear'],
    ['in','IN','in'],
    {
      tag:'GPE',
      content:
      [
        ['Seville','NNP','sevil']
      ]
    },
    [',',',',','],
    {
      tag:'GPE',
      content:
      [
        ['Spain','NNP','spain']
      ]
    },
    [',',',',','],
    ['and','CC','and'],
    ['began','VBD','begin'],
    ['dancing','VBG','dant'],
    ['professionally','RB','profess'],
    ['with','IN','with'],
    ['the','DT','the'],
    {
      tag:'ORGANIZATION',
      content:
      [
        ['Antonio','NNP','antonio'],
        ['Gades','NNP','gad'],
        ['Company','NNP','company']
      ]
    },
    ['.','.','.']
  ]
},
{
  tag:'S',
  content:
  [
    ['She','PRP','She'],
    ['choreographed','VBD','choreograph'],
    ['for','IN','for'],
    ['films','NNS','film'],
    ['including','VBG','includ'],
    {
      tag:'GPE',
      content:
      [
        ['Carmen','NNP','carm']
      ]
    },
    [',',',',','],
    {
      tag:'PERSON',
      content:
      [
        ['El','NNP','el'],
        ['Amor','NNP','am'],
        ['Brujo','NNP','brujo']
      ]
    },
    ['and','CC','and'],
    {
      tag:'GPE',
      content:
      [
        ['Flamenco','NNP','flamenco']
      ]
    },
    ['by','IN','by'],
    {
      tag:'PERSON',
      content:
      [
        ['Carlos','NNP','carlo'],
        ['Saura','NNP','saur']
      ]
    },
    [',',',',','],
    ['and','CC','and'],
    ['in','IN','in'],
    ['1990','CD','1990'],
    ['she','PRP','she'],
    ['established','VBD','est'],
    ['the','DT','the'],
    {
      tag:'FACILITY',
      content:
      [
        ['Maria','NNP','mar']
      ]
    },
    ['Pagès','NNP','pagè'],
    ['Company','NNP','company'],
    ['.','.','.']
  ]
},
{
  tag:'S',
  content:
  [
    ['Her','PRP$','Her'],
    ['work','NN','work'],
    ['is','VBZ','be'],
    ['described','VBN','describ'],
    ['as','RB','as'],
    ['incorporating','VBG','incorp'],
    ['the','DT','the'],
    ['national','JJ','nat'],
    ['flamenco','NN','flamenco'],
    ['style','NN','styl'],
    ['with','IN','with'],
    ['outside','JJ','outsid'],
    ['influences','NNS','influ'],
    ['.','.','.']
  ]
},
{
  tag:'S',
  content:
  [
    ['María','NN','marí'],
    ['Pagés','NNS','pagé'],
    ['and','CC','and'],
    ['her','PRP$','her'],
    ['company','NN','company'],
    ['have','VBP','hav'],
    ['toured','VBN','tour'],
    ['internationally','RB','intern'],
    [',',',',','],
    ['appearing','VBG','appear'],
    ['in','IN','in'],
    ['the','DT','the'],
    {
      tag:'GPE',
      content:
      [
        ['United','NNP','unit'],
        ['States','NNPS','stat']
      ]
    },
    ['at','IN','at'],
    ['the','DT','the'],
    {
      tag:'PERSON',
      content:
      [
        ['Baryshnikov','NNP','baryshnikov'],
        ['Arts','NNP','art'],
        ['Center','NNP','cent']
      ]
    },
    ['in','IN','in'],
    {
      tag:'GPE',
      content:
      [
        ['New','NNP','new'],
        ['York','NNP','york'],
        ['City','NNP','city']
      ]
    },
    ['and','CC','and'],
    ['The','DT','The'],
    {
      tag:'FACILITY',
      content:
      [
        ['Kennedy','NNP','kennedy'],
        ['Center','NNP','cent']
      ]
    },
    ['in','IN','in'],
    {
      tag:'GPE',
      content:
      [
        ['Washington','NNP','washington']
      ]
    },
    [',',',',','],
    {
      tag:'GPE',
      content:
      [
        ['D.C.','NNP','d.c.']
      ]
    },
    [',',',',','],
    ['among','IN','among'],
    ['other','JJ','oth'],
    ['venues','NNS','venu'],
    ['.','.','.']
  ]
},
{
  tag:'S',
  content:
  [
    ['In','IN','In'],
    ['1995','CD','1995'],
    ['the','DT','the'],
    ['expanded','VBN','expand'],
    ['version','NN','vert'],
    ['of','IN','of'],
    ['the','DT','the'],
    {
      tag:'ORGANIZATION',
      content:
      [
        ['Riverdance','NNP','riverd']
      ]
    },
    ['show','NN','show'],
    ['included','VBD','includ'],
    ['performance','NN','perform'],
    ['by','IN','by'],
    ['the','DT','the'],
    ['company','NN','company'],
    ['to','TO','to'],
    ['music','VB','mus'],
    ['of','IN','of'],
    {
      tag:'GPE',
      content:
      [
        ['Irish','NNP','ir']
      ]
    },
    ['style','NN','styl'],
    ['composed','VBD','compos'],
    ['by','IN','by'],
    {
      tag:'PERSON',
      content:
      [
        ['Bill','NNP','bil'],
        ['Whelan','NNP','whel']
      ]
    },
    ['.','.','.']
  ]
},
{
  tag:'S',
  content:
  [
    ['In','IN','In'],
    ['2000','CD','2000'],
    ['she','PRP','she'],
    ['provided','VBD','provid'],
    ['choreography','JJ','choreograph'],
    ['for','IN','for'],
    ['the','DT','the'],
    {
      tag:'ORGANIZATION',
      content:
      [
        ['Hispanic','NNP','hisp'],
        ['Heritage','NNP','herit'],
        ['Awards','NNP','award']
      ]
    },
    ['.','.','.']
  ]
},
{
  tag:'S',
  content:
  [
    ['Pagés','NNS','pagé'],
    ['serves','VBZ','serv'],
    ['on','IN','on'],
    ['the','DT','the'],
    {
      tag:'ORGANIZATION',
      content:
      [
        ['Board','NNP','board']
      ]
    },
    ['of','IN','of'],
    ['the','DT','the'],
    {
      tag:'ORGANIZATION',
      content:
      [
        ['Cultural','NNP','cult'],
        ['Council','NNP','council']
      ]
    },
    ['in','IN','in'],
    {
      tag:'GPE',
      content:
      [
        ['Madrid','NNP','madrid']
      ]
    },
    ['.','.','.']
  ]
},
{
  tag:'S',
  content:
  [
    ['==Honors','NNS','==honors'],
    ['and','CC','and'],
    ['awards==','JJ','awards=='],
    ['*National','JJ','*national'],
    {
      tag:'PERSON',
      content:
      [
        ['Dance','NNP','dant'],
        ['Award','NNP','award']
      ]
    },
    [',',',',','],
    ['2002','CD','2002'],
    ['*National','JJ','*national'],
    ['Choreography','NNP','choreograph'],
    {
      tag:'PERSON',
      content:
      [
        ['Award','NNP','award']
      ]
    },
    [',',',',','],
    ['1996','CD','1996'],
    ['*Giraldillos','NNS','*giraldillos'],
    ['Awards','NNS','award'],
    [',',',',','],
    {
      tag:'ORGANIZATION',
      content:
      [
        ['Giennale','NNP','gien']
      ]
    },
    ['of','IN','of'],
    {
      tag:'PERSON',
      content:
      [
        ['Arte','NNP','art'],
        ['Flamenco','NNP','flamenco']
      ]
    },
    ['(','NNP','('],
    ['four','CD','four'],
    ['times','NNS','tim'],
    [')',':',')'],
    ['*Leonid','JJ','*leonid'],
    {
      tag:'PERSON',
      content:
      [
        ['Massine','NNP','massin'],
        ['Award','NNP','award']
      ]
    },
    [',',',',','],
    {
      tag:'GPE',
      content:
      [
        ['Italy','NNP','ita']
      ]
    },
    [',',',',','],
    ['2004','CD','2004'],
    ['*Flamenco','-NONE-','*Flamenco'],
    ['Awards','NNS','award'],
    [',',',',','],
    {
      tag:'ORGANIZATION',
      content:
      [
        ['VI','NNP','vi'],
        ['Edition','NNP','edit']
      ]
    },
    [',',',',','],
    ['2005','CD','2005'],
    ['*Premios','NNS','*premios'],
    {
      tag:'PERSON',
      content:
      [
        ['Flamenco','NNP','flamenco'],
        ['Hoy','NNP','hoy']
      ]
    },
    [',',',',','],
    {
      tag:'ORGANIZATION',
      content:
      [
        ['VI','NNP','vi']
      ]
    },
    [',',',',','],
    ['2005','CD','2005'],
    ['*Cultura','NN','*cultura'],
    {
      tag:'PERSON',
      content:
      [
        ['Viva','NNP','viv'],
        ['Award','NNP','award']
      ]
    },
    [',',',',','],
    ['2006','CD','2006'],
    ['*Premio','-NONE-','*Premio'],
    ['Cultura','NNP','cultur'],
    [',',',',','],
    {
      tag:'ORGANIZATION',
      content:
      [
        ['Community','NNP','commun']
      ]
    },
    ['of','IN','of'],
    {
      tag:'GPE',
      content:
      [
        ['Madrid','NNP','madrid']
      ]
    },
    [',',',',','],
    ['2007','CD','2007'],
    ['==Works==','-NONE-','==Works=='],
    ['Selected','NNP','select'],
    ['works','NNS','work'],
    ['include','VBP','includ'],
    [':',':',':'],
    ['*Sol','JJ','*sol'],
    ['y','NN','y'],
    ['sombra','NN','sombr'],
    ['(',':','('],
    ['1990','CD','1990'],
    [')','CD',')'],
    ['*De','JJ','*de'],
    ['la','NN','la'],
    ['luna','NN','lun'],
    ['al','NN','al'],
    ['viento','IN','viento'],
    ['(','CD','('],
    ['1994','CD','1994'],
    [')','CD',')'],
    ['*Riverdance','NN','*riverdance'],
    ['(',':','('],
    ['1995-1996','CD','1995-1996'],
    [')','CD',')'],
    ['*El','JJ','*el'],
    ['perro','NN','perro'],
    ['andaluz','NN','andaluz'],
    [',',',',','],
    {
      tag:'GPE',
      content:
      [
        ['Burlerías','JJ','burlería']
      ]
    },
    ['(','NN','('],
    ['1996','CD','1996'],
    [')','CD',')'],
    ['*La','NNP','*la'],
    ['tirana','NN','tiran'],
    ['(',':','('],
    ['1998','CD','1998'],
    [')','CD',')'],
    ['*Flamenco','NNP','*flamenco'],
    ['Republic','NNP','republ'],
    ['(','NNP','('],
    ['2001','CD','2001'],
    [')','CD',')'],
    ['*Ilusiones','NNS','*ilusiones'],
    ['FM','NNP','fm'],
    ['(','NNP','('],
    ['2002','CD','2002'],
    [')','CD',')'],
    ['*Canciones','NNS','*canciones'],
    [',',',',','],
    ['antes','VBZ','ant'],
    ['de','IN','de'],
    ['una','NN','un'],
    ['guerra','NN','guerr'],
    ['(',':','('],
    ['2004','CD','2004'],
    [')','CD',')'],
    ['*Sevilla','NN','*sevilla'],
    ['(',':','('],
    ['2006','CD','2006'],
    [')','CD',')'],
    ['*Autorretrato','JJ','*autorretrato'],
    ['(','NN','('],
    ['2008','CD','2008'],
    [')','CD',')'],
    ['*Flamenco','NNP','*flamenco'],
    ['y','NN','y'],
    ['Poesía','NNP','poesí'],
    ['(','NNP','('],
    ['2008','CD','2008'],
    [')','CD',')'],
    ['*Dunas','JJ','*dunas'],
    ['(','NN','('],
    ['2009','CD','2009'],
    [')','CD',')'],
    ['*Mirada','NN','*mirada'],
    ['(',':','('],
    ['2010','CD','2010'],
    [')','CD',')'],
    ['*Utopia','NNP','*utopia'],
    ['(','NNP','('],
    ['2011','CD','2011'],
    [')','CD',')'],
    ['==Filmography==','JJ','==filmography=='],
    ['Pagés','NNS','pagé'],
    ['has','VBZ','hav'],
    ['appeared','VBN','appear'],
    ['in','IN','in'],
    ['television','NN','televid'],
    ['and','CC','and'],
    ['films','NNS','film'],
    ['including','VBG','includ'],
    [':',':',':'],
    ['*Miradas','JJ','*miradas'],
    ['2','CD','2'],
    ['(','CD','('],
    ['TV','NN','tv'],
    ['series','NNS','sery'],
    ['documentary','JJ','docu'],
    [')','NN',')'],
    ['(',':','('],
    ['2010–11','CD','2010–11'],
    [')','CD',')'],
    ['*A','NNP','*a'],
    ['escena','NN','escen'],
    ['(',':','('],
    ['TV','NN','tv'],
    ['series','NNS','sery'],
    [')',':',')'],
    ['(',':','('],
    ['2010','CD','2010'],
    [')','CD',')'],
    ['*Ànima','NNP','*ànima'],
    ['(','NNP','('],
    ['TV','NNP','tv'],
    ['series','NN','sery'],
    [')',':',')'],
    ['(',':','('],
    ['2009','CD','2009'],
    [')','CD',')'],
    ['*Plácido','CD','*Plácido'],
    ['y','NN','y'],
    ['la','NN','la'],
    ['copla','NN','copl'],
    ['(',':','('],
    ['TV','NN','tv'],
    ['movie','NN','movy'],
    [')',':',')'],
    ['(',':','('],
    ['2008','CD','2008'],
    [')','CD',')'],
    ['*La','NNP','*la'],
    ['mandrágora','NNP','mandrágor'],
    ['(','NNP','('],
    ['TV','NNP','tv'],
    ['series','NN','sery'],
    [')',':',')'],
    ['(',':','('],
    ['2006','CD','2006'],
    [')','CD',')'],
    ['*The','JJ','*the'],
    {
      tag:'ORGANIZATION',
      content:
      [
        ['Late','NNP','lat'],
        ['Late','NNP','lat'],
        ['Show','NNP','show']
      ]
    },
    ['(','NNP','('],
    ['TV','NNP','tv'],
    ['series','NN','sery'],
    [')',':',')'],
    ['(',':','('],
    ['2003','CD','2003'],
    [')','CD',')'],
    ['*Riverdance','NN','*riverdance'],
    [':',':',':'],
    ['The','DT','The'],
    {
      tag:'ORGANIZATION',
      content:
      [
        ['New','NNP','new'],
        ['Show','NNP','show']
      ]
    },
    ['(','NNP','('],
    ['1996','CD','1996'],
    [')','CD',')'],
    ['*Riverdance','NN','*riverdance'],
    [':',':',':'],
    ['The','DT','The'],
    {
      tag:'ORGANIZATION',
      content:
      [
        ['Show','NNP','show']
      ]
    },
    ['(','NNP','('],
    ['1995','CD','1995'],
    [')','CD',')'],
    ['*Flamenco','NNP','*flamenco'],
    ['(','NNP','('],
    ['1995','CD','1995'],
    [')','CD',')'],
    ['==References==','JJ','==references=='],
    ['==External','JJ','==external'],
    ['links==','NN','links=='],
    ['*Official','JJ','*official'],
    ['site','NN','sit'],
    ['*Maria','NNP','*maria'],
    ['Pages','NNP','pag'],
    ['performs','VBZ','perform'],
    ['Firedance','NNP','fir']
  ]
}]