[
{
  tag:'S',
  content:
  [
    ['May','NNP','may'],
    ['O'Donnell','NNP','o'donnell'],
    ['(','NNP','('],
    ['May','NNP','may'],
    ['1','CD','1'],
    [',',',',','],
    ['1906','CD','1906'],
    ['–',':','–'],
    ['February','NNP','febru'],
    ['1','CD','1'],
    [',',',',','],
    ['2004','CD','2004'],
    [')',':',')'],
    ['was','VBD','be'],
    ['an','DT','an'],
    {
      tag:'GPE',
      content:
      [
        ['American','JJ','am']
      ]
    },
    ['modern','NN','modern'],
    ['dancer','NN','dant'],
    ['and','CC','and'],
    ['choreographer','NN','choreograph'],
    ['.','.','.']
  ]
},
{
  tag:'S',
  content:
  [
    {
      tag:'GPE',
      content:
      [
        ['Born','NNP','born']
      ]
    },
    ['in','IN','in'],
    {
      tag:'GPE',
      content:
      [
        ['Sacramento','NNP','sacramento']
      ]
    },
    [',',',',','],
    {
      tag:'GPE',
      content:
      [
        ['California','NNP','californ']
      ]
    },
    [',',',',','],
    {
      tag:'PERSON',
      content:
      [
        ['May','NNP','may'],
        ['O'Donnell','NNP','o'donnell']
      ]
    },
    ['studied','VBD','study'],
    ['dance','NN','dant'],
    ['in','IN','in'],
    {
      tag:'GPE',
      content:
      [
        ['San','NNP','san']
      ]
    },
    ['Francisco','NNP','francisco'],
    ['with','IN','with'],
    {
      tag:'PERSON',
      content:
      [
        ['Estelle','NNP','estel'],
        ['Reed','NNP','ree']
      ]
    },
    ['and','CC','and'],
    ['performed','VBD','perform'],
    ['in','IN','in'],
    {
      tag:'GPE',
      content:
      [
        ['Reed','NNP','ree']
      ]
    },
    [''s','POS',''s'],
    ['company','NN','company'],
    ['before','IN','before'],
    ['moving','VBG','mov'],
    ['to','TO','to'],
    {
      tag:'GPE',
      content:
      [
        ['New','NNP','new'],
        ['York','NNP','york'],
        ['City','NNP','city']
      ]
    },
    ['to','TO','to'],
    ['study','VB','study'],
    ['with','IN','with'],
    {
      tag:'PERSON',
      content:
      [
        ['Martha','NNP','marth'],
        ['Graham','NNP','graham']
      ]
    },
    ['.','.','.']
  ]
},
{
  tag:'S',
  content:
  [
    ['O'Donnell','JJ','o'donnell'],
    ['was','VBD','be'],
    ['a','DT','a'],
    ['member','NN','memb'],
    ['of','IN','of'],
    ['the','DT','the'],
    {
      tag:'ORGANIZATION',
      content:
      [
        ['Martha','NNP','marth'],
        ['Graham','NNP','graham'],
        ['Dance','NNP','dant']
      ]
    },
    ['Company','NNP','company'],
    ['from','IN','from'],
    ['1932','CD','1932'],
    ['until','IN','until'],
    ['1938','CD','1938'],
    ['.','.','.']
  ]
},
{
  tag:'S',
  content:
  [
    ['In','IN','In'],
    ['1939','CD','1939'],
    [',',',',','],
    ['she','PRP','she'],
    ['returned','VBD','return'],
    ['to','TO','to'],
    {
      tag:'GPE',
      content:
      [
        ['California','NNP','californ']
      ]
    },
    ['and','CC','and'],
    [',',',',','],
    ['with','IN','with'],
    ['her','PRP$','her'],
    ['husband','NN','husband'],
    [',',',',','],
    ['the','DT','the'],
    ['composer','NN','compos'],
    {
      tag:'PERSON',
      content:
      [
        ['Ray','NNP','ray'],
        ['Green','NNP','green']
      ]
    },
    [',',',',','],
    ['and','CC','and'],
    ['another','DT','another'],
    ['former','JJ','form'],
    {
      tag:'GPE',
      content:
      [
        ['Graham','NNP','graham']
      ]
    },
    ['dancer','NN','dant'],
    [',',',',','],
    {
      tag:'PERSON',
      content:
      [
        ['Gertrude','NNP','gertrud'],
        ['Shurr','NNP','shur']
      ]
    },
    [',',',',','],
    ['founded','VBN','found'],
    ['the','DT','the'],
    {
      tag:'ORGANIZATION',
      content:
      [
        ['San','NNP','san'],
        ['Francisco','NNP','francisco'],
        ['Dance','NNP','dant']
      ]
    },
    ['Theater','NNP','the'],
    ['.','.','.']
  ]
},
{
  tag:'S',
  content:
  [
    ['In','IN','In'],
    ['1941','CD','1941'],
    [',',',',','],
    {
      tag:'ORGANIZATION',
      content:
      [
        ['O'Donnell','NNP','o'donnell']
      ]
    },
    ['joined','VBD','join'],
    ['the','DT','the'],
    ['José','NN','josé'],
    ['Limón','NN','limón'],
    {
      tag:'PERSON',
      content:
      [
        ['Dance','NNP','dant'],
        ['Company','NNP','company']
      ]
    },
    ['where','WRB','where'],
    ['she','PRP','she'],
    ['remained','VBD','remain'],
    ['from','IN','from'],
    ['1940','CD','1940'],
    ['to','TO','to'],
    ['1942','CD','1942'],
    ['.','.','.']
  ]
},
{
  tag:'S',
  content:
  [
    ['She','PRP','She'],
    ['worked','VBD','work'],
    ['with','IN','with'],
    ['the','DT','the'],
    {
      tag:'ORGANIZATION',
      content:
      [
        ['Graham','NNP','graham'],
        ['Company','NNP','company']
      ]
    },
    ['again','RB','again'],
    ['from','IN','from'],
    ['1944','CD','1944'],
    ['to','TO','to'],
    ['1952','CD','1952'],
    ['as','IN','as'],
    ['a','DT','a'],
    ['guest','NN','guest'],
    ['artist','NN','art'],
    [',',',',','],
    ['at','IN','at'],
    ['which','WDT','which'],
    ['time','NN','tim'],
    ['she','PRP','she'],
    ['created','VBD','cre'],
    ['several','JJ','sev'],
    ['roles','NNS','rol'],
    ['notably','RB','not'],
    ['the','DT','the'],
    {
      tag:'ORGANIZATION',
      content:
      [
        ['Pioneering','NNP','pion']
      ]
    },
    ['Woman','NNP','wom'],
    ['in','IN','in'],
    ['``','``','``'],
    {
      tag:'GPE',
      content:
      [
        ['Appalachian','JJ','appalach']
      ]
    },
    ['Spring','NN','spring'],
    ['''','''',''''],
    [',',',',','],
    ['Attendant','NNP','attend'],
    ['in','IN','in'],
    ['``','``','``'],
    {
      tag:'PERSON',
      content:
      [
        ['Herodiade','NNP','herodiad']
      ]
    },
    ['''','''',''''],
    ['(',':','('],
    ['1944','CD','1944'],
    [')','CD',')'],
    [',',',',','],
    ['She','NNP','she'],
    ['of','IN','of'],
    ['the','DT','the'],
    {
      tag:'LOCATION',
      content:
      [
        ['Earth','NNP','ear']
      ]
    },
    ['in','IN','in'],
    ['``','``','``'],
    {
      tag:'PERSON',
      content:
      [
        ['Dark','NNP','dark'],
        ['Meadow','NNP','meadow']
      ]
    },
    ['''','''',''''],
    ['(',':','('],
    ['1946','CD','1946'],
    [')','CD',')'],
    [',',',',','],
    ['and','CC','and'],
    {
      tag:'GPE',
      content:
      [
        ['Chorus','NNP','chor']
      ]
    },
    ['in','IN','in'],
    ['``','``','``'],
    ['Cave','NNP','cav'],
    ['of','IN','of'],
    ['the','DT','the'],
    ['Heart','NNP','heart'],
    ['''','''',''''],
    ['(',':','('],
    ['1946','CD','1946'],
    [')','CD',')'],
    ['.','.','.']
  ]
},
{
  tag:'S',
  content:
  [
    ['In','IN','In'],
    ['the','DT','the'],
    ['mid-1940s','JJ','mid-1940s'],
    ['she','PRP','she'],
    ['established','VBD','est'],
    ['the','DT','the'],
    ['O'Donnell-Shurr','JJ','o'donnell-shurr'],
    {
      tag:'LOCATION',
      content:
      [
        ['Modern','NNP','modern'],
        ['Dance','NNP','dant']
      ]
    },
    ['Studio','NNP','studio'],
    ['with','IN','with'],
    {
      tag:'PERSON',
      content:
      [
        ['Gertrude','NNP','gertrud'],
        ['Shurr','NNP','shur']
      ]
    },
    ['and','CC','and'],
    ['continued','VBD','continu'],
    ['the','DT','the'],
    ['development','NN','develop'],
    ['of','IN','of'],
    ['her','PRP$','her'],
    ['own','JJ','own'],
    ['dance','NN','dant'],
    ['repertory','NN','repert'],
    ['.','.','.']
  ]
},
{
  tag:'S',
  content:
  [
    ['Throughout','IN','Throughout'],
    ['her','PRP$','her'],
    ['career','NN','car'],
    ['O'Donnell','NN','o'donnell'],
    ['created','VBD','cre'],
    ['50','CD','50'],
    ['documented','VBN','docu'],
    ['dances','NNS','dant'],
    [',',',',','],
    ['from','IN','from'],
    ['1937','CD','1937'],
    ['to','TO','to'],
    ['1988','CD','1988'],
    ['.','.','.']
  ]
},
{
  tag:'S',
  content:
  [
    ['Notably','RB','not'],
    [',',',',','],
    ['in','IN','in'],
    ['1943','CD','1943'],
    ['O'Donnell','JJ','o'donnell'],
    ['choreographed','JJ','choreograph'],
    ['a','DT','a'],
    ['modern-dance','NN','modern-dance'],
    ['classic','JJ','class'],
    [',',',',','],
    ['``','``','``'],
    ['Suspension','NN','suspend'],
    ['''','''',''''],
    [',',',',','],
    ['a','DT','a'],
    ['thirteen-minute','JJ','thirteen-minute'],
    ['composition','NN','composit'],
    ['.','.','.']
  ]
},
{
  tag:'S',
  content:
  [
    ['The','DT','The'],
    ['dance','NN','dant'],
    ['was','VBD','be'],
    ['inspired','VBN','inspir'],
    ['by','IN','by'],
    ['her','PRP$','her'],
    ['memory','NN','mem'],
    ['of','IN','of'],
    ['seeing','VBG','see'],
    ['a','DT','a'],
    ['plane','NN','plan'],
    ['below','IN','below'],
    ['the','DT','the'],
    ['hilltop','NN','hilltop'],
    ['on','IN','on'],
    ['which','WDT','which'],
    ['she','PRP','she'],
    ['was','VBD','be'],
    ['standing','VBG','stand'],
    ['in','IN','in'],
    ['wartime','NN','wartim'],
    {
      tag:'GPE',
      content:
      [
        ['California','NNP','californ']
      ]
    },
    ['.','.','.']
  ]
},
{
  tag:'S',
  content:
  [
    ['That','DT','That'],
    ['work','NN','work'],
    ['was','VBD','be'],
    ['best','JJS','best'],
    ['explained','VBN','explain'],
    [',',',',','],
    ['she','PRP','she'],
    ['felt','VBD','felt'],
    [',',',',','],
    ['by','IN','by'],
    ['T.','NNP','t.'],
    ['S.','NNP','s.'],
    {
      tag:'PERSON',
      content:
      [
        ['Eliot','NNP','eliot']
      ]
    },
    [''s','POS',''s'],
    ['observation','NN','observ'],
    ['in','IN','in'],
    ['Four','CD','Four'],
    ['Quartets','NNS','quartet'],
    ['that','WDT','that'],
    ['``','``','``'],
    ['At','IN','At'],
    ['the','DT','the'],
    ['still','RB','stil'],
    ['point','NN','point'],
    ['of','IN','of'],
    ['the','DT','the'],
    ['turning','NN','turn'],
    ['world','NN','world'],
    ['.','.','.']
  ]
},
{
  tag:'S',
  content:
  [
    ['.','.','.']
  ]
},
{
  tag:'S',
  content:
  [
    ['.','.','.']
  ]
},
{
  tag:'S',
  content:
  [
    ['.','.','.']
  ]
},
{
  tag:'S',
  content:
  [
    ['there','EX','there'],
    ['the','DT','the'],
    ['dance','NN','dant'],
    ['is','VBZ','be'],
    ['.','.','.']
  ]
},
{
  tag:'S',
  content:
  [
    ['``','``','``'],
    ['She','PRP','She'],
    ['often','RB','oft'],
    ['included','VBD','includ'],
    ['T.','NNP','t.'],
    ['S.','NNP','s.'],
    {
      tag:'PERSON',
      content:
      [
        ['Eliot','NNP','eliot']
      ]
    },
    [''s','POS',''s'],
    ['words','NNS','word'],
    ['in','IN','in'],
    ['the','DT','the'],
    ['program','NN','program'],
    ['notes','NNS','not'],
    ['.','.','.']
  ]
},
{
  tag:'S',
  content:
  [
    ['In','IN','In'],
    ['the','DT','the'],
    ['piece','NN','piec'],
    [',',',',','],
    ['dancers','NNS','dant'],
    ['moved','VBD','mov'],
    ['slowly','RB','slow'],
    ['amid','IN','amid'],
    ['large','JJ','larg'],
    ['boxes','NNS','box'],
    ['under','IN','under'],
    ['a','DT','a'],
    ['turning','NN','turn'],
    ['mobile','NN','mobl'],
    ['.','.','.']
  ]
},
{
  tag:'S',
  content:
  [
    ['O'Donnell','JJ','o'donnell'],
    ['retired','VBN','retir'],
    ['from','IN','from'],
    ['performing','VBG','perform'],
    ['in','IN','in'],
    ['1961','CD','1961'],
    [',',',',','],
    ['but','CC','but'],
    ['continued','VBD','continu'],
    ['to','TO','to'],
    ['choreograph','NN','choreograph'],
    ['through','IN','through'],
    ['1988','CD','1988'],
    ['.','.','.']
  ]
},
{
  tag:'S',
  content:
  [
    ['O'Donnell','JJ','o'donnell'],
    ['was','VBD','be'],
    ['also','RB','also'],
    ['an','DT','an'],
    ['important','JJ','import'],
    ['teacher','NN','teach'],
    ['who','WP','who'],
    ['counted','VBN','count'],
    {
      tag:'PERSON',
      content:
      [
        ['Robert','NNP','robert'],
        ['Joffrey','NNP','joffrey']
      ]
    },
    [',',',',','],
    {
      tag:'PERSON',
      content:
      [
        ['Ben','NNP','ben'],
        ['Vereen','NNP','vereen']
      ]
    },
    [',',',',','],
    {
      tag:'PERSON',
      content:
      [
        ['Cora','NNP','cor'],
        ['Cahan','NNP','cah']
      ]
    },
    [',',',',','],
    ['and','CC','and'],
    {
      tag:'PERSON',
      content:
      [
        ['Gerald','NNP','gerald'],
        ['Arpino','NNP','arpino']
      ]
    },
    ['among','IN','among'],
    ['her','PRP$','her'],
    ['students','NNS','stud'],
    ['.','.','.']
  ]
},
{
  tag:'S',
  content:
  [
    ['She','PRP','She'],
    ['is','VBZ','be'],
    ['known','VBN','know'],
    ['for','IN','for'],
    ['an','DT','an'],
    ['original','JJ','origin'],
    ['dance','NN','dant'],
    ['technique','NN','techn'],
    ['that','WDT','that'],
    ['has','VBZ','hav'],
    ['influenced','VBN','influ'],
    ['generations','NNS','gen'],
    ['of','IN','of'],
    ['modern','JJ','modern'],
    ['dancers','NNS','dant'],
    ['.','.','.']
  ]
},
{
  tag:'S',
  content:
  [
    ['In','IN','In'],
    ['1974','CD','1974'],
    ['the','DT','the'],
    ['May','NNP','may'],
    ['O'Donnell','NNP','o'donnell'],
    ['Concert','NNP','concert'],
    {
      tag:'PERSON',
      content:
      [
        ['Dance','NNP','dant'],
        ['Company','NNP','company']
      ]
    },
    ['was','VBD','be'],
    ['formed','VBN','form'],
    ['and','CC','and'],
    ['located','VBN','loc'],
    ['at','IN','at'],
    ['the','DT','the'],
    ['May','NNP','may'],
    ['O'Donnell','NNP','o'donnell'],
    ['Modem','NNP','modem'],
    {
      tag:'PERSON',
      content:
      [
        ['Dance','NNP','dant'],
        ['Center','NNP','cent']
      ]
    },
    ['at','IN','at'],
    ['429','CD','429'],
    {
      tag:'FACILITY',
      content:
      [
        ['Lafayette','NNP','lafayet'],
        ['Street','NNP','street']
      ]
    },
    ['in','IN','in'],
    {
      tag:'GPE',
      content:
      [
        ['New','NNP','new'],
        ['York','NNP','york'],
        ['City','NNP','city']
      ]
    },
    ['.','.','.']
  ]
},
{
  tag:'S',
  content:
  [
    ['There','EX','There'],
    [',',',',','],
    ['O'Donnell','NNP','o'donnell'],
    ['and','CC','and'],
    ['her','PRP$','her'],
    ['staff','NN','staff'],
    ['taught','NN','taught'],
    ['the','DT','the'],
    ['May','NNP','may'],
    ['O'Donnell','NNP','o'donnell'],
    ['Dance','NNP','dant'],
    ['Technique','NNP','techn'],
    ['until','IN','until'],
    ['the','DT','the'],
    ['studio','NN','studio'],
    ['was','VBD','be'],
    ['sold','VBN','sel'],
    ['in','IN','in'],
    ['the','DT','the'],
    ['1980s','CD','1980s'],
    ['.','.','.']
  ]
},
{
  tag:'S',
  content:
  [
    ['O'Donnell','JJ','o'donnell'],
    ['died','VBD','die'],
    ['in','IN','in'],
    {
      tag:'GPE',
      content:
      [
        ['Manhattan','NNP','manhat']
      ]
    },
    ['at','IN','at'],
    ['the','DT','the'],
    ['age','NN','ag'],
    ['97','CD','97'],
    ['in','IN','in'],
    ['2004','CD','2004'],
    ['.','.','.']
  ]
},
{
  tag:'S',
  content:
  [
    ['In','IN','In'],
    ['2005','CD','2005'],
    [',',',',','],
    ['her','PRP$','her'],
    ['biography','NN','biograph'],
    [',',',',','],
    {
      tag:'PERSON',
      content:
      [
        ['May','NNP','may']
      ]
    },
    ['O'Donnell','NNP','o'donnell'],
    [':',':',':'],
    {
      tag:'PERSON',
      content:
      [
        ['Modern','NNP','modern'],
        ['Dance','NNP','dant'],
        ['Pioneer','NNP','pion']
      ]
    },
    [',',',',','],
    ['was','VBD','be'],
    ['published','VBN','publ'],
    ['by','IN','by'],
    {
      tag:'PERSON',
      content:
      [
        ['Marian','NNP','mar'],
        ['Horosko','NNP','horosko']
      ]
    },
    ['.','.','.']
  ]
},
{
  tag:'S',
  content:
  [
    ['==','NN','=='],
    ['References','NNS','ref'],
    ['==',':','=='],
    ['==',':','=='],
    ['External','NNP','extern'],
    ['links','NNS','link'],
    ['==',':','=='],
    ['*Chujoy','JJ','*chujoy'],
    [',',',',','],
    {
      tag:'PERSON',
      content:
      [
        ['Anatole','NNP','anatol']
      ]
    },
    ['.','.','.']
  ]
},
{
  tag:'S',
  content:
  [
    ['The','DT','The'],
    {
      tag:'ORGANIZATION',
      content:
      [
        ['Dance','NNP','dant'],
        ['Encyclopedia','NNP','encycloped']
      ]
    },
    ['.','.','.']
  ]
},
{
  tag:'S',
  content:
  [
    ['(','NN','('],
    {
      tag:'PERSON',
      content:
      [
        ['Simon','NNP','simon']
      ]
    },
    ['and','CC','and'],
    {
      tag:'PERSON',
      content:
      [
        ['Schuster','NNP','schuster']
      ]
    },
    [',',',',','],
    ['1967','CD','1967'],
    [')',':',')'],
    ['ISBN','NNP','isbn'],
    ['0-671-24027-7','CD','0-671-24027-7'],
    ['*McDonagh','JJ','*mcdonagh'],
    [',',',',','],
    {
      tag:'PERSON',
      content:
      [
        ['Don','NNP','don'],
        ['The','NNP','the'],
        ['Complete','NNP','complet'],
        ['Guide','NNP','guid']
      ]
    },
    ['to','TO','to'],
    {
      tag:'PERSON',
      content:
      [
        ['Modern','NNP','modern'],
        ['Dance','NNP','dant']
      ]
    },
    ['.','.','.']
  ]
},
{
  tag:'S',
  content:
  [
    ['(','NN','('],
    ['Doubleday','NNP','doubleday'],
    ['and','CC','and'],
    {
      tag:'ORGANIZATION',
      content:
      [
        ['Company','NNP','company']
      ]
    },
    [',',',',','],
    ['1976','CD','1976'],
    [')',':',')'],
    ['ISBN','NNP','isbn'],
    ['0-385-05055-0','CD','0-385-05055-0'],
    ['*The','NNP','*the'],
    {
      tag:'GPE',
      content:
      [
        ['New','NNP','new'],
        ['York','NNP','york'],
        ['Times','NNP','tim']
      ]
    },
    [',',',',','],
    ['February','NNP','febru'],
    ['7','CD','7'],
    [',',',',','],
    ['2004','CD','2004'],
    ['*','-NONE-','*'],
    ['May','NNP','may'],
    ['O','NNP','o'],
    [''','POS','''],
    {
      tag:'ORGANIZATION',
      content:
      [
        ['Donnell','NNP','donnel']
      ]
    },
    ['and','CC','and'],
    {
      tag:'PERSON',
      content:
      [
        ['Marian','NNP','mar'],
        ['Horosko','NNP','horosko']
      ]
    },
    ['``','``','``'],
    ['May','NNP','may'],
    ['O'Donnell','NNP','o'donnell'],
    [':',':',':'],
    ['My','NNP','my'],
    ['Life','NNP','lif'],
    ['in','IN','in'],
    {
      tag:'GPE',
      content:
      [
        ['Dance','NNP','dant']
      ]
    },
    [',',',',','],
    ['1931-1951','CD','1931-1951'],
    ['''','''',''''],
    {
      tag:'PERSON',
      content:
      [
        ['Dance','NNP','dant'],
        ['Chronicle','NNP','chronicle']
      ]
    },
    [',',',',','],
    {
      tag:'PERSON',
      content:
      [
        ['Vol','NNP','vol']
      ]
    },
    ['.','.','.']
  ]
},
{
  tag:'S',
  content:
  [
    ['26','CD','26'],
    [',',',',','],
    ['No','DT','No'],
    ['.','.','.']
  ]
},
{
  tag:'S',
  content:
  [
    ['2','LS','2'],
    ['(','``','('],
    ['2003','CD','2003'],
    [')','CD',')'],
    [',',',',','],
    ['pp','NN','pp'],
    ['.','.','.']
  ]
},
{
  tag:'S',
  content:
  [
    ['189-217','CD','189-217'],
    ['.','.','.']
  ]
},
{
  tag:'S',
  content:
  [
    ['*','-NONE-','*'],
    ['May','MD','May'],
    ['O'Donnell','VB','o'donnell'],
    ['Papers','NNS','pap'],
    ['at','IN','at'],
    {
      tag:'ORGANIZATION',
      content:
      [
        ['Newberry','NNP','newberry']
      ]
    },
    ['Library','NNP','libr']
  ]
}]