[
{
  tag:'S',
  content:
  [
    {
      tag:'PERSON',
      content:
      [
        ['Anna','NNP','ann']
      ]
    },
    {
      tag:'ORGANIZATION',
      content:
      [
        ['Sokolow','NNP','sokolow']
      ]
    },
    ['(','NNP','('],
    ['February','NNP','febru'],
    ['9','CD','9'],
    [',',',',','],
    ['1910','CD','1910'],
    [',',',',','],
    {
      tag:'GSP',
      content:
      [
        ['Hartford','NNP','hartford']
      ]
    },
    [',',',',','],
    {
      tag:'GSP',
      content:
      [
        ['Connecticut','NNP','connecticut']
      ]
    },
    ['&','CC','&'],
    ['ndash','NN','ndash'],
    [';',':',';'],
    ['March','NNP','march'],
    ['29','CD','29'],
    [',',',',','],
    ['2000','CD','2000'],
    ['in','IN','in'],
    {
      tag:'GPE',
      content:
      [
        ['New','NNP','new'],
        ['York','NNP','york'],
        ['City','NNP','city']
      ]
    },
    [',',',',','],
    {
      tag:'GPE',
      content:
      [
        ['New','NNP','new'],
        ['York','NNP','york']
      ]
    },
    [')','NNP',')'],
    ['was','VBD','be'],
    ['an','DT','an'],
    {
      tag:'GPE',
      content:
      [
        ['American','JJ','am']
      ]
    },
    ['dancer','NN','dant'],
    ['and','CC','and'],
    ['choreographer','NN','choreograph'],
    ['.','.','.']
  ]
},
{
  tag:'S',
  content:
  [
    ['She','PRP','She'],
    ['was','VBD','be'],
    ['also','RB','also'],
    ['a','DT','a'],
    ['co-founder','JJ','co-founder'],
    ['of','IN','of'],
    ['the','DT','the'],
    {
      tag:'ORGANIZATION',
      content:
      [
        ['Actors','NNP','act'],
        ['Studio','NNP','studio']
      ]
    },
    ['.','.','.']
  ]
},
{
  tag:'S',
  content:
  [
    ['==Training==','NN','==training=='],
    {
      tag:'PERSON',
      content:
      [
        ['Sokolow','NNP','sokolow']
      ]
    },
    ['began','VBD','begin'],
    ['studying','VBG','study'],
    ['dance','NN','dant'],
    ['and','CC','and'],
    ['performing','VBG','perform'],
    ['with','IN','with'],
    ['instructors','NNS','instruct'],
    ['at','IN','at'],
    ['the','DT','the'],
    {
      tag:'ORGANIZATION',
      content:
      [
        ['Emanuel','NNP','emanuel'],
        ['Sisterhood','NNP','sist'],
        ['Settlement','NNP','settl'],
        ['House','NNP','hous']
      ]
    },
    [';',':',';'],
    ['in','IN','in'],
    ['early','JJ','ear'],
    ['adolescence','NN','adolesc'],
    [',',',',','],
    ['she','PRP','she'],
    ['left','VBD','leav'],
    ['school','NN','school'],
    ['to','TO','to'],
    ['train','VB','train'],
    ['full-time','JJ','full-time'],
    ['.','.','.']
  ]
},
{
  tag:'S',
  content:
  [
    ['She','PRP','She'],
    ['began','VBD','begin'],
    ['studying','VBG','study'],
    ['in','IN','in'],
    ['earnest','JJS','earnest'],
    ['at','IN','at'],
    ['what','WP','what'],
    ['became','VBD','becom'],
    ['the','DT','the'],
    {
      tag:'ORGANIZATION',
      content:
      [
        ['Neighborhood','NNP','neighb'],
        ['Playhouse','NNP','playh']
      ]
    },
    [',',',',','],
    ['where','WRB','where'],
    ['her','PRP$','her'],
    ['teachers','NNS','teach'],
    ['included','VBD','includ'],
    {
      tag:'PERSON',
      content:
      [
        ['Blanche','NNP','blanch'],
        ['Talmud','NNP','talmud']
      ]
    },
    [',',',',','],
    {
      tag:'PERSON',
      content:
      [
        ['Bird','NNP','bird'],
        ['Larson','NNP','larson']
      ]
    },
    [',',',',','],
    {
      tag:'PERSON',
      content:
      [
        ['Martha','NNP','marth'],
        ['Graham','NNP','graham']
      ]
    },
    ['and','CC','and'],
    {
      tag:'PERSON',
      content:
      [
        ['Louis','NNP','lou'],
        ['Horst','NNP','horst']
      ]
    },
    ['.','.','.']
  ]
},
{
  tag:'S',
  content:
  [
    ['==Career==','NN','==career=='],
    ['She','PRP','She'],
    ['started','VBD','start'],
    ['her','PRP$','her'],
    ['professional','JJ','profess'],
    ['career','NN','car'],
    ['in','IN','in'],
    ['1929','CD','1929'],
    ['as','IN','as'],
    ['a','DT','a'],
    ['member','NN','memb'],
    ['of','IN','of'],
    {
      tag:'PERSON',
      content:
      [
        ['Martha','NNP','marth'],
        ['Graham','NNP','graham']
      ]
    },
    [''s','POS',''s'],
    ['company','NN','company'],
    ['.','.','.']
  ]
},
{
  tag:'S',
  content:
  [
    ['Beginning','VBG','begin'],
    ['in','IN','in'],
    ['the','DT','the'],
    ['1930s','CD','1930s'],
    [',',',',','],
    ['she','PRP','she'],
    ['affiliated','VBD','affy'],
    ['herself','PRP','herself'],
    ['with','IN','with'],
    ['the','DT','the'],
    ['politicized','JJ','polit'],
    ['``','``','``'],
    ['radical','JJ','rad'],
    ['dance','NN','dant'],
    ['''','''',''''],
    ['movement','NN','mov'],
    [',',',',','],
    ['out','IN','out'],
    ['of','IN','of'],
    ['which','WDT','which'],
    ['developed','VBN','develop'],
    ['her','PRP$','her'],
    ['work','NN','work'],
    ['Anti-War','NN','anti-war'],
    {
      tag:'PERSON',
      content:
      [
        ['Trilogy','NNP','trilog']
      ]
    },
    ['(','NNP','('],
    ['1933','CD','1933'],
    [')','CD',')'],
    ['.','.','.']
  ]
},
{
  tag:'S',
  content:
  [
    ['By','IN','By'],
    ['1936','CD','1936'],
    [',',',',','],
    ['she','PRP','she'],
    ['had','VBD','hav'],
    ['organized','VBN','org'],
    ['her','PRP$','her'],
    ['first','JJ','first'],
    ['company','NN','company'],
    [',',',',','],
    {
      tag:'PERSON',
      content:
      [
        ['Dance','NNP','dant'],
        ['Unit','NNP','unit']
      ]
    },
    ['.','.','.']
  ]
},
{
  tag:'S',
  content:
  [
    {
      tag:'PERSON',
      content:
      [
        ['Sokolow','NNP','sokolow']
      ]
    },
    ['was','VBD','be'],
    ['also','RB','also'],
    ['associated','VBN','assocy'],
    ['with','IN','with'],
    ['the','DT','the'],
    ['socially','RB','soc'],
    ['conscious','JJ','conscy'],
    ['collective','JJ','collect'],
    ['the','DT','the'],
    {
      tag:'ORGANIZATION',
      content:
      [
        ['New','NNP','new'],
        ['Dance','NNP','dant'],
        ['Group','NNP','group']
      ]
    },
    ['and','CC','and'],
    ['the','DT','the'],
    ['larger','JJR','larg'],
    ['Workers','NNS','work'],
    {
      tag:'PERSON',
      content:
      [
        ['Dance','NNP','dant'],
        ['League','NNP','leagu']
      ]
    },
    ['.','.','.']
  ]
},
{
  tag:'S',
  content:
  [
    ['According','VBG','accord'],
    ['to','TO','to'],
    ['dance','NN','dant'],
    ['historian','NN','hist'],
    {
      tag:'PERSON',
      content:
      [
        ['Ellen','NNP','el'],
        ['Graff','NNP','graff']
      ]
    },
    [',',',',','],
    {
      tag:'PERSON',
      content:
      [
        ['Sokolow','NNP','sokolow']
      ]
    },
    [''s','POS',''s'],
    ['work','NN','work'],
    ['with','IN','with'],
    ['these','DT','these'],
    ['groups','NNS','group'],
    ['was','VBD','be'],
    ['instrumental','JJ','instru'],
    ['in','IN','in'],
    ['transforming','NN','transform'],
    ['the','DT','the'],
    ['``','``','``'],
    ['agitprop','NN','agitprop'],
    ['style','NN','styl'],
    ['''','''',''''],
    ['associated','VBN','assocy'],
    ['with','IN','with'],
    ['early','JJ','ear'],
    ['political','JJ','polit'],
    ['dance','NN','dant'],
    ['by','IN','by'],
    ['melding','NN','meld'],
    ['it','PRP','it'],
    ['with','IN','with'],
    ['``','``','``'],
    ['emerging','VBG','emerg'],
    ['professional','JJ','profess'],
    ['and','CC','and'],
    ['artistic','JJ','art'],
    ['standards','NNS','standard'],
    ['in','IN','in'],
    [''new','JJ',''new'],
    [''','POS','''],
    ['dance','NN','dant'],
    ['.','.','.']
  ]
},
{
  tag:'S',
  content:
  [
    ['``','``','``'],
    ['Throughout','IN','Throughout'],
    ['the','DT','the'],
    ['1930s','CD','1930s'],
    ['and','CC','and'],
    ['1940s','CD','1940s'],
    [',',',',','],
    ['she','PRP','she'],
    ['performed','VBD','perform'],
    ['and','CC','and'],
    ['choreographed','VBN','choreograph'],
    ['both','DT','both'],
    ['solo','NN','solo'],
    ['and','CC','and'],
    ['ensemble','JJ','ensembl'],
    ['works','NNS','work'],
    [',',',',','],
    ['which','WDT','which'],
    ['tackled','VBN','tackl'],
    ['subject','JJ','subject'],
    ['matter','NN','mat'],
    ['that','WDT','that'],
    ['included','VBD','includ'],
    ['the','DT','the'],
    ['exploitation','NN','exploit'],
    ['of','IN','of'],
    ['workers','NNS','work'],
    ['and','CC','and'],
    ['growing','VBG','grow'],
    ['troubles','NNS','troubl'],
    ['of','IN','of'],
    ['Jews','NNS','jew'],
    ['in','IN','in'],
    {
      tag:'GPE',
      content:
      [
        ['Germany','NNP','germany']
      ]
    },
    ['.','.','.']
  ]
},
{
  tag:'S',
  content:
  [
    ['Several','JJ','sev'],
    ['works','NNS','work'],
    ['from','IN','from'],
    ['this','DT','this'],
    ['period','NN','period'],
    [',',',',','],
    ['including','VBG','includ'],
    ['Anti-War','NN','anti-war'],
    {
      tag:'PERSON',
      content:
      [
        ['Trilogy','NNP','trilog']
      ]
    },
    [',',',',','],
    ['were','VBD','be'],
    ['set','VBN','set'],
    ['to','TO','to'],
    ['music','JJ','mus'],
    ['by','IN','by'],
    ['the','DT','the'],
    ['composer','NN','compos'],
    {
      tag:'PERSON',
      content:
      [
        ['Alex','NNP','alex'],
        ['North','NNP','nor']
      ]
    },
    ['.','.','.']
  ]
},
{
  tag:'S',
  content:
  [
    ['In','IN','In'],
    ['1939','CD','1939'],
    [',',',',','],
    {
      tag:'PERSON',
      content:
      [
        ['Sokolow','NNP','sokolow']
      ]
    },
    ['began','VBD','begin'],
    ['a','DT','a'],
    ['lifelong','JJ','lifelong'],
    ['association','NN','assocy'],
    ['with','IN','with'],
    ['the','DT','the'],
    ['dance','NN','dant'],
    ['in','IN','in'],
    {
      tag:'GPE',
      content:
      [
        ['Mexico','NNP','mexico']
      ]
    },
    ['and','CC','and'],
    {
      tag:'GPE',
      content:
      [
        ['Israel','NNP','israel']
      ]
    },
    ['.','.','.']
  ]
},
{
  tag:'S',
  content:
  [
    ['Her','PRP$','Her'],
    ['work','NN','work'],
    ['for','IN','for'],
    ['the','DT','the'],
    ['Secretariat','NNP','secret'],
    ['of','IN','of'],
    {
      tag:'ORGANIZATION',
      content:
      [
        ['Public','NNP','publ'],
        ['Education','NNP','educ']
      ]
    },
    ['facilitated','VBD','facilit'],
    ['the','DT','the'],
    ['establishment','NN','est'],
    ['of','IN','of'],
    ['the','DT','the'],
    {
      tag:'ORGANIZATION',
      content:
      [
        ['National','NNP','nat'],
        ['Academy','NNP','academy']
      ]
    },
    ['of','IN','of'],
    {
      tag:'GPE',
      content:
      [
        ['Dance','NNP','dant']
      ]
    },
    ['.','.','.']
  ]
},
{
  tag:'S',
  content:
  [
    ['In','IN','In'],
    {
      tag:'GPE',
      content:
      [
        ['Israel','NNP','israel']
      ]
    },
    [',',',',','],
    ['she','PRP','she'],
    ['choreographed','VBD','choreograph'],
    ['for','IN','for'],
    ['major','JJ','maj'],
    ['dance','NN','dant'],
    ['companies','NNS','company'],
    [',',',',','],
    ['including','VBG','includ'],
    {
      tag:'PERSON',
      content:
      [
        ['Batsheva','NNP','batshev']
      ]
    },
    [',',',',','],
    {
      tag:'PERSON',
      content:
      [
        ['Inbal','NNP','inb']
      ]
    },
    [',',',',','],
    ['and','CC','and'],
    ['the','DT','the'],
    {
      tag:'ORGANIZATION',
      content:
      [
        ['Lyric','NNP','lyr'],
        ['Theatre','NNP','the']
      ]
    },
    ['.','.','.']
  ]
},
{
  tag:'S',
  content:
  [
    {
      tag:'PERSON',
      content:
      [
        ['Sokolow','NNP','sokolow']
      ]
    },
    ['created','VBD','cre'],
    ['works','NNS','work'],
    ['full','JJ','ful'],
    ['of','IN','of'],
    ['dramatic','JJ','dram'],
    ['contemporary','JJ','contemp'],
    ['imagery','NN','imagery'],
    [',',',',','],
    ['revealing','VBG','rev'],
    ['the','DT','the'],
    ['full','JJ','ful'],
    ['spectrum','NN','spectr'],
    ['of','IN','of'],
    ['human','JJ','hum'],
    ['experience','NN','expery'],
    ['and','CC','and'],
    ['reflecting','VBG','reflect'],
    ['the','DT','the'],
    ['tension','NN','tend'],
    ['and','CC','and'],
    ['alienation','NN','aly'],
    ['of','IN','of'],
    ['her','PRP$','her'],
    ['time','NN','tim'],
    ['.','.','.']
  ]
},
{
  tag:'S',
  content:
  [
    ['Rooms','NNS','room'],
    ['(','VBP','('],
    ['1955','CD','1955'],
    [')','CD',')'],
    [',',',',','],
    ['featuring','VBG','feat'],
    ['music','NN','mus'],
    ['composed','VBD','compos'],
    ['by','IN','by'],
    {
      tag:'PERSON',
      content:
      [
        ['Kenyon','NNP','kenyon'],
        ['Hopkins','NNP','hopkin']
      ]
    },
    ['for','IN','for'],
    ['a','DT','a'],
    ['jazz','NN','jazz'],
    ['ensemble','JJ','ensembl'],
    [',',',',','],
    ['dealt','NN','dealt'],
    ['with','IN','with'],
    ['urban','NN','urb'],
    ['alienation','NN','aly'],
    [',',',',','],
    ['while','IN','while'],
    {
      tag:'PERSON',
      content:
      [
        ['Dreams','NNP','dream']
      ]
    },
    ['(','NNP','('],
    ['1961','CD','1961'],
    [')','CD',')'],
    ['grew','NN','grew'],
    ['from','IN','from'],
    ['the','DT','the'],
    ['horrors','NNS','hor'],
    ['of','IN','of'],
    ['the','DT','the'],
    ['Holocaust','NNP','holocaust'],
    ['.','.','.']
  ]
},
{
  tag:'S',
  content:
  [
    ['Other','JJ','oth'],
    ['major','JJ','maj'],
    ['modern','NN','modern'],
    ['dance','NN','dant'],
    ['works','NNS','work'],
    ['included','VBD','includ'],
    {
      tag:'PERSON',
      content:
      [
        ['Lyric','NNP','lyr'],
        ['Suite','NNP','suit']
      ]
    },
    ['(','NNP','('],
    ['1954','CD','1954'],
    [')','CD',')'],
    [',',',',','],
    {
      tag:'GPE',
      content:
      [
        ['Odes','NNP','od']
      ]
    },
    ['(','NNP','('],
    ['1965','CD','1965'],
    [')','CD',')'],
    [',',',',','],
    ['and','CC','and'],
    ['Opus','NNP','op'],
    ['65','CD','65'],
    ['(','CD','('],
    ['1965','CD','1965'],
    [')','CD',')'],
    ['.','.','.']
  ]
},
{
  tag:'S',
  content:
  [
    ['In','IN','In'],
    ['1991','CD','1991'],
    [',',',',','],
    {
      tag:'PERSON',
      content:
      [
        ['Anna','NNP','ann'],
        ['Kisselgoff','NNP','kisselgoff']
      ]
    },
    ['summed','VBD','sum'],
    ['up','RP','up'],
    {
      tag:'PERSON',
      content:
      [
        ['Sokolow','NNP','sokolow']
      ]
    },
    [''s','POS',''s'],
    ['aesthetic','JJ','aesthet'],
    ['as','IN','as'],
    ['``','``','``'],
    {
      tag:'ORGANIZATION',
      content:
      [
        ['American','JJ','am'],
        ['Expressionism','NNP','express']
      ]
    },
    [',',',',','],
    ['''','''',''''],
    ['and','CC','and'],
    ['commented','VBD','com'],
    ['that','IN','that'],
    ['``','``','``'],
    ['Stillness','NNP','stil'],
    ['is','VBZ','be'],
    ['a','DT','a'],
    ['large','JJ','larg'],
    ['part','NN','part'],
    ['of','IN','of'],
    ['her','PRP$','her'],
    ['choreography','NN','choreograph'],
    [',',',',','],
    ['and','CC','and'],
    {
      tag:'PERSON',
      content:
      [
        ['Miss','NNP','miss'],
        ['Sokolow','NNP','sokolow']
      ]
    },
    ['can','MD','can'],
    ['sum','VB','sum'],
    ['up','RP','up'],
    ['a','DT','a'],
    ['state','NN','stat'],
    ['of','IN','of'],
    ['being','VBG','be'],
    ['--',':','--'],
    ['an','DT','an'],
    ['entire','JJ','entir'],
    ['society','NN','socy'],
    ['--',':','--'],
    ['in','IN','in'],
    ['an','DT','an'],
    ['arrested','VBN','arrest'],
    ['pose','NN','pos'],
    ['.','.','.']
  ]
},
{
  tag:'S',
  content:
  [
    ['``','``','``'],
    ['In','IN','In'],
    ['addition','NN','addit'],
    ['to','TO','to'],
    ['her','PRP$','her'],
    ['work','NN','work'],
    ['as','IN','as'],
    ['a','DT','a'],
    ['choreographer','NN','choreograph'],
    [',',',',','],
    {
      tag:'PERSON',
      content:
      [
        ['Sokolow','NNP','sokolow']
      ]
    },
    ['was','VBD','be'],
    ['also','RB','also'],
    ['an','DT','an'],
    ['influential','JJ','influ'],
    ['teacher','NN','teach'],
    ['of','IN','of'],
    ['both','DT','both'],
    ['dance','NN','dant'],
    ['and','CC','and'],
    ['movement','NN','mov'],
    ['for','IN','for'],
    ['actors','NNS','act'],
    ['.','.','.']
  ]
},
{
  tag:'S',
  content:
  [
    ['At','IN','At'],
    {
      tag:'ORGANIZATION',
      content:
      [
        ['Juilliard','NNP','juilliard']
      ]
    },
    [',',',',','],
    ['she','PRP','she'],
    ['taught','VBD','teach'],
    ['what','WP','what'],
    ['she','PRP','she'],
    ['called','VBD','cal'],
    ['``','``','``'],
    ['method','NN','method'],
    ['dancing','VBG','dant'],
    ['''','''',''''],
    ['from','IN','from'],
    ['1958','CD','1958'],
    ['to','TO','to'],
    ['1993','CD','1993'],
    ['.','.','.']
  ]
},
{
  tag:'S',
  content:
  [
    {
      tag:'PERSON',
      content:
      [
        ['Sokolow','NNP','sokolow']
      ]
    },
    ['was','VBD','be'],
    ['inducted','VBN','induc'],
    ['into','IN','into'],
    ['the','DT','the'],
    {
      tag:'ORGANIZATION',
      content:
      [
        ['National','NNP','nat'],
        ['Museum','NNP','muse']
      ]
    },
    ['of','IN','of'],
    {
      tag:'GPE',
      content:
      [
        ['Dance','NNP','dant']
      ]
    },
    [''s','POS',''s'],
    ['Mr.','NNP','mr.'],
    ['&','CC','&'],
    ['Mrs.','NNP','mrs.'],
    {
      tag:'PERSON',
      content:
      [
        ['Cornelius','NNP','corneli'],
        ['Vanderbilt','NNP','vanderbilt'],
        ['Whitney','NNP','whitney'],
        ['Hall','NNP','hal']
      ]
    },
    ['of','IN','of'],
    {
      tag:'GPE',
      content:
      [
        ['Fame','NNP','fam']
      ]
    },
    ['in','IN','in'],
    ['1998','CD','1998'],
    ['.','.','.']
  ]
},
{
  tag:'S',
  content:
  [
    ['==Repertory==','NN','==repertory=='],
    ['Since','IN','Since'],
    ['the','DT','the'],
    ['dispersal','NN','dispers'],
    ['of','IN','of'],
    {
      tag:'PERSON',
      content:
      [
        ['Anna','NNP','ann'],
        ['Sokolow','NNP','sokolow']
      ]
    },
    [''s','POS',''s'],
    ['company—Players','NNS','company—players'],
    [''','POS','''],
    ['Project—in','JJ','project—in'],
    ['2004','CD','2004'],
    [',',',',','],
    ['its','PRP$','its'],
    ['former','JJ','form'],
    ['co-artistic','JJ','co-artistic'],
    ['directors','NNS','direct'],
    ['have','VBP','hav'],
    ['formed','VBN','form'],
    ['separate','JJ','sep'],
    ['institutions','NNS','institut'],
    ['to','TO','to'],
    ['maintain','VB','maintain'],
    {
      tag:'PERSON',
      content:
      [
        ['Sokolow','NNP','sokolow']
      ]
    },
    [''s','POS',''s'],
    ['Legacy','NNP','leg'],
    ['.','.','.']
  ]
},
{
  tag:'S',
  content:
  [
    ['The','DT','The'],
    {
      tag:'ORGANIZATION',
      content:
      [
        ['Sokolow','NNP','sokolow']
      ]
    },
    ['Theatre','NNP','the'],
    ['Dance','NNP','dant'],
    ['Ensemble','NNP','ensembl'],
    ['performs','VBZ','perform'],
    {
      tag:'PERSON',
      content:
      [
        ['Sokolow','NNP','sokolow']
      ]
    },
    [''s','POS',''s'],
    ['repertory','NN','repert'],
    ['plus','CC','plus'],
    ['contemporary','JJ','contemp'],
    ['choreographies','NNS','choreograph'],
    ['under','IN','under'],
    ['the','DT','the'],
    ['direction','NN','direct'],
    ['of','IN','of'],
    {
      tag:'PERSON',
      content:
      [
        ['Jim','NNP','jim'],
        ['May','NNP','may']
      ]
    },
    ['.','.','.']
  ]
},
{
  tag:'S',
  content:
  [
    ['The','DT','The'],
    {
      tag:'ORGANIZATION',
      content:
      [
        ['Sokolow','NNP','sokolow']
      ]
    },
    ['Theatre','NNP','the'],
    ['Dance','NNP','dant'],
    ['Ensemble','NNP','ensembl'],
    ['offers','VBZ','off'],
    ['educational','JJ','educ'],
    ['programs','NNS','program'],
    [',',',',','],
    ['professional','JJ','profess'],
    ['workshops','NNS','workshop'],
    [',',',',','],
    ['coaching','VBG','coach'],
    [',',',',','],
    ['and','CC','and'],
    ['actively','RB','act'],
    ['licenses','NNS','licens'],
    ['and','CC','and'],
    ['reconstructs','NNS','reconstruct'],
    {
      tag:'PERSON',
      content:
      [
        ['Sokolow','NNP','sokolow']
      ]
    },
    [''s','POS',''s'],
    ['works','NNS','work'],
    ['.','.','.']
  ]
},
{
  tag:'S',
  content:
  [
    {
      tag:'PERSON',
      content:
      [
        ['Sokolow','NNP','sokolow']
      ]
    },
    ['Now','NNP','now'],
    ['!','.','!'],
    [',',',',','],
    ['the','DT','the'],
    ['archival','NN','arch'],
    ['dance','NN','dant'],
    ['company','NN','company'],
    ['of','IN','of'],
    ['the','DT','the'],
    {
      tag:'ORGANIZATION',
      content:
      [
        ['Sokolow','NNP','sokolow'],
        ['Dance','NNP','dant'],
        ['Foundation','NNP','found']
      ]
    },
    [',',',',','],
    ['performs','VBZ','perform'],
    {
      tag:'PERSON',
      content:
      [
        ['Sokolow','NNP','sokolow']
      ]
    },
    [''s','POS',''s'],
    ['repertory','NN','repert'],
    ['exclusively','RB','exclud'],
    ['and','CC','and'],
    ['is','VBZ','be'],
    ['under','IN','under'],
    ['the','DT','the'],
    ['direction','NN','direct'],
    ['of','IN','of'],
    {
      tag:'PERSON',
      content:
      [
        ['Lorry','NNP','lorry'],
        ['May','NNP','may']
      ]
    },
    ['.','.','.']
  ]
},
{
  tag:'S',
  content:
  [
    ['The','DT','The'],
    ['foundation','NN','found'],
    ['also','RB','also'],
    ['offers','VBZ','off'],
    ['unique','JJ','un'],
    ['educational','JJ','educ'],
    ['programs','NNS','program'],
    ['and','CC','and'],
    ['actively','RB','act'],
    ['licenses','NNS','licens'],
    ['and','CC','and'],
    ['reconstructs','NNS','reconstruct'],
    {
      tag:'PERSON',
      content:
      [
        ['Sokolow','NNP','sokolow']
      ]
    },
    [''s','POS',''s'],
    ['works','NNS','work'],
    ['.','.','.']
  ]
},
{
  tag:'S',
  content:
  [
    ['Many','JJ','many'],
    ['of','IN','of'],
    {
      tag:'PERSON',
      content:
      [
        ['Sokolow','NNP','sokolow']
      ]
    },
    [''s','POS',''s'],
    ['works','NNS','work'],
    ['were','VBD','be'],
    ['filmed','VBN','film'],
    ['and','CC','and'],
    ['are','VBP','be'],
    ['held','VBN','hold'],
    ['at','IN','at'],
    ['the','DT','the'],
    {
      tag:'GPE',
      content:
      [
        ['New','NNP','new'],
        ['York','NNP','york']
      ]
    },
    {
      tag:'PERSON',
      content:
      [
        ['Public','NNP','publ'],
        ['Library','NNP','libr']
      ]
    },
    ['in','IN','in'],
    ['its','PRP$','its'],
    {
      tag:'PERSON',
      content:
      [
        ['Dance','NNP','dant'],
        ['Division','NNP','divid']
      ]
    },
    ['.','.','.']
  ]
},
{
  tag:'S',
  content:
  [
    ['==Works','NNS','==works'],
    ['for','IN','for'],
    ['Broadway==','JJ','broadway=='],
    ['*Noah','JJ','*noah'],
    ['(','NN','('],
    ['1935','CD','1935'],
    [')','CD',')'],
    ['-',':','-'],
    ['play','NN','play'],
    ['with','IN','with'],
    ['music','JJ','mus'],
    ['by','IN','by'],
    {
      tag:'PERSON',
      content:
      [
        ['Louis','NNP','lou'],
        ['Horst','NNP','horst']
      ]
    },
    ['-',':','-'],
    ['co-choreographer','JJ','co-choreographer'],
    ['*Sing','JJ','*sing'],
    ['for','IN','for'],
    ['Your','NNP','yo'],
    ['Supper','NNP','sup'],
    ['(','NNP','('],
    ['1939','CD','1939'],
    [')','CD',')'],
    ['-',':','-'],
    ['revue','JJ','revu'],
    ['-',':','-'],
    ['co-choreographer','JJ','co-choreographer'],
    ['*Street','JJ','*street'],
    ['Scene','NNP','scen'],
    ['(','NNP','('],
    ['1947','CD','1947'],
    [')','CD',')'],
    ['-',':','-'],
    ['musical','JJ','mus'],
    ['-',':','-'],
    ['choreographer','NN','choreograph'],
    ['*The','NN','*the'],
    {
      tag:'PERSON',
      content:
      [
        ['Great','NNP','gre'],
        ['Campaign','NNP','campaign']
      ]
    },
    ['(','NNP','('],
    ['1947','CD','1947'],
    [')','CD',')'],
    ['-',':','-'],
    ['play','NN','play'],
    ['-',':','-'],
    ['choreographer','NN','choreograph'],
    ['*Sleepy','JJ','*sleepy'],
    {
      tag:'GPE',
      content:
      [
        ['Hollow','NNP','hollow']
      ]
    },
    ['(','NNP','('],
    ['1948','CD','1948'],
    [')','CD',')'],
    ['-',':','-'],
    ['musical','JJ','mus'],
    ['-',':','-'],
    ['choreographer','NN','choreograph'],
    ['*Regina','-NONE-','*Regina'],
    ['(','.','('],
    ['1949','CD','1949'],
    [')','CD',')'],
    ['-',':','-'],
    ['opera','NN','oper'],
    ['-',':','-'],
    ['choreographer','NN','choreograph'],
    ['*Happy','JJ','*happy'],
    ['as','IN','as'],
    {
      tag:'PERSON',
      content:
      [
        ['Larry','NNP','larry']
      ]
    },
    ['(','NNP','('],
    ['1950','CD','1950'],
    [')','CD',')'],
    ['-',':','-'],
    ['musical','JJ','mus'],
    ['-',':','-'],
    ['choreographer','NN','choreograph'],
    ['*Camino','-NONE-','*Camino'],
    {
      tag:'ORGANIZATION',
      content:
      [
        ['Real','NNP','real']
      ]
    },
    ['(','NNP','('],
    ['1953','CD','1953'],
    [')','CD',')'],
    ['-',':','-'],
    ['play','NN','play'],
    ['-',':','-'],
    ['directing','VBG','direct'],
    ['assistant','NN','assist'],
    ['*Red','JJ','*red'],
    ['Roses','NNS','ros'],
    ['for','IN','for'],
    ['Me','PRP','Me'],
    ['(',':','('],
    ['1955','CD','1955'],
    [')','CD',')'],
    ['-',':','-'],
    ['play','NN','play'],
    ['-',':','-'],
    ['choreographer','NN','choreograph'],
    ['-',':','-'],
    {
      tag:'PERSON',
      content:
      [
        ['Tony','NNP','tony'],
        ['Nomination','NNP','nomin']
      ]
    },
    ['for','IN','for'],
    {
      tag:'PERSON',
      content:
      [
        ['Best','NNP','best'],
        ['Choreography','NNP','choreograph']
      ]
    },
    ['*Candide','NNP','*candide'],
    ['(','NNP','('],
    ['1956','CD','1956'],
    [')','CD',')'],
    ['-',':','-'],
    ['operetta','NN','operett'],
    ['-',':','-'],
    ['choreographer','NN','choreograph'],
    ['*Copper','NN','*copper'],
    ['and','CC','and'],
    {
      tag:'ORGANIZATION',
      content:
      [
        ['Brass','NNP','brass']
      ]
    },
    ['(','NNP','('],
    ['1957','CD','1957'],
    [')','CD',')'],
    ['-',':','-'],
    ['musical','JJ','mus'],
    ['-',':','-'],
    ['choreographer','NN','choreograph'],
    ['*Clothes','NNS','*clothes'],
    ['for','IN','for'],
    ['a','DT','a'],
    ['Summer','NNP','sum'],
    ['Hotel','NNP','hotel'],
    ['(','NNP','('],
    ['1980','CD','1980'],
    [')','CD',')'],
    ['-',':','-'],
    ['dance','NN','dant'],
    ['consultant','NN','consult'],
    ['==References==','NN','==references=='],
    ['==External','JJ','==external'],
    ['links==','NN','links=='],
    ['*Sokolow','JJ','*sokolow'],
    ['Theatre/Dance','NN','theatre/danc'],
    {
      tag:'PERSON',
      content:
      [
        ['Ensemble','NNP','ensembl']
      ]
    },
    ['*Sokolow','NNP','*sokolow'],
    {
      tag:'PERSON',
      content:
      [
        ['Dance','NNP','dant'],
        ['Foundation','NNP','found']
      ]
    },
    ['*Women','NNP','*women'],
    ['of','IN','of'],
    {
      tag:'GPE',
      content:
      [
        ['Valor','NNP','val']
      ]
    },
    ['exhibit','NN','exhibit'],
    ['on','IN','on'],
    {
      tag:'PERSON',
      content:
      [
        ['Anna','NNP','ann'],
        ['Sokolow','NNP','sokolow']
      ]
    },
    ['at','IN','at'],
    ['the','DT','the'],
    ['Jewish','NNP','jew'],
    ['Women','NNP','wom'],
    [''s','POS',''s'],
    {
      tag:'PERSON',
      content:
      [
        ['Archive','NNP','arch']
      ]
    },
    ['*Anna','NNP','*anna'],
    ['Sokolow','NNP','sokolow'],
    ['at','IN','at'],
    ['the','DT','the'],
    ['Internet','NNP','internet'],
    {
      tag:'PERSON',
      content:
      [
        ['Broadway','NNP','broadway'],
        ['Database','NNP','databas']
      ]
    },
    ['*Anna','NNP','*anna'],
    ['Sokolow','NNP','sokolow'],
    ['from','IN','from'],
    ['My','NNP','my'],
    ['Point','NNP','point'],
    ['of','IN','of'],
    {
      tag:'GPE',
      content:
      [
        ['View','NNP','view']
      ]
    },
    ['(','NNP','('],
    ['website','NN','websit'],
    ['by','IN','by'],
    ['a','DT','a'],
    {
      tag:'GPE',
      content:
      [
        ['Sokolow','NNP','sokolow']
      ]
    },
    ['student','NN','stud'],
    [')',':',')'],
    ['*Obituary','JJ','*obituary'],
    ['from','IN','from'],
    {
      tag:'PERSON',
      content:
      [
        ['Dance','NNP','dant'],
        ['Magazine','NNP','magazin']
      ]
    },
    ['.','.','.']
  ]
},
{
  tag:'S',
  content:
  [
    ['*Celebration','NN','*celebration'],
    ['in','IN','in'],
    {
      tag:'GPE',
      content:
      [
        ['Pictures','NNP','pict']
      ]
    },
    [':',':',':'],
    {
      tag:'PERSON',
      content:
      [
        ['Anna','NNP','ann'],
        ['Sokolow','NNP','sokolow'],
        ['Centennial','NNP','centen']
      ]
    },
    ['at','IN','at'],
    ['the','DT','the'],
    {
      tag:'ORGANIZATION',
      content:
      [
        ['Dance','NNP','dant'],
        ['Library','NNP','libr']
      ]
    },
    ['of','IN','of'],
    {
      tag:'GPE',
      content:
      [
        ['Israel','NNP','israel']
      ]
    },
    ['-',':','-'],
    ['reflections','NNS','reflect'],
    ['of','IN','of'],
    ['Sokolow’s','NNS','sokolow’s'],
    ['influence','NN','influ'],
    ['on','IN','on'],
    ['dance','NN','dant'],
    ['in','IN','in'],
    {
      tag:'GPE',
      content:
      [
        ['Israel','NNP','israel']
      ]
    },
    ['(','NNP','('],
    ['by','IN','by'],
    {
      tag:'PERSON',
      content:
      [
        ['Hannah','NNP','hannah'],
        ['Kosstrin','NNP','kosstrin']
      ]
    },
    [',',',',','],
    {
      tag:'GPE',
      content:
      [
        ['Dance','NNP','dant']
      ]
    },
    ['researcher','NN','research'],
    [')',':',')']
  ]
}]